{"doc_id" : "",
 "DCT" : "",
 "category" : "",
 "category_weight" : 0,
 "title" : {"text" : "", "NE" : ""},
 "metaInfo" : { },
 "sentence" : [
	{
	"id" : 0,
	"reserve_str" : "",
	"text" : "이것은 1904년에 송수만, 심상진 등이 \"국가의 존망이 달린 것이므로 조그마한 땅도 양여할 수 없다\"는 목표와 의지를 내세워 창설한 항일 단체다.",
	"morp" : [
		{"id" : 0, "lemma" : "이것", "type" : "NP", "position" : 0, "weight" : 0.0733657 },
		{"id" : 1, "lemma" : "은", "type" : "JX", "position" : 6, "weight" : 0.191811 },
		{"id" : 2, "lemma" : "1904", "type" : "SN", "position" : 10, "weight" : 1 },
		{"id" : 3, "lemma" : "년", "type" : "NNB", "position" : 14, "weight" : 0.414343 },
		{"id" : 4, "lemma" : "에", "type" : "JKB", "position" : 17, "weight" : 0.135559 },
		{"id" : 5, "lemma" : "송수", "type" : "NNG", "position" : 21, "weight" : 0.166437 },
		{"id" : 6, "lemma" : "만", "type" : "JX", "position" : 27, "weight" : 0.0522241 },
		{"id" : 7, "lemma" : ",", "type" : "SP", "position" : 30, "weight" : 1 },
		{"id" : 8, "lemma" : "심상진", "type" : "NNP", "position" : 32, "weight" : 0.05 },
		{"id" : 9, "lemma" : "등", "type" : "NNB", "position" : 42, "weight" : 0.0459798 },
		{"id" : 10, "lemma" : "이", "type" : "JKS", "position" : 45, "weight" : 0.0376169 },
		{"id" : 11, "lemma" : "\"", "type" : "SS", "position" : 49, "weight" : 1 },
		{"id" : 12, "lemma" : "국가", "type" : "NNG", "position" : 50, "weight" : 0.199978 },
		{"id" : 13, "lemma" : "의", "type" : "JKG", "position" : 56, "weight" : 0.0694213 },
		{"id" : 14, "lemma" : "존망", "type" : "NNG", "position" : 60, "weight" : 0.9 },
		{"id" : 15, "lemma" : "이", "type" : "JKS", "position" : 66, "weight" : 0.0360723 },
		{"id" : 16, "lemma" : "달리", "type" : "VV", "position" : 70, "weight" : 0.177266 },
		{"id" : 17, "lemma" : "ㄴ", "type" : "ETM", "position" : 73, "weight" : 0.304215 },
		{"id" : 18, "lemma" : "것", "type" : "NNB", "position" : 77, "weight" : 0.228788 },
		{"id" : 19, "lemma" : "이", "type" : "VCP", "position" : 80, "weight" : 0.0607843 },
		{"id" : 20, "lemma" : "므로", "type" : "EC", "position" : 83, "weight" : 0.248421 },
		{"id" : 21, "lemma" : "조그마하", "type" : "VA", "position" : 90, "weight" : 0.9 },
		{"id" : 22, "lemma" : "ㄴ", "type" : "ETM", "position" : 99, "weight" : 0.430446 },
		{"id" : 23, "lemma" : "땅", "type" : "NNG", "position" : 103, "weight" : 0.657479 },
		{"id" : 24, "lemma" : "도", "type" : "JX", "position" : 106, "weight" : 0.0676272 },
		{"id" : 25, "lemma" : "양여", "type" : "NNG", "position" : 110, "weight" : 0.9 },
		{"id" : 26, "lemma" : "하", "type" : "XSV", "position" : 116, "weight" : 0.0001 },
		{"id" : 27, "lemma" : "ㄹ", "type" : "ETM", "position" : 116, "weight" : 0.387847 },
		{"id" : 28, "lemma" : "수", "type" : "NNB", "position" : 120, "weight" : 0.215617 },
		{"id" : 29, "lemma" : "없", "type" : "VA", "position" : 124, "weight" : 0.101269 },
		{"id" : 30, "lemma" : "다", "type" : "EF", "position" : 127, "weight" : 0.132573 },
		{"id" : 31, "lemma" : "\"", "type" : "SS", "position" : 130, "weight" : 1 },
		{"id" : 32, "lemma" : "는", "type" : "JX", "position" : 131, "weight" : 0.00823314 },
		{"id" : 33, "lemma" : "목표", "type" : "NNG", "position" : 135, "weight" : 0.9 },
		{"id" : 34, "lemma" : "와", "type" : "JC", "position" : 141, "weight" : 0.0169714 },
		{"id" : 35, "lemma" : "의지", "type" : "NNG", "position" : 145, "weight" : 0.802341 },
		{"id" : 36, "lemma" : "를", "type" : "JKO", "position" : 151, "weight" : 0.137686 },
		{"id" : 37, "lemma" : "내세우", "type" : "VV", "position" : 155, "weight" : 0.9 },
		{"id" : 38, "lemma" : "어", "type" : "EC", "position" : 161, "weight" : 0.41831 },
		{"id" : 39, "lemma" : "창설", "type" : "NNG", "position" : 165, "weight" : 0.9 },
		{"id" : 40, "lemma" : "하", "type" : "XSV", "position" : 171, "weight" : 0.0001 },
		{"id" : 41, "lemma" : "ㄴ", "type" : "ETM", "position" : 171, "weight" : 0.392321 },
		{"id" : 42, "lemma" : "항일", "type" : "NNG", "position" : 175, "weight" : 0.9 },
		{"id" : 43, "lemma" : "단체", "type" : "NNG", "position" : 182, "weight" : 0.184808 },
		{"id" : 44, "lemma" : "이", "type" : "VCP", "position" : 185, "weight" : 0.0177525 },
		{"id" : 45, "lemma" : "다", "type" : "EF", "position" : 188, "weight" : 0.353579 },
		{"id" : 46, "lemma" : ".", "type" : "SF", "position" : 191, "weight" : 1 }
	],
	"morp_eval" : [
		{"id" : 0, "result" : "이것/NP+은/JX", "target" : "이것은", "word_id" : 0, "m_begin" : 0, "m_end" : 1},
		{"id" : 1, "result" : "1904/SN+년/NNB+에/JKB", "target" : "1904년에", "word_id" : 1, "m_begin" : 2, "m_end" : 4},
		{"id" : 2, "result" : "송수/NNG+만/JX+,/SP", "target" : "송수만,", "word_id" : 2, "m_begin" : 5, "m_end" : 7},
		{"id" : 3, "result" : "심상진/NNG", "target" : "심상진", "word_id" : 3, "m_begin" : 8, "m_end" : 8},
		{"id" : 4, "result" : "등/NNB+이/JKS", "target" : "등이", "word_id" : 4, "m_begin" : 9, "m_end" : 10},
		{"id" : 5, "result" : "\"/SS+국가/NNG+의/JKG", "target" : "\"국가의", "word_id" : 5, "m_begin" : 11, "m_end" : 13},
		{"id" : 6, "result" : "존망/NNG+이/JKS", "target" : "존망이", "word_id" : 6, "m_begin" : 14, "m_end" : 15},
		{"id" : 7, "result" : "달리/VV+ㄴ/ETM", "target" : "달린", "word_id" : 7, "m_begin" : 16, "m_end" : 17},
		{"id" : 8, "result" : "것/NNB+이/VCP+므로/EC", "target" : "것이므로", "word_id" : 8, "m_begin" : 18, "m_end" : 20},
		{"id" : 9, "result" : "조그마하/VA+ㄴ/ETM", "target" : "조그마한", "word_id" : 9, "m_begin" : 21, "m_end" : 22},
		{"id" : 10, "result" : "땅/NNG+도/JX", "target" : "땅도", "word_id" : 10, "m_begin" : 23, "m_end" : 24},
		{"id" : 11, "result" : "양여하/VV+ㄹ/ETM", "target" : "양여할", "word_id" : 11, "m_begin" : 25, "m_end" : 27},
		{"id" : 12, "result" : "수/NNB", "target" : "수", "word_id" : 12, "m_begin" : 28, "m_end" : 28},
		{"id" : 13, "result" : "없/VA+다/EF+\"/SS+는/JX", "target" : "없다\"는", "word_id" : 13, "m_begin" : 29, "m_end" : 32},
		{"id" : 14, "result" : "목표/NNG+와/JC", "target" : "목표와", "word_id" : 14, "m_begin" : 33, "m_end" : 34},
		{"id" : 15, "result" : "의지/NNG+를/JKO", "target" : "의지를", "word_id" : 15, "m_begin" : 35, "m_end" : 36},
		{"id" : 16, "result" : "내세우/VV+어/EC", "target" : "내세워", "word_id" : 16, "m_begin" : 37, "m_end" : 38},
		{"id" : 17, "result" : "창설하/VV+ㄴ/ETM", "target" : "창설한", "word_id" : 17, "m_begin" : 39, "m_end" : 41},
		{"id" : 18, "result" : "항일/NNG", "target" : "항일", "word_id" : 18, "m_begin" : 42, "m_end" : 42},
		{"id" : 19, "result" : "단체/NNG+이/VCP+다/EF+./SF", "target" : "단체다.", "word_id" : 19, "m_begin" : 43, "m_end" : 46}
	],
	"WSD" : [
		{"id" : 0, "text" : "이것", "type" : "NP", "scode" : "00", "weight" : 1, "position" : 0, "begin" : 0, "end" : 0},
		{"id" : 1, "text" : "은", "type" : "JX", "scode" : "00", "weight" : 1, "position" : 6, "begin" : 1, "end" : 1},
		{"id" : 2, "text" : "1904", "type" : "SN", "scode" : "00", "weight" : 1, "position" : 10, "begin" : 2, "end" : 2},
		{"id" : 3, "text" : "년", "type" : "NNB", "scode" : "02", "weight" : 1, "position" : 14, "begin" : 3, "end" : 3},
		{"id" : 4, "text" : "에", "type" : "JKB", "scode" : "00", "weight" : 1, "position" : 17, "begin" : 4, "end" : 4},
		{"id" : 5, "text" : "송수", "type" : "NNG", "scode" : "01", "weight" : 1, "position" : 21, "begin" : 5, "end" : 5},
		{"id" : 6, "text" : "만", "type" : "JX", "scode" : "00", "weight" : 1, "position" : 27, "begin" : 6, "end" : 6},
		{"id" : 7, "text" : ",", "type" : "SP", "scode" : "00", "weight" : 1, "position" : 30, "begin" : 7, "end" : 7},
		{"id" : 8, "text" : "심상진", "type" : "NNP", "scode" : "00", "weight" : 1, "position" : 32, "begin" : 8, "end" : 8},
		{"id" : 9, "text" : "등", "type" : "NNB", "scode" : "05", "weight" : 1, "position" : 42, "begin" : 9, "end" : 9},
		{"id" : 10, "text" : "이", "type" : "JKS", "scode" : "00", "weight" : 1, "position" : 45, "begin" : 10, "end" : 10},
		{"id" : 11, "text" : "\"", "type" : "SS", "scode" : "00", "weight" : 1, "position" : 49, "begin" : 11, "end" : 11},
		{"id" : 12, "text" : "국가", "type" : "NNG", "scode" : "01", "weight" : 1, "position" : 50, "begin" : 12, "end" : 12},
		{"id" : 13, "text" : "의", "type" : "JKG", "scode" : "00", "weight" : 1, "position" : 56, "begin" : 13, "end" : 13},
		{"id" : 14, "text" : "존망", "type" : "NNG", "scode" : "00", "weight" : 1, "position" : 60, "begin" : 14, "end" : 14},
		{"id" : 15, "text" : "이", "type" : "JKS", "scode" : "00", "weight" : 1, "position" : 66, "begin" : 15, "end" : 15},
		{"id" : 16, "text" : "달리", "type" : "VV", "scode" : "04", "weight" : 1, "position" : 70, "begin" : 16, "end" : 16},
		{"id" : 17, "text" : "ㄴ", "type" : "ETM", "scode" : "00", "weight" : 1, "position" : 73, "begin" : 17, "end" : 17},
		{"id" : 18, "text" : "것", "type" : "NNB", "scode" : "01", "weight" : 1, "position" : 77, "begin" : 18, "end" : 18},
		{"id" : 19, "text" : "이", "type" : "VCP", "scode" : "00", "weight" : 1, "position" : 80, "begin" : 19, "end" : 19},
		{"id" : 20, "text" : "므로", "type" : "EC", "scode" : "00", "weight" : 1, "position" : 83, "begin" : 20, "end" : 20},
		{"id" : 21, "text" : "조그마하", "type" : "VA", "scode" : "00", "weight" : 1, "position" : 90, "begin" : 21, "end" : 21},
		{"id" : 22, "text" : "ㄴ", "type" : "ETM", "scode" : "00", "weight" : 1, "position" : 99, "begin" : 22, "end" : 22},
		{"id" : 23, "text" : "땅", "type" : "NNG", "scode" : "01", "weight" : 1, "position" : 103, "begin" : 23, "end" : 23},
		{"id" : 24, "text" : "도", "type" : "JX", "scode" : "00", "weight" : 1, "position" : 106, "begin" : 24, "end" : 24},
		{"id" : 25, "text" : "양여하", "type" : "VV", "scode" : "00", "weight" : 1, "position" : 110, "begin" : 25, "end" : 26},
		{"id" : 26, "text" : "ㄹ", "type" : "ETM", "scode" : "00", "weight" : 1, "position" : 116, "begin" : 27, "end" : 27},
		{"id" : 27, "text" : "수", "type" : "NNB", "scode" : "02", "weight" : 1, "position" : 120, "begin" : 28, "end" : 28},
		{"id" : 28, "text" : "없", "type" : "VA", "scode" : "01", "weight" : 1, "position" : 124, "begin" : 29, "end" : 29},
		{"id" : 29, "text" : "다", "type" : "EF", "scode" : "00", "weight" : 1, "position" : 127, "begin" : 30, "end" : 30},
		{"id" : 30, "text" : "\"", "type" : "SS", "scode" : "00", "weight" : 1, "position" : 130, "begin" : 31, "end" : 31},
		{"id" : 31, "text" : "는", "type" : "JX", "scode" : "00", "weight" : 1, "position" : 131, "begin" : 32, "end" : 32},
		{"id" : 32, "text" : "목표", "type" : "NNG", "scode" : "00", "weight" : 1, "position" : 135, "begin" : 33, "end" : 33},
		{"id" : 33, "text" : "와", "type" : "JC", "scode" : "00", "weight" : 1, "position" : 141, "begin" : 34, "end" : 34},
		{"id" : 34, "text" : "의지", "type" : "NNG", "scode" : "06", "weight" : 1, "position" : 145, "begin" : 35, "end" : 35},
		{"id" : 35, "text" : "를", "type" : "JKO", "scode" : "00", "weight" : 1, "position" : 151, "begin" : 36, "end" : 36},
		{"id" : 36, "text" : "내세우", "type" : "VV", "scode" : "00", "weight" : 1, "position" : 155, "begin" : 37, "end" : 37},
		{"id" : 37, "text" : "어", "type" : "EC", "scode" : "00", "weight" : 1, "position" : 161, "begin" : 38, "end" : 38},
		{"id" : 38, "text" : "창설하", "type" : "VV", "scode" : "00", "weight" : 1, "position" : 165, "begin" : 39, "end" : 40},
		{"id" : 39, "text" : "ㄴ", "type" : "ETM", "scode" : "00", "weight" : 1, "position" : 171, "begin" : 41, "end" : 41},
		{"id" : 40, "text" : "항일", "type" : "NNG", "scode" : "00", "weight" : 1, "position" : 175, "begin" : 42, "end" : 42},
		{"id" : 41, "text" : "단체", "type" : "NNG", "scode" : "02", "weight" : 1, "position" : 182, "begin" : 43, "end" : 43},
		{"id" : 42, "text" : "이", "type" : "VCP", "scode" : "00", "weight" : 1, "position" : 185, "begin" : 44, "end" : 44},
		{"id" : 43, "text" : "다", "type" : "EF", "scode" : "00", "weight" : 1, "position" : 188, "begin" : 45, "end" : 45},
		{"id" : 44, "text" : ".", "type" : "SF", "scode" : "00", "weight" : 1, "position" : 191, "begin" : 46, "end" : 46}
	],
	"word" : [
		{"id" : 0, "text" : "이것은", "type" : "", "begin" : 0, "end" : 1},
		{"id" : 1, "text" : "1904년에", "type" : "", "begin" : 2, "end" : 4},
		{"id" : 2, "text" : "송수만,", "type" : "", "begin" : 5, "end" : 7},
		{"id" : 3, "text" : "심상진", "type" : "", "begin" : 8, "end" : 8},
		{"id" : 4, "text" : "등이", "type" : "", "begin" : 9, "end" : 10},
		{"id" : 5, "text" : "\"국가의", "type" : "", "begin" : 11, "end" : 13},
		{"id" : 6, "text" : "존망이", "type" : "", "begin" : 14, "end" : 15},
		{"id" : 7, "text" : "달린", "type" : "", "begin" : 16, "end" : 17},
		{"id" : 8, "text" : "것이므로", "type" : "", "begin" : 18, "end" : 20},
		{"id" : 9, "text" : "조그마한", "type" : "", "begin" : 21, "end" : 22},
		{"id" : 10, "text" : "땅도", "type" : "", "begin" : 23, "end" : 24},
		{"id" : 11, "text" : "양여할", "type" : "", "begin" : 25, "end" : 27},
		{"id" : 12, "text" : "수", "type" : "", "begin" : 28, "end" : 28},
		{"id" : 13, "text" : "없다\"는", "type" : "", "begin" : 29, "end" : 32},
		{"id" : 14, "text" : "목표와", "type" : "", "begin" : 33, "end" : 34},
		{"id" : 15, "text" : "의지를", "type" : "", "begin" : 35, "end" : 36},
		{"id" : 16, "text" : "내세워", "type" : "", "begin" : 37, "end" : 38},
		{"id" : 17, "text" : "창설한", "type" : "", "begin" : 39, "end" : 41},
		{"id" : 18, "text" : "항일", "type" : "", "begin" : 42, "end" : 42},
		{"id" : 19, "text" : "단체다.", "type" : "", "begin" : 43, "end" : 46}
	],
	"NE" : [
		{"id" : 0, "text" : "1904년", "type" : "DT_YEAR", "begin" : 2, "end" : 3, "weight" : 0.586571, "common_noun" : 0},
		{"id" : 1, "text" : "송수만", "type" : "PS_NAME", "begin" : 5, "end" : 6, "weight" : 0.291012, "common_noun" : 0},
		{"id" : 2, "text" : "심상진", "type" : "PS_NAME", "begin" : 8, "end" : 8, "weight" : 0.332581, "common_noun" : 0}
	],
	"chunk" : [
	],
	"dependency" : [
		{"id" : 0, "text" : "이것은", "head" : 19, "label" : "NP_SBJ", "mod" : [], "weight" : 0.919219 },
		{"id" : 1, "text" : "1904년에", "head" : 16, "label" : "NP_AJT", "mod" : [], "weight" : 0.647645 },
		{"id" : 2, "text" : "송수만,", "head" : 3, "label" : "NP_CNJ", "mod" : [], "weight" : 0.709829 },
		{"id" : 3, "text" : "심상진", "head" : 4, "label" : "NP", "mod" : [2], "weight" : 0.847208 },
		{"id" : 4, "text" : "등이", "head" : 16, "label" : "NP_SBJ", "mod" : [3], "weight" : 0.747156 },
		{"id" : 5, "text" : "\"국가의", "head" : 6, "label" : "NP_MOD", "mod" : [], "weight" : 0.908399 },
		{"id" : 6, "text" : "존망이", "head" : 7, "label" : "NP_SBJ", "mod" : [5], "weight" : 0.879364 },
		{"id" : 7, "text" : "달린", "head" : 8, "label" : "VP_MOD", "mod" : [6], "weight" : 0.955168 },
		{"id" : 8, "text" : "것이므로", "head" : 11, "label" : "VNP", "mod" : [7], "weight" : 0.802111 },
		{"id" : 9, "text" : "조그마한", "head" : 10, "label" : "VP_MOD", "mod" : [], "weight" : 0.964137 },
		{"id" : 10, "text" : "땅도", "head" : 11, "label" : "NP_OBJ", "mod" : [9], "weight" : 0.917435 },
		{"id" : 11, "text" : "양여할", "head" : 12, "label" : "VP_MOD", "mod" : [8, 10], "weight" : 0.888476 },
		{"id" : 12, "text" : "수", "head" : 13, "label" : "NP_SBJ", "mod" : [11], "weight" : 0.554961 },
		{"id" : 13, "text" : "없다\"는", "head" : 16, "label" : "NP_SBJ", "mod" : [12], "weight" : 0.797423 },
		{"id" : 14, "text" : "목표와", "head" : 15, "label" : "NP_CNJ", "mod" : [], "weight" : 0.80119 },
		{"id" : 15, "text" : "의지를", "head" : 16, "label" : "NP_OBJ", "mod" : [14], "weight" : 0.861304 },
		{"id" : 16, "text" : "내세워", "head" : 17, "label" : "VP", "mod" : [1, 4, 13, 15], "weight" : 0.685501 },
		{"id" : 17, "text" : "창설한", "head" : 19, "label" : "VP_MOD", "mod" : [16], "weight" : 0.580036 },
		{"id" : 18, "text" : "항일", "head" : 19, "label" : "NP", "mod" : [], "weight" : 0.436746 },
		{"id" : 19, "text" : "단체다.", "head" : -1, "label" : "VNP", "mod" : [0, 17, 18], "weight" : 0.0152086 }
	],
	"SRL" : [
		{"verb" : "달리", "sense" : 1, "word_id" : 7, "weight" : 0.185531,
			"argument" : [
				{"type" : "ARG1", "word_id" : 6, "text" : "존망이", "weight" : 0.185531 }
			] },
		{"verb" : "조그마하", "sense" : 1, "word_id" : 9, "weight" : 0.381677,
			"argument" : [
				{"type" : "ARG1", "word_id" : 10, "text" : "땅도", "weight" : 0.381677 }
			] },
		{"verb" : "양여", "sense" : 1, "word_id" : 11, "weight" : 0.223477,
			"argument" : [
				{"type" : "ARGM-CAU", "word_id" : 8, "text" : "것이므로", "weight" : 0.301628 },
				{"type" : "ARG1", "word_id" : 10, "text" : "땅도", "weight" : 0.133369 },
				{"type" : "ARGM-NEG", "word_id" : 13, "text" : "없다\"는", "weight" : 0.235435 }
			] },
		{"verb" : "내세우", "sense" : 1, "word_id" : 16, "weight" : 0.284732,
			"argument" : [
				{"type" : "ARG0", "word_id" : 4, "text" : "등이", "weight" : 0.319826 },
				{"type" : "ARG1", "word_id" : 14, "text" : "목표와", "weight" : 0.244301 },
				{"type" : "ARG1", "word_id" : 15, "text" : "의지를", "weight" : 0.290069 }
			] },
		{"verb" : "창설", "sense" : 1, "word_id" : 17, "weight" : 0.193048,
			"argument" : [
				{"type" : "ARG0", "word_id" : 4, "text" : "등이", "weight" : 0.298485 },
				{"type" : "ARGM-MNR", "word_id" : 16, "text" : "내세워", "weight" : 0.136177 },
				{"type" : "ARG1", "word_id" : 19, "text" : "단체다.", "weight" : 0.144483 }
			] }
	],
	"relation" : [
	],
	"SA" : [
	],
	"ZA" : [
	]
	},
	{
	"id" : 1,
	"reserve_str" : "",
	"text" : "일본의 황무지 개간권 요구에 반대해 저지시킨 이 단체는 무엇일까? ",
	"morp" : [
		{"id" : 0, "lemma" : "일본", "type" : "NNP", "position" : 192, "weight" : 0.0892936 },
		{"id" : 1, "lemma" : "의", "type" : "JKG", "position" : 198, "weight" : 0.0987295 },
		{"id" : 2, "lemma" : "황무", "type" : "NNG", "position" : 202, "weight" : 0.05 },
		{"id" : 3, "lemma" : "지", "type" : "XSN", "position" : 208, "weight" : 0.000168337 },
		{"id" : 4, "lemma" : "개간", "type" : "NNG", "position" : 212, "weight" : 0.9 },
		{"id" : 5, "lemma" : "권", "type" : "XSN", "position" : 218, "weight" : 0.0140728 },
		{"id" : 6, "lemma" : "요구", "type" : "NNG", "position" : 222, "weight" : 0.9 },
		{"id" : 7, "lemma" : "에", "type" : "JKB", "position" : 228, "weight" : 0.153364 },
		{"id" : 8, "lemma" : "반대", "type" : "NNG", "position" : 232, "weight" : 0.9 },
		{"id" : 9, "lemma" : "하", "type" : "XSV", "position" : 238, "weight" : 0.0001 },
		{"id" : 10, "lemma" : "어", "type" : "EC", "position" : 238, "weight" : 0.361326 },
		{"id" : 11, "lemma" : "저지", "type" : "NNG", "position" : 242, "weight" : 0.216812 },
		{"id" : 12, "lemma" : "시키", "type" : "XSV", "position" : 248, "weight" : 0.00340357 },
		{"id" : 13, "lemma" : "ㄴ", "type" : "ETM", "position" : 251, "weight" : 0.392321 },
		{"id" : 14, "lemma" : "이", "type" : "MM", "position" : 255, "weight" : 0.00060084 },
		{"id" : 15, "lemma" : "단체", "type" : "NNG", "position" : 259, "weight" : 0.737327 },
		{"id" : 16, "lemma" : "는", "type" : "JX", "position" : 265, "weight" : 0.0287565 },
		{"id" : 17, "lemma" : "무엇", "type" : "NP", "position" : 269, "weight" : 0.9 },
		{"id" : 18, "lemma" : "이", "type" : "VCP", "position" : 275, "weight" : 0.0175768 },
		{"id" : 19, "lemma" : "ㄹ까", "type" : "EF", "position" : 275, "weight" : 0.258243 },
		{"id" : 20, "lemma" : "?", "type" : "SF", "position" : 281, "weight" : 1 }
	],
	"morp_eval" : [
		{"id" : 0, "result" : "일본/NNG+의/JKG", "target" : "일본의", "word_id" : 0, "m_begin" : 0, "m_end" : 1},
		{"id" : 1, "result" : "황무지/NNG", "target" : "황무지", "word_id" : 1, "m_begin" : 2, "m_end" : 3},
		{"id" : 2, "result" : "개간권/NNG", "target" : "개간권", "word_id" : 2, "m_begin" : 4, "m_end" : 5},
		{"id" : 3, "result" : "요구/NNG+에/JKB", "target" : "요구에", "word_id" : 3, "m_begin" : 6, "m_end" : 7},
		{"id" : 4, "result" : "반대하/VV+어/EC", "target" : "반대해", "word_id" : 4, "m_begin" : 8, "m_end" : 10},
		{"id" : 5, "result" : "저지시키/VV+ㄴ/ETM", "target" : "저지시킨", "word_id" : 5, "m_begin" : 11, "m_end" : 13},
		{"id" : 6, "result" : "이/MM", "target" : "이", "word_id" : 6, "m_begin" : 14, "m_end" : 14},
		{"id" : 7, "result" : "단체/NNG+는/JX", "target" : "단체는", "word_id" : 7, "m_begin" : 15, "m_end" : 16},
		{"id" : 8, "result" : "무엇/NP+이/VCP+ㄹ까/EF+?/SF", "target" : "무엇일까?", "word_id" : 8, "m_begin" : 17, "m_end" : 20}
	],
	"WSD" : [
		{"id" : 0, "text" : "일본", "type" : "NNP", "scode" : "02", "weight" : 1, "position" : 192, "begin" : 0, "end" : 0},
		{"id" : 1, "text" : "의", "type" : "JKG", "scode" : "00", "weight" : 1, "position" : 198, "begin" : 1, "end" : 1},
		{"id" : 2, "text" : "황무지", "type" : "NNG", "scode" : "01", "weight" : 1, "position" : 202, "begin" : 2, "end" : 3},
		{"id" : 3, "text" : "개간", "type" : "NNG", "scode" : "03", "weight" : 1, "position" : 212, "begin" : 4, "end" : 4},
		{"id" : 4, "text" : "권", "type" : "XSN", "scode" : "06", "weight" : 1, "position" : 218, "begin" : 5, "end" : 5},
		{"id" : 5, "text" : "요구", "type" : "NNG", "scode" : "03", "weight" : 1, "position" : 222, "begin" : 6, "end" : 6},
		{"id" : 6, "text" : "에", "type" : "JKB", "scode" : "00", "weight" : 1, "position" : 228, "begin" : 7, "end" : 7},
		{"id" : 7, "text" : "반대하", "type" : "VV", "scode" : "01", "weight" : 1, "position" : 232, "begin" : 8, "end" : 9},
		{"id" : 8, "text" : "어", "type" : "EC", "scode" : "00", "weight" : 1, "position" : 238, "begin" : 10, "end" : 10},
		{"id" : 9, "text" : "저지", "type" : "NNG", "scode" : "03", "weight" : 1, "position" : 242, "begin" : 11, "end" : 11},
		{"id" : 10, "text" : "시키", "type" : "XSV", "scode" : "00", "weight" : 1, "position" : 248, "begin" : 12, "end" : 12},
		{"id" : 11, "text" : "ㄴ", "type" : "ETM", "scode" : "00", "weight" : 1, "position" : 251, "begin" : 13, "end" : 13},
		{"id" : 12, "text" : "이", "type" : "MM", "scode" : "05", "weight" : 1, "position" : 255, "begin" : 14, "end" : 14},
		{"id" : 13, "text" : "단체", "type" : "NNG", "scode" : "02", "weight" : 1, "position" : 259, "begin" : 15, "end" : 15},
		{"id" : 14, "text" : "는", "type" : "JX", "scode" : "00", "weight" : 1, "position" : 265, "begin" : 16, "end" : 16},
		{"id" : 15, "text" : "무엇", "type" : "NP", "scode" : "00", "weight" : 1, "position" : 269, "begin" : 17, "end" : 17},
		{"id" : 16, "text" : "이", "type" : "VCP", "scode" : "00", "weight" : 1, "position" : 275, "begin" : 18, "end" : 18},
		{"id" : 17, "text" : "ㄹ까", "type" : "EF", "scode" : "00", "weight" : 1, "position" : 275, "begin" : 19, "end" : 19},
		{"id" : 18, "text" : "?", "type" : "SF", "scode" : "00", "weight" : 1, "position" : 281, "begin" : 20, "end" : 20}
	],
	"word" : [
		{"id" : 0, "text" : "일본의", "type" : "", "begin" : 0, "end" : 1},
		{"id" : 1, "text" : "황무지", "type" : "", "begin" : 2, "end" : 3},
		{"id" : 2, "text" : "개간권", "type" : "", "begin" : 4, "end" : 5},
		{"id" : 3, "text" : "요구에", "type" : "", "begin" : 6, "end" : 7},
		{"id" : 4, "text" : "반대해", "type" : "", "begin" : 8, "end" : 10},
		{"id" : 5, "text" : "저지시킨", "type" : "", "begin" : 11, "end" : 13},
		{"id" : 6, "text" : "이", "type" : "", "begin" : 14, "end" : 14},
		{"id" : 7, "text" : "단체는", "type" : "", "begin" : 15, "end" : 16},
		{"id" : 8, "text" : "무엇일까?", "type" : "", "begin" : 17, "end" : 20}
	],
	"NE" : [
		{"id" : 0, "text" : "일본", "type" : "LCP_COUNTRY", "begin" : 0, "end" : 0, "weight" : 0.57725, "common_noun" : 0}
	],
	"chunk" : [
	],
	"dependency" : [
		{"id" : 0, "text" : "일본의", "head" : 3, "label" : "NP_MOD", "mod" : [], "weight" : 0.769662 },
		{"id" : 1, "text" : "황무지", "head" : 2, "label" : "NP", "mod" : [], "weight" : 0.664235 },
		{"id" : 2, "text" : "개간권", "head" : 3, "label" : "NP", "mod" : [1], "weight" : 0.859725 },
		{"id" : 3, "text" : "요구에", "head" : 4, "label" : "NP_AJT", "mod" : [0, 2], "weight" : 0.787058 },
		{"id" : 4, "text" : "반대해", "head" : 5, "label" : "VP", "mod" : [3], "weight" : 0.987729 },
		{"id" : 5, "text" : "저지시킨", "head" : 7, "label" : "VP_MOD", "mod" : [4], "weight" : 0.790072 },
		{"id" : 6, "text" : "이", "head" : 7, "label" : "DP", "mod" : [], "weight" : 0.840008 },
		{"id" : 7, "text" : "단체는", "head" : 8, "label" : "NP_SBJ", "mod" : [5, 6], "weight" : 0.731299 },
		{"id" : 8, "text" : "무엇일까?", "head" : -1, "label" : "VNP", "mod" : [7], "weight" : 0.118715 }
	],
	"SRL" : [
		{"verb" : "반대", "sense" : 1, "word_id" : 4, "weight" : 0.1837,
			"argument" : [
				{"type" : "ARG1", "word_id" : 3, "text" : "요구에", "weight" : 0.1837 }
			] },
		{"verb" : "저지", "sense" : 1, "word_id" : 5, "weight" : 0.245144,
			"argument" : [
				{"type" : "ARGM-MNR", "word_id" : 4, "text" : "반대해", "weight" : 0.160054 },
				{"type" : "ARG0", "word_id" : 7, "text" : "단체는", "weight" : 0.330234 }
			] }
	],
	"relation" : [
	],
	"SA" : [
	],
	"ZA" : [
		{"id" : 0, "verb_wid" : 4, "ant_sid" : -1, "ant_wid" : -1, "type" : "s", "istitle" : 0, "weight" : 0.516098 }
	]
	}
 ],
 "entity" : [
	{"id" : 0, "type" : "", "number" : "singular", "gender" : "", "person" : "", "animacy" : "", "loc" : "", 
	 "mention" : [
		{"id" : 0, "sent_id" : 0, "start_eid" : 0, "end_eid" : 0, "ne_id" : -1, "text" : "이것", "start_eid_short" : 0, "end_eid_short" : 0, "text_short" : "이것", "weight" : 0.012 },
		{"id" : 17, "sent_id" : 1, "start_eid" : 6, "end_eid" : 7, "ne_id" : -1, "text" : "이 단체", "start_eid_short" : 6, "end_eid_short" : 7, "text_short" : "이 단체", "weight" : 0 },
		{"id" : 19, "sent_id" : 1, "start_eid" : 8, "end_eid" : 8, "ne_id" : -1, "text" : "무엇", "start_eid_short" : 8, "end_eid_short" : 8, "text_short" : "무엇이ㄹ까?", "weight" : 0.006 }
	] }
 ]
}

