{"doc_id" : "",
 "DCT" : "",
 "category" : "",
 "category_weight" : 0,
 "title" : {"text" : "", "NE" : ""},
 "metaInfo" : { },
 "sentence" : [
	{
	"id" : 0,
	"reserve_str" : "",
	"text" : "임진왜란 때 우리나라 각지에서는 의병들이 일어나 자기 고장의 익숙한 지형을 이용해 왜군에게 큰 타격을 입혔는데 의병장이 아닌 사람은 누구일까? ",
	"morp" : [
		{"id" : 0, "lemma" : "임진", "type" : "NNP", "position" : 0, "weight" : 0.0187999 },
		{"id" : 1, "lemma" : "왜란", "type" : "NNG", "position" : 6, "weight" : 0.9 },
		{"id" : 2, "lemma" : "때", "type" : "NNG", "position" : 13, "weight" : 0.184189 },
		{"id" : 3, "lemma" : "우리", "type" : "NNG", "position" : 17, "weight" : 0.000644763 },
		{"id" : 4, "lemma" : "나라", "type" : "NNG", "position" : 23, "weight" : 0.184431 },
		{"id" : 5, "lemma" : "각지", "type" : "NNG", "position" : 30, "weight" : 0.184167 },
		{"id" : 6, "lemma" : "에서", "type" : "JKB", "position" : 36, "weight" : 0.153407 },
		{"id" : 7, "lemma" : "는", "type" : "JX", "position" : 42, "weight" : 0.0387928 },
		{"id" : 8, "lemma" : "의병", "type" : "NNG", "position" : 46, "weight" : 0.9 },
		{"id" : 9, "lemma" : "들", "type" : "XSN", "position" : 52, "weight" : 0.0299841 },
		{"id" : 10, "lemma" : "이", "type" : "JKS", "position" : 55, "weight" : 0.0731805 },
		{"id" : 11, "lemma" : "일어나", "type" : "VV", "position" : 59, "weight" : 0.9 },
		{"id" : 12, "lemma" : "아", "type" : "EC", "position" : 65, "weight" : 0.398809 },
		{"id" : 13, "lemma" : "자기", "type" : "NP", "position" : 69, "weight" : 0.016882 },
		{"id" : 14, "lemma" : "고장", "type" : "NNG", "position" : 76, "weight" : 0.9 },
		{"id" : 15, "lemma" : "의", "type" : "JKG", "position" : 82, "weight" : 0.0694213 },
		{"id" : 16, "lemma" : "익숙하", "type" : "VA", "position" : 86, "weight" : 0.0348162 },
		{"id" : 17, "lemma" : "ㄴ", "type" : "ETM", "position" : 92, "weight" : 0.430446 },
		{"id" : 18, "lemma" : "지형", "type" : "NNG", "position" : 96, "weight" : 0.657634 },
		{"id" : 19, "lemma" : "을", "type" : "JKO", "position" : 102, "weight" : 0.129611 },
		{"id" : 20, "lemma" : "이용", "type" : "NNG", "position" : 106, "weight" : 0.101224 },
		{"id" : 21, "lemma" : "하", "type" : "XSV", "position" : 112, "weight" : 0.0001 },
		{"id" : 22, "lemma" : "어", "type" : "EC", "position" : 112, "weight" : 0.361326 },
		{"id" : 23, "lemma" : "왜군", "type" : "NNG", "position" : 116, "weight" : 0.9 },
		{"id" : 24, "lemma" : "에게", "type" : "JKB", "position" : 122, "weight" : 0.153356 },
		{"id" : 25, "lemma" : "크", "type" : "VA", "position" : 129, "weight" : 0.0717949 },
		{"id" : 26, "lemma" : "ㄴ", "type" : "ETM", "position" : 129, "weight" : 0.430446 },
		{"id" : 27, "lemma" : "타격", "type" : "NNG", "position" : 133, "weight" : 0.9 },
		{"id" : 28, "lemma" : "을", "type" : "JKO", "position" : 139, "weight" : 0.129611 },
		{"id" : 29, "lemma" : "입히", "type" : "VV", "position" : 143, "weight" : 0.9 },
		{"id" : 30, "lemma" : "었", "type" : "EP", "position" : 146, "weight" : 0.9 },
		{"id" : 31, "lemma" : "는데", "type" : "EC", "position" : 149, "weight" : 0.188154 },
		{"id" : 32, "lemma" : "의병", "type" : "NNG", "position" : 156, "weight" : 0.9 },
		{"id" : 33, "lemma" : "장", "type" : "XSN", "position" : 162, "weight" : 0.0110513 },
		{"id" : 34, "lemma" : "이", "type" : "JKC", "position" : 165, "weight" : 0.0001 },
		{"id" : 35, "lemma" : "아니", "type" : "VCN", "position" : 169, "weight" : 0.354175 },
		{"id" : 36, "lemma" : "ㄴ", "type" : "ETM", "position" : 172, "weight" : 0.144018 },
		{"id" : 37, "lemma" : "사람", "type" : "NNG", "position" : 176, "weight" : 0.658826 },
		{"id" : 38, "lemma" : "은", "type" : "JX", "position" : 182, "weight" : 0.0449928 },
		{"id" : 39, "lemma" : "누구", "type" : "NP", "position" : 186, "weight" : 0.9 },
		{"id" : 40, "lemma" : "이", "type" : "VCP", "position" : 192, "weight" : 0.0175768 },
		{"id" : 41, "lemma" : "ㄹ까", "type" : "EF", "position" : 192, "weight" : 0.258243 },
		{"id" : 42, "lemma" : "?", "type" : "SF", "position" : 198, "weight" : 1 }
	],
	"morp_eval" : [
		{"id" : 0, "result" : "임진왜란/NNG", "target" : "임진왜란", "word_id" : 0, "m_begin" : 0, "m_end" : 1},
		{"id" : 1, "result" : "때/NNG", "target" : "때", "word_id" : 1, "m_begin" : 2, "m_end" : 2},
		{"id" : 2, "result" : "우리나라/NNG", "target" : "우리나라", "word_id" : 2, "m_begin" : 3, "m_end" : 4},
		{"id" : 3, "result" : "각지/NNG+에서/JKB+는/JX", "target" : "각지에서는", "word_id" : 3, "m_begin" : 5, "m_end" : 7},
		{"id" : 4, "result" : "의병들/NNG+이/JKS", "target" : "의병들이", "word_id" : 4, "m_begin" : 8, "m_end" : 10},
		{"id" : 5, "result" : "일어나/VV+어/EC", "target" : "일어나", "word_id" : 5, "m_begin" : 11, "m_end" : 12},
		{"id" : 6, "result" : "자기/NP", "target" : "자기", "word_id" : 6, "m_begin" : 13, "m_end" : 13},
		{"id" : 7, "result" : "고장/NNG+의/JKG", "target" : "고장의", "word_id" : 7, "m_begin" : 14, "m_end" : 15},
		{"id" : 8, "result" : "익숙하/VA+ㄴ/ETM", "target" : "익숙한", "word_id" : 8, "m_begin" : 16, "m_end" : 17},
		{"id" : 9, "result" : "지형/NNG+을/JKO", "target" : "지형을", "word_id" : 9, "m_begin" : 18, "m_end" : 19},
		{"id" : 10, "result" : "이용하/VV+어/EC", "target" : "이용해", "word_id" : 10, "m_begin" : 20, "m_end" : 22},
		{"id" : 11, "result" : "왜군/NNG+에게/JKB", "target" : "왜군에게", "word_id" : 11, "m_begin" : 23, "m_end" : 24},
		{"id" : 12, "result" : "크/VA+ㄴ/ETM", "target" : "큰", "word_id" : 12, "m_begin" : 25, "m_end" : 26},
		{"id" : 13, "result" : "타격/NNG+을/JKO", "target" : "타격을", "word_id" : 13, "m_begin" : 27, "m_end" : 28},
		{"id" : 14, "result" : "입히/VV+었/EP+는데/EC", "target" : "입혔는데", "word_id" : 14, "m_begin" : 29, "m_end" : 31},
		{"id" : 15, "result" : "의병장/NNG+이/JKC", "target" : "의병장이", "word_id" : 15, "m_begin" : 32, "m_end" : 34},
		{"id" : 16, "result" : "아니/VCN+ㄴ/ETM", "target" : "아닌", "word_id" : 16, "m_begin" : 35, "m_end" : 36},
		{"id" : 17, "result" : "사람/NNG+은/JX", "target" : "사람은", "word_id" : 17, "m_begin" : 37, "m_end" : 38},
		{"id" : 18, "result" : "누구/NP+이/VCP+ㄹ까/EF+?/SF", "target" : "누구일까?", "word_id" : 18, "m_begin" : 39, "m_end" : 42}
	],
	"WSD" : [
		{"id" : 0, "text" : "임진왜란", "type" : "NNP", "scode" : "00", "weight" : 1, "position" : 0, "begin" : 0, "end" : 1},
		{"id" : 1, "text" : "때", "type" : "NNG", "scode" : "01", "weight" : 1, "position" : 13, "begin" : 2, "end" : 2},
		{"id" : 2, "text" : "우리나라", "type" : "NNG", "scode" : "00", "weight" : 1, "position" : 17, "begin" : 3, "end" : 4},
		{"id" : 3, "text" : "각지", "type" : "NNG", "scode" : "03", "weight" : 1, "position" : 30, "begin" : 5, "end" : 5},
		{"id" : 4, "text" : "에서", "type" : "JKB", "scode" : "00", "weight" : 1, "position" : 36, "begin" : 6, "end" : 6},
		{"id" : 5, "text" : "는", "type" : "JX", "scode" : "00", "weight" : 1, "position" : 42, "begin" : 7, "end" : 7},
		{"id" : 6, "text" : "의병", "type" : "NNG", "scode" : "01", "weight" : 1, "position" : 46, "begin" : 8, "end" : 8},
		{"id" : 7, "text" : "들", "type" : "XSN", "scode" : "09", "weight" : 1, "position" : 52, "begin" : 9, "end" : 9},
		{"id" : 8, "text" : "이", "type" : "JKS", "scode" : "00", "weight" : 1, "position" : 55, "begin" : 10, "end" : 10},
		{"id" : 9, "text" : "일어나", "type" : "VV", "scode" : "00", "weight" : 1, "position" : 59, "begin" : 11, "end" : 11},
		{"id" : 10, "text" : "아", "type" : "EC", "scode" : "00", "weight" : 1, "position" : 65, "begin" : 12, "end" : 12},
		{"id" : 11, "text" : "자기", "type" : "NP", "scode" : "04", "weight" : 1, "position" : 69, "begin" : 13, "end" : 13},
		{"id" : 12, "text" : "고장", "type" : "NNG", "scode" : "11", "weight" : 1, "position" : 76, "begin" : 14, "end" : 14},
		{"id" : 13, "text" : "의", "type" : "JKG", "scode" : "00", "weight" : 1, "position" : 82, "begin" : 15, "end" : 15},
		{"id" : 14, "text" : "익숙하", "type" : "VA", "scode" : "00", "weight" : 1, "position" : 86, "begin" : 16, "end" : 16},
		{"id" : 15, "text" : "ㄴ", "type" : "ETM", "scode" : "00", "weight" : 1, "position" : 92, "begin" : 17, "end" : 17},
		{"id" : 16, "text" : "지형", "type" : "NNG", "scode" : "01", "weight" : 1, "position" : 96, "begin" : 18, "end" : 18},
		{"id" : 17, "text" : "을", "type" : "JKO", "scode" : "00", "weight" : 1, "position" : 102, "begin" : 19, "end" : 19},
		{"id" : 18, "text" : "이용하", "type" : "VV", "scode" : "01", "weight" : 1, "position" : 106, "begin" : 20, "end" : 21},
		{"id" : 19, "text" : "어", "type" : "EC", "scode" : "00", "weight" : 1, "position" : 112, "begin" : 22, "end" : 22},
		{"id" : 20, "text" : "왜군", "type" : "NNG", "scode" : "00", "weight" : 1, "position" : 116, "begin" : 23, "end" : 23},
		{"id" : 21, "text" : "에게", "type" : "JKB", "scode" : "00", "weight" : 1, "position" : 122, "begin" : 24, "end" : 24},
		{"id" : 22, "text" : "크", "type" : "VA", "scode" : "01", "weight" : 1, "position" : 129, "begin" : 25, "end" : 25},
		{"id" : 23, "text" : "ㄴ", "type" : "ETM", "scode" : "00", "weight" : 1, "position" : 129, "begin" : 26, "end" : 26},
		{"id" : 24, "text" : "타격", "type" : "NNG", "scode" : "00", "weight" : 1, "position" : 133, "begin" : 27, "end" : 27},
		{"id" : 25, "text" : "을", "type" : "JKO", "scode" : "00", "weight" : 1, "position" : 139, "begin" : 28, "end" : 28},
		{"id" : 26, "text" : "입히", "type" : "VV", "scode" : "00", "weight" : 1, "position" : 143, "begin" : 29, "end" : 29},
		{"id" : 27, "text" : "었", "type" : "EP", "scode" : "00", "weight" : 1, "position" : 146, "begin" : 30, "end" : 30},
		{"id" : 28, "text" : "는데", "type" : "EC", "scode" : "00", "weight" : 1, "position" : 149, "begin" : 31, "end" : 31},
		{"id" : 29, "text" : "의병장", "type" : "NNG", "scode" : "00", "weight" : 1, "position" : 156, "begin" : 32, "end" : 33},
		{"id" : 30, "text" : "이", "type" : "JKC", "scode" : "00", "weight" : 1, "position" : 165, "begin" : 34, "end" : 34},
		{"id" : 31, "text" : "아니", "type" : "VCN", "scode" : "00", "weight" : 1, "position" : 169, "begin" : 35, "end" : 35},
		{"id" : 32, "text" : "ㄴ", "type" : "ETM", "scode" : "00", "weight" : 1, "position" : 172, "begin" : 36, "end" : 36},
		{"id" : 33, "text" : "사람", "type" : "NNG", "scode" : "00", "weight" : 1, "position" : 176, "begin" : 37, "end" : 37},
		{"id" : 34, "text" : "은", "type" : "JX", "scode" : "00", "weight" : 1, "position" : 182, "begin" : 38, "end" : 38},
		{"id" : 35, "text" : "누구", "type" : "NP", "scode" : "00", "weight" : 1, "position" : 186, "begin" : 39, "end" : 39},
		{"id" : 36, "text" : "이", "type" : "VCP", "scode" : "00", "weight" : 1, "position" : 192, "begin" : 40, "end" : 40},
		{"id" : 37, "text" : "ㄹ까", "type" : "EF", "scode" : "00", "weight" : 1, "position" : 192, "begin" : 41, "end" : 41},
		{"id" : 38, "text" : "?", "type" : "SF", "scode" : "00", "weight" : 1, "position" : 198, "begin" : 42, "end" : 42}
	],
	"word" : [
		{"id" : 0, "text" : "임진왜란", "type" : "", "begin" : 0, "end" : 1},
		{"id" : 1, "text" : "때", "type" : "", "begin" : 2, "end" : 2},
		{"id" : 2, "text" : "우리나라", "type" : "", "begin" : 3, "end" : 4},
		{"id" : 3, "text" : "각지에서는", "type" : "", "begin" : 5, "end" : 7},
		{"id" : 4, "text" : "의병들이", "type" : "", "begin" : 8, "end" : 10},
		{"id" : 5, "text" : "일어나", "type" : "", "begin" : 11, "end" : 12},
		{"id" : 6, "text" : "자기", "type" : "", "begin" : 13, "end" : 13},
		{"id" : 7, "text" : "고장의", "type" : "", "begin" : 14, "end" : 15},
		{"id" : 8, "text" : "익숙한", "type" : "", "begin" : 16, "end" : 17},
		{"id" : 9, "text" : "지형을", "type" : "", "begin" : 18, "end" : 19},
		{"id" : 10, "text" : "이용해", "type" : "", "begin" : 20, "end" : 22},
		{"id" : 11, "text" : "왜군에게", "type" : "", "begin" : 23, "end" : 24},
		{"id" : 12, "text" : "큰", "type" : "", "begin" : 25, "end" : 26},
		{"id" : 13, "text" : "타격을", "type" : "", "begin" : 27, "end" : 28},
		{"id" : 14, "text" : "입혔는데", "type" : "", "begin" : 29, "end" : 31},
		{"id" : 15, "text" : "의병장이", "type" : "", "begin" : 32, "end" : 34},
		{"id" : 16, "text" : "아닌", "type" : "", "begin" : 35, "end" : 36},
		{"id" : 17, "text" : "사람은", "type" : "", "begin" : 37, "end" : 38},
		{"id" : 18, "text" : "누구일까?", "type" : "", "begin" : 39, "end" : 42}
	],
	"NE" : [
		{"id" : 0, "text" : "임진왜란 때", "type" : "DT_OTHERS", "begin" : 0, "end" : 2, "weight" : 0.51175, "common_noun" : 0},
		{"id" : 1, "text" : "왜군", "type" : "OGG_MILITARY", "begin" : 23, "end" : 23, "weight" : 0.269364, "common_noun" : 0},
		{"id" : 2, "text" : "의병장", "type" : "CV_POSITION", "begin" : 32, "end" : 33, "weight" : 0.422241, "common_noun" : 0}
	],
	"chunk" : [
	],
	"dependency" : [
		{"id" : 0, "text" : "임진왜란", "head" : 1, "label" : "NP", "mod" : [], "weight" : 0.965881 },
		{"id" : 1, "text" : "때", "head" : 5, "label" : "NP_AJT", "mod" : [0], "weight" : 0.796769 },
		{"id" : 2, "text" : "우리나라", "head" : 3, "label" : "NP", "mod" : [], "weight" : 0.771764 },
		{"id" : 3, "text" : "각지에서는", "head" : 5, "label" : "NP_AJT", "mod" : [2], "weight" : 0.821463 },
		{"id" : 4, "text" : "의병들이", "head" : 5, "label" : "NP_SBJ", "mod" : [], "weight" : 0.752389 },
		{"id" : 5, "text" : "일어나", "head" : 10, "label" : "VP", "mod" : [1, 3, 4], "weight" : 0.875886 },
		{"id" : 6, "text" : "자기", "head" : 7, "label" : "NP", "mod" : [], "weight" : 0.850542 },
		{"id" : 7, "text" : "고장의", "head" : 9, "label" : "NP_MOD", "mod" : [6], "weight" : 0.861297 },
		{"id" : 8, "text" : "익숙한", "head" : 9, "label" : "VP_MOD", "mod" : [], "weight" : 0.951002 },
		{"id" : 9, "text" : "지형을", "head" : 10, "label" : "NP_OBJ", "mod" : [7, 8], "weight" : 0.781279 },
		{"id" : 10, "text" : "이용해", "head" : 14, "label" : "VP", "mod" : [5, 9], "weight" : 0.753299 },
		{"id" : 11, "text" : "왜군에게", "head" : 14, "label" : "NP_AJT", "mod" : [], "weight" : 0.869492 },
		{"id" : 12, "text" : "큰", "head" : 13, "label" : "VP_MOD", "mod" : [], "weight" : 0.936848 },
		{"id" : 13, "text" : "타격을", "head" : 14, "label" : "NP_OBJ", "mod" : [12], "weight" : 0.918583 },
		{"id" : 14, "text" : "입혔는데", "head" : 16, "label" : "VP", "mod" : [10, 11, 13], "weight" : 0.561852 },
		{"id" : 15, "text" : "의병장이", "head" : 16, "label" : "NP_CMP", "mod" : [], "weight" : 0.884874 },
		{"id" : 16, "text" : "아닌", "head" : 17, "label" : "VP_MOD", "mod" : [14, 15], "weight" : 0.954035 },
		{"id" : 17, "text" : "사람은", "head" : 18, "label" : "NP_SBJ", "mod" : [16], "weight" : 0.657506 },
		{"id" : 18, "text" : "누구일까?", "head" : -1, "label" : "VNP", "mod" : [17], "weight" : 0.0195583 }
	],
	"SRL" : [
		{"verb" : "일어나", "sense" : 1, "word_id" : 5, "weight" : 0.277381,
			"argument" : [
				{"type" : "ARGM-TMP", "word_id" : 1, "text" : "때", "weight" : 0.487373 },
				{"type" : "ARGM-LOC", "word_id" : 3, "text" : "각지에서는", "weight" : 0.154721 },
				{"type" : "ARG1", "word_id" : 4, "text" : "의병들이", "weight" : 0.190051 }
			] },
		{"verb" : "익숙하", "sense" : 1, "word_id" : 8, "weight" : 0.342651,
			"argument" : [
				{"type" : "ARG1", "word_id" : 9, "text" : "지형을", "weight" : 0.342651 }
			] },
		{"verb" : "이용", "sense" : 1, "word_id" : 10, "weight" : 0.20208,
			"argument" : [
				{"type" : "ARG1", "word_id" : 9, "text" : "지형을", "weight" : 0.20208 }
			] },
		{"verb" : "크", "sense" : 1, "word_id" : 12, "weight" : 0.329,
			"argument" : [
				{"type" : "ARG1", "word_id" : 13, "text" : "타격을", "weight" : 0.329 }
			] },
		{"verb" : "입히", "sense" : 1, "word_id" : 14, "weight" : 0.143131,
			"argument" : [
				{"type" : "ARGM-MNR", "word_id" : 10, "text" : "이용해", "weight" : 0.114452 },
				{"type" : "ARG2", "word_id" : 11, "text" : "왜군에게", "weight" : 0.113187 },
				{"type" : "ARG1", "word_id" : 13, "text" : "타격을", "weight" : 0.201756 }
			] },
		{"verb" : "아니", "sense" : 1, "word_id" : 16, "weight" : 0.264587,
			"argument" : [
				{"type" : "ARG2", "word_id" : 15, "text" : "의병장이", "weight" : 0.331611 },
				{"type" : "ARG1", "word_id" : 17, "text" : "사람은", "weight" : 0.197563 }
			] }
	],
	"relation" : [
	],
	"SA" : [
	],
	"ZA" : [
		{"id" : 0, "verb_wid" : 10, "ant_sid" : 0, "ant_wid" : 4, "type" : "s", "istitle" : 0, "weight" : 0.315874 },
		{"id" : 1, "verb_wid" : 14, "ant_sid" : 0, "ant_wid" : 4, "type" : "s", "istitle" : 0, "weight" : 0.274238 }
	]
	}
 ],
 "entity" : [
	{"id" : 0, "type" : "", "number" : "singular", "gender" : "", "person" : "", "animacy" : "", "loc" : "", 
	 "mention" : [
		{"id" : 0, "sent_id" : 0, "start_eid" : 0, "end_eid" : 17, "ne_id" : -1, "text" : "임진왜란 때 우리나라 각지에서는 의병들이 일어나 자기 고장의 익숙한 지형을 이용해 왜군에게 큰 타격을 입혔는데 의병장이 아닌 사람", "start_eid_short" : 17, "end_eid_short" : 17, "text_short" : "사람", "weight" : 0.002 },
		{"id" : 7, "sent_id" : 0, "start_eid" : 6, "end_eid" : 6, "ne_id" : -1, "text" : "자기", "start_eid_short" : 6, "end_eid_short" : 6, "text_short" : "자기", "weight" : 0.006 },
		{"id" : 11, "sent_id" : 0, "start_eid" : 17, "end_eid" : 18, "ne_id" : -1, "text" : "누구", "start_eid_short" : 18, "end_eid_short" : 18, "text_short" : "누구이ㄹ까?", "weight" : 0.006 }
	] }
 ]
}

