{"doc_id" : "",
 "DCT" : "",
 "category" : "",
 "category_weight" : 0,
 "title" : {"text" : "", "NE" : ""},
 "metaInfo" : { },
 "sentence" : [
	{
	"id" : 0,
	"reserve_str" : "",
	"text" : "이것은 조선 후기에 집안을 장식하기 위해 그린 그림으로 해, 달, 나무, 꽃, 물고기 등을 소재로 파격적인 구성과 색채를 통해 민중의 소박한 정서를 잘 나타낸 그림이다.",
	"morp" : [
		{"id" : 0, "lemma" : "이것", "type" : "NP", "position" : 0, "weight" : 0.0733657 },
		{"id" : 1, "lemma" : "은", "type" : "JX", "position" : 6, "weight" : 0.191811 },
		{"id" : 2, "lemma" : "조선", "type" : "NNP", "position" : 10, "weight" : 0.0441558 },
		{"id" : 3, "lemma" : "후기", "type" : "NNG", "position" : 17, "weight" : 0.9 },
		{"id" : 4, "lemma" : "에", "type" : "JKB", "position" : 23, "weight" : 0.153364 },
		{"id" : 5, "lemma" : "집안", "type" : "NNG", "position" : 27, "weight" : 0.207862 },
		{"id" : 6, "lemma" : "을", "type" : "JKO", "position" : 33, "weight" : 0.129611 },
		{"id" : 7, "lemma" : "장식", "type" : "NNG", "position" : 37, "weight" : 0.101189 },
		{"id" : 8, "lemma" : "하", "type" : "XSV", "position" : 43, "weight" : 0.0001 },
		{"id" : 9, "lemma" : "기", "type" : "ETN", "position" : 46, "weight" : 0.0556099 },
		{"id" : 10, "lemma" : "위하", "type" : "VV", "position" : 50, "weight" : 0.176484 },
		{"id" : 11, "lemma" : "어", "type" : "EC", "position" : 53, "weight" : 0.41831 },
		{"id" : 12, "lemma" : "그리", "type" : "VV", "position" : 57, "weight" : 0.175899 },
		{"id" : 13, "lemma" : "ㄴ", "type" : "ETM", "position" : 60, "weight" : 0.304215 },
		{"id" : 14, "lemma" : "그림", "type" : "NNG", "position" : 64, "weight" : 0.656598 },
		{"id" : 15, "lemma" : "으로", "type" : "JKB", "position" : 70, "weight" : 0.153406 },
		{"id" : 16, "lemma" : "하", "type" : "VV", "position" : 77, "weight" : 0.275522 },
		{"id" : 17, "lemma" : "어", "type" : "EC", "position" : 77, "weight" : 0.41831 },
		{"id" : 18, "lemma" : ",", "type" : "SP", "position" : 80, "weight" : 1 },
		{"id" : 19, "lemma" : "달", "type" : "NNG", "position" : 82, "weight" : 0.128374 },
		{"id" : 20, "lemma" : ",", "type" : "SP", "position" : 85, "weight" : 1 },
		{"id" : 21, "lemma" : "나무", "type" : "NNG", "position" : 87, "weight" : 0.531532 },
		{"id" : 22, "lemma" : ",", "type" : "SP", "position" : 93, "weight" : 1 },
		{"id" : 23, "lemma" : "꽃", "type" : "NNG", "position" : 95, "weight" : 0.531472 },
		{"id" : 24, "lemma" : ",", "type" : "SP", "position" : 98, "weight" : 1 },
		{"id" : 25, "lemma" : "물", "type" : "NNG", "position" : 100, "weight" : 0.454638 },
		{"id" : 26, "lemma" : "고기", "type" : "NNG", "position" : 103, "weight" : 0.182835 },
		{"id" : 27, "lemma" : "등", "type" : "NNB", "position" : 110, "weight" : 0.0146757 },
		{"id" : 28, "lemma" : "을", "type" : "JKO", "position" : 113, "weight" : 0.0630104 },
		{"id" : 29, "lemma" : "소재", "type" : "NNG", "position" : 117, "weight" : 0.10119 },
		{"id" : 30, "lemma" : "로", "type" : "JKB", "position" : 123, "weight" : 0.153229 },
		{"id" : 31, "lemma" : "파격", "type" : "NNG", "position" : 127, "weight" : 0.9 },
		{"id" : 32, "lemma" : "적", "type" : "XSN", "position" : 133, "weight" : 0.0168756 },
		{"id" : 33, "lemma" : "이", "type" : "VCP", "position" : 136, "weight" : 0.0165001 },
		{"id" : 34, "lemma" : "ㄴ", "type" : "ETM", "position" : 136, "weight" : 0.220712 },
		{"id" : 35, "lemma" : "구성", "type" : "NNG", "position" : 140, "weight" : 0.657441 },
		{"id" : 36, "lemma" : "과", "type" : "JC", "position" : 146, "weight" : 0.017569 },
		{"id" : 37, "lemma" : "색채", "type" : "NNG", "position" : 150, "weight" : 0.9 },
		{"id" : 38, "lemma" : "를", "type" : "JKO", "position" : 156, "weight" : 0.137686 },
		{"id" : 39, "lemma" : "통하", "type" : "VV", "position" : 160, "weight" : 0.9 },
		{"id" : 40, "lemma" : "어", "type" : "EC", "position" : 163, "weight" : 0.41831 },
		{"id" : 41, "lemma" : "민중", "type" : "NNG", "position" : 167, "weight" : 0.219125 },
		{"id" : 42, "lemma" : "의", "type" : "JKG", "position" : 173, "weight" : 0.0694213 },
		{"id" : 43, "lemma" : "소박", "type" : "NNG", "position" : 177, "weight" : 0.9 },
		{"id" : 44, "lemma" : "하", "type" : "XSA", "position" : 183, "weight" : 0.0001 },
		{"id" : 45, "lemma" : "ㄴ", "type" : "ETM", "position" : 183, "weight" : 0.488779 },
		{"id" : 46, "lemma" : "정서", "type" : "NNG", "position" : 187, "weight" : 0.657398 },
		{"id" : 47, "lemma" : "를", "type" : "JKO", "position" : 193, "weight" : 0.137686 },
		{"id" : 48, "lemma" : "잘", "type" : "MAG", "position" : 197, "weight" : 0.0646785 },
		{"id" : 49, "lemma" : "나타내", "type" : "VV", "position" : 201, "weight" : 0.9 },
		{"id" : 50, "lemma" : "ㄴ", "type" : "ETM", "position" : 207, "weight" : 0.304215 },
		{"id" : 51, "lemma" : "그림", "type" : "NNG", "position" : 211, "weight" : 0.656598 },
		{"id" : 52, "lemma" : "이", "type" : "VCP", "position" : 217, "weight" : 0.0177525 },
		{"id" : 53, "lemma" : "다", "type" : "EF", "position" : 220, "weight" : 0.353579 },
		{"id" : 54, "lemma" : ".", "type" : "SF", "position" : 223, "weight" : 1 }
	],
	"morp_eval" : [
		{"id" : 0, "result" : "이것/NP+은/JX", "target" : "이것은", "word_id" : 0, "m_begin" : 0, "m_end" : 1},
		{"id" : 1, "result" : "조선/NNG", "target" : "조선", "word_id" : 1, "m_begin" : 2, "m_end" : 2},
		{"id" : 2, "result" : "후기/NNG+에/JKB", "target" : "후기에", "word_id" : 2, "m_begin" : 3, "m_end" : 4},
		{"id" : 3, "result" : "집안/NNG+을/JKO", "target" : "집안을", "word_id" : 3, "m_begin" : 5, "m_end" : 6},
		{"id" : 4, "result" : "장식하/VV+기/ETN", "target" : "장식하기", "word_id" : 4, "m_begin" : 7, "m_end" : 9},
		{"id" : 5, "result" : "위하/VV+어/EC", "target" : "위해", "word_id" : 5, "m_begin" : 10, "m_end" : 11},
		{"id" : 6, "result" : "그리/VV+ㄴ/ETM", "target" : "그린", "word_id" : 6, "m_begin" : 12, "m_end" : 13},
		{"id" : 7, "result" : "그림/NNG+으로/JKB", "target" : "그림으로", "word_id" : 7, "m_begin" : 14, "m_end" : 15},
		{"id" : 8, "result" : "하/VV+어/EC+,/SP", "target" : "해,", "word_id" : 8, "m_begin" : 16, "m_end" : 18},
		{"id" : 9, "result" : "달/NNG+,/SP", "target" : "달,", "word_id" : 9, "m_begin" : 19, "m_end" : 20},
		{"id" : 10, "result" : "나무/NNG+,/SP", "target" : "나무,", "word_id" : 10, "m_begin" : 21, "m_end" : 22},
		{"id" : 11, "result" : "꽃/NNG+,/SP", "target" : "꽃,", "word_id" : 11, "m_begin" : 23, "m_end" : 24},
		{"id" : 12, "result" : "물고기/NNG", "target" : "물고기", "word_id" : 12, "m_begin" : 25, "m_end" : 26},
		{"id" : 13, "result" : "등/NNB+을/JKO", "target" : "등을", "word_id" : 13, "m_begin" : 27, "m_end" : 28},
		{"id" : 14, "result" : "소재/NNG+로/JKB", "target" : "소재로", "word_id" : 14, "m_begin" : 29, "m_end" : 30},
		{"id" : 15, "result" : "파격적/NNG+이/VCP+ㄴ/ETM", "target" : "파격적인", "word_id" : 15, "m_begin" : 31, "m_end" : 34},
		{"id" : 16, "result" : "구성/NNG+과/JC", "target" : "구성과", "word_id" : 16, "m_begin" : 35, "m_end" : 36},
		{"id" : 17, "result" : "색채/NNG+를/JKO", "target" : "색채를", "word_id" : 17, "m_begin" : 37, "m_end" : 38},
		{"id" : 18, "result" : "통하/VV+어/EC", "target" : "통해", "word_id" : 18, "m_begin" : 39, "m_end" : 40},
		{"id" : 19, "result" : "민중/NNG+의/JKG", "target" : "민중의", "word_id" : 19, "m_begin" : 41, "m_end" : 42},
		{"id" : 20, "result" : "소박하/VA+ㄴ/ETM", "target" : "소박한", "word_id" : 20, "m_begin" : 43, "m_end" : 45},
		{"id" : 21, "result" : "정서/NNG+를/JKO", "target" : "정서를", "word_id" : 21, "m_begin" : 46, "m_end" : 47},
		{"id" : 22, "result" : "잘/MAG", "target" : "잘", "word_id" : 22, "m_begin" : 48, "m_end" : 48},
		{"id" : 23, "result" : "나타내/VV+ㄴ/ETM", "target" : "나타낸", "word_id" : 23, "m_begin" : 49, "m_end" : 50},
		{"id" : 24, "result" : "그림/NNG+이/VCP+다/EF+./SF", "target" : "그림이다.", "word_id" : 24, "m_begin" : 51, "m_end" : 54}
	],
	"WSD" : [
		{"id" : 0, "text" : "이것", "type" : "NP", "scode" : "00", "weight" : 1, "position" : 0, "begin" : 0, "end" : 0},
		{"id" : 1, "text" : "은", "type" : "JX", "scode" : "00", "weight" : 1, "position" : 6, "begin" : 1, "end" : 1},
		{"id" : 2, "text" : "조선", "type" : "NNP", "scode" : "05", "weight" : 1, "position" : 10, "begin" : 2, "end" : 2},
		{"id" : 3, "text" : "후기", "type" : "NNG", "scode" : "03", "weight" : 1, "position" : 17, "begin" : 3, "end" : 3},
		{"id" : 4, "text" : "에", "type" : "JKB", "scode" : "00", "weight" : 1, "position" : 23, "begin" : 4, "end" : 4},
		{"id" : 5, "text" : "집안", "type" : "NNG", "scode" : "01", "weight" : 1, "position" : 27, "begin" : 5, "end" : 5},
		{"id" : 6, "text" : "을", "type" : "JKO", "scode" : "00", "weight" : 1, "position" : 33, "begin" : 6, "end" : 6},
		{"id" : 7, "text" : "장식하", "type" : "VV", "scode" : "03", "weight" : 1, "position" : 37, "begin" : 7, "end" : 8},
		{"id" : 8, "text" : "기", "type" : "ETN", "scode" : "00", "weight" : 1, "position" : 46, "begin" : 9, "end" : 9},
		{"id" : 9, "text" : "위하", "type" : "VV", "scode" : "01", "weight" : 1, "position" : 50, "begin" : 10, "end" : 10},
		{"id" : 10, "text" : "어", "type" : "EC", "scode" : "00", "weight" : 1, "position" : 53, "begin" : 11, "end" : 11},
		{"id" : 11, "text" : "그리", "type" : "VV", "scode" : "02", "weight" : 1, "position" : 57, "begin" : 12, "end" : 12},
		{"id" : 12, "text" : "ㄴ", "type" : "ETM", "scode" : "00", "weight" : 1, "position" : 60, "begin" : 13, "end" : 13},
		{"id" : 13, "text" : "그림", "type" : "NNG", "scode" : "01", "weight" : 1, "position" : 64, "begin" : 14, "end" : 14},
		{"id" : 14, "text" : "으로", "type" : "JKB", "scode" : "00", "weight" : 1, "position" : 70, "begin" : 15, "end" : 15},
		{"id" : 15, "text" : "하", "type" : "VV", "scode" : "01", "weight" : 1, "position" : 77, "begin" : 16, "end" : 16},
		{"id" : 16, "text" : "어", "type" : "EC", "scode" : "00", "weight" : 1, "position" : 77, "begin" : 17, "end" : 17},
		{"id" : 17, "text" : ",", "type" : "SP", "scode" : "00", "weight" : 1, "position" : 80, "begin" : 18, "end" : 18},
		{"id" : 18, "text" : "달", "type" : "NNG", "scode" : "05", "weight" : 1, "position" : 82, "begin" : 19, "end" : 19},
		{"id" : 19, "text" : ",", "type" : "SP", "scode" : "00", "weight" : 1, "position" : 85, "begin" : 20, "end" : 20},
		{"id" : 20, "text" : "나무", "type" : "NNG", "scode" : "01", "weight" : 1, "position" : 87, "begin" : 21, "end" : 21},
		{"id" : 21, "text" : ",", "type" : "SP", "scode" : "00", "weight" : 1, "position" : 93, "begin" : 22, "end" : 22},
		{"id" : 22, "text" : "꽃", "type" : "NNG", "scode" : "01", "weight" : 1, "position" : 95, "begin" : 23, "end" : 23},
		{"id" : 23, "text" : ",", "type" : "SP", "scode" : "00", "weight" : 1, "position" : 98, "begin" : 24, "end" : 24},
		{"id" : 24, "text" : "물고기", "type" : "NNG", "scode" : "00", "weight" : 1, "position" : 100, "begin" : 25, "end" : 26},
		{"id" : 25, "text" : "등", "type" : "NNB", "scode" : "05", "weight" : 1, "position" : 110, "begin" : 27, "end" : 27},
		{"id" : 26, "text" : "을", "type" : "JKO", "scode" : "00", "weight" : 1, "position" : 113, "begin" : 28, "end" : 28},
		{"id" : 27, "text" : "소재", "type" : "NNG", "scode" : "05", "weight" : 1, "position" : 117, "begin" : 29, "end" : 29},
		{"id" : 28, "text" : "로", "type" : "JKB", "scode" : "00", "weight" : 1, "position" : 123, "begin" : 30, "end" : 30},
		{"id" : 29, "text" : "파격적", "type" : "NNG", "scode" : "00", "weight" : 1, "position" : 127, "begin" : 31, "end" : 32},
		{"id" : 30, "text" : "이", "type" : "VCP", "scode" : "00", "weight" : 1, "position" : 136, "begin" : 33, "end" : 33},
		{"id" : 31, "text" : "ㄴ", "type" : "ETM", "scode" : "00", "weight" : 1, "position" : 136, "begin" : 34, "end" : 34},
		{"id" : 32, "text" : "구성", "type" : "NNG", "scode" : "07", "weight" : 1, "position" : 140, "begin" : 35, "end" : 35},
		{"id" : 33, "text" : "과", "type" : "JC", "scode" : "00", "weight" : 1, "position" : 146, "begin" : 36, "end" : 36},
		{"id" : 34, "text" : "색채", "type" : "NNG", "scode" : "00", "weight" : 1, "position" : 150, "begin" : 37, "end" : 37},
		{"id" : 35, "text" : "를", "type" : "JKO", "scode" : "00", "weight" : 1, "position" : 156, "begin" : 38, "end" : 38},
		{"id" : 36, "text" : "통하", "type" : "VV", "scode" : "00", "weight" : 1, "position" : 160, "begin" : 39, "end" : 39},
		{"id" : 37, "text" : "어", "type" : "EC", "scode" : "00", "weight" : 1, "position" : 163, "begin" : 40, "end" : 40},
		{"id" : 38, "text" : "민중", "type" : "NNG", "scode" : "00", "weight" : 1, "position" : 167, "begin" : 41, "end" : 41},
		{"id" : 39, "text" : "의", "type" : "JKG", "scode" : "00", "weight" : 1, "position" : 173, "begin" : 42, "end" : 42},
		{"id" : 40, "text" : "소박하", "type" : "VA", "scode" : "01", "weight" : 1, "position" : 177, "begin" : 43, "end" : 44},
		{"id" : 41, "text" : "ㄴ", "type" : "ETM", "scode" : "00", "weight" : 1, "position" : 183, "begin" : 45, "end" : 45},
		{"id" : 42, "text" : "정서", "type" : "NNG", "scode" : "06", "weight" : 1, "position" : 187, "begin" : 46, "end" : 46},
		{"id" : 43, "text" : "를", "type" : "JKO", "scode" : "00", "weight" : 1, "position" : 193, "begin" : 47, "end" : 47},
		{"id" : 44, "text" : "잘", "type" : "MAG", "scode" : "02", "weight" : 1, "position" : 197, "begin" : 48, "end" : 48},
		{"id" : 45, "text" : "나타내", "type" : "VV", "scode" : "00", "weight" : 1, "position" : 201, "begin" : 49, "end" : 49},
		{"id" : 46, "text" : "ㄴ", "type" : "ETM", "scode" : "00", "weight" : 1, "position" : 207, "begin" : 50, "end" : 50},
		{"id" : 47, "text" : "그림", "type" : "NNG", "scode" : "01", "weight" : 1, "position" : 211, "begin" : 51, "end" : 51},
		{"id" : 48, "text" : "이", "type" : "VCP", "scode" : "00", "weight" : 1, "position" : 217, "begin" : 52, "end" : 52},
		{"id" : 49, "text" : "다", "type" : "EF", "scode" : "00", "weight" : 1, "position" : 220, "begin" : 53, "end" : 53},
		{"id" : 50, "text" : ".", "type" : "SF", "scode" : "00", "weight" : 1, "position" : 223, "begin" : 54, "end" : 54}
	],
	"word" : [
		{"id" : 0, "text" : "이것은", "type" : "", "begin" : 0, "end" : 1},
		{"id" : 1, "text" : "조선", "type" : "", "begin" : 2, "end" : 2},
		{"id" : 2, "text" : "후기에", "type" : "", "begin" : 3, "end" : 4},
		{"id" : 3, "text" : "집안을", "type" : "", "begin" : 5, "end" : 6},
		{"id" : 4, "text" : "장식하기", "type" : "", "begin" : 7, "end" : 9},
		{"id" : 5, "text" : "위해", "type" : "", "begin" : 10, "end" : 11},
		{"id" : 6, "text" : "그린", "type" : "", "begin" : 12, "end" : 13},
		{"id" : 7, "text" : "그림으로", "type" : "", "begin" : 14, "end" : 15},
		{"id" : 8, "text" : "해,", "type" : "", "begin" : 16, "end" : 18},
		{"id" : 9, "text" : "달,", "type" : "", "begin" : 19, "end" : 20},
		{"id" : 10, "text" : "나무,", "type" : "", "begin" : 21, "end" : 22},
		{"id" : 11, "text" : "꽃,", "type" : "", "begin" : 23, "end" : 24},
		{"id" : 12, "text" : "물고기", "type" : "", "begin" : 25, "end" : 26},
		{"id" : 13, "text" : "등을", "type" : "", "begin" : 27, "end" : 28},
		{"id" : 14, "text" : "소재로", "type" : "", "begin" : 29, "end" : 30},
		{"id" : 15, "text" : "파격적인", "type" : "", "begin" : 31, "end" : 34},
		{"id" : 16, "text" : "구성과", "type" : "", "begin" : 35, "end" : 36},
		{"id" : 17, "text" : "색채를", "type" : "", "begin" : 37, "end" : 38},
		{"id" : 18, "text" : "통해", "type" : "", "begin" : 39, "end" : 40},
		{"id" : 19, "text" : "민중의", "type" : "", "begin" : 41, "end" : 42},
		{"id" : 20, "text" : "소박한", "type" : "", "begin" : 43, "end" : 45},
		{"id" : 21, "text" : "정서를", "type" : "", "begin" : 46, "end" : 47},
		{"id" : 22, "text" : "잘", "type" : "", "begin" : 48, "end" : 48},
		{"id" : 23, "text" : "나타낸", "type" : "", "begin" : 49, "end" : 50},
		{"id" : 24, "text" : "그림이다.", "type" : "", "begin" : 51, "end" : 54}
	],
	"NE" : [
		{"id" : 0, "text" : "조선 후기", "type" : "DT_DYNASTY", "begin" : 2, "end" : 3, "weight" : 0.891725, "common_noun" : 0},
		{"id" : 1, "text" : "꽃", "type" : "PT_PART", "begin" : 23, "end" : 23, "weight" : 0.441254, "common_noun" : 0}
	],
	"chunk" : [
	],
	"dependency" : [
		{"id" : 0, "text" : "이것은", "head" : 24, "label" : "NP_SBJ", "mod" : [], "weight" : 0.988729 },
		{"id" : 1, "text" : "조선", "head" : 2, "label" : "NP", "mod" : [], "weight" : 0.951008 },
		{"id" : 2, "text" : "후기에", "head" : 4, "label" : "NP_AJT", "mod" : [1], "weight" : 0.818975 },
		{"id" : 3, "text" : "집안을", "head" : 4, "label" : "NP_OBJ", "mod" : [], "weight" : 0.954268 },
		{"id" : 4, "text" : "장식하기", "head" : 5, "label" : "VP_OBJ", "mod" : [2, 3], "weight" : 0.682445 },
		{"id" : 5, "text" : "위해", "head" : 6, "label" : "VP", "mod" : [4], "weight" : 0.621649 },
		{"id" : 6, "text" : "그린", "head" : 7, "label" : "VP_MOD", "mod" : [5], "weight" : 0.965399 },
		{"id" : 7, "text" : "그림으로", "head" : 8, "label" : "NP_AJT", "mod" : [6], "weight" : 0.96525 },
		{"id" : 8, "text" : "해,", "head" : 18, "label" : "VP", "mod" : [7], "weight" : 0.604211 },
		{"id" : 9, "text" : "달,", "head" : 12, "label" : "NP_CNJ", "mod" : [], "weight" : 0.773905 },
		{"id" : 10, "text" : "나무,", "head" : 12, "label" : "NP_CNJ", "mod" : [], "weight" : 0.829476 },
		{"id" : 11, "text" : "꽃,", "head" : 12, "label" : "NP_CNJ", "mod" : [], "weight" : 0.730938 },
		{"id" : 12, "text" : "물고기", "head" : 13, "label" : "NP", "mod" : [9, 10, 11], "weight" : 0.85754 },
		{"id" : 13, "text" : "등을", "head" : 14, "label" : "NP_OBJ", "mod" : [12], "weight" : 0.652874 },
		{"id" : 14, "text" : "소재로", "head" : 18, "label" : "NP_AJT", "mod" : [13], "weight" : 0.602257 },
		{"id" : 15, "text" : "파격적인", "head" : 17, "label" : "VNP_MOD", "mod" : [], "weight" : 0.733711 },
		{"id" : 16, "text" : "구성과", "head" : 17, "label" : "NP_CNJ", "mod" : [], "weight" : 0.715386 },
		{"id" : 17, "text" : "색채를", "head" : 18, "label" : "NP_OBJ", "mod" : [15, 16], "weight" : 0.999154 },
		{"id" : 18, "text" : "통해", "head" : 23, "label" : "VP", "mod" : [8, 14, 17], "weight" : 0.856905 },
		{"id" : 19, "text" : "민중의", "head" : 21, "label" : "NP_MOD", "mod" : [], "weight" : 0.93827 },
		{"id" : 20, "text" : "소박한", "head" : 21, "label" : "VP_MOD", "mod" : [], "weight" : 0.929819 },
		{"id" : 21, "text" : "정서를", "head" : 23, "label" : "NP_OBJ", "mod" : [19, 20], "weight" : 0.7331 },
		{"id" : 22, "text" : "잘", "head" : 23, "label" : "AP", "mod" : [], "weight" : 0.551857 },
		{"id" : 23, "text" : "나타낸", "head" : 24, "label" : "VP_MOD", "mod" : [18, 21, 22], "weight" : 0.491247 },
		{"id" : 24, "text" : "그림이다.", "head" : -1, "label" : "VNP", "mod" : [0, 23], "weight" : 0.00129805 }
	],
	"SRL" : [
		{"verb" : "장식", "sense" : 1, "word_id" : 4, "weight" : 0.303942,
			"argument" : [
				{"type" : "ARG1", "word_id" : 3, "text" : "집안을", "weight" : 0.303942 }
			] },
		{"verb" : "위하", "sense" : 1, "word_id" : 5, "weight" : 0.230285,
			"argument" : [
				{"type" : "ARG1", "word_id" : 4, "text" : "장식하기", "weight" : 0.230285 }
			] },
		{"verb" : "그리", "sense" : 1, "word_id" : 6, "weight" : 0.304162,
			"argument" : [
				{"type" : "ARGM-TMP", "word_id" : 2, "text" : "후기에", "weight" : 0.348357 },
				{"type" : "ARGM-PRP", "word_id" : 5, "text" : "위해", "weight" : 0.258328 },
				{"type" : "ARG1", "word_id" : 7, "text" : "그림으로", "weight" : 0.305802 }
			] },
		{"verb" : "하", "sense" : 3, "word_id" : 8, "weight" : 0.164083,
			"argument" : [
				{"type" : "ARG2", "word_id" : 7, "text" : "그림으로", "weight" : 0.164083 }
			] },
		{"verb" : "통하", "sense" : 1, "word_id" : 18, "weight" : 0.317378,
			"argument" : [
				{"type" : "ARG1", "word_id" : 13, "text" : "등을", "weight" : 0.232214 },
				{"type" : "ARG2", "word_id" : 16, "text" : "구성과", "weight" : 0.290844 },
				{"type" : "ARG2", "word_id" : 17, "text" : "색채를", "weight" : 0.429076 }
			] },
		{"verb" : "소박", "sense" : 1, "word_id" : 20, "weight" : 0.390255,
			"argument" : [
				{"type" : "ARG1", "word_id" : 21, "text" : "정서를", "weight" : 0.390255 }
			] },
		{"verb" : "나타내", "sense" : 1, "word_id" : 23, "weight" : 0.271627,
			"argument" : [
				{"type" : "ARGM-MNR", "word_id" : 18, "text" : "통해", "weight" : 0.180335 },
				{"type" : "ARG1", "word_id" : 21, "text" : "정서를", "weight" : 0.362755 },
				{"type" : "ARGM-ADV", "word_id" : 22, "text" : "잘", "weight" : 0.27179 }
			] }
	],
	"relation" : [
	],
	"SA" : [
	],
	"ZA" : [
		{"id" : 0, "verb_wid" : 4, "ant_sid" : -1, "ant_wid" : -1, "type" : "s", "istitle" : 0, "weight" : 0.74946 },
		{"id" : 1, "verb_wid" : 8, "ant_sid" : 0, "ant_wid" : 0, "type" : "s", "istitle" : 0, "weight" : 0.547032 }
	]
	},
	{
	"id" : 1,
	"reserve_str" : "",
	"text" : "이 그림은 무엇일까? ",
	"morp" : [
		{"id" : 0, "lemma" : "이", "type" : "MM", "position" : 224, "weight" : 0.0020222 },
		{"id" : 1, "lemma" : "그림", "type" : "NNG", "position" : 228, "weight" : 0.734943 },
		{"id" : 2, "lemma" : "은", "type" : "JX", "position" : 234, "weight" : 0.0449928 },
		{"id" : 3, "lemma" : "무엇", "type" : "NP", "position" : 238, "weight" : 0.9 },
		{"id" : 4, "lemma" : "이", "type" : "VCP", "position" : 244, "weight" : 0.0175768 },
		{"id" : 5, "lemma" : "ㄹ까", "type" : "EF", "position" : 244, "weight" : 0.258243 },
		{"id" : 6, "lemma" : "?", "type" : "SF", "position" : 250, "weight" : 1 }
	],
	"morp_eval" : [
		{"id" : 0, "result" : "이/MM", "target" : "이", "word_id" : 0, "m_begin" : 0, "m_end" : 0},
		{"id" : 1, "result" : "그림/NNG+은/JX", "target" : "그림은", "word_id" : 1, "m_begin" : 1, "m_end" : 2},
		{"id" : 2, "result" : "무엇/NP+이/VCP+ㄹ까/EF+?/SF", "target" : "무엇일까?", "word_id" : 2, "m_begin" : 3, "m_end" : 6}
	],
	"WSD" : [
		{"id" : 0, "text" : "이", "type" : "MM", "scode" : "05", "weight" : 1, "position" : 224, "begin" : 0, "end" : 0},
		{"id" : 1, "text" : "그림", "type" : "NNG", "scode" : "01", "weight" : 1, "position" : 228, "begin" : 1, "end" : 1},
		{"id" : 2, "text" : "은", "type" : "JX", "scode" : "00", "weight" : 1, "position" : 234, "begin" : 2, "end" : 2},
		{"id" : 3, "text" : "무엇", "type" : "NP", "scode" : "00", "weight" : 1, "position" : 238, "begin" : 3, "end" : 3},
		{"id" : 4, "text" : "이", "type" : "VCP", "scode" : "00", "weight" : 1, "position" : 244, "begin" : 4, "end" : 4},
		{"id" : 5, "text" : "ㄹ까", "type" : "EF", "scode" : "00", "weight" : 1, "position" : 244, "begin" : 5, "end" : 5},
		{"id" : 6, "text" : "?", "type" : "SF", "scode" : "00", "weight" : 1, "position" : 250, "begin" : 6, "end" : 6}
	],
	"word" : [
		{"id" : 0, "text" : "이", "type" : "", "begin" : 0, "end" : 0},
		{"id" : 1, "text" : "그림은", "type" : "", "begin" : 1, "end" : 2},
		{"id" : 2, "text" : "무엇일까?", "type" : "", "begin" : 3, "end" : 6}
	],
	"NE" : [
	],
	"chunk" : [
	],
	"dependency" : [
		{"id" : 0, "text" : "이", "head" : 1, "label" : "DP", "mod" : [], "weight" : 0.921895 },
		{"id" : 1, "text" : "그림은", "head" : 2, "label" : "NP_SBJ", "mod" : [0], "weight" : 0.700122 },
		{"id" : 2, "text" : "무엇일까?", "head" : -1, "label" : "VNP", "mod" : [1], "weight" : 0.461541 }
	],
	"SRL" : [
	],
	"relation" : [
	],
	"SA" : [
	],
	"ZA" : [
	]
	}
 ],
 "entity" : [
	{"id" : 0, "type" : "", "number" : "singular", "gender" : "", "person" : "", "animacy" : "", "loc" : "", 
	 "mention" : [
		{"id" : 0, "sent_id" : 0, "start_eid" : 0, "end_eid" : 0, "ne_id" : -1, "text" : "이것", "start_eid_short" : 0, "end_eid_short" : 0, "text_short" : "이것", "weight" : 0.018 },
		{"id" : 2, "sent_id" : 0, "start_eid" : 1, "end_eid" : 7, "ne_id" : -1, "text" : "조선 후기에 집안을 장식하기 위해 그린 그림", "start_eid_short" : 7, "end_eid_short" : 7, "text_short" : "그림", "weight" : 0.002 },
		{"id" : 16, "sent_id" : 1, "start_eid" : 0, "end_eid" : 1, "ne_id" : -1, "text" : "이 그림", "start_eid_short" : 0, "end_eid_short" : 1, "text_short" : "이 그림", "weight" : 0.006 },
		{"id" : 17, "sent_id" : 1, "start_eid" : 2, "end_eid" : 2, "ne_id" : -1, "text" : "무엇", "start_eid_short" : 2, "end_eid_short" : 2, "text_short" : "무엇이ㄹ까?", "weight" : 0.006 }
	] }
 ]
}

