{"doc_id" : "",
 "DCT" : "",
 "category" : "",
 "category_weight" : 0,
 "title" : {"text" : "", "NE" : ""},
 "metaInfo" : { },
 "sentence" : [
	{
	"id" : 0,
	"reserve_str" : "",
	"text" : "﻿역사적으로 적외선의 존재가 처음 입증된 것은 1800년 독일 출신의 영국 천체학자인 윌리엄 허셜에 의해서였다. ",
	"morp" : [
		{"id" : 0, "lemma" : "﻿역사적", "type" : "NNP", "position" : 0, "weight" : 0.6 },
		{"id" : 1, "lemma" : "으로", "type" : "JKB", "position" : 12, "weight" : 0.0823853 },
		{"id" : 2, "lemma" : "적외", "type" : "NNG", "position" : 19, "weight" : 0.35 },
		{"id" : 3, "lemma" : "선", "type" : "XSN", "position" : 25, "weight" : 0.00217259 },
		{"id" : 4, "lemma" : "의", "type" : "JKG", "position" : 28, "weight" : 0.120732 },
		{"id" : 5, "lemma" : "존재", "type" : "NNG", "position" : 32, "weight" : 0.9 },
		{"id" : 6, "lemma" : "가", "type" : "JKS", "position" : 38, "weight" : 0.066324 },
		{"id" : 7, "lemma" : "처음", "type" : "NNG", "position" : 42, "weight" : 0.9 },
		{"id" : 8, "lemma" : "입증", "type" : "NNG", "position" : 49, "weight" : 0.9 },
		{"id" : 9, "lemma" : "되", "type" : "XSV", "position" : 55, "weight" : 0.000224177 },
		{"id" : 10, "lemma" : "ㄴ", "type" : "ETM", "position" : 55, "weight" : 0.392321 },
		{"id" : 11, "lemma" : "것", "type" : "NNB", "position" : 59, "weight" : 0.228788 },
		{"id" : 12, "lemma" : "은", "type" : "JX", "position" : 62, "weight" : 0.0688243 },
		{"id" : 13, "lemma" : "1800", "type" : "SN", "position" : 66, "weight" : 1 },
		{"id" : 14, "lemma" : "년", "type" : "NNB", "position" : 70, "weight" : 0.414343 },
		{"id" : 15, "lemma" : "독일", "type" : "NNP", "position" : 74, "weight" : 0.9 },
		{"id" : 16, "lemma" : "출신", "type" : "NNG", "position" : 81, "weight" : 0.9 },
		{"id" : 17, "lemma" : "의", "type" : "JKG", "position" : 87, "weight" : 0.0694213 },
		{"id" : 18, "lemma" : "영국", "type" : "NNP", "position" : 91, "weight" : 0.9 },
		{"id" : 19, "lemma" : "천체", "type" : "NNG", "position" : 98, "weight" : 0.9 },
		{"id" : 20, "lemma" : "학자", "type" : "NNG", "position" : 104, "weight" : 0.9 },
		{"id" : 21, "lemma" : "이", "type" : "VCP", "position" : 110, "weight" : 0.0177525 },
		{"id" : 22, "lemma" : "ㄴ", "type" : "ETM", "position" : 110, "weight" : 0.220712 },
		{"id" : 23, "lemma" : "윌리엄", "type" : "NNP", "position" : 114, "weight" : 0.9 },
		{"id" : 24, "lemma" : "허셜", "type" : "NNP", "position" : 124, "weight" : 0.25 },
		{"id" : 25, "lemma" : "에", "type" : "JKB", "position" : 130, "weight" : 0.0823628 },
		{"id" : 26, "lemma" : "의하", "type" : "VV", "position" : 134, "weight" : 0.9 },
		{"id" : 27, "lemma" : "어서", "type" : "EC", "position" : 137, "weight" : 0.421998 },
		{"id" : 28, "lemma" : "이", "type" : "VCP", "position" : 143, "weight" : 0.000445766 },
		{"id" : 29, "lemma" : "었", "type" : "EP", "position" : 143, "weight" : 0.9 },
		{"id" : 30, "lemma" : "다", "type" : "EF", "position" : 146, "weight" : 0.640954 },
		{"id" : 31, "lemma" : ".", "type" : "SF", "position" : 149, "weight" : 1 }
	],
	"morp_eval" : [
		{"id" : 0, "result" : "﻿역사적/NNG+으로/JKB", "target" : "﻿역사적으로", "word_id" : 0, "m_begin" : 0, "m_end" : 1},
		{"id" : 1, "result" : "적외선/NNG+의/JKG", "target" : "적외선의", "word_id" : 1, "m_begin" : 2, "m_end" : 4},
		{"id" : 2, "result" : "존재/NNG+가/JKS", "target" : "존재가", "word_id" : 2, "m_begin" : 5, "m_end" : 6},
		{"id" : 3, "result" : "처음/NNG", "target" : "처음", "word_id" : 3, "m_begin" : 7, "m_end" : 7},
		{"id" : 4, "result" : "입증되/VV+ㄴ/ETM", "target" : "입증된", "word_id" : 4, "m_begin" : 8, "m_end" : 10},
		{"id" : 5, "result" : "것/NNB+은/JX", "target" : "것은", "word_id" : 5, "m_begin" : 11, "m_end" : 12},
		{"id" : 6, "result" : "1800/SN+년/NNB", "target" : "1800년", "word_id" : 6, "m_begin" : 13, "m_end" : 14},
		{"id" : 7, "result" : "독일/NNG", "target" : "독일", "word_id" : 7, "m_begin" : 15, "m_end" : 15},
		{"id" : 8, "result" : "출신/NNG+의/JKG", "target" : "출신의", "word_id" : 8, "m_begin" : 16, "m_end" : 17},
		{"id" : 9, "result" : "영국/NNG", "target" : "영국", "word_id" : 9, "m_begin" : 18, "m_end" : 18},
		{"id" : 10, "result" : "천체학자/NNG+이/VCP+ㄴ/ETM", "target" : "천체학자인", "word_id" : 10, "m_begin" : 19, "m_end" : 22},
		{"id" : 11, "result" : "윌리엄/NNG", "target" : "윌리엄", "word_id" : 11, "m_begin" : 23, "m_end" : 23},
		{"id" : 12, "result" : "허셜/NNG+에/JKB", "target" : "허셜에", "word_id" : 12, "m_begin" : 24, "m_end" : 25},
		{"id" : 13, "result" : "의하/VV+어서/EC+이/VCP+었/EP+다/EF+./SF", "target" : "의해서였다.", "word_id" : 13, "m_begin" : 26, "m_end" : 31}
	],
	"WSD" : [
		{"id" : 0, "text" : "﻿역사적", "type" : "NNP", "scode" : "00", "weight" : 0, "position" : 0, "begin" : 0, "end" : 0},
		{"id" : 1, "text" : "으로", "type" : "JKB", "scode" : "00", "weight" : 1, "position" : 12, "begin" : 1, "end" : 1},
		{"id" : 2, "text" : "적외선", "type" : "NNG", "scode" : "00", "weight" : 1, "position" : 19, "begin" : 2, "end" : 3},
		{"id" : 3, "text" : "의", "type" : "JKG", "scode" : "00", "weight" : 1, "position" : 28, "begin" : 4, "end" : 4},
		{"id" : 4, "text" : "존재", "type" : "NNG", "scode" : "00", "weight" : 1, "position" : 32, "begin" : 5, "end" : 5},
		{"id" : 5, "text" : "가", "type" : "JKS", "scode" : "00", "weight" : 1, "position" : 38, "begin" : 6, "end" : 6},
		{"id" : 6, "text" : "처음", "type" : "NNG", "scode" : "00", "weight" : 1, "position" : 42, "begin" : 7, "end" : 7},
		{"id" : 7, "text" : "입증되", "type" : "VV", "scode" : "00", "weight" : 1, "position" : 49, "begin" : 8, "end" : 9},
		{"id" : 8, "text" : "ㄴ", "type" : "ETM", "scode" : "00", "weight" : 1, "position" : 55, "begin" : 10, "end" : 10},
		{"id" : 9, "text" : "것", "type" : "NNB", "scode" : "01", "weight" : 1, "position" : 59, "begin" : 11, "end" : 11},
		{"id" : 10, "text" : "은", "type" : "JX", "scode" : "00", "weight" : 1, "position" : 62, "begin" : 12, "end" : 12},
		{"id" : 11, "text" : "1800", "type" : "SN", "scode" : "00", "weight" : 1, "position" : 66, "begin" : 13, "end" : 13},
		{"id" : 12, "text" : "년", "type" : "NNB", "scode" : "02", "weight" : 1, "position" : 70, "begin" : 14, "end" : 14},
		{"id" : 13, "text" : "독일", "type" : "NNP", "scode" : "00", "weight" : 1, "position" : 74, "begin" : 15, "end" : 15},
		{"id" : 14, "text" : "출신", "type" : "NNG", "scode" : "00", "weight" : 1, "position" : 81, "begin" : 16, "end" : 16},
		{"id" : 15, "text" : "의", "type" : "JKG", "scode" : "00", "weight" : 1, "position" : 87, "begin" : 17, "end" : 17},
		{"id" : 16, "text" : "영국", "type" : "NNP", "scode" : "01", "weight" : 1, "position" : 91, "begin" : 18, "end" : 18},
		{"id" : 17, "text" : "천체", "type" : "NNG", "scode" : "01", "weight" : 1, "position" : 98, "begin" : 19, "end" : 19},
		{"id" : 18, "text" : "학자", "type" : "NNG", "scode" : "01", "weight" : 1, "position" : 104, "begin" : 20, "end" : 20},
		{"id" : 19, "text" : "이", "type" : "VCP", "scode" : "00", "weight" : 1, "position" : 110, "begin" : 21, "end" : 21},
		{"id" : 20, "text" : "ㄴ", "type" : "ETM", "scode" : "00", "weight" : 1, "position" : 110, "begin" : 22, "end" : 22},
		{"id" : 21, "text" : "윌리엄", "type" : "NNP", "scode" : "00", "weight" : 1, "position" : 114, "begin" : 23, "end" : 23},
		{"id" : 22, "text" : "허셜", "type" : "NNP", "scode" : "01", "weight" : 1, "position" : 124, "begin" : 24, "end" : 24},
		{"id" : 23, "text" : "에", "type" : "JKB", "scode" : "00", "weight" : 1, "position" : 130, "begin" : 25, "end" : 25},
		{"id" : 24, "text" : "의하", "type" : "VV", "scode" : "01", "weight" : 1, "position" : 134, "begin" : 26, "end" : 26},
		{"id" : 25, "text" : "어서", "type" : "EC", "scode" : "00", "weight" : 1, "position" : 137, "begin" : 27, "end" : 27},
		{"id" : 26, "text" : "이", "type" : "VCP", "scode" : "00", "weight" : 1, "position" : 143, "begin" : 28, "end" : 28},
		{"id" : 27, "text" : "었", "type" : "EP", "scode" : "00", "weight" : 1, "position" : 143, "begin" : 29, "end" : 29},
		{"id" : 28, "text" : "다", "type" : "EF", "scode" : "00", "weight" : 1, "position" : 146, "begin" : 30, "end" : 30},
		{"id" : 29, "text" : ".", "type" : "SF", "scode" : "00", "weight" : 1, "position" : 149, "begin" : 31, "end" : 31}
	],
	"word" : [
		{"id" : 0, "text" : "﻿역사적으로", "type" : "", "begin" : 0, "end" : 1},
		{"id" : 1, "text" : "적외선의", "type" : "", "begin" : 2, "end" : 4},
		{"id" : 2, "text" : "존재가", "type" : "", "begin" : 5, "end" : 6},
		{"id" : 3, "text" : "처음", "type" : "", "begin" : 7, "end" : 7},
		{"id" : 4, "text" : "입증된", "type" : "", "begin" : 8, "end" : 10},
		{"id" : 5, "text" : "것은", "type" : "", "begin" : 11, "end" : 12},
		{"id" : 6, "text" : "1800년", "type" : "", "begin" : 13, "end" : 14},
		{"id" : 7, "text" : "독일", "type" : "", "begin" : 15, "end" : 15},
		{"id" : 8, "text" : "출신의", "type" : "", "begin" : 16, "end" : 17},
		{"id" : 9, "text" : "영국", "type" : "", "begin" : 18, "end" : 18},
		{"id" : 10, "text" : "천체학자인", "type" : "", "begin" : 19, "end" : 22},
		{"id" : 11, "text" : "윌리엄", "type" : "", "begin" : 23, "end" : 23},
		{"id" : 12, "text" : "허셜에", "type" : "", "begin" : 24, "end" : 25},
		{"id" : 13, "text" : "의해서였다.", "type" : "", "begin" : 26, "end" : 31}
	],
	"NE" : [
		{"id" : 0, "text" : "1800년", "type" : "DT_YEAR", "begin" : 13, "end" : 14, "weight" : 0.531073, "common_noun" : 0},
		{"id" : 1, "text" : "독일", "type" : "LCP_COUNTRY", "begin" : 15, "end" : 15, "weight" : 0.698926, "common_noun" : 0},
		{"id" : 2, "text" : "영국", "type" : "LCP_COUNTRY", "begin" : 18, "end" : 18, "weight" : 0.618831, "common_noun" : 0},
		{"id" : 3, "text" : "학자", "type" : "CV_OCCUPATION", "begin" : 20, "end" : 20, "weight" : 0.202864, "common_noun" : 0},
		{"id" : 4, "text" : "윌리엄 허셜", "type" : "PS_NAME", "begin" : 23, "end" : 24, "weight" : 0.303986, "common_noun" : 0}
	],
	"chunk" : [
	],
	"dependency" : [
		{"id" : 0, "text" : "﻿역사적으로", "head" : 4, "label" : "NP_AJT", "mod" : [], "weight" : 0.677694 },
		{"id" : 1, "text" : "적외선의", "head" : 2, "label" : "NP_MOD", "mod" : [], "weight" : 0.803981 },
		{"id" : 2, "text" : "존재가", "head" : 4, "label" : "NP_SBJ", "mod" : [1], "weight" : 0.892915 },
		{"id" : 3, "text" : "처음", "head" : 4, "label" : "NP_AJT", "mod" : [], "weight" : 0.895114 },
		{"id" : 4, "text" : "입증된", "head" : 5, "label" : "VP_MOD", "mod" : [0, 2, 3], "weight" : 0.908086 },
		{"id" : 5, "text" : "것은", "head" : 13, "label" : "NP_SBJ", "mod" : [4], "weight" : 0.812633 },
		{"id" : 6, "text" : "1800년", "head" : 13, "label" : "NP_AJT", "mod" : [], "weight" : 0.569184 },
		{"id" : 7, "text" : "독일", "head" : 8, "label" : "NP", "mod" : [], "weight" : 0.820454 },
		{"id" : 8, "text" : "출신의", "head" : 10, "label" : "NP_MOD", "mod" : [7], "weight" : 0.627145 },
		{"id" : 9, "text" : "영국", "head" : 10, "label" : "NP", "mod" : [], "weight" : 0.922605 },
		{"id" : 10, "text" : "천체학자인", "head" : 12, "label" : "VNP_MOD", "mod" : [8, 9], "weight" : 0.722189 },
		{"id" : 11, "text" : "윌리엄", "head" : 12, "label" : "NP", "mod" : [], "weight" : 0.992066 },
		{"id" : 12, "text" : "허셜에", "head" : 13, "label" : "NP_AJT", "mod" : [10, 11], "weight" : 0.488323 },
		{"id" : 13, "text" : "의해서였다.", "head" : -1, "label" : "VP", "mod" : [5, 6, 12], "weight" : 0.0186609 }
	],
	"SRL" : [
		{"verb" : "입증", "sense" : 1, "word_id" : 4, "weight" : 0.159342,
			"argument" : [
				{"type" : "ARG1", "word_id" : 2, "text" : "존재가", "weight" : 0.14021 },
				{"type" : "ARGM-ADV", "word_id" : 3, "text" : "처음", "weight" : 0.178475 }
			] },
		{"verb" : "의하", "sense" : 1, "word_id" : 13, "weight" : 0.189558,
			"argument" : [
				{"type" : "ARG2", "word_id" : 5, "text" : "것은", "weight" : 0.204347 },
				{"type" : "ARGM-TMP", "word_id" : 6, "text" : "1800년", "weight" : 0.235402 },
				{"type" : "ARG1", "word_id" : 12, "text" : "허셜에", "weight" : 0.128924 }
			] }
	],
	"relation" : [
	],
	"SA" : [
	],
	"ZA" : [
	]
	}
 ],
 "entity" : [
 ]
}

