{"doc_id" : "",
 "DCT" : "",
 "category" : "",
 "category_weight" : 0,
 "title" : {"text" : "", "NE" : ""},
 "metaInfo" : { },
 "sentence" : [
	{
	"id" : 0,
	"reserve_str" : "",
	"text" : "﻿다운 증후군은 1862년 영국의 의사 존 랭던 다운이 최초로 발견하여 1866년 학계에 보고하였으며 1956년 감수 분열과정에서 염색체가 제대로 분리되지 않아 정상적인 경우와 다르게 인간 염색체 21번이 3개 존재하는 것이 원인으로 밝혀졌다. ",
	"morp" : [
		{"id" : 0, "lemma" : "﻿답", "type" : "VA", "position" : 0, "weight" : 0 },
		{"id" : 1, "lemma" : "ㄴ", "type" : "ETM", "position" : 3, "weight" : 0.430446 },
		{"id" : 2, "lemma" : "증후", "type" : "NNG", "position" : 10, "weight" : 0.9 },
		{"id" : 3, "lemma" : "군", "type" : "XSN", "position" : 16, "weight" : 0.0001 },
		{"id" : 4, "lemma" : "은", "type" : "JX", "position" : 19, "weight" : 0.100393 },
		{"id" : 5, "lemma" : "1862", "type" : "SN", "position" : 23, "weight" : 1 },
		{"id" : 6, "lemma" : "년", "type" : "NNB", "position" : 27, "weight" : 0.414343 },
		{"id" : 7, "lemma" : "영국", "type" : "NNP", "position" : 31, "weight" : 0.9 },
		{"id" : 8, "lemma" : "의", "type" : "JKG", "position" : 37, "weight" : 0.0987295 },
		{"id" : 9, "lemma" : "의사", "type" : "NNG", "position" : 41, "weight" : 0.9 },
		{"id" : 10, "lemma" : "존", "type" : "NNP", "position" : 48, "weight" : 0.00677795 },
		{"id" : 11, "lemma" : "랭", "type" : "VV", "position" : 52, "weight" : 0 },
		{"id" : 12, "lemma" : "던", "type" : "ETM", "position" : 55, "weight" : 0.317449 },
		{"id" : 13, "lemma" : "다운", "type" : "NNG", "position" : 59, "weight" : 0.592123 },
		{"id" : 14, "lemma" : "이", "type" : "JKS", "position" : 65, "weight" : 0.0360723 },
		{"id" : 15, "lemma" : "최초", "type" : "NNG", "position" : 69, "weight" : 0.9 },
		{"id" : 16, "lemma" : "로", "type" : "JKB", "position" : 75, "weight" : 0.153229 },
		{"id" : 17, "lemma" : "발견", "type" : "NNG", "position" : 79, "weight" : 0.9 },
		{"id" : 18, "lemma" : "하", "type" : "XSV", "position" : 85, "weight" : 0.0001 },
		{"id" : 19, "lemma" : "어", "type" : "EC", "position" : 88, "weight" : 0.361326 },
		{"id" : 20, "lemma" : "1866", "type" : "SN", "position" : 92, "weight" : 1 },
		{"id" : 21, "lemma" : "년", "type" : "NNB", "position" : 96, "weight" : 0.414343 },
		{"id" : 22, "lemma" : "학계", "type" : "NNG", "position" : 100, "weight" : 0.9 },
		{"id" : 23, "lemma" : "에", "type" : "JKB", "position" : 106, "weight" : 0.153364 },
		{"id" : 24, "lemma" : "보고", "type" : "NNG", "position" : 110, "weight" : 0.160574 },
		{"id" : 25, "lemma" : "하", "type" : "XSV", "position" : 116, "weight" : 0.0001 },
		{"id" : 26, "lemma" : "었", "type" : "EP", "position" : 119, "weight" : 0.9 },
		{"id" : 27, "lemma" : "으며", "type" : "EC", "position" : 122, "weight" : 0.197482 },
		{"id" : 28, "lemma" : "1956", "type" : "SN", "position" : 129, "weight" : 1 },
		{"id" : 29, "lemma" : "년", "type" : "NNB", "position" : 133, "weight" : 0.414343 },
		{"id" : 30, "lemma" : "감수", "type" : "NNG", "position" : 137, "weight" : 0.9 },
		{"id" : 31, "lemma" : "분열", "type" : "NNG", "position" : 144, "weight" : 0.184578 },
		{"id" : 32, "lemma" : "과정", "type" : "NNG", "position" : 150, "weight" : 0.184792 },
		{"id" : 33, "lemma" : "에서", "type" : "JKB", "position" : 156, "weight" : 0.153407 },
		{"id" : 34, "lemma" : "염색", "type" : "NNG", "position" : 163, "weight" : 0.9 },
		{"id" : 35, "lemma" : "체", "type" : "XSN", "position" : 169, "weight" : 0.0209224 },
		{"id" : 36, "lemma" : "가", "type" : "JKS", "position" : 172, "weight" : 0.134553 },
		{"id" : 37, "lemma" : "제대로", "type" : "MAG", "position" : 176, "weight" : 0.9 },
		{"id" : 38, "lemma" : "분리", "type" : "NNG", "position" : 186, "weight" : 0.9 },
		{"id" : 39, "lemma" : "되", "type" : "XSV", "position" : 192, "weight" : 0.000224177 },
		{"id" : 40, "lemma" : "지", "type" : "EC", "position" : 195, "weight" : 0.260723 },
		{"id" : 41, "lemma" : "않", "type" : "VX", "position" : 199, "weight" : 0.256301 },
		{"id" : 42, "lemma" : "아", "type" : "EC", "position" : 202, "weight" : 0.245442 },
		{"id" : 43, "lemma" : "정상", "type" : "NNG", "position" : 206, "weight" : 0.219116 },
		{"id" : 44, "lemma" : "적", "type" : "XSN", "position" : 212, "weight" : 0.0168756 },
		{"id" : 45, "lemma" : "이", "type" : "VCP", "position" : 215, "weight" : 0.0165001 },
		{"id" : 46, "lemma" : "ㄴ", "type" : "ETM", "position" : 215, "weight" : 0.220712 },
		{"id" : 47, "lemma" : "경우", "type" : "NNG", "position" : 219, "weight" : 0.658545 },
		{"id" : 48, "lemma" : "와", "type" : "JKB", "position" : 225, "weight" : 0.0567862 },
		{"id" : 49, "lemma" : "다르", "type" : "VA", "position" : 229, "weight" : 0.0727612 },
		{"id" : 50, "lemma" : "게", "type" : "EC", "position" : 235, "weight" : 0.31879 },
		{"id" : 51, "lemma" : "인간", "type" : "NNG", "position" : 239, "weight" : 0.9 },
		{"id" : 52, "lemma" : "염색", "type" : "NNG", "position" : 246, "weight" : 0.9 },
		{"id" : 53, "lemma" : "체", "type" : "XSN", "position" : 252, "weight" : 0.0209224 },
		{"id" : 54, "lemma" : "21", "type" : "SN", "position" : 256, "weight" : 1 },
		{"id" : 55, "lemma" : "번", "type" : "NNB", "position" : 258, "weight" : 0.413822 },
		{"id" : 56, "lemma" : "이", "type" : "JKS", "position" : 261, "weight" : 0.0376169 },
		{"id" : 57, "lemma" : "3", "type" : "SN", "position" : 265, "weight" : 1 },
		{"id" : 58, "lemma" : "개", "type" : "NNB", "position" : 266, "weight" : 0.363274 },
		{"id" : 59, "lemma" : "존재", "type" : "NNG", "position" : 270, "weight" : 0.9 },
		{"id" : 60, "lemma" : "하", "type" : "XSV", "position" : 276, "weight" : 0.0001 },
		{"id" : 61, "lemma" : "는", "type" : "ETM", "position" : 279, "weight" : 0.238503 },
		{"id" : 62, "lemma" : "것", "type" : "NNB", "position" : 283, "weight" : 0.228788 },
		{"id" : 63, "lemma" : "이", "type" : "JKS", "position" : 286, "weight" : 0.0376169 },
		{"id" : 64, "lemma" : "원인", "type" : "NNG", "position" : 290, "weight" : 0.9 },
		{"id" : 65, "lemma" : "으로", "type" : "JKB", "position" : 296, "weight" : 0.153406 },
		{"id" : 66, "lemma" : "밝혀지", "type" : "VV", "position" : 303, "weight" : 0.9 },
		{"id" : 67, "lemma" : "었", "type" : "EP", "position" : 309, "weight" : 0.9 },
		{"id" : 68, "lemma" : "다", "type" : "EF", "position" : 312, "weight" : 0.640954 },
		{"id" : 69, "lemma" : ".", "type" : "SF", "position" : 315, "weight" : 1 }
	],
	"morp_eval" : [
		{"id" : 0, "result" : "﻿답/VA+ㄴ/ETM", "target" : "﻿다운", "word_id" : 0, "m_begin" : 0, "m_end" : 1},
		{"id" : 1, "result" : "증후군/NNG+은/JX", "target" : "증후군은", "word_id" : 1, "m_begin" : 2, "m_end" : 4},
		{"id" : 2, "result" : "1862/SN+년/NNB", "target" : "1862년", "word_id" : 2, "m_begin" : 5, "m_end" : 6},
		{"id" : 3, "result" : "영국/NNG+의/JKG", "target" : "영국의", "word_id" : 3, "m_begin" : 7, "m_end" : 8},
		{"id" : 4, "result" : "의사/NNG", "target" : "의사", "word_id" : 4, "m_begin" : 9, "m_end" : 9},
		{"id" : 5, "result" : "존/NNG", "target" : "존", "word_id" : 5, "m_begin" : 10, "m_end" : 10},
		{"id" : 6, "result" : "랭/VV+던/ETM", "target" : "랭던", "word_id" : 6, "m_begin" : 11, "m_end" : 12},
		{"id" : 7, "result" : "다운/NNG+이/JKS", "target" : "다운이", "word_id" : 7, "m_begin" : 13, "m_end" : 14},
		{"id" : 8, "result" : "최초/NNG+로/JKB", "target" : "최초로", "word_id" : 8, "m_begin" : 15, "m_end" : 16},
		{"id" : 9, "result" : "발견하/VV+어/EC", "target" : "발견하여", "word_id" : 9, "m_begin" : 17, "m_end" : 19},
		{"id" : 10, "result" : "1866/SN+년/NNB", "target" : "1866년", "word_id" : 10, "m_begin" : 20, "m_end" : 21},
		{"id" : 11, "result" : "학계/NNG+에/JKB", "target" : "학계에", "word_id" : 11, "m_begin" : 22, "m_end" : 23},
		{"id" : 12, "result" : "보고하/VV+었/EP+으며/EC", "target" : "보고하였으며", "word_id" : 12, "m_begin" : 24, "m_end" : 27},
		{"id" : 13, "result" : "1956/SN+년/NNB", "target" : "1956년", "word_id" : 13, "m_begin" : 28, "m_end" : 29},
		{"id" : 14, "result" : "감수/NNG", "target" : "감수", "word_id" : 14, "m_begin" : 30, "m_end" : 30},
		{"id" : 15, "result" : "분열과정/NNG+에서/JKB", "target" : "분열과정에서", "word_id" : 15, "m_begin" : 31, "m_end" : 33},
		{"id" : 16, "result" : "염색체/NNG+가/JKS", "target" : "염색체가", "word_id" : 16, "m_begin" : 34, "m_end" : 36},
		{"id" : 17, "result" : "제대로/MAG", "target" : "제대로", "word_id" : 17, "m_begin" : 37, "m_end" : 37},
		{"id" : 18, "result" : "분리되/VV+지/EC", "target" : "분리되지", "word_id" : 18, "m_begin" : 38, "m_end" : 40},
		{"id" : 19, "result" : "않/VX+어/EC", "target" : "않아", "word_id" : 19, "m_begin" : 41, "m_end" : 42},
		{"id" : 20, "result" : "정상적/NNG+이/VCP+ㄴ/ETM", "target" : "정상적인", "word_id" : 20, "m_begin" : 43, "m_end" : 46},
		{"id" : 21, "result" : "경우/NNG+와/JKB", "target" : "경우와", "word_id" : 21, "m_begin" : 47, "m_end" : 48},
		{"id" : 22, "result" : "다르/VA+게/EC", "target" : "다르게", "word_id" : 22, "m_begin" : 49, "m_end" : 50},
		{"id" : 23, "result" : "인간/NNG", "target" : "인간", "word_id" : 23, "m_begin" : 51, "m_end" : 51},
		{"id" : 24, "result" : "염색체/NNG", "target" : "염색체", "word_id" : 24, "m_begin" : 52, "m_end" : 53},
		{"id" : 25, "result" : "21/SN+번/NNB+이/JKS", "target" : "21번이", "word_id" : 25, "m_begin" : 54, "m_end" : 56},
		{"id" : 26, "result" : "3/SN+개/NNB", "target" : "3개", "word_id" : 26, "m_begin" : 57, "m_end" : 58},
		{"id" : 27, "result" : "존재하/VV+는/ETM", "target" : "존재하는", "word_id" : 27, "m_begin" : 59, "m_end" : 61},
		{"id" : 28, "result" : "것/NNB+이/JKS", "target" : "것이", "word_id" : 28, "m_begin" : 62, "m_end" : 63},
		{"id" : 29, "result" : "원인/NNG+으로/JKB", "target" : "원인으로", "word_id" : 29, "m_begin" : 64, "m_end" : 65},
		{"id" : 30, "result" : "밝혀지/VV+었/EP+다/EF+./SF", "target" : "밝혀졌다.", "word_id" : 30, "m_begin" : 66, "m_end" : 69}
	],
	"WSD" : [
		{"id" : 0, "text" : "﻿답", "type" : "VA", "scode" : "00", "weight" : 0, "position" : 0, "begin" : 0, "end" : 0},
		{"id" : 1, "text" : "ㄴ", "type" : "ETM", "scode" : "00", "weight" : 1, "position" : 3, "begin" : 1, "end" : 1},
		{"id" : 2, "text" : "증후군", "type" : "NNG", "scode" : "00", "weight" : 1, "position" : 10, "begin" : 2, "end" : 3},
		{"id" : 3, "text" : "은", "type" : "JX", "scode" : "00", "weight" : 1, "position" : 19, "begin" : 4, "end" : 4},
		{"id" : 4, "text" : "1862", "type" : "SN", "scode" : "00", "weight" : 1, "position" : 23, "begin" : 5, "end" : 5},
		{"id" : 5, "text" : "년", "type" : "NNB", "scode" : "02", "weight" : 1, "position" : 27, "begin" : 6, "end" : 6},
		{"id" : 6, "text" : "영국", "type" : "NNP", "scode" : "01", "weight" : 1, "position" : 31, "begin" : 7, "end" : 7},
		{"id" : 7, "text" : "의", "type" : "JKG", "scode" : "00", "weight" : 1, "position" : 37, "begin" : 8, "end" : 8},
		{"id" : 8, "text" : "의사", "type" : "NNG", "scode" : "12", "weight" : 1, "position" : 41, "begin" : 9, "end" : 9},
		{"id" : 9, "text" : "존", "type" : "NNP", "scode" : "99", "weight" : 1, "position" : 48, "begin" : 10, "end" : 10},
		{"id" : 10, "text" : "랭", "type" : "VV", "scode" : "00", "weight" : 0, "position" : 52, "begin" : 11, "end" : 11},
		{"id" : 11, "text" : "던", "type" : "ETM", "scode" : "00", "weight" : 1, "position" : 55, "begin" : 12, "end" : 12},
		{"id" : 12, "text" : "다운", "type" : "NNG", "scode" : "00", "weight" : 1, "position" : 59, "begin" : 13, "end" : 13},
		{"id" : 13, "text" : "이", "type" : "JKS", "scode" : "00", "weight" : 1, "position" : 65, "begin" : 14, "end" : 14},
		{"id" : 14, "text" : "최초", "type" : "NNG", "scode" : "00", "weight" : 1, "position" : 69, "begin" : 15, "end" : 15},
		{"id" : 15, "text" : "로", "type" : "JKB", "scode" : "00", "weight" : 1, "position" : 75, "begin" : 16, "end" : 16},
		{"id" : 16, "text" : "발견하", "type" : "VV", "scode" : "01", "weight" : 1, "position" : 79, "begin" : 17, "end" : 18},
		{"id" : 17, "text" : "어", "type" : "EC", "scode" : "00", "weight" : 1, "position" : 88, "begin" : 19, "end" : 19},
		{"id" : 18, "text" : "1866", "type" : "SN", "scode" : "00", "weight" : 1, "position" : 92, "begin" : 20, "end" : 20},
		{"id" : 19, "text" : "년", "type" : "NNB", "scode" : "02", "weight" : 1, "position" : 96, "begin" : 21, "end" : 21},
		{"id" : 20, "text" : "학계", "type" : "NNG", "scode" : "02", "weight" : 1, "position" : 100, "begin" : 22, "end" : 22},
		{"id" : 21, "text" : "에", "type" : "JKB", "scode" : "00", "weight" : 1, "position" : 106, "begin" : 23, "end" : 23},
		{"id" : 22, "text" : "보고하", "type" : "VV", "scode" : "02", "weight" : 1, "position" : 110, "begin" : 24, "end" : 25},
		{"id" : 23, "text" : "었", "type" : "EP", "scode" : "00", "weight" : 1, "position" : 119, "begin" : 26, "end" : 26},
		{"id" : 24, "text" : "으며", "type" : "EC", "scode" : "00", "weight" : 1, "position" : 122, "begin" : 27, "end" : 27},
		{"id" : 25, "text" : "1956", "type" : "SN", "scode" : "00", "weight" : 1, "position" : 129, "begin" : 28, "end" : 28},
		{"id" : 26, "text" : "년", "type" : "NNB", "scode" : "02", "weight" : 1, "position" : 133, "begin" : 29, "end" : 29},
		{"id" : 27, "text" : "감수", "type" : "NNG", "scode" : "02", "weight" : 1, "position" : 137, "begin" : 30, "end" : 30},
		{"id" : 28, "text" : "분열", "type" : "NNG", "scode" : "02", "weight" : 1, "position" : 144, "begin" : 31, "end" : 31},
		{"id" : 29, "text" : "과정", "type" : "NNG", "scode" : "03", "weight" : 1, "position" : 150, "begin" : 32, "end" : 32},
		{"id" : 30, "text" : "에서", "type" : "JKB", "scode" : "00", "weight" : 1, "position" : 156, "begin" : 33, "end" : 33},
		{"id" : 31, "text" : "염색체", "type" : "NNG", "scode" : "00", "weight" : 1, "position" : 163, "begin" : 34, "end" : 35},
		{"id" : 32, "text" : "가", "type" : "JKS", "scode" : "00", "weight" : 1, "position" : 172, "begin" : 36, "end" : 36},
		{"id" : 33, "text" : "제대로", "type" : "MAG", "scode" : "00", "weight" : 1, "position" : 176, "begin" : 37, "end" : 37},
		{"id" : 34, "text" : "분리되", "type" : "VV", "scode" : "00", "weight" : 1, "position" : 186, "begin" : 38, "end" : 39},
		{"id" : 35, "text" : "지", "type" : "EC", "scode" : "00", "weight" : 1, "position" : 195, "begin" : 40, "end" : 40},
		{"id" : 36, "text" : "않", "type" : "VX", "scode" : "00", "weight" : 1, "position" : 199, "begin" : 41, "end" : 41},
		{"id" : 37, "text" : "아", "type" : "EC", "scode" : "00", "weight" : 1, "position" : 202, "begin" : 42, "end" : 42},
		{"id" : 38, "text" : "정상적", "type" : "NNG", "scode" : "00", "weight" : 1, "position" : 206, "begin" : 43, "end" : 44},
		{"id" : 39, "text" : "이", "type" : "VCP", "scode" : "00", "weight" : 1, "position" : 215, "begin" : 45, "end" : 45},
		{"id" : 40, "text" : "ㄴ", "type" : "ETM", "scode" : "00", "weight" : 1, "position" : 215, "begin" : 46, "end" : 46},
		{"id" : 41, "text" : "경우", "type" : "NNG", "scode" : "03", "weight" : 1, "position" : 219, "begin" : 47, "end" : 47},
		{"id" : 42, "text" : "와", "type" : "JKB", "scode" : "00", "weight" : 1, "position" : 225, "begin" : 48, "end" : 48},
		{"id" : 43, "text" : "다르", "type" : "VA", "scode" : "01", "weight" : 1, "position" : 229, "begin" : 49, "end" : 49},
		{"id" : 44, "text" : "게", "type" : "EC", "scode" : "00", "weight" : 1, "position" : 235, "begin" : 50, "end" : 50},
		{"id" : 45, "text" : "인간", "type" : "NNG", "scode" : "01", "weight" : 1, "position" : 239, "begin" : 51, "end" : 51},
		{"id" : 46, "text" : "염색체", "type" : "NNG", "scode" : "00", "weight" : 1, "position" : 246, "begin" : 52, "end" : 53},
		{"id" : 47, "text" : "21", "type" : "SN", "scode" : "00", "weight" : 1, "position" : 256, "begin" : 54, "end" : 54},
		{"id" : 48, "text" : "번", "type" : "NNB", "scode" : "04", "weight" : 1, "position" : 258, "begin" : 55, "end" : 55},
		{"id" : 49, "text" : "이", "type" : "JKS", "scode" : "00", "weight" : 1, "position" : 261, "begin" : 56, "end" : 56},
		{"id" : 50, "text" : "3", "type" : "SN", "scode" : "00", "weight" : 1, "position" : 265, "begin" : 57, "end" : 57},
		{"id" : 51, "text" : "개", "type" : "NNB", "scode" : "10", "weight" : 1, "position" : 266, "begin" : 58, "end" : 58},
		{"id" : 52, "text" : "존재하", "type" : "VV", "scode" : "00", "weight" : 1, "position" : 270, "begin" : 59, "end" : 60},
		{"id" : 53, "text" : "는", "type" : "ETM", "scode" : "00", "weight" : 1, "position" : 279, "begin" : 61, "end" : 61},
		{"id" : 54, "text" : "것", "type" : "NNB", "scode" : "01", "weight" : 1, "position" : 283, "begin" : 62, "end" : 62},
		{"id" : 55, "text" : "이", "type" : "JKS", "scode" : "00", "weight" : 1, "position" : 286, "begin" : 63, "end" : 63},
		{"id" : 56, "text" : "원인", "type" : "NNG", "scode" : "02", "weight" : 1, "position" : 290, "begin" : 64, "end" : 64},
		{"id" : 57, "text" : "으로", "type" : "JKB", "scode" : "00", "weight" : 1, "position" : 296, "begin" : 65, "end" : 65},
		{"id" : 58, "text" : "밝혀지", "type" : "VV", "scode" : "00", "weight" : 1, "position" : 303, "begin" : 66, "end" : 66},
		{"id" : 59, "text" : "었", "type" : "EP", "scode" : "00", "weight" : 1, "position" : 309, "begin" : 67, "end" : 67},
		{"id" : 60, "text" : "다", "type" : "EF", "scode" : "00", "weight" : 1, "position" : 312, "begin" : 68, "end" : 68},
		{"id" : 61, "text" : ".", "type" : "SF", "scode" : "00", "weight" : 1, "position" : 315, "begin" : 69, "end" : 69}
	],
	"word" : [
		{"id" : 0, "text" : "﻿다운", "type" : "", "begin" : 0, "end" : 1},
		{"id" : 1, "text" : "증후군은", "type" : "", "begin" : 2, "end" : 4},
		{"id" : 2, "text" : "1862년", "type" : "", "begin" : 5, "end" : 6},
		{"id" : 3, "text" : "영국의", "type" : "", "begin" : 7, "end" : 8},
		{"id" : 4, "text" : "의사", "type" : "", "begin" : 9, "end" : 9},
		{"id" : 5, "text" : "존", "type" : "", "begin" : 10, "end" : 10},
		{"id" : 6, "text" : "랭던", "type" : "", "begin" : 11, "end" : 12},
		{"id" : 7, "text" : "다운이", "type" : "", "begin" : 13, "end" : 14},
		{"id" : 8, "text" : "최초로", "type" : "", "begin" : 15, "end" : 16},
		{"id" : 9, "text" : "발견하여", "type" : "", "begin" : 17, "end" : 19},
		{"id" : 10, "text" : "1866년", "type" : "", "begin" : 20, "end" : 21},
		{"id" : 11, "text" : "학계에", "type" : "", "begin" : 22, "end" : 23},
		{"id" : 12, "text" : "보고하였으며", "type" : "", "begin" : 24, "end" : 27},
		{"id" : 13, "text" : "1956년", "type" : "", "begin" : 28, "end" : 29},
		{"id" : 14, "text" : "감수", "type" : "", "begin" : 30, "end" : 30},
		{"id" : 15, "text" : "분열과정에서", "type" : "", "begin" : 31, "end" : 33},
		{"id" : 16, "text" : "염색체가", "type" : "", "begin" : 34, "end" : 36},
		{"id" : 17, "text" : "제대로", "type" : "", "begin" : 37, "end" : 37},
		{"id" : 18, "text" : "분리되지", "type" : "", "begin" : 38, "end" : 40},
		{"id" : 19, "text" : "않아", "type" : "", "begin" : 41, "end" : 42},
		{"id" : 20, "text" : "정상적인", "type" : "", "begin" : 43, "end" : 46},
		{"id" : 21, "text" : "경우와", "type" : "", "begin" : 47, "end" : 48},
		{"id" : 22, "text" : "다르게", "type" : "", "begin" : 49, "end" : 50},
		{"id" : 23, "text" : "인간", "type" : "", "begin" : 51, "end" : 51},
		{"id" : 24, "text" : "염색체", "type" : "", "begin" : 52, "end" : 53},
		{"id" : 25, "text" : "21번이", "type" : "", "begin" : 54, "end" : 56},
		{"id" : 26, "text" : "3개", "type" : "", "begin" : 57, "end" : 58},
		{"id" : 27, "text" : "존재하는", "type" : "", "begin" : 59, "end" : 61},
		{"id" : 28, "text" : "것이", "type" : "", "begin" : 62, "end" : 63},
		{"id" : 29, "text" : "원인으로", "type" : "", "begin" : 64, "end" : 65},
		{"id" : 30, "text" : "밝혀졌다.", "type" : "", "begin" : 66, "end" : 69}
	],
	"NE" : [
		{"id" : 0, "text" : "다운 증후군", "type" : "TMM_DISEASE", "begin" : 1, "end" : 3, "weight" : 0.419234, "common_noun" : 0},
		{"id" : 1, "text" : "1862년", "type" : "DT_YEAR", "begin" : 5, "end" : 6, "weight" : 0.715694, "common_noun" : 0},
		{"id" : 2, "text" : "영국", "type" : "LCP_COUNTRY", "begin" : 7, "end" : 7, "weight" : 0.626681, "common_noun" : 0},
		{"id" : 3, "text" : "의사", "type" : "CV_OCCUPATION", "begin" : 9, "end" : 9, "weight" : 0.260687, "common_noun" : 0},
		{"id" : 4, "text" : "존 랭", "type" : "PS_NAME", "begin" : 10, "end" : 11, "weight" : 0.304908, "common_noun" : 0},
		{"id" : 5, "text" : "1866년", "type" : "DT_YEAR", "begin" : 20, "end" : 21, "weight" : 0.724509, "common_noun" : 0},
		{"id" : 6, "text" : "1956년", "type" : "DT_YEAR", "begin" : 28, "end" : 29, "weight" : 0.716618, "common_noun" : 0},
		{"id" : 7, "text" : "21번", "type" : "QT_COUNT", "begin" : 54, "end" : 55, "weight" : 0.351917, "common_noun" : 0},
		{"id" : 8, "text" : "3개", "type" : "QT_COUNT", "begin" : 57, "end" : 58, "weight" : 0.727381, "common_noun" : 0}
	],
	"chunk" : [
	],
	"dependency" : [
		{"id" : 0, "text" : "﻿다운", "head" : 1, "label" : "VP_MOD", "mod" : [], "weight" : 0.988697 },
		{"id" : 1, "text" : "증후군은", "head" : 9, "label" : "NP_SBJ", "mod" : [0], "weight" : 0.742311 },
		{"id" : 2, "text" : "1862년", "head" : 9, "label" : "NP_AJT", "mod" : [], "weight" : 0.893531 },
		{"id" : 3, "text" : "영국의", "head" : 4, "label" : "NP_MOD", "mod" : [], "weight" : 0.650756 },
		{"id" : 4, "text" : "의사", "head" : 7, "label" : "NP", "mod" : [3], "weight" : 0.731828 },
		{"id" : 5, "text" : "존", "head" : 6, "label" : "NP", "mod" : [], "weight" : 0.796841 },
		{"id" : 6, "text" : "랭던", "head" : 7, "label" : "VP_MOD", "mod" : [5], "weight" : 0.77896 },
		{"id" : 7, "text" : "다운이", "head" : 9, "label" : "NP_SBJ", "mod" : [4, 6], "weight" : 0.968159 },
		{"id" : 8, "text" : "최초로", "head" : 9, "label" : "NP_AJT", "mod" : [], "weight" : 0.804959 },
		{"id" : 9, "text" : "발견하여", "head" : 12, "label" : "VP", "mod" : [1, 2, 7, 8], "weight" : 0.863021 },
		{"id" : 10, "text" : "1866년", "head" : 12, "label" : "NP_AJT", "mod" : [], "weight" : 0.595032 },
		{"id" : 11, "text" : "학계에", "head" : 12, "label" : "NP_AJT", "mod" : [], "weight" : 0.680853 },
		{"id" : 12, "text" : "보고하였으며", "head" : 30, "label" : "VP", "mod" : [9, 10, 11], "weight" : 0.555328 },
		{"id" : 13, "text" : "1956년", "head" : 30, "label" : "NP_AJT", "mod" : [], "weight" : 0.599054 },
		{"id" : 14, "text" : "감수", "head" : 15, "label" : "NP", "mod" : [], "weight" : 0.75958 },
		{"id" : 15, "text" : "분열과정에서", "head" : 18, "label" : "NP_AJT", "mod" : [14], "weight" : 0.677584 },
		{"id" : 16, "text" : "염색체가", "head" : 18, "label" : "NP_SBJ", "mod" : [], "weight" : 0.88638 },
		{"id" : 17, "text" : "제대로", "head" : 18, "label" : "AP", "mod" : [], "weight" : 0.880119 },
		{"id" : 18, "text" : "분리되지", "head" : 19, "label" : "VP", "mod" : [15, 16, 17], "weight" : 0.968422 },
		{"id" : 19, "text" : "않아", "head" : 27, "label" : "VP", "mod" : [18], "weight" : 0.705619 },
		{"id" : 20, "text" : "정상적인", "head" : 21, "label" : "VNP_MOD", "mod" : [], "weight" : 0.961945 },
		{"id" : 21, "text" : "경우와", "head" : 22, "label" : "NP_AJT", "mod" : [20], "weight" : 0.59431 },
		{"id" : 22, "text" : "다르게", "head" : 27, "label" : "VP_AJT", "mod" : [21], "weight" : 0.684025 },
		{"id" : 23, "text" : "인간", "head" : 24, "label" : "NP", "mod" : [], "weight" : 0.801386 },
		{"id" : 24, "text" : "염색체", "head" : 25, "label" : "NP", "mod" : [23], "weight" : 0.926384 },
		{"id" : 25, "text" : "21번이", "head" : 27, "label" : "NP_SBJ", "mod" : [24], "weight" : 0.77507 },
		{"id" : 26, "text" : "3개", "head" : 27, "label" : "NP_AJT", "mod" : [], "weight" : 0.940535 },
		{"id" : 27, "text" : "존재하는", "head" : 28, "label" : "VP_MOD", "mod" : [19, 22, 25, 26], "weight" : 0.90642 },
		{"id" : 28, "text" : "것이", "head" : 30, "label" : "NP_SBJ", "mod" : [27], "weight" : 0.538559 },
		{"id" : 29, "text" : "원인으로", "head" : 30, "label" : "NP_AJT", "mod" : [], "weight" : 0.524606 },
		{"id" : 30, "text" : "밝혀졌다.", "head" : -1, "label" : "VP", "mod" : [12, 13, 28, 29], "weight" : 0.000188962 }
	],
	"SRL" : [
		{"verb" : "﻿답", "sense" : 1, "word_id" : 0, "weight" : 0.533389,
			"argument" : [
				{"type" : "ARG1", "word_id" : 1, "text" : "증후군은", "weight" : 0.533389 }
			] },
		{"verb" : "랭", "sense" : 1, "word_id" : 6, "weight" : 0.114993,
			"argument" : [
				{"type" : "ARG1", "word_id" : 7, "text" : "다운이", "weight" : 0.114993 }
			] },
		{"verb" : "발견", "sense" : 1, "word_id" : 9, "weight" : 0.252009,
			"argument" : [
				{"type" : "ARG1", "word_id" : 1, "text" : "증후군은", "weight" : 0.253835 },
				{"type" : "ARGM-TMP", "word_id" : 2, "text" : "1862년", "weight" : 0.366878 },
				{"type" : "ARG0", "word_id" : 7, "text" : "다운이", "weight" : 0.216158 },
				{"type" : "ARGM-ADV", "word_id" : 8, "text" : "최초로", "weight" : 0.171164 }
			] },
		{"verb" : "보고", "sense" : 1, "word_id" : 12, "weight" : 0.222638,
			"argument" : [
				{"type" : "ARG1", "word_id" : 1, "text" : "증후군은", "weight" : 0.35201 },
				{"type" : "ARG0", "word_id" : 7, "text" : "다운이", "weight" : 0.141876 },
				{"type" : "ARGM-CAU", "word_id" : 9, "text" : "발견하여", "weight" : 0.201631 },
				{"type" : "ARGM-TMP", "word_id" : 10, "text" : "1866년", "weight" : 0.251761 },
				{"type" : "ARG2", "word_id" : 11, "text" : "학계에", "weight" : 0.165914 }
			] },
		{"verb" : "분리", "sense" : 1, "word_id" : 18, "weight" : 0.229415,
			"argument" : [
				{"type" : "ARG2", "word_id" : 15, "text" : "분열과정에서", "weight" : 0.155503 },
				{"type" : "ARG1", "word_id" : 16, "text" : "염색체가", "weight" : 0.250992 },
				{"type" : "ARGM-MNR", "word_id" : 17, "text" : "제대로", "weight" : 0.126013 },
				{"type" : "ARGM-NEG", "word_id" : 19, "text" : "않아", "weight" : 0.385154 }
			] },
		{"verb" : "다르", "sense" : 1, "word_id" : 22, "weight" : 0.169821,
			"argument" : [
				{"type" : "ARG2", "word_id" : 21, "text" : "경우와", "weight" : 0.169821 }
			] },
		{"verb" : "존재", "sense" : 1, "word_id" : 27, "weight" : 0.193675,
			"argument" : [
				{"type" : "ARGM-NEG", "word_id" : 19, "text" : "않아", "weight" : 0.217345 },
				{"type" : "ARG1", "word_id" : 25, "text" : "21번이", "weight" : 0.204617 },
				{"type" : "ARGM-EXT", "word_id" : 26, "text" : "3개", "weight" : 0.159064 }
			] },
		{"verb" : "밝혀지", "sense" : 1, "word_id" : 30, "weight" : 0.261805,
			"argument" : [
				{"type" : "ARGM-TMP", "word_id" : 13, "text" : "1956년", "weight" : 0.28561 },
				{"type" : "ARG1", "word_id" : 28, "text" : "것이", "weight" : 0.383065 },
				{"type" : "ARGM-CAU", "word_id" : 29, "text" : "원인으로", "weight" : 0.11674 }
			] }
	],
	"relation" : [
	],
	"SA" : [
	],
	"ZA" : [
		{"id" : 0, "verb_wid" : 9, "ant_sid" : -1, "ant_wid" : -1, "type" : "o", "istitle" : 0, "weight" : 1 },
		{"id" : 1, "verb_wid" : 12, "ant_sid" : 0, "ant_wid" : 1, "type" : "s", "istitle" : 0, "weight" : 0.420003 }
	]
	}
 ],
 "entity" : [
	{"id" : 0, "type" : "PS_NAME", "number" : "singular", "gender" : "", "person" : "", "animacy" : "", "loc" : "영국", 
	 "mention" : [
		{"id" : 3, "sent_id" : 0, "start_eid" : 3, "end_eid" : 4, "ne_id" : 3, "text" : "영국의 의사", "start_eid_short" : 3, "end_eid_short" : 4, "text_short" : "영국의 의사", "weight" : 0.015 },
		{"id" : 5, "sent_id" : 0, "start_eid" : 5, "end_eid" : 6, "ne_id" : 4, "text" : "존 랭던", "start_eid_short" : 5, "end_eid_short" : 6, "text_short" : "존 랭던", "weight" : 0.01 }
	] },
	{"id" : 1, "type" : "", "number" : "singular", "gender" : "", "person" : "", "animacy" : "", "loc" : "", 
	 "mention" : [
		{"id" : 12, "sent_id" : 0, "start_eid" : 16, "end_eid" : 16, "ne_id" : -1, "text" : "염색체", "start_eid_short" : 16, "end_eid_short" : 16, "text_short" : "염색체", "weight" : 0.002 },
		{"id" : 15, "sent_id" : 0, "start_eid" : 23, "end_eid" : 24, "ne_id" : -1, "text" : "인간 염색체", "start_eid_short" : 23, "end_eid_short" : 24, "text_short" : "인간 염색체", "weight" : 0.0035 }
	] }
 ]
}

