{"doc_id" : "",
 "DCT" : "",
 "category" : "",
 "category_weight" : 0,
 "title" : {"text" : "", "NE" : ""},
 "metaInfo" : { },
 "sentence" : [
	{
	"id" : 0,
	"reserve_str" : "",
	"text" : "﻿사발통문(沙鉢通文)은 어떤 일을 함께 하고자 하는 사람 이름을 사발 모양으로 둥글게 삥 돌려 적어, 같은 뜻을 가진 다른 사람을 모으기 위해 널리 알리는 문서를 말한다. ",
	"morp" : [
		{"id" : 0, "lemma" : "﻿사발", "type" : "NNP", "position" : 0, "weight" : 0.6 },
		{"id" : 1, "lemma" : "통문", "type" : "NNG", "position" : 9, "weight" : 0.9 },
		{"id" : 2, "lemma" : "(", "type" : "SS", "position" : 15, "weight" : 1 },
		{"id" : 3, "lemma" : "沙鉢通文", "type" : "SH", "position" : 16, "weight" : 1 },
		{"id" : 4, "lemma" : ")", "type" : "SS", "position" : 28, "weight" : 1 },
		{"id" : 5, "lemma" : "은", "type" : "JX", "position" : 29, "weight" : 0.0128817 },
		{"id" : 6, "lemma" : "어떤", "type" : "MM", "position" : 33, "weight" : 0.0415714 },
		{"id" : 7, "lemma" : "일", "type" : "NNG", "position" : 40, "weight" : 0.472126 },
		{"id" : 8, "lemma" : "을", "type" : "JKO", "position" : 43, "weight" : 0.129611 },
		{"id" : 9, "lemma" : "함께", "type" : "MAG", "position" : 47, "weight" : 0.9 },
		{"id" : 10, "lemma" : "하", "type" : "VV", "position" : 54, "weight" : 0.24126 },
		{"id" : 11, "lemma" : "고자", "type" : "EC", "position" : 57, "weight" : 0.427529 },
		{"id" : 12, "lemma" : "하", "type" : "VX", "position" : 64, "weight" : 0.0899221 },
		{"id" : 13, "lemma" : "는", "type" : "ETM", "position" : 67, "weight" : 0.183966 },
		{"id" : 14, "lemma" : "사람", "type" : "NNG", "position" : 71, "weight" : 0.658826 },
		{"id" : 15, "lemma" : "이름", "type" : "NNG", "position" : 78, "weight" : 0.9 },
		{"id" : 16, "lemma" : "을", "type" : "JKO", "position" : 84, "weight" : 0.129611 },
		{"id" : 17, "lemma" : "사발", "type" : "NNG", "position" : 88, "weight" : 0.9 },
		{"id" : 18, "lemma" : "모양", "type" : "NNG", "position" : 95, "weight" : 0.179803 },
		{"id" : 19, "lemma" : "으로", "type" : "JKB", "position" : 101, "weight" : 0.153406 },
		{"id" : 20, "lemma" : "둥글", "type" : "VA", "position" : 108, "weight" : 0.0727285 },
		{"id" : 21, "lemma" : "게", "type" : "EC", "position" : 114, "weight" : 0.31879 },
		{"id" : 22, "lemma" : "삥", "type" : "MAG", "position" : 118, "weight" : 0.0399155 },
		{"id" : 23, "lemma" : "돌리", "type" : "VV", "position" : 122, "weight" : 0.388938 },
		{"id" : 24, "lemma" : "어", "type" : "EC", "position" : 125, "weight" : 0.41831 },
		{"id" : 25, "lemma" : "적어", "type" : "NNP", "position" : 129, "weight" : 0.6 },
		{"id" : 26, "lemma" : ",", "type" : "SP", "position" : 135, "weight" : 1 },
		{"id" : 27, "lemma" : "같", "type" : "VA", "position" : 137, "weight" : 0.0332836 },
		{"id" : 28, "lemma" : "은", "type" : "ETM", "position" : 140, "weight" : 0.155123 },
		{"id" : 29, "lemma" : "뜻", "type" : "NNG", "position" : 144, "weight" : 0.9 },
		{"id" : 30, "lemma" : "을", "type" : "JKO", "position" : 147, "weight" : 0.129611 },
		{"id" : 31, "lemma" : "가지", "type" : "VV", "position" : 151, "weight" : 0.401357 },
		{"id" : 32, "lemma" : "ㄴ", "type" : "ETM", "position" : 154, "weight" : 0.304215 },
		{"id" : 33, "lemma" : "다른", "type" : "MM", "position" : 158, "weight" : 0.9 },
		{"id" : 34, "lemma" : "사람", "type" : "NNG", "position" : 165, "weight" : 0.737436 },
		{"id" : 35, "lemma" : "을", "type" : "JKO", "position" : 171, "weight" : 0.129611 },
		{"id" : 36, "lemma" : "모으", "type" : "VV", "position" : 175, "weight" : 0.9 },
		{"id" : 37, "lemma" : "기", "type" : "ETN", "position" : 181, "weight" : 0.0380514 },
		{"id" : 38, "lemma" : "위하", "type" : "VV", "position" : 185, "weight" : 0.176484 },
		{"id" : 39, "lemma" : "어", "type" : "EC", "position" : 188, "weight" : 0.41831 },
		{"id" : 40, "lemma" : "널리", "type" : "MAG", "position" : 192, "weight" : 0.040083 },
		{"id" : 41, "lemma" : "알리", "type" : "VV", "position" : 199, "weight" : 0.38636 },
		{"id" : 42, "lemma" : "는", "type" : "ETM", "position" : 205, "weight" : 0.184941 },
		{"id" : 43, "lemma" : "문서", "type" : "NNG", "position" : 209, "weight" : 0.657648 },
		{"id" : 44, "lemma" : "를", "type" : "JKO", "position" : 215, "weight" : 0.137686 },
		{"id" : 45, "lemma" : "말", "type" : "NNG", "position" : 219, "weight" : 0.0814073 },
		{"id" : 46, "lemma" : "하", "type" : "XSV", "position" : 222, "weight" : 0.0001 },
		{"id" : 47, "lemma" : "ㄴ다", "type" : "EF", "position" : 222, "weight" : 0.0449045 },
		{"id" : 48, "lemma" : ".", "type" : "SF", "position" : 228, "weight" : 1 }
	],
	"morp_eval" : [
		{"id" : 0, "result" : "﻿사발통문/NNG+(/SS+沙鉢通文/SH+)/SS+은/JX", "target" : "﻿사발통문(沙鉢通文)은", "word_id" : 0, "m_begin" : 0, "m_end" : 5},
		{"id" : 1, "result" : "어떤/MM", "target" : "어떤", "word_id" : 1, "m_begin" : 6, "m_end" : 6},
		{"id" : 2, "result" : "일/NNG+을/JKO", "target" : "일을", "word_id" : 2, "m_begin" : 7, "m_end" : 8},
		{"id" : 3, "result" : "함께/MAG", "target" : "함께", "word_id" : 3, "m_begin" : 9, "m_end" : 9},
		{"id" : 4, "result" : "하/VV+고자/EC", "target" : "하고자", "word_id" : 4, "m_begin" : 10, "m_end" : 11},
		{"id" : 5, "result" : "하/VX+는/ETM", "target" : "하는", "word_id" : 5, "m_begin" : 12, "m_end" : 13},
		{"id" : 6, "result" : "사람/NNG", "target" : "사람", "word_id" : 6, "m_begin" : 14, "m_end" : 14},
		{"id" : 7, "result" : "이름/NNG+을/JKO", "target" : "이름을", "word_id" : 7, "m_begin" : 15, "m_end" : 16},
		{"id" : 8, "result" : "사발/NNG", "target" : "사발", "word_id" : 8, "m_begin" : 17, "m_end" : 17},
		{"id" : 9, "result" : "모양/NNG+으로/JKB", "target" : "모양으로", "word_id" : 9, "m_begin" : 18, "m_end" : 19},
		{"id" : 10, "result" : "둥글/VA+게/EC", "target" : "둥글게", "word_id" : 10, "m_begin" : 20, "m_end" : 21},
		{"id" : 11, "result" : "삥/MAG", "target" : "삥", "word_id" : 11, "m_begin" : 22, "m_end" : 22},
		{"id" : 12, "result" : "돌리/VV+어/EC", "target" : "돌려", "word_id" : 12, "m_begin" : 23, "m_end" : 24},
		{"id" : 13, "result" : "적어/NNG+,/SP", "target" : "적어,", "word_id" : 13, "m_begin" : 25, "m_end" : 26},
		{"id" : 14, "result" : "같/VA+은/ETM", "target" : "같은", "word_id" : 14, "m_begin" : 27, "m_end" : 28},
		{"id" : 15, "result" : "뜻/NNG+을/JKO", "target" : "뜻을", "word_id" : 15, "m_begin" : 29, "m_end" : 30},
		{"id" : 16, "result" : "가지/VV+ㄴ/ETM", "target" : "가진", "word_id" : 16, "m_begin" : 31, "m_end" : 32},
		{"id" : 17, "result" : "다른/MM", "target" : "다른", "word_id" : 17, "m_begin" : 33, "m_end" : 33},
		{"id" : 18, "result" : "사람/NNG+을/JKO", "target" : "사람을", "word_id" : 18, "m_begin" : 34, "m_end" : 35},
		{"id" : 19, "result" : "모으/VV+기/ETN", "target" : "모으기", "word_id" : 19, "m_begin" : 36, "m_end" : 37},
		{"id" : 20, "result" : "위하/VV+어/EC", "target" : "위해", "word_id" : 20, "m_begin" : 38, "m_end" : 39},
		{"id" : 21, "result" : "널리/MAG", "target" : "널리", "word_id" : 21, "m_begin" : 40, "m_end" : 40},
		{"id" : 22, "result" : "알리/VV+는/ETM", "target" : "알리는", "word_id" : 22, "m_begin" : 41, "m_end" : 42},
		{"id" : 23, "result" : "문서/NNG+를/JKO", "target" : "문서를", "word_id" : 23, "m_begin" : 43, "m_end" : 44},
		{"id" : 24, "result" : "말하/VV+ㄴ다/EF+./SF", "target" : "말한다.", "word_id" : 24, "m_begin" : 45, "m_end" : 48}
	],
	"WSD" : [
		{"id" : 0, "text" : "﻿사발", "type" : "NNP", "scode" : "00", "weight" : 0, "position" : 0, "begin" : 0, "end" : 0},
		{"id" : 1, "text" : "통문", "type" : "NNG", "scode" : "01", "weight" : 1, "position" : 9, "begin" : 1, "end" : 1},
		{"id" : 2, "text" : "(", "type" : "SS", "scode" : "00", "weight" : 1, "position" : 15, "begin" : 2, "end" : 2},
		{"id" : 3, "text" : "沙鉢通文", "type" : "SH", "scode" : "00", "weight" : 1, "position" : 16, "begin" : 3, "end" : 3},
		{"id" : 4, "text" : ")", "type" : "SS", "scode" : "00", "weight" : 1, "position" : 28, "begin" : 4, "end" : 4},
		{"id" : 5, "text" : "은", "type" : "JX", "scode" : "00", "weight" : 1, "position" : 29, "begin" : 5, "end" : 5},
		{"id" : 6, "text" : "어떤", "type" : "MM", "scode" : "00", "weight" : 1, "position" : 33, "begin" : 6, "end" : 6},
		{"id" : 7, "text" : "일", "type" : "NNG", "scode" : "01", "weight" : 1, "position" : 40, "begin" : 7, "end" : 7},
		{"id" : 8, "text" : "을", "type" : "JKO", "scode" : "00", "weight" : 1, "position" : 43, "begin" : 8, "end" : 8},
		{"id" : 9, "text" : "함께", "type" : "MAG", "scode" : "00", "weight" : 1, "position" : 47, "begin" : 9, "end" : 9},
		{"id" : 10, "text" : "하", "type" : "VV", "scode" : "01", "weight" : 1, "position" : 54, "begin" : 10, "end" : 10},
		{"id" : 11, "text" : "고자", "type" : "EC", "scode" : "00", "weight" : 1, "position" : 57, "begin" : 11, "end" : 11},
		{"id" : 12, "text" : "하", "type" : "VX", "scode" : "01", "weight" : 1, "position" : 64, "begin" : 12, "end" : 12},
		{"id" : 13, "text" : "는", "type" : "ETM", "scode" : "00", "weight" : 1, "position" : 67, "begin" : 13, "end" : 13},
		{"id" : 14, "text" : "사람", "type" : "NNG", "scode" : "00", "weight" : 1, "position" : 71, "begin" : 14, "end" : 14},
		{"id" : 15, "text" : "이름", "type" : "NNG", "scode" : "00", "weight" : 1, "position" : 78, "begin" : 15, "end" : 15},
		{"id" : 16, "text" : "을", "type" : "JKO", "scode" : "00", "weight" : 1, "position" : 84, "begin" : 16, "end" : 16},
		{"id" : 17, "text" : "사발", "type" : "NNG", "scode" : "01", "weight" : 1, "position" : 88, "begin" : 17, "end" : 17},
		{"id" : 18, "text" : "모양", "type" : "NNG", "scode" : "02", "weight" : 1, "position" : 95, "begin" : 18, "end" : 18},
		{"id" : 19, "text" : "으로", "type" : "JKB", "scode" : "00", "weight" : 1, "position" : 101, "begin" : 19, "end" : 19},
		{"id" : 20, "text" : "둥글", "type" : "VA", "scode" : "01", "weight" : 1, "position" : 108, "begin" : 20, "end" : 20},
		{"id" : 21, "text" : "게", "type" : "EC", "scode" : "00", "weight" : 1, "position" : 114, "begin" : 21, "end" : 21},
		{"id" : 22, "text" : "삥", "type" : "MAG", "scode" : "02", "weight" : 1, "position" : 118, "begin" : 22, "end" : 22},
		{"id" : 23, "text" : "돌리", "type" : "VV", "scode" : "04", "weight" : 1, "position" : 122, "begin" : 23, "end" : 23},
		{"id" : 24, "text" : "어", "type" : "EC", "scode" : "00", "weight" : 1, "position" : 125, "begin" : 24, "end" : 24},
		{"id" : 25, "text" : "적어", "type" : "NNP", "scode" : "00", "weight" : 0, "position" : 129, "begin" : 25, "end" : 25},
		{"id" : 26, "text" : ",", "type" : "SP", "scode" : "00", "weight" : 1, "position" : 135, "begin" : 26, "end" : 26},
		{"id" : 27, "text" : "같", "type" : "VA", "scode" : "00", "weight" : 1, "position" : 137, "begin" : 27, "end" : 27},
		{"id" : 28, "text" : "은", "type" : "ETM", "scode" : "00", "weight" : 1, "position" : 140, "begin" : 28, "end" : 28},
		{"id" : 29, "text" : "뜻", "type" : "NNG", "scode" : "00", "weight" : 1, "position" : 144, "begin" : 29, "end" : 29},
		{"id" : 30, "text" : "을", "type" : "JKO", "scode" : "00", "weight" : 1, "position" : 147, "begin" : 30, "end" : 30},
		{"id" : 31, "text" : "가지", "type" : "VV", "scode" : "00", "weight" : 1, "position" : 151, "begin" : 31, "end" : 31},
		{"id" : 32, "text" : "ㄴ", "type" : "ETM", "scode" : "00", "weight" : 1, "position" : 154, "begin" : 32, "end" : 32},
		{"id" : 33, "text" : "다른", "type" : "MM", "scode" : "00", "weight" : 1, "position" : 158, "begin" : 33, "end" : 33},
		{"id" : 34, "text" : "사람", "type" : "NNG", "scode" : "00", "weight" : 1, "position" : 165, "begin" : 34, "end" : 34},
		{"id" : 35, "text" : "을", "type" : "JKO", "scode" : "00", "weight" : 1, "position" : 171, "begin" : 35, "end" : 35},
		{"id" : 36, "text" : "모으", "type" : "VV", "scode" : "00", "weight" : 1, "position" : 175, "begin" : 36, "end" : 36},
		{"id" : 37, "text" : "기", "type" : "ETN", "scode" : "00", "weight" : 1, "position" : 181, "begin" : 37, "end" : 37},
		{"id" : 38, "text" : "위하", "type" : "VV", "scode" : "01", "weight" : 1, "position" : 185, "begin" : 38, "end" : 38},
		{"id" : 39, "text" : "어", "type" : "EC", "scode" : "00", "weight" : 1, "position" : 188, "begin" : 39, "end" : 39},
		{"id" : 40, "text" : "널리", "type" : "MAG", "scode" : "00", "weight" : 1, "position" : 192, "begin" : 40, "end" : 40},
		{"id" : 41, "text" : "알리", "type" : "VV", "scode" : "00", "weight" : 1, "position" : 199, "begin" : 41, "end" : 41},
		{"id" : 42, "text" : "는", "type" : "ETM", "scode" : "00", "weight" : 1, "position" : 205, "begin" : 42, "end" : 42},
		{"id" : 43, "text" : "문서", "type" : "NNG", "scode" : "00", "weight" : 1, "position" : 209, "begin" : 43, "end" : 43},
		{"id" : 44, "text" : "를", "type" : "JKO", "scode" : "00", "weight" : 1, "position" : 215, "begin" : 44, "end" : 44},
		{"id" : 45, "text" : "말하", "type" : "VV", "scode" : "00", "weight" : 1, "position" : 219, "begin" : 45, "end" : 46},
		{"id" : 46, "text" : "ㄴ다", "type" : "EF", "scode" : "00", "weight" : 1, "position" : 222, "begin" : 47, "end" : 47},
		{"id" : 47, "text" : ".", "type" : "SF", "scode" : "00", "weight" : 1, "position" : 228, "begin" : 48, "end" : 48}
	],
	"word" : [
		{"id" : 0, "text" : "﻿사발통문(沙鉢通文)은", "type" : "", "begin" : 0, "end" : 5},
		{"id" : 1, "text" : "어떤", "type" : "", "begin" : 6, "end" : 6},
		{"id" : 2, "text" : "일을", "type" : "", "begin" : 7, "end" : 8},
		{"id" : 3, "text" : "함께", "type" : "", "begin" : 9, "end" : 9},
		{"id" : 4, "text" : "하고자", "type" : "", "begin" : 10, "end" : 11},
		{"id" : 5, "text" : "하는", "type" : "", "begin" : 12, "end" : 13},
		{"id" : 6, "text" : "사람", "type" : "", "begin" : 14, "end" : 14},
		{"id" : 7, "text" : "이름을", "type" : "", "begin" : 15, "end" : 16},
		{"id" : 8, "text" : "사발", "type" : "", "begin" : 17, "end" : 17},
		{"id" : 9, "text" : "모양으로", "type" : "", "begin" : 18, "end" : 19},
		{"id" : 10, "text" : "둥글게", "type" : "", "begin" : 20, "end" : 21},
		{"id" : 11, "text" : "삥", "type" : "", "begin" : 22, "end" : 22},
		{"id" : 12, "text" : "돌려", "type" : "", "begin" : 23, "end" : 24},
		{"id" : 13, "text" : "적어,", "type" : "", "begin" : 25, "end" : 26},
		{"id" : 14, "text" : "같은", "type" : "", "begin" : 27, "end" : 28},
		{"id" : 15, "text" : "뜻을", "type" : "", "begin" : 29, "end" : 30},
		{"id" : 16, "text" : "가진", "type" : "", "begin" : 31, "end" : 32},
		{"id" : 17, "text" : "다른", "type" : "", "begin" : 33, "end" : 33},
		{"id" : 18, "text" : "사람을", "type" : "", "begin" : 34, "end" : 35},
		{"id" : 19, "text" : "모으기", "type" : "", "begin" : 36, "end" : 37},
		{"id" : 20, "text" : "위해", "type" : "", "begin" : 38, "end" : 39},
		{"id" : 21, "text" : "널리", "type" : "", "begin" : 40, "end" : 40},
		{"id" : 22, "text" : "알리는", "type" : "", "begin" : 41, "end" : 42},
		{"id" : 23, "text" : "문서를", "type" : "", "begin" : 43, "end" : 44},
		{"id" : 24, "text" : "말한다.", "type" : "", "begin" : 45, "end" : 48}
	],
	"NE" : [
		{"id" : 0, "text" : "﻿사발통문", "type" : "AF_CULTURAL_ASSET", "begin" : 0, "end" : 1, "weight" : 0.0883969, "common_noun" : 0}
	],
	"chunk" : [
	],
	"dependency" : [
		{"id" : 0, "text" : "﻿사발통문(沙鉢通文)은", "head" : 24, "label" : "NP_SBJ", "mod" : [], "weight" : 0.794228 },
		{"id" : 1, "text" : "어떤", "head" : 2, "label" : "DP", "mod" : [], "weight" : 0.789212 },
		{"id" : 2, "text" : "일을", "head" : 4, "label" : "NP_OBJ", "mod" : [1], "weight" : 0.874874 },
		{"id" : 3, "text" : "함께", "head" : 4, "label" : "AP", "mod" : [], "weight" : 0.80653 },
		{"id" : 4, "text" : "하고자", "head" : 5, "label" : "VP", "mod" : [2, 3], "weight" : 0.85789 },
		{"id" : 5, "text" : "하는", "head" : 6, "label" : "VP_MOD", "mod" : [4], "weight" : 0.595457 },
		{"id" : 6, "text" : "사람", "head" : 7, "label" : "NP", "mod" : [5], "weight" : 0.780157 },
		{"id" : 7, "text" : "이름을", "head" : 12, "label" : "NP_OBJ", "mod" : [6], "weight" : 0.782086 },
		{"id" : 8, "text" : "사발", "head" : 9, "label" : "NP", "mod" : [], "weight" : 0.9381 },
		{"id" : 9, "text" : "모양으로", "head" : 12, "label" : "NP_AJT", "mod" : [8], "weight" : 0.984598 },
		{"id" : 10, "text" : "둥글게", "head" : 12, "label" : "VP_AJT", "mod" : [], "weight" : 0.803696 },
		{"id" : 11, "text" : "삥", "head" : 12, "label" : "AP", "mod" : [], "weight" : 0.901144 },
		{"id" : 12, "text" : "돌려", "head" : 19, "label" : "VP", "mod" : [7, 9, 10, 11], "weight" : 0.798761 },
		{"id" : 13, "text" : "적어,", "head" : 18, "label" : "NP_CNJ", "mod" : [], "weight" : 0.54689 },
		{"id" : 14, "text" : "같은", "head" : 15, "label" : "VP_MOD", "mod" : [], "weight" : 0.978425 },
		{"id" : 15, "text" : "뜻을", "head" : 16, "label" : "NP_OBJ", "mod" : [14], "weight" : 0.812403 },
		{"id" : 16, "text" : "가진", "head" : 18, "label" : "VP_MOD", "mod" : [15], "weight" : 0.824577 },
		{"id" : 17, "text" : "다른", "head" : 18, "label" : "DP", "mod" : [], "weight" : 0.906429 },
		{"id" : 18, "text" : "사람을", "head" : 19, "label" : "NP_OBJ", "mod" : [13, 16, 17], "weight" : 0.80959 },
		{"id" : 19, "text" : "모으기", "head" : 20, "label" : "VP_OBJ", "mod" : [12, 18], "weight" : 0.773092 },
		{"id" : 20, "text" : "위해", "head" : 22, "label" : "VP", "mod" : [19], "weight" : 0.687921 },
		{"id" : 21, "text" : "널리", "head" : 22, "label" : "AP", "mod" : [], "weight" : 0.927931 },
		{"id" : 22, "text" : "알리는", "head" : 23, "label" : "VP_MOD", "mod" : [20, 21], "weight" : 0.977934 },
		{"id" : 23, "text" : "문서를", "head" : 24, "label" : "NP_OBJ", "mod" : [22], "weight" : 0.572458 },
		{"id" : 24, "text" : "말한다.", "head" : -1, "label" : "VP", "mod" : [0, 23], "weight" : 0.00351893 }
	],
	"SRL" : [
		{"verb" : "하", "sense" : 1, "word_id" : 4, "weight" : 0.283579,
			"argument" : [
				{"type" : "ARG1", "word_id" : 2, "text" : "일을", "weight" : 0.246328 },
				{"type" : "ARGM-MNR", "word_id" : 3, "text" : "함께", "weight" : 0.193892 },
				{"type" : "AUX", "word_id" : 5, "text" : "하는", "weight" : 0.410516 }
			] },
		{"verb" : "둥글", "sense" : 1, "word_id" : 10, "weight" : 0,
			"argument" : [
			] },
		{"verb" : "돌리", "sense" : 1, "word_id" : 12, "weight" : 0.219577,
			"argument" : [
				{"type" : "ARG1", "word_id" : 7, "text" : "이름을", "weight" : 0.287316 },
				{"type" : "ARGM-MNR", "word_id" : 10, "text" : "둥글게", "weight" : 0.151838 }
			] },
		{"verb" : "같", "sense" : 1, "word_id" : 14, "weight" : 0.37309,
			"argument" : [
				{"type" : "ARG1", "word_id" : 15, "text" : "뜻을", "weight" : 0.37309 }
			] },
		{"verb" : "가지", "sense" : 1, "word_id" : 16, "weight" : 0.33257,
			"argument" : [
				{"type" : "ARG1", "word_id" : 15, "text" : "뜻을", "weight" : 0.232627 },
				{"type" : "ARG0", "word_id" : 18, "text" : "사람을", "weight" : 0.432513 }
			] },
		{"verb" : "모으", "sense" : 1, "word_id" : 19, "weight" : 0.347433,
			"argument" : [
				{"type" : "ARG1", "word_id" : 18, "text" : "사람을", "weight" : 0.347433 }
			] },
		{"verb" : "위하", "sense" : 1, "word_id" : 20, "weight" : 0.244319,
			"argument" : [
				{"type" : "ARG1", "word_id" : 19, "text" : "모으기", "weight" : 0.244319 }
			] },
		{"verb" : "알리", "sense" : 1, "word_id" : 22, "weight" : 0.193206,
			"argument" : [
				{"type" : "ARGM-PRP", "word_id" : 20, "text" : "위해", "weight" : 0.221401 },
				{"type" : "ARGM-ADV", "word_id" : 21, "text" : "널리", "weight" : 0.16501 }
			] },
		{"verb" : "말", "sense" : 1, "word_id" : 24, "weight" : 0.159269,
			"argument" : [
				{"type" : "ARG0", "word_id" : 0, "text" : "﻿사발통문(沙鉢通文)은", "weight" : 0.20014 },
				{"type" : "ARG1", "word_id" : 23, "text" : "문서를", "weight" : 0.118398 }
			] }
	],
	"relation" : [
	],
	"SA" : [
	],
	"ZA" : [
		{"id" : 0, "verb_wid" : 12, "ant_sid" : 0, "ant_wid" : 0, "type" : "s", "istitle" : 0, "weight" : 0.648942 },
		{"id" : 1, "verb_wid" : 19, "ant_sid" : -1, "ant_wid" : -1, "type" : "s", "istitle" : 0, "weight" : 0.435339 }
	]
	},
	{
	"id" : 1,
	"reserve_str" : "",
	"text" : "특히 동학 농민 운동 때 동학군들이 사용하였던 통문이 유명하다. ",
	"morp" : [
		{"id" : 0, "lemma" : "특히", "type" : "MAG", "position" : 230, "weight" : 0.9 },
		{"id" : 1, "lemma" : "동학", "type" : "NNG", "position" : 237, "weight" : 0.255055 },
		{"id" : 2, "lemma" : "농민", "type" : "NNG", "position" : 244, "weight" : 0.9 },
		{"id" : 3, "lemma" : "운동", "type" : "NNG", "position" : 251, "weight" : 0.9 },
		{"id" : 4, "lemma" : "때", "type" : "NNG", "position" : 258, "weight" : 0.184189 },
		{"id" : 5, "lemma" : "동학", "type" : "NNG", "position" : 262, "weight" : 0.180287 },
		{"id" : 6, "lemma" : "군", "type" : "NNG", "position" : 268, "weight" : 0.110913 },
		{"id" : 7, "lemma" : "들", "type" : "XSN", "position" : 271, "weight" : 0.0299841 },
		{"id" : 8, "lemma" : "이", "type" : "JKS", "position" : 274, "weight" : 0.0731805 },
		{"id" : 9, "lemma" : "사용", "type" : "NNG", "position" : 278, "weight" : 0.9 },
		{"id" : 10, "lemma" : "하", "type" : "XSV", "position" : 284, "weight" : 0.0001 },
		{"id" : 11, "lemma" : "었", "type" : "EP", "position" : 287, "weight" : 0.9 },
		{"id" : 12, "lemma" : "던", "type" : "ETM", "position" : 290, "weight" : 0.107547 },
		{"id" : 13, "lemma" : "통문", "type" : "NNG", "position" : 294, "weight" : 0.9 },
		{"id" : 14, "lemma" : "이", "type" : "JKS", "position" : 300, "weight" : 0.0360723 },
		{"id" : 15, "lemma" : "유명", "type" : "NNG", "position" : 304, "weight" : 0.9 },
		{"id" : 16, "lemma" : "하", "type" : "XSA", "position" : 310, "weight" : 0.0001 },
		{"id" : 17, "lemma" : "다", "type" : "EF", "position" : 313, "weight" : 0.0497538 },
		{"id" : 18, "lemma" : ".", "type" : "SF", "position" : 316, "weight" : 1 }
	],
	"morp_eval" : [
		{"id" : 0, "result" : "특히/MAG", "target" : "특히", "word_id" : 0, "m_begin" : 0, "m_end" : 0},
		{"id" : 1, "result" : "동학/NNG", "target" : "동학", "word_id" : 1, "m_begin" : 1, "m_end" : 1},
		{"id" : 2, "result" : "농민/NNG", "target" : "농민", "word_id" : 2, "m_begin" : 2, "m_end" : 2},
		{"id" : 3, "result" : "운동/NNG", "target" : "운동", "word_id" : 3, "m_begin" : 3, "m_end" : 3},
		{"id" : 4, "result" : "때/NNG", "target" : "때", "word_id" : 4, "m_begin" : 4, "m_end" : 4},
		{"id" : 5, "result" : "동학군들/NNG+이/JKS", "target" : "동학군들이", "word_id" : 5, "m_begin" : 5, "m_end" : 8},
		{"id" : 6, "result" : "사용하/VV+었/EP+던/ETM", "target" : "사용하였던", "word_id" : 6, "m_begin" : 9, "m_end" : 12},
		{"id" : 7, "result" : "통문/NNG+이/JKS", "target" : "통문이", "word_id" : 7, "m_begin" : 13, "m_end" : 14},
		{"id" : 8, "result" : "유명하/VA+다/EF+./SF", "target" : "유명하다.", "word_id" : 8, "m_begin" : 15, "m_end" : 18}
	],
	"WSD" : [
		{"id" : 0, "text" : "특히", "type" : "MAG", "scode" : "00", "weight" : 1, "position" : 230, "begin" : 0, "end" : 0},
		{"id" : 1, "text" : "동학", "type" : "NNG", "scode" : "03", "weight" : 1, "position" : 237, "begin" : 1, "end" : 1},
		{"id" : 2, "text" : "농민", "type" : "NNG", "scode" : "00", "weight" : 1, "position" : 244, "begin" : 2, "end" : 2},
		{"id" : 3, "text" : "운동", "type" : "NNG", "scode" : "02", "weight" : 1, "position" : 251, "begin" : 3, "end" : 3},
		{"id" : 4, "text" : "때", "type" : "NNG", "scode" : "01", "weight" : 1, "position" : 258, "begin" : 4, "end" : 4},
		{"id" : 5, "text" : "동학", "type" : "NNG", "scode" : "03", "weight" : 1, "position" : 262, "begin" : 5, "end" : 5},
		{"id" : 6, "text" : "군들", "type" : "NNG", "scode" : "00", "weight" : 1, "position" : 268, "begin" : 6, "end" : 7},
		{"id" : 7, "text" : "이", "type" : "JKS", "scode" : "00", "weight" : 1, "position" : 274, "begin" : 8, "end" : 8},
		{"id" : 8, "text" : "사용하", "type" : "VV", "scode" : "03", "weight" : 1, "position" : 278, "begin" : 9, "end" : 10},
		{"id" : 9, "text" : "었", "type" : "EP", "scode" : "00", "weight" : 1, "position" : 287, "begin" : 11, "end" : 11},
		{"id" : 10, "text" : "던", "type" : "ETM", "scode" : "00", "weight" : 1, "position" : 290, "begin" : 12, "end" : 12},
		{"id" : 11, "text" : "통문", "type" : "NNG", "scode" : "01", "weight" : 1, "position" : 294, "begin" : 13, "end" : 13},
		{"id" : 12, "text" : "이", "type" : "JKS", "scode" : "00", "weight" : 1, "position" : 300, "begin" : 14, "end" : 14},
		{"id" : 13, "text" : "유명하", "type" : "VA", "scode" : "01", "weight" : 1, "position" : 304, "begin" : 15, "end" : 16},
		{"id" : 14, "text" : "다", "type" : "EF", "scode" : "00", "weight" : 1, "position" : 313, "begin" : 17, "end" : 17},
		{"id" : 15, "text" : ".", "type" : "SF", "scode" : "00", "weight" : 1, "position" : 316, "begin" : 18, "end" : 18}
	],
	"word" : [
		{"id" : 0, "text" : "특히", "type" : "", "begin" : 0, "end" : 0},
		{"id" : 1, "text" : "동학", "type" : "", "begin" : 1, "end" : 1},
		{"id" : 2, "text" : "농민", "type" : "", "begin" : 2, "end" : 2},
		{"id" : 3, "text" : "운동", "type" : "", "begin" : 3, "end" : 3},
		{"id" : 4, "text" : "때", "type" : "", "begin" : 4, "end" : 4},
		{"id" : 5, "text" : "동학군들이", "type" : "", "begin" : 5, "end" : 8},
		{"id" : 6, "text" : "사용하였던", "type" : "", "begin" : 9, "end" : 12},
		{"id" : 7, "text" : "통문이", "type" : "", "begin" : 13, "end" : 14},
		{"id" : 8, "text" : "유명하다.", "type" : "", "begin" : 15, "end" : 18}
	],
	"NE" : [
		{"id" : 0, "text" : "동학 농민 운동 때", "type" : "DT_OTHERS", "begin" : 1, "end" : 4, "weight" : 0.220766, "common_noun" : 0},
		{"id" : 1, "text" : "동학군", "type" : "OGG_MILITARY", "begin" : 5, "end" : 6, "weight" : 0.377156, "common_noun" : 0}
	],
	"chunk" : [
	],
	"dependency" : [
		{"id" : 0, "text" : "특히", "head" : 8, "label" : "AP", "mod" : [], "weight" : 0.83225 },
		{"id" : 1, "text" : "동학", "head" : 3, "label" : "NP", "mod" : [], "weight" : 0.728307 },
		{"id" : 2, "text" : "농민", "head" : 3, "label" : "NP", "mod" : [], "weight" : 0.840556 },
		{"id" : 3, "text" : "운동", "head" : 4, "label" : "NP", "mod" : [1, 2], "weight" : 0.728438 },
		{"id" : 4, "text" : "때", "head" : 6, "label" : "NP_AJT", "mod" : [3], "weight" : 0.704925 },
		{"id" : 5, "text" : "동학군들이", "head" : 6, "label" : "NP_SBJ", "mod" : [], "weight" : 0.880924 },
		{"id" : 6, "text" : "사용하였던", "head" : 7, "label" : "VP_MOD", "mod" : [4, 5], "weight" : 0.768272 },
		{"id" : 7, "text" : "통문이", "head" : 8, "label" : "NP_SBJ", "mod" : [6], "weight" : 0.493444 },
		{"id" : 8, "text" : "유명하다.", "head" : -1, "label" : "VP", "mod" : [0, 7], "weight" : 0.05254 }
	],
	"SRL" : [
		{"verb" : "사용", "sense" : 1, "word_id" : 6, "weight" : 0.257373,
			"argument" : [
				{"type" : "ARGM-TMP", "word_id" : 4, "text" : "때", "weight" : 0.411736 },
				{"type" : "ARG0", "word_id" : 5, "text" : "동학군들이", "weight" : 0.204977 },
				{"type" : "ARG0", "word_id" : 7, "text" : "통문이", "weight" : 0.155407 }
			] },
		{"verb" : "유명", "sense" : 1, "word_id" : 8, "weight" : 0.16642,
			"argument" : [
				{"type" : "ARGM-ADV", "word_id" : 0, "text" : "특히", "weight" : 0.124462 },
				{"type" : "ARG1", "word_id" : 7, "text" : "통문이", "weight" : 0.208378 }
			] }
	],
	"relation" : [
	],
	"SA" : [
	],
	"ZA" : [
	]
	}
 ],
 "entity" : [
 ]
}

