{"doc_id" : "",
 "DCT" : "",
 "category" : "",
 "category_weight" : 0,
 "title" : {"text" : "", "NE" : ""},
 "metaInfo" : { },
 "sentence" : [
	{
	"id" : 0,
	"reserve_str" : "",
	"text" : "1980년대 중국의 덩샤오핑이 내세운 대외정책 중 '자신의 재능이나 명성을 드러내지 않고 참고 기다린다'는 뜻을 가진 표현은 무엇일까?",
	"morp" : [
		{"id" : 0, "lemma" : "1980", "type" : "SN", "position" : 0, "weight" : 1 },
		{"id" : 1, "lemma" : "년대", "type" : "NNB", "position" : 4, "weight" : 0.9 },
		{"id" : 2, "lemma" : "중국", "type" : "NNP", "position" : 11, "weight" : 0.015262 },
		{"id" : 3, "lemma" : "의", "type" : "JKG", "position" : 17, "weight" : 0.0987295 },
		{"id" : 4, "lemma" : "덩샤오핑", "type" : "NNP", "position" : 21, "weight" : 0.9 },
		{"id" : 5, "lemma" : "이", "type" : "JKS", "position" : 33, "weight" : 0.0234517 },
		{"id" : 6, "lemma" : "내세우", "type" : "VV", "position" : 37, "weight" : 0.9 },
		{"id" : 7, "lemma" : "ㄴ", "type" : "ETM", "position" : 43, "weight" : 0.304215 },
		{"id" : 8, "lemma" : "대외", "type" : "NNG", "position" : 47, "weight" : 0.9 },
		{"id" : 9, "lemma" : "정책", "type" : "NNG", "position" : 53, "weight" : 0.9 },
		{"id" : 10, "lemma" : "중", "type" : "NNB", "position" : 60, "weight" : 0.013531 },
		{"id" : 11, "lemma" : "'", "type" : "SS", "position" : 64, "weight" : 1 },
		{"id" : 12, "lemma" : "자신", "type" : "NNG", "position" : 65, "weight" : 0.19999 },
		{"id" : 13, "lemma" : "의", "type" : "JKG", "position" : 71, "weight" : 0.0694213 },
		{"id" : 14, "lemma" : "재능", "type" : "NNG", "position" : 75, "weight" : 0.9 },
		{"id" : 15, "lemma" : "이나", "type" : "JC", "position" : 81, "weight" : 0.0238189 },
		{"id" : 16, "lemma" : "명성", "type" : "NNG", "position" : 88, "weight" : 0.792052 },
		{"id" : 17, "lemma" : "을", "type" : "JKO", "position" : 94, "weight" : 0.129611 },
		{"id" : 18, "lemma" : "드러내", "type" : "VV", "position" : 98, "weight" : 0.9 },
		{"id" : 19, "lemma" : "지", "type" : "EC", "position" : 107, "weight" : 0.301842 },
		{"id" : 20, "lemma" : "않", "type" : "VX", "position" : 111, "weight" : 0.256301 },
		{"id" : 21, "lemma" : "고", "type" : "EC", "position" : 114, "weight" : 0.25644 },
		{"id" : 22, "lemma" : "참", "type" : "VV", "position" : 118, "weight" : 0.0913429 },
		{"id" : 23, "lemma" : "고", "type" : "EC", "position" : 121, "weight" : 0.416679 },
		{"id" : 24, "lemma" : "기다리", "type" : "VV", "position" : 125, "weight" : 0.9 },
		{"id" : 25, "lemma" : "ㄴ다", "type" : "EF", "position" : 131, "weight" : 0.0793196 },
		{"id" : 26, "lemma" : "'", "type" : "SS", "position" : 137, "weight" : 1 },
		{"id" : 27, "lemma" : "는", "type" : "ETM", "position" : 138, "weight" : 0.000428976 },
		{"id" : 28, "lemma" : "뜻", "type" : "NNG", "position" : 142, "weight" : 0.9 },
		{"id" : 29, "lemma" : "을", "type" : "JKO", "position" : 145, "weight" : 0.129611 },
		{"id" : 30, "lemma" : "가지", "type" : "VV", "position" : 149, "weight" : 0.401357 },
		{"id" : 31, "lemma" : "ㄴ", "type" : "ETM", "position" : 152, "weight" : 0.304215 },
		{"id" : 32, "lemma" : "표현", "type" : "NNG", "position" : 156, "weight" : 0.9 },
		{"id" : 33, "lemma" : "은", "type" : "JX", "position" : 162, "weight" : 0.0449928 },
		{"id" : 34, "lemma" : "무엇", "type" : "NP", "position" : 166, "weight" : 0.9 },
		{"id" : 35, "lemma" : "이", "type" : "VCP", "position" : 172, "weight" : 0.0175768 },
		{"id" : 36, "lemma" : "ㄹ까", "type" : "EF", "position" : 172, "weight" : 0.258243 },
		{"id" : 37, "lemma" : "?", "type" : "SF", "position" : 178, "weight" : 1 }
	],
	"morp_eval" : [
		{"id" : 0, "result" : "1980/SN+년대/NNB", "target" : "1980년대", "word_id" : 0, "m_begin" : 0, "m_end" : 1},
		{"id" : 1, "result" : "중국/NNG+의/JKG", "target" : "중국의", "word_id" : 1, "m_begin" : 2, "m_end" : 3},
		{"id" : 2, "result" : "덩샤오핑/NNG+이/JKS", "target" : "덩샤오핑이", "word_id" : 2, "m_begin" : 4, "m_end" : 5},
		{"id" : 3, "result" : "내세우/VV+ㄴ/ETM", "target" : "내세운", "word_id" : 3, "m_begin" : 6, "m_end" : 7},
		{"id" : 4, "result" : "대외정책/NNG", "target" : "대외정책", "word_id" : 4, "m_begin" : 8, "m_end" : 9},
		{"id" : 5, "result" : "중/NNB", "target" : "중", "word_id" : 5, "m_begin" : 10, "m_end" : 10},
		{"id" : 6, "result" : "'/SS+자신/NNG+의/JKG", "target" : "'자신의", "word_id" : 6, "m_begin" : 11, "m_end" : 13},
		{"id" : 7, "result" : "재능/NNG+이나/JC", "target" : "재능이나", "word_id" : 7, "m_begin" : 14, "m_end" : 15},
		{"id" : 8, "result" : "명성/NNG+을/JKO", "target" : "명성을", "word_id" : 8, "m_begin" : 16, "m_end" : 17},
		{"id" : 9, "result" : "드러내/VV+지/EC", "target" : "드러내지", "word_id" : 9, "m_begin" : 18, "m_end" : 19},
		{"id" : 10, "result" : "않/VX+고/EC", "target" : "않고", "word_id" : 10, "m_begin" : 20, "m_end" : 21},
		{"id" : 11, "result" : "참/VV+고/EC", "target" : "참고", "word_id" : 11, "m_begin" : 22, "m_end" : 23},
		{"id" : 12, "result" : "기다리/VV+ㄴ다/EF+'/SS+는/ETM", "target" : "기다린다'는", "word_id" : 12, "m_begin" : 24, "m_end" : 27},
		{"id" : 13, "result" : "뜻/NNG+을/JKO", "target" : "뜻을", "word_id" : 13, "m_begin" : 28, "m_end" : 29},
		{"id" : 14, "result" : "가지/VV+ㄴ/ETM", "target" : "가진", "word_id" : 14, "m_begin" : 30, "m_end" : 31},
		{"id" : 15, "result" : "표현/NNG+은/JX", "target" : "표현은", "word_id" : 15, "m_begin" : 32, "m_end" : 33},
		{"id" : 16, "result" : "무엇/NP+이/VCP+ㄹ까/EF+?/SF", "target" : "무엇일까?", "word_id" : 16, "m_begin" : 34, "m_end" : 37}
	],
	"WSD" : [
		{"id" : 0, "text" : "1980", "type" : "SN", "scode" : "00", "weight" : 1, "position" : 0, "begin" : 0, "end" : 0},
		{"id" : 1, "text" : "년대", "type" : "NNB", "scode" : "00", "weight" : 1, "position" : 4, "begin" : 1, "end" : 1},
		{"id" : 2, "text" : "중국", "type" : "NNP", "scode" : "01", "weight" : 1, "position" : 11, "begin" : 2, "end" : 2},
		{"id" : 3, "text" : "의", "type" : "JKG", "scode" : "00", "weight" : 1, "position" : 17, "begin" : 3, "end" : 3},
		{"id" : 4, "text" : "덩샤오핑", "type" : "NNP", "scode" : "00", "weight" : 1, "position" : 21, "begin" : 4, "end" : 4},
		{"id" : 5, "text" : "이", "type" : "JKS", "scode" : "00", "weight" : 1, "position" : 33, "begin" : 5, "end" : 5},
		{"id" : 6, "text" : "내세우", "type" : "VV", "scode" : "00", "weight" : 1, "position" : 37, "begin" : 6, "end" : 6},
		{"id" : 7, "text" : "ㄴ", "type" : "ETM", "scode" : "00", "weight" : 1, "position" : 43, "begin" : 7, "end" : 7},
		{"id" : 8, "text" : "대외", "type" : "NNG", "scode" : "02", "weight" : 1, "position" : 47, "begin" : 8, "end" : 8},
		{"id" : 9, "text" : "정책", "type" : "NNG", "scode" : "02", "weight" : 1, "position" : 53, "begin" : 9, "end" : 9},
		{"id" : 10, "text" : "중", "type" : "NNB", "scode" : "04", "weight" : 1, "position" : 60, "begin" : 10, "end" : 10},
		{"id" : 11, "text" : "'", "type" : "SS", "scode" : "00", "weight" : 1, "position" : 64, "begin" : 11, "end" : 11},
		{"id" : 12, "text" : "자신", "type" : "NNG", "scode" : "01", "weight" : 1, "position" : 65, "begin" : 12, "end" : 12},
		{"id" : 13, "text" : "의", "type" : "JKG", "scode" : "00", "weight" : 1, "position" : 71, "begin" : 13, "end" : 13},
		{"id" : 14, "text" : "재능", "type" : "NNG", "scode" : "00", "weight" : 1, "position" : 75, "begin" : 14, "end" : 14},
		{"id" : 15, "text" : "이나", "type" : "JC", "scode" : "00", "weight" : 1, "position" : 81, "begin" : 15, "end" : 15},
		{"id" : 16, "text" : "명성", "type" : "NNG", "scode" : "01", "weight" : 1, "position" : 88, "begin" : 16, "end" : 16},
		{"id" : 17, "text" : "을", "type" : "JKO", "scode" : "00", "weight" : 1, "position" : 94, "begin" : 17, "end" : 17},
		{"id" : 18, "text" : "드러내", "type" : "VV", "scode" : "00", "weight" : 1, "position" : 98, "begin" : 18, "end" : 18},
		{"id" : 19, "text" : "지", "type" : "EC", "scode" : "00", "weight" : 1, "position" : 107, "begin" : 19, "end" : 19},
		{"id" : 20, "text" : "않", "type" : "VX", "scode" : "00", "weight" : 1, "position" : 111, "begin" : 20, "end" : 20},
		{"id" : 21, "text" : "고", "type" : "EC", "scode" : "00", "weight" : 1, "position" : 114, "begin" : 21, "end" : 21},
		{"id" : 22, "text" : "참", "type" : "VV", "scode" : "00", "weight" : 1, "position" : 118, "begin" : 22, "end" : 22},
		{"id" : 23, "text" : "고", "type" : "EC", "scode" : "00", "weight" : 1, "position" : 121, "begin" : 23, "end" : 23},
		{"id" : 24, "text" : "기다리", "type" : "VV", "scode" : "00", "weight" : 1, "position" : 125, "begin" : 24, "end" : 24},
		{"id" : 25, "text" : "ㄴ다", "type" : "EF", "scode" : "00", "weight" : 1, "position" : 131, "begin" : 25, "end" : 25},
		{"id" : 26, "text" : "'", "type" : "SS", "scode" : "00", "weight" : 1, "position" : 137, "begin" : 26, "end" : 26},
		{"id" : 27, "text" : "는", "type" : "ETM", "scode" : "00", "weight" : 1, "position" : 138, "begin" : 27, "end" : 27},
		{"id" : 28, "text" : "뜻", "type" : "NNG", "scode" : "00", "weight" : 1, "position" : 142, "begin" : 28, "end" : 28},
		{"id" : 29, "text" : "을", "type" : "JKO", "scode" : "00", "weight" : 1, "position" : 145, "begin" : 29, "end" : 29},
		{"id" : 30, "text" : "가지", "type" : "VV", "scode" : "00", "weight" : 1, "position" : 149, "begin" : 30, "end" : 30},
		{"id" : 31, "text" : "ㄴ", "type" : "ETM", "scode" : "00", "weight" : 1, "position" : 152, "begin" : 31, "end" : 31},
		{"id" : 32, "text" : "표현", "type" : "NNG", "scode" : "00", "weight" : 1, "position" : 156, "begin" : 32, "end" : 32},
		{"id" : 33, "text" : "은", "type" : "JX", "scode" : "00", "weight" : 1, "position" : 162, "begin" : 33, "end" : 33},
		{"id" : 34, "text" : "무엇", "type" : "NP", "scode" : "00", "weight" : 1, "position" : 166, "begin" : 34, "end" : 34},
		{"id" : 35, "text" : "이", "type" : "VCP", "scode" : "00", "weight" : 1, "position" : 172, "begin" : 35, "end" : 35},
		{"id" : 36, "text" : "ㄹ까", "type" : "EF", "scode" : "00", "weight" : 1, "position" : 172, "begin" : 36, "end" : 36},
		{"id" : 37, "text" : "?", "type" : "SF", "scode" : "00", "weight" : 1, "position" : 178, "begin" : 37, "end" : 37}
	],
	"word" : [
		{"id" : 0, "text" : "1980년대", "type" : "", "begin" : 0, "end" : 1},
		{"id" : 1, "text" : "중국의", "type" : "", "begin" : 2, "end" : 3},
		{"id" : 2, "text" : "덩샤오핑이", "type" : "", "begin" : 4, "end" : 5},
		{"id" : 3, "text" : "내세운", "type" : "", "begin" : 6, "end" : 7},
		{"id" : 4, "text" : "대외정책", "type" : "", "begin" : 8, "end" : 9},
		{"id" : 5, "text" : "중", "type" : "", "begin" : 10, "end" : 10},
		{"id" : 6, "text" : "'자신의", "type" : "", "begin" : 11, "end" : 13},
		{"id" : 7, "text" : "재능이나", "type" : "", "begin" : 14, "end" : 15},
		{"id" : 8, "text" : "명성을", "type" : "", "begin" : 16, "end" : 17},
		{"id" : 9, "text" : "드러내지", "type" : "", "begin" : 18, "end" : 19},
		{"id" : 10, "text" : "않고", "type" : "", "begin" : 20, "end" : 21},
		{"id" : 11, "text" : "참고", "type" : "", "begin" : 22, "end" : 23},
		{"id" : 12, "text" : "기다린다'는", "type" : "", "begin" : 24, "end" : 27},
		{"id" : 13, "text" : "뜻을", "type" : "", "begin" : 28, "end" : 29},
		{"id" : 14, "text" : "가진", "type" : "", "begin" : 30, "end" : 31},
		{"id" : 15, "text" : "표현은", "type" : "", "begin" : 32, "end" : 33},
		{"id" : 16, "text" : "무엇일까?", "type" : "", "begin" : 34, "end" : 37}
	],
	"NE" : [
		{"id" : 0, "text" : "1980년대", "type" : "DT_YEAR", "begin" : 0, "end" : 1, "weight" : 0.810828, "common_noun" : 0},
		{"id" : 1, "text" : "중국", "type" : "LCP_COUNTRY", "begin" : 2, "end" : 2, "weight" : 0.631049, "common_noun" : 0},
		{"id" : 2, "text" : "덩샤오핑", "type" : "PS_NAME", "begin" : 4, "end" : 4, "weight" : 0.361158, "common_noun" : 0}
	],
	"chunk" : [
	],
	"dependency" : [
		{"id" : 0, "text" : "1980년대", "head" : 3, "label" : "NP_AJT", "mod" : [], "weight" : 0.230836 },
		{"id" : 1, "text" : "중국의", "head" : 2, "label" : "NP_MOD", "mod" : [], "weight" : 0.566221 },
		{"id" : 2, "text" : "덩샤오핑이", "head" : 3, "label" : "NP_SBJ", "mod" : [1], "weight" : 0.735638 },
		{"id" : 3, "text" : "내세운", "head" : 4, "label" : "VP_MOD", "mod" : [0, 2], "weight" : 0.541197 },
		{"id" : 4, "text" : "대외정책", "head" : 5, "label" : "NP", "mod" : [3], "weight" : 0.854145 },
		{"id" : 5, "text" : "중", "head" : 15, "label" : "NP_AJT", "mod" : [4], "weight" : 0.137445 },
		{"id" : 6, "text" : "'자신의", "head" : 8, "label" : "NP_MOD", "mod" : [], "weight" : 0.748915 },
		{"id" : 7, "text" : "재능이나", "head" : 8, "label" : "NP_CNJ", "mod" : [], "weight" : 0.779176 },
		{"id" : 8, "text" : "명성을", "head" : 9, "label" : "NP_OBJ", "mod" : [6, 7], "weight" : 0.826824 },
		{"id" : 9, "text" : "드러내지", "head" : 10, "label" : "VP", "mod" : [8], "weight" : 0.803544 },
		{"id" : 10, "text" : "않고", "head" : 11, "label" : "VP", "mod" : [9], "weight" : 0.272278 },
		{"id" : 11, "text" : "참고", "head" : 12, "label" : "VP", "mod" : [10], "weight" : 0.820024 },
		{"id" : 12, "text" : "기다린다'는", "head" : 13, "label" : "VP_MOD", "mod" : [11], "weight" : 0.502978 },
		{"id" : 13, "text" : "뜻을", "head" : 14, "label" : "NP_OBJ", "mod" : [12], "weight" : 0.816668 },
		{"id" : 14, "text" : "가진", "head" : 15, "label" : "VP_MOD", "mod" : [13], "weight" : 0.732539 },
		{"id" : 15, "text" : "표현은", "head" : 16, "label" : "NP_SBJ", "mod" : [5, 14], "weight" : 0.798261 },
		{"id" : 16, "text" : "무엇일까?", "head" : -1, "label" : "VNP", "mod" : [15], "weight" : 0.000108941 }
	],
	"SRL" : [
		{"verb" : "내세우", "sense" : 1, "word_id" : 3, "weight" : 0.537144,
			"argument" : [
				{"type" : "ARGM-TMP", "word_id" : 0, "text" : "1980년대", "weight" : 0.44345 },
				{"type" : "ARG0", "word_id" : 2, "text" : "덩샤오핑이", "weight" : 0.685401 },
				{"type" : "ARG1", "word_id" : 4, "text" : "대외정책", "weight" : 0.482581 }
			] },
		{"verb" : "드러내", "sense" : 1, "word_id" : 9, "weight" : 0.43824,
			"argument" : [
				{"type" : "ARG1", "word_id" : 8, "text" : "명성을", "weight" : 0.195768 },
				{"type" : "ARGM-NEG", "word_id" : 10, "text" : "않고", "weight" : 0.680712 }
			] },
		{"verb" : "참", "sense" : 1, "word_id" : 11, "weight" : 0,
			"argument" : [
			] },
		{"verb" : "기다리", "sense" : 1, "word_id" : 12, "weight" : 0,
			"argument" : [
			] },
		{"verb" : "가지", "sense" : 1, "word_id" : 14, "weight" : 0.301529,
			"argument" : [
				{"type" : "ARGM-CND", "word_id" : 5, "text" : "중", "weight" : 0.335433 },
				{"type" : "ARG1", "word_id" : 13, "text" : "뜻을", "weight" : 0.309365 },
				{"type" : "ARG0", "word_id" : 15, "text" : "표현은", "weight" : 0.259789 }
			] }
	],
	"relation" : [
	],
	"SA" : [
	],
	"ZA" : [
		{"id" : 0, "verb_wid" : 9, "ant_sid" : -1, "ant_wid" : -1, "type" : "s", "istitle" : 0, "weight" : 0.70684 },
		{"id" : 1, "verb_wid" : 11, "ant_sid" : -1, "ant_wid" : -1, "type" : "s", "istitle" : 0, "weight" : 0.749938 }
	]
	}
 ],
 "entity" : [
	{"id" : 0, "type" : "PS_NAME", "number" : "singular", "gender" : "", "person" : "", "animacy" : "", "loc" : "중국", 
	 "mention" : [
		{"id" : 2, "sent_id" : 0, "start_eid" : 1, "end_eid" : 2, "ne_id" : 2, "text" : "중국의 덩샤오핑", "start_eid_short" : 1, "end_eid_short" : 2, "text_short" : "중국의 덩샤오핑", "weight" : 0.002 },
		{"id" : 4, "sent_id" : 0, "start_eid" : 4, "end_eid" : 15, "ne_id" : -1, "text" : "대외정책 중 '자신의 재능이나 명성을 드러내지 않고 참고 기다린다'는 뜻을 가진 표현", "start_eid_short" : 15, "end_eid_short" : 15, "text_short" : "표현", "weight" : 0.008 },
		{"id" : 10, "sent_id" : 0, "start_eid" : 16, "end_eid" : 16, "ne_id" : -1, "text" : "무엇", "start_eid_short" : 16, "end_eid_short" : 16, "text_short" : "무엇이ㄹ까?", "weight" : 0.012 }
	] },
	{"id" : 1, "type" : "", "number" : "singular", "gender" : "", "person" : "", "animacy" : "", "loc" : "", 
	 "mention" : [
		{"id" : 7, "sent_id" : 0, "start_eid" : 6, "end_eid" : 6, "ne_id" : -1, "text" : "'자신", "start_eid_short" : 6, "end_eid_short" : 6, "text_short" : "'자신", "weight" : 0.003 },
		{"id" : 5, "sent_id" : 0, "start_eid" : 6, "end_eid" : 13, "ne_id" : -1, "text" : "'자신의 재능이나 명성을 드러내지 않고 참고 기다린다'는 뜻", "start_eid_short" : 13, "end_eid_short" : 13, "text_short" : "뜻", "weight" : 0.002 }
	] }
 ]
}
