{"doc_id" : "",
 "DCT" : "",
 "category" : "",
 "category_weight" : 0,
 "title" : {"text" : "", "NE" : ""},
 "metaInfo" : { },
 "sentence" : [
	{
	"id" : 0,
	"reserve_str" : "",
	"text" : "﻿이것은 조선 중기 이후에 민간에서 널리 읽혔던 예언서로 '이씨 왕조'가 망하고 새롭게 '정씨 왕조'가 들어선다는 내용을 담고 있다. ",
	"morp" : [
		{"id" : 0, "lemma" : "﻿", "type" : "SS", "position" : 0, "weight" : 1 },
		{"id" : 1, "lemma" : "이것", "type" : "NP", "position" : 3, "weight" : 0.0186277 },
		{"id" : 2, "lemma" : "은", "type" : "JX", "position" : 9, "weight" : 0.191811 },
		{"id" : 3, "lemma" : "조선", "type" : "NNP", "position" : 13, "weight" : 0.0441558 },
		{"id" : 4, "lemma" : "중기", "type" : "NNG", "position" : 20, "weight" : 0.279669 },
		{"id" : 5, "lemma" : "이후", "type" : "NNG", "position" : 27, "weight" : 0.184814 },
		{"id" : 6, "lemma" : "에", "type" : "JKB", "position" : 33, "weight" : 0.153364 },
		{"id" : 7, "lemma" : "민간", "type" : "NNG", "position" : 37, "weight" : 0.9 },
		{"id" : 8, "lemma" : "에서", "type" : "JKB", "position" : 43, "weight" : 0.153407 },
		{"id" : 9, "lemma" : "널리", "type" : "MAG", "position" : 50, "weight" : 0.0472919 },
		{"id" : 10, "lemma" : "읽히", "type" : "VV", "position" : 57, "weight" : 0.9 },
		{"id" : 11, "lemma" : "었", "type" : "EP", "position" : 60, "weight" : 0.9 },
		{"id" : 12, "lemma" : "던", "type" : "ETM", "position" : 63, "weight" : 0.107547 },
		{"id" : 13, "lemma" : "예언", "type" : "NNG", "position" : 67, "weight" : 0.9 },
		{"id" : 14, "lemma" : "서", "type" : "NNG", "position" : 73, "weight" : 0.00374413 },
		{"id" : 15, "lemma" : "로", "type" : "JKB", "position" : 76, "weight" : 0.153229 },
		{"id" : 16, "lemma" : "'", "type" : "SS", "position" : 80, "weight" : 1 },
		{"id" : 17, "lemma" : "이", "type" : "NNP", "position" : 81, "weight" : 0.000211062 },
		{"id" : 18, "lemma" : "씨", "type" : "NNB", "position" : 84, "weight" : 0.0450504 },
		{"id" : 19, "lemma" : "왕조", "type" : "NNG", "position" : 88, "weight" : 0.9 },
		{"id" : 20, "lemma" : "'", "type" : "SS", "position" : 94, "weight" : 1 },
		{"id" : 21, "lemma" : "가", "type" : "JKS", "position" : 95, "weight" : 0.0144542 },
		{"id" : 22, "lemma" : "망하", "type" : "VV", "position" : 99, "weight" : 0.313829 },
		{"id" : 23, "lemma" : "고", "type" : "EC", "position" : 105, "weight" : 0.416679 },
		{"id" : 24, "lemma" : "새롭", "type" : "VA", "position" : 109, "weight" : 0.9 },
		{"id" : 25, "lemma" : "게", "type" : "EC", "position" : 115, "weight" : 0.31879 },
		{"id" : 26, "lemma" : "'", "type" : "SS", "position" : 119, "weight" : 1 },
		{"id" : 27, "lemma" : "정", "type" : "NNP", "position" : 120, "weight" : 0.034232 },
		{"id" : 28, "lemma" : "씨", "type" : "NNB", "position" : 123, "weight" : 0.0450504 },
		{"id" : 29, "lemma" : "왕조", "type" : "NNG", "position" : 127, "weight" : 0.9 },
		{"id" : 30, "lemma" : "'", "type" : "SS", "position" : 133, "weight" : 1 },
		{"id" : 31, "lemma" : "가", "type" : "JKS", "position" : 134, "weight" : 0.0144542 },
		{"id" : 32, "lemma" : "들어서", "type" : "VV", "position" : 138, "weight" : 0.9 },
		{"id" : 33, "lemma" : "ㄴ다는", "type" : "ETM", "position" : 144, "weight" : 0.317555 },
		{"id" : 34, "lemma" : "내용", "type" : "NNG", "position" : 154, "weight" : 0.658704 },
		{"id" : 35, "lemma" : "을", "type" : "JKO", "position" : 160, "weight" : 0.129611 },
		{"id" : 36, "lemma" : "담", "type" : "VV", "position" : 164, "weight" : 0.603567 },
		{"id" : 37, "lemma" : "고", "type" : "EC", "position" : 167, "weight" : 0.416679 },
		{"id" : 38, "lemma" : "있", "type" : "VX", "position" : 171, "weight" : 0.125953 },
		{"id" : 39, "lemma" : "다", "type" : "EF", "position" : 174, "weight" : 0.180366 },
		{"id" : 40, "lemma" : ".", "type" : "SF", "position" : 177, "weight" : 1 }
	],
	"morp_eval" : [
		{"id" : 0, "result" : "﻿/SS+이것/NP+은/JX", "target" : "﻿이것은", "word_id" : 0, "m_begin" : 0, "m_end" : 2},
		{"id" : 1, "result" : "조선/NNG", "target" : "조선", "word_id" : 1, "m_begin" : 3, "m_end" : 3},
		{"id" : 2, "result" : "중기/NNG", "target" : "중기", "word_id" : 2, "m_begin" : 4, "m_end" : 4},
		{"id" : 3, "result" : "이후/NNG+에/JKB", "target" : "이후에", "word_id" : 3, "m_begin" : 5, "m_end" : 6},
		{"id" : 4, "result" : "민간/NNG+에서/JKB", "target" : "민간에서", "word_id" : 4, "m_begin" : 7, "m_end" : 8},
		{"id" : 5, "result" : "널리/MAG", "target" : "널리", "word_id" : 5, "m_begin" : 9, "m_end" : 9},
		{"id" : 6, "result" : "읽히/VV+었/EP+던/ETM", "target" : "읽혔던", "word_id" : 6, "m_begin" : 10, "m_end" : 12},
		{"id" : 7, "result" : "예언서/NNG+로/JKB", "target" : "예언서로", "word_id" : 7, "m_begin" : 13, "m_end" : 15},
		{"id" : 8, "result" : "'/SS+이/NNG+씨/NNB", "target" : "'이씨", "word_id" : 8, "m_begin" : 16, "m_end" : 18},
		{"id" : 9, "result" : "왕조/NNG+'/SS+가/JKS", "target" : "왕조'가", "word_id" : 9, "m_begin" : 19, "m_end" : 21},
		{"id" : 10, "result" : "망하/VV+고/EC", "target" : "망하고", "word_id" : 10, "m_begin" : 22, "m_end" : 23},
		{"id" : 11, "result" : "새롭/VA+게/EC", "target" : "새롭게", "word_id" : 11, "m_begin" : 24, "m_end" : 25},
		{"id" : 12, "result" : "'/SS+정/NNG+씨/NNB", "target" : "'정씨", "word_id" : 12, "m_begin" : 26, "m_end" : 28},
		{"id" : 13, "result" : "왕조/NNG+'/SS+가/JKS", "target" : "왕조'가", "word_id" : 13, "m_begin" : 29, "m_end" : 31},
		{"id" : 14, "result" : "들어서/VV+ㄴ다는/ETM", "target" : "들어선다는", "word_id" : 14, "m_begin" : 32, "m_end" : 33},
		{"id" : 15, "result" : "내용/NNG+을/JKO", "target" : "내용을", "word_id" : 15, "m_begin" : 34, "m_end" : 35},
		{"id" : 16, "result" : "담/VV+고/EC", "target" : "담고", "word_id" : 16, "m_begin" : 36, "m_end" : 37},
		{"id" : 17, "result" : "있/VX+다/EF+./SF", "target" : "있다.", "word_id" : 17, "m_begin" : 38, "m_end" : 40}
	],
	"WSD" : [
		{"id" : 0, "text" : "﻿", "type" : "SS", "scode" : "00", "weight" : 1, "position" : 0, "begin" : 0, "end" : 0},
		{"id" : 1, "text" : "이것", "type" : "NP", "scode" : "00", "weight" : 1, "position" : 3, "begin" : 1, "end" : 1},
		{"id" : 2, "text" : "은", "type" : "JX", "scode" : "00", "weight" : 1, "position" : 9, "begin" : 2, "end" : 2},
		{"id" : 3, "text" : "조선", "type" : "NNP", "scode" : "05", "weight" : 1, "position" : 13, "begin" : 3, "end" : 3},
		{"id" : 4, "text" : "중기", "type" : "NNG", "scode" : "03", "weight" : 1, "position" : 20, "begin" : 4, "end" : 4},
		{"id" : 5, "text" : "이후", "type" : "NNG", "scode" : "02", "weight" : 1, "position" : 27, "begin" : 5, "end" : 5},
		{"id" : 6, "text" : "에", "type" : "JKB", "scode" : "00", "weight" : 1, "position" : 33, "begin" : 6, "end" : 6},
		{"id" : 7, "text" : "민간", "type" : "NNG", "scode" : "00", "weight" : 1, "position" : 37, "begin" : 7, "end" : 7},
		{"id" : 8, "text" : "에서", "type" : "JKB", "scode" : "00", "weight" : 1, "position" : 43, "begin" : 8, "end" : 8},
		{"id" : 9, "text" : "널리", "type" : "MAG", "scode" : "00", "weight" : 1, "position" : 50, "begin" : 9, "end" : 9},
		{"id" : 10, "text" : "읽히", "type" : "VV", "scode" : "01", "weight" : 1, "position" : 57, "begin" : 10, "end" : 10},
		{"id" : 11, "text" : "었", "type" : "EP", "scode" : "00", "weight" : 1, "position" : 60, "begin" : 11, "end" : 11},
		{"id" : 12, "text" : "던", "type" : "ETM", "scode" : "00", "weight" : 1, "position" : 63, "begin" : 12, "end" : 12},
		{"id" : 13, "text" : "예언서", "type" : "NNG", "scode" : "00", "weight" : 1, "position" : 67, "begin" : 13, "end" : 14},
		{"id" : 14, "text" : "로", "type" : "JKB", "scode" : "00", "weight" : 1, "position" : 76, "begin" : 15, "end" : 15},
		{"id" : 15, "text" : "'", "type" : "SS", "scode" : "00", "weight" : 1, "position" : 80, "begin" : 16, "end" : 16},
		{"id" : 16, "text" : "이", "type" : "NNP", "scode" : "13", "weight" : 1, "position" : 81, "begin" : 17, "end" : 17},
		{"id" : 17, "text" : "씨", "type" : "NNB", "scode" : "07", "weight" : 1, "position" : 84, "begin" : 18, "end" : 18},
		{"id" : 18, "text" : "왕조", "type" : "NNG", "scode" : "02", "weight" : 1, "position" : 88, "begin" : 19, "end" : 19},
		{"id" : 19, "text" : "'", "type" : "SS", "scode" : "00", "weight" : 1, "position" : 94, "begin" : 20, "end" : 20},
		{"id" : 20, "text" : "가", "type" : "JKS", "scode" : "00", "weight" : 1, "position" : 95, "begin" : 21, "end" : 21},
		{"id" : 21, "text" : "망하", "type" : "VV", "scode" : "00", "weight" : 1, "position" : 99, "begin" : 22, "end" : 22},
		{"id" : 22, "text" : "고", "type" : "EC", "scode" : "00", "weight" : 1, "position" : 105, "begin" : 23, "end" : 23},
		{"id" : 23, "text" : "새롭", "type" : "VA", "scode" : "00", "weight" : 1, "position" : 109, "begin" : 24, "end" : 24},
		{"id" : 24, "text" : "게", "type" : "EC", "scode" : "00", "weight" : 1, "position" : 115, "begin" : 25, "end" : 25},
		{"id" : 25, "text" : "'", "type" : "SS", "scode" : "00", "weight" : 1, "position" : 119, "begin" : 26, "end" : 26},
		{"id" : 26, "text" : "정", "type" : "NNP", "scode" : "31", "weight" : 1, "position" : 120, "begin" : 27, "end" : 27},
		{"id" : 27, "text" : "씨", "type" : "NNB", "scode" : "07", "weight" : 1, "position" : 123, "begin" : 28, "end" : 28},
		{"id" : 28, "text" : "왕조", "type" : "NNG", "scode" : "02", "weight" : 1, "position" : 127, "begin" : 29, "end" : 29},
		{"id" : 29, "text" : "'", "type" : "SS", "scode" : "00", "weight" : 1, "position" : 133, "begin" : 30, "end" : 30},
		{"id" : 30, "text" : "가", "type" : "JKS", "scode" : "00", "weight" : 1, "position" : 134, "begin" : 31, "end" : 31},
		{"id" : 31, "text" : "들어서", "type" : "VV", "scode" : "00", "weight" : 1, "position" : 138, "begin" : 32, "end" : 32},
		{"id" : 32, "text" : "ㄴ다는", "type" : "ETM", "scode" : "00", "weight" : 1, "position" : 144, "begin" : 33, "end" : 33},
		{"id" : 33, "text" : "내용", "type" : "NNG", "scode" : "02", "weight" : 1, "position" : 154, "begin" : 34, "end" : 34},
		{"id" : 34, "text" : "을", "type" : "JKO", "scode" : "00", "weight" : 1, "position" : 160, "begin" : 35, "end" : 35},
		{"id" : 35, "text" : "담", "type" : "VV", "scode" : "01", "weight" : 1, "position" : 164, "begin" : 36, "end" : 36},
		{"id" : 36, "text" : "고", "type" : "EC", "scode" : "00", "weight" : 1, "position" : 167, "begin" : 37, "end" : 37},
		{"id" : 37, "text" : "있", "type" : "VX", "scode" : "01", "weight" : 1, "position" : 171, "begin" : 38, "end" : 38},
		{"id" : 38, "text" : "다", "type" : "EF", "scode" : "00", "weight" : 1, "position" : 174, "begin" : 39, "end" : 39},
		{"id" : 39, "text" : ".", "type" : "SF", "scode" : "00", "weight" : 1, "position" : 177, "begin" : 40, "end" : 40}
	],
	"word" : [
		{"id" : 0, "text" : "﻿이것은", "type" : "", "begin" : 0, "end" : 2},
		{"id" : 1, "text" : "조선", "type" : "", "begin" : 3, "end" : 3},
		{"id" : 2, "text" : "중기", "type" : "", "begin" : 4, "end" : 4},
		{"id" : 3, "text" : "이후에", "type" : "", "begin" : 5, "end" : 6},
		{"id" : 4, "text" : "민간에서", "type" : "", "begin" : 7, "end" : 8},
		{"id" : 5, "text" : "널리", "type" : "", "begin" : 9, "end" : 9},
		{"id" : 6, "text" : "읽혔던", "type" : "", "begin" : 10, "end" : 12},
		{"id" : 7, "text" : "예언서로", "type" : "", "begin" : 13, "end" : 15},
		{"id" : 8, "text" : "'이씨", "type" : "", "begin" : 16, "end" : 18},
		{"id" : 9, "text" : "왕조'가", "type" : "", "begin" : 19, "end" : 21},
		{"id" : 10, "text" : "망하고", "type" : "", "begin" : 22, "end" : 23},
		{"id" : 11, "text" : "새롭게", "type" : "", "begin" : 24, "end" : 25},
		{"id" : 12, "text" : "'정씨", "type" : "", "begin" : 26, "end" : 28},
		{"id" : 13, "text" : "왕조'가", "type" : "", "begin" : 29, "end" : 31},
		{"id" : 14, "text" : "들어선다는", "type" : "", "begin" : 32, "end" : 33},
		{"id" : 15, "text" : "내용을", "type" : "", "begin" : 34, "end" : 35},
		{"id" : 16, "text" : "담고", "type" : "", "begin" : 36, "end" : 37},
		{"id" : 17, "text" : "있다.", "type" : "", "begin" : 38, "end" : 40}
	],
	"NE" : [
		{"id" : 0, "text" : "조선 중기", "type" : "DT_DYNASTY", "begin" : 3, "end" : 4, "weight" : 0.846262, "common_noun" : 0},
		{"id" : 1, "text" : "이", "type" : "PS_NAME", "begin" : 17, "end" : 17, "weight" : 0.373637, "common_noun" : 0},
		{"id" : 2, "text" : "정", "type" : "PS_NAME", "begin" : 27, "end" : 27, "weight" : 0.369229, "common_noun" : 0}
	],
	"chunk" : [
	],
	"dependency" : [
		{"id" : 0, "text" : "﻿이것은", "head" : 7, "label" : "NP_SBJ", "mod" : [], "weight" : 0.50162 },
		{"id" : 1, "text" : "조선", "head" : 2, "label" : "NP", "mod" : [], "weight" : 0.922885 },
		{"id" : 2, "text" : "중기", "head" : 3, "label" : "NP", "mod" : [1], "weight" : 0.937316 },
		{"id" : 3, "text" : "이후에", "head" : 6, "label" : "NP_AJT", "mod" : [2], "weight" : 0.586619 },
		{"id" : 4, "text" : "민간에서", "head" : 6, "label" : "NP_AJT", "mod" : [], "weight" : 0.809691 },
		{"id" : 5, "text" : "널리", "head" : 6, "label" : "AP", "mod" : [], "weight" : 0.989011 },
		{"id" : 6, "text" : "읽혔던", "head" : 7, "label" : "VP_MOD", "mod" : [3, 4, 5], "weight" : 0.732829 },
		{"id" : 7, "text" : "예언서로", "head" : 10, "label" : "NP_AJT", "mod" : [0, 6], "weight" : 0.701769 },
		{"id" : 8, "text" : "'이씨", "head" : 9, "label" : "NP", "mod" : [], "weight" : 0.763538 },
		{"id" : 9, "text" : "왕조'가", "head" : 10, "label" : "NP_SBJ", "mod" : [8], "weight" : 0.885806 },
		{"id" : 10, "text" : "망하고", "head" : 14, "label" : "VP", "mod" : [7, 9], "weight" : 0.885926 },
		{"id" : 11, "text" : "새롭게", "head" : 14, "label" : "VP_AJT", "mod" : [], "weight" : 0.759975 },
		{"id" : 12, "text" : "'정씨", "head" : 13, "label" : "NP", "mod" : [], "weight" : 0.940274 },
		{"id" : 13, "text" : "왕조'가", "head" : 14, "label" : "NP_SBJ", "mod" : [12], "weight" : 0.773068 },
		{"id" : 14, "text" : "들어선다는", "head" : 15, "label" : "VP_MOD", "mod" : [10, 11, 13], "weight" : 0.996246 },
		{"id" : 15, "text" : "내용을", "head" : 16, "label" : "NP_OBJ", "mod" : [14], "weight" : 0.67303 },
		{"id" : 16, "text" : "담고", "head" : 17, "label" : "VP", "mod" : [15], "weight" : 0.512988 },
		{"id" : 17, "text" : "있다.", "head" : -1, "label" : "VP", "mod" : [16], "weight" : 0.00939717 }
	],
	"SRL" : [
		{"verb" : "읽히", "sense" : 1, "word_id" : 6, "weight" : 0.193695,
			"argument" : [
				{"type" : "ARGM-TMP", "word_id" : 3, "text" : "이후에", "weight" : 0.272776 },
				{"type" : "ARG2", "word_id" : 4, "text" : "민간에서", "weight" : 0.142017 },
				{"type" : "ARGM-ADV", "word_id" : 5, "text" : "널리", "weight" : 0.16723 },
				{"type" : "ARG1", "word_id" : 7, "text" : "예언서로", "weight" : 0.192758 }
			] },
		{"verb" : "망하", "sense" : 1, "word_id" : 10, "weight" : 0.261669,
			"argument" : [
				{"type" : "ARG1", "word_id" : 9, "text" : "왕조'가", "weight" : 0.261669 }
			] },
		{"verb" : "새롭", "sense" : 1, "word_id" : 11, "weight" : 0,
			"argument" : [
			] },
		{"verb" : "들어서", "sense" : 1, "word_id" : 14, "weight" : 0.262983,
			"argument" : [
				{"type" : "ARG1", "word_id" : 13, "text" : "왕조'가", "weight" : 0.262983 }
			] },
		{"verb" : "담", "sense" : 1, "word_id" : 16, "weight" : 0.404711,
			"argument" : [
				{"type" : "ARG1", "word_id" : 15, "text" : "내용을", "weight" : 0.272633 },
				{"type" : "AUX", "word_id" : 17, "text" : "있다.", "weight" : 0.536788 }
			] }
	],
	"relation" : [
	],
	"SA" : [
	],
	"ZA" : [
		{"id" : 0, "verb_wid" : 16, "ant_sid" : 0, "ant_wid" : 0, "type" : "s", "istitle" : 0, "weight" : 0.219584 }
	]
	},
	{
	"id" : 1,
	"reserve_str" : "",
	"text" : "민중 운동의 사상적 특징을 이해하는 데 중요한 자료인 이것은 무엇일까? ",
	"morp" : [
		{"id" : 0, "lemma" : "민중", "type" : "NNG", "position" : 179, "weight" : 0.437353 },
		{"id" : 1, "lemma" : "운동", "type" : "NNG", "position" : 186, "weight" : 0.9 },
		{"id" : 2, "lemma" : "의", "type" : "JKG", "position" : 192, "weight" : 0.0694213 },
		{"id" : 3, "lemma" : "사상", "type" : "NNG", "position" : 196, "weight" : 0.868188 },
		{"id" : 4, "lemma" : "적", "type" : "NNG", "position" : 202, "weight" : 0.0169769 },
		{"id" : 5, "lemma" : "특징", "type" : "NNG", "position" : 206, "weight" : 0.9 },
		{"id" : 6, "lemma" : "을", "type" : "JKO", "position" : 212, "weight" : 0.129611 },
		{"id" : 7, "lemma" : "이해", "type" : "NNG", "position" : 216, "weight" : 0.9 },
		{"id" : 8, "lemma" : "하", "type" : "XSV", "position" : 222, "weight" : 0.0001 },
		{"id" : 9, "lemma" : "는", "type" : "ETM", "position" : 225, "weight" : 0.238503 },
		{"id" : 10, "lemma" : "데", "type" : "NNB", "position" : 229, "weight" : 0.226476 },
		{"id" : 11, "lemma" : "중요", "type" : "NNG", "position" : 233, "weight" : 0.9 },
		{"id" : 12, "lemma" : "하", "type" : "XSA", "position" : 239, "weight" : 0.0001 },
		{"id" : 13, "lemma" : "ㄴ", "type" : "ETM", "position" : 239, "weight" : 0.488779 },
		{"id" : 14, "lemma" : "자료", "type" : "NNG", "position" : 243, "weight" : 0.9 },
		{"id" : 15, "lemma" : "이", "type" : "VCP", "position" : 249, "weight" : 0.0177525 },
		{"id" : 16, "lemma" : "ㄴ", "type" : "ETM", "position" : 249, "weight" : 0.220712 },
		{"id" : 17, "lemma" : "이것", "type" : "NP", "position" : 253, "weight" : 0.0102992 },
		{"id" : 18, "lemma" : "은", "type" : "JX", "position" : 259, "weight" : 0.191811 },
		{"id" : 19, "lemma" : "무엇", "type" : "NP", "position" : 263, "weight" : 0.9 },
		{"id" : 20, "lemma" : "이", "type" : "VCP", "position" : 269, "weight" : 0.0175768 },
		{"id" : 21, "lemma" : "ㄹ까", "type" : "EF", "position" : 269, "weight" : 0.258243 },
		{"id" : 22, "lemma" : "?", "type" : "SF", "position" : 275, "weight" : 1 }
	],
	"morp_eval" : [
		{"id" : 0, "result" : "민중/NNG", "target" : "민중", "word_id" : 0, "m_begin" : 0, "m_end" : 0},
		{"id" : 1, "result" : "운동/NNG+의/JKG", "target" : "운동의", "word_id" : 1, "m_begin" : 1, "m_end" : 2},
		{"id" : 2, "result" : "사상적/NNG", "target" : "사상적", "word_id" : 2, "m_begin" : 3, "m_end" : 4},
		{"id" : 3, "result" : "특징/NNG+을/JKO", "target" : "특징을", "word_id" : 3, "m_begin" : 5, "m_end" : 6},
		{"id" : 4, "result" : "이해하/VV+는/ETM", "target" : "이해하는", "word_id" : 4, "m_begin" : 7, "m_end" : 9},
		{"id" : 5, "result" : "데/NNB", "target" : "데", "word_id" : 5, "m_begin" : 10, "m_end" : 10},
		{"id" : 6, "result" : "중요하/VA+ㄴ/ETM", "target" : "중요한", "word_id" : 6, "m_begin" : 11, "m_end" : 13},
		{"id" : 7, "result" : "자료/NNG+이/VCP+ㄴ/ETM", "target" : "자료인", "word_id" : 7, "m_begin" : 14, "m_end" : 16},
		{"id" : 8, "result" : "이것/NP+은/JX", "target" : "이것은", "word_id" : 8, "m_begin" : 17, "m_end" : 18},
		{"id" : 9, "result" : "무엇/NP+이/VCP+ㄹ까/EF+?/SF", "target" : "무엇일까?", "word_id" : 9, "m_begin" : 19, "m_end" : 22}
	],
	"WSD" : [
		{"id" : 0, "text" : "민중", "type" : "NNG", "scode" : "00", "weight" : 1, "position" : 179, "begin" : 0, "end" : 0},
		{"id" : 1, "text" : "운동", "type" : "NNG", "scode" : "02", "weight" : 1, "position" : 186, "begin" : 1, "end" : 1},
		{"id" : 2, "text" : "의", "type" : "JKG", "scode" : "00", "weight" : 1, "position" : 192, "begin" : 2, "end" : 2},
		{"id" : 3, "text" : "사상적", "type" : "NNG", "scode" : "00", "weight" : 1, "position" : 196, "begin" : 3, "end" : 4},
		{"id" : 4, "text" : "특징", "type" : "NNG", "scode" : "00", "weight" : 1, "position" : 206, "begin" : 5, "end" : 5},
		{"id" : 5, "text" : "을", "type" : "JKO", "scode" : "00", "weight" : 1, "position" : 212, "begin" : 6, "end" : 6},
		{"id" : 6, "text" : "이해하", "type" : "VV", "scode" : "02", "weight" : 1, "position" : 216, "begin" : 7, "end" : 8},
		{"id" : 7, "text" : "는", "type" : "ETM", "scode" : "00", "weight" : 1, "position" : 225, "begin" : 9, "end" : 9},
		{"id" : 8, "text" : "데", "type" : "NNB", "scode" : "01", "weight" : 1, "position" : 229, "begin" : 10, "end" : 10},
		{"id" : 9, "text" : "중요하", "type" : "VA", "scode" : "02", "weight" : 1, "position" : 233, "begin" : 11, "end" : 12},
		{"id" : 10, "text" : "ㄴ", "type" : "ETM", "scode" : "00", "weight" : 1, "position" : 239, "begin" : 13, "end" : 13},
		{"id" : 11, "text" : "자료", "type" : "NNG", "scode" : "03", "weight" : 1, "position" : 243, "begin" : 14, "end" : 14},
		{"id" : 12, "text" : "이", "type" : "VCP", "scode" : "00", "weight" : 1, "position" : 249, "begin" : 15, "end" : 15},
		{"id" : 13, "text" : "ㄴ", "type" : "ETM", "scode" : "00", "weight" : 1, "position" : 249, "begin" : 16, "end" : 16},
		{"id" : 14, "text" : "이것", "type" : "NP", "scode" : "00", "weight" : 1, "position" : 253, "begin" : 17, "end" : 17},
		{"id" : 15, "text" : "은", "type" : "JX", "scode" : "00", "weight" : 1, "position" : 259, "begin" : 18, "end" : 18},
		{"id" : 16, "text" : "무엇", "type" : "NP", "scode" : "00", "weight" : 1, "position" : 263, "begin" : 19, "end" : 19},
		{"id" : 17, "text" : "이", "type" : "VCP", "scode" : "00", "weight" : 1, "position" : 269, "begin" : 20, "end" : 20},
		{"id" : 18, "text" : "ㄹ까", "type" : "EF", "scode" : "00", "weight" : 1, "position" : 269, "begin" : 21, "end" : 21},
		{"id" : 19, "text" : "?", "type" : "SF", "scode" : "00", "weight" : 1, "position" : 275, "begin" : 22, "end" : 22}
	],
	"word" : [
		{"id" : 0, "text" : "민중", "type" : "", "begin" : 0, "end" : 0},
		{"id" : 1, "text" : "운동의", "type" : "", "begin" : 1, "end" : 2},
		{"id" : 2, "text" : "사상적", "type" : "", "begin" : 3, "end" : 4},
		{"id" : 3, "text" : "특징을", "type" : "", "begin" : 5, "end" : 6},
		{"id" : 4, "text" : "이해하는", "type" : "", "begin" : 7, "end" : 9},
		{"id" : 5, "text" : "데", "type" : "", "begin" : 10, "end" : 10},
		{"id" : 6, "text" : "중요한", "type" : "", "begin" : 11, "end" : 13},
		{"id" : 7, "text" : "자료인", "type" : "", "begin" : 14, "end" : 16},
		{"id" : 8, "text" : "이것은", "type" : "", "begin" : 17, "end" : 18},
		{"id" : 9, "text" : "무엇일까?", "type" : "", "begin" : 19, "end" : 22}
	],
	"NE" : [
	],
	"chunk" : [
	],
	"dependency" : [
		{"id" : 0, "text" : "민중", "head" : 1, "label" : "NP", "mod" : [], "weight" : 0.856787 },
		{"id" : 1, "text" : "운동의", "head" : 3, "label" : "NP_MOD", "mod" : [0], "weight" : 0.813724 },
		{"id" : 2, "text" : "사상적", "head" : 3, "label" : "NP", "mod" : [], "weight" : 0.984821 },
		{"id" : 3, "text" : "특징을", "head" : 4, "label" : "NP_OBJ", "mod" : [1, 2], "weight" : 0.672535 },
		{"id" : 4, "text" : "이해하는", "head" : 5, "label" : "VP_MOD", "mod" : [3], "weight" : 0.811093 },
		{"id" : 5, "text" : "데", "head" : 6, "label" : "NP_AJT", "mod" : [4], "weight" : 0.546915 },
		{"id" : 6, "text" : "중요한", "head" : 7, "label" : "VP_MOD", "mod" : [5], "weight" : 0.955765 },
		{"id" : 7, "text" : "자료인", "head" : 8, "label" : "VNP_MOD", "mod" : [6], "weight" : 0.910729 },
		{"id" : 8, "text" : "이것은", "head" : 9, "label" : "NP_SBJ", "mod" : [7], "weight" : 0.692213 },
		{"id" : 9, "text" : "무엇일까?", "head" : -1, "label" : "VNP", "mod" : [8], "weight" : 0.0854267 }
	],
	"SRL" : [
		{"verb" : "이해", "sense" : 1, "word_id" : 4, "weight" : 0.178296,
			"argument" : [
				{"type" : "ARG1", "word_id" : 3, "text" : "특징을", "weight" : 0.178296 }
			] },
		{"verb" : "중요", "sense" : 1, "word_id" : 6, "weight" : 0.149958,
			"argument" : [
				{"type" : "ARG2", "word_id" : 5, "text" : "데", "weight" : 0.149372 },
				{"type" : "ARG1", "word_id" : 7, "text" : "자료인", "weight" : 0.150545 }
			] }
	],
	"relation" : [
	],
	"SA" : [
	],
	"ZA" : [
	]
	}
 ],
 "entity" : [
	{"id" : 0, "type" : "PS_NAME", "number" : "singular", "gender" : "", "person" : "", "animacy" : "", "loc" : "", 
	 "mention" : [
		{"id" : 2, "sent_id" : 0, "start_eid" : 0, "end_eid" : 0, "ne_id" : -1, "text" : "﻿이것", "start_eid_short" : 0, "end_eid_short" : 0, "text_short" : "﻿이것", "weight" : 0.016 },
		{"id" : 6, "sent_id" : 0, "start_eid" : 8, "end_eid" : 8, "ne_id" : 1, "text" : "'이씨", "start_eid_short" : 8, "end_eid_short" : 8, "text_short" : "'이씨", "weight" : 0.02 },
		{"id" : 7, "sent_id" : 0, "start_eid" : 12, "end_eid" : 12, "ne_id" : 2, "text" : "'정씨", "start_eid_short" : 12, "end_eid_short" : 12, "text_short" : "'정씨", "weight" : 0.012 },
		{"id" : 13, "sent_id" : 1, "start_eid" : 7, "end_eid" : 8, "ne_id" : -1, "text" : "자료인 이것", "start_eid_short" : 8, "end_eid_short" : 8, "text_short" : "이것", "weight" : 0.006 },
		{"id" : 14, "sent_id" : 1, "start_eid" : 9, "end_eid" : 9, "ne_id" : -1, "text" : "무엇", "start_eid_short" : 9, "end_eid_short" : 9, "text_short" : "무엇이ㄹ까?", "weight" : 0.006 }
	] }
 ]
}

