{"doc_id" : "",
 "DCT" : "",
 "category" : "",
 "category_weight" : 0,
 "title" : {"text" : "", "NE" : ""},
 "metaInfo" : { },
 "sentence" : [
	{
	"id" : 0,
	"reserve_str" : "",
	"text" : "﻿이러한 그림은 국가에서 개최한 주요 행사의 전 과정을 그림으로 기록해 후세에 그 어떤 기록보다도 정확하고 자세한 정보를 제공한다는 점에서 역사적 가치가 높다. ",
	"morp" : [
		{"id" : 0, "lemma" : "﻿이러하", "type" : "VA", "position" : 0, "weight" : 0 },
		{"id" : 1, "lemma" : "ㄴ", "type" : "ETM", "position" : 9, "weight" : 0.430446 },
		{"id" : 2, "lemma" : "그림", "type" : "NNG", "position" : 13, "weight" : 0.656598 },
		{"id" : 3, "lemma" : "은", "type" : "JX", "position" : 19, "weight" : 0.0449928 },
		{"id" : 4, "lemma" : "국가", "type" : "NNG", "position" : 23, "weight" : 0.324884 },
		{"id" : 5, "lemma" : "에서", "type" : "JKB", "position" : 29, "weight" : 0.153407 },
		{"id" : 6, "lemma" : "개최", "type" : "NNG", "position" : 36, "weight" : 0.9 },
		{"id" : 7, "lemma" : "하", "type" : "XSV", "position" : 42, "weight" : 0.0001 },
		{"id" : 8, "lemma" : "ㄴ", "type" : "ETM", "position" : 42, "weight" : 0.392321 },
		{"id" : 9, "lemma" : "주요", "type" : "NNG", "position" : 46, "weight" : 0.9 },
		{"id" : 10, "lemma" : "행사", "type" : "NNG", "position" : 53, "weight" : 0.184783 },
		{"id" : 11, "lemma" : "의", "type" : "JKG", "position" : 59, "weight" : 0.0694213 },
		{"id" : 12, "lemma" : "전", "type" : "MM", "position" : 63, "weight" : 0.00699001 },
		{"id" : 13, "lemma" : "과정", "type" : "NNG", "position" : 67, "weight" : 0.737264 },
		{"id" : 14, "lemma" : "을", "type" : "JKO", "position" : 73, "weight" : 0.129611 },
		{"id" : 15, "lemma" : "그림", "type" : "NNG", "position" : 77, "weight" : 0.101057 },
		{"id" : 16, "lemma" : "으로", "type" : "JKB", "position" : 83, "weight" : 0.153406 },
		{"id" : 17, "lemma" : "기록", "type" : "NNG", "position" : 90, "weight" : 0.9 },
		{"id" : 18, "lemma" : "하", "type" : "XSV", "position" : 96, "weight" : 0.0001 },
		{"id" : 19, "lemma" : "어", "type" : "EC", "position" : 96, "weight" : 0.361326 },
		{"id" : 20, "lemma" : "후세", "type" : "NNG", "position" : 100, "weight" : 0.9 },
		{"id" : 21, "lemma" : "에", "type" : "JKB", "position" : 106, "weight" : 0.153364 },
		{"id" : 22, "lemma" : "그", "type" : "MM", "position" : 110, "weight" : 0.0101525 },
		{"id" : 23, "lemma" : "어떤", "type" : "MM", "position" : 114, "weight" : 0.0140205 },
		{"id" : 24, "lemma" : "기록", "type" : "NNG", "position" : 121, "weight" : 0.9 },
		{"id" : 25, "lemma" : "보다", "type" : "JKB", "position" : 127, "weight" : 0.143482 },
		{"id" : 26, "lemma" : "도", "type" : "JX", "position" : 133, "weight" : 0.0912297 },
		{"id" : 27, "lemma" : "정확", "type" : "NNG", "position" : 137, "weight" : 0.95 },
		{"id" : 28, "lemma" : "하", "type" : "XSA", "position" : 143, "weight" : 0.0001 },
		{"id" : 29, "lemma" : "고", "type" : "EC", "position" : 146, "weight" : 0.352693 },
		{"id" : 30, "lemma" : "자세", "type" : "NNG", "position" : 150, "weight" : 0.219249 },
		{"id" : 31, "lemma" : "하", "type" : "XSA", "position" : 156, "weight" : 0.0001 },
		{"id" : 32, "lemma" : "ㄴ", "type" : "ETM", "position" : 156, "weight" : 0.488779 },
		{"id" : 33, "lemma" : "정보", "type" : "NNG", "position" : 160, "weight" : 0.65525 },
		{"id" : 34, "lemma" : "를", "type" : "JKO", "position" : 166, "weight" : 0.137686 },
		{"id" : 35, "lemma" : "제공", "type" : "NNG", "position" : 170, "weight" : 0.101045 },
		{"id" : 36, "lemma" : "하", "type" : "XSV", "position" : 176, "weight" : 0.0001 },
		{"id" : 37, "lemma" : "ㄴ다는", "type" : "ETM", "position" : 176, "weight" : 0.409524 },
		{"id" : 38, "lemma" : "점", "type" : "NNG", "position" : 186, "weight" : 0.558489 },
		{"id" : 39, "lemma" : "에서", "type" : "JKB", "position" : 189, "weight" : 0.153407 },
		{"id" : 40, "lemma" : "역사", "type" : "NNG", "position" : 196, "weight" : 0.207975 },
		{"id" : 41, "lemma" : "적", "type" : "XSN", "position" : 202, "weight" : 0.0168756 },
		{"id" : 42, "lemma" : "가치", "type" : "NNG", "position" : 206, "weight" : 0.131241 },
		{"id" : 43, "lemma" : "가", "type" : "JKS", "position" : 212, "weight" : 0.066324 },
		{"id" : 44, "lemma" : "높", "type" : "VA", "position" : 216, "weight" : 0.249364 },
		{"id" : 45, "lemma" : "다", "type" : "EF", "position" : 219, "weight" : 0.132573 },
		{"id" : 46, "lemma" : ".", "type" : "SF", "position" : 222, "weight" : 1 }
	],
	"morp_eval" : [
		{"id" : 0, "result" : "﻿이러하/VA+ㄴ/ETM", "target" : "﻿이러한", "word_id" : 0, "m_begin" : 0, "m_end" : 1},
		{"id" : 1, "result" : "그림/NNG+은/JX", "target" : "그림은", "word_id" : 1, "m_begin" : 2, "m_end" : 3},
		{"id" : 2, "result" : "국가/NNG+에서/JKB", "target" : "국가에서", "word_id" : 2, "m_begin" : 4, "m_end" : 5},
		{"id" : 3, "result" : "개최하/VV+ㄴ/ETM", "target" : "개최한", "word_id" : 3, "m_begin" : 6, "m_end" : 8},
		{"id" : 4, "result" : "주요/NNG", "target" : "주요", "word_id" : 4, "m_begin" : 9, "m_end" : 9},
		{"id" : 5, "result" : "행사/NNG+의/JKG", "target" : "행사의", "word_id" : 5, "m_begin" : 10, "m_end" : 11},
		{"id" : 6, "result" : "전/MM", "target" : "전", "word_id" : 6, "m_begin" : 12, "m_end" : 12},
		{"id" : 7, "result" : "과정/NNG+을/JKO", "target" : "과정을", "word_id" : 7, "m_begin" : 13, "m_end" : 14},
		{"id" : 8, "result" : "그림/NNG+으로/JKB", "target" : "그림으로", "word_id" : 8, "m_begin" : 15, "m_end" : 16},
		{"id" : 9, "result" : "기록하/VV+어/EC", "target" : "기록해", "word_id" : 9, "m_begin" : 17, "m_end" : 19},
		{"id" : 10, "result" : "후세/NNG+에/JKB", "target" : "후세에", "word_id" : 10, "m_begin" : 20, "m_end" : 21},
		{"id" : 11, "result" : "그/MM", "target" : "그", "word_id" : 11, "m_begin" : 22, "m_end" : 22},
		{"id" : 12, "result" : "어떤/MM", "target" : "어떤", "word_id" : 12, "m_begin" : 23, "m_end" : 23},
		{"id" : 13, "result" : "기록/NNG+보다/JKB+도/JX", "target" : "기록보다도", "word_id" : 13, "m_begin" : 24, "m_end" : 26},
		{"id" : 14, "result" : "정확하/VA+고/EC", "target" : "정확하고", "word_id" : 14, "m_begin" : 27, "m_end" : 29},
		{"id" : 15, "result" : "자세하/VA+ㄴ/ETM", "target" : "자세한", "word_id" : 15, "m_begin" : 30, "m_end" : 32},
		{"id" : 16, "result" : "정보/NNG+를/JKO", "target" : "정보를", "word_id" : 16, "m_begin" : 33, "m_end" : 34},
		{"id" : 17, "result" : "제공하/VV+ㄴ다는/ETM", "target" : "제공한다는", "word_id" : 17, "m_begin" : 35, "m_end" : 37},
		{"id" : 18, "result" : "점/NNG+에서/JKB", "target" : "점에서", "word_id" : 18, "m_begin" : 38, "m_end" : 39},
		{"id" : 19, "result" : "역사적/NNG", "target" : "역사적", "word_id" : 19, "m_begin" : 40, "m_end" : 41},
		{"id" : 20, "result" : "가치/NNG+가/JKS", "target" : "가치가", "word_id" : 20, "m_begin" : 42, "m_end" : 43},
		{"id" : 21, "result" : "높/VA+다/EF+./SF", "target" : "높다.", "word_id" : 21, "m_begin" : 44, "m_end" : 46}
	],
	"WSD" : [
		{"id" : 0, "text" : "﻿이러하", "type" : "VA", "scode" : "00", "weight" : 0, "position" : 0, "begin" : 0, "end" : 0},
		{"id" : 1, "text" : "ㄴ", "type" : "ETM", "scode" : "00", "weight" : 1, "position" : 9, "begin" : 1, "end" : 1},
		{"id" : 2, "text" : "그림", "type" : "NNG", "scode" : "01", "weight" : 1, "position" : 13, "begin" : 2, "end" : 2},
		{"id" : 3, "text" : "은", "type" : "JX", "scode" : "00", "weight" : 1, "position" : 19, "begin" : 3, "end" : 3},
		{"id" : 4, "text" : "국가", "type" : "NNG", "scode" : "01", "weight" : 1, "position" : 23, "begin" : 4, "end" : 4},
		{"id" : 5, "text" : "에서", "type" : "JKB", "scode" : "00", "weight" : 1, "position" : 29, "begin" : 5, "end" : 5},
		{"id" : 6, "text" : "개최하", "type" : "VV", "scode" : "00", "weight" : 1, "position" : 36, "begin" : 6, "end" : 7},
		{"id" : 7, "text" : "ㄴ", "type" : "ETM", "scode" : "00", "weight" : 1, "position" : 42, "begin" : 8, "end" : 8},
		{"id" : 8, "text" : "주요", "type" : "NNG", "scode" : "01", "weight" : 1, "position" : 46, "begin" : 9, "end" : 9},
		{"id" : 9, "text" : "행사", "type" : "NNG", "scode" : "01", "weight" : 1, "position" : 53, "begin" : 10, "end" : 10},
		{"id" : 10, "text" : "의", "type" : "JKG", "scode" : "00", "weight" : 1, "position" : 59, "begin" : 11, "end" : 11},
		{"id" : 11, "text" : "전", "type" : "MM", "scode" : "08", "weight" : 1, "position" : 63, "begin" : 12, "end" : 12},
		{"id" : 12, "text" : "과정", "type" : "NNG", "scode" : "03", "weight" : 1, "position" : 67, "begin" : 13, "end" : 13},
		{"id" : 13, "text" : "을", "type" : "JKO", "scode" : "00", "weight" : 1, "position" : 73, "begin" : 14, "end" : 14},
		{"id" : 14, "text" : "그림", "type" : "NNG", "scode" : "01", "weight" : 1, "position" : 77, "begin" : 15, "end" : 15},
		{"id" : 15, "text" : "으로", "type" : "JKB", "scode" : "00", "weight" : 1, "position" : 83, "begin" : 16, "end" : 16},
		{"id" : 16, "text" : "기록하", "type" : "VV", "scode" : "00", "weight" : 1, "position" : 90, "begin" : 17, "end" : 18},
		{"id" : 17, "text" : "어", "type" : "EC", "scode" : "00", "weight" : 1, "position" : 96, "begin" : 19, "end" : 19},
		{"id" : 18, "text" : "후세", "type" : "NNG", "scode" : "00", "weight" : 1, "position" : 100, "begin" : 20, "end" : 20},
		{"id" : 19, "text" : "에", "type" : "JKB", "scode" : "00", "weight" : 1, "position" : 106, "begin" : 21, "end" : 21},
		{"id" : 20, "text" : "그", "type" : "MM", "scode" : "01", "weight" : 1, "position" : 110, "begin" : 22, "end" : 22},
		{"id" : 21, "text" : "어떤", "type" : "MM", "scode" : "00", "weight" : 1, "position" : 114, "begin" : 23, "end" : 23},
		{"id" : 22, "text" : "기록", "type" : "NNG", "scode" : "02", "weight" : 1, "position" : 121, "begin" : 24, "end" : 24},
		{"id" : 23, "text" : "보다", "type" : "JKB", "scode" : "00", "weight" : 1, "position" : 127, "begin" : 25, "end" : 25},
		{"id" : 24, "text" : "도", "type" : "JX", "scode" : "00", "weight" : 1, "position" : 133, "begin" : 26, "end" : 26},
		{"id" : 25, "text" : "정확하", "type" : "VA", "scode" : "01", "weight" : 1, "position" : 137, "begin" : 27, "end" : 28},
		{"id" : 26, "text" : "고", "type" : "EC", "scode" : "00", "weight" : 1, "position" : 146, "begin" : 29, "end" : 29},
		{"id" : 27, "text" : "자세하", "type" : "VA", "scode" : "01", "weight" : 1, "position" : 150, "begin" : 30, "end" : 31},
		{"id" : 28, "text" : "ㄴ", "type" : "ETM", "scode" : "00", "weight" : 1, "position" : 156, "begin" : 32, "end" : 32},
		{"id" : 29, "text" : "정보", "type" : "NNG", "scode" : "06", "weight" : 1, "position" : 160, "begin" : 33, "end" : 33},
		{"id" : 30, "text" : "를", "type" : "JKO", "scode" : "00", "weight" : 1, "position" : 166, "begin" : 34, "end" : 34},
		{"id" : 31, "text" : "제공하", "type" : "VV", "scode" : "02", "weight" : 1, "position" : 170, "begin" : 35, "end" : 36},
		{"id" : 32, "text" : "ㄴ다는", "type" : "ETM", "scode" : "00", "weight" : 1, "position" : 176, "begin" : 37, "end" : 37},
		{"id" : 33, "text" : "점", "type" : "NNG", "scode" : "10", "weight" : 1, "position" : 186, "begin" : 38, "end" : 38},
		{"id" : 34, "text" : "에서", "type" : "JKB", "scode" : "00", "weight" : 1, "position" : 189, "begin" : 39, "end" : 39},
		{"id" : 35, "text" : "역사적", "type" : "NNG", "scode" : "00", "weight" : 1, "position" : 196, "begin" : 40, "end" : 41},
		{"id" : 36, "text" : "가치", "type" : "NNG", "scode" : "06", "weight" : 1, "position" : 206, "begin" : 42, "end" : 42},
		{"id" : 37, "text" : "가", "type" : "JKS", "scode" : "00", "weight" : 1, "position" : 212, "begin" : 43, "end" : 43},
		{"id" : 38, "text" : "높", "type" : "VA", "scode" : "00", "weight" : 1, "position" : 216, "begin" : 44, "end" : 44},
		{"id" : 39, "text" : "다", "type" : "EF", "scode" : "00", "weight" : 1, "position" : 219, "begin" : 45, "end" : 45},
		{"id" : 40, "text" : ".", "type" : "SF", "scode" : "00", "weight" : 1, "position" : 222, "begin" : 46, "end" : 46}
	],
	"word" : [
		{"id" : 0, "text" : "﻿이러한", "type" : "", "begin" : 0, "end" : 1},
		{"id" : 1, "text" : "그림은", "type" : "", "begin" : 2, "end" : 3},
		{"id" : 2, "text" : "국가에서", "type" : "", "begin" : 4, "end" : 5},
		{"id" : 3, "text" : "개최한", "type" : "", "begin" : 6, "end" : 8},
		{"id" : 4, "text" : "주요", "type" : "", "begin" : 9, "end" : 9},
		{"id" : 5, "text" : "행사의", "type" : "", "begin" : 10, "end" : 11},
		{"id" : 6, "text" : "전", "type" : "", "begin" : 12, "end" : 12},
		{"id" : 7, "text" : "과정을", "type" : "", "begin" : 13, "end" : 14},
		{"id" : 8, "text" : "그림으로", "type" : "", "begin" : 15, "end" : 16},
		{"id" : 9, "text" : "기록해", "type" : "", "begin" : 17, "end" : 19},
		{"id" : 10, "text" : "후세에", "type" : "", "begin" : 20, "end" : 21},
		{"id" : 11, "text" : "그", "type" : "", "begin" : 22, "end" : 22},
		{"id" : 12, "text" : "어떤", "type" : "", "begin" : 23, "end" : 23},
		{"id" : 13, "text" : "기록보다도", "type" : "", "begin" : 24, "end" : 26},
		{"id" : 14, "text" : "정확하고", "type" : "", "begin" : 27, "end" : 29},
		{"id" : 15, "text" : "자세한", "type" : "", "begin" : 30, "end" : 32},
		{"id" : 16, "text" : "정보를", "type" : "", "begin" : 33, "end" : 34},
		{"id" : 17, "text" : "제공한다는", "type" : "", "begin" : 35, "end" : 37},
		{"id" : 18, "text" : "점에서", "type" : "", "begin" : 38, "end" : 39},
		{"id" : 19, "text" : "역사적", "type" : "", "begin" : 40, "end" : 41},
		{"id" : 20, "text" : "가치가", "type" : "", "begin" : 42, "end" : 43},
		{"id" : 21, "text" : "높다.", "type" : "", "begin" : 44, "end" : 46}
	],
	"NE" : [
	],
	"chunk" : [
	],
	"dependency" : [
		{"id" : 0, "text" : "﻿이러한", "head" : 1, "label" : "VP_MOD", "mod" : [], "weight" : 0.942443 },
		{"id" : 1, "text" : "그림은", "head" : 21, "label" : "NP_SBJ", "mod" : [0], "weight" : 0.755913 },
		{"id" : 2, "text" : "국가에서", "head" : 3, "label" : "NP_AJT", "mod" : [], "weight" : 0.760485 },
		{"id" : 3, "text" : "개최한", "head" : 5, "label" : "VP_MOD", "mod" : [2], "weight" : 0.672019 },
		{"id" : 4, "text" : "주요", "head" : 5, "label" : "NP", "mod" : [], "weight" : 0.901531 },
		{"id" : 5, "text" : "행사의", "head" : 7, "label" : "NP_MOD", "mod" : [3, 4], "weight" : 0.856141 },
		{"id" : 6, "text" : "전", "head" : 7, "label" : "DP", "mod" : [], "weight" : 0.887959 },
		{"id" : 7, "text" : "과정을", "head" : 9, "label" : "NP_OBJ", "mod" : [5, 6], "weight" : 0.973429 },
		{"id" : 8, "text" : "그림으로", "head" : 9, "label" : "NP_AJT", "mod" : [], "weight" : 0.832778 },
		{"id" : 9, "text" : "기록해", "head" : 17, "label" : "VP", "mod" : [7, 8], "weight" : 0.76999 },
		{"id" : 10, "text" : "후세에", "head" : 17, "label" : "NP_AJT", "mod" : [], "weight" : 0.833264 },
		{"id" : 11, "text" : "그", "head" : 13, "label" : "DP", "mod" : [], "weight" : 0.767905 },
		{"id" : 12, "text" : "어떤", "head" : 13, "label" : "DP", "mod" : [], "weight" : 0.732254 },
		{"id" : 13, "text" : "기록보다도", "head" : 17, "label" : "NP_AJT", "mod" : [11, 12], "weight" : 0.745508 },
		{"id" : 14, "text" : "정확하고", "head" : 15, "label" : "VP", "mod" : [], "weight" : 0.657825 },
		{"id" : 15, "text" : "자세한", "head" : 16, "label" : "VP_MOD", "mod" : [14], "weight" : 0.962758 },
		{"id" : 16, "text" : "정보를", "head" : 17, "label" : "NP_OBJ", "mod" : [15], "weight" : 0.819019 },
		{"id" : 17, "text" : "제공한다는", "head" : 18, "label" : "VP_MOD", "mod" : [9, 10, 13, 16], "weight" : 0.87155 },
		{"id" : 18, "text" : "점에서", "head" : 21, "label" : "NP_AJT", "mod" : [17], "weight" : 0.680334 },
		{"id" : 19, "text" : "역사적", "head" : 20, "label" : "NP", "mod" : [], "weight" : 0.872392 },
		{"id" : 20, "text" : "가치가", "head" : 21, "label" : "NP_SBJ", "mod" : [19], "weight" : 0.585402 },
		{"id" : 21, "text" : "높다.", "head" : -1, "label" : "VP", "mod" : [1, 18, 20], "weight" : 0.0062206 }
	],
	"SRL" : [
		{"verb" : "﻿이러하", "sense" : 1, "word_id" : 0, "weight" : 0.345716,
			"argument" : [
				{"type" : "ARG1", "word_id" : 1, "text" : "그림은", "weight" : 0.345716 }
			] },
		{"verb" : "개최", "sense" : 1, "word_id" : 3, "weight" : 0.229262,
			"argument" : [
				{"type" : "ARGM-LOC", "word_id" : 2, "text" : "국가에서", "weight" : 0.148941 },
				{"type" : "ARG1", "word_id" : 5, "text" : "행사의", "weight" : 0.309583 }
			] },
		{"verb" : "기록", "sense" : 1, "word_id" : 9, "weight" : 0.20199,
			"argument" : [
				{"type" : "ARG1", "word_id" : 7, "text" : "과정을", "weight" : 0.296956 },
				{"type" : "ARGM-INS", "word_id" : 8, "text" : "그림으로", "weight" : 0.107024 }
			] },
		{"verb" : "정확", "sense" : 1, "word_id" : 14, "weight" : 0.436071,
			"argument" : [
				{"type" : "ARG1", "word_id" : 16, "text" : "정보를", "weight" : 0.436071 }
			] },
		{"verb" : "자세", "sense" : 1, "word_id" : 15, "weight" : 0.289532,
			"argument" : [
				{"type" : "ARG1", "word_id" : 16, "text" : "정보를", "weight" : 0.289532 }
			] },
		{"verb" : "제공", "sense" : 1, "word_id" : 17, "weight" : 0.242839,
			"argument" : [
				{"type" : "ARGM-MNR", "word_id" : 9, "text" : "기록해", "weight" : 0.159207 },
				{"type" : "ARG2", "word_id" : 10, "text" : "후세에", "weight" : 0.146729 },
				{"type" : "ARG1", "word_id" : 16, "text" : "정보를", "weight" : 0.422581 }
			] },
		{"verb" : "높", "sense" : 1, "word_id" : 21, "weight" : 0.194691,
			"argument" : [
				{"type" : "ARG1", "word_id" : 1, "text" : "그림은", "weight" : 0.184854 },
				{"type" : "ARGM-PRD", "word_id" : 18, "text" : "점에서", "weight" : 0.138156 },
				{"type" : "ARG1", "word_id" : 20, "text" : "가치가", "weight" : 0.261065 }
			] }
	],
	"relation" : [
	],
	"SA" : [
	],
	"ZA" : [
		{"id" : 0, "verb_wid" : 9, "ant_sid" : 0, "ant_wid" : 1, "type" : "s", "istitle" : 0, "weight" : 0.604907 },
		{"id" : 1, "verb_wid" : 14, "ant_sid" : 0, "ant_wid" : 1, "type" : "s", "istitle" : 0, "weight" : 0.398352 }
	]
	},
	{
	"id" : 1,
	"reserve_str" : "",
	"text" : "조선 왕조 시기에 국가나 왕실의 행사를 한눈에 알 수 있도록 기록한 그림들을 무엇이라고 부를까? ",
	"morp" : [
		{"id" : 0, "lemma" : "조선", "type" : "NNP", "position" : 224, "weight" : 0.0878802 },
		{"id" : 1, "lemma" : "왕조", "type" : "NNG", "position" : 231, "weight" : 0.9 },
		{"id" : 2, "lemma" : "시기", "type" : "NNG", "position" : 238, "weight" : 0.184726 },
		{"id" : 3, "lemma" : "에", "type" : "JKB", "position" : 244, "weight" : 0.153364 },
		{"id" : 4, "lemma" : "국가", "type" : "NNG", "position" : 248, "weight" : 0.208022 },
		{"id" : 5, "lemma" : "나", "type" : "JC", "position" : 254, "weight" : 0.00543468 },
		{"id" : 6, "lemma" : "왕실", "type" : "NNG", "position" : 258, "weight" : 0.9 },
		{"id" : 7, "lemma" : "의", "type" : "JKG", "position" : 264, "weight" : 0.0694213 },
		{"id" : 8, "lemma" : "행사", "type" : "NNG", "position" : 268, "weight" : 0.871175 },
		{"id" : 9, "lemma" : "를", "type" : "JKO", "position" : 274, "weight" : 0.137686 },
		{"id" : 10, "lemma" : "한눈", "type" : "NNG", "position" : 278, "weight" : 0.9 },
		{"id" : 11, "lemma" : "에", "type" : "JKB", "position" : 284, "weight" : 0.153364 },
		{"id" : 12, "lemma" : "알", "type" : "VV", "position" : 288, "weight" : 0.41334 },
		{"id" : 13, "lemma" : "ㄹ", "type" : "ETM", "position" : 288, "weight" : 0.300746 },
		{"id" : 14, "lemma" : "수", "type" : "NNB", "position" : 292, "weight" : 0.215617 },
		{"id" : 15, "lemma" : "있", "type" : "VA", "position" : 296, "weight" : 0.0518488 },
		{"id" : 16, "lemma" : "도록", "type" : "EC", "position" : 299, "weight" : 0.319723 },
		{"id" : 17, "lemma" : "기록", "type" : "NNG", "position" : 306, "weight" : 0.9 },
		{"id" : 18, "lemma" : "하", "type" : "XSV", "position" : 312, "weight" : 0.0001 },
		{"id" : 19, "lemma" : "ㄴ", "type" : "ETM", "position" : 312, "weight" : 0.392321 },
		{"id" : 20, "lemma" : "그림", "type" : "NNG", "position" : 316, "weight" : 0.656598 },
		{"id" : 21, "lemma" : "들", "type" : "XSN", "position" : 322, "weight" : 0.0299841 },
		{"id" : 22, "lemma" : "을", "type" : "JKO", "position" : 325, "weight" : 0.0819193 },
		{"id" : 23, "lemma" : "무엇", "type" : "NP", "position" : 329, "weight" : 0.9 },
		{"id" : 24, "lemma" : "이", "type" : "VCP", "position" : 335, "weight" : 0.0175768 },
		{"id" : 25, "lemma" : "라고", "type" : "EC", "position" : 338, "weight" : 0.204147 },
		{"id" : 26, "lemma" : "부르", "type" : "VV", "position" : 345, "weight" : 0.222121 },
		{"id" : 27, "lemma" : "ㄹ까", "type" : "EF", "position" : 348, "weight" : 0.056667 },
		{"id" : 28, "lemma" : "?", "type" : "SF", "position" : 354, "weight" : 1 }
	],
	"morp_eval" : [
		{"id" : 0, "result" : "조선/NNG", "target" : "조선", "word_id" : 0, "m_begin" : 0, "m_end" : 0},
		{"id" : 1, "result" : "왕조/NNG", "target" : "왕조", "word_id" : 1, "m_begin" : 1, "m_end" : 1},
		{"id" : 2, "result" : "시기/NNG+에/JKB", "target" : "시기에", "word_id" : 2, "m_begin" : 2, "m_end" : 3},
		{"id" : 3, "result" : "국가/NNG+이나/JC", "target" : "국가나", "word_id" : 3, "m_begin" : 4, "m_end" : 5},
		{"id" : 4, "result" : "왕실/NNG+의/JKG", "target" : "왕실의", "word_id" : 4, "m_begin" : 6, "m_end" : 7},
		{"id" : 5, "result" : "행사/NNG+를/JKO", "target" : "행사를", "word_id" : 5, "m_begin" : 8, "m_end" : 9},
		{"id" : 6, "result" : "한눈/NNG+에/JKB", "target" : "한눈에", "word_id" : 6, "m_begin" : 10, "m_end" : 11},
		{"id" : 7, "result" : "알/VV+ㄹ/ETM", "target" : "알", "word_id" : 7, "m_begin" : 12, "m_end" : 13},
		{"id" : 8, "result" : "수/NNB", "target" : "수", "word_id" : 8, "m_begin" : 14, "m_end" : 14},
		{"id" : 9, "result" : "있/VA+도록/EC", "target" : "있도록", "word_id" : 9, "m_begin" : 15, "m_end" : 16},
		{"id" : 10, "result" : "기록하/VV+ㄴ/ETM", "target" : "기록한", "word_id" : 10, "m_begin" : 17, "m_end" : 19},
		{"id" : 11, "result" : "그림들/NNG+을/JKO", "target" : "그림들을", "word_id" : 11, "m_begin" : 20, "m_end" : 22},
		{"id" : 12, "result" : "무엇/NP+이/VCP+라고/EC", "target" : "무엇이라고", "word_id" : 12, "m_begin" : 23, "m_end" : 25},
		{"id" : 13, "result" : "부르/VV+ㄹ까/EF+?/SF", "target" : "부를까?", "word_id" : 13, "m_begin" : 26, "m_end" : 28}
	],
	"WSD" : [
		{"id" : 0, "text" : "조선", "type" : "NNP", "scode" : "05", "weight" : 1, "position" : 224, "begin" : 0, "end" : 0},
		{"id" : 1, "text" : "왕조", "type" : "NNG", "scode" : "02", "weight" : 1, "position" : 231, "begin" : 1, "end" : 1},
		{"id" : 2, "text" : "시기", "type" : "NNG", "scode" : "04", "weight" : 1, "position" : 238, "begin" : 2, "end" : 2},
		{"id" : 3, "text" : "에", "type" : "JKB", "scode" : "00", "weight" : 1, "position" : 244, "begin" : 3, "end" : 3},
		{"id" : 4, "text" : "국가", "type" : "NNG", "scode" : "01", "weight" : 1, "position" : 248, "begin" : 4, "end" : 4},
		{"id" : 5, "text" : "나", "type" : "JC", "scode" : "00", "weight" : 1, "position" : 254, "begin" : 5, "end" : 5},
		{"id" : 6, "text" : "왕실", "type" : "NNG", "scode" : "00", "weight" : 1, "position" : 258, "begin" : 6, "end" : 6},
		{"id" : 7, "text" : "의", "type" : "JKG", "scode" : "00", "weight" : 1, "position" : 264, "begin" : 7, "end" : 7},
		{"id" : 8, "text" : "행사", "type" : "NNG", "scode" : "01", "weight" : 1, "position" : 268, "begin" : 8, "end" : 8},
		{"id" : 9, "text" : "를", "type" : "JKO", "scode" : "00", "weight" : 1, "position" : 274, "begin" : 9, "end" : 9},
		{"id" : 10, "text" : "한눈", "type" : "NNG", "scode" : "01", "weight" : 1, "position" : 278, "begin" : 10, "end" : 10},
		{"id" : 11, "text" : "에", "type" : "JKB", "scode" : "00", "weight" : 1, "position" : 284, "begin" : 11, "end" : 11},
		{"id" : 12, "text" : "알", "type" : "VV", "scode" : "00", "weight" : 1, "position" : 288, "begin" : 12, "end" : 12},
		{"id" : 13, "text" : "ㄹ", "type" : "ETM", "scode" : "00", "weight" : 1, "position" : 288, "begin" : 13, "end" : 13},
		{"id" : 14, "text" : "수", "type" : "NNB", "scode" : "02", "weight" : 1, "position" : 292, "begin" : 14, "end" : 14},
		{"id" : 15, "text" : "있", "type" : "VA", "scode" : "01", "weight" : 1, "position" : 296, "begin" : 15, "end" : 15},
		{"id" : 16, "text" : "도록", "type" : "EC", "scode" : "00", "weight" : 1, "position" : 299, "begin" : 16, "end" : 16},
		{"id" : 17, "text" : "기록하", "type" : "VV", "scode" : "00", "weight" : 1, "position" : 306, "begin" : 17, "end" : 18},
		{"id" : 18, "text" : "ㄴ", "type" : "ETM", "scode" : "00", "weight" : 1, "position" : 312, "begin" : 19, "end" : 19},
		{"id" : 19, "text" : "그림", "type" : "NNG", "scode" : "01", "weight" : 1, "position" : 316, "begin" : 20, "end" : 20},
		{"id" : 20, "text" : "들", "type" : "XSN", "scode" : "09", "weight" : 1, "position" : 322, "begin" : 21, "end" : 21},
		{"id" : 21, "text" : "을", "type" : "JKO", "scode" : "00", "weight" : 1, "position" : 325, "begin" : 22, "end" : 22},
		{"id" : 22, "text" : "무엇", "type" : "NP", "scode" : "00", "weight" : 1, "position" : 329, "begin" : 23, "end" : 23},
		{"id" : 23, "text" : "이", "type" : "VCP", "scode" : "00", "weight" : 1, "position" : 335, "begin" : 24, "end" : 24},
		{"id" : 24, "text" : "라고", "type" : "EC", "scode" : "00", "weight" : 1, "position" : 338, "begin" : 25, "end" : 25},
		{"id" : 25, "text" : "부르", "type" : "VV", "scode" : "01", "weight" : 1, "position" : 345, "begin" : 26, "end" : 26},
		{"id" : 26, "text" : "ㄹ까", "type" : "EF", "scode" : "00", "weight" : 1, "position" : 348, "begin" : 27, "end" : 27},
		{"id" : 27, "text" : "?", "type" : "SF", "scode" : "00", "weight" : 1, "position" : 354, "begin" : 28, "end" : 28}
	],
	"word" : [
		{"id" : 0, "text" : "조선", "type" : "", "begin" : 0, "end" : 0},
		{"id" : 1, "text" : "왕조", "type" : "", "begin" : 1, "end" : 1},
		{"id" : 2, "text" : "시기에", "type" : "", "begin" : 2, "end" : 3},
		{"id" : 3, "text" : "국가나", "type" : "", "begin" : 4, "end" : 5},
		{"id" : 4, "text" : "왕실의", "type" : "", "begin" : 6, "end" : 7},
		{"id" : 5, "text" : "행사를", "type" : "", "begin" : 8, "end" : 9},
		{"id" : 6, "text" : "한눈에", "type" : "", "begin" : 10, "end" : 11},
		{"id" : 7, "text" : "알", "type" : "", "begin" : 12, "end" : 13},
		{"id" : 8, "text" : "수", "type" : "", "begin" : 14, "end" : 14},
		{"id" : 9, "text" : "있도록", "type" : "", "begin" : 15, "end" : 16},
		{"id" : 10, "text" : "기록한", "type" : "", "begin" : 17, "end" : 19},
		{"id" : 11, "text" : "그림들을", "type" : "", "begin" : 20, "end" : 22},
		{"id" : 12, "text" : "무엇이라고", "type" : "", "begin" : 23, "end" : 25},
		{"id" : 13, "text" : "부를까?", "type" : "", "begin" : 26, "end" : 28}
	],
	"NE" : [
		{"id" : 0, "text" : "조선 왕조", "type" : "DT_DYNASTY", "begin" : 0, "end" : 1, "weight" : 0.65844, "common_noun" : 0},
		{"id" : 1, "text" : "한눈", "type" : "AM_PART", "begin" : 10, "end" : 10, "weight" : 0.207535, "common_noun" : 0}
	],
	"chunk" : [
	],
	"dependency" : [
		{"id" : 0, "text" : "조선", "head" : 1, "label" : "NP", "mod" : [], "weight" : 0.772859 },
		{"id" : 1, "text" : "왕조", "head" : 2, "label" : "NP", "mod" : [0], "weight" : 0.930704 },
		{"id" : 2, "text" : "시기에", "head" : 10, "label" : "NP_AJT", "mod" : [1], "weight" : 0.553531 },
		{"id" : 3, "text" : "국가나", "head" : 4, "label" : "NP_CNJ", "mod" : [], "weight" : 0.783887 },
		{"id" : 4, "text" : "왕실의", "head" : 5, "label" : "NP_MOD", "mod" : [3], "weight" : 0.718316 },
		{"id" : 5, "text" : "행사를", "head" : 7, "label" : "NP_OBJ", "mod" : [4], "weight" : 0.655279 },
		{"id" : 6, "text" : "한눈에", "head" : 7, "label" : "NP_AJT", "mod" : [], "weight" : 0.807352 },
		{"id" : 7, "text" : "알", "head" : 8, "label" : "VP_MOD", "mod" : [5, 6], "weight" : 0.989174 },
		{"id" : 8, "text" : "수", "head" : 9, "label" : "NP_SBJ", "mod" : [7], "weight" : 0.698617 },
		{"id" : 9, "text" : "있도록", "head" : 10, "label" : "VP", "mod" : [8], "weight" : 0.771506 },
		{"id" : 10, "text" : "기록한", "head" : 11, "label" : "VP_MOD", "mod" : [2, 9], "weight" : 0.826295 },
		{"id" : 11, "text" : "그림들을", "head" : 12, "label" : "NP_OBJ", "mod" : [10], "weight" : 0.91632 },
		{"id" : 12, "text" : "무엇이라고", "head" : 13, "label" : "VNP_CMP", "mod" : [11], "weight" : 0.523376 },
		{"id" : 13, "text" : "부를까?", "head" : -1, "label" : "VP", "mod" : [12], "weight" : 0.0161861 }
	],
	"SRL" : [
		{"verb" : "알", "sense" : 1, "word_id" : 7, "weight" : 0.32386,
			"argument" : [
				{"type" : "ARGM-TMP", "word_id" : 2, "text" : "시기에", "weight" : 0.380028 },
				{"type" : "ARG1", "word_id" : 5, "text" : "행사를", "weight" : 0.248534 },
				{"type" : "ARGM-MNR", "word_id" : 6, "text" : "한눈에", "weight" : 0.131131 },
				{"type" : "AUX", "word_id" : 9, "text" : "있도록", "weight" : 0.535747 }
			] },
		{"verb" : "기록", "sense" : 1, "word_id" : 10, "weight" : 0.217434,
			"argument" : [
				{"type" : "ARGM-PRP", "word_id" : 9, "text" : "있도록", "weight" : 0.184506 },
				{"type" : "ARG1", "word_id" : 11, "text" : "그림들을", "weight" : 0.250361 }
			] },
		{"verb" : "부르", "sense" : 1, "word_id" : 13, "weight" : 0.323929,
			"argument" : [
				{"type" : "ARG1", "word_id" : 11, "text" : "그림들을", "weight" : 0.293784 },
				{"type" : "ARG2", "word_id" : 12, "text" : "무엇이라고", "weight" : 0.354073 }
			] }
	],
	"relation" : [
	],
	"SA" : [
	],
	"ZA" : [
		{"id" : 0, "verb_wid" : 7, "ant_sid" : -1, "ant_wid" : -1, "type" : "s", "istitle" : 0, "weight" : 0.347293 },
		{"id" : 1, "verb_wid" : 13, "ant_sid" : -1, "ant_wid" : -1, "type" : "s", "istitle" : 0, "weight" : 0.687205 }
	]
	}
 ],
 "entity" : [
	{"id" : 0, "type" : "", "number" : "singular", "gender" : "", "person" : "", "animacy" : "", "loc" : "", 
	 "mention" : [
		{"id" : 0, "sent_id" : 0, "start_eid" : 1, "end_eid" : 1, "ne_id" : -1, "text" : "그림", "start_eid_short" : 1, "end_eid_short" : 1, "text_short" : "그림", "weight" : 0.01 },
		{"id" : 7, "sent_id" : 0, "start_eid" : 8, "end_eid" : 8, "ne_id" : -1, "text" : "그림", "start_eid_short" : 8, "end_eid_short" : 8, "text_short" : "그림", "weight" : 0.016 }
	] },
	{"id" : 1, "type" : "", "number" : "singular", "gender" : "", "person" : "", "animacy" : "", "loc" : "", 
	 "mention" : [
		{"id" : 3, "sent_id" : 0, "start_eid" : 2, "end_eid" : 2, "ne_id" : -1, "text" : "국가", "start_eid_short" : 2, "end_eid_short" : 2, "text_short" : "국가", "weight" : 0.01 },
		{"id" : 19, "sent_id" : 1, "start_eid" : 3, "end_eid" : 3, "ne_id" : -1, "text" : "국가", "start_eid_short" : 3, "end_eid_short" : 3, "text_short" : "국가", "weight" : 0.016 }
	] }
 ]
}

