{"doc_id" : "",
 "DCT" : "",
 "category" : "",
 "category_weight" : 0,
 "title" : {"text" : "", "NE" : ""},
 "metaInfo" : { },
 "sentence" : [
	{
	"id" : 0,
	"reserve_str" : "",
	"text" : "﻿제주도에 있는 사적 제 134호 삼성혈은 제주의 시조 세 명이 땅에서 솟아났다는 유적지다. ",
	"morp" : [
		{"id" : 0, "lemma" : "﻿", "type" : "NNP", "position" : 0, "weight" : 0.6 },
		{"id" : 1, "lemma" : "제주도", "type" : "NNP", "position" : 3, "weight" : 0.0808791 },
		{"id" : 2, "lemma" : "에", "type" : "JKB", "position" : 12, "weight" : 0.0823628 },
		{"id" : 3, "lemma" : "있", "type" : "VA", "position" : 16, "weight" : 0.037292 },
		{"id" : 4, "lemma" : "는", "type" : "ETM", "position" : 19, "weight" : 0.26168 },
		{"id" : 5, "lemma" : "사적", "type" : "NNG", "position" : 23, "weight" : 0.655194 },
		{"id" : 6, "lemma" : "제", "type" : "XPN", "position" : 30, "weight" : 0.000343053 },
		{"id" : 7, "lemma" : "134", "type" : "SN", "position" : 34, "weight" : 1 },
		{"id" : 8, "lemma" : "호", "type" : "NNB", "position" : 37, "weight" : 0.215698 },
		{"id" : 9, "lemma" : "삼성", "type" : "NNG", "position" : 41, "weight" : 0.00339679 },
		{"id" : 10, "lemma" : "혈", "type" : "NNG", "position" : 47, "weight" : 0.184155 },
		{"id" : 11, "lemma" : "은", "type" : "JX", "position" : 50, "weight" : 0.0449928 },
		{"id" : 12, "lemma" : "제주", "type" : "NNP", "position" : 54, "weight" : 0.0435679 },
		{"id" : 13, "lemma" : "의", "type" : "JKG", "position" : 60, "weight" : 0.0987295 },
		{"id" : 14, "lemma" : "시조", "type" : "NNG", "position" : 64, "weight" : 0.9 },
		{"id" : 15, "lemma" : "세", "type" : "MM", "position" : 71, "weight" : 0.00133214 },
		{"id" : 16, "lemma" : "명", "type" : "NNB", "position" : 75, "weight" : 0.173745 },
		{"id" : 17, "lemma" : "이", "type" : "JKS", "position" : 78, "weight" : 0.0376169 },
		{"id" : 18, "lemma" : "땅", "type" : "NNG", "position" : 82, "weight" : 0.20881 },
		{"id" : 19, "lemma" : "에서", "type" : "JKB", "position" : 85, "weight" : 0.153407 },
		{"id" : 20, "lemma" : "솟아나", "type" : "VV", "position" : 92, "weight" : 0.438589 },
		{"id" : 21, "lemma" : "았", "type" : "EP", "position" : 98, "weight" : 0.9 },
		{"id" : 22, "lemma" : "다는", "type" : "ETM", "position" : 101, "weight" : 0.107585 },
		{"id" : 23, "lemma" : "유적", "type" : "NNG", "position" : 108, "weight" : 0.657737 },
		{"id" : 24, "lemma" : "지", "type" : "XSN", "position" : 114, "weight" : 0.000168337 },
		{"id" : 25, "lemma" : "이", "type" : "VCP", "position" : 114, "weight" : 0.0165001 },
		{"id" : 26, "lemma" : "다", "type" : "EF", "position" : 117, "weight" : 0.353579 },
		{"id" : 27, "lemma" : ".", "type" : "SF", "position" : 120, "weight" : 1 }
	],
	"morp_eval" : [
		{"id" : 0, "result" : "﻿제주도/NNG+에/JKB", "target" : "﻿제주도에", "word_id" : 0, "m_begin" : 0, "m_end" : 2},
		{"id" : 1, "result" : "있/VA+는/ETM", "target" : "있는", "word_id" : 1, "m_begin" : 3, "m_end" : 4},
		{"id" : 2, "result" : "사적/NNG", "target" : "사적", "word_id" : 2, "m_begin" : 5, "m_end" : 5},
		{"id" : 3, "result" : "제/XPN", "target" : "제", "word_id" : 3, "m_begin" : 6, "m_end" : 6},
		{"id" : 4, "result" : "134/SN+호/NNB", "target" : "134호", "word_id" : 4, "m_begin" : 7, "m_end" : 8},
		{"id" : 5, "result" : "삼성혈/NNG+은/JX", "target" : "삼성혈은", "word_id" : 5, "m_begin" : 9, "m_end" : 11},
		{"id" : 6, "result" : "제주/NNG+의/JKG", "target" : "제주의", "word_id" : 6, "m_begin" : 12, "m_end" : 13},
		{"id" : 7, "result" : "시조/NNG", "target" : "시조", "word_id" : 7, "m_begin" : 14, "m_end" : 14},
		{"id" : 8, "result" : "세/MM", "target" : "세", "word_id" : 8, "m_begin" : 15, "m_end" : 15},
		{"id" : 9, "result" : "명/NNB+이/JKS", "target" : "명이", "word_id" : 9, "m_begin" : 16, "m_end" : 17},
		{"id" : 10, "result" : "땅/NNG+에서/JKB", "target" : "땅에서", "word_id" : 10, "m_begin" : 18, "m_end" : 19},
		{"id" : 11, "result" : "솟아나/VV+었/EP+다는/ETM", "target" : "솟아났다는", "word_id" : 11, "m_begin" : 20, "m_end" : 22},
		{"id" : 12, "result" : "유적지/NNG+이/VCP+다/EF+./SF", "target" : "유적지다.", "word_id" : 12, "m_begin" : 23, "m_end" : 27}
	],
	"WSD" : [
		{"id" : 0, "text" : "﻿", "type" : "NNP", "scode" : "00", "weight" : 0, "position" : 0, "begin" : 0, "end" : 0},
		{"id" : 1, "text" : "제주도", "type" : "NNP", "scode" : "01", "weight" : 1, "position" : 3, "begin" : 1, "end" : 1},
		{"id" : 2, "text" : "에", "type" : "JKB", "scode" : "00", "weight" : 1, "position" : 12, "begin" : 2, "end" : 2},
		{"id" : 3, "text" : "있", "type" : "VA", "scode" : "01", "weight" : 1, "position" : 16, "begin" : 3, "end" : 3},
		{"id" : 4, "text" : "는", "type" : "ETM", "scode" : "00", "weight" : 1, "position" : 19, "begin" : 4, "end" : 4},
		{"id" : 5, "text" : "사적", "type" : "NNG", "scode" : "02", "weight" : 1, "position" : 23, "begin" : 5, "end" : 5},
		{"id" : 6, "text" : "제", "type" : "XPN", "scode" : "21", "weight" : 1, "position" : 30, "begin" : 6, "end" : 6},
		{"id" : 7, "text" : "134", "type" : "SN", "scode" : "00", "weight" : 1, "position" : 34, "begin" : 7, "end" : 7},
		{"id" : 8, "text" : "호", "type" : "NNB", "scode" : "14", "weight" : 1, "position" : 37, "begin" : 8, "end" : 8},
		{"id" : 9, "text" : "삼성혈", "type" : "NNG", "scode" : "00", "weight" : 0, "position" : 41, "begin" : 9, "end" : 10},
		{"id" : 10, "text" : "은", "type" : "JX", "scode" : "00", "weight" : 1, "position" : 50, "begin" : 11, "end" : 11},
		{"id" : 11, "text" : "제주", "type" : "NNP", "scode" : "07", "weight" : 1, "position" : 54, "begin" : 12, "end" : 12},
		{"id" : 12, "text" : "의", "type" : "JKG", "scode" : "00", "weight" : 1, "position" : 60, "begin" : 13, "end" : 13},
		{"id" : 13, "text" : "시조", "type" : "NNG", "scode" : "07", "weight" : 1, "position" : 64, "begin" : 14, "end" : 14},
		{"id" : 14, "text" : "세", "type" : "MM", "scode" : "01", "weight" : 1, "position" : 71, "begin" : 15, "end" : 15},
		{"id" : 15, "text" : "명", "type" : "NNB", "scode" : "03", "weight" : 1, "position" : 75, "begin" : 16, "end" : 16},
		{"id" : 16, "text" : "이", "type" : "JKS", "scode" : "00", "weight" : 1, "position" : 78, "begin" : 17, "end" : 17},
		{"id" : 17, "text" : "땅", "type" : "NNG", "scode" : "01", "weight" : 1, "position" : 82, "begin" : 18, "end" : 18},
		{"id" : 18, "text" : "에서", "type" : "JKB", "scode" : "00", "weight" : 1, "position" : 85, "begin" : 19, "end" : 19},
		{"id" : 19, "text" : "솟아나", "type" : "VV", "scode" : "00", "weight" : 1, "position" : 92, "begin" : 20, "end" : 20},
		{"id" : 20, "text" : "았", "type" : "EP", "scode" : "00", "weight" : 1, "position" : 98, "begin" : 21, "end" : 21},
		{"id" : 21, "text" : "다는", "type" : "ETM", "scode" : "00", "weight" : 1, "position" : 101, "begin" : 22, "end" : 22},
		{"id" : 22, "text" : "유적지", "type" : "NNG", "scode" : "00", "weight" : 1, "position" : 108, "begin" : 23, "end" : 24},
		{"id" : 23, "text" : "이", "type" : "VCP", "scode" : "00", "weight" : 1, "position" : 114, "begin" : 25, "end" : 25},
		{"id" : 24, "text" : "다", "type" : "EF", "scode" : "00", "weight" : 1, "position" : 117, "begin" : 26, "end" : 26},
		{"id" : 25, "text" : ".", "type" : "SF", "scode" : "00", "weight" : 1, "position" : 120, "begin" : 27, "end" : 27}
	],
	"word" : [
		{"id" : 0, "text" : "﻿제주도에", "type" : "", "begin" : 0, "end" : 2},
		{"id" : 1, "text" : "있는", "type" : "", "begin" : 3, "end" : 4},
		{"id" : 2, "text" : "사적", "type" : "", "begin" : 5, "end" : 5},
		{"id" : 3, "text" : "제", "type" : "", "begin" : 6, "end" : 6},
		{"id" : 4, "text" : "134호", "type" : "", "begin" : 7, "end" : 8},
		{"id" : 5, "text" : "삼성혈은", "type" : "", "begin" : 9, "end" : 11},
		{"id" : 6, "text" : "제주의", "type" : "", "begin" : 12, "end" : 13},
		{"id" : 7, "text" : "시조", "type" : "", "begin" : 14, "end" : 14},
		{"id" : 8, "text" : "세", "type" : "", "begin" : 15, "end" : 15},
		{"id" : 9, "text" : "명이", "type" : "", "begin" : 16, "end" : 17},
		{"id" : 10, "text" : "땅에서", "type" : "", "begin" : 18, "end" : 19},
		{"id" : 11, "text" : "솟아났다는", "type" : "", "begin" : 20, "end" : 22},
		{"id" : 12, "text" : "유적지다.", "type" : "", "begin" : 23, "end" : 27}
	],
	"NE" : [
		{"id" : 0, "text" : "제주도", "type" : "LCP_PROVINCE", "begin" : 1, "end" : 1, "weight" : 0.304512, "common_noun" : 0},
		{"id" : 1, "text" : "제 134호", "type" : "QT_ORDER", "begin" : 6, "end" : 8, "weight" : 0.517485, "common_noun" : 0},
		{"id" : 2, "text" : "삼성혈", "type" : "AF_CULTURAL_ASSET", "begin" : 9, "end" : 10, "weight" : 0.306086, "common_noun" : 0},
		{"id" : 3, "text" : "제주", "type" : "LCP_PROVINCE", "begin" : 12, "end" : 12, "weight" : 0.436141, "common_noun" : 0},
		{"id" : 4, "text" : "시조", "type" : "CV_POSITION", "begin" : 14, "end" : 14, "weight" : 0.229049, "common_noun" : 0},
		{"id" : 5, "text" : "세 명", "type" : "QT_MAN_COUNT", "begin" : 15, "end" : 16, "weight" : 0.499605, "common_noun" : 0}
	],
	"chunk" : [
	],
	"dependency" : [
		{"id" : 0, "text" : "﻿제주도에", "head" : 1, "label" : "NP_AJT", "mod" : [], "weight" : 0.586015 },
		{"id" : 1, "text" : "있는", "head" : 2, "label" : "VP_MOD", "mod" : [0], "weight" : 0.508714 },
		{"id" : 2, "text" : "사적", "head" : 4, "label" : "NP", "mod" : [1], "weight" : 0.636427 },
		{"id" : 3, "text" : "제", "head" : 4, "label" : "X", "mod" : [], "weight" : 0.950794 },
		{"id" : 4, "text" : "134호", "head" : 5, "label" : "NP", "mod" : [2, 3], "weight" : 0.845653 },
		{"id" : 5, "text" : "삼성혈은", "head" : 11, "label" : "NP_SBJ", "mod" : [4], "weight" : 0.519055 },
		{"id" : 6, "text" : "제주의", "head" : 7, "label" : "NP_MOD", "mod" : [], "weight" : 0.661747 },
		{"id" : 7, "text" : "시조", "head" : 9, "label" : "NP", "mod" : [6], "weight" : 0.8442 },
		{"id" : 8, "text" : "세", "head" : 9, "label" : "DP", "mod" : [], "weight" : 0.810231 },
		{"id" : 9, "text" : "명이", "head" : 11, "label" : "NP_SBJ", "mod" : [7, 8], "weight" : 0.715837 },
		{"id" : 10, "text" : "땅에서", "head" : 11, "label" : "NP_AJT", "mod" : [], "weight" : 0.508398 },
		{"id" : 11, "text" : "솟아났다는", "head" : 12, "label" : "VP_MOD", "mod" : [5, 9, 10], "weight" : 0.513553 },
		{"id" : 12, "text" : "유적지다.", "head" : -1, "label" : "VNP", "mod" : [11], "weight" : 0.0039586 }
	],
	"SRL" : [
		{"verb" : "있", "sense" : 1, "word_id" : 1, "weight" : 0.305241,
			"argument" : [
				{"type" : "ARG2", "word_id" : 0, "text" : "﻿제주도에", "weight" : 0.2493 },
				{"type" : "ARG1", "word_id" : 5, "text" : "삼성혈은", "weight" : 0.361182 }
			] },
		{"verb" : "솟아나", "sense" : 1, "word_id" : 11, "weight" : 0.200311,
			"argument" : [
				{"type" : "ARGM-LOC", "word_id" : 5, "text" : "삼성혈은", "weight" : 0.11836 },
				{"type" : "ARG1", "word_id" : 9, "text" : "명이", "weight" : 0.219941 },
				{"type" : "ARG2", "word_id" : 10, "text" : "땅에서", "weight" : 0.262634 }
			] }
	],
	"relation" : [
	],
	"SA" : [
	],
	"ZA" : [
	]
	},
	{
	"id" : 1,
	"reserve_str" : "",
	"text" : "이들은 가죽옷을 입고 고기를 사냥해 먹고 살다가 곡식의 씨와 가축을 가지고 온 벽랑국의 세 공주와 각각 결혼해 농경생활을 시작 했다고 한다. ",
	"morp" : [
		{"id" : 0, "lemma" : "이", "type" : "NP", "position" : 122, "weight" : 0.00185676 },
		{"id" : 1, "lemma" : "들", "type" : "XSN", "position" : 125, "weight" : 0.055005 },
		{"id" : 2, "lemma" : "은", "type" : "JX", "position" : 128, "weight" : 0.100393 },
		{"id" : 3, "lemma" : "가죽", "type" : "NNG", "position" : 132, "weight" : 0.9 },
		{"id" : 4, "lemma" : "옷", "type" : "NNG", "position" : 138, "weight" : 0.9 },
		{"id" : 5, "lemma" : "을", "type" : "JKO", "position" : 141, "weight" : 0.129611 },
		{"id" : 6, "lemma" : "입", "type" : "VV", "position" : 145, "weight" : 0.35055 },
		{"id" : 7, "lemma" : "고", "type" : "EC", "position" : 148, "weight" : 0.416679 },
		{"id" : 8, "lemma" : "고기", "type" : "NNG", "position" : 152, "weight" : 0.217044 },
		{"id" : 9, "lemma" : "를", "type" : "JKO", "position" : 158, "weight" : 0.137686 },
		{"id" : 10, "lemma" : "사냥", "type" : "NNG", "position" : 162, "weight" : 0.101176 },
		{"id" : 11, "lemma" : "하", "type" : "XSV", "position" : 168, "weight" : 0.0001 },
		{"id" : 12, "lemma" : "어", "type" : "EC", "position" : 168, "weight" : 0.361326 },
		{"id" : 13, "lemma" : "먹", "type" : "VV", "position" : 172, "weight" : 0.216076 },
		{"id" : 14, "lemma" : "고", "type" : "EC", "position" : 175, "weight" : 0.416679 },
		{"id" : 15, "lemma" : "살", "type" : "VV", "position" : 179, "weight" : 0.182142 },
		{"id" : 16, "lemma" : "다가", "type" : "EC", "position" : 182, "weight" : 0.411843 },
		{"id" : 17, "lemma" : "곡식", "type" : "NNG", "position" : 189, "weight" : 0.9 },
		{"id" : 18, "lemma" : "의", "type" : "JKG", "position" : 195, "weight" : 0.0694213 },
		{"id" : 19, "lemma" : "씨", "type" : "NNG", "position" : 199, "weight" : 0.0493444 },
		{"id" : 20, "lemma" : "와", "type" : "JC", "position" : 202, "weight" : 0.0169714 },
		{"id" : 21, "lemma" : "가축", "type" : "NNG", "position" : 206, "weight" : 0.9 },
		{"id" : 22, "lemma" : "을", "type" : "JKO", "position" : 212, "weight" : 0.129611 },
		{"id" : 23, "lemma" : "가지", "type" : "VV", "position" : 216, "weight" : 0.401357 },
		{"id" : 24, "lemma" : "고", "type" : "EC", "position" : 222, "weight" : 0.416679 },
		{"id" : 25, "lemma" : "오", "type" : "VV", "position" : 226, "weight" : 0.115798 },
		{"id" : 26, "lemma" : "ㄴ", "type" : "ETM", "position" : 226, "weight" : 0.304215 },
		{"id" : 27, "lemma" : "벽랑국", "type" : "NNP", "position" : 230, "weight" : 0.6 },
		{"id" : 28, "lemma" : "의", "type" : "JKG", "position" : 239, "weight" : 0.0987295 },
		{"id" : 29, "lemma" : "세", "type" : "MM", "position" : 243, "weight" : 0.00992922 },
		{"id" : 30, "lemma" : "공주", "type" : "NNG", "position" : 247, "weight" : 0.522221 },
		{"id" : 31, "lemma" : "와", "type" : "JC", "position" : 253, "weight" : 0.0169714 },
		{"id" : 32, "lemma" : "각각", "type" : "MAG", "position" : 257, "weight" : 0.00663877 },
		{"id" : 33, "lemma" : "결혼", "type" : "NNG", "position" : 264, "weight" : 0.9 },
		{"id" : 34, "lemma" : "하", "type" : "XSV", "position" : 270, "weight" : 0.0001 },
		{"id" : 35, "lemma" : "어", "type" : "EC", "position" : 270, "weight" : 0.361326 },
		{"id" : 36, "lemma" : "농경", "type" : "NNG", "position" : 274, "weight" : 0.9 },
		{"id" : 37, "lemma" : "생활", "type" : "NNG", "position" : 280, "weight" : 0.9 },
		{"id" : 38, "lemma" : "을", "type" : "JKO", "position" : 286, "weight" : 0.129611 },
		{"id" : 39, "lemma" : "시작", "type" : "NNG", "position" : 290, "weight" : 0.9 },
		{"id" : 40, "lemma" : "하", "type" : "VV", "position" : 297, "weight" : 0.00929845 },
		{"id" : 41, "lemma" : "었", "type" : "EP", "position" : 297, "weight" : 0.9 },
		{"id" : 42, "lemma" : "다고", "type" : "EC", "position" : 300, "weight" : 0.193823 },
		{"id" : 43, "lemma" : "하", "type" : "VV", "position" : 307, "weight" : 0.140183 },
		{"id" : 44, "lemma" : "ㄴ다", "type" : "EF", "position" : 307, "weight" : 0.0793196 },
		{"id" : 45, "lemma" : ".", "type" : "SF", "position" : 313, "weight" : 1 }
	],
	"morp_eval" : [
		{"id" : 0, "result" : "이/NP+들/XSN+은/JX", "target" : "이들은", "word_id" : 0, "m_begin" : 0, "m_end" : 2},
		{"id" : 1, "result" : "가죽옷/NNG+을/JKO", "target" : "가죽옷을", "word_id" : 1, "m_begin" : 3, "m_end" : 5},
		{"id" : 2, "result" : "입/VV+고/EC", "target" : "입고", "word_id" : 2, "m_begin" : 6, "m_end" : 7},
		{"id" : 3, "result" : "고기/NNG+를/JKO", "target" : "고기를", "word_id" : 3, "m_begin" : 8, "m_end" : 9},
		{"id" : 4, "result" : "사냥하/VV+어/EC", "target" : "사냥해", "word_id" : 4, "m_begin" : 10, "m_end" : 12},
		{"id" : 5, "result" : "먹/VV+고/EC", "target" : "먹고", "word_id" : 5, "m_begin" : 13, "m_end" : 14},
		{"id" : 6, "result" : "살/VV+다가/EC", "target" : "살다가", "word_id" : 6, "m_begin" : 15, "m_end" : 16},
		{"id" : 7, "result" : "곡식/NNG+의/JKG", "target" : "곡식의", "word_id" : 7, "m_begin" : 17, "m_end" : 18},
		{"id" : 8, "result" : "씨/NNG+와/JC", "target" : "씨와", "word_id" : 8, "m_begin" : 19, "m_end" : 20},
		{"id" : 9, "result" : "가축/NNG+을/JKO", "target" : "가축을", "word_id" : 9, "m_begin" : 21, "m_end" : 22},
		{"id" : 10, "result" : "가지/VV+고/EC", "target" : "가지고", "word_id" : 10, "m_begin" : 23, "m_end" : 24},
		{"id" : 11, "result" : "오/VV+ㄴ/ETM", "target" : "온", "word_id" : 11, "m_begin" : 25, "m_end" : 26},
		{"id" : 12, "result" : "벽랑국/NNG+의/JKG", "target" : "벽랑국의", "word_id" : 12, "m_begin" : 27, "m_end" : 28},
		{"id" : 13, "result" : "세/MM", "target" : "세", "word_id" : 13, "m_begin" : 29, "m_end" : 29},
		{"id" : 14, "result" : "공주/NNG+와/JC", "target" : "공주와", "word_id" : 14, "m_begin" : 30, "m_end" : 31},
		{"id" : 15, "result" : "각각/MAG", "target" : "각각", "word_id" : 15, "m_begin" : 32, "m_end" : 32},
		{"id" : 16, "result" : "결혼하/VV+어/EC", "target" : "결혼해", "word_id" : 16, "m_begin" : 33, "m_end" : 35},
		{"id" : 17, "result" : "농경생활/NNG+을/JKO", "target" : "농경생활을", "word_id" : 17, "m_begin" : 36, "m_end" : 38},
		{"id" : 18, "result" : "시작/NNG", "target" : "시작", "word_id" : 18, "m_begin" : 39, "m_end" : 39},
		{"id" : 19, "result" : "하/VV+었/EP+다고/EC", "target" : "했다고", "word_id" : 19, "m_begin" : 40, "m_end" : 42},
		{"id" : 20, "result" : "하/VV+ㄴ다/EF+./SF", "target" : "한다.", "word_id" : 20, "m_begin" : 43, "m_end" : 45}
	],
	"WSD" : [
		{"id" : 0, "text" : "이", "type" : "NP", "scode" : "05", "weight" : 1, "position" : 122, "begin" : 0, "end" : 0},
		{"id" : 1, "text" : "들", "type" : "XSN", "scode" : "09", "weight" : 1, "position" : 125, "begin" : 1, "end" : 1},
		{"id" : 2, "text" : "은", "type" : "JX", "scode" : "00", "weight" : 1, "position" : 128, "begin" : 2, "end" : 2},
		{"id" : 3, "text" : "가죽옷", "type" : "NNG", "scode" : "00", "weight" : 0, "position" : 132, "begin" : 3, "end" : 4},
		{"id" : 4, "text" : "을", "type" : "JKO", "scode" : "00", "weight" : 1, "position" : 141, "begin" : 5, "end" : 5},
		{"id" : 5, "text" : "입", "type" : "VV", "scode" : "01", "weight" : 1, "position" : 145, "begin" : 6, "end" : 6},
		{"id" : 6, "text" : "고", "type" : "EC", "scode" : "00", "weight" : 1, "position" : 148, "begin" : 7, "end" : 7},
		{"id" : 7, "text" : "고기", "type" : "NNG", "scode" : "01", "weight" : 1, "position" : 152, "begin" : 8, "end" : 8},
		{"id" : 8, "text" : "를", "type" : "JKO", "scode" : "00", "weight" : 1, "position" : 158, "begin" : 9, "end" : 9},
		{"id" : 9, "text" : "사냥하", "type" : "VV", "scode" : "00", "weight" : 1, "position" : 162, "begin" : 10, "end" : 11},
		{"id" : 10, "text" : "어", "type" : "EC", "scode" : "00", "weight" : 1, "position" : 168, "begin" : 12, "end" : 12},
		{"id" : 11, "text" : "먹", "type" : "VV", "scode" : "02", "weight" : 1, "position" : 172, "begin" : 13, "end" : 13},
		{"id" : 12, "text" : "고", "type" : "EC", "scode" : "00", "weight" : 1, "position" : 175, "begin" : 14, "end" : 14},
		{"id" : 13, "text" : "살", "type" : "VV", "scode" : "01", "weight" : 1, "position" : 179, "begin" : 15, "end" : 15},
		{"id" : 14, "text" : "다가", "type" : "EC", "scode" : "00", "weight" : 1, "position" : 182, "begin" : 16, "end" : 16},
		{"id" : 15, "text" : "곡식", "type" : "NNG", "scode" : "00", "weight" : 1, "position" : 189, "begin" : 17, "end" : 17},
		{"id" : 16, "text" : "의", "type" : "JKG", "scode" : "00", "weight" : 1, "position" : 195, "begin" : 18, "end" : 18},
		{"id" : 17, "text" : "씨", "type" : "NNG", "scode" : "01", "weight" : 1, "position" : 199, "begin" : 19, "end" : 19},
		{"id" : 18, "text" : "와", "type" : "JC", "scode" : "00", "weight" : 1, "position" : 202, "begin" : 20, "end" : 20},
		{"id" : 19, "text" : "가축", "type" : "NNG", "scode" : "02", "weight" : 1, "position" : 206, "begin" : 21, "end" : 21},
		{"id" : 20, "text" : "을", "type" : "JKO", "scode" : "00", "weight" : 1, "position" : 212, "begin" : 22, "end" : 22},
		{"id" : 21, "text" : "가지", "type" : "VV", "scode" : "00", "weight" : 1, "position" : 216, "begin" : 23, "end" : 23},
		{"id" : 22, "text" : "고", "type" : "EC", "scode" : "00", "weight" : 1, "position" : 222, "begin" : 24, "end" : 24},
		{"id" : 23, "text" : "오", "type" : "VV", "scode" : "01", "weight" : 1, "position" : 226, "begin" : 25, "end" : 25},
		{"id" : 24, "text" : "ㄴ", "type" : "ETM", "scode" : "00", "weight" : 1, "position" : 226, "begin" : 26, "end" : 26},
		{"id" : 25, "text" : "벽랑국", "type" : "NNP", "scode" : "00", "weight" : 1, "position" : 230, "begin" : 27, "end" : 27},
		{"id" : 26, "text" : "의", "type" : "JKG", "scode" : "00", "weight" : 1, "position" : 239, "begin" : 28, "end" : 28},
		{"id" : 27, "text" : "세", "type" : "MM", "scode" : "01", "weight" : 1, "position" : 243, "begin" : 29, "end" : 29},
		{"id" : 28, "text" : "공주", "type" : "NNG", "scode" : "01", "weight" : 1, "position" : 247, "begin" : 30, "end" : 30},
		{"id" : 29, "text" : "와", "type" : "JC", "scode" : "00", "weight" : 1, "position" : 253, "begin" : 31, "end" : 31},
		{"id" : 30, "text" : "각각", "type" : "MAG", "scode" : "01", "weight" : 1, "position" : 257, "begin" : 32, "end" : 32},
		{"id" : 31, "text" : "결혼하", "type" : "VV", "scode" : "00", "weight" : 1, "position" : 264, "begin" : 33, "end" : 34},
		{"id" : 32, "text" : "어", "type" : "EC", "scode" : "00", "weight" : 1, "position" : 270, "begin" : 35, "end" : 35},
		{"id" : 33, "text" : "농경", "type" : "NNG", "scode" : "00", "weight" : 1, "position" : 274, "begin" : 36, "end" : 36},
		{"id" : 34, "text" : "생활", "type" : "NNG", "scode" : "00", "weight" : 1, "position" : 280, "begin" : 37, "end" : 37},
		{"id" : 35, "text" : "을", "type" : "JKO", "scode" : "00", "weight" : 1, "position" : 286, "begin" : 38, "end" : 38},
		{"id" : 36, "text" : "시작", "type" : "NNG", "scode" : "01", "weight" : 1, "position" : 290, "begin" : 39, "end" : 39},
		{"id" : 37, "text" : "하", "type" : "VV", "scode" : "01", "weight" : 1, "position" : 297, "begin" : 40, "end" : 40},
		{"id" : 38, "text" : "었", "type" : "EP", "scode" : "00", "weight" : 1, "position" : 297, "begin" : 41, "end" : 41},
		{"id" : 39, "text" : "다고", "type" : "EC", "scode" : "00", "weight" : 1, "position" : 300, "begin" : 42, "end" : 42},
		{"id" : 40, "text" : "하", "type" : "VV", "scode" : "01", "weight" : 1, "position" : 307, "begin" : 43, "end" : 43},
		{"id" : 41, "text" : "ㄴ다", "type" : "EF", "scode" : "00", "weight" : 1, "position" : 307, "begin" : 44, "end" : 44},
		{"id" : 42, "text" : ".", "type" : "SF", "scode" : "00", "weight" : 1, "position" : 313, "begin" : 45, "end" : 45}
	],
	"word" : [
		{"id" : 0, "text" : "이들은", "type" : "", "begin" : 0, "end" : 2},
		{"id" : 1, "text" : "가죽옷을", "type" : "", "begin" : 3, "end" : 5},
		{"id" : 2, "text" : "입고", "type" : "", "begin" : 6, "end" : 7},
		{"id" : 3, "text" : "고기를", "type" : "", "begin" : 8, "end" : 9},
		{"id" : 4, "text" : "사냥해", "type" : "", "begin" : 10, "end" : 12},
		{"id" : 5, "text" : "먹고", "type" : "", "begin" : 13, "end" : 14},
		{"id" : 6, "text" : "살다가", "type" : "", "begin" : 15, "end" : 16},
		{"id" : 7, "text" : "곡식의", "type" : "", "begin" : 17, "end" : 18},
		{"id" : 8, "text" : "씨와", "type" : "", "begin" : 19, "end" : 20},
		{"id" : 9, "text" : "가축을", "type" : "", "begin" : 21, "end" : 22},
		{"id" : 10, "text" : "가지고", "type" : "", "begin" : 23, "end" : 24},
		{"id" : 11, "text" : "온", "type" : "", "begin" : 25, "end" : 26},
		{"id" : 12, "text" : "벽랑국의", "type" : "", "begin" : 27, "end" : 28},
		{"id" : 13, "text" : "세", "type" : "", "begin" : 29, "end" : 29},
		{"id" : 14, "text" : "공주와", "type" : "", "begin" : 30, "end" : 31},
		{"id" : 15, "text" : "각각", "type" : "", "begin" : 32, "end" : 32},
		{"id" : 16, "text" : "결혼해", "type" : "", "begin" : 33, "end" : 35},
		{"id" : 17, "text" : "농경생활을", "type" : "", "begin" : 36, "end" : 38},
		{"id" : 18, "text" : "시작", "type" : "", "begin" : 39, "end" : 39},
		{"id" : 19, "text" : "했다고", "type" : "", "begin" : 40, "end" : 42},
		{"id" : 20, "text" : "한다.", "type" : "", "begin" : 43, "end" : 45}
	],
	"NE" : [
		{"id" : 0, "text" : "고기", "type" : "CV_FOOD", "begin" : 8, "end" : 8, "weight" : 0.25519, "common_noun" : 0},
		{"id" : 1, "text" : "벽랑국", "type" : "LCP_COUNTRY", "begin" : 27, "end" : 27, "weight" : 0.248726, "common_noun" : 0},
		{"id" : 2, "text" : "세", "type" : "QT_MAN_COUNT", "begin" : 29, "end" : 29, "weight" : 0.24581, "common_noun" : 0},
		{"id" : 3, "text" : "공주", "type" : "CV_POSITION", "begin" : 30, "end" : 30, "weight" : 0.242834, "common_noun" : 0}
	],
	"chunk" : [
	],
	"dependency" : [
		{"id" : 0, "text" : "이들은", "head" : 2, "label" : "NP_SBJ", "mod" : [], "weight" : 0.655552 },
		{"id" : 1, "text" : "가죽옷을", "head" : 2, "label" : "NP_OBJ", "mod" : [], "weight" : 0.911039 },
		{"id" : 2, "text" : "입고", "head" : 4, "label" : "VP", "mod" : [0, 1], "weight" : 0.95402 },
		{"id" : 3, "text" : "고기를", "head" : 4, "label" : "NP_OBJ", "mod" : [], "weight" : 0.860989 },
		{"id" : 4, "text" : "사냥해", "head" : 5, "label" : "VP", "mod" : [2, 3], "weight" : 0.798803 },
		{"id" : 5, "text" : "먹고", "head" : 6, "label" : "VP", "mod" : [4], "weight" : 0.97495 },
		{"id" : 6, "text" : "살다가", "head" : 16, "label" : "VP", "mod" : [5], "weight" : 0.848875 },
		{"id" : 7, "text" : "곡식의", "head" : 8, "label" : "NP_MOD", "mod" : [], "weight" : 0.530733 },
		{"id" : 8, "text" : "씨와", "head" : 9, "label" : "NP_CNJ", "mod" : [7], "weight" : 0.659534 },
		{"id" : 9, "text" : "가축을", "head" : 10, "label" : "NP_OBJ", "mod" : [8], "weight" : 0.794028 },
		{"id" : 10, "text" : "가지고", "head" : 11, "label" : "VP", "mod" : [9], "weight" : 0.788656 },
		{"id" : 11, "text" : "온", "head" : 14, "label" : "VP_MOD", "mod" : [10], "weight" : 0.984782 },
		{"id" : 12, "text" : "벽랑국의", "head" : 14, "label" : "NP_MOD", "mod" : [], "weight" : 0.963248 },
		{"id" : 13, "text" : "세", "head" : 14, "label" : "DP", "mod" : [], "weight" : 0.882722 },
		{"id" : 14, "text" : "공주와", "head" : 16, "label" : "NP_AJT", "mod" : [11, 12, 13], "weight" : 0.964314 },
		{"id" : 15, "text" : "각각", "head" : 16, "label" : "AP", "mod" : [], "weight" : 0.813944 },
		{"id" : 16, "text" : "결혼해", "head" : 19, "label" : "VP", "mod" : [6, 14, 15], "weight" : 0.861761 },
		{"id" : 17, "text" : "농경생활을", "head" : 19, "label" : "NP_OBJ", "mod" : [], "weight" : 0.901529 },
		{"id" : 18, "text" : "시작", "head" : 19, "label" : "NP_OBJ", "mod" : [], "weight" : 0.491828 },
		{"id" : 19, "text" : "했다고", "head" : 20, "label" : "VP_CMP", "mod" : [16, 17, 18], "weight" : 0.538484 },
		{"id" : 20, "text" : "한다.", "head" : -1, "label" : "VP", "mod" : [19], "weight" : 0.00783878 }
	],
	"SRL" : [
		{"verb" : "입", "sense" : 1, "word_id" : 2, "weight" : 0.216207,
			"argument" : [
				{"type" : "ARG0", "word_id" : 0, "text" : "이들은", "weight" : 0.206756 },
				{"type" : "ARG1", "word_id" : 1, "text" : "가죽옷을", "weight" : 0.225658 }
			] },
		{"verb" : "사냥", "sense" : 1, "word_id" : 4, "weight" : 0.350413,
			"argument" : [
				{"type" : "ARG0", "word_id" : 0, "text" : "이들은", "weight" : 0.250049 },
				{"type" : "ARG1", "word_id" : 3, "text" : "고기를", "weight" : 0.450778 }
			] },
		{"verb" : "살", "sense" : 1, "word_id" : 6, "weight" : 0.224991,
			"argument" : [
				{"type" : "ARG0", "word_id" : 0, "text" : "이들은", "weight" : 0.275799 },
				{"type" : "ARGM-MNR", "word_id" : 5, "text" : "먹고", "weight" : 0.174182 }
			] },
		{"verb" : "가지", "sense" : 1, "word_id" : 10, "weight" : 0.224205,
			"argument" : [
				{"type" : "ARG1", "word_id" : 8, "text" : "씨와", "weight" : 0.218339 },
				{"type" : "ARG1", "word_id" : 9, "text" : "가축을", "weight" : 0.23007 }
			] },
		{"verb" : "결혼", "sense" : 1, "word_id" : 16, "weight" : 0.213966,
			"argument" : [
				{"type" : "ARG0", "word_id" : 0, "text" : "이들은", "weight" : 0.235735 },
				{"type" : "ARG1", "word_id" : 14, "text" : "공주와", "weight" : 0.149574 },
				{"type" : "ARGM-ADV", "word_id" : 15, "text" : "각각", "weight" : 0.256589 }
			] },
		{"verb" : "하", "sense" : 1, "word_id" : 19, "weight" : 0.308296,
			"argument" : [
				{"type" : "ARG1", "word_id" : 17, "text" : "농경생활을", "weight" : 0.308296 }
			] },
		{"verb" : "하", "sense" : 2, "word_id" : 20, "weight" : 0.409338,
			"argument" : [
				{"type" : "ARG1", "word_id" : 19, "text" : "했다고", "weight" : 0.409338 }
			] }
	],
	"relation" : [
	],
	"SA" : [
	],
	"ZA" : [
		{"id" : 0, "verb_wid" : 4, "ant_sid" : 1, "ant_wid" : 0, "type" : "s", "istitle" : 0, "weight" : 0.37404 },
		{"id" : 1, "verb_wid" : 5, "ant_sid" : 1, "ant_wid" : 0, "type" : "s", "istitle" : 0, "weight" : 0.452456 },
		{"id" : 2, "verb_wid" : 6, "ant_sid" : 1, "ant_wid" : 0, "type" : "s", "istitle" : 0, "weight" : 0.316691 },
		{"id" : 3, "verb_wid" : 10, "ant_sid" : 1, "ant_wid" : 0, "type" : "s", "istitle" : 0, "weight" : 0.201561 },
		{"id" : 4, "verb_wid" : 16, "ant_sid" : 1, "ant_wid" : 0, "type" : "s", "istitle" : 0, "weight" : 0.289013 },
		{"id" : 5, "verb_wid" : 19, "ant_sid" : 1, "ant_wid" : 0, "type" : "s", "istitle" : 0, "weight" : 0.24251 }
	]
	},
	{
	"id" : 2,
	"reserve_str" : "",
	"text" : "조선 중종 21년에는 제사를 지내기 위해 삼성혈에 단과 비석을 세우고 울타리를 쌓았다고 하는데, 세 시조의 성은 양 씨, 부 씨 그리고 무엇일까? ",
	"morp" : [
		{"id" : 0, "lemma" : "조선", "type" : "NNP", "position" : 315, "weight" : 0.0878802 },
		{"id" : 1, "lemma" : "중종", "type" : "NNP", "position" : 322, "weight" : 0.9 },
		{"id" : 2, "lemma" : "21", "type" : "SN", "position" : 329, "weight" : 1 },
		{"id" : 3, "lemma" : "년", "type" : "NNB", "position" : 331, "weight" : 0.414343 },
		{"id" : 4, "lemma" : "에", "type" : "JKB", "position" : 334, "weight" : 0.135559 },
		{"id" : 5, "lemma" : "는", "type" : "JX", "position" : 337, "weight" : 0.0387928 },
		{"id" : 6, "lemma" : "제사", "type" : "NNG", "position" : 341, "weight" : 0.9 },
		{"id" : 7, "lemma" : "를", "type" : "JKO", "position" : 347, "weight" : 0.137686 },
		{"id" : 8, "lemma" : "지내", "type" : "VV", "position" : 351, "weight" : 0.777813 },
		{"id" : 9, "lemma" : "기", "type" : "ETN", "position" : 357, "weight" : 0.0380514 },
		{"id" : 10, "lemma" : "위하", "type" : "VV", "position" : 361, "weight" : 0.176484 },
		{"id" : 11, "lemma" : "어", "type" : "EC", "position" : 364, "weight" : 0.41831 },
		{"id" : 12, "lemma" : "삼성", "type" : "NNG", "position" : 368, "weight" : 0.00673798 },
		{"id" : 13, "lemma" : "혈", "type" : "NNG", "position" : 374, "weight" : 0.184155 },
		{"id" : 14, "lemma" : "에", "type" : "JKB", "position" : 377, "weight" : 0.153364 },
		{"id" : 15, "lemma" : "단", "type" : "NNG", "position" : 381, "weight" : 0.0399783 },
		{"id" : 16, "lemma" : "과", "type" : "JC", "position" : 384, "weight" : 0.017569 },
		{"id" : 17, "lemma" : "비석", "type" : "NNG", "position" : 388, "weight" : 0.9 },
		{"id" : 18, "lemma" : "을", "type" : "JKO", "position" : 394, "weight" : 0.129611 },
		{"id" : 19, "lemma" : "세우", "type" : "VV", "position" : 398, "weight" : 0.777589 },
		{"id" : 20, "lemma" : "고", "type" : "EC", "position" : 404, "weight" : 0.416679 },
		{"id" : 21, "lemma" : "울타리", "type" : "NNG", "position" : 408, "weight" : 0.9 },
		{"id" : 22, "lemma" : "를", "type" : "JKO", "position" : 417, "weight" : 0.137686 },
		{"id" : 23, "lemma" : "쌓", "type" : "VV", "position" : 421, "weight" : 0.761423 },
		{"id" : 24, "lemma" : "았", "type" : "EP", "position" : 424, "weight" : 0.9 },
		{"id" : 25, "lemma" : "다고", "type" : "EC", "position" : 427, "weight" : 0.193823 },
		{"id" : 26, "lemma" : "하", "type" : "VV", "position" : 434, "weight" : 0.140183 },
		{"id" : 27, "lemma" : "는데", "type" : "EC", "position" : 437, "weight" : 0.410685 },
		{"id" : 28, "lemma" : ",", "type" : "SP", "position" : 443, "weight" : 1 },
		{"id" : 29, "lemma" : "세", "type" : "MM", "position" : 445, "weight" : 0.0161624 },
		{"id" : 30, "lemma" : "시조", "type" : "NNG", "position" : 449, "weight" : 0.9 },
		{"id" : 31, "lemma" : "의", "type" : "JKG", "position" : 455, "weight" : 0.0694213 },
		{"id" : 32, "lemma" : "성", "type" : "NNG", "position" : 459, "weight" : 0.428321 },
		{"id" : 33, "lemma" : "은", "type" : "JX", "position" : 462, "weight" : 0.0449928 },
		{"id" : 34, "lemma" : "양", "type" : "NNP", "position" : 466, "weight" : 0.00204127 },
		{"id" : 35, "lemma" : "씨", "type" : "NNB", "position" : 470, "weight" : 0.0450504 },
		{"id" : 36, "lemma" : ",", "type" : "SP", "position" : 473, "weight" : 1 },
		{"id" : 37, "lemma" : "부", "type" : "NNG", "position" : 475, "weight" : 0.199313 },
		{"id" : 38, "lemma" : "씨", "type" : "NNB", "position" : 479, "weight" : 0.0143791 },
		{"id" : 39, "lemma" : "그리고", "type" : "MAG", "position" : 483, "weight" : 0.00373526 },
		{"id" : 40, "lemma" : "무엇", "type" : "NP", "position" : 493, "weight" : 0.9 },
		{"id" : 41, "lemma" : "이", "type" : "VCP", "position" : 499, "weight" : 0.0175768 },
		{"id" : 42, "lemma" : "ㄹ까", "type" : "EF", "position" : 499, "weight" : 0.258243 },
		{"id" : 43, "lemma" : "?", "type" : "SF", "position" : 505, "weight" : 1 }
	],
	"morp_eval" : [
		{"id" : 0, "result" : "조선/NNG", "target" : "조선", "word_id" : 0, "m_begin" : 0, "m_end" : 0},
		{"id" : 1, "result" : "중종/NNG", "target" : "중종", "word_id" : 1, "m_begin" : 1, "m_end" : 1},
		{"id" : 2, "result" : "21/SN+년/NNB+에/JKB+는/JX", "target" : "21년에는", "word_id" : 2, "m_begin" : 2, "m_end" : 5},
		{"id" : 3, "result" : "제사/NNG+를/JKO", "target" : "제사를", "word_id" : 3, "m_begin" : 6, "m_end" : 7},
		{"id" : 4, "result" : "지내/VV+기/ETN", "target" : "지내기", "word_id" : 4, "m_begin" : 8, "m_end" : 9},
		{"id" : 5, "result" : "위하/VV+어/EC", "target" : "위해", "word_id" : 5, "m_begin" : 10, "m_end" : 11},
		{"id" : 6, "result" : "삼성혈/NNG+에/JKB", "target" : "삼성혈에", "word_id" : 6, "m_begin" : 12, "m_end" : 14},
		{"id" : 7, "result" : "단/NNG+과/JC", "target" : "단과", "word_id" : 7, "m_begin" : 15, "m_end" : 16},
		{"id" : 8, "result" : "비석/NNG+을/JKO", "target" : "비석을", "word_id" : 8, "m_begin" : 17, "m_end" : 18},
		{"id" : 9, "result" : "세우/VV+고/EC", "target" : "세우고", "word_id" : 9, "m_begin" : 19, "m_end" : 20},
		{"id" : 10, "result" : "울타리/NNG+를/JKO", "target" : "울타리를", "word_id" : 10, "m_begin" : 21, "m_end" : 22},
		{"id" : 11, "result" : "쌓/VV+었/EP+다고/EC", "target" : "쌓았다고", "word_id" : 11, "m_begin" : 23, "m_end" : 25},
		{"id" : 12, "result" : "하/VV+는데/EC+,/SP", "target" : "하는데,", "word_id" : 12, "m_begin" : 26, "m_end" : 28},
		{"id" : 13, "result" : "세/MM", "target" : "세", "word_id" : 13, "m_begin" : 29, "m_end" : 29},
		{"id" : 14, "result" : "시조/NNG+의/JKG", "target" : "시조의", "word_id" : 14, "m_begin" : 30, "m_end" : 31},
		{"id" : 15, "result" : "성/NNG+은/JX", "target" : "성은", "word_id" : 15, "m_begin" : 32, "m_end" : 33},
		{"id" : 16, "result" : "양/NNG", "target" : "양", "word_id" : 16, "m_begin" : 34, "m_end" : 34},
		{"id" : 17, "result" : "씨/NNB+,/SP", "target" : "씨,", "word_id" : 17, "m_begin" : 35, "m_end" : 36},
		{"id" : 18, "result" : "부/NNG", "target" : "부", "word_id" : 18, "m_begin" : 37, "m_end" : 37},
		{"id" : 19, "result" : "씨/NNB", "target" : "씨", "word_id" : 19, "m_begin" : 38, "m_end" : 38},
		{"id" : 20, "result" : "그리고/MAG", "target" : "그리고", "word_id" : 20, "m_begin" : 39, "m_end" : 39},
		{"id" : 21, "result" : "무엇/NP+이/VCP+ㄹ까/EF+?/SF", "target" : "무엇일까?", "word_id" : 21, "m_begin" : 40, "m_end" : 43}
	],
	"WSD" : [
		{"id" : 0, "text" : "조선", "type" : "NNP", "scode" : "05", "weight" : 1, "position" : 315, "begin" : 0, "end" : 0},
		{"id" : 1, "text" : "중종", "type" : "NNP", "scode" : "03", "weight" : 1, "position" : 322, "begin" : 1, "end" : 1},
		{"id" : 2, "text" : "21", "type" : "SN", "scode" : "00", "weight" : 1, "position" : 329, "begin" : 2, "end" : 2},
		{"id" : 3, "text" : "년", "type" : "NNB", "scode" : "02", "weight" : 1, "position" : 331, "begin" : 3, "end" : 3},
		{"id" : 4, "text" : "에", "type" : "JKB", "scode" : "00", "weight" : 1, "position" : 334, "begin" : 4, "end" : 4},
		{"id" : 5, "text" : "는", "type" : "JX", "scode" : "00", "weight" : 1, "position" : 337, "begin" : 5, "end" : 5},
		{"id" : 6, "text" : "제사", "type" : "NNG", "scode" : "07", "weight" : 1, "position" : 341, "begin" : 6, "end" : 6},
		{"id" : 7, "text" : "를", "type" : "JKO", "scode" : "00", "weight" : 1, "position" : 347, "begin" : 7, "end" : 7},
		{"id" : 8, "text" : "지내", "type" : "VV", "scode" : "01", "weight" : 1, "position" : 351, "begin" : 8, "end" : 8},
		{"id" : 9, "text" : "기", "type" : "ETN", "scode" : "00", "weight" : 1, "position" : 357, "begin" : 9, "end" : 9},
		{"id" : 10, "text" : "위하", "type" : "VV", "scode" : "01", "weight" : 1, "position" : 361, "begin" : 10, "end" : 10},
		{"id" : 11, "text" : "어", "type" : "EC", "scode" : "00", "weight" : 1, "position" : 364, "begin" : 11, "end" : 11},
		{"id" : 12, "text" : "삼성혈", "type" : "NNG", "scode" : "00", "weight" : 0, "position" : 368, "begin" : 12, "end" : 13},
		{"id" : 13, "text" : "에", "type" : "JKB", "scode" : "00", "weight" : 1, "position" : 377, "begin" : 14, "end" : 14},
		{"id" : 14, "text" : "단", "type" : "NNG", "scode" : "06", "weight" : 1, "position" : 381, "begin" : 15, "end" : 15},
		{"id" : 15, "text" : "과", "type" : "JC", "scode" : "00", "weight" : 1, "position" : 384, "begin" : 16, "end" : 16},
		{"id" : 16, "text" : "비석", "type" : "NNG", "scode" : "07", "weight" : 1, "position" : 388, "begin" : 17, "end" : 17},
		{"id" : 17, "text" : "을", "type" : "JKO", "scode" : "00", "weight" : 1, "position" : 394, "begin" : 18, "end" : 18},
		{"id" : 18, "text" : "세우", "type" : "VV", "scode" : "01", "weight" : 1, "position" : 398, "begin" : 19, "end" : 19},
		{"id" : 19, "text" : "고", "type" : "EC", "scode" : "00", "weight" : 1, "position" : 404, "begin" : 20, "end" : 20},
		{"id" : 20, "text" : "울타리", "type" : "NNG", "scode" : "00", "weight" : 1, "position" : 408, "begin" : 21, "end" : 21},
		{"id" : 21, "text" : "를", "type" : "JKO", "scode" : "00", "weight" : 1, "position" : 417, "begin" : 22, "end" : 22},
		{"id" : 22, "text" : "쌓", "type" : "VV", "scode" : "00", "weight" : 1, "position" : 421, "begin" : 23, "end" : 23},
		{"id" : 23, "text" : "았", "type" : "EP", "scode" : "00", "weight" : 1, "position" : 424, "begin" : 24, "end" : 24},
		{"id" : 24, "text" : "다고", "type" : "EC", "scode" : "00", "weight" : 1, "position" : 427, "begin" : 25, "end" : 25},
		{"id" : 25, "text" : "하", "type" : "VV", "scode" : "01", "weight" : 1, "position" : 434, "begin" : 26, "end" : 26},
		{"id" : 26, "text" : "는데", "type" : "EC", "scode" : "00", "weight" : 1, "position" : 437, "begin" : 27, "end" : 27},
		{"id" : 27, "text" : ",", "type" : "SP", "scode" : "00", "weight" : 1, "position" : 443, "begin" : 28, "end" : 28},
		{"id" : 28, "text" : "세", "type" : "MM", "scode" : "01", "weight" : 1, "position" : 445, "begin" : 29, "end" : 29},
		{"id" : 29, "text" : "시조", "type" : "NNG", "scode" : "07", "weight" : 1, "position" : 449, "begin" : 30, "end" : 30},
		{"id" : 30, "text" : "의", "type" : "JKG", "scode" : "00", "weight" : 1, "position" : 455, "begin" : 31, "end" : 31},
		{"id" : 31, "text" : "성", "type" : "NNG", "scode" : "07", "weight" : 1, "position" : 459, "begin" : 32, "end" : 32},
		{"id" : 32, "text" : "은", "type" : "JX", "scode" : "00", "weight" : 1, "position" : 462, "begin" : 33, "end" : 33},
		{"id" : 33, "text" : "양", "type" : "NNP", "scode" : "13", "weight" : 1, "position" : 466, "begin" : 34, "end" : 34},
		{"id" : 34, "text" : "씨", "type" : "NNB", "scode" : "07", "weight" : 1, "position" : 470, "begin" : 35, "end" : 35},
		{"id" : 35, "text" : ",", "type" : "SP", "scode" : "00", "weight" : 1, "position" : 473, "begin" : 36, "end" : 36},
		{"id" : 36, "text" : "부", "type" : "NNG", "scode" : "15", "weight" : 1, "position" : 475, "begin" : 37, "end" : 37},
		{"id" : 37, "text" : "씨", "type" : "NNB", "scode" : "07", "weight" : 1, "position" : 479, "begin" : 38, "end" : 38},
		{"id" : 38, "text" : "그리고", "type" : "MAG", "scode" : "00", "weight" : 1, "position" : 483, "begin" : 39, "end" : 39},
		{"id" : 39, "text" : "무엇", "type" : "NP", "scode" : "00", "weight" : 1, "position" : 493, "begin" : 40, "end" : 40},
		{"id" : 40, "text" : "이", "type" : "VCP", "scode" : "00", "weight" : 1, "position" : 499, "begin" : 41, "end" : 41},
		{"id" : 41, "text" : "ㄹ까", "type" : "EF", "scode" : "00", "weight" : 1, "position" : 499, "begin" : 42, "end" : 42},
		{"id" : 42, "text" : "?", "type" : "SF", "scode" : "00", "weight" : 1, "position" : 505, "begin" : 43, "end" : 43}
	],
	"word" : [
		{"id" : 0, "text" : "조선", "type" : "", "begin" : 0, "end" : 0},
		{"id" : 1, "text" : "중종", "type" : "", "begin" : 1, "end" : 1},
		{"id" : 2, "text" : "21년에는", "type" : "", "begin" : 2, "end" : 5},
		{"id" : 3, "text" : "제사를", "type" : "", "begin" : 6, "end" : 7},
		{"id" : 4, "text" : "지내기", "type" : "", "begin" : 8, "end" : 9},
		{"id" : 5, "text" : "위해", "type" : "", "begin" : 10, "end" : 11},
		{"id" : 6, "text" : "삼성혈에", "type" : "", "begin" : 12, "end" : 14},
		{"id" : 7, "text" : "단과", "type" : "", "begin" : 15, "end" : 16},
		{"id" : 8, "text" : "비석을", "type" : "", "begin" : 17, "end" : 18},
		{"id" : 9, "text" : "세우고", "type" : "", "begin" : 19, "end" : 20},
		{"id" : 10, "text" : "울타리를", "type" : "", "begin" : 21, "end" : 22},
		{"id" : 11, "text" : "쌓았다고", "type" : "", "begin" : 23, "end" : 25},
		{"id" : 12, "text" : "하는데,", "type" : "", "begin" : 26, "end" : 28},
		{"id" : 13, "text" : "세", "type" : "", "begin" : 29, "end" : 29},
		{"id" : 14, "text" : "시조의", "type" : "", "begin" : 30, "end" : 31},
		{"id" : 15, "text" : "성은", "type" : "", "begin" : 32, "end" : 33},
		{"id" : 16, "text" : "양", "type" : "", "begin" : 34, "end" : 34},
		{"id" : 17, "text" : "씨,", "type" : "", "begin" : 35, "end" : 36},
		{"id" : 18, "text" : "부", "type" : "", "begin" : 37, "end" : 37},
		{"id" : 19, "text" : "씨", "type" : "", "begin" : 38, "end" : 38},
		{"id" : 20, "text" : "그리고", "type" : "", "begin" : 39, "end" : 39},
		{"id" : 21, "text" : "무엇일까?", "type" : "", "begin" : 40, "end" : 43}
	],
	"NE" : [
		{"id" : 0, "text" : "조선 중종 21년", "type" : "DT_DYNASTY", "begin" : 0, "end" : 3, "weight" : 0.162886, "common_noun" : 0},
		{"id" : 1, "text" : "삼성혈", "type" : "AF_CULTURAL_ASSET", "begin" : 12, "end" : 13, "weight" : 0.22756, "common_noun" : 0},
		{"id" : 2, "text" : "세 시조", "type" : "QT_COUNT", "begin" : 29, "end" : 30, "weight" : 0.269084, "common_noun" : 0},
		{"id" : 3, "text" : "양", "type" : "PS_NAME", "begin" : 34, "end" : 34, "weight" : 0.349759, "common_noun" : 0}
	],
	"chunk" : [
	],
	"dependency" : [
		{"id" : 0, "text" : "조선", "head" : 1, "label" : "NP", "mod" : [], "weight" : 0.908919 },
		{"id" : 1, "text" : "중종", "head" : 2, "label" : "NP", "mod" : [0], "weight" : 0.724503 },
		{"id" : 2, "text" : "21년에는", "head" : 9, "label" : "NP_AJT", "mod" : [1], "weight" : 0.649799 },
		{"id" : 3, "text" : "제사를", "head" : 4, "label" : "NP_OBJ", "mod" : [], "weight" : 0.962939 },
		{"id" : 4, "text" : "지내기", "head" : 5, "label" : "VP_OBJ", "mod" : [3], "weight" : 0.675468 },
		{"id" : 5, "text" : "위해", "head" : 9, "label" : "VP", "mod" : [4], "weight" : 0.842342 },
		{"id" : 6, "text" : "삼성혈에", "head" : 9, "label" : "NP_AJT", "mod" : [], "weight" : 0.788288 },
		{"id" : 7, "text" : "단과", "head" : 8, "label" : "NP_CNJ", "mod" : [], "weight" : 0.778203 },
		{"id" : 8, "text" : "비석을", "head" : 9, "label" : "NP_OBJ", "mod" : [7], "weight" : 0.927235 },
		{"id" : 9, "text" : "세우고", "head" : 11, "label" : "VP", "mod" : [2, 5, 6, 8], "weight" : 0.904787 },
		{"id" : 10, "text" : "울타리를", "head" : 11, "label" : "NP_OBJ", "mod" : [], "weight" : 0.692765 },
		{"id" : 11, "text" : "쌓았다고", "head" : 12, "label" : "VP_CMP", "mod" : [9, 10], "weight" : 0.725459 },
		{"id" : 12, "text" : "하는데,", "head" : 21, "label" : "VP", "mod" : [11], "weight" : 0.953332 },
		{"id" : 13, "text" : "세", "head" : 14, "label" : "DP", "mod" : [], "weight" : 0.898595 },
		{"id" : 14, "text" : "시조의", "head" : 15, "label" : "NP_MOD", "mod" : [13], "weight" : 0.87849 },
		{"id" : 15, "text" : "성은", "head" : 21, "label" : "NP_SBJ", "mod" : [14], "weight" : 0.849595 },
		{"id" : 16, "text" : "양", "head" : 17, "label" : "NP", "mod" : [], "weight" : 0.998525 },
		{"id" : 17, "text" : "씨,", "head" : 19, "label" : "NP_CNJ", "mod" : [16], "weight" : 0.756108 },
		{"id" : 18, "text" : "부", "head" : 19, "label" : "NP", "mod" : [], "weight" : 0.751784 },
		{"id" : 19, "text" : "씨", "head" : 21, "label" : "NP", "mod" : [17, 18], "weight" : 0.296846 },
		{"id" : 20, "text" : "그리고", "head" : 21, "label" : "AP", "mod" : [], "weight" : 0.584538 },
		{"id" : 21, "text" : "무엇일까?", "head" : -1, "label" : "VNP", "mod" : [12, 15, 19, 20], "weight" : 0.00215091 }
	],
	"SRL" : [
		{"verb" : "지내", "sense" : 2, "word_id" : 4, "weight" : 0.395027,
			"argument" : [
				{"type" : "ARG1", "word_id" : 3, "text" : "제사를", "weight" : 0.395027 }
			] },
		{"verb" : "위하", "sense" : 1, "word_id" : 5, "weight" : 0.287433,
			"argument" : [
				{"type" : "ARG1", "word_id" : 4, "text" : "지내기", "weight" : 0.287433 }
			] },
		{"verb" : "세우", "sense" : 3, "word_id" : 9, "weight" : 0.200027,
			"argument" : [
				{"type" : "ARGM-TMP", "word_id" : 2, "text" : "21년에는", "weight" : 0.17522 },
				{"type" : "ARGM-PRP", "word_id" : 5, "text" : "위해", "weight" : 0.270382 },
				{"type" : "ARGM-LOC", "word_id" : 6, "text" : "삼성혈에", "weight" : 0.133729 },
				{"type" : "ARG1", "word_id" : 7, "text" : "단과", "weight" : 0.207984 },
				{"type" : "ARG1", "word_id" : 8, "text" : "비석을", "weight" : 0.212822 }
			] },
		{"verb" : "쌓", "sense" : 1, "word_id" : 11, "weight" : 0.269864,
			"argument" : [
				{"type" : "ARGM-TMP", "word_id" : 2, "text" : "21년에는", "weight" : 0.26211 },
				{"type" : "ARGM-PRP", "word_id" : 5, "text" : "위해", "weight" : 0.30609 },
				{"type" : "ARG1", "word_id" : 10, "text" : "울타리를", "weight" : 0.241391 }
			] },
		{"verb" : "하", "sense" : 2, "word_id" : 12, "weight" : 0.383586,
			"argument" : [
				{"type" : "ARG1", "word_id" : 11, "text" : "쌓았다고", "weight" : 0.383586 }
			] }
	],
	"relation" : [
	],
	"SA" : [
	],
	"ZA" : [
		{"id" : 0, "verb_wid" : 4, "ant_sid" : -1, "ant_wid" : -1, "type" : "s", "istitle" : 0, "weight" : 0.36086 },
		{"id" : 1, "verb_wid" : 9, "ant_sid" : -1, "ant_wid" : -1, "type" : "s", "istitle" : 0, "weight" : 0.275869 },
		{"id" : 2, "verb_wid" : 11, "ant_sid" : -1, "ant_wid" : -1, "type" : "s", "istitle" : 0, "weight" : 0.302048 }
	]
	}
 ],
 "entity" : [
	{"id" : 0, "type" : "CV_FOOD", "number" : "singular", "gender" : "", "person" : "", "animacy" : "", "loc" : "제주도", 
	 "mention" : [
		{"id" : 1, "sent_id" : 0, "start_eid" : 0, "end_eid" : 0, "ne_id" : 0, "text" : "﻿제주도", "start_eid_short" : 0, "end_eid_short" : 0, "text_short" : "﻿제주도", "weight" : 0.002 },
		{"id" : 10, "sent_id" : 1, "start_eid" : 3, "end_eid" : 3, "ne_id" : 0, "text" : "고기", "start_eid_short" : 3, "end_eid_short" : 3, "text_short" : "고기", "weight" : 0.006 }
	] },
	{"id" : 1, "type" : "AF_CULTURAL_ASSET", "number" : "singular", "gender" : "", "person" : "", "animacy" : "", "loc" : "", 
	 "mention" : [
		{"id" : 2, "sent_id" : 0, "start_eid" : 2, "end_eid" : 5, "ne_id" : 2, "text" : "사적 제 134호 삼성혈", "start_eid_short" : 2, "end_eid_short" : 5, "text_short" : "사적 제 134호 삼성혈", "weight" : 0.006 },
		{"id" : 23, "sent_id" : 2, "start_eid" : 6, "end_eid" : 6, "ne_id" : 1, "text" : "삼성혈", "start_eid_short" : 6, "end_eid_short" : 6, "text_short" : "삼성혈", "weight" : 0.01 }
	] },
	{"id" : 2, "type" : "QT_COUNT", "number" : "singular", "gender" : "", "person" : "", "animacy" : "", "loc" : "제주", 
	 "mention" : [
		{"id" : 5, "sent_id" : 0, "start_eid" : 6, "end_eid" : 7, "ne_id" : 4, "text" : "제주의 시조", "start_eid_short" : 6, "end_eid_short" : 7, "text_short" : "제주의 시조", "weight" : 0.012 },
		{"id" : 28, "sent_id" : 2, "start_eid" : 13, "end_eid" : 14, "ne_id" : 2, "text" : "세 시조", "start_eid_short" : 13, "end_eid_short" : 14, "text_short" : "세 시조", "weight" : 0.016 }
	] },
	{"id" : 3, "type" : "", "number" : "singular", "gender" : "", "person" : "", "animacy" : "", "loc" : "", 
	 "mention" : [
		{"id" : 13, "sent_id" : 1, "start_eid" : 7, "end_eid" : 8, "ne_id" : -1, "text" : "곡식의 씨", "start_eid_short" : 7, "end_eid_short" : 8, "text_short" : "곡식의 씨", "weight" : 0.006 },
		{"id" : 30, "sent_id" : 2, "start_eid" : 16, "end_eid" : 17, "ne_id" : -1, "text" : "양 씨", "start_eid_short" : 16, "end_eid_short" : 17, "text_short" : "양 씨,", "weight" : 0.01 }
	] },
	{"id" : 4, "type" : "", "number" : "singular", "gender" : "", "person" : "", "animacy" : "", "loc" : "", 
	 "mention" : [
		{"id" : 27, "sent_id" : 2, "start_eid" : 13, "end_eid" : 15, "ne_id" : -1, "text" : "세 시조의 성", "start_eid_short" : 13, "end_eid_short" : 15, "text_short" : "세 시조의 성", "weight" : 0.002 },
		{"id" : 33, "sent_id" : 2, "start_eid" : 21, "end_eid" : 21, "ne_id" : -1, "text" : "무엇", "start_eid_short" : 21, "end_eid_short" : 21, "text_short" : "무엇이ㄹ까?", "weight" : 0.006 }
	] }
 ]
}

