{"doc_id" : "",
 "DCT" : "",
 "category" : "",
 "category_weight" : 0,
 "title" : {"text" : "", "NE" : ""},
 "metaInfo" : { },
 "sentence" : [
	{
	"id" : 0,
	"reserve_str" : "",
	"text" : "﻿4세기 초 갠지스 강 유역을 중심으로 북인도를 지배하던 왕조로 인도 고전 문화의 황금기로 불리며 힌두교가 민족 종교로 발달한 시기는 언제일까? ",
	"morp" : [
		{"id" : 0, "lemma" : "﻿", "type" : "XPN", "position" : 0, "weight" : 0 },
		{"id" : 1, "lemma" : "4", "type" : "SN", "position" : 3, "weight" : 1 },
		{"id" : 2, "lemma" : "세기", "type" : "NNG", "position" : 4, "weight" : 0.100259 },
		{"id" : 3, "lemma" : "초", "type" : "NNB", "position" : 11, "weight" : 0.0115401 },
		{"id" : 4, "lemma" : "갠지스", "type" : "NNP", "position" : 15, "weight" : 0.9 },
		{"id" : 5, "lemma" : "강", "type" : "NNG", "position" : 25, "weight" : 0.238675 },
		{"id" : 6, "lemma" : "유역", "type" : "NNG", "position" : 29, "weight" : 0.9 },
		{"id" : 7, "lemma" : "을", "type" : "JKO", "position" : 35, "weight" : 0.129611 },
		{"id" : 8, "lemma" : "중심", "type" : "NNG", "position" : 39, "weight" : 0.9 },
		{"id" : 9, "lemma" : "으로", "type" : "JKB", "position" : 45, "weight" : 0.153406 },
		{"id" : 10, "lemma" : "북인도", "type" : "NNP", "position" : 52, "weight" : 0.75 },
		{"id" : 11, "lemma" : "를", "type" : "JKO", "position" : 61, "weight" : 0.0283046 },
		{"id" : 12, "lemma" : "지배", "type" : "NNG", "position" : 65, "weight" : 0.9 },
		{"id" : 13, "lemma" : "하", "type" : "XSV", "position" : 71, "weight" : 0.0001 },
		{"id" : 14, "lemma" : "던", "type" : "ETM", "position" : 74, "weight" : 0.409388 },
		{"id" : 15, "lemma" : "왕조", "type" : "NNG", "position" : 78, "weight" : 0.9 },
		{"id" : 16, "lemma" : "로", "type" : "JKB", "position" : 84, "weight" : 0.153229 },
		{"id" : 17, "lemma" : "인도", "type" : "NNP", "position" : 88, "weight" : 0.0200696 },
		{"id" : 18, "lemma" : "고전", "type" : "NNG", "position" : 95, "weight" : 0.281597 },
		{"id" : 19, "lemma" : "문화", "type" : "NNG", "position" : 102, "weight" : 0.184467 },
		{"id" : 20, "lemma" : "의", "type" : "JKG", "position" : 108, "weight" : 0.0694213 },
		{"id" : 21, "lemma" : "황금", "type" : "NNG", "position" : 112, "weight" : 0.9 },
		{"id" : 22, "lemma" : "기", "type" : "XSN", "position" : 118, "weight" : 0.000294499 },
		{"id" : 23, "lemma" : "로", "type" : "JKB", "position" : 121, "weight" : 0.121577 },
		{"id" : 24, "lemma" : "불리", "type" : "VV", "position" : 125, "weight" : 0.439247 },
		{"id" : 25, "lemma" : "며", "type" : "EC", "position" : 131, "weight" : 0.429701 },
		{"id" : 26, "lemma" : "힌두", "type" : "NNP", "position" : 135, "weight" : 0.9 },
		{"id" : 27, "lemma" : "교", "type" : "NNG", "position" : 141, "weight" : 0.245696 },
		{"id" : 28, "lemma" : "가", "type" : "JKS", "position" : 144, "weight" : 0.066324 },
		{"id" : 29, "lemma" : "민족", "type" : "NNG", "position" : 148, "weight" : 0.9 },
		{"id" : 30, "lemma" : "종교", "type" : "NNG", "position" : 155, "weight" : 0.9 },
		{"id" : 31, "lemma" : "로", "type" : "JKB", "position" : 161, "weight" : 0.153229 },
		{"id" : 32, "lemma" : "발달하", "type" : "VV", "position" : 165, "weight" : 0.9 },
		{"id" : 33, "lemma" : "ㄴ", "type" : "ETM", "position" : 171, "weight" : 0.304215 },
		{"id" : 34, "lemma" : "시기", "type" : "NNG", "position" : 175, "weight" : 0.658437 },
		{"id" : 35, "lemma" : "는", "type" : "JX", "position" : 181, "weight" : 0.0287565 },
		{"id" : 36, "lemma" : "언제", "type" : "NP", "position" : 185, "weight" : 0.0235972 },
		{"id" : 37, "lemma" : "이", "type" : "VCP", "position" : 191, "weight" : 0.0175768 },
		{"id" : 38, "lemma" : "ㄹ까", "type" : "EF", "position" : 191, "weight" : 0.258243 },
		{"id" : 39, "lemma" : "?", "type" : "SF", "position" : 197, "weight" : 1 }
	],
	"morp_eval" : [
		{"id" : 0, "result" : "﻿/XPN+4/SN+세기/NNG", "target" : "﻿4세기", "word_id" : 0, "m_begin" : 0, "m_end" : 2},
		{"id" : 1, "result" : "초/NNB", "target" : "초", "word_id" : 1, "m_begin" : 3, "m_end" : 3},
		{"id" : 2, "result" : "갠지스/NNG", "target" : "갠지스", "word_id" : 2, "m_begin" : 4, "m_end" : 4},
		{"id" : 3, "result" : "강/NNG", "target" : "강", "word_id" : 3, "m_begin" : 5, "m_end" : 5},
		{"id" : 4, "result" : "유역/NNG+을/JKO", "target" : "유역을", "word_id" : 4, "m_begin" : 6, "m_end" : 7},
		{"id" : 5, "result" : "중심/NNG+으로/JKB", "target" : "중심으로", "word_id" : 5, "m_begin" : 8, "m_end" : 9},
		{"id" : 6, "result" : "북인도/NNG+를/JKO", "target" : "북인도를", "word_id" : 6, "m_begin" : 10, "m_end" : 11},
		{"id" : 7, "result" : "지배하/VV+던/ETM", "target" : "지배하던", "word_id" : 7, "m_begin" : 12, "m_end" : 14},
		{"id" : 8, "result" : "왕조/NNG+로/JKB", "target" : "왕조로", "word_id" : 8, "m_begin" : 15, "m_end" : 16},
		{"id" : 9, "result" : "인도/NNG", "target" : "인도", "word_id" : 9, "m_begin" : 17, "m_end" : 17},
		{"id" : 10, "result" : "고전/NNG", "target" : "고전", "word_id" : 10, "m_begin" : 18, "m_end" : 18},
		{"id" : 11, "result" : "문화/NNG+의/JKG", "target" : "문화의", "word_id" : 11, "m_begin" : 19, "m_end" : 20},
		{"id" : 12, "result" : "황금기/NNG+로/JKB", "target" : "황금기로", "word_id" : 12, "m_begin" : 21, "m_end" : 23},
		{"id" : 13, "result" : "불리/VV+며/EC", "target" : "불리며", "word_id" : 13, "m_begin" : 24, "m_end" : 25},
		{"id" : 14, "result" : "힌두교/NNG+가/JKS", "target" : "힌두교가", "word_id" : 14, "m_begin" : 26, "m_end" : 28},
		{"id" : 15, "result" : "민족/NNG", "target" : "민족", "word_id" : 15, "m_begin" : 29, "m_end" : 29},
		{"id" : 16, "result" : "종교/NNG+로/JKB", "target" : "종교로", "word_id" : 16, "m_begin" : 30, "m_end" : 31},
		{"id" : 17, "result" : "발달하/VV+ㄴ/ETM", "target" : "발달한", "word_id" : 17, "m_begin" : 32, "m_end" : 33},
		{"id" : 18, "result" : "시기/NNG+는/JX", "target" : "시기는", "word_id" : 18, "m_begin" : 34, "m_end" : 35},
		{"id" : 19, "result" : "언제/NP+이/VCP+ㄹ까/EF+?/SF", "target" : "언제일까?", "word_id" : 19, "m_begin" : 36, "m_end" : 39}
	],
	"WSD" : [
		{"id" : 0, "text" : "﻿", "type" : "XPN", "scode" : "00", "weight" : 0, "position" : 0, "begin" : 0, "end" : 0},
		{"id" : 1, "text" : "4", "type" : "SN", "scode" : "00", "weight" : 1, "position" : 3, "begin" : 1, "end" : 1},
		{"id" : 2, "text" : "세기", "type" : "NNG", "scode" : "03", "weight" : 1, "position" : 4, "begin" : 2, "end" : 2},
		{"id" : 3, "text" : "초", "type" : "NNB", "scode" : "03", "weight" : 1, "position" : 11, "begin" : 3, "end" : 3},
		{"id" : 4, "text" : "갠지스", "type" : "NNP", "scode" : "00", "weight" : 1, "position" : 15, "begin" : 4, "end" : 4},
		{"id" : 5, "text" : "강", "type" : "NNG", "scode" : "01", "weight" : 1, "position" : 25, "begin" : 5, "end" : 5},
		{"id" : 6, "text" : "유역", "type" : "NNG", "scode" : "02", "weight" : 1, "position" : 29, "begin" : 6, "end" : 6},
		{"id" : 7, "text" : "을", "type" : "JKO", "scode" : "00", "weight" : 1, "position" : 35, "begin" : 7, "end" : 7},
		{"id" : 8, "text" : "중심", "type" : "NNG", "scode" : "01", "weight" : 1, "position" : 39, "begin" : 8, "end" : 8},
		{"id" : 9, "text" : "으로", "type" : "JKB", "scode" : "00", "weight" : 1, "position" : 45, "begin" : 9, "end" : 9},
		{"id" : 10, "text" : "북인도", "type" : "NNP", "scode" : "00", "weight" : 1, "position" : 52, "begin" : 10, "end" : 10},
		{"id" : 11, "text" : "를", "type" : "JKO", "scode" : "00", "weight" : 1, "position" : 61, "begin" : 11, "end" : 11},
		{"id" : 12, "text" : "지배하", "type" : "VV", "scode" : "01", "weight" : 1, "position" : 65, "begin" : 12, "end" : 13},
		{"id" : 13, "text" : "던", "type" : "ETM", "scode" : "00", "weight" : 1, "position" : 74, "begin" : 14, "end" : 14},
		{"id" : 14, "text" : "왕조", "type" : "NNG", "scode" : "02", "weight" : 1, "position" : 78, "begin" : 15, "end" : 15},
		{"id" : 15, "text" : "로", "type" : "JKB", "scode" : "00", "weight" : 1, "position" : 84, "begin" : 16, "end" : 16},
		{"id" : 16, "text" : "인도", "type" : "NNP", "scode" : "08", "weight" : 1, "position" : 88, "begin" : 17, "end" : 17},
		{"id" : 17, "text" : "고전", "type" : "NNG", "scode" : "02", "weight" : 1, "position" : 95, "begin" : 18, "end" : 18},
		{"id" : 18, "text" : "문화", "type" : "NNG", "scode" : "01", "weight" : 1, "position" : 102, "begin" : 19, "end" : 19},
		{"id" : 19, "text" : "의", "type" : "JKG", "scode" : "00", "weight" : 1, "position" : 108, "begin" : 20, "end" : 20},
		{"id" : 20, "text" : "황금기", "type" : "NNG", "scode" : "00", "weight" : 1, "position" : 112, "begin" : 21, "end" : 22},
		{"id" : 21, "text" : "로", "type" : "JKB", "scode" : "00", "weight" : 1, "position" : 121, "begin" : 23, "end" : 23},
		{"id" : 22, "text" : "불리", "type" : "VV", "scode" : "04", "weight" : 1, "position" : 125, "begin" : 24, "end" : 24},
		{"id" : 23, "text" : "며", "type" : "EC", "scode" : "00", "weight" : 1, "position" : 131, "begin" : 25, "end" : 25},
		{"id" : 24, "text" : "힌두교", "type" : "NNP", "scode" : "00", "weight" : 0, "position" : 135, "begin" : 26, "end" : 27},
		{"id" : 25, "text" : "가", "type" : "JKS", "scode" : "00", "weight" : 1, "position" : 144, "begin" : 28, "end" : 28},
		{"id" : 26, "text" : "민족", "type" : "NNG", "scode" : "00", "weight" : 1, "position" : 148, "begin" : 29, "end" : 29},
		{"id" : 27, "text" : "종교", "type" : "NNG", "scode" : "00", "weight" : 1, "position" : 155, "begin" : 30, "end" : 30},
		{"id" : 28, "text" : "로", "type" : "JKB", "scode" : "00", "weight" : 1, "position" : 161, "begin" : 31, "end" : 31},
		{"id" : 29, "text" : "발달하", "type" : "VV", "scode" : "00", "weight" : 1, "position" : 165, "begin" : 32, "end" : 32},
		{"id" : 30, "text" : "ㄴ", "type" : "ETM", "scode" : "00", "weight" : 1, "position" : 171, "begin" : 33, "end" : 33},
		{"id" : 31, "text" : "시기", "type" : "NNG", "scode" : "04", "weight" : 1, "position" : 175, "begin" : 34, "end" : 34},
		{"id" : 32, "text" : "는", "type" : "JX", "scode" : "00", "weight" : 1, "position" : 181, "begin" : 35, "end" : 35},
		{"id" : 33, "text" : "언제", "type" : "NP", "scode" : "01", "weight" : 1, "position" : 185, "begin" : 36, "end" : 36},
		{"id" : 34, "text" : "이", "type" : "VCP", "scode" : "00", "weight" : 1, "position" : 191, "begin" : 37, "end" : 37},
		{"id" : 35, "text" : "ㄹ까", "type" : "EF", "scode" : "00", "weight" : 1, "position" : 191, "begin" : 38, "end" : 38},
		{"id" : 36, "text" : "?", "type" : "SF", "scode" : "00", "weight" : 1, "position" : 197, "begin" : 39, "end" : 39}
	],
	"word" : [
		{"id" : 0, "text" : "﻿4세기", "type" : "", "begin" : 0, "end" : 2},
		{"id" : 1, "text" : "초", "type" : "", "begin" : 3, "end" : 3},
		{"id" : 2, "text" : "갠지스", "type" : "", "begin" : 4, "end" : 4},
		{"id" : 3, "text" : "강", "type" : "", "begin" : 5, "end" : 5},
		{"id" : 4, "text" : "유역을", "type" : "", "begin" : 6, "end" : 7},
		{"id" : 5, "text" : "중심으로", "type" : "", "begin" : 8, "end" : 9},
		{"id" : 6, "text" : "북인도를", "type" : "", "begin" : 10, "end" : 11},
		{"id" : 7, "text" : "지배하던", "type" : "", "begin" : 12, "end" : 14},
		{"id" : 8, "text" : "왕조로", "type" : "", "begin" : 15, "end" : 16},
		{"id" : 9, "text" : "인도", "type" : "", "begin" : 17, "end" : 17},
		{"id" : 10, "text" : "고전", "type" : "", "begin" : 18, "end" : 18},
		{"id" : 11, "text" : "문화의", "type" : "", "begin" : 19, "end" : 20},
		{"id" : 12, "text" : "황금기로", "type" : "", "begin" : 21, "end" : 23},
		{"id" : 13, "text" : "불리며", "type" : "", "begin" : 24, "end" : 25},
		{"id" : 14, "text" : "힌두교가", "type" : "", "begin" : 26, "end" : 28},
		{"id" : 15, "text" : "민족", "type" : "", "begin" : 29, "end" : 29},
		{"id" : 16, "text" : "종교로", "type" : "", "begin" : 30, "end" : 31},
		{"id" : 17, "text" : "발달한", "type" : "", "begin" : 32, "end" : 33},
		{"id" : 18, "text" : "시기는", "type" : "", "begin" : 34, "end" : 35},
		{"id" : 19, "text" : "언제일까?", "type" : "", "begin" : 36, "end" : 39}
	],
	"NE" : [
		{"id" : 0, "text" : "﻿4세기 초", "type" : "DT_OTHERS", "begin" : 0, "end" : 3, "weight" : 0.216919, "common_noun" : 0},
		{"id" : 1, "text" : "갠지스 강", "type" : "LCG_RIVER", "begin" : 4, "end" : 5, "weight" : 0.307429, "common_noun" : 0},
		{"id" : 2, "text" : "북인도", "type" : "LCP_COUNTRY", "begin" : 10, "end" : 10, "weight" : 0.406472, "common_noun" : 0},
		{"id" : 3, "text" : "인도", "type" : "LCP_COUNTRY", "begin" : 17, "end" : 17, "weight" : 0.520968, "common_noun" : 0},
		{"id" : 4, "text" : "힌두교", "type" : "OGG_RELIGION", "begin" : 26, "end" : 27, "weight" : 0.567937, "common_noun" : 0}
	],
	"chunk" : [
	],
	"dependency" : [
		{"id" : 0, "text" : "﻿4세기", "head" : 1, "label" : "NP", "mod" : [], "weight" : 0.66404 },
		{"id" : 1, "text" : "초", "head" : 7, "label" : "NP_AJT", "mod" : [0], "weight" : 0.626835 },
		{"id" : 2, "text" : "갠지스", "head" : 3, "label" : "NP", "mod" : [], "weight" : 0.723401 },
		{"id" : 3, "text" : "강", "head" : 4, "label" : "NP", "mod" : [2], "weight" : 0.806702 },
		{"id" : 4, "text" : "유역을", "head" : 5, "label" : "NP_OBJ", "mod" : [3], "weight" : 0.696967 },
		{"id" : 5, "text" : "중심으로", "head" : 7, "label" : "NP_AJT", "mod" : [4], "weight" : 0.622869 },
		{"id" : 6, "text" : "북인도를", "head" : 7, "label" : "NP_OBJ", "mod" : [], "weight" : 0.95777 },
		{"id" : 7, "text" : "지배하던", "head" : 8, "label" : "VP_MOD", "mod" : [1, 5, 6], "weight" : 0.830152 },
		{"id" : 8, "text" : "왕조로", "head" : 13, "label" : "NP_AJT", "mod" : [7], "weight" : 0.73711 },
		{"id" : 9, "text" : "인도", "head" : 10, "label" : "NP", "mod" : [], "weight" : 0.66076 },
		{"id" : 10, "text" : "고전", "head" : 11, "label" : "NP", "mod" : [9], "weight" : 0.702168 },
		{"id" : 11, "text" : "문화의", "head" : 12, "label" : "NP_MOD", "mod" : [10], "weight" : 0.891722 },
		{"id" : 12, "text" : "황금기로", "head" : 13, "label" : "NP_AJT", "mod" : [11], "weight" : 0.951271 },
		{"id" : 13, "text" : "불리며", "head" : 17, "label" : "VP", "mod" : [8, 12], "weight" : 0.665508 },
		{"id" : 14, "text" : "힌두교가", "head" : 17, "label" : "NP_SBJ", "mod" : [], "weight" : 0.923014 },
		{"id" : 15, "text" : "민족", "head" : 16, "label" : "NP", "mod" : [], "weight" : 0.791316 },
		{"id" : 16, "text" : "종교로", "head" : 17, "label" : "NP_AJT", "mod" : [15], "weight" : 0.955039 },
		{"id" : 17, "text" : "발달한", "head" : 18, "label" : "VP_MOD", "mod" : [13, 14, 16], "weight" : 0.831557 },
		{"id" : 18, "text" : "시기는", "head" : 19, "label" : "NP_SBJ", "mod" : [17], "weight" : 0.623286 },
		{"id" : 19, "text" : "언제일까?", "head" : -1, "label" : "VNP", "mod" : [18], "weight" : 0.00404233 }
	],
	"SRL" : [
		{"verb" : "지배", "sense" : 1, "word_id" : 7, "weight" : 0.253769,
			"argument" : [
				{"type" : "ARGM-TMP", "word_id" : 1, "text" : "초", "weight" : 0.269385 },
				{"type" : "ARGM-MNR", "word_id" : 5, "text" : "중심으로", "weight" : 0.149331 },
				{"type" : "ARG1", "word_id" : 6, "text" : "북인도를", "weight" : 0.27097 },
				{"type" : "ARG0", "word_id" : 8, "text" : "왕조로", "weight" : 0.32539 }
			] },
		{"verb" : "불리", "sense" : 2, "word_id" : 13, "weight" : 0.113507,
			"argument" : [
				{"type" : "ARG1", "word_id" : 8, "text" : "왕조로", "weight" : 0.111498 },
				{"type" : "ARG2", "word_id" : 12, "text" : "황금기로", "weight" : 0.115517 }
			] },
		{"verb" : "발달하", "sense" : 1, "word_id" : 17, "weight" : 0.204487,
			"argument" : [
				{"type" : "ARG0", "word_id" : 14, "text" : "힌두교가", "weight" : 0.281889 },
				{"type" : "ARGM-PRD", "word_id" : 16, "text" : "종교로", "weight" : 0.127086 }
			] }
	],
	"relation" : [
	],
	"SA" : [
	],
	"ZA" : [
		{"id" : 0, "verb_wid" : 13, "ant_sid" : -1, "ant_wid" : -1, "type" : "s", "istitle" : 0, "weight" : 0.548169 }
	]
	}
 ],
 "entity" : [
	{"id" : 0, "type" : "OGG_RELIGION", "number" : "singular", "gender" : "", "person" : "", "animacy" : "", "loc" : "인도", 
	 "mention" : [
		{"id" : 0, "sent_id" : 0, "start_eid" : 0, "end_eid" : 18, "ne_id" : -1, "text" : "﻿4세기 초 갠지스 강 유역을 중심으로 북인도를 지배하던 왕조로 인도 고전 문화의 황금기로 불리며 힌두교가 민족 종교로 발달한 시기", "start_eid_short" : 18, "end_eid_short" : 18, "text_short" : "시기", "weight" : 0.002 },
		{"id" : 11, "sent_id" : 0, "start_eid" : 14, "end_eid" : 14, "ne_id" : 4, "text" : "힌두교", "start_eid_short" : 14, "end_eid_short" : 14, "text_short" : "힌두교", "weight" : 0.008 },
		{"id" : 14, "sent_id" : 0, "start_eid" : 18, "end_eid" : 19, "ne_id" : -1, "text" : "언제", "start_eid_short" : 19, "end_eid_short" : 19, "text_short" : "언제이ㄹ까?", "weight" : 0.012 }
	] }
 ]
}

