{"doc_id" : "",
 "DCT" : "",
 "category" : "",
 "category_weight" : 0,
 "title" : {"text" : "", "NE" : ""},
 "metaInfo" : { },
 "sentence" : [
	{
	"id" : 0,
	"reserve_str" : "",
	"text" : "﻿좌표: 북위 37° 52′ 10″ 동경 127° 44′ 39″",
	"morp" : [
		{"id" : 0, "lemma" : "﻿좌표", "type" : "NNP", "position" : 0, "weight" : 0.6 },
		{"id" : 1, "lemma" : ":", "type" : "SP", "position" : 9, "weight" : 1 },
		{"id" : 2, "lemma" : "북위", "type" : "NNG", "position" : 11, "weight" : 0.498632 },
		{"id" : 3, "lemma" : "37", "type" : "SN", "position" : 18, "weight" : 1 },
		{"id" : 4, "lemma" : "°", "type" : "SW", "position" : 20, "weight" : 1 },
		{"id" : 5, "lemma" : "52", "type" : "SN", "position" : 23, "weight" : 1 },
		{"id" : 6, "lemma" : "′", "type" : "SW", "position" : 25, "weight" : 1 },
		{"id" : 7, "lemma" : "10", "type" : "SN", "position" : 29, "weight" : 1 },
		{"id" : 8, "lemma" : "″", "type" : "SW", "position" : 31, "weight" : 1 },
		{"id" : 9, "lemma" : "동경", "type" : "NNG", "position" : 35, "weight" : 0.0943007 },
		{"id" : 10, "lemma" : "127", "type" : "SN", "position" : 42, "weight" : 1 },
		{"id" : 11, "lemma" : "°", "type" : "SW", "position" : 45, "weight" : 1 },
		{"id" : 12, "lemma" : "44", "type" : "SN", "position" : 48, "weight" : 1 },
		{"id" : 13, "lemma" : "′", "type" : "SW", "position" : 50, "weight" : 1 },
		{"id" : 14, "lemma" : "39", "type" : "SN", "position" : 54, "weight" : 1 },
		{"id" : 15, "lemma" : "″", "type" : "SW", "position" : 56, "weight" : 1 }
	],
	"morp_eval" : [
		{"id" : 0, "result" : "﻿좌표/NNG+:/SP", "target" : "﻿좌표:", "word_id" : 0, "m_begin" : 0, "m_end" : 1},
		{"id" : 1, "result" : "북위/NNG", "target" : "북위", "word_id" : 1, "m_begin" : 2, "m_end" : 2},
		{"id" : 2, "result" : "37/SN+°/SW", "target" : "37°", "word_id" : 2, "m_begin" : 3, "m_end" : 4},
		{"id" : 3, "result" : "52/SN+′/SW", "target" : "52′", "word_id" : 3, "m_begin" : 5, "m_end" : 6},
		{"id" : 4, "result" : "10/SN+″/SW", "target" : "10″", "word_id" : 4, "m_begin" : 7, "m_end" : 8},
		{"id" : 5, "result" : "동경/NNG", "target" : "동경", "word_id" : 5, "m_begin" : 9, "m_end" : 9},
		{"id" : 6, "result" : "127/SN+°/SW", "target" : "127°", "word_id" : 6, "m_begin" : 10, "m_end" : 11},
		{"id" : 7, "result" : "44/SN+′/SW", "target" : "44′", "word_id" : 7, "m_begin" : 12, "m_end" : 13},
		{"id" : 8, "result" : "39/SN+″/SW", "target" : "39″", "word_id" : 8, "m_begin" : 14, "m_end" : 15}
	],
	"WSD" : [
		{"id" : 0, "text" : "﻿좌표", "type" : "NNP", "scode" : "00", "weight" : 0, "position" : 0, "begin" : 0, "end" : 0},
		{"id" : 1, "text" : ":", "type" : "SP", "scode" : "00", "weight" : 1, "position" : 9, "begin" : 1, "end" : 1},
		{"id" : 2, "text" : "북위", "type" : "NNG", "scode" : "01", "weight" : 1, "position" : 11, "begin" : 2, "end" : 2},
		{"id" : 3, "text" : "37", "type" : "SN", "scode" : "00", "weight" : 1, "position" : 18, "begin" : 3, "end" : 3},
		{"id" : 4, "text" : "°", "type" : "SW", "scode" : "00", "weight" : 1, "position" : 20, "begin" : 4, "end" : 4},
		{"id" : 5, "text" : "52", "type" : "SN", "scode" : "00", "weight" : 1, "position" : 23, "begin" : 5, "end" : 5},
		{"id" : 6, "text" : "′", "type" : "SW", "scode" : "00", "weight" : 1, "position" : 25, "begin" : 6, "end" : 6},
		{"id" : 7, "text" : "10", "type" : "SN", "scode" : "00", "weight" : 1, "position" : 29, "begin" : 7, "end" : 7},
		{"id" : 8, "text" : "″", "type" : "SW", "scode" : "00", "weight" : 1, "position" : 31, "begin" : 8, "end" : 8},
		{"id" : 9, "text" : "동경", "type" : "NNG", "scode" : "08", "weight" : 1, "position" : 35, "begin" : 9, "end" : 9},
		{"id" : 10, "text" : "127", "type" : "SN", "scode" : "00", "weight" : 1, "position" : 42, "begin" : 10, "end" : 10},
		{"id" : 11, "text" : "°", "type" : "SW", "scode" : "00", "weight" : 1, "position" : 45, "begin" : 11, "end" : 11},
		{"id" : 12, "text" : "44", "type" : "SN", "scode" : "00", "weight" : 1, "position" : 48, "begin" : 12, "end" : 12},
		{"id" : 13, "text" : "′", "type" : "SW", "scode" : "00", "weight" : 1, "position" : 50, "begin" : 13, "end" : 13},
		{"id" : 14, "text" : "39", "type" : "SN", "scode" : "00", "weight" : 1, "position" : 54, "begin" : 14, "end" : 14},
		{"id" : 15, "text" : "″", "type" : "SW", "scode" : "00", "weight" : 1, "position" : 56, "begin" : 15, "end" : 15}
	],
	"word" : [
		{"id" : 0, "text" : "﻿좌표:", "type" : "", "begin" : 0, "end" : 1},
		{"id" : 1, "text" : "북위", "type" : "", "begin" : 2, "end" : 2},
		{"id" : 2, "text" : "37°", "type" : "", "begin" : 3, "end" : 4},
		{"id" : 3, "text" : "52′", "type" : "", "begin" : 5, "end" : 6},
		{"id" : 4, "text" : "10″", "type" : "", "begin" : 7, "end" : 8},
		{"id" : 5, "text" : "동경", "type" : "", "begin" : 9, "end" : 9},
		{"id" : 6, "text" : "127°", "type" : "", "begin" : 10, "end" : 11},
		{"id" : 7, "text" : "44′", "type" : "", "begin" : 12, "end" : 13},
		{"id" : 8, "text" : "39″", "type" : "", "begin" : 14, "end" : 15}
	],
	"NE" : [
		{"id" : 0, "text" : "북위 37° 52′ 10″", "type" : "QT_OTHERS", "begin" : 2, "end" : 8, "weight" : 0.575112, "common_noun" : 0},
		{"id" : 1, "text" : "동경 127° 44′", "type" : "QT_OTHERS", "begin" : 9, "end" : 13, "weight" : 0.425603, "common_noun" : 0},
		{"id" : 2, "text" : "39″", "type" : "QT_OTHERS", "begin" : 14, "end" : 15, "weight" : 0.357209, "common_noun" : 0}
	],
	"chunk" : [
	],
	"dependency" : [
		{"id" : 0, "text" : "﻿좌표:", "head" : 8, "label" : "NP", "mod" : [], "weight" : 0.68192 },
		{"id" : 1, "text" : "북위", "head" : 2, "label" : "NP", "mod" : [], "weight" : 0.715705 },
		{"id" : 2, "text" : "37°", "head" : 3, "label" : "NP", "mod" : [1], "weight" : 0.54927 },
		{"id" : 3, "text" : "52′", "head" : 4, "label" : "NP", "mod" : [2], "weight" : 0.771018 },
		{"id" : 4, "text" : "10″", "head" : 8, "label" : "NP", "mod" : [3], "weight" : 0.409631 },
		{"id" : 5, "text" : "동경", "head" : 6, "label" : "NP", "mod" : [], "weight" : 0.69952 },
		{"id" : 6, "text" : "127°", "head" : 7, "label" : "NP", "mod" : [5], "weight" : 0.694233 },
		{"id" : 7, "text" : "44′", "head" : 8, "label" : "NP", "mod" : [6], "weight" : 0.398619 },
		{"id" : 8, "text" : "39″", "head" : -1, "label" : "NP", "mod" : [0, 4, 7], "weight" : 0.00968561 }
	],
	"SRL" : [
	],
	"relation" : [
	],
	"SA" : [
	],
	"ZA" : [
	]
	},
	{
	"id" : 1,
	"reserve_str" : "",
	"text" : "강원대학교(江原大學校, Kangwon National University)는 강원도춘천시와 삼척시교동, 도계읍에 있는 대한민국의 국립 대학이다.",
	"morp" : [
		{"id" : 0, "lemma" : "강원", "type" : "NNP", "position" : 59, "weight" : 0.00882268 },
		{"id" : 1, "lemma" : "대", "type" : "XPN", "position" : 65, "weight" : 0.000103476 },
		{"id" : 2, "lemma" : "학교", "type" : "NNG", "position" : 68, "weight" : 0.473729 },
		{"id" : 3, "lemma" : "(", "type" : "SS", "position" : 74, "weight" : 1 },
		{"id" : 4, "lemma" : "江原大學校", "type" : "SH", "position" : 75, "weight" : 1 },
		{"id" : 5, "lemma" : ",", "type" : "SP", "position" : 90, "weight" : 1 },
		{"id" : 6, "lemma" : "Kangwon", "type" : "SL", "position" : 92, "weight" : 1 },
		{"id" : 7, "lemma" : "National", "type" : "SL", "position" : 100, "weight" : 1 },
		{"id" : 8, "lemma" : "University", "type" : "SL", "position" : 109, "weight" : 1 },
		{"id" : 9, "lemma" : ")", "type" : "SS", "position" : 119, "weight" : 1 },
		{"id" : 10, "lemma" : "는", "type" : "JX", "position" : 120, "weight" : 0.00823314 },
		{"id" : 11, "lemma" : "강원", "type" : "NNP", "position" : 124, "weight" : 0.00443299 },
		{"id" : 12, "lemma" : "도", "type" : "NNG", "position" : 130, "weight" : 0.00291244 },
		{"id" : 13, "lemma" : "춘천", "type" : "NNP", "position" : 133, "weight" : 0.00701362 },
		{"id" : 14, "lemma" : "시", "type" : "NNG", "position" : 139, "weight" : 0.0529188 },
		{"id" : 15, "lemma" : "와", "type" : "JC", "position" : 142, "weight" : 0.0169714 },
		{"id" : 16, "lemma" : "삼척", "type" : "NNP", "position" : 146, "weight" : 0.06868 },
		{"id" : 17, "lemma" : "시", "type" : "NNG", "position" : 152, "weight" : 0.0529188 },
		{"id" : 18, "lemma" : "교", "type" : "NNP", "position" : 155, "weight" : 0.00070332 },
		{"id" : 19, "lemma" : "동", "type" : "NNG", "position" : 158, "weight" : 0.222075 },
		{"id" : 20, "lemma" : ",", "type" : "SP", "position" : 161, "weight" : 1 },
		{"id" : 21, "lemma" : "도계읍", "type" : "NNP", "position" : 163, "weight" : 0.6 },
		{"id" : 22, "lemma" : "에", "type" : "JKB", "position" : 172, "weight" : 0.0823628 },
		{"id" : 23, "lemma" : "있", "type" : "VA", "position" : 176, "weight" : 0.037292 },
		{"id" : 24, "lemma" : "는", "type" : "ETM", "position" : 179, "weight" : 0.26168 },
		{"id" : 25, "lemma" : "대한민국", "type" : "NNP", "position" : 183, "weight" : 0.0280028 },
		{"id" : 26, "lemma" : "의", "type" : "JKG", "position" : 195, "weight" : 0.0987295 },
		{"id" : 27, "lemma" : "국립", "type" : "NNG", "position" : 199, "weight" : 0.9 },
		{"id" : 28, "lemma" : "대학", "type" : "NNG", "position" : 206, "weight" : 0.184343 },
		{"id" : 29, "lemma" : "이", "type" : "VCP", "position" : 212, "weight" : 0.0177525 },
		{"id" : 30, "lemma" : "다", "type" : "EF", "position" : 215, "weight" : 0.353579 },
		{"id" : 31, "lemma" : ".", "type" : "SF", "position" : 218, "weight" : 1 }
	],
	"morp_eval" : [
		{"id" : 0, "result" : "강원대학교/NNG+(/SS+江原大學校/SH+,/SP", "target" : "강원대학교(江原大學校,", "word_id" : 0, "m_begin" : 0, "m_end" : 5},
		{"id" : 1, "result" : "Kangwon/SL", "target" : "Kangwon", "word_id" : 1, "m_begin" : 6, "m_end" : 6},
		{"id" : 2, "result" : "National/SL", "target" : "National", "word_id" : 2, "m_begin" : 7, "m_end" : 7},
		{"id" : 3, "result" : "University/SL+)/SS+는/JX", "target" : "University)는", "word_id" : 3, "m_begin" : 8, "m_end" : 10},
		{"id" : 4, "result" : "강원도춘천시/NNG+와/JC", "target" : "강원도춘천시와", "word_id" : 4, "m_begin" : 11, "m_end" : 15},
		{"id" : 5, "result" : "삼척시교동/NNG+,/SP", "target" : "삼척시교동,", "word_id" : 5, "m_begin" : 16, "m_end" : 20},
		{"id" : 6, "result" : "도계읍/NNG+에/JKB", "target" : "도계읍에", "word_id" : 6, "m_begin" : 21, "m_end" : 22},
		{"id" : 7, "result" : "있/VA+는/ETM", "target" : "있는", "word_id" : 7, "m_begin" : 23, "m_end" : 24},
		{"id" : 8, "result" : "대한민국/NNG+의/JKG", "target" : "대한민국의", "word_id" : 8, "m_begin" : 25, "m_end" : 26},
		{"id" : 9, "result" : "국립/NNG", "target" : "국립", "word_id" : 9, "m_begin" : 27, "m_end" : 27},
		{"id" : 10, "result" : "대학/NNG+이/VCP+다/EF+./SF", "target" : "대학이다.", "word_id" : 10, "m_begin" : 28, "m_end" : 31}
	],
	"WSD" : [
		{"id" : 0, "text" : "강원", "type" : "NNP", "scode" : "00", "weight" : 1, "position" : 59, "begin" : 0, "end" : 0},
		{"id" : 1, "text" : "대학교", "type" : "NNG", "scode" : "00", "weight" : 1, "position" : 65, "begin" : 1, "end" : 2},
		{"id" : 2, "text" : "(", "type" : "SS", "scode" : "00", "weight" : 1, "position" : 74, "begin" : 3, "end" : 3},
		{"id" : 3, "text" : "江原大學校", "type" : "SH", "scode" : "00", "weight" : 1, "position" : 75, "begin" : 4, "end" : 4},
		{"id" : 4, "text" : ",", "type" : "SP", "scode" : "00", "weight" : 1, "position" : 90, "begin" : 5, "end" : 5},
		{"id" : 5, "text" : "Kangwon", "type" : "SL", "scode" : "00", "weight" : 1, "position" : 92, "begin" : 6, "end" : 6},
		{"id" : 6, "text" : "National", "type" : "SL", "scode" : "00", "weight" : 1, "position" : 100, "begin" : 7, "end" : 7},
		{"id" : 7, "text" : "University", "type" : "SL", "scode" : "00", "weight" : 1, "position" : 109, "begin" : 8, "end" : 8},
		{"id" : 8, "text" : ")", "type" : "SS", "scode" : "00", "weight" : 1, "position" : 119, "begin" : 9, "end" : 9},
		{"id" : 9, "text" : "는", "type" : "JX", "scode" : "00", "weight" : 1, "position" : 120, "begin" : 10, "end" : 10},
		{"id" : 10, "text" : "강원도", "type" : "NNP", "scode" : "01", "weight" : 1, "position" : 124, "begin" : 11, "end" : 12},
		{"id" : 11, "text" : "춘천", "type" : "NNP", "scode" : "01", "weight" : 1, "position" : 133, "begin" : 13, "end" : 13},
		{"id" : 12, "text" : "시", "type" : "NNG", "scode" : "13", "weight" : 1, "position" : 139, "begin" : 14, "end" : 14},
		{"id" : 13, "text" : "와", "type" : "JC", "scode" : "00", "weight" : 1, "position" : 142, "begin" : 15, "end" : 15},
		{"id" : 14, "text" : "삼척", "type" : "NNP", "scode" : "02", "weight" : 1, "position" : 146, "begin" : 16, "end" : 16},
		{"id" : 15, "text" : "시", "type" : "NNG", "scode" : "13", "weight" : 1, "position" : 152, "begin" : 17, "end" : 17},
		{"id" : 16, "text" : "교동", "type" : "NNP", "scode" : "00", "weight" : 1, "position" : 155, "begin" : 18, "end" : 19},
		{"id" : 17, "text" : ",", "type" : "SP", "scode" : "00", "weight" : 1, "position" : 161, "begin" : 20, "end" : 20},
		{"id" : 18, "text" : "도계읍", "type" : "NNP", "scode" : "00", "weight" : 1, "position" : 163, "begin" : 21, "end" : 21},
		{"id" : 19, "text" : "에", "type" : "JKB", "scode" : "00", "weight" : 1, "position" : 172, "begin" : 22, "end" : 22},
		{"id" : 20, "text" : "있", "type" : "VA", "scode" : "01", "weight" : 1, "position" : 176, "begin" : 23, "end" : 23},
		{"id" : 21, "text" : "는", "type" : "ETM", "scode" : "00", "weight" : 1, "position" : 179, "begin" : 24, "end" : 24},
		{"id" : 22, "text" : "대한민국", "type" : "NNP", "scode" : "00", "weight" : 1, "position" : 183, "begin" : 25, "end" : 25},
		{"id" : 23, "text" : "의", "type" : "JKG", "scode" : "00", "weight" : 1, "position" : 195, "begin" : 26, "end" : 26},
		{"id" : 24, "text" : "국립", "type" : "NNG", "scode" : "00", "weight" : 1, "position" : 199, "begin" : 27, "end" : 27},
		{"id" : 25, "text" : "대학", "type" : "NNG", "scode" : "01", "weight" : 1, "position" : 206, "begin" : 28, "end" : 28},
		{"id" : 26, "text" : "이", "type" : "VCP", "scode" : "00", "weight" : 1, "position" : 212, "begin" : 29, "end" : 29},
		{"id" : 27, "text" : "다", "type" : "EF", "scode" : "00", "weight" : 1, "position" : 215, "begin" : 30, "end" : 30},
		{"id" : 28, "text" : ".", "type" : "SF", "scode" : "00", "weight" : 1, "position" : 218, "begin" : 31, "end" : 31}
	],
	"word" : [
		{"id" : 0, "text" : "강원대학교(江原大學校,", "type" : "", "begin" : 0, "end" : 5},
		{"id" : 1, "text" : "Kangwon", "type" : "", "begin" : 6, "end" : 6},
		{"id" : 2, "text" : "National", "type" : "", "begin" : 7, "end" : 7},
		{"id" : 3, "text" : "University)는", "type" : "", "begin" : 8, "end" : 10},
		{"id" : 4, "text" : "강원도춘천시와", "type" : "", "begin" : 11, "end" : 15},
		{"id" : 5, "text" : "삼척시교동,", "type" : "", "begin" : 16, "end" : 20},
		{"id" : 6, "text" : "도계읍에", "type" : "", "begin" : 21, "end" : 22},
		{"id" : 7, "text" : "있는", "type" : "", "begin" : 23, "end" : 24},
		{"id" : 8, "text" : "대한민국의", "type" : "", "begin" : 25, "end" : 26},
		{"id" : 9, "text" : "국립", "type" : "", "begin" : 27, "end" : 27},
		{"id" : 10, "text" : "대학이다.", "type" : "", "begin" : 28, "end" : 31}
	],
	"NE" : [
		{"id" : 0, "text" : "강원대학교", "type" : "OGG_EDUCATION", "begin" : 0, "end" : 2, "weight" : 0.809453, "common_noun" : 0},
		{"id" : 1, "text" : "江原大學校", "type" : "OGG_EDUCATION", "begin" : 4, "end" : 4, "weight" : 0.115966, "common_noun" : 0},
		{"id" : 2, "text" : "Kangwon National University", "type" : "OGG_EDUCATION", "begin" : 6, "end" : 8, "weight" : 0.365812, "common_noun" : 0},
		{"id" : 3, "text" : "강원도", "type" : "LCP_PROVINCE", "begin" : 11, "end" : 12, "weight" : 0.44494, "common_noun" : 0},
		{"id" : 4, "text" : "춘천시", "type" : "LCP_CITY", "begin" : 13, "end" : 14, "weight" : 0.332144, "common_noun" : 0},
		{"id" : 5, "text" : "삼척시", "type" : "LCP_CITY", "begin" : 16, "end" : 17, "weight" : 0.612724, "common_noun" : 0},
		{"id" : 6, "text" : "교동", "type" : "LCP_COUNTY", "begin" : 18, "end" : 19, "weight" : 0.342472, "common_noun" : 0},
		{"id" : 7, "text" : "도계읍", "type" : "LCP_COUNTY", "begin" : 21, "end" : 21, "weight" : 0.368586, "common_noun" : 0},
		{"id" : 8, "text" : "대한민국", "type" : "LCP_COUNTRY", "begin" : 25, "end" : 25, "weight" : 0.414067, "common_noun" : 0}
	],
	"chunk" : [
	],
	"dependency" : [
		{"id" : 0, "text" : "강원대학교(江原大學校,", "head" : 3, "label" : "NP", "mod" : [], "weight" : 0.778709 },
		{"id" : 1, "text" : "Kangwon", "head" : 2, "label" : "NP", "mod" : [], "weight" : 0.681174 },
		{"id" : 2, "text" : "National", "head" : 3, "label" : "NP", "mod" : [1], "weight" : 0.74079 },
		{"id" : 3, "text" : "University)는", "head" : 10, "label" : "NP_SBJ", "mod" : [0, 2], "weight" : 0.614063 },
		{"id" : 4, "text" : "강원도춘천시와", "head" : 5, "label" : "NP_CNJ", "mod" : [], "weight" : 0.741077 },
		{"id" : 5, "text" : "삼척시교동,", "head" : 7, "label" : "NP_AJT", "mod" : [4], "weight" : 0.785939 },
		{"id" : 6, "text" : "도계읍에", "head" : 7, "label" : "NP_AJT", "mod" : [], "weight" : 0.549902 },
		{"id" : 7, "text" : "있는", "head" : 10, "label" : "VP_MOD", "mod" : [5, 6], "weight" : 0.585337 },
		{"id" : 8, "text" : "대한민국의", "head" : 10, "label" : "NP_MOD", "mod" : [], "weight" : 0.478995 },
		{"id" : 9, "text" : "국립", "head" : 10, "label" : "NP", "mod" : [], "weight" : 0.431134 },
		{"id" : 10, "text" : "대학이다.", "head" : -1, "label" : "VNP", "mod" : [3, 7, 8, 9], "weight" : 0.00563433 }
	],
	"SRL" : [
		{"verb" : "있", "sense" : 1, "word_id" : 7, "weight" : 0.2232,
			"argument" : [
				{"type" : "ARG2", "word_id" : 6, "text" : "도계읍에", "weight" : 0.2232 }
			] }
	],
	"relation" : [
	],
	"SA" : [
	],
	"ZA" : [
	]
	},
	{
	"id" : 2,
	"reserve_str" : "",
	"text" : "1947년 개교한 이래 총 21개 단과대학이 개설되어 있으며 사범대학 부설고등학교를 두고있다.",
	"morp" : [
		{"id" : 0, "lemma" : "1947", "type" : "SN", "position" : 219, "weight" : 1 },
		{"id" : 1, "lemma" : "년", "type" : "NNB", "position" : 223, "weight" : 0.414343 },
		{"id" : 2, "lemma" : "개교", "type" : "NNG", "position" : 227, "weight" : 0.9 },
		{"id" : 3, "lemma" : "하", "type" : "XSV", "position" : 233, "weight" : 0.0001 },
		{"id" : 4, "lemma" : "ㄴ", "type" : "ETM", "position" : 233, "weight" : 0.392321 },
		{"id" : 5, "lemma" : "이래", "type" : "NNB", "position" : 237, "weight" : 0.226664 },
		{"id" : 6, "lemma" : "총", "type" : "MM", "position" : 244, "weight" : 0.00115246 },
		{"id" : 7, "lemma" : "21", "type" : "SN", "position" : 248, "weight" : 1 },
		{"id" : 8, "lemma" : "개", "type" : "NNB", "position" : 250, "weight" : 0.363274 },
		{"id" : 9, "lemma" : "단과", "type" : "NNG", "position" : 254, "weight" : 0.9 },
		{"id" : 10, "lemma" : "대학", "type" : "NNG", "position" : 260, "weight" : 0.184343 },
		{"id" : 11, "lemma" : "이", "type" : "JKS", "position" : 266, "weight" : 0.0360723 },
		{"id" : 12, "lemma" : "개설", "type" : "NNG", "position" : 270, "weight" : 0.9 },
		{"id" : 13, "lemma" : "되", "type" : "XSV", "position" : 276, "weight" : 0.000224177 },
		{"id" : 14, "lemma" : "어", "type" : "EC", "position" : 279, "weight" : 0.361326 },
		{"id" : 15, "lemma" : "있", "type" : "VX", "position" : 283, "weight" : 0.125953 },
		{"id" : 16, "lemma" : "으며", "type" : "EC", "position" : 286, "weight" : 0.265281 },
		{"id" : 17, "lemma" : "사범", "type" : "NNG", "position" : 293, "weight" : 0.9 },
		{"id" : 18, "lemma" : "대학", "type" : "NNG", "position" : 299, "weight" : 0.184343 },
		{"id" : 19, "lemma" : "부설", "type" : "NNG", "position" : 306, "weight" : 0.9 },
		{"id" : 20, "lemma" : "고등", "type" : "NNG", "position" : 312, "weight" : 0.9 },
		{"id" : 21, "lemma" : "학교", "type" : "NNG", "position" : 318, "weight" : 0.184769 },
		{"id" : 22, "lemma" : "를", "type" : "JKO", "position" : 324, "weight" : 0.137686 },
		{"id" : 23, "lemma" : "두", "type" : "VV", "position" : 328, "weight" : 0.192556 },
		{"id" : 24, "lemma" : "고", "type" : "EC", "position" : 331, "weight" : 0.416679 },
		{"id" : 25, "lemma" : "있", "type" : "VX", "position" : 334, "weight" : 0.125953 },
		{"id" : 26, "lemma" : "다", "type" : "EF", "position" : 337, "weight" : 0.180366 },
		{"id" : 27, "lemma" : ".", "type" : "SF", "position" : 340, "weight" : 1 }
	],
	"morp_eval" : [
		{"id" : 0, "result" : "1947/SN+년/NNB", "target" : "1947년", "word_id" : 0, "m_begin" : 0, "m_end" : 1},
		{"id" : 1, "result" : "개교하/VV+ㄴ/ETM", "target" : "개교한", "word_id" : 1, "m_begin" : 2, "m_end" : 4},
		{"id" : 2, "result" : "이래/NNB", "target" : "이래", "word_id" : 2, "m_begin" : 5, "m_end" : 5},
		{"id" : 3, "result" : "총/MM", "target" : "총", "word_id" : 3, "m_begin" : 6, "m_end" : 6},
		{"id" : 4, "result" : "21/SN+개/NNB", "target" : "21개", "word_id" : 4, "m_begin" : 7, "m_end" : 8},
		{"id" : 5, "result" : "단과대학/NNG+이/JKS", "target" : "단과대학이", "word_id" : 5, "m_begin" : 9, "m_end" : 11},
		{"id" : 6, "result" : "개설되/VV+어/EC", "target" : "개설되어", "word_id" : 6, "m_begin" : 12, "m_end" : 14},
		{"id" : 7, "result" : "있/VX+으며/EC", "target" : "있으며", "word_id" : 7, "m_begin" : 15, "m_end" : 16},
		{"id" : 8, "result" : "사범대학/NNG", "target" : "사범대학", "word_id" : 8, "m_begin" : 17, "m_end" : 18},
		{"id" : 9, "result" : "부설고등학교/NNG+를/JKO", "target" : "부설고등학교를", "word_id" : 9, "m_begin" : 19, "m_end" : 22},
		{"id" : 10, "result" : "두/VV+고/EC+있/VX+다/EF+./SF", "target" : "두고있다.", "word_id" : 10, "m_begin" : 23, "m_end" : 27}
	],
	"WSD" : [
		{"id" : 0, "text" : "1947", "type" : "SN", "scode" : "00", "weight" : 1, "position" : 219, "begin" : 0, "end" : 0},
		{"id" : 1, "text" : "년", "type" : "NNB", "scode" : "02", "weight" : 1, "position" : 223, "begin" : 1, "end" : 1},
		{"id" : 2, "text" : "개교하", "type" : "VV", "scode" : "02", "weight" : 1, "position" : 227, "begin" : 2, "end" : 3},
		{"id" : 3, "text" : "ㄴ", "type" : "ETM", "scode" : "00", "weight" : 1, "position" : 233, "begin" : 4, "end" : 4},
		{"id" : 4, "text" : "이래", "type" : "NNB", "scode" : "03", "weight" : 1, "position" : 237, "begin" : 5, "end" : 5},
		{"id" : 5, "text" : "총", "type" : "MM", "scode" : "06", "weight" : 1, "position" : 244, "begin" : 6, "end" : 6},
		{"id" : 6, "text" : "21", "type" : "SN", "scode" : "00", "weight" : 1, "position" : 248, "begin" : 7, "end" : 7},
		{"id" : 7, "text" : "개", "type" : "NNB", "scode" : "10", "weight" : 1, "position" : 250, "begin" : 8, "end" : 8},
		{"id" : 8, "text" : "단과대학", "type" : "NNG", "scode" : "00", "weight" : 0, "position" : 254, "begin" : 9, "end" : 10},
		{"id" : 9, "text" : "이", "type" : "JKS", "scode" : "00", "weight" : 1, "position" : 266, "begin" : 11, "end" : 11},
		{"id" : 10, "text" : "개설되", "type" : "VV", "scode" : "00", "weight" : 1, "position" : 270, "begin" : 12, "end" : 13},
		{"id" : 11, "text" : "어", "type" : "EC", "scode" : "00", "weight" : 1, "position" : 279, "begin" : 14, "end" : 14},
		{"id" : 12, "text" : "있", "type" : "VX", "scode" : "01", "weight" : 1, "position" : 283, "begin" : 15, "end" : 15},
		{"id" : 13, "text" : "으며", "type" : "EC", "scode" : "00", "weight" : 1, "position" : 286, "begin" : 16, "end" : 16},
		{"id" : 14, "text" : "사범대학", "type" : "NNG", "scode" : "00", "weight" : 0, "position" : 293, "begin" : 17, "end" : 18},
		{"id" : 15, "text" : "부설", "type" : "NNG", "scode" : "01", "weight" : 1, "position" : 306, "begin" : 19, "end" : 19},
		{"id" : 16, "text" : "고등학교", "type" : "NNG", "scode" : "00", "weight" : 1, "position" : 312, "begin" : 20, "end" : 21},
		{"id" : 17, "text" : "를", "type" : "JKO", "scode" : "00", "weight" : 1, "position" : 324, "begin" : 22, "end" : 22},
		{"id" : 18, "text" : "두", "type" : "VV", "scode" : "01", "weight" : 1, "position" : 328, "begin" : 23, "end" : 23},
		{"id" : 19, "text" : "고", "type" : "EC", "scode" : "00", "weight" : 1, "position" : 331, "begin" : 24, "end" : 24},
		{"id" : 20, "text" : "있", "type" : "VX", "scode" : "01", "weight" : 1, "position" : 334, "begin" : 25, "end" : 25},
		{"id" : 21, "text" : "다", "type" : "EF", "scode" : "00", "weight" : 1, "position" : 337, "begin" : 26, "end" : 26},
		{"id" : 22, "text" : ".", "type" : "SF", "scode" : "00", "weight" : 1, "position" : 340, "begin" : 27, "end" : 27}
	],
	"word" : [
		{"id" : 0, "text" : "1947년", "type" : "", "begin" : 0, "end" : 1},
		{"id" : 1, "text" : "개교한", "type" : "", "begin" : 2, "end" : 4},
		{"id" : 2, "text" : "이래", "type" : "", "begin" : 5, "end" : 5},
		{"id" : 3, "text" : "총", "type" : "", "begin" : 6, "end" : 6},
		{"id" : 4, "text" : "21개", "type" : "", "begin" : 7, "end" : 8},
		{"id" : 5, "text" : "단과대학이", "type" : "", "begin" : 9, "end" : 11},
		{"id" : 6, "text" : "개설되어", "type" : "", "begin" : 12, "end" : 14},
		{"id" : 7, "text" : "있으며", "type" : "", "begin" : 15, "end" : 16},
		{"id" : 8, "text" : "사범대학", "type" : "", "begin" : 17, "end" : 18},
		{"id" : 9, "text" : "부설고등학교를", "type" : "", "begin" : 19, "end" : 22},
		{"id" : 10, "text" : "두고있다.", "type" : "", "begin" : 23, "end" : 27}
	],
	"NE" : [
		{"id" : 0, "text" : "1947년", "type" : "DT_YEAR", "begin" : 0, "end" : 1, "weight" : 0.61837, "common_noun" : 0},
		{"id" : 1, "text" : "21개", "type" : "QT_COUNT", "begin" : 7, "end" : 8, "weight" : 0.668218, "common_noun" : 0}
	],
	"chunk" : [
	],
	"dependency" : [
		{"id" : 0, "text" : "1947년", "head" : 1, "label" : "NP_AJT", "mod" : [], "weight" : 0.774429 },
		{"id" : 1, "text" : "개교한", "head" : 2, "label" : "VP_MOD", "mod" : [0], "weight" : 0.72326 },
		{"id" : 2, "text" : "이래", "head" : 6, "label" : "NP_AJT", "mod" : [1], "weight" : 0.937667 },
		{"id" : 3, "text" : "총", "head" : 5, "label" : "DP", "mod" : [], "weight" : 0.841242 },
		{"id" : 4, "text" : "21개", "head" : 5, "label" : "NP", "mod" : [], "weight" : 0.765191 },
		{"id" : 5, "text" : "단과대학이", "head" : 6, "label" : "NP_SBJ", "mod" : [3, 4], "weight" : 0.813319 },
		{"id" : 6, "text" : "개설되어", "head" : 7, "label" : "VP", "mod" : [2, 5], "weight" : 0.678007 },
		{"id" : 7, "text" : "있으며", "head" : 10, "label" : "VP", "mod" : [6], "weight" : 0.680155 },
		{"id" : 8, "text" : "사범대학", "head" : 9, "label" : "NP", "mod" : [], "weight" : 0.959462 },
		{"id" : 9, "text" : "부설고등학교를", "head" : 10, "label" : "NP_OBJ", "mod" : [8], "weight" : 0.523634 },
		{"id" : 10, "text" : "두고있다.", "head" : -1, "label" : "VP", "mod" : [7, 9], "weight" : 0.0474124 }
	],
	"SRL" : [
		{"verb" : "개교", "sense" : 1, "word_id" : 1, "weight" : 0.159451,
			"argument" : [
				{"type" : "ARGM-TMP", "word_id" : 0, "text" : "1947년", "weight" : 0.159451 }
			] },
		{"verb" : "개설", "sense" : 1, "word_id" : 6, "weight" : 0.322815,
			"argument" : [
				{"type" : "ARGM-TMP", "word_id" : 2, "text" : "이래", "weight" : 0.198144 },
				{"type" : "ARG1", "word_id" : 5, "text" : "단과대학이", "weight" : 0.18144 },
				{"type" : "AUX", "word_id" : 7, "text" : "있으며", "weight" : 0.58886 }
			] },
		{"verb" : "두", "sense" : 1, "word_id" : 10, "weight" : 0.304906,
			"argument" : [
				{"type" : "ARG1", "word_id" : 9, "text" : "부설고등학교를", "weight" : 0.304906 }
			] }
	],
	"relation" : [
	],
	"SA" : [
	],
	"ZA" : [
		{"id" : 0, "verb_wid" : 10, "ant_sid" : 1, "ant_wid" : 3, "type" : "s", "istitle" : 0, "weight" : 0.305232 }
	]
	},
	{
	"id" : 3,
	"reserve_str" : "",
	"text" : "국문 약칭으로는 강대(江大)라고 부르며 영문 이니셜은 KNU이다.",
	"morp" : [
		{"id" : 0, "lemma" : "국문", "type" : "NNG", "position" : 341, "weight" : 0.9 },
		{"id" : 1, "lemma" : "약칭", "type" : "NNG", "position" : 348, "weight" : 0.9 },
		{"id" : 2, "lemma" : "으로", "type" : "JKB", "position" : 354, "weight" : 0.153406 },
		{"id" : 3, "lemma" : "는", "type" : "JX", "position" : 360, "weight" : 0.0387928 },
		{"id" : 4, "lemma" : "강대", "type" : "NNG", "position" : 364, "weight" : 0.295383 },
		{"id" : 5, "lemma" : "(", "type" : "SS", "position" : 370, "weight" : 1 },
		{"id" : 6, "lemma" : "江大", "type" : "SH", "position" : 371, "weight" : 1 },
		{"id" : 7, "lemma" : ")", "type" : "SS", "position" : 377, "weight" : 1 },
		{"id" : 8, "lemma" : "라고", "type" : "JKQ", "position" : 378, "weight" : 0.00318431 },
		{"id" : 9, "lemma" : "부르", "type" : "VV", "position" : 385, "weight" : 0.832797 },
		{"id" : 10, "lemma" : "며", "type" : "EC", "position" : 391, "weight" : 0.429701 },
		{"id" : 11, "lemma" : "영문", "type" : "NNG", "position" : 395, "weight" : 0.9 },
		{"id" : 12, "lemma" : "이니셜", "type" : "NNG", "position" : 402, "weight" : 0.2 },
		{"id" : 13, "lemma" : "은", "type" : "JX", "position" : 411, "weight" : 0.0449928 },
		{"id" : 14, "lemma" : "KNU", "type" : "SL", "position" : 415, "weight" : 1 },
		{"id" : 15, "lemma" : "이", "type" : "VCP", "position" : 418, "weight" : 0.0209823 },
		{"id" : 16, "lemma" : "다", "type" : "EF", "position" : 421, "weight" : 0.353579 },
		{"id" : 17, "lemma" : ".", "type" : "SF", "position" : 424, "weight" : 1 }
	],
	"morp_eval" : [
		{"id" : 0, "result" : "국문/NNG", "target" : "국문", "word_id" : 0, "m_begin" : 0, "m_end" : 0},
		{"id" : 1, "result" : "약칭/NNG+으로/JKB+는/JX", "target" : "약칭으로는", "word_id" : 1, "m_begin" : 1, "m_end" : 3},
		{"id" : 2, "result" : "강대/NNG+(/SS+江大/SH+)/SS+라고/JKQ", "target" : "강대(江大)라고", "word_id" : 2, "m_begin" : 4, "m_end" : 8},
		{"id" : 3, "result" : "부르/VV+며/EC", "target" : "부르며", "word_id" : 3, "m_begin" : 9, "m_end" : 10},
		{"id" : 4, "result" : "영문/NNG", "target" : "영문", "word_id" : 4, "m_begin" : 11, "m_end" : 11},
		{"id" : 5, "result" : "이니셜/NNG+은/JX", "target" : "이니셜은", "word_id" : 5, "m_begin" : 12, "m_end" : 13},
		{"id" : 6, "result" : "KNU/SL+이/VCP+다/EF+./SF", "target" : "KNU이다.", "word_id" : 6, "m_begin" : 14, "m_end" : 17}
	],
	"WSD" : [
		{"id" : 0, "text" : "국문", "type" : "NNG", "scode" : "01", "weight" : 1, "position" : 341, "begin" : 0, "end" : 0},
		{"id" : 1, "text" : "약칭", "type" : "NNG", "scode" : "01", "weight" : 1, "position" : 348, "begin" : 1, "end" : 1},
		{"id" : 2, "text" : "으로", "type" : "JKB", "scode" : "00", "weight" : 1, "position" : 354, "begin" : 2, "end" : 2},
		{"id" : 3, "text" : "는", "type" : "JX", "scode" : "00", "weight" : 1, "position" : 360, "begin" : 3, "end" : 3},
		{"id" : 4, "text" : "강대", "type" : "NNG", "scode" : "05", "weight" : 1, "position" : 364, "begin" : 4, "end" : 4},
		{"id" : 5, "text" : "(", "type" : "SS", "scode" : "00", "weight" : 1, "position" : 370, "begin" : 5, "end" : 5},
		{"id" : 6, "text" : "江大", "type" : "SH", "scode" : "00", "weight" : 1, "position" : 371, "begin" : 6, "end" : 6},
		{"id" : 7, "text" : ")", "type" : "SS", "scode" : "00", "weight" : 1, "position" : 377, "begin" : 7, "end" : 7},
		{"id" : 8, "text" : "라고", "type" : "JKQ", "scode" : "00", "weight" : 1, "position" : 378, "begin" : 8, "end" : 8},
		{"id" : 9, "text" : "부르", "type" : "VV", "scode" : "01", "weight" : 1, "position" : 385, "begin" : 9, "end" : 9},
		{"id" : 10, "text" : "며", "type" : "EC", "scode" : "00", "weight" : 1, "position" : 391, "begin" : 10, "end" : 10},
		{"id" : 11, "text" : "영문", "type" : "NNG", "scode" : "03", "weight" : 1, "position" : 395, "begin" : 11, "end" : 11},
		{"id" : 12, "text" : "이니셜", "type" : "NNG", "scode" : "00", "weight" : 1, "position" : 402, "begin" : 12, "end" : 12},
		{"id" : 13, "text" : "은", "type" : "JX", "scode" : "00", "weight" : 1, "position" : 411, "begin" : 13, "end" : 13},
		{"id" : 14, "text" : "KNU", "type" : "SL", "scode" : "00", "weight" : 1, "position" : 415, "begin" : 14, "end" : 14},
		{"id" : 15, "text" : "이", "type" : "VCP", "scode" : "00", "weight" : 1, "position" : 418, "begin" : 15, "end" : 15},
		{"id" : 16, "text" : "다", "type" : "EF", "scode" : "00", "weight" : 1, "position" : 421, "begin" : 16, "end" : 16},
		{"id" : 17, "text" : ".", "type" : "SF", "scode" : "00", "weight" : 1, "position" : 424, "begin" : 17, "end" : 17}
	],
	"word" : [
		{"id" : 0, "text" : "국문", "type" : "", "begin" : 0, "end" : 0},
		{"id" : 1, "text" : "약칭으로는", "type" : "", "begin" : 1, "end" : 3},
		{"id" : 2, "text" : "강대(江大)라고", "type" : "", "begin" : 4, "end" : 8},
		{"id" : 3, "text" : "부르며", "type" : "", "begin" : 9, "end" : 10},
		{"id" : 4, "text" : "영문", "type" : "", "begin" : 11, "end" : 11},
		{"id" : 5, "text" : "이니셜은", "type" : "", "begin" : 12, "end" : 13},
		{"id" : 6, "text" : "KNU이다.", "type" : "", "begin" : 14, "end" : 17}
	],
	"NE" : [
		{"id" : 0, "text" : "영문", "type" : "CV_LANGUAGE", "begin" : 11, "end" : 11, "weight" : 0.225383, "common_noun" : 0},
		{"id" : 1, "text" : "KNU", "type" : "TMI_HW", "begin" : 14, "end" : 14, "weight" : 0.136062, "common_noun" : 0}
	],
	"chunk" : [
	],
	"dependency" : [
		{"id" : 0, "text" : "국문", "head" : 1, "label" : "NP", "mod" : [], "weight" : 0.729065 },
		{"id" : 1, "text" : "약칭으로는", "head" : 2, "label" : "NP_AJT", "mod" : [0], "weight" : 0.816075 },
		{"id" : 2, "text" : "강대(江大)라고", "head" : 3, "label" : "VNP_CMP", "mod" : [1], "weight" : 0.647919 },
		{"id" : 3, "text" : "부르며", "head" : 6, "label" : "VP", "mod" : [2], "weight" : 0.642105 },
		{"id" : 4, "text" : "영문", "head" : 5, "label" : "NP", "mod" : [], "weight" : 0.953689 },
		{"id" : 5, "text" : "이니셜은", "head" : 6, "label" : "NP_SBJ", "mod" : [4], "weight" : 0.505091 },
		{"id" : 6, "text" : "KNU이다.", "head" : -1, "label" : "VNP", "mod" : [3, 5], "weight" : 0.0826761 }
	],
	"SRL" : [
		{"verb" : "부르", "sense" : 1, "word_id" : 3, "weight" : 0.100127,
			"argument" : [
				{"type" : "ARG1", "word_id" : 2, "text" : "강대(江大)라고", "weight" : 0.100127 }
			] }
	],
	"relation" : [
	],
	"SA" : [
	],
	"ZA" : [
		{"id" : 0, "verb_wid" : 3, "ant_sid" : -1, "ant_wid" : -1, "type" : "s", "istitle" : 0, "weight" : 0.750822 }
	]
	},
	{
	"id" : 4,
	"reserve_str" : "",
	"text" : "강원도를 대표하는 지방 거점 국립대이며 강원도에서 유일하게 로스쿨과 의학전문대학원, 수의과대학, 약학대학이 설치되어 있는 대학이다.",
	"morp" : [
		{"id" : 0, "lemma" : "강원도", "type" : "NNP", "position" : 425, "weight" : 0.9 },
		{"id" : 1, "lemma" : "를", "type" : "JKO", "position" : 434, "weight" : 0.0283046 },
		{"id" : 2, "lemma" : "대표", "type" : "NNG", "position" : 438, "weight" : 0.9 },
		{"id" : 3, "lemma" : "하", "type" : "XSV", "position" : 444, "weight" : 0.0001 },
		{"id" : 4, "lemma" : "는", "type" : "ETM", "position" : 447, "weight" : 0.238503 },
		{"id" : 5, "lemma" : "지방", "type" : "NNG", "position" : 451, "weight" : 0.9 },
		{"id" : 6, "lemma" : "거점", "type" : "NNG", "position" : 458, "weight" : 0.9 },
		{"id" : 7, "lemma" : "국립", "type" : "NNG", "position" : 465, "weight" : 0.9 },
		{"id" : 8, "lemma" : "대", "type" : "NNG", "position" : 471, "weight" : 0.0277971 },
		{"id" : 9, "lemma" : "이", "type" : "VCP", "position" : 474, "weight" : 0.0177525 },
		{"id" : 10, "lemma" : "며", "type" : "EC", "position" : 477, "weight" : 0.250555 },
		{"id" : 11, "lemma" : "강원도", "type" : "NNP", "position" : 481, "weight" : 0.9 },
		{"id" : 12, "lemma" : "에서", "type" : "JKB", "position" : 490, "weight" : 0.0823859 },
		{"id" : 13, "lemma" : "유일", "type" : "NNG", "position" : 497, "weight" : 0.201203 },
		{"id" : 14, "lemma" : "하", "type" : "XSA", "position" : 503, "weight" : 0.0001 },
		{"id" : 15, "lemma" : "게", "type" : "EC", "position" : 506, "weight" : 0.362254 },
		{"id" : 16, "lemma" : "로스쿨", "type" : "NNG", "position" : 510, "weight" : 0.05 },
		{"id" : 17, "lemma" : "과", "type" : "JC", "position" : 519, "weight" : 0.017569 },
		{"id" : 18, "lemma" : "의학", "type" : "NNG", "position" : 523, "weight" : 0.9 },
		{"id" : 19, "lemma" : "전문", "type" : "NNG", "position" : 529, "weight" : 0.184561 },
		{"id" : 20, "lemma" : "대학", "type" : "NNG", "position" : 535, "weight" : 0.184343 },
		{"id" : 21, "lemma" : "원", "type" : "XSN", "position" : 541, "weight" : 0.00350502 },
		{"id" : 22, "lemma" : ",", "type" : "SP", "position" : 544, "weight" : 1 },
		{"id" : 23, "lemma" : "수의", "type" : "NNG", "position" : 546, "weight" : 0.9 },
		{"id" : 24, "lemma" : "과", "type" : "NNG", "position" : 552, "weight" : 0.00367646 },
		{"id" : 25, "lemma" : "대학", "type" : "NNG", "position" : 555, "weight" : 0.184343 },
		{"id" : 26, "lemma" : ",", "type" : "SP", "position" : 561, "weight" : 1 },
		{"id" : 27, "lemma" : "약학", "type" : "NNG", "position" : 563, "weight" : 0.9 },
		{"id" : 28, "lemma" : "대학", "type" : "NNG", "position" : 569, "weight" : 0.184343 },
		{"id" : 29, "lemma" : "이", "type" : "JKS", "position" : 575, "weight" : 0.0360723 },
		{"id" : 30, "lemma" : "설치", "type" : "NNG", "position" : 579, "weight" : 0.154717 },
		{"id" : 31, "lemma" : "되", "type" : "XSV", "position" : 585, "weight" : 0.000224177 },
		{"id" : 32, "lemma" : "어", "type" : "EC", "position" : 588, "weight" : 0.361326 },
		{"id" : 33, "lemma" : "있", "type" : "VX", "position" : 592, "weight" : 0.125953 },
		{"id" : 34, "lemma" : "는", "type" : "ETM", "position" : 595, "weight" : 0.183966 },
		{"id" : 35, "lemma" : "대학", "type" : "NNG", "position" : 599, "weight" : 0.657071 },
		{"id" : 36, "lemma" : "이", "type" : "VCP", "position" : 605, "weight" : 0.0177525 },
		{"id" : 37, "lemma" : "다", "type" : "EF", "position" : 608, "weight" : 0.353579 },
		{"id" : 38, "lemma" : ".", "type" : "SF", "position" : 611, "weight" : 1 }
	],
	"morp_eval" : [
		{"id" : 0, "result" : "강원도/NNG+를/JKO", "target" : "강원도를", "word_id" : 0, "m_begin" : 0, "m_end" : 1},
		{"id" : 1, "result" : "대표하/VV+는/ETM", "target" : "대표하는", "word_id" : 1, "m_begin" : 2, "m_end" : 4},
		{"id" : 2, "result" : "지방/NNG", "target" : "지방", "word_id" : 2, "m_begin" : 5, "m_end" : 5},
		{"id" : 3, "result" : "거점/NNG", "target" : "거점", "word_id" : 3, "m_begin" : 6, "m_end" : 6},
		{"id" : 4, "result" : "국립대/NNG+이/VCP+며/EC", "target" : "국립대이며", "word_id" : 4, "m_begin" : 7, "m_end" : 10},
		{"id" : 5, "result" : "강원도/NNG+에서/JKB", "target" : "강원도에서", "word_id" : 5, "m_begin" : 11, "m_end" : 12},
		{"id" : 6, "result" : "유일하/VA+게/EC", "target" : "유일하게", "word_id" : 6, "m_begin" : 13, "m_end" : 15},
		{"id" : 7, "result" : "로스쿨/NNG+과/JC", "target" : "로스쿨과", "word_id" : 7, "m_begin" : 16, "m_end" : 17},
		{"id" : 8, "result" : "의학전문대학원/NNG+,/SP", "target" : "의학전문대학원,", "word_id" : 8, "m_begin" : 18, "m_end" : 22},
		{"id" : 9, "result" : "수의과대학/NNG+,/SP", "target" : "수의과대학,", "word_id" : 9, "m_begin" : 23, "m_end" : 26},
		{"id" : 10, "result" : "약학대학/NNG+이/JKS", "target" : "약학대학이", "word_id" : 10, "m_begin" : 27, "m_end" : 29},
		{"id" : 11, "result" : "설치되/VV+어/EC", "target" : "설치되어", "word_id" : 11, "m_begin" : 30, "m_end" : 32},
		{"id" : 12, "result" : "있/VX+는/ETM", "target" : "있는", "word_id" : 12, "m_begin" : 33, "m_end" : 34},
		{"id" : 13, "result" : "대학/NNG+이/VCP+다/EF+./SF", "target" : "대학이다.", "word_id" : 13, "m_begin" : 35, "m_end" : 38}
	],
	"WSD" : [
		{"id" : 0, "text" : "강원도", "type" : "NNP", "scode" : "01", "weight" : 1, "position" : 425, "begin" : 0, "end" : 0},
		{"id" : 1, "text" : "를", "type" : "JKO", "scode" : "00", "weight" : 1, "position" : 434, "begin" : 1, "end" : 1},
		{"id" : 2, "text" : "대표하", "type" : "VV", "scode" : "00", "weight" : 1, "position" : 438, "begin" : 2, "end" : 3},
		{"id" : 3, "text" : "는", "type" : "ETM", "scode" : "00", "weight" : 1, "position" : 447, "begin" : 4, "end" : 4},
		{"id" : 4, "text" : "지방", "type" : "NNG", "scode" : "05", "weight" : 1, "position" : 451, "begin" : 5, "end" : 5},
		{"id" : 5, "text" : "거점", "type" : "NNG", "scode" : "00", "weight" : 1, "position" : 458, "begin" : 6, "end" : 6},
		{"id" : 6, "text" : "국립대", "type" : "NNG", "scode" : "00", "weight" : 1, "position" : 465, "begin" : 7, "end" : 8},
		{"id" : 7, "text" : "이", "type" : "VCP", "scode" : "00", "weight" : 1, "position" : 474, "begin" : 9, "end" : 9},
		{"id" : 8, "text" : "며", "type" : "EC", "scode" : "00", "weight" : 1, "position" : 477, "begin" : 10, "end" : 10},
		{"id" : 9, "text" : "강원도", "type" : "NNP", "scode" : "01", "weight" : 1, "position" : 481, "begin" : 11, "end" : 11},
		{"id" : 10, "text" : "에서", "type" : "JKB", "scode" : "00", "weight" : 1, "position" : 490, "begin" : 12, "end" : 12},
		{"id" : 11, "text" : "유일하", "type" : "VA", "scode" : "03", "weight" : 1, "position" : 497, "begin" : 13, "end" : 14},
		{"id" : 12, "text" : "게", "type" : "EC", "scode" : "00", "weight" : 1, "position" : 506, "begin" : 15, "end" : 15},
		{"id" : 13, "text" : "로스쿨", "type" : "NNG", "scode" : "00", "weight" : 1, "position" : 510, "begin" : 16, "end" : 16},
		{"id" : 14, "text" : "과", "type" : "JC", "scode" : "00", "weight" : 1, "position" : 519, "begin" : 17, "end" : 17},
		{"id" : 15, "text" : "의학", "type" : "NNG", "scode" : "02", "weight" : 1, "position" : 523, "begin" : 18, "end" : 18},
		{"id" : 16, "text" : "전문", "type" : "NNG", "scode" : "08", "weight" : 1, "position" : 529, "begin" : 19, "end" : 19},
		{"id" : 17, "text" : "대학원", "type" : "NNG", "scode" : "00", "weight" : 1, "position" : 535, "begin" : 20, "end" : 21},
		{"id" : 18, "text" : ",", "type" : "SP", "scode" : "00", "weight" : 1, "position" : 544, "begin" : 22, "end" : 22},
		{"id" : 19, "text" : "수의과대학", "type" : "NNG", "scode" : "00", "weight" : 1, "position" : 546, "begin" : 23, "end" : 25},
		{"id" : 20, "text" : ",", "type" : "SP", "scode" : "00", "weight" : 1, "position" : 561, "begin" : 26, "end" : 26},
		{"id" : 21, "text" : "약학대학", "type" : "NNG", "scode" : "00", "weight" : 0, "position" : 563, "begin" : 27, "end" : 28},
		{"id" : 22, "text" : "이", "type" : "JKS", "scode" : "00", "weight" : 1, "position" : 575, "begin" : 29, "end" : 29},
		{"id" : 23, "text" : "설치되", "type" : "VV", "scode" : "01", "weight" : 1, "position" : 579, "begin" : 30, "end" : 31},
		{"id" : 24, "text" : "어", "type" : "EC", "scode" : "00", "weight" : 1, "position" : 588, "begin" : 32, "end" : 32},
		{"id" : 25, "text" : "있", "type" : "VX", "scode" : "01", "weight" : 1, "position" : 592, "begin" : 33, "end" : 33},
		{"id" : 26, "text" : "는", "type" : "ETM", "scode" : "00", "weight" : 1, "position" : 595, "begin" : 34, "end" : 34},
		{"id" : 27, "text" : "대학", "type" : "NNG", "scode" : "01", "weight" : 1, "position" : 599, "begin" : 35, "end" : 35},
		{"id" : 28, "text" : "이", "type" : "VCP", "scode" : "00", "weight" : 1, "position" : 605, "begin" : 36, "end" : 36},
		{"id" : 29, "text" : "다", "type" : "EF", "scode" : "00", "weight" : 1, "position" : 608, "begin" : 37, "end" : 37},
		{"id" : 30, "text" : ".", "type" : "SF", "scode" : "00", "weight" : 1, "position" : 611, "begin" : 38, "end" : 38}
	],
	"word" : [
		{"id" : 0, "text" : "강원도를", "type" : "", "begin" : 0, "end" : 1},
		{"id" : 1, "text" : "대표하는", "type" : "", "begin" : 2, "end" : 4},
		{"id" : 2, "text" : "지방", "type" : "", "begin" : 5, "end" : 5},
		{"id" : 3, "text" : "거점", "type" : "", "begin" : 6, "end" : 6},
		{"id" : 4, "text" : "국립대이며", "type" : "", "begin" : 7, "end" : 10},
		{"id" : 5, "text" : "강원도에서", "type" : "", "begin" : 11, "end" : 12},
		{"id" : 6, "text" : "유일하게", "type" : "", "begin" : 13, "end" : 15},
		{"id" : 7, "text" : "로스쿨과", "type" : "", "begin" : 16, "end" : 17},
		{"id" : 8, "text" : "의학전문대학원,", "type" : "", "begin" : 18, "end" : 22},
		{"id" : 9, "text" : "수의과대학,", "type" : "", "begin" : 23, "end" : 26},
		{"id" : 10, "text" : "약학대학이", "type" : "", "begin" : 27, "end" : 29},
		{"id" : 11, "text" : "설치되어", "type" : "", "begin" : 30, "end" : 32},
		{"id" : 12, "text" : "있는", "type" : "", "begin" : 33, "end" : 34},
		{"id" : 13, "text" : "대학이다.", "type" : "", "begin" : 35, "end" : 38}
	],
	"NE" : [
		{"id" : 0, "text" : "강원도", "type" : "LCP_PROVINCE", "begin" : 0, "end" : 0, "weight" : 0.299682, "common_noun" : 0},
		{"id" : 1, "text" : "강원도", "type" : "LCP_PROVINCE", "begin" : 11, "end" : 11, "weight" : 0.571831, "common_noun" : 0},
		{"id" : 2, "text" : "로스쿨", "type" : "OGG_EDUCATION", "begin" : 16, "end" : 16, "weight" : 0.312913, "common_noun" : 0},
		{"id" : 3, "text" : "의학전문대학원", "type" : "OGG_EDUCATION", "begin" : 18, "end" : 21, "weight" : 0.603264, "common_noun" : 0},
		{"id" : 4, "text" : "수의과대학", "type" : "OGG_EDUCATION", "begin" : 23, "end" : 25, "weight" : 0.145772, "common_noun" : 0},
		{"id" : 5, "text" : "약학대학", "type" : "OGG_EDUCATION", "begin" : 27, "end" : 28, "weight" : 0.191057, "common_noun" : 0}
	],
	"chunk" : [
	],
	"dependency" : [
		{"id" : 0, "text" : "강원도를", "head" : 1, "label" : "NP_OBJ", "mod" : [], "weight" : 0.653867 },
		{"id" : 1, "text" : "대표하는", "head" : 4, "label" : "VP_MOD", "mod" : [0], "weight" : 0.854931 },
		{"id" : 2, "text" : "지방", "head" : 3, "label" : "NP", "mod" : [], "weight" : 0.641603 },
		{"id" : 3, "text" : "거점", "head" : 4, "label" : "NP", "mod" : [2], "weight" : 0.838005 },
		{"id" : 4, "text" : "국립대이며", "head" : 11, "label" : "VNP", "mod" : [1, 3], "weight" : 0.976566 },
		{"id" : 5, "text" : "강원도에서", "head" : 11, "label" : "NP_AJT", "mod" : [], "weight" : 0.810986 },
		{"id" : 6, "text" : "유일하게", "head" : 11, "label" : "VP_AJT", "mod" : [], "weight" : 0.718824 },
		{"id" : 7, "text" : "로스쿨과", "head" : 10, "label" : "NP_CNJ", "mod" : [], "weight" : 0.959914 },
		{"id" : 8, "text" : "의학전문대학원,", "head" : 10, "label" : "NP_CNJ", "mod" : [], "weight" : 0.706706 },
		{"id" : 9, "text" : "수의과대학,", "head" : 10, "label" : "NP_CNJ", "mod" : [], "weight" : 0.505951 },
		{"id" : 10, "text" : "약학대학이", "head" : 11, "label" : "NP_SBJ", "mod" : [7, 8, 9], "weight" : 0.593334 },
		{"id" : 11, "text" : "설치되어", "head" : 12, "label" : "VP", "mod" : [4, 5, 6, 10], "weight" : 0.656627 },
		{"id" : 12, "text" : "있는", "head" : 13, "label" : "VP_MOD", "mod" : [11], "weight" : 0.522523 },
		{"id" : 13, "text" : "대학이다.", "head" : -1, "label" : "VNP", "mod" : [12], "weight" : 0.00767177 }
	],
	"SRL" : [
		{"verb" : "대표", "sense" : 1, "word_id" : 1, "weight" : 0.189766,
			"argument" : [
				{"type" : "ARG1", "word_id" : 0, "text" : "강원도를", "weight" : 0.169638 },
				{"type" : "ARG0", "word_id" : 4, "text" : "국립대이며", "weight" : 0.209893 }
			] },
		{"verb" : "유일", "sense" : 1, "word_id" : 6, "weight" : 0,
			"argument" : [
			] },
		{"verb" : "설치", "sense" : 1, "word_id" : 11, "weight" : 0.339272,
			"argument" : [
				{"type" : "ARGM-LOC", "word_id" : 5, "text" : "강원도에서", "weight" : 0.230767 },
				{"type" : "ARG1", "word_id" : 10, "text" : "약학대학이", "weight" : 0.275177 },
				{"type" : "AUX", "word_id" : 12, "text" : "있는", "weight" : 0.511872 }
			] }
	],
	"relation" : [
	],
	"SA" : [
	],
	"ZA" : [
		{"id" : 0, "verb_wid" : 4, "ant_sid" : -1, "ant_wid" : -1, "type" : "s", "istitle" : 0, "weight" : 0.452778 },
		{"id" : 1, "verb_wid" : 13, "ant_sid" : -1, "ant_wid" : -1, "type" : "s", "istitle" : 0, "weight" : 0.381051 }
	]
	},
	{
	"id" : 5,
	"reserve_str" : "",
	"text" : "다음은 2011년 현재 강원대학교에서 운영중인 학과 과정을 나열한 것이다.",
	"morp" : [
		{"id" : 0, "lemma" : "다음", "type" : "NNG", "position" : 612, "weight" : 0.437703 },
		{"id" : 1, "lemma" : "은", "type" : "JX", "position" : 618, "weight" : 0.0449928 },
		{"id" : 2, "lemma" : "2011", "type" : "SN", "position" : 622, "weight" : 1 },
		{"id" : 3, "lemma" : "년", "type" : "NNB", "position" : 626, "weight" : 0.414343 },
		{"id" : 4, "lemma" : "현재", "type" : "MAG", "position" : 630, "weight" : 0.00662512 },
		{"id" : 5, "lemma" : "강원", "type" : "NNP", "position" : 637, "weight" : 0.00264027 },
		{"id" : 6, "lemma" : "대", "type" : "XPN", "position" : 643, "weight" : 0.000103476 },
		{"id" : 7, "lemma" : "학교", "type" : "NNG", "position" : 646, "weight" : 0.473729 },
		{"id" : 8, "lemma" : "에서", "type" : "JKB", "position" : 652, "weight" : 0.153407 },
		{"id" : 9, "lemma" : "운영", "type" : "NNG", "position" : 659, "weight" : 0.207935 },
		{"id" : 10, "lemma" : "중", "type" : "NNB", "position" : 665, "weight" : 0.013531 },
		{"id" : 11, "lemma" : "이", "type" : "VCP", "position" : 668, "weight" : 0.0607843 },
		{"id" : 12, "lemma" : "ㄴ", "type" : "ETM", "position" : 668, "weight" : 0.220712 },
		{"id" : 13, "lemma" : "학과", "type" : "NNG", "position" : 672, "weight" : 0.9 },
		{"id" : 14, "lemma" : "과정", "type" : "NNG", "position" : 679, "weight" : 0.184792 },
		{"id" : 15, "lemma" : "을", "type" : "JKO", "position" : 685, "weight" : 0.129611 },
		{"id" : 16, "lemma" : "나열", "type" : "NNG", "position" : 689, "weight" : 0.9 },
		{"id" : 17, "lemma" : "하", "type" : "XSV", "position" : 695, "weight" : 0.0001 },
		{"id" : 18, "lemma" : "ㄴ", "type" : "ETM", "position" : 695, "weight" : 0.392321 },
		{"id" : 19, "lemma" : "것", "type" : "NNB", "position" : 699, "weight" : 0.228788 },
		{"id" : 20, "lemma" : "이", "type" : "VCP", "position" : 702, "weight" : 0.0607843 },
		{"id" : 21, "lemma" : "다", "type" : "EF", "position" : 705, "weight" : 0.353579 },
		{"id" : 22, "lemma" : ".", "type" : "SF", "position" : 708, "weight" : 1 }
	],
	"morp_eval" : [
		{"id" : 0, "result" : "다음/NNG+은/JX", "target" : "다음은", "word_id" : 0, "m_begin" : 0, "m_end" : 1},
		{"id" : 1, "result" : "2011/SN+년/NNB", "target" : "2011년", "word_id" : 1, "m_begin" : 2, "m_end" : 3},
		{"id" : 2, "result" : "현재/MAG", "target" : "현재", "word_id" : 2, "m_begin" : 4, "m_end" : 4},
		{"id" : 3, "result" : "강원대학교/NNG+에서/JKB", "target" : "강원대학교에서", "word_id" : 3, "m_begin" : 5, "m_end" : 8},
		{"id" : 4, "result" : "운영/NNG+중/NNB+이/VCP+ㄴ/ETM", "target" : "운영중인", "word_id" : 4, "m_begin" : 9, "m_end" : 12},
		{"id" : 5, "result" : "학과/NNG", "target" : "학과", "word_id" : 5, "m_begin" : 13, "m_end" : 13},
		{"id" : 6, "result" : "과정/NNG+을/JKO", "target" : "과정을", "word_id" : 6, "m_begin" : 14, "m_end" : 15},
		{"id" : 7, "result" : "나열하/VV+ㄴ/ETM", "target" : "나열한", "word_id" : 7, "m_begin" : 16, "m_end" : 18},
		{"id" : 8, "result" : "것/NNB+이/VCP+다/EF+./SF", "target" : "것이다.", "word_id" : 8, "m_begin" : 19, "m_end" : 22}
	],
	"WSD" : [
		{"id" : 0, "text" : "다음", "type" : "NNG", "scode" : "01", "weight" : 1, "position" : 612, "begin" : 0, "end" : 0},
		{"id" : 1, "text" : "은", "type" : "JX", "scode" : "00", "weight" : 1, "position" : 618, "begin" : 1, "end" : 1},
		{"id" : 2, "text" : "2011", "type" : "SN", "scode" : "00", "weight" : 1, "position" : 622, "begin" : 2, "end" : 2},
		{"id" : 3, "text" : "년", "type" : "NNB", "scode" : "02", "weight" : 1, "position" : 626, "begin" : 3, "end" : 3},
		{"id" : 4, "text" : "현재", "type" : "MAG", "scode" : "02", "weight" : 1, "position" : 630, "begin" : 4, "end" : 4},
		{"id" : 5, "text" : "강원", "type" : "NNP", "scode" : "00", "weight" : 1, "position" : 637, "begin" : 5, "end" : 5},
		{"id" : 6, "text" : "대학교", "type" : "NNG", "scode" : "00", "weight" : 1, "position" : 643, "begin" : 6, "end" : 7},
		{"id" : 7, "text" : "에서", "type" : "JKB", "scode" : "00", "weight" : 1, "position" : 652, "begin" : 8, "end" : 8},
		{"id" : 8, "text" : "운영", "type" : "NNG", "scode" : "03", "weight" : 1, "position" : 659, "begin" : 9, "end" : 9},
		{"id" : 9, "text" : "중", "type" : "NNB", "scode" : "04", "weight" : 1, "position" : 665, "begin" : 10, "end" : 10},
		{"id" : 10, "text" : "이", "type" : "VCP", "scode" : "00", "weight" : 1, "position" : 668, "begin" : 11, "end" : 11},
		{"id" : 11, "text" : "ㄴ", "type" : "ETM", "scode" : "00", "weight" : 1, "position" : 668, "begin" : 12, "end" : 12},
		{"id" : 12, "text" : "학과", "type" : "NNG", "scode" : "01", "weight" : 1, "position" : 672, "begin" : 13, "end" : 13},
		{"id" : 13, "text" : "과정", "type" : "NNG", "scode" : "03", "weight" : 1, "position" : 679, "begin" : 14, "end" : 14},
		{"id" : 14, "text" : "을", "type" : "JKO", "scode" : "00", "weight" : 1, "position" : 685, "begin" : 15, "end" : 15},
		{"id" : 15, "text" : "나열하", "type" : "VV", "scode" : "02", "weight" : 1, "position" : 689, "begin" : 16, "end" : 17},
		{"id" : 16, "text" : "ㄴ", "type" : "ETM", "scode" : "00", "weight" : 1, "position" : 695, "begin" : 18, "end" : 18},
		{"id" : 17, "text" : "것", "type" : "NNB", "scode" : "01", "weight" : 1, "position" : 699, "begin" : 19, "end" : 19},
		{"id" : 18, "text" : "이", "type" : "VCP", "scode" : "00", "weight" : 1, "position" : 702, "begin" : 20, "end" : 20},
		{"id" : 19, "text" : "다", "type" : "EF", "scode" : "00", "weight" : 1, "position" : 705, "begin" : 21, "end" : 21},
		{"id" : 20, "text" : ".", "type" : "SF", "scode" : "00", "weight" : 1, "position" : 708, "begin" : 22, "end" : 22}
	],
	"word" : [
		{"id" : 0, "text" : "다음은", "type" : "", "begin" : 0, "end" : 1},
		{"id" : 1, "text" : "2011년", "type" : "", "begin" : 2, "end" : 3},
		{"id" : 2, "text" : "현재", "type" : "", "begin" : 4, "end" : 4},
		{"id" : 3, "text" : "강원대학교에서", "type" : "", "begin" : 5, "end" : 8},
		{"id" : 4, "text" : "운영중인", "type" : "", "begin" : 9, "end" : 12},
		{"id" : 5, "text" : "학과", "type" : "", "begin" : 13, "end" : 13},
		{"id" : 6, "text" : "과정을", "type" : "", "begin" : 14, "end" : 15},
		{"id" : 7, "text" : "나열한", "type" : "", "begin" : 16, "end" : 18},
		{"id" : 8, "text" : "것이다.", "type" : "", "begin" : 19, "end" : 22}
	],
	"NE" : [
		{"id" : 0, "text" : "2011년", "type" : "DT_YEAR", "begin" : 2, "end" : 3, "weight" : 0.746561, "common_noun" : 0},
		{"id" : 1, "text" : "강원대학교", "type" : "OGG_EDUCATION", "begin" : 5, "end" : 7, "weight" : 0.814304, "common_noun" : 0}
	],
	"chunk" : [
	],
	"dependency" : [
		{"id" : 0, "text" : "다음은", "head" : 7, "label" : "NP_SBJ", "mod" : [], "weight" : 0.911201 },
		{"id" : 1, "text" : "2011년", "head" : 2, "label" : "NP", "mod" : [], "weight" : 0.552431 },
		{"id" : 2, "text" : "현재", "head" : 7, "label" : "AP", "mod" : [1], "weight" : 0.64088 },
		{"id" : 3, "text" : "강원대학교에서", "head" : 4, "label" : "NP_AJT", "mod" : [], "weight" : 0.614782 },
		{"id" : 4, "text" : "운영중인", "head" : 6, "label" : "VNP_MOD", "mod" : [3], "weight" : 0.907664 },
		{"id" : 5, "text" : "학과", "head" : 6, "label" : "NP", "mod" : [], "weight" : 0.914628 },
		{"id" : 6, "text" : "과정을", "head" : 7, "label" : "NP_OBJ", "mod" : [4, 5], "weight" : 0.512253 },
		{"id" : 7, "text" : "나열한", "head" : 8, "label" : "VP_MOD", "mod" : [0, 2, 6], "weight" : 0.584817 },
		{"id" : 8, "text" : "것이다.", "head" : -1, "label" : "VNP", "mod" : [7], "weight" : 0.0280706 }
	],
	"SRL" : [
		{"verb" : "나열", "sense" : 1, "word_id" : 7, "weight" : 0.214945,
			"argument" : [
				{"type" : "ARGM-TMP", "word_id" : 2, "text" : "현재", "weight" : 0.210273 },
				{"type" : "ARG1", "word_id" : 6, "text" : "과정을", "weight" : 0.219616 }
			] }
	],
	"relation" : [
	],
	"SA" : [
	],
	"ZA" : [
	]
	},
	{
	"id" : 6,
	"reserve_str" : "",
	"text" : "학장총장",
	"morp" : [
		{"id" : 0, "lemma" : "학장", "type" : "NNG", "position" : 709, "weight" : 0.9 },
		{"id" : 1, "lemma" : "총장", "type" : "NNG", "position" : 715, "weight" : 0.9 }
	],
	"morp_eval" : [
		{"id" : 0, "result" : "학장총장/NNG", "target" : "학장총장", "word_id" : 0, "m_begin" : 0, "m_end" : 1}
	],
	"WSD" : [
		{"id" : 0, "text" : "학장", "type" : "NNG", "scode" : "02", "weight" : 1, "position" : 709, "begin" : 0, "end" : 0},
		{"id" : 1, "text" : "총장", "type" : "NNG", "scode" : "01", "weight" : 1, "position" : 715, "begin" : 1, "end" : 1}
	],
	"word" : [
		{"id" : 0, "text" : "학장총장", "type" : "", "begin" : 0, "end" : 1}
	],
	"NE" : [
		{"id" : 0, "text" : "학장총장", "type" : "CV_POSITION", "begin" : 0, "end" : 1, "weight" : 0.313796, "common_noun" : 0}
	],
	"chunk" : [
	],
	"dependency" : [
		{"id" : 0, "text" : "학장총장", "head" : -1, "label" : "NP", "mod" : [], "weight" : 0.557413 }
	],
	"SRL" : [
	],
	"relation" : [
	],
	"SA" : [
	],
	"ZA" : [
	]
	}
 ],
 "entity" : [
	{"id" : 0, "type" : "OGG_EDUCATION", "number" : "singular", "gender" : "", "person" : "", "animacy" : "", "loc" : "", 
	 "mention" : [
		{"id" : 4, "sent_id" : 1, "start_eid" : 0, "end_eid" : 3, "ne_id" : -1, "text" : "강원대학교(江原大學校, Kangwon National University)", "start_eid_short" : 0, "end_eid_short" : 3, "text_short" : "강원대학교(江原大學校, Kangwon National University)", "weight" : 0.006 },
		{"id" : 5, "sent_id" : 1, "start_eid" : 4, "end_eid" : 10, "ne_id" : -1, "text" : "강원도춘천시와 삼척시교동, 도계읍에 있는 대한민국의 국립 대학이다.", "start_eid_short" : 8, "end_eid_short" : 10, "text_short" : "대한민국의 국립 대학이다.", "weight" : 0.011 },
		{"id" : 38, "sent_id" : 5, "start_eid" : 3, "end_eid" : 3, "ne_id" : 1, "text" : "강원대학교", "start_eid_short" : 3, "end_eid_short" : 3, "text_short" : "강원대학교", "weight" : 0.01 }
	] },
	{"id" : 1, "type" : "LCP_PROVINCE", "number" : "singular", "gender" : "", "person" : "", "animacy" : "", "loc" : "강원도", 
	 "mention" : [
		{"id" : 27, "sent_id" : 4, "start_eid" : 5, "end_eid" : 5, "ne_id" : 1, "text" : "강원도", "start_eid_short" : 5, "end_eid_short" : 5, "text_short" : "강원도", "weight" : 0.016 },
		{"id" : 24, "sent_id" : 4, "start_eid" : 0, "end_eid" : 0, "ne_id" : 0, "text" : "강원도", "start_eid_short" : 0, "end_eid_short" : 0, "text_short" : "강원도", "weight" : 0.01 }
	] }
 ]
}

