{"doc_id" : "",
 "DCT" : "",
 "category" : "",
 "category_weight" : 0,
 "title" : {"text" : "", "NE" : ""},
 "metaInfo" : { },
 "sentence" : [
	{
	"id" : 0,
	"reserve_str" : "",
	"text" : "《구월의 이틀》은 장정일이 지은 대한민국 소설이다.",
	"morp" : [
		{"id" : 0, "lemma" : "《", "type" : "SS", "position" : 0, "weight" : 1 },
		{"id" : 1, "lemma" : "구월", "type" : "NNG", "position" : 3, "weight" : 0.186208 },
		{"id" : 2, "lemma" : "의", "type" : "JKG", "position" : 9, "weight" : 0.0694213 },
		{"id" : 3, "lemma" : "이틀", "type" : "NNG", "position" : 13, "weight" : 0.9 },
		{"id" : 4, "lemma" : "》", "type" : "SS", "position" : 19, "weight" : 1 },
		{"id" : 5, "lemma" : "은", "type" : "JX", "position" : 22, "weight" : 0.0128817 },
		{"id" : 6, "lemma" : "장정일", "type" : "NNP", "position" : 26, "weight" : 0.6 },
		{"id" : 7, "lemma" : "이", "type" : "JKS", "position" : 35, "weight" : 0.0234517 },
		{"id" : 8, "lemma" : "짓", "type" : "VV", "position" : 39, "weight" : 0.256547 },
		{"id" : 9, "lemma" : "은", "type" : "ETM", "position" : 42, "weight" : 0.109632 },
		{"id" : 10, "lemma" : "대한민국", "type" : "NNP", "position" : 46, "weight" : 0.0280028 },
		{"id" : 11, "lemma" : "소설", "type" : "NNG", "position" : 59, "weight" : 0.9 },
		{"id" : 12, "lemma" : "이", "type" : "VCP", "position" : 65, "weight" : 0.0177525 },
		{"id" : 13, "lemma" : "다", "type" : "EF", "position" : 68, "weight" : 0.353579 },
		{"id" : 14, "lemma" : ".", "type" : "SF", "position" : 71, "weight" : 1 }
	],
	"morp_eval" : [
		{"id" : 0, "result" : "《/SS+구월/NNG+의/JKG", "target" : "《구월의", "word_id" : 0, "m_begin" : 0, "m_end" : 2},
		{"id" : 1, "result" : "이틀/NNG+》/SS+은/JX", "target" : "이틀》은", "word_id" : 1, "m_begin" : 3, "m_end" : 5},
		{"id" : 2, "result" : "장정일/NNG+이/JKS", "target" : "장정일이", "word_id" : 2, "m_begin" : 6, "m_end" : 7},
		{"id" : 3, "result" : "짓/VV+은/ETM", "target" : "지은", "word_id" : 3, "m_begin" : 8, "m_end" : 9},
		{"id" : 4, "result" : "대한민국/NNG", "target" : "대한민국", "word_id" : 4, "m_begin" : 10, "m_end" : 10},
		{"id" : 5, "result" : "소설/NNG+이/VCP+다/EF+./SF", "target" : "소설이다.", "word_id" : 5, "m_begin" : 11, "m_end" : 14}
	],
	"WSD" : [
		{"id" : 0, "text" : "《", "type" : "SS", "scode" : "00", "weight" : 1, "position" : 0, "begin" : 0, "end" : 0},
		{"id" : 1, "text" : "구월", "type" : "NNG", "scode" : "02", "weight" : 1, "position" : 3, "begin" : 1, "end" : 1},
		{"id" : 2, "text" : "의", "type" : "JKG", "scode" : "00", "weight" : 1, "position" : 9, "begin" : 2, "end" : 2},
		{"id" : 3, "text" : "이틀", "type" : "NNG", "scode" : "01", "weight" : 1, "position" : 13, "begin" : 3, "end" : 3},
		{"id" : 4, "text" : "》", "type" : "SS", "scode" : "00", "weight" : 1, "position" : 19, "begin" : 4, "end" : 4},
		{"id" : 5, "text" : "은", "type" : "JX", "scode" : "00", "weight" : 1, "position" : 22, "begin" : 5, "end" : 5},
		{"id" : 6, "text" : "장정일", "type" : "NNP", "scode" : "00", "weight" : 1, "position" : 26, "begin" : 6, "end" : 6},
		{"id" : 7, "text" : "이", "type" : "JKS", "scode" : "00", "weight" : 1, "position" : 35, "begin" : 7, "end" : 7},
		{"id" : 8, "text" : "짓", "type" : "VV", "scode" : "01", "weight" : 1, "position" : 39, "begin" : 8, "end" : 8},
		{"id" : 9, "text" : "은", "type" : "ETM", "scode" : "00", "weight" : 1, "position" : 42, "begin" : 9, "end" : 9},
		{"id" : 10, "text" : "대한민국", "type" : "NNP", "scode" : "00", "weight" : 1, "position" : 46, "begin" : 10, "end" : 10},
		{"id" : 11, "text" : "소설", "type" : "NNG", "scode" : "03", "weight" : 1, "position" : 59, "begin" : 11, "end" : 11},
		{"id" : 12, "text" : "이", "type" : "VCP", "scode" : "00", "weight" : 1, "position" : 65, "begin" : 12, "end" : 12},
		{"id" : 13, "text" : "다", "type" : "EF", "scode" : "00", "weight" : 1, "position" : 68, "begin" : 13, "end" : 13},
		{"id" : 14, "text" : ".", "type" : "SF", "scode" : "00", "weight" : 1, "position" : 71, "begin" : 14, "end" : 14}
	],
	"word" : [
		{"id" : 0, "text" : "《구월의", "type" : "", "begin" : 0, "end" : 2},
		{"id" : 1, "text" : "이틀》은", "type" : "", "begin" : 3, "end" : 5},
		{"id" : 2, "text" : "장정일이", "type" : "", "begin" : 6, "end" : 7},
		{"id" : 3, "text" : "지은", "type" : "", "begin" : 8, "end" : 9},
		{"id" : 4, "text" : "대한민국", "type" : "", "begin" : 10, "end" : 10},
		{"id" : 5, "text" : "소설이다.", "type" : "", "begin" : 11, "end" : 14}
	],
	"NE" : [
		{"id" : 0, "text" : "구월의 이틀", "type" : "AFW_DOCUMENT", "begin" : 1, "end" : 3, "weight" : 0.953915, "common_noun" : 0},
		{"id" : 1, "text" : "장정일", "type" : "PS_NAME", "begin" : 6, "end" : 6, "weight" : 0.524147, "common_noun" : 0},
		{"id" : 2, "text" : "대한민국", "type" : "LCP_COUNTRY", "begin" : 10, "end" : 10, "weight" : 0.20771, "common_noun" : 0},
		{"id" : 3, "text" : "소설", "type" : "FD_ART", "begin" : 11, "end" : 11, "weight" : 0.208018, "common_noun" : 0}
	],
	"chunk" : [
	],
	"dependency" : [
		{"id" : 0, "text" : "《구월의", "head" : 1, "label" : "NP_MOD", "mod" : [], "weight" : 0.841412 },
		{"id" : 1, "text" : "이틀》은", "head" : 5, "label" : "NP_SBJ", "mod" : [0], "weight" : 0.919195 },
		{"id" : 2, "text" : "장정일이", "head" : 3, "label" : "NP_SBJ", "mod" : [], "weight" : 0.564922 },
		{"id" : 3, "text" : "지은", "head" : 5, "label" : "VP_MOD", "mod" : [2], "weight" : 0.51039 },
		{"id" : 4, "text" : "대한민국", "head" : 5, "label" : "NP", "mod" : [], "weight" : 0.365716 },
		{"id" : 5, "text" : "소설이다.", "head" : -1, "label" : "VNP", "mod" : [1, 3, 4], "weight" : 0.0503029 }
	],
	"SRL" : [
		{"verb" : "짓", "sense" : 1, "word_id" : 3, "weight" : 0.278857,
			"argument" : [
				{"type" : "ARG0", "word_id" : 2, "text" : "장정일이", "weight" : 0.426039 },
				{"type" : "ARG1", "word_id" : 5, "text" : "소설이다.", "weight" : 0.131674 }
			] }
	],
	"relation" : [
	],
	"SA" : [
	],
	"ZA" : [
	]
	},
	{
	"id" : 1,
	"reserve_str" : "",
	"text" : "2009년11월 6일에 랜덤하우스코리아에서 발간하였다.",
	"morp" : [
		{"id" : 0, "lemma" : "2009", "type" : "SN", "position" : 72, "weight" : 1 },
		{"id" : 1, "lemma" : "년", "type" : "NNB", "position" : 76, "weight" : 0.414343 },
		{"id" : 2, "lemma" : "11", "type" : "SN", "position" : 79, "weight" : 1 },
		{"id" : 3, "lemma" : "월", "type" : "NNB", "position" : 81, "weight" : 0.408539 },
		{"id" : 4, "lemma" : "6", "type" : "SN", "position" : 85, "weight" : 1 },
		{"id" : 5, "lemma" : "일", "type" : "NNB", "position" : 86, "weight" : 0.126777 },
		{"id" : 6, "lemma" : "에", "type" : "JKB", "position" : 89, "weight" : 0.135559 },
		{"id" : 7, "lemma" : "랜덤하우스코리아", "type" : "NNP", "position" : 93, "weight" : 0.6 },
		{"id" : 8, "lemma" : "에서", "type" : "JKB", "position" : 117, "weight" : 0.0823859 },
		{"id" : 9, "lemma" : "발간", "type" : "NNG", "position" : 124, "weight" : 0.9 },
		{"id" : 10, "lemma" : "하", "type" : "XSV", "position" : 130, "weight" : 0.0001 },
		{"id" : 11, "lemma" : "었", "type" : "EP", "position" : 133, "weight" : 0.9 },
		{"id" : 12, "lemma" : "다", "type" : "EF", "position" : 136, "weight" : 0.640954 },
		{"id" : 13, "lemma" : ".", "type" : "SF", "position" : 139, "weight" : 1 }
	],
	"morp_eval" : [
		{"id" : 0, "result" : "2009/SN+년/NNB+11/SN+월/NNB", "target" : "2009년11월", "word_id" : 0, "m_begin" : 0, "m_end" : 3},
		{"id" : 1, "result" : "6/SN+일/NNB+에/JKB", "target" : "6일에", "word_id" : 1, "m_begin" : 4, "m_end" : 6},
		{"id" : 2, "result" : "랜덤하우스코리아/NNG+에서/JKB", "target" : "랜덤하우스코리아에서", "word_id" : 2, "m_begin" : 7, "m_end" : 8},
		{"id" : 3, "result" : "발간하/VV+었/EP+다/EF+./SF", "target" : "발간하였다.", "word_id" : 3, "m_begin" : 9, "m_end" : 13}
	],
	"WSD" : [
		{"id" : 0, "text" : "2009", "type" : "SN", "scode" : "00", "weight" : 1, "position" : 72, "begin" : 0, "end" : 0},
		{"id" : 1, "text" : "년", "type" : "NNB", "scode" : "02", "weight" : 1, "position" : 76, "begin" : 1, "end" : 1},
		{"id" : 2, "text" : "11", "type" : "SN", "scode" : "00", "weight" : 1, "position" : 79, "begin" : 2, "end" : 2},
		{"id" : 3, "text" : "월", "type" : "NNB", "scode" : "02", "weight" : 1, "position" : 81, "begin" : 3, "end" : 3},
		{"id" : 4, "text" : "6", "type" : "SN", "scode" : "00", "weight" : 1, "position" : 85, "begin" : 4, "end" : 4},
		{"id" : 5, "text" : "일", "type" : "NNB", "scode" : "07", "weight" : 1, "position" : 86, "begin" : 5, "end" : 5},
		{"id" : 6, "text" : "에", "type" : "JKB", "scode" : "00", "weight" : 1, "position" : 89, "begin" : 6, "end" : 6},
		{"id" : 7, "text" : "랜덤하우스코리아", "type" : "NNP", "scode" : "00", "weight" : 0, "position" : 93, "begin" : 7, "end" : 7},
		{"id" : 8, "text" : "에서", "type" : "JKB", "scode" : "00", "weight" : 1, "position" : 117, "begin" : 8, "end" : 8},
		{"id" : 9, "text" : "발간하", "type" : "VV", "scode" : "01", "weight" : 1, "position" : 124, "begin" : 9, "end" : 10},
		{"id" : 10, "text" : "었", "type" : "EP", "scode" : "00", "weight" : 1, "position" : 133, "begin" : 11, "end" : 11},
		{"id" : 11, "text" : "다", "type" : "EF", "scode" : "00", "weight" : 1, "position" : 136, "begin" : 12, "end" : 12},
		{"id" : 12, "text" : ".", "type" : "SF", "scode" : "00", "weight" : 1, "position" : 139, "begin" : 13, "end" : 13}
	],
	"word" : [
		{"id" : 0, "text" : "2009년11월", "type" : "", "begin" : 0, "end" : 3},
		{"id" : 1, "text" : "6일에", "type" : "", "begin" : 4, "end" : 6},
		{"id" : 2, "text" : "랜덤하우스코리아에서", "type" : "", "begin" : 7, "end" : 8},
		{"id" : 3, "text" : "발간하였다.", "type" : "", "begin" : 9, "end" : 13}
	],
	"NE" : [
		{"id" : 0, "text" : "2009년11월 6일", "type" : "DT_OTHERS", "begin" : 0, "end" : 5, "weight" : 0.905886, "common_noun" : 0},
		{"id" : 1, "text" : "랜덤하우스코리아", "type" : "OGG_ECONOMY", "begin" : 7, "end" : 7, "weight" : 0.207193, "common_noun" : 0}
	],
	"chunk" : [
	],
	"dependency" : [
		{"id" : 0, "text" : "2009년11월", "head" : 1, "label" : "NP", "mod" : [], "weight" : 0.929349 },
		{"id" : 1, "text" : "6일에", "head" : 3, "label" : "NP_AJT", "mod" : [0], "weight" : 0.701774 },
		{"id" : 2, "text" : "랜덤하우스코리아에서", "head" : 3, "label" : "NP_AJT", "mod" : [], "weight" : 0.507374 },
		{"id" : 3, "text" : "발간하였다.", "head" : -1, "label" : "VP", "mod" : [1, 2], "weight" : 0.193084 }
	],
	"SRL" : [
		{"verb" : "발간", "sense" : 1, "word_id" : 3, "weight" : 0.236567,
			"argument" : [
				{"type" : "ARGM-TMP", "word_id" : 1, "text" : "6일에", "weight" : 0.303586 },
				{"type" : "ARGM-LOC", "word_id" : 2, "text" : "랜덤하우스코리아에서", "weight" : 0.169547 }
			] }
	],
	"relation" : [
	],
	"SA" : [
	],
	"ZA" : [
		{"id" : 0, "verb_wid" : 3, "ant_sid" : -1, "ant_wid" : -1, "type" : "s", "istitle" : 0, "weight" : 0.610264 },
		{"id" : 1, "verb_wid" : 3, "ant_sid" : -1, "ant_wid" : -1, "type" : "o", "istitle" : 0, "weight" : 0.466542 }
	]
	},
	{
	"id" : 2,
	"reserve_str" : "",
	"text" : "장정일은 이 소설을 쓰면서 '우익 청년 탄생기(성장기)'를 염두에 두었다고 한다.",
	"morp" : [
		{"id" : 0, "lemma" : "장정일", "type" : "NNP", "position" : 140, "weight" : 0.6 },
		{"id" : 1, "lemma" : "은", "type" : "JX", "position" : 149, "weight" : 0.0520511 },
		{"id" : 2, "lemma" : "이", "type" : "MM", "position" : 153, "weight" : 0.00176496 },
		{"id" : 3, "lemma" : "소설", "type" : "NNG", "position" : 157, "weight" : 0.9 },
		{"id" : 4, "lemma" : "을", "type" : "JKO", "position" : 163, "weight" : 0.129611 },
		{"id" : 5, "lemma" : "쓰", "type" : "VV", "position" : 167, "weight" : 0.772556 },
		{"id" : 6, "lemma" : "면서", "type" : "EC", "position" : 170, "weight" : 0.428918 },
		{"id" : 7, "lemma" : "'", "type" : "SS", "position" : 177, "weight" : 1 },
		{"id" : 8, "lemma" : "우익", "type" : "NNG", "position" : 178, "weight" : 0.9 },
		{"id" : 9, "lemma" : "청년", "type" : "NNG", "position" : 185, "weight" : 0.184757 },
		{"id" : 10, "lemma" : "탄생", "type" : "NNG", "position" : 192, "weight" : 0.9 },
		{"id" : 11, "lemma" : "기", "type" : "XSN", "position" : 198, "weight" : 0.000294499 },
		{"id" : 12, "lemma" : "(", "type" : "SS", "position" : 201, "weight" : 1 },
		{"id" : 13, "lemma" : "성장", "type" : "NNG", "position" : 202, "weight" : 0.9 },
		{"id" : 14, "lemma" : "기", "type" : "NNG", "position" : 208, "weight" : 0.00338898 },
		{"id" : 15, "lemma" : ")", "type" : "SS", "position" : 211, "weight" : 1 },
		{"id" : 16, "lemma" : "'", "type" : "SS", "position" : 212, "weight" : 1 },
		{"id" : 17, "lemma" : "를", "type" : "JKO", "position" : 213, "weight" : 0.0357023 },
		{"id" : 18, "lemma" : "염두", "type" : "NNG", "position" : 217, "weight" : 0.9 },
		{"id" : 19, "lemma" : "에", "type" : "JKB", "position" : 223, "weight" : 0.153364 },
		{"id" : 20, "lemma" : "두", "type" : "VV", "position" : 227, "weight" : 0.11014 },
		{"id" : 21, "lemma" : "었", "type" : "EP", "position" : 230, "weight" : 0.9 },
		{"id" : 22, "lemma" : "다고", "type" : "EC", "position" : 233, "weight" : 0.193823 },
		{"id" : 23, "lemma" : "하", "type" : "VV", "position" : 240, "weight" : 0.140183 },
		{"id" : 24, "lemma" : "ㄴ다", "type" : "EF", "position" : 240, "weight" : 0.0793196 },
		{"id" : 25, "lemma" : ".", "type" : "SF", "position" : 246, "weight" : 1 }
	],
	"morp_eval" : [
		{"id" : 0, "result" : "장정일/NNG+은/JX", "target" : "장정일은", "word_id" : 0, "m_begin" : 0, "m_end" : 1},
		{"id" : 1, "result" : "이/MM", "target" : "이", "word_id" : 1, "m_begin" : 2, "m_end" : 2},
		{"id" : 2, "result" : "소설/NNG+을/JKO", "target" : "소설을", "word_id" : 2, "m_begin" : 3, "m_end" : 4},
		{"id" : 3, "result" : "쓰/VV+면서/EC", "target" : "쓰면서", "word_id" : 3, "m_begin" : 5, "m_end" : 6},
		{"id" : 4, "result" : "'/SS+우익/NNG", "target" : "'우익", "word_id" : 4, "m_begin" : 7, "m_end" : 8},
		{"id" : 5, "result" : "청년/NNG", "target" : "청년", "word_id" : 5, "m_begin" : 9, "m_end" : 9},
		{"id" : 6, "result" : "탄생기/NNG+(/SS+성장기/NNG+)/SS+'/SS+를/JKO", "target" : "탄생기(성장기)'를", "word_id" : 6, "m_begin" : 10, "m_end" : 17},
		{"id" : 7, "result" : "염두/NNG+에/JKB", "target" : "염두에", "word_id" : 7, "m_begin" : 18, "m_end" : 19},
		{"id" : 8, "result" : "두/VV+었/EP+다고/EC", "target" : "두었다고", "word_id" : 8, "m_begin" : 20, "m_end" : 22},
		{"id" : 9, "result" : "하/VV+ㄴ다/EF+./SF", "target" : "한다.", "word_id" : 9, "m_begin" : 23, "m_end" : 25}
	],
	"WSD" : [
		{"id" : 0, "text" : "장정일", "type" : "NNP", "scode" : "00", "weight" : 1, "position" : 140, "begin" : 0, "end" : 0},
		{"id" : 1, "text" : "은", "type" : "JX", "scode" : "00", "weight" : 1, "position" : 149, "begin" : 1, "end" : 1},
		{"id" : 2, "text" : "이", "type" : "MM", "scode" : "05", "weight" : 1, "position" : 153, "begin" : 2, "end" : 2},
		{"id" : 3, "text" : "소설", "type" : "NNG", "scode" : "03", "weight" : 1, "position" : 157, "begin" : 3, "end" : 3},
		{"id" : 4, "text" : "을", "type" : "JKO", "scode" : "00", "weight" : 1, "position" : 163, "begin" : 4, "end" : 4},
		{"id" : 5, "text" : "쓰", "type" : "VV", "scode" : "03", "weight" : 1, "position" : 167, "begin" : 5, "end" : 5},
		{"id" : 6, "text" : "면서", "type" : "EC", "scode" : "00", "weight" : 1, "position" : 170, "begin" : 6, "end" : 6},
		{"id" : 7, "text" : "'", "type" : "SS", "scode" : "00", "weight" : 1, "position" : 177, "begin" : 7, "end" : 7},
		{"id" : 8, "text" : "우익", "type" : "NNG", "scode" : "01", "weight" : 1, "position" : 178, "begin" : 8, "end" : 8},
		{"id" : 9, "text" : "청년", "type" : "NNG", "scode" : "00", "weight" : 1, "position" : 185, "begin" : 9, "end" : 9},
		{"id" : 10, "text" : "탄생", "type" : "NNG", "scode" : "00", "weight" : 1, "position" : 192, "begin" : 10, "end" : 10},
		{"id" : 11, "text" : "기", "type" : "XSN", "scode" : "43", "weight" : 1, "position" : 198, "begin" : 11, "end" : 11},
		{"id" : 12, "text" : "(", "type" : "SS", "scode" : "00", "weight" : 1, "position" : 201, "begin" : 12, "end" : 12},
		{"id" : 13, "text" : "성장기", "type" : "NNG", "scode" : "00", "weight" : 1, "position" : 202, "begin" : 13, "end" : 14},
		{"id" : 14, "text" : ")", "type" : "SS", "scode" : "00", "weight" : 1, "position" : 211, "begin" : 15, "end" : 15},
		{"id" : 15, "text" : "'", "type" : "SS", "scode" : "00", "weight" : 1, "position" : 212, "begin" : 16, "end" : 16},
		{"id" : 16, "text" : "를", "type" : "JKO", "scode" : "00", "weight" : 1, "position" : 213, "begin" : 17, "end" : 17},
		{"id" : 17, "text" : "염두", "type" : "NNG", "scode" : "01", "weight" : 1, "position" : 217, "begin" : 18, "end" : 18},
		{"id" : 18, "text" : "에", "type" : "JKB", "scode" : "00", "weight" : 1, "position" : 223, "begin" : 19, "end" : 19},
		{"id" : 19, "text" : "두", "type" : "VV", "scode" : "01", "weight" : 1, "position" : 227, "begin" : 20, "end" : 20},
		{"id" : 20, "text" : "었", "type" : "EP", "scode" : "00", "weight" : 1, "position" : 230, "begin" : 21, "end" : 21},
		{"id" : 21, "text" : "다고", "type" : "EC", "scode" : "00", "weight" : 1, "position" : 233, "begin" : 22, "end" : 22},
		{"id" : 22, "text" : "하", "type" : "VV", "scode" : "01", "weight" : 1, "position" : 240, "begin" : 23, "end" : 23},
		{"id" : 23, "text" : "ㄴ다", "type" : "EF", "scode" : "00", "weight" : 1, "position" : 240, "begin" : 24, "end" : 24},
		{"id" : 24, "text" : ".", "type" : "SF", "scode" : "00", "weight" : 1, "position" : 246, "begin" : 25, "end" : 25}
	],
	"word" : [
		{"id" : 0, "text" : "장정일은", "type" : "", "begin" : 0, "end" : 1},
		{"id" : 1, "text" : "이", "type" : "", "begin" : 2, "end" : 2},
		{"id" : 2, "text" : "소설을", "type" : "", "begin" : 3, "end" : 4},
		{"id" : 3, "text" : "쓰면서", "type" : "", "begin" : 5, "end" : 6},
		{"id" : 4, "text" : "'우익", "type" : "", "begin" : 7, "end" : 8},
		{"id" : 5, "text" : "청년", "type" : "", "begin" : 9, "end" : 9},
		{"id" : 6, "text" : "탄생기(성장기)'를", "type" : "", "begin" : 10, "end" : 17},
		{"id" : 7, "text" : "염두에", "type" : "", "begin" : 18, "end" : 19},
		{"id" : 8, "text" : "두었다고", "type" : "", "begin" : 20, "end" : 22},
		{"id" : 9, "text" : "한다.", "type" : "", "begin" : 23, "end" : 25}
	],
	"NE" : [
		{"id" : 0, "text" : "장정일", "type" : "PS_NAME", "begin" : 0, "end" : 0, "weight" : 0.375392, "common_noun" : 0},
		{"id" : 1, "text" : "소설", "type" : "FD_ART", "begin" : 3, "end" : 3, "weight" : 0.444889, "common_noun" : 0}
	],
	"chunk" : [
	],
	"dependency" : [
		{"id" : 0, "text" : "장정일은", "head" : 3, "label" : "NP_SBJ", "mod" : [], "weight" : 0.631389 },
		{"id" : 1, "text" : "이", "head" : 2, "label" : "DP", "mod" : [], "weight" : 0.800518 },
		{"id" : 2, "text" : "소설을", "head" : 3, "label" : "NP_OBJ", "mod" : [1], "weight" : 0.936226 },
		{"id" : 3, "text" : "쓰면서", "head" : 8, "label" : "VP", "mod" : [0, 2], "weight" : 0.637456 },
		{"id" : 4, "text" : "'우익", "head" : 5, "label" : "NP", "mod" : [], "weight" : 0.762634 },
		{"id" : 5, "text" : "청년", "head" : 6, "label" : "NP", "mod" : [4], "weight" : 0.9163 },
		{"id" : 6, "text" : "탄생기(성장기)'를", "head" : 8, "label" : "NP_OBJ", "mod" : [5], "weight" : 0.814551 },
		{"id" : 7, "text" : "염두에", "head" : 8, "label" : "NP_AJT", "mod" : [], "weight" : 0.683161 },
		{"id" : 8, "text" : "두었다고", "head" : 9, "label" : "VP_CMP", "mod" : [3, 6, 7], "weight" : 0.568469 },
		{"id" : 9, "text" : "한다.", "head" : -1, "label" : "VP", "mod" : [8], "weight" : 0.0537992 }
	],
	"SRL" : [
		{"verb" : "쓰", "sense" : 1, "word_id" : 3, "weight" : 0.241612,
			"argument" : [
				{"type" : "ARG0", "word_id" : 0, "text" : "장정일은", "weight" : 0.218791 },
				{"type" : "ARG1", "word_id" : 2, "text" : "소설을", "weight" : 0.264433 }
			] },
		{"verb" : "두", "sense" : 1, "word_id" : 8, "weight" : 0.239679,
			"argument" : [
				{"type" : "ARG1", "word_id" : 6, "text" : "탄생기(성장기)'를", "weight" : 0.201464 },
				{"type" : "ARG2", "word_id" : 7, "text" : "염두에", "weight" : 0.277893 }
			] },
		{"verb" : "하", "sense" : 2, "word_id" : 9, "weight" : 0.43082,
			"argument" : [
				{"type" : "ARG1", "word_id" : 8, "text" : "두었다고", "weight" : 0.43082 }
			] }
	],
	"relation" : [
	],
	"SA" : [
	],
	"ZA" : [
		{"id" : 0, "verb_wid" : 8, "ant_sid" : 2, "ant_wid" : 0, "type" : "s", "istitle" : 0, "weight" : 0.42834 }
	]
	},
	{
	"id" : 3,
	"reserve_str" : "",
	"text" : "등장인물 중에 한명은 '은'은 이런 작가의 생각이 드러나 있는 인물이다.",
	"morp" : [
		{"id" : 0, "lemma" : "등장", "type" : "NNG", "position" : 247, "weight" : 0.9 },
		{"id" : 1, "lemma" : "인물", "type" : "NNG", "position" : 253, "weight" : 0.184792 },
		{"id" : 2, "lemma" : "중", "type" : "NNB", "position" : 260, "weight" : 0.013531 },
		{"id" : 3, "lemma" : "에", "type" : "JKB", "position" : 263, "weight" : 0.135559 },
		{"id" : 4, "lemma" : "한", "type" : "MM", "position" : 267, "weight" : 0.0170035 },
		{"id" : 5, "lemma" : "명", "type" : "NNB", "position" : 270, "weight" : 0.173745 },
		{"id" : 6, "lemma" : "은", "type" : "JX", "position" : 273, "weight" : 0.0688243 },
		{"id" : 7, "lemma" : "'", "type" : "SS", "position" : 277, "weight" : 1 },
		{"id" : 8, "lemma" : "은", "type" : "JX", "position" : 278, "weight" : 0.0128817 },
		{"id" : 9, "lemma" : "'", "type" : "SS", "position" : 281, "weight" : 1 },
		{"id" : 10, "lemma" : "은", "type" : "JX", "position" : 282, "weight" : 0.0128817 },
		{"id" : 11, "lemma" : "이런", "type" : "MM", "position" : 286, "weight" : 0.0413869 },
		{"id" : 12, "lemma" : "작가", "type" : "NNG", "position" : 293, "weight" : 0.737288 },
		{"id" : 13, "lemma" : "의", "type" : "JKG", "position" : 299, "weight" : 0.0694213 },
		{"id" : 14, "lemma" : "생각", "type" : "NNG", "position" : 303, "weight" : 0.9 },
		{"id" : 15, "lemma" : "이", "type" : "JKS", "position" : 309, "weight" : 0.0360723 },
		{"id" : 16, "lemma" : "드러나", "type" : "VV", "position" : 313, "weight" : 0.9 },
		{"id" : 17, "lemma" : "아", "type" : "EC", "position" : 319, "weight" : 0.398809 },
		{"id" : 18, "lemma" : "있", "type" : "VX", "position" : 323, "weight" : 0.125953 },
		{"id" : 19, "lemma" : "는", "type" : "ETM", "position" : 326, "weight" : 0.183966 },
		{"id" : 20, "lemma" : "인물", "type" : "NNG", "position" : 330, "weight" : 0.65867 },
		{"id" : 21, "lemma" : "이", "type" : "VCP", "position" : 336, "weight" : 0.0177525 },
		{"id" : 22, "lemma" : "다", "type" : "EF", "position" : 339, "weight" : 0.353579 },
		{"id" : 23, "lemma" : ".", "type" : "SF", "position" : 342, "weight" : 1 }
	],
	"morp_eval" : [
		{"id" : 0, "result" : "등장인물/NNG", "target" : "등장인물", "word_id" : 0, "m_begin" : 0, "m_end" : 1},
		{"id" : 1, "result" : "중/NNB+에/JKB", "target" : "중에", "word_id" : 1, "m_begin" : 2, "m_end" : 3},
		{"id" : 2, "result" : "한/MM+명/NNB+은/JX", "target" : "한명은", "word_id" : 2, "m_begin" : 4, "m_end" : 6},
		{"id" : 3, "result" : "'/SS+은/JX+'/SS+은/JX", "target" : "'은'은", "word_id" : 3, "m_begin" : 7, "m_end" : 10},
		{"id" : 4, "result" : "이런/MM", "target" : "이런", "word_id" : 4, "m_begin" : 11, "m_end" : 11},
		{"id" : 5, "result" : "작가/NNG+의/JKG", "target" : "작가의", "word_id" : 5, "m_begin" : 12, "m_end" : 13},
		{"id" : 6, "result" : "생각/NNG+이/JKS", "target" : "생각이", "word_id" : 6, "m_begin" : 14, "m_end" : 15},
		{"id" : 7, "result" : "드러나/VV+어/EC", "target" : "드러나", "word_id" : 7, "m_begin" : 16, "m_end" : 17},
		{"id" : 8, "result" : "있/VX+는/ETM", "target" : "있는", "word_id" : 8, "m_begin" : 18, "m_end" : 19},
		{"id" : 9, "result" : "인물/NNG+이/VCP+다/EF+./SF", "target" : "인물이다.", "word_id" : 9, "m_begin" : 20, "m_end" : 23}
	],
	"WSD" : [
		{"id" : 0, "text" : "등장인물", "type" : "NNG", "scode" : "00", "weight" : 1, "position" : 247, "begin" : 0, "end" : 1},
		{"id" : 1, "text" : "중", "type" : "NNB", "scode" : "04", "weight" : 1, "position" : 260, "begin" : 2, "end" : 2},
		{"id" : 2, "text" : "에", "type" : "JKB", "scode" : "00", "weight" : 1, "position" : 263, "begin" : 3, "end" : 3},
		{"id" : 3, "text" : "한", "type" : "MM", "scode" : "01", "weight" : 1, "position" : 267, "begin" : 4, "end" : 4},
		{"id" : 4, "text" : "명", "type" : "NNB", "scode" : "03", "weight" : 1, "position" : 270, "begin" : 5, "end" : 5},
		{"id" : 5, "text" : "은", "type" : "JX", "scode" : "00", "weight" : 1, "position" : 273, "begin" : 6, "end" : 6},
		{"id" : 6, "text" : "'", "type" : "SS", "scode" : "00", "weight" : 1, "position" : 277, "begin" : 7, "end" : 7},
		{"id" : 7, "text" : "은", "type" : "JX", "scode" : "00", "weight" : 1, "position" : 278, "begin" : 8, "end" : 8},
		{"id" : 8, "text" : "'", "type" : "SS", "scode" : "00", "weight" : 1, "position" : 281, "begin" : 9, "end" : 9},
		{"id" : 9, "text" : "은", "type" : "JX", "scode" : "00", "weight" : 1, "position" : 282, "begin" : 10, "end" : 10},
		{"id" : 10, "text" : "이런", "type" : "MM", "scode" : "01", "weight" : 1, "position" : 286, "begin" : 11, "end" : 11},
		{"id" : 11, "text" : "작가", "type" : "NNG", "scode" : "01", "weight" : 1, "position" : 293, "begin" : 12, "end" : 12},
		{"id" : 12, "text" : "의", "type" : "JKG", "scode" : "00", "weight" : 1, "position" : 299, "begin" : 13, "end" : 13},
		{"id" : 13, "text" : "생각", "type" : "NNG", "scode" : "01", "weight" : 1, "position" : 303, "begin" : 14, "end" : 14},
		{"id" : 14, "text" : "이", "type" : "JKS", "scode" : "00", "weight" : 1, "position" : 309, "begin" : 15, "end" : 15},
		{"id" : 15, "text" : "드러나", "type" : "VV", "scode" : "00", "weight" : 1, "position" : 313, "begin" : 16, "end" : 16},
		{"id" : 16, "text" : "아", "type" : "EC", "scode" : "00", "weight" : 1, "position" : 319, "begin" : 17, "end" : 17},
		{"id" : 17, "text" : "있", "type" : "VX", "scode" : "01", "weight" : 1, "position" : 323, "begin" : 18, "end" : 18},
		{"id" : 18, "text" : "는", "type" : "ETM", "scode" : "00", "weight" : 1, "position" : 326, "begin" : 19, "end" : 19},
		{"id" : 19, "text" : "인물", "type" : "NNG", "scode" : "00", "weight" : 1, "position" : 330, "begin" : 20, "end" : 20},
		{"id" : 20, "text" : "이", "type" : "VCP", "scode" : "00", "weight" : 1, "position" : 336, "begin" : 21, "end" : 21},
		{"id" : 21, "text" : "다", "type" : "EF", "scode" : "00", "weight" : 1, "position" : 339, "begin" : 22, "end" : 22},
		{"id" : 22, "text" : ".", "type" : "SF", "scode" : "00", "weight" : 1, "position" : 342, "begin" : 23, "end" : 23}
	],
	"word" : [
		{"id" : 0, "text" : "등장인물", "type" : "", "begin" : 0, "end" : 1},
		{"id" : 1, "text" : "중에", "type" : "", "begin" : 2, "end" : 3},
		{"id" : 2, "text" : "한명은", "type" : "", "begin" : 4, "end" : 6},
		{"id" : 3, "text" : "'은'은", "type" : "", "begin" : 7, "end" : 10},
		{"id" : 4, "text" : "이런", "type" : "", "begin" : 11, "end" : 11},
		{"id" : 5, "text" : "작가의", "type" : "", "begin" : 12, "end" : 13},
		{"id" : 6, "text" : "생각이", "type" : "", "begin" : 14, "end" : 15},
		{"id" : 7, "text" : "드러나", "type" : "", "begin" : 16, "end" : 17},
		{"id" : 8, "text" : "있는", "type" : "", "begin" : 18, "end" : 19},
		{"id" : 9, "text" : "인물이다.", "type" : "", "begin" : 20, "end" : 23}
	],
	"NE" : [
		{"id" : 0, "text" : "한명", "type" : "QT_MAN_COUNT", "begin" : 4, "end" : 5, "weight" : 0.461245, "common_noun" : 0},
		{"id" : 1, "text" : "작가", "type" : "CV_OCCUPATION", "begin" : 12, "end" : 12, "weight" : 0.463142, "common_noun" : 0}
	],
	"chunk" : [
	],
	"dependency" : [
		{"id" : 0, "text" : "등장인물", "head" : 1, "label" : "NP", "mod" : [], "weight" : 0.939687 },
		{"id" : 1, "text" : "중에", "head" : 2, "label" : "NP_AJT", "mod" : [0], "weight" : 0.509274 },
		{"id" : 2, "text" : "한명은", "head" : 7, "label" : "NP_AJT", "mod" : [1], "weight" : 0.801344 },
		{"id" : 3, "text" : "'은'은", "head" : 7, "label" : "NP_SBJ", "mod" : [], "weight" : 0.942166 },
		{"id" : 4, "text" : "이런", "head" : 5, "label" : "DP", "mod" : [], "weight" : 0.586661 },
		{"id" : 5, "text" : "작가의", "head" : 6, "label" : "NP_MOD", "mod" : [4], "weight" : 0.746549 },
		{"id" : 6, "text" : "생각이", "head" : 7, "label" : "NP_SBJ", "mod" : [5], "weight" : 0.820169 },
		{"id" : 7, "text" : "드러나", "head" : 8, "label" : "VP", "mod" : [2, 3, 6], "weight" : 0.627506 },
		{"id" : 8, "text" : "있는", "head" : 9, "label" : "VP_MOD", "mod" : [7], "weight" : 0.520125 },
		{"id" : 9, "text" : "인물이다.", "head" : -1, "label" : "VNP", "mod" : [8], "weight" : 0.0263596 }
	],
	"SRL" : [
		{"verb" : "드러나", "sense" : 1, "word_id" : 7, "weight" : 0.288949,
			"argument" : [
				{"type" : "ARG1", "word_id" : 6, "text" : "생각이", "weight" : 0.149837 },
				{"type" : "AUX", "word_id" : 8, "text" : "있는", "weight" : 0.428061 }
			] }
	],
	"relation" : [
	],
	"SA" : [
	],
	"ZA" : [
		{"id" : 0, "verb_wid" : 9, "ant_sid" : 2, "ant_wid" : 0, "type" : "s", "istitle" : 0, "weight" : 0.185129 }
	]
	},
	{
	"id" : 4,
	"reserve_str" : "",
	"text" : "고등학교를 졸업하고 같은 대학교에 입학한 '금'과 '은'이 있다.",
	"morp" : [
		{"id" : 0, "lemma" : "고등", "type" : "NNG", "position" : 343, "weight" : 0.9 },
		{"id" : 1, "lemma" : "학교", "type" : "NNG", "position" : 349, "weight" : 0.184769 },
		{"id" : 2, "lemma" : "를", "type" : "JKO", "position" : 355, "weight" : 0.137686 },
		{"id" : 3, "lemma" : "졸업", "type" : "NNG", "position" : 359, "weight" : 0.101254 },
		{"id" : 4, "lemma" : "하", "type" : "XSV", "position" : 365, "weight" : 0.0001 },
		{"id" : 5, "lemma" : "고", "type" : "EC", "position" : 368, "weight" : 0.359917 },
		{"id" : 6, "lemma" : "같", "type" : "VA", "position" : 372, "weight" : 0.0501717 },
		{"id" : 7, "lemma" : "은", "type" : "ETM", "position" : 375, "weight" : 0.155123 },
		{"id" : 8, "lemma" : "대", "type" : "XPN", "position" : 379, "weight" : 0.00011884 },
		{"id" : 9, "lemma" : "학교", "type" : "NNG", "position" : 382, "weight" : 0.473729 },
		{"id" : 10, "lemma" : "에", "type" : "JKB", "position" : 388, "weight" : 0.153364 },
		{"id" : 11, "lemma" : "입학", "type" : "NNG", "position" : 392, "weight" : 0.9 },
		{"id" : 12, "lemma" : "하", "type" : "XSV", "position" : 398, "weight" : 0.0001 },
		{"id" : 13, "lemma" : "ㄴ", "type" : "ETM", "position" : 398, "weight" : 0.392321 },
		{"id" : 14, "lemma" : "'", "type" : "SS", "position" : 402, "weight" : 1 },
		{"id" : 15, "lemma" : "금", "type" : "NNG", "position" : 403, "weight" : 0.171731 },
		{"id" : 16, "lemma" : "'", "type" : "SS", "position" : 406, "weight" : 1 },
		{"id" : 17, "lemma" : "과", "type" : "JC", "position" : 407, "weight" : 0.00441114 },
		{"id" : 18, "lemma" : "'", "type" : "SS", "position" : 411, "weight" : 1 },
		{"id" : 19, "lemma" : "은", "type" : "NNG", "position" : 412, "weight" : 0.000259566 },
		{"id" : 20, "lemma" : "'", "type" : "SS", "position" : 415, "weight" : 1 },
		{"id" : 21, "lemma" : "이", "type" : "JKS", "position" : 416, "weight" : 0.00786134 },
		{"id" : 22, "lemma" : "있", "type" : "VA", "position" : 420, "weight" : 0.12767 },
		{"id" : 23, "lemma" : "다", "type" : "EF", "position" : 423, "weight" : 0.132573 },
		{"id" : 24, "lemma" : ".", "type" : "SF", "position" : 426, "weight" : 1 }
	],
	"morp_eval" : [
		{"id" : 0, "result" : "고등학교/NNG+를/JKO", "target" : "고등학교를", "word_id" : 0, "m_begin" : 0, "m_end" : 2},
		{"id" : 1, "result" : "졸업하/VV+고/EC", "target" : "졸업하고", "word_id" : 1, "m_begin" : 3, "m_end" : 5},
		{"id" : 2, "result" : "같/VA+은/ETM", "target" : "같은", "word_id" : 2, "m_begin" : 6, "m_end" : 7},
		{"id" : 3, "result" : "대학교/NNG+에/JKB", "target" : "대학교에", "word_id" : 3, "m_begin" : 8, "m_end" : 10},
		{"id" : 4, "result" : "입학하/VV+ㄴ/ETM", "target" : "입학한", "word_id" : 4, "m_begin" : 11, "m_end" : 13},
		{"id" : 5, "result" : "'/SS+금/NNG+'/SS+과/JC", "target" : "'금'과", "word_id" : 5, "m_begin" : 14, "m_end" : 17},
		{"id" : 6, "result" : "'/SS+은/NNG+'/SS+이/JKS", "target" : "'은'이", "word_id" : 6, "m_begin" : 18, "m_end" : 21},
		{"id" : 7, "result" : "있/VA+다/EF+./SF", "target" : "있다.", "word_id" : 7, "m_begin" : 22, "m_end" : 24}
	],
	"WSD" : [
		{"id" : 0, "text" : "고등학교", "type" : "NNG", "scode" : "00", "weight" : 1, "position" : 343, "begin" : 0, "end" : 1},
		{"id" : 1, "text" : "를", "type" : "JKO", "scode" : "00", "weight" : 1, "position" : 355, "begin" : 2, "end" : 2},
		{"id" : 2, "text" : "졸업하", "type" : "VV", "scode" : "00", "weight" : 1, "position" : 359, "begin" : 3, "end" : 4},
		{"id" : 3, "text" : "고", "type" : "EC", "scode" : "00", "weight" : 1, "position" : 368, "begin" : 5, "end" : 5},
		{"id" : 4, "text" : "같", "type" : "VA", "scode" : "00", "weight" : 1, "position" : 372, "begin" : 6, "end" : 6},
		{"id" : 5, "text" : "은", "type" : "ETM", "scode" : "00", "weight" : 1, "position" : 375, "begin" : 7, "end" : 7},
		{"id" : 6, "text" : "대학교", "type" : "NNG", "scode" : "00", "weight" : 1, "position" : 379, "begin" : 8, "end" : 9},
		{"id" : 7, "text" : "에", "type" : "JKB", "scode" : "00", "weight" : 1, "position" : 388, "begin" : 10, "end" : 10},
		{"id" : 8, "text" : "입학하", "type" : "VV", "scode" : "00", "weight" : 1, "position" : 392, "begin" : 11, "end" : 12},
		{"id" : 9, "text" : "ㄴ", "type" : "ETM", "scode" : "00", "weight" : 1, "position" : 398, "begin" : 13, "end" : 13},
		{"id" : 10, "text" : "'", "type" : "SS", "scode" : "00", "weight" : 1, "position" : 402, "begin" : 14, "end" : 14},
		{"id" : 11, "text" : "금", "type" : "NNG", "scode" : "06", "weight" : 1, "position" : 403, "begin" : 15, "end" : 15},
		{"id" : 12, "text" : "'", "type" : "SS", "scode" : "00", "weight" : 1, "position" : 406, "begin" : 16, "end" : 16},
		{"id" : 13, "text" : "과", "type" : "JC", "scode" : "00", "weight" : 1, "position" : 407, "begin" : 17, "end" : 17},
		{"id" : 14, "text" : "'", "type" : "SS", "scode" : "00", "weight" : 1, "position" : 411, "begin" : 18, "end" : 18},
		{"id" : 15, "text" : "은", "type" : "NNG", "scode" : "04", "weight" : 1, "position" : 412, "begin" : 19, "end" : 19},
		{"id" : 16, "text" : "'", "type" : "SS", "scode" : "00", "weight" : 1, "position" : 415, "begin" : 20, "end" : 20},
		{"id" : 17, "text" : "이", "type" : "JKS", "scode" : "00", "weight" : 1, "position" : 416, "begin" : 21, "end" : 21},
		{"id" : 18, "text" : "있", "type" : "VA", "scode" : "01", "weight" : 1, "position" : 420, "begin" : 22, "end" : 22},
		{"id" : 19, "text" : "다", "type" : "EF", "scode" : "00", "weight" : 1, "position" : 423, "begin" : 23, "end" : 23},
		{"id" : 20, "text" : ".", "type" : "SF", "scode" : "00", "weight" : 1, "position" : 426, "begin" : 24, "end" : 24}
	],
	"word" : [
		{"id" : 0, "text" : "고등학교를", "type" : "", "begin" : 0, "end" : 2},
		{"id" : 1, "text" : "졸업하고", "type" : "", "begin" : 3, "end" : 5},
		{"id" : 2, "text" : "같은", "type" : "", "begin" : 6, "end" : 7},
		{"id" : 3, "text" : "대학교에", "type" : "", "begin" : 8, "end" : 10},
		{"id" : 4, "text" : "입학한", "type" : "", "begin" : 11, "end" : 13},
		{"id" : 5, "text" : "'금'과", "type" : "", "begin" : 14, "end" : 17},
		{"id" : 6, "text" : "'은'이", "type" : "", "begin" : 18, "end" : 21},
		{"id" : 7, "text" : "있다.", "type" : "", "begin" : 22, "end" : 24}
	],
	"NE" : [
		{"id" : 0, "text" : "금", "type" : "MT_METAL", "begin" : 15, "end" : 15, "weight" : 0.155936, "common_noun" : 0}
	],
	"chunk" : [
	],
	"dependency" : [
		{"id" : 0, "text" : "고등학교를", "head" : 1, "label" : "NP_OBJ", "mod" : [], "weight" : 0.891541 },
		{"id" : 1, "text" : "졸업하고", "head" : 4, "label" : "VP", "mod" : [0], "weight" : 0.696983 },
		{"id" : 2, "text" : "같은", "head" : 3, "label" : "VP_MOD", "mod" : [], "weight" : 0.737813 },
		{"id" : 3, "text" : "대학교에", "head" : 4, "label" : "NP_AJT", "mod" : [2], "weight" : 0.98433 },
		{"id" : 4, "text" : "입학한", "head" : 6, "label" : "VP_MOD", "mod" : [1, 3], "weight" : 0.738818 },
		{"id" : 5, "text" : "'금'과", "head" : 6, "label" : "NP_CNJ", "mod" : [], "weight" : 0.854809 },
		{"id" : 6, "text" : "'은'이", "head" : 7, "label" : "NP_SBJ", "mod" : [4, 5], "weight" : 0.522254 },
		{"id" : 7, "text" : "있다.", "head" : -1, "label" : "VP", "mod" : [6], "weight" : 0.108191 }
	],
	"SRL" : [
		{"verb" : "졸업", "sense" : 1, "word_id" : 1, "weight" : 0.263959,
			"argument" : [
				{"type" : "ARG1", "word_id" : 0, "text" : "고등학교를", "weight" : 0.260548 },
				{"type" : "ARG0", "word_id" : 6, "text" : "'은'이", "weight" : 0.267369 }
			] },
		{"verb" : "같", "sense" : 1, "word_id" : 2, "weight" : 0.482554,
			"argument" : [
				{"type" : "ARG1", "word_id" : 3, "text" : "대학교에", "weight" : 0.482554 }
			] },
		{"verb" : "입학", "sense" : 1, "word_id" : 4, "weight" : 0.250763,
			"argument" : [
				{"type" : "ARG0", "word_id" : 6, "text" : "'은'이", "weight" : 0.250763 }
			] },
		{"verb" : "있", "sense" : 1, "word_id" : 7, "weight" : 0.199989,
			"argument" : [
				{"type" : "ARG1", "word_id" : 5, "text" : "'금'과", "weight" : 0.123562 },
				{"type" : "ARG1", "word_id" : 6, "text" : "'은'이", "weight" : 0.276415 }
			] }
	],
	"relation" : [
	],
	"SA" : [
	],
	"ZA" : [
		{"id" : 0, "verb_wid" : 1, "ant_sid" : 2, "ant_wid" : 0, "type" : "s", "istitle" : 0, "weight" : 0.421331 }
	]
	},
	{
	"id" : 5,
	"reserve_str" : "",
	"text" : "마침 그들이 입학했을때 노무현의 대통령 취임식이 시작되고 있었다.",
	"morp" : [
		{"id" : 0, "lemma" : "마침", "type" : "MAG", "position" : 427, "weight" : 0.0646818 },
		{"id" : 1, "lemma" : "그", "type" : "NP", "position" : 434, "weight" : 0.0150789 },
		{"id" : 2, "lemma" : "들", "type" : "XSN", "position" : 437, "weight" : 0.055005 },
		{"id" : 3, "lemma" : "이", "type" : "JKS", "position" : 440, "weight" : 0.0731805 },
		{"id" : 4, "lemma" : "입학", "type" : "VV", "position" : 444, "weight" : 0 },
		{"id" : 5, "lemma" : "했을때", "type" : "NNP", "position" : 450, "weight" : 0.6 },
		{"id" : 6, "lemma" : "노무현", "type" : "NNP", "position" : 460, "weight" : 0.9 },
		{"id" : 7, "lemma" : "의", "type" : "JKG", "position" : 469, "weight" : 0.0987295 },
		{"id" : 8, "lemma" : "대통령", "type" : "NNG", "position" : 473, "weight" : 0.9 },
		{"id" : 9, "lemma" : "취임", "type" : "NNG", "position" : 483, "weight" : 0.9 },
		{"id" : 10, "lemma" : "식", "type" : "XSN", "position" : 489, "weight" : 0.0146035 },
		{"id" : 11, "lemma" : "이", "type" : "JKS", "position" : 492, "weight" : 0.0731805 },
		{"id" : 12, "lemma" : "시작", "type" : "NNG", "position" : 496, "weight" : 0.9 },
		{"id" : 13, "lemma" : "되", "type" : "XSV", "position" : 502, "weight" : 0.000224177 },
		{"id" : 14, "lemma" : "고", "type" : "EC", "position" : 505, "weight" : 0.359917 },
		{"id" : 15, "lemma" : "있", "type" : "VX", "position" : 509, "weight" : 0.125953 },
		{"id" : 16, "lemma" : "었", "type" : "EP", "position" : 512, "weight" : 0.9 },
		{"id" : 17, "lemma" : "다", "type" : "EF", "position" : 515, "weight" : 0.640954 },
		{"id" : 18, "lemma" : ".", "type" : "SF", "position" : 518, "weight" : 1 }
	],
	"morp_eval" : [
		{"id" : 0, "result" : "마침/MAG", "target" : "마침", "word_id" : 0, "m_begin" : 0, "m_end" : 0},
		{"id" : 1, "result" : "그/NP+들/XSN+이/JKS", "target" : "그들이", "word_id" : 1, "m_begin" : 1, "m_end" : 3},
		{"id" : 2, "result" : "입학/VV+했을때/NNG", "target" : "입학했을때", "word_id" : 2, "m_begin" : 4, "m_end" : 5},
		{"id" : 3, "result" : "노무현/NNG+의/JKG", "target" : "노무현의", "word_id" : 3, "m_begin" : 6, "m_end" : 7},
		{"id" : 4, "result" : "대통령/NNG", "target" : "대통령", "word_id" : 4, "m_begin" : 8, "m_end" : 8},
		{"id" : 5, "result" : "취임식/NNG+이/JKS", "target" : "취임식이", "word_id" : 5, "m_begin" : 9, "m_end" : 11},
		{"id" : 6, "result" : "시작되/VV+고/EC", "target" : "시작되고", "word_id" : 6, "m_begin" : 12, "m_end" : 14},
		{"id" : 7, "result" : "있/VX+었/EP+다/EF+./SF", "target" : "있었다.", "word_id" : 7, "m_begin" : 15, "m_end" : 18}
	],
	"WSD" : [
		{"id" : 0, "text" : "마침", "type" : "MAG", "scode" : "02", "weight" : 1, "position" : 427, "begin" : 0, "end" : 0},
		{"id" : 1, "text" : "그", "type" : "NP", "scode" : "01", "weight" : 1, "position" : 434, "begin" : 1, "end" : 1},
		{"id" : 2, "text" : "들", "type" : "XSN", "scode" : "09", "weight" : 1, "position" : 437, "begin" : 2, "end" : 2},
		{"id" : 3, "text" : "이", "type" : "JKS", "scode" : "00", "weight" : 1, "position" : 440, "begin" : 3, "end" : 3},
		{"id" : 4, "text" : "입학", "type" : "VV", "scode" : "00", "weight" : 0, "position" : 444, "begin" : 4, "end" : 4},
		{"id" : 5, "text" : "했을때", "type" : "NNP", "scode" : "00", "weight" : 0, "position" : 450, "begin" : 5, "end" : 5},
		{"id" : 6, "text" : "노무현", "type" : "NNP", "scode" : "00", "weight" : 1, "position" : 460, "begin" : 6, "end" : 6},
		{"id" : 7, "text" : "의", "type" : "JKG", "scode" : "00", "weight" : 1, "position" : 469, "begin" : 7, "end" : 7},
		{"id" : 8, "text" : "대통령", "type" : "NNG", "scode" : "00", "weight" : 1, "position" : 473, "begin" : 8, "end" : 8},
		{"id" : 9, "text" : "취임식", "type" : "NNG", "scode" : "00", "weight" : 1, "position" : 483, "begin" : 9, "end" : 10},
		{"id" : 10, "text" : "이", "type" : "JKS", "scode" : "00", "weight" : 1, "position" : 492, "begin" : 11, "end" : 11},
		{"id" : 11, "text" : "시작되", "type" : "VV", "scode" : "01", "weight" : 1, "position" : 496, "begin" : 12, "end" : 13},
		{"id" : 12, "text" : "고", "type" : "EC", "scode" : "00", "weight" : 1, "position" : 505, "begin" : 14, "end" : 14},
		{"id" : 13, "text" : "있", "type" : "VX", "scode" : "01", "weight" : 1, "position" : 509, "begin" : 15, "end" : 15},
		{"id" : 14, "text" : "었", "type" : "EP", "scode" : "00", "weight" : 1, "position" : 512, "begin" : 16, "end" : 16},
		{"id" : 15, "text" : "다", "type" : "EF", "scode" : "00", "weight" : 1, "position" : 515, "begin" : 17, "end" : 17},
		{"id" : 16, "text" : ".", "type" : "SF", "scode" : "00", "weight" : 1, "position" : 518, "begin" : 18, "end" : 18}
	],
	"word" : [
		{"id" : 0, "text" : "마침", "type" : "", "begin" : 0, "end" : 0},
		{"id" : 1, "text" : "그들이", "type" : "", "begin" : 1, "end" : 3},
		{"id" : 2, "text" : "입학했을때", "type" : "", "begin" : 4, "end" : 5},
		{"id" : 3, "text" : "노무현의", "type" : "", "begin" : 6, "end" : 7},
		{"id" : 4, "text" : "대통령", "type" : "", "begin" : 8, "end" : 8},
		{"id" : 5, "text" : "취임식이", "type" : "", "begin" : 9, "end" : 11},
		{"id" : 6, "text" : "시작되고", "type" : "", "begin" : 12, "end" : 14},
		{"id" : 7, "text" : "있었다.", "type" : "", "begin" : 15, "end" : 18}
	],
	"NE" : [
		{"id" : 0, "text" : "노무현", "type" : "PS_NAME", "begin" : 6, "end" : 6, "weight" : 0.577248, "common_noun" : 0},
		{"id" : 1, "text" : "대통령", "type" : "CV_POSITION", "begin" : 8, "end" : 8, "weight" : 0.384593, "common_noun" : 0}
	],
	"chunk" : [
	],
	"dependency" : [
		{"id" : 0, "text" : "마침", "head" : 6, "label" : "AP", "mod" : [], "weight" : 0.703089 },
		{"id" : 1, "text" : "그들이", "head" : 6, "label" : "NP_SBJ", "mod" : [], "weight" : 0.707585 },
		{"id" : 2, "text" : "입학했을때", "head" : 5, "label" : "NP", "mod" : [], "weight" : 0.791977 },
		{"id" : 3, "text" : "노무현의", "head" : 5, "label" : "NP_MOD", "mod" : [], "weight" : 0.855147 },
		{"id" : 4, "text" : "대통령", "head" : 5, "label" : "NP", "mod" : [], "weight" : 0.986398 },
		{"id" : 5, "text" : "취임식이", "head" : 6, "label" : "NP_SBJ", "mod" : [2, 3, 4], "weight" : 0.626608 },
		{"id" : 6, "text" : "시작되고", "head" : 7, "label" : "VP", "mod" : [0, 1, 5], "weight" : 0.536123 },
		{"id" : 7, "text" : "있었다.", "head" : -1, "label" : "VP", "mod" : [6], "weight" : 0.0864613 }
	],
	"SRL" : [
		{"verb" : "시작", "sense" : 1, "word_id" : 6, "weight" : 0.453827,
			"argument" : [
				{"type" : "ARG1", "word_id" : 5, "text" : "취임식이", "weight" : 0.285196 },
				{"type" : "AUX", "word_id" : 7, "text" : "있었다.", "weight" : 0.622459 }
			] }
	],
	"relation" : [
	],
	"SA" : [
	],
	"ZA" : [
	]
	},
	{
	"id" : 6,
	"reserve_str" : "",
	"text" : "'금'은 대한민국 호남지방에서 태어났으며, 체격이 건장하다.",
	"morp" : [
		{"id" : 0, "lemma" : "'", "type" : "SS", "position" : 519, "weight" : 1 },
		{"id" : 1, "lemma" : "금", "type" : "NNG", "position" : 520, "weight" : 0.171731 },
		{"id" : 2, "lemma" : "'", "type" : "SS", "position" : 523, "weight" : 1 },
		{"id" : 3, "lemma" : "은", "type" : "JX", "position" : 524, "weight" : 0.0128817 },
		{"id" : 4, "lemma" : "대한민국", "type" : "NNP", "position" : 528, "weight" : 0.0447775 },
		{"id" : 5, "lemma" : "호남", "type" : "NNP", "position" : 541, "weight" : 0.0799459 },
		{"id" : 6, "lemma" : "지방", "type" : "NNG", "position" : 547, "weight" : 0.9 },
		{"id" : 7, "lemma" : "에서", "type" : "JKB", "position" : 553, "weight" : 0.153407 },
		{"id" : 8, "lemma" : "태어나", "type" : "VV", "position" : 560, "weight" : 0.9 },
		{"id" : 9, "lemma" : "았", "type" : "EP", "position" : 566, "weight" : 0.9 },
		{"id" : 10, "lemma" : "으며", "type" : "EC", "position" : 569, "weight" : 0.197482 },
		{"id" : 11, "lemma" : ",", "type" : "SP", "position" : 575, "weight" : 1 },
		{"id" : 12, "lemma" : "체격", "type" : "NNG", "position" : 577, "weight" : 0.9 },
		{"id" : 13, "lemma" : "이", "type" : "JKS", "position" : 583, "weight" : 0.0360723 },
		{"id" : 14, "lemma" : "건장하", "type" : "VA", "position" : 587, "weight" : 0.9 },
		{"id" : 15, "lemma" : "다", "type" : "EF", "position" : 596, "weight" : 0.132573 },
		{"id" : 16, "lemma" : ".", "type" : "SF", "position" : 599, "weight" : 1 }
	],
	"morp_eval" : [
		{"id" : 0, "result" : "'/SS+금/NNG+'/SS+은/JX", "target" : "'금'은", "word_id" : 0, "m_begin" : 0, "m_end" : 3},
		{"id" : 1, "result" : "대한민국/NNG", "target" : "대한민국", "word_id" : 1, "m_begin" : 4, "m_end" : 4},
		{"id" : 2, "result" : "호남지방/NNG+에서/JKB", "target" : "호남지방에서", "word_id" : 2, "m_begin" : 5, "m_end" : 7},
		{"id" : 3, "result" : "태어나/VV+었/EP+으며/EC+,/SP", "target" : "태어났으며,", "word_id" : 3, "m_begin" : 8, "m_end" : 11},
		{"id" : 4, "result" : "체격/NNG+이/JKS", "target" : "체격이", "word_id" : 4, "m_begin" : 12, "m_end" : 13},
		{"id" : 5, "result" : "건장하/VA+다/EF+./SF", "target" : "건장하다.", "word_id" : 5, "m_begin" : 14, "m_end" : 16}
	],
	"WSD" : [
		{"id" : 0, "text" : "'", "type" : "SS", "scode" : "00", "weight" : 1, "position" : 519, "begin" : 0, "end" : 0},
		{"id" : 1, "text" : "금", "type" : "NNG", "scode" : "06", "weight" : 1, "position" : 520, "begin" : 1, "end" : 1},
		{"id" : 2, "text" : "'", "type" : "SS", "scode" : "00", "weight" : 1, "position" : 523, "begin" : 2, "end" : 2},
		{"id" : 3, "text" : "은", "type" : "JX", "scode" : "00", "weight" : 1, "position" : 524, "begin" : 3, "end" : 3},
		{"id" : 4, "text" : "대한민국", "type" : "NNP", "scode" : "00", "weight" : 1, "position" : 528, "begin" : 4, "end" : 4},
		{"id" : 5, "text" : "호남", "type" : "NNP", "scode" : "02", "weight" : 1, "position" : 541, "begin" : 5, "end" : 5},
		{"id" : 6, "text" : "지방", "type" : "NNG", "scode" : "05", "weight" : 1, "position" : 547, "begin" : 6, "end" : 6},
		{"id" : 7, "text" : "에서", "type" : "JKB", "scode" : "00", "weight" : 1, "position" : 553, "begin" : 7, "end" : 7},
		{"id" : 8, "text" : "태어나", "type" : "VV", "scode" : "00", "weight" : 1, "position" : 560, "begin" : 8, "end" : 8},
		{"id" : 9, "text" : "았", "type" : "EP", "scode" : "00", "weight" : 1, "position" : 566, "begin" : 9, "end" : 9},
		{"id" : 10, "text" : "으며", "type" : "EC", "scode" : "00", "weight" : 1, "position" : 569, "begin" : 10, "end" : 10},
		{"id" : 11, "text" : ",", "type" : "SP", "scode" : "00", "weight" : 1, "position" : 575, "begin" : 11, "end" : 11},
		{"id" : 12, "text" : "체격", "type" : "NNG", "scode" : "00", "weight" : 1, "position" : 577, "begin" : 12, "end" : 12},
		{"id" : 13, "text" : "이", "type" : "JKS", "scode" : "00", "weight" : 1, "position" : 583, "begin" : 13, "end" : 13},
		{"id" : 14, "text" : "건장하", "type" : "VA", "scode" : "00", "weight" : 1, "position" : 587, "begin" : 14, "end" : 14},
		{"id" : 15, "text" : "다", "type" : "EF", "scode" : "00", "weight" : 1, "position" : 596, "begin" : 15, "end" : 15},
		{"id" : 16, "text" : ".", "type" : "SF", "scode" : "00", "weight" : 1, "position" : 599, "begin" : 16, "end" : 16}
	],
	"word" : [
		{"id" : 0, "text" : "'금'은", "type" : "", "begin" : 0, "end" : 3},
		{"id" : 1, "text" : "대한민국", "type" : "", "begin" : 4, "end" : 4},
		{"id" : 2, "text" : "호남지방에서", "type" : "", "begin" : 5, "end" : 7},
		{"id" : 3, "text" : "태어났으며,", "type" : "", "begin" : 8, "end" : 11},
		{"id" : 4, "text" : "체격이", "type" : "", "begin" : 12, "end" : 13},
		{"id" : 5, "text" : "건장하다.", "type" : "", "begin" : 14, "end" : 16}
	],
	"NE" : [
		{"id" : 0, "text" : "금", "type" : "MT_METAL", "begin" : 1, "end" : 1, "weight" : 0.143501, "common_noun" : 0},
		{"id" : 1, "text" : "대한민국", "type" : "LCP_COUNTRY", "begin" : 4, "end" : 4, "weight" : 0.580063, "common_noun" : 0},
		{"id" : 2, "text" : "호남지방", "type" : "LC_OTHERS", "begin" : 5, "end" : 6, "weight" : 0.323541, "common_noun" : 0}
	],
	"chunk" : [
	],
	"dependency" : [
		{"id" : 0, "text" : "'금'은", "head" : 3, "label" : "NP_SBJ", "mod" : [], "weight" : 0.991044 },
		{"id" : 1, "text" : "대한민국", "head" : 2, "label" : "NP", "mod" : [], "weight" : 0.846404 },
		{"id" : 2, "text" : "호남지방에서", "head" : 3, "label" : "NP_AJT", "mod" : [1], "weight" : 0.698251 },
		{"id" : 3, "text" : "태어났으며,", "head" : 5, "label" : "VP", "mod" : [0, 2], "weight" : 0.739236 },
		{"id" : 4, "text" : "체격이", "head" : 5, "label" : "NP_SBJ", "mod" : [], "weight" : 0.524178 },
		{"id" : 5, "text" : "건장하다.", "head" : -1, "label" : "VP", "mod" : [3, 4], "weight" : 0.15479 }
	],
	"SRL" : [
		{"verb" : "태어나", "sense" : 1, "word_id" : 3, "weight" : 0.243176,
			"argument" : [
				{"type" : "ARG1", "word_id" : 0, "text" : "'금'은", "weight" : 0.236227 },
				{"type" : "ARGM-LOC", "word_id" : 2, "text" : "호남지방에서", "weight" : 0.250125 }
			] },
		{"verb" : "건장하", "sense" : 1, "word_id" : 5, "weight" : 0.246269,
			"argument" : [
				{"type" : "ARG1", "word_id" : 4, "text" : "체격이", "weight" : 0.246269 }
			] }
	],
	"relation" : [
	],
	"SA" : [
	],
	"ZA" : [
	]
	},
	{
	"id" : 7,
	"reserve_str" : "",
	"text" : "반면 '은'은 영남지방에서 태어났고, 여성스러운 체격과 성격을 지니고 있다.",
	"morp" : [
		{"id" : 0, "lemma" : "반면", "type" : "NNG", "position" : 600, "weight" : 0.9 },
		{"id" : 1, "lemma" : "'", "type" : "SS", "position" : 607, "weight" : 1 },
		{"id" : 2, "lemma" : "은", "type" : "NNG", "position" : 608, "weight" : 0.000259566 },
		{"id" : 3, "lemma" : "'", "type" : "SS", "position" : 611, "weight" : 1 },
		{"id" : 4, "lemma" : "은", "type" : "JX", "position" : 612, "weight" : 0.0128817 },
		{"id" : 5, "lemma" : "영남", "type" : "NNP", "position" : 616, "weight" : 0.9 },
		{"id" : 6, "lemma" : "지방", "type" : "NNG", "position" : 622, "weight" : 0.9 },
		{"id" : 7, "lemma" : "에서", "type" : "JKB", "position" : 628, "weight" : 0.153407 },
		{"id" : 8, "lemma" : "태어나", "type" : "VV", "position" : 635, "weight" : 0.9 },
		{"id" : 9, "lemma" : "았", "type" : "EP", "position" : 641, "weight" : 0.9 },
		{"id" : 10, "lemma" : "고", "type" : "EC", "position" : 644, "weight" : 0.190901 },
		{"id" : 11, "lemma" : ",", "type" : "SP", "position" : 647, "weight" : 1 },
		{"id" : 12, "lemma" : "여성", "type" : "NNG", "position" : 649, "weight" : 0.531444 },
		{"id" : 13, "lemma" : "스럽", "type" : "XSA", "position" : 655, "weight" : 0.9 },
		{"id" : 14, "lemma" : "ㄴ", "type" : "ETM", "position" : 658, "weight" : 0.488779 },
		{"id" : 15, "lemma" : "체격", "type" : "NNG", "position" : 665, "weight" : 0.9 },
		{"id" : 16, "lemma" : "과", "type" : "JC", "position" : 671, "weight" : 0.017569 },
		{"id" : 17, "lemma" : "성격", "type" : "NNG", "position" : 675, "weight" : 0.9 },
		{"id" : 18, "lemma" : "을", "type" : "JKO", "position" : 681, "weight" : 0.129611 },
		{"id" : 19, "lemma" : "지니", "type" : "VV", "position" : 685, "weight" : 0.776742 },
		{"id" : 20, "lemma" : "고", "type" : "EC", "position" : 691, "weight" : 0.416679 },
		{"id" : 21, "lemma" : "있", "type" : "VX", "position" : 695, "weight" : 0.125953 },
		{"id" : 22, "lemma" : "다", "type" : "EF", "position" : 698, "weight" : 0.180366 },
		{"id" : 23, "lemma" : ".", "type" : "SF", "position" : 701, "weight" : 1 }
	],
	"morp_eval" : [
		{"id" : 0, "result" : "반면/NNG", "target" : "반면", "word_id" : 0, "m_begin" : 0, "m_end" : 0},
		{"id" : 1, "result" : "'/SS+은/NNG+'/SS+은/JX", "target" : "'은'은", "word_id" : 1, "m_begin" : 1, "m_end" : 4},
		{"id" : 2, "result" : "영남지방/NNG+에서/JKB", "target" : "영남지방에서", "word_id" : 2, "m_begin" : 5, "m_end" : 7},
		{"id" : 3, "result" : "태어나/VV+었/EP+고/EC+,/SP", "target" : "태어났고,", "word_id" : 3, "m_begin" : 8, "m_end" : 11},
		{"id" : 4, "result" : "여성스럽/VA+ㄴ/ETM", "target" : "여성스러운", "word_id" : 4, "m_begin" : 12, "m_end" : 14},
		{"id" : 5, "result" : "체격/NNG+과/JC", "target" : "체격과", "word_id" : 5, "m_begin" : 15, "m_end" : 16},
		{"id" : 6, "result" : "성격/NNG+을/JKO", "target" : "성격을", "word_id" : 6, "m_begin" : 17, "m_end" : 18},
		{"id" : 7, "result" : "지니/VV+고/EC", "target" : "지니고", "word_id" : 7, "m_begin" : 19, "m_end" : 20},
		{"id" : 8, "result" : "있/VX+다/EF+./SF", "target" : "있다.", "word_id" : 8, "m_begin" : 21, "m_end" : 23}
	],
	"WSD" : [
		{"id" : 0, "text" : "반면", "type" : "NNG", "scode" : "02", "weight" : 1, "position" : 600, "begin" : 0, "end" : 0},
		{"id" : 1, "text" : "'", "type" : "SS", "scode" : "00", "weight" : 1, "position" : 607, "begin" : 1, "end" : 1},
		{"id" : 2, "text" : "은", "type" : "NNG", "scode" : "04", "weight" : 1, "position" : 608, "begin" : 2, "end" : 2},
		{"id" : 3, "text" : "'", "type" : "SS", "scode" : "00", "weight" : 1, "position" : 611, "begin" : 3, "end" : 3},
		{"id" : 4, "text" : "은", "type" : "JX", "scode" : "00", "weight" : 1, "position" : 612, "begin" : 4, "end" : 4},
		{"id" : 5, "text" : "영남", "type" : "NNP", "scode" : "00", "weight" : 1, "position" : 616, "begin" : 5, "end" : 5},
		{"id" : 6, "text" : "지방", "type" : "NNG", "scode" : "05", "weight" : 1, "position" : 622, "begin" : 6, "end" : 6},
		{"id" : 7, "text" : "에서", "type" : "JKB", "scode" : "00", "weight" : 1, "position" : 628, "begin" : 7, "end" : 7},
		{"id" : 8, "text" : "태어나", "type" : "VV", "scode" : "00", "weight" : 1, "position" : 635, "begin" : 8, "end" : 8},
		{"id" : 9, "text" : "았", "type" : "EP", "scode" : "00", "weight" : 1, "position" : 641, "begin" : 9, "end" : 9},
		{"id" : 10, "text" : "고", "type" : "EC", "scode" : "00", "weight" : 1, "position" : 644, "begin" : 10, "end" : 10},
		{"id" : 11, "text" : ",", "type" : "SP", "scode" : "00", "weight" : 1, "position" : 647, "begin" : 11, "end" : 11},
		{"id" : 12, "text" : "여성", "type" : "NNG", "scode" : "01", "weight" : 1, "position" : 649, "begin" : 12, "end" : 12},
		{"id" : 13, "text" : "스럽", "type" : "XSA", "scode" : "00", "weight" : 1, "position" : 655, "begin" : 13, "end" : 13},
		{"id" : 14, "text" : "ㄴ", "type" : "ETM", "scode" : "00", "weight" : 1, "position" : 658, "begin" : 14, "end" : 14},
		{"id" : 15, "text" : "체격", "type" : "NNG", "scode" : "00", "weight" : 1, "position" : 665, "begin" : 15, "end" : 15},
		{"id" : 16, "text" : "과", "type" : "JC", "scode" : "00", "weight" : 1, "position" : 671, "begin" : 16, "end" : 16},
		{"id" : 17, "text" : "성격", "type" : "NNG", "scode" : "02", "weight" : 1, "position" : 675, "begin" : 17, "end" : 17},
		{"id" : 18, "text" : "을", "type" : "JKO", "scode" : "00", "weight" : 1, "position" : 681, "begin" : 18, "end" : 18},
		{"id" : 19, "text" : "지니", "type" : "VV", "scode" : "00", "weight" : 1, "position" : 685, "begin" : 19, "end" : 19},
		{"id" : 20, "text" : "고", "type" : "EC", "scode" : "00", "weight" : 1, "position" : 691, "begin" : 20, "end" : 20},
		{"id" : 21, "text" : "있", "type" : "VX", "scode" : "01", "weight" : 1, "position" : 695, "begin" : 21, "end" : 21},
		{"id" : 22, "text" : "다", "type" : "EF", "scode" : "00", "weight" : 1, "position" : 698, "begin" : 22, "end" : 22},
		{"id" : 23, "text" : ".", "type" : "SF", "scode" : "00", "weight" : 1, "position" : 701, "begin" : 23, "end" : 23}
	],
	"word" : [
		{"id" : 0, "text" : "반면", "type" : "", "begin" : 0, "end" : 0},
		{"id" : 1, "text" : "'은'은", "type" : "", "begin" : 1, "end" : 4},
		{"id" : 2, "text" : "영남지방에서", "type" : "", "begin" : 5, "end" : 7},
		{"id" : 3, "text" : "태어났고,", "type" : "", "begin" : 8, "end" : 11},
		{"id" : 4, "text" : "여성스러운", "type" : "", "begin" : 12, "end" : 14},
		{"id" : 5, "text" : "체격과", "type" : "", "begin" : 15, "end" : 16},
		{"id" : 6, "text" : "성격을", "type" : "", "begin" : 17, "end" : 18},
		{"id" : 7, "text" : "지니고", "type" : "", "begin" : 19, "end" : 20},
		{"id" : 8, "text" : "있다.", "type" : "", "begin" : 21, "end" : 23}
	],
	"NE" : [
		{"id" : 0, "text" : "영남지방", "type" : "LC_OTHERS", "begin" : 5, "end" : 6, "weight" : 0.400485, "common_noun" : 0}
	],
	"chunk" : [
	],
	"dependency" : [
		{"id" : 0, "text" : "반면", "head" : 3, "label" : "NP_AJT", "mod" : [], "weight" : 0.586497 },
		{"id" : 1, "text" : "'은'은", "head" : 3, "label" : "NP_SBJ", "mod" : [], "weight" : 0.63435 },
		{"id" : 2, "text" : "영남지방에서", "head" : 3, "label" : "NP_AJT", "mod" : [], "weight" : 0.952336 },
		{"id" : 3, "text" : "태어났고,", "head" : 7, "label" : "VP", "mod" : [0, 1, 2], "weight" : 0.728075 },
		{"id" : 4, "text" : "여성스러운", "head" : 6, "label" : "VP_MOD", "mod" : [], "weight" : 0.928386 },
		{"id" : 5, "text" : "체격과", "head" : 6, "label" : "NP_CNJ", "mod" : [], "weight" : 0.669566 },
		{"id" : 6, "text" : "성격을", "head" : 7, "label" : "NP_OBJ", "mod" : [4, 5], "weight" : 0.654996 },
		{"id" : 7, "text" : "지니고", "head" : 8, "label" : "VP", "mod" : [3, 6], "weight" : 0.505126 },
		{"id" : 8, "text" : "있다.", "head" : -1, "label" : "VP", "mod" : [7], "weight" : 0.0415253 }
	],
	"SRL" : [
		{"verb" : "태어나", "sense" : 1, "word_id" : 3, "weight" : 0.287435,
			"argument" : [
				{"type" : "ARG1", "word_id" : 1, "text" : "'은'은", "weight" : 0.397721 },
				{"type" : "ARGM-LOC", "word_id" : 2, "text" : "영남지방에서", "weight" : 0.177148 }
			] },
		{"verb" : "여성", "sense" : 1, "word_id" : 4, "weight" : 0.282412,
			"argument" : [
				{"type" : "ARG1", "word_id" : 5, "text" : "체격과", "weight" : 0.275861 },
				{"type" : "ARG1", "word_id" : 6, "text" : "성격을", "weight" : 0.288963 }
			] },
		{"verb" : "지니", "sense" : 1, "word_id" : 7, "weight" : 0.346507,
			"argument" : [
				{"type" : "ARG1", "word_id" : 6, "text" : "성격을", "weight" : 0.262784 },
				{"type" : "AUX", "word_id" : 8, "text" : "있다.", "weight" : 0.43023 }
			] }
	],
	"relation" : [
	],
	"SA" : [
	],
	"ZA" : [
		{"id" : 0, "verb_wid" : 7, "ant_sid" : 7, "ant_wid" : 1, "type" : "s", "istitle" : 0, "weight" : 0.155881 }
	]
	},
	{
	"id" : 8,
	"reserve_str" : "",
	"text" : "소설은 이 둘의 만남의 과정, 그리고 주인공들의 내면의 변화에 초점을 맞추고 있다.",
	"morp" : [
		{"id" : 0, "lemma" : "소설", "type" : "NNG", "position" : 702, "weight" : 0.9 },
		{"id" : 1, "lemma" : "은", "type" : "JX", "position" : 708, "weight" : 0.0449928 },
		{"id" : 2, "lemma" : "이", "type" : "MM", "position" : 712, "weight" : 0.00176496 },
		{"id" : 3, "lemma" : "둘", "type" : "NR", "position" : 716, "weight" : 0.00455941 },
		{"id" : 4, "lemma" : "의", "type" : "JKG", "position" : 719, "weight" : 0.0144126 },
		{"id" : 5, "lemma" : "만남", "type" : "NNG", "position" : 723, "weight" : 0.867288 },
		{"id" : 6, "lemma" : "의", "type" : "JKG", "position" : 729, "weight" : 0.0694213 },
		{"id" : 7, "lemma" : "과정", "type" : "NNG", "position" : 733, "weight" : 0.871219 },
		{"id" : 8, "lemma" : ",", "type" : "SP", "position" : 739, "weight" : 1 },
		{"id" : 9, "lemma" : "그리고", "type" : "MAG", "position" : 741, "weight" : 0.019445 },
		{"id" : 10, "lemma" : "주인", "type" : "NNG", "position" : 751, "weight" : 0.9 },
		{"id" : 11, "lemma" : "공", "type" : "NNG", "position" : 757, "weight" : 0.175294 },
		{"id" : 12, "lemma" : "들", "type" : "XSN", "position" : 760, "weight" : 0.0299841 },
		{"id" : 13, "lemma" : "의", "type" : "JKG", "position" : 763, "weight" : 0.120732 },
		{"id" : 14, "lemma" : "내면", "type" : "NNG", "position" : 767, "weight" : 0.868488 },
		{"id" : 15, "lemma" : "의", "type" : "JKG", "position" : 773, "weight" : 0.0694213 },
		{"id" : 16, "lemma" : "변화", "type" : "NNG", "position" : 777, "weight" : 0.9 },
		{"id" : 17, "lemma" : "에", "type" : "JKB", "position" : 783, "weight" : 0.153364 },
		{"id" : 18, "lemma" : "초점", "type" : "NNG", "position" : 787, "weight" : 0.9 },
		{"id" : 19, "lemma" : "을", "type" : "JKO", "position" : 793, "weight" : 0.129611 },
		{"id" : 20, "lemma" : "맞추", "type" : "VV", "position" : 797, "weight" : 0.9 },
		{"id" : 21, "lemma" : "고", "type" : "EC", "position" : 803, "weight" : 0.416679 },
		{"id" : 22, "lemma" : "있", "type" : "VX", "position" : 807, "weight" : 0.125953 },
		{"id" : 23, "lemma" : "다", "type" : "EF", "position" : 810, "weight" : 0.180366 },
		{"id" : 24, "lemma" : ".", "type" : "SF", "position" : 813, "weight" : 1 }
	],
	"morp_eval" : [
		{"id" : 0, "result" : "소설/NNG+은/JX", "target" : "소설은", "word_id" : 0, "m_begin" : 0, "m_end" : 1},
		{"id" : 1, "result" : "이/MM", "target" : "이", "word_id" : 1, "m_begin" : 2, "m_end" : 2},
		{"id" : 2, "result" : "둘/NR+의/JKG", "target" : "둘의", "word_id" : 2, "m_begin" : 3, "m_end" : 4},
		{"id" : 3, "result" : "만남/NNG+의/JKG", "target" : "만남의", "word_id" : 3, "m_begin" : 5, "m_end" : 6},
		{"id" : 4, "result" : "과정/NNG+,/SP", "target" : "과정,", "word_id" : 4, "m_begin" : 7, "m_end" : 8},
		{"id" : 5, "result" : "그리고/MAG", "target" : "그리고", "word_id" : 5, "m_begin" : 9, "m_end" : 9},
		{"id" : 6, "result" : "주인공들/NNG+의/JKG", "target" : "주인공들의", "word_id" : 6, "m_begin" : 10, "m_end" : 13},
		{"id" : 7, "result" : "내면/NNG+의/JKG", "target" : "내면의", "word_id" : 7, "m_begin" : 14, "m_end" : 15},
		{"id" : 8, "result" : "변화/NNG+에/JKB", "target" : "변화에", "word_id" : 8, "m_begin" : 16, "m_end" : 17},
		{"id" : 9, "result" : "초점/NNG+을/JKO", "target" : "초점을", "word_id" : 9, "m_begin" : 18, "m_end" : 19},
		{"id" : 10, "result" : "맞추/VV+고/EC", "target" : "맞추고", "word_id" : 10, "m_begin" : 20, "m_end" : 21},
		{"id" : 11, "result" : "있/VX+다/EF+./SF", "target" : "있다.", "word_id" : 11, "m_begin" : 22, "m_end" : 24}
	],
	"WSD" : [
		{"id" : 0, "text" : "소설", "type" : "NNG", "scode" : "03", "weight" : 1, "position" : 702, "begin" : 0, "end" : 0},
		{"id" : 1, "text" : "은", "type" : "JX", "scode" : "00", "weight" : 1, "position" : 708, "begin" : 1, "end" : 1},
		{"id" : 2, "text" : "이", "type" : "MM", "scode" : "05", "weight" : 1, "position" : 712, "begin" : 2, "end" : 2},
		{"id" : 3, "text" : "둘", "type" : "NR", "scode" : "01", "weight" : 1, "position" : 716, "begin" : 3, "end" : 3},
		{"id" : 4, "text" : "의", "type" : "JKG", "scode" : "00", "weight" : 1, "position" : 719, "begin" : 4, "end" : 4},
		{"id" : 5, "text" : "만남", "type" : "NNG", "scode" : "00", "weight" : 1, "position" : 723, "begin" : 5, "end" : 5},
		{"id" : 6, "text" : "의", "type" : "JKG", "scode" : "00", "weight" : 1, "position" : 729, "begin" : 6, "end" : 6},
		{"id" : 7, "text" : "과정", "type" : "NNG", "scode" : "03", "weight" : 1, "position" : 733, "begin" : 7, "end" : 7},
		{"id" : 8, "text" : ",", "type" : "SP", "scode" : "00", "weight" : 1, "position" : 739, "begin" : 8, "end" : 8},
		{"id" : 9, "text" : "그리고", "type" : "MAG", "scode" : "00", "weight" : 1, "position" : 741, "begin" : 9, "end" : 9},
		{"id" : 10, "text" : "주인공", "type" : "NNG", "scode" : "00", "weight" : 1, "position" : 751, "begin" : 10, "end" : 11},
		{"id" : 11, "text" : "들", "type" : "XSN", "scode" : "09", "weight" : 1, "position" : 760, "begin" : 12, "end" : 12},
		{"id" : 12, "text" : "의", "type" : "JKG", "scode" : "00", "weight" : 1, "position" : 763, "begin" : 13, "end" : 13},
		{"id" : 13, "text" : "내면", "type" : "NNG", "scode" : "00", "weight" : 1, "position" : 767, "begin" : 14, "end" : 14},
		{"id" : 14, "text" : "의", "type" : "JKG", "scode" : "00", "weight" : 1, "position" : 773, "begin" : 15, "end" : 15},
		{"id" : 15, "text" : "변화", "type" : "NNG", "scode" : "00", "weight" : 1, "position" : 777, "begin" : 16, "end" : 16},
		{"id" : 16, "text" : "에", "type" : "JKB", "scode" : "00", "weight" : 1, "position" : 783, "begin" : 17, "end" : 17},
		{"id" : 17, "text" : "초점", "type" : "NNG", "scode" : "03", "weight" : 1, "position" : 787, "begin" : 18, "end" : 18},
		{"id" : 18, "text" : "을", "type" : "JKO", "scode" : "00", "weight" : 1, "position" : 793, "begin" : 19, "end" : 19},
		{"id" : 19, "text" : "맞추", "type" : "VV", "scode" : "01", "weight" : 1, "position" : 797, "begin" : 20, "end" : 20},
		{"id" : 20, "text" : "고", "type" : "EC", "scode" : "00", "weight" : 1, "position" : 803, "begin" : 21, "end" : 21},
		{"id" : 21, "text" : "있", "type" : "VX", "scode" : "01", "weight" : 1, "position" : 807, "begin" : 22, "end" : 22},
		{"id" : 22, "text" : "다", "type" : "EF", "scode" : "00", "weight" : 1, "position" : 810, "begin" : 23, "end" : 23},
		{"id" : 23, "text" : ".", "type" : "SF", "scode" : "00", "weight" : 1, "position" : 813, "begin" : 24, "end" : 24}
	],
	"word" : [
		{"id" : 0, "text" : "소설은", "type" : "", "begin" : 0, "end" : 1},
		{"id" : 1, "text" : "이", "type" : "", "begin" : 2, "end" : 2},
		{"id" : 2, "text" : "둘의", "type" : "", "begin" : 3, "end" : 4},
		{"id" : 3, "text" : "만남의", "type" : "", "begin" : 5, "end" : 6},
		{"id" : 4, "text" : "과정,", "type" : "", "begin" : 7, "end" : 8},
		{"id" : 5, "text" : "그리고", "type" : "", "begin" : 9, "end" : 9},
		{"id" : 6, "text" : "주인공들의", "type" : "", "begin" : 10, "end" : 13},
		{"id" : 7, "text" : "내면의", "type" : "", "begin" : 14, "end" : 15},
		{"id" : 8, "text" : "변화에", "type" : "", "begin" : 16, "end" : 17},
		{"id" : 9, "text" : "초점을", "type" : "", "begin" : 18, "end" : 19},
		{"id" : 10, "text" : "맞추고", "type" : "", "begin" : 20, "end" : 21},
		{"id" : 11, "text" : "있다.", "type" : "", "begin" : 22, "end" : 24}
	],
	"NE" : [
		{"id" : 0, "text" : "소설", "type" : "FD_ART", "begin" : 0, "end" : 0, "weight" : 0.237668, "common_noun" : 0},
		{"id" : 1, "text" : "둘", "type" : "QT_COUNT", "begin" : 3, "end" : 3, "weight" : 0.388749, "common_noun" : 0},
		{"id" : 2, "text" : "주인공", "type" : "CV_POSITION", "begin" : 10, "end" : 11, "weight" : 0.539855, "common_noun" : 0}
	],
	"chunk" : [
	],
	"dependency" : [
		{"id" : 0, "text" : "소설은", "head" : 10, "label" : "NP_SBJ", "mod" : [], "weight" : 0.817753 },
		{"id" : 1, "text" : "이", "head" : 2, "label" : "DP", "mod" : [], "weight" : 0.635023 },
		{"id" : 2, "text" : "둘의", "head" : 4, "label" : "NP_MOD", "mod" : [1], "weight" : 0.700865 },
		{"id" : 3, "text" : "만남의", "head" : 4, "label" : "NP_MOD", "mod" : [], "weight" : 0.841989 },
		{"id" : 4, "text" : "과정,", "head" : 8, "label" : "NP_CNJ", "mod" : [2, 3], "weight" : 0.689785 },
		{"id" : 5, "text" : "그리고", "head" : 8, "label" : "AP", "mod" : [], "weight" : 0.613005 },
		{"id" : 6, "text" : "주인공들의", "head" : 8, "label" : "NP_MOD", "mod" : [], "weight" : 0.89122 },
		{"id" : 7, "text" : "내면의", "head" : 8, "label" : "NP_MOD", "mod" : [], "weight" : 0.846693 },
		{"id" : 8, "text" : "변화에", "head" : 10, "label" : "NP_AJT", "mod" : [4, 5, 6, 7], "weight" : 0.621935 },
		{"id" : 9, "text" : "초점을", "head" : 10, "label" : "NP_OBJ", "mod" : [], "weight" : 0.601258 },
		{"id" : 10, "text" : "맞추고", "head" : 11, "label" : "VP", "mod" : [0, 8, 9], "weight" : 0.507021 },
		{"id" : 11, "text" : "있다.", "head" : -1, "label" : "VP", "mod" : [10], "weight" : 0.0150249 }
	],
	"SRL" : [
		{"verb" : "맞추", "sense" : 1, "word_id" : 10, "weight" : 0.270213,
			"argument" : [
				{"type" : "ARG0", "word_id" : 0, "text" : "소설은", "weight" : 0.188219 },
				{"type" : "ARG2", "word_id" : 8, "text" : "변화에", "weight" : 0.153019 },
				{"type" : "ARG1", "word_id" : 9, "text" : "초점을", "weight" : 0.245867 },
				{"type" : "AUX", "word_id" : 11, "text" : "있다.", "weight" : 0.493748 }
			] }
	],
	"relation" : [
	],
	"SA" : [
	],
	"ZA" : [
	]
	}
 ],
 "entity" : [
	{"id" : 0, "type" : "PS_NAME", "number" : "singular", "gender" : "", "person" : "", "animacy" : "", "loc" : "", 
	 "mention" : [
		{"id" : 1, "sent_id" : 0, "start_eid" : 2, "end_eid" : 2, "ne_id" : 1, "text" : "장정일", "start_eid_short" : 2, "end_eid_short" : 2, "text_short" : "장정일", "weight" : 0.01 },
		{"id" : 6, "sent_id" : 2, "start_eid" : 0, "end_eid" : 0, "ne_id" : 0, "text" : "장정일", "start_eid_short" : 0, "end_eid_short" : 0, "text_short" : "장정일", "weight" : 0.016 }
	] },
	{"id" : 1, "type" : "", "number" : "singular", "gender" : "", "person" : "", "animacy" : "", "loc" : "", 
	 "mention" : [
		{"id" : 2, "sent_id" : 0, "start_eid" : 3, "end_eid" : 5, "ne_id" : -1, "text" : "지은 대한민국 소설이다.", "start_eid_short" : 4, "end_eid_short" : 5, "text_short" : "대한민국 소설이다.", "weight" : 0 },
		{"id" : 7, "sent_id" : 2, "start_eid" : 1, "end_eid" : 2, "ne_id" : -1, "text" : "이 소설", "start_eid_short" : 1, "end_eid_short" : 2, "text_short" : "이 소설", "weight" : 0.006 }
	] },
	{"id" : 2, "type" : "LCP_COUNTRY", "number" : "singular", "gender" : "", "person" : "", "animacy" : "", "loc" : "대한민국", 
	 "mention" : [
		{"id" : 3, "sent_id" : 0, "start_eid" : 4, "end_eid" : 4, "ne_id" : 2, "text" : "대한민국", "start_eid_short" : 4, "end_eid_short" : 4, "text_short" : "대한민국", "weight" : 0.01 },
		{"id" : 27, "sent_id" : 6, "start_eid" : 1, "end_eid" : 1, "ne_id" : 1, "text" : "대한민국", "start_eid_short" : 1, "end_eid_short" : 1, "text_short" : "대한민국", "weight" : 0.016 }
	] },
	{"id" : 3, "type" : "MT_METAL", "number" : "singular", "gender" : "", "person" : "", "animacy" : "", "loc" : "", 
	 "mention" : [
		{"id" : 25, "sent_id" : 6, "start_eid" : 0, "end_eid" : 0, "ne_id" : 0, "text" : "'금'", "start_eid_short" : 0, "end_eid_short" : 0, "text_short" : "'금'", "weight" : 0.016 },
		{"id" : 19, "sent_id" : 4, "start_eid" : 5, "end_eid" : 5, "ne_id" : 0, "text" : "'금'", "start_eid_short" : 5, "end_eid_short" : 5, "text_short" : "'금'", "weight" : 0.01 }
	] },
	{"id" : 4, "type" : "", "number" : "singular", "gender" : "", "person" : "", "animacy" : "", "loc" : "", 
	 "mention" : [
		{"id" : 21, "sent_id" : 5, "start_eid" : 2, "end_eid" : 5, "ne_id" : -1, "text" : "입학했을때 노무현의 대통령 취임식", "start_eid_short" : 2, "end_eid_short" : 5, "text_short" : "입학했을때 노무현의 대통령 취임식", "weight" : 0.002 },
		{"id" : 37, "sent_id" : 8, "start_eid" : 1, "end_eid" : 2, "ne_id" : -1, "text" : "이 둘", "start_eid_short" : 1, "end_eid_short" : 2, "text_short" : "이 둘", "weight" : 0.006 }
	] },
	{"id" : 5, "type" : "", "number" : "singular", "gender" : "", "person" : "", "animacy" : "", "loc" : "", 
	 "mention" : [
		{"id" : 32, "sent_id" : 7, "start_eid" : 5, "end_eid" : 5, "ne_id" : -1, "text" : "체격", "start_eid_short" : 5, "end_eid_short" : 5, "text_short" : "체격", "weight" : 0.016 },
		{"id" : 28, "sent_id" : 6, "start_eid" : 4, "end_eid" : 4, "ne_id" : -1, "text" : "체격", "start_eid_short" : 4, "end_eid_short" : 4, "text_short" : "체격", "weight" : 0.01 }
	] }
 ]
}

