{"doc_id" : "",
 "DCT" : "",
 "category" : "",
 "category_weight" : 0,
 "title" : {"text" : "", "NE" : ""},
 "metaInfo" : { },
 "sentence" : [
	{
	"id" : 0,
	"reserve_str" : "",
	"text" : "권진원(1966년1월 31일 ~ )은 대한민국의 가수, 작사가, 작곡가이다.",
	"morp" : [
		{"id" : 0, "lemma" : "권진원", "type" : "NNP", "position" : 0, "weight" : 0.25 },
		{"id" : 1, "lemma" : "(", "type" : "SS", "position" : 9, "weight" : 1 },
		{"id" : 2, "lemma" : "1966", "type" : "SN", "position" : 10, "weight" : 1 },
		{"id" : 3, "lemma" : "년", "type" : "NNB", "position" : 14, "weight" : 0.414343 },
		{"id" : 4, "lemma" : "1", "type" : "SN", "position" : 17, "weight" : 1 },
		{"id" : 5, "lemma" : "월", "type" : "NNB", "position" : 18, "weight" : 0.408539 },
		{"id" : 6, "lemma" : "31", "type" : "SN", "position" : 22, "weight" : 1 },
		{"id" : 7, "lemma" : "일", "type" : "NNB", "position" : 24, "weight" : 0.126777 },
		{"id" : 8, "lemma" : "~", "type" : "SO", "position" : 28, "weight" : 1 },
		{"id" : 9, "lemma" : ")", "type" : "SS", "position" : 30, "weight" : 1 },
		{"id" : 10, "lemma" : "은", "type" : "JX", "position" : 31, "weight" : 0.0128817 },
		{"id" : 11, "lemma" : "대한민국", "type" : "NNP", "position" : 35, "weight" : 0.0447775 },
		{"id" : 12, "lemma" : "의", "type" : "JKG", "position" : 47, "weight" : 0.0987295 },
		{"id" : 13, "lemma" : "가수", "type" : "NNG", "position" : 51, "weight" : 0.9 },
		{"id" : 14, "lemma" : ",", "type" : "SP", "position" : 57, "weight" : 1 },
		{"id" : 15, "lemma" : "작사", "type" : "NNG", "position" : 59, "weight" : 0.9 },
		{"id" : 16, "lemma" : "가", "type" : "XSN", "position" : 65, "weight" : 0.000115417 },
		{"id" : 17, "lemma" : ",", "type" : "SP", "position" : 68, "weight" : 1 },
		{"id" : 18, "lemma" : "작곡", "type" : "NNG", "position" : 70, "weight" : 0.9 },
		{"id" : 19, "lemma" : "가", "type" : "XSN", "position" : 76, "weight" : 0.000115417 },
		{"id" : 20, "lemma" : "이", "type" : "VCP", "position" : 79, "weight" : 0.0165001 },
		{"id" : 21, "lemma" : "다", "type" : "EF", "position" : 82, "weight" : 0.353579 },
		{"id" : 22, "lemma" : ".", "type" : "SF", "position" : 85, "weight" : 1 }
	],
	"morp_eval" : [
		{"id" : 0, "result" : "권진원/NNG+(/SS+1966/SN+년/NNB+1/SN+월/NNB", "target" : "권진원(1966년1월", "word_id" : 0, "m_begin" : 0, "m_end" : 5},
		{"id" : 1, "result" : "31/SN+일/NNB", "target" : "31일", "word_id" : 1, "m_begin" : 6, "m_end" : 7},
		{"id" : 2, "result" : "~/SO", "target" : "~", "word_id" : 2, "m_begin" : 8, "m_end" : 8},
		{"id" : 3, "result" : ")/SS+은/JX", "target" : ")은", "word_id" : 3, "m_begin" : 9, "m_end" : 10},
		{"id" : 4, "result" : "대한민국/NNG+의/JKG", "target" : "대한민국의", "word_id" : 4, "m_begin" : 11, "m_end" : 12},
		{"id" : 5, "result" : "가수/NNG+,/SP", "target" : "가수,", "word_id" : 5, "m_begin" : 13, "m_end" : 14},
		{"id" : 6, "result" : "작사가/NNG+,/SP", "target" : "작사가,", "word_id" : 6, "m_begin" : 15, "m_end" : 17},
		{"id" : 7, "result" : "작곡가/NNG+이/VCP+다/EF+./SF", "target" : "작곡가이다.", "word_id" : 7, "m_begin" : 18, "m_end" : 22}
	],
	"WSD" : [
		{"id" : 0, "text" : "권진원", "type" : "NNP", "scode" : "00", "weight" : 1, "position" : 0, "begin" : 0, "end" : 0},
		{"id" : 1, "text" : "(", "type" : "SS", "scode" : "00", "weight" : 1, "position" : 9, "begin" : 1, "end" : 1},
		{"id" : 2, "text" : "1966", "type" : "SN", "scode" : "00", "weight" : 1, "position" : 10, "begin" : 2, "end" : 2},
		{"id" : 3, "text" : "년", "type" : "NNB", "scode" : "02", "weight" : 1, "position" : 14, "begin" : 3, "end" : 3},
		{"id" : 4, "text" : "1", "type" : "SN", "scode" : "00", "weight" : 1, "position" : 17, "begin" : 4, "end" : 4},
		{"id" : 5, "text" : "월", "type" : "NNB", "scode" : "02", "weight" : 1, "position" : 18, "begin" : 5, "end" : 5},
		{"id" : 6, "text" : "31", "type" : "SN", "scode" : "00", "weight" : 1, "position" : 22, "begin" : 6, "end" : 6},
		{"id" : 7, "text" : "일", "type" : "NNB", "scode" : "07", "weight" : 1, "position" : 24, "begin" : 7, "end" : 7},
		{"id" : 8, "text" : "~", "type" : "SO", "scode" : "00", "weight" : 1, "position" : 28, "begin" : 8, "end" : 8},
		{"id" : 9, "text" : ")", "type" : "SS", "scode" : "00", "weight" : 1, "position" : 30, "begin" : 9, "end" : 9},
		{"id" : 10, "text" : "은", "type" : "JX", "scode" : "00", "weight" : 1, "position" : 31, "begin" : 10, "end" : 10},
		{"id" : 11, "text" : "대한민국", "type" : "NNP", "scode" : "00", "weight" : 1, "position" : 35, "begin" : 11, "end" : 11},
		{"id" : 12, "text" : "의", "type" : "JKG", "scode" : "00", "weight" : 1, "position" : 47, "begin" : 12, "end" : 12},
		{"id" : 13, "text" : "가수", "type" : "NNG", "scode" : "11", "weight" : 1, "position" : 51, "begin" : 13, "end" : 13},
		{"id" : 14, "text" : ",", "type" : "SP", "scode" : "00", "weight" : 1, "position" : 57, "begin" : 14, "end" : 14},
		{"id" : 15, "text" : "작사", "type" : "NNG", "scode" : "03", "weight" : 1, "position" : 59, "begin" : 15, "end" : 15},
		{"id" : 16, "text" : "가", "type" : "XSN", "scode" : "18", "weight" : 1, "position" : 65, "begin" : 16, "end" : 16},
		{"id" : 17, "text" : ",", "type" : "SP", "scode" : "00", "weight" : 1, "position" : 68, "begin" : 17, "end" : 17},
		{"id" : 18, "text" : "작곡가", "type" : "NNG", "scode" : "00", "weight" : 1, "position" : 70, "begin" : 18, "end" : 19},
		{"id" : 19, "text" : "이", "type" : "VCP", "scode" : "00", "weight" : 1, "position" : 79, "begin" : 20, "end" : 20},
		{"id" : 20, "text" : "다", "type" : "EF", "scode" : "00", "weight" : 1, "position" : 82, "begin" : 21, "end" : 21},
		{"id" : 21, "text" : ".", "type" : "SF", "scode" : "00", "weight" : 1, "position" : 85, "begin" : 22, "end" : 22}
	],
	"word" : [
		{"id" : 0, "text" : "권진원(1966년1월", "type" : "", "begin" : 0, "end" : 5},
		{"id" : 1, "text" : "31일", "type" : "", "begin" : 6, "end" : 7},
		{"id" : 2, "text" : "~", "type" : "", "begin" : 8, "end" : 8},
		{"id" : 3, "text" : ")은", "type" : "", "begin" : 9, "end" : 10},
		{"id" : 4, "text" : "대한민국의", "type" : "", "begin" : 11, "end" : 12},
		{"id" : 5, "text" : "가수,", "type" : "", "begin" : 13, "end" : 14},
		{"id" : 6, "text" : "작사가,", "type" : "", "begin" : 15, "end" : 17},
		{"id" : 7, "text" : "작곡가이다.", "type" : "", "begin" : 18, "end" : 22}
	],
	"NE" : [
		{"id" : 0, "text" : "권진원", "type" : "PS_NAME", "begin" : 0, "end" : 0, "weight" : 0.426427, "common_noun" : 0},
		{"id" : 1, "text" : "1966년1월 31일 ~", "type" : "DT_OTHERS", "begin" : 2, "end" : 8, "weight" : 0.638943, "common_noun" : 0},
		{"id" : 2, "text" : "대한민국", "type" : "LCP_COUNTRY", "begin" : 11, "end" : 11, "weight" : 0.368032, "common_noun" : 0},
		{"id" : 3, "text" : "가수", "type" : "CV_OCCUPATION", "begin" : 13, "end" : 13, "weight" : 0.365188, "common_noun" : 0},
		{"id" : 4, "text" : "작사가", "type" : "CV_OCCUPATION", "begin" : 15, "end" : 16, "weight" : 0.377604, "common_noun" : 0},
		{"id" : 5, "text" : "작곡가", "type" : "CV_OCCUPATION", "begin" : 18, "end" : 19, "weight" : 0.609297, "common_noun" : 0}
	],
	"chunk" : [
	],
	"dependency" : [
		{"id" : 0, "text" : "권진원(1966년1월", "head" : 2, "label" : "NP", "mod" : [], "weight" : 0.359468 },
		{"id" : 1, "text" : "31일", "head" : 2, "label" : "NP", "mod" : [], "weight" : 0.442279 },
		{"id" : 2, "text" : "~", "head" : 3, "label" : "X", "mod" : [0, 1], "weight" : 0.869355 },
		{"id" : 3, "text" : ")은", "head" : 7, "label" : "NP_SBJ", "mod" : [2], "weight" : 0.4976 },
		{"id" : 4, "text" : "대한민국의", "head" : 5, "label" : "NP_MOD", "mod" : [], "weight" : 0.622877 },
		{"id" : 5, "text" : "가수,", "head" : 7, "label" : "NP_CNJ", "mod" : [4], "weight" : 0.478533 },
		{"id" : 6, "text" : "작사가,", "head" : 7, "label" : "NP_CNJ", "mod" : [], "weight" : 0.413998 },
		{"id" : 7, "text" : "작곡가이다.", "head" : -1, "label" : "VNP", "mod" : [3, 5, 6], "weight" : 0.00404 }
	],
	"SRL" : [
	],
	"relation" : [
	],
	"SA" : [
	],
	"ZA" : [
	]
	},
	{
	"id" : 1,
	"reserve_str" : "",
	"text" : "1985년MBC 강변가요제에서 자작곡 <지난 여름밤의 이야기>로 은상을 수상하여 데뷔하였다.",
	"morp" : [
		{"id" : 0, "lemma" : "1985", "type" : "SN", "position" : 86, "weight" : 1 },
		{"id" : 1, "lemma" : "년", "type" : "NNB", "position" : 90, "weight" : 0.414343 },
		{"id" : 2, "lemma" : "MBC", "type" : "SL", "position" : 93, "weight" : 1 },
		{"id" : 3, "lemma" : "강변", "type" : "NNG", "position" : 97, "weight" : 0.167608 },
		{"id" : 4, "lemma" : "가요", "type" : "NNG", "position" : 103, "weight" : 0.9 },
		{"id" : 5, "lemma" : "제", "type" : "XSN", "position" : 109, "weight" : 0.00596315 },
		{"id" : 6, "lemma" : "에서", "type" : "JKB", "position" : 112, "weight" : 0.121718 },
		{"id" : 7, "lemma" : "자작", "type" : "NNG", "position" : 119, "weight" : 0.9 },
		{"id" : 8, "lemma" : "곡", "type" : "XSN", "position" : 125, "weight" : 0.00386551 },
		{"id" : 9, "lemma" : "<", "type" : "SS", "position" : 129, "weight" : 1 },
		{"id" : 10, "lemma" : "지나", "type" : "VV", "position" : 130, "weight" : 0.028123 },
		{"id" : 11, "lemma" : "ㄴ", "type" : "ETM", "position" : 133, "weight" : 0.304215 },
		{"id" : 12, "lemma" : "여름", "type" : "NNG", "position" : 137, "weight" : 0.9 },
		{"id" : 13, "lemma" : "밤", "type" : "NNG", "position" : 143, "weight" : 0.184741 },
		{"id" : 14, "lemma" : "의", "type" : "JKG", "position" : 146, "weight" : 0.0694213 },
		{"id" : 15, "lemma" : "이야기", "type" : "NNG", "position" : 150, "weight" : 0.9 },
		{"id" : 16, "lemma" : ">", "type" : "SS", "position" : 159, "weight" : 1 },
		{"id" : 17, "lemma" : "로", "type" : "JKB", "position" : 160, "weight" : 0.0485504 },
		{"id" : 18, "lemma" : "은상", "type" : "NNP", "position" : 164, "weight" : 0.00605787 },
		{"id" : 19, "lemma" : "을", "type" : "JKO", "position" : 170, "weight" : 0.0266447 },
		{"id" : 20, "lemma" : "수상", "type" : "NNG", "position" : 174, "weight" : 0.9 },
		{"id" : 21, "lemma" : "하", "type" : "XSA", "position" : 180, "weight" : 0.0001 },
		{"id" : 22, "lemma" : "어", "type" : "EC", "position" : 183, "weight" : 0.354073 },
		{"id" : 23, "lemma" : "데뷔", "type" : "NNG", "position" : 187, "weight" : 0.9 },
		{"id" : 24, "lemma" : "하", "type" : "XSV", "position" : 193, "weight" : 0.0001 },
		{"id" : 25, "lemma" : "었", "type" : "EP", "position" : 196, "weight" : 0.9 },
		{"id" : 26, "lemma" : "다", "type" : "EF", "position" : 199, "weight" : 0.640954 },
		{"id" : 27, "lemma" : ".", "type" : "SF", "position" : 202, "weight" : 1 }
	],
	"morp_eval" : [
		{"id" : 0, "result" : "1985/SN+년/NNB+MBC/SL", "target" : "1985년MBC", "word_id" : 0, "m_begin" : 0, "m_end" : 2},
		{"id" : 1, "result" : "강변가요제/NNG+에서/JKB", "target" : "강변가요제에서", "word_id" : 1, "m_begin" : 3, "m_end" : 6},
		{"id" : 2, "result" : "자작곡/NNG", "target" : "자작곡", "word_id" : 2, "m_begin" : 7, "m_end" : 8},
		{"id" : 3, "result" : "</SS+지나/VV+ㄴ/ETM", "target" : "<지난", "word_id" : 3, "m_begin" : 9, "m_end" : 11},
		{"id" : 4, "result" : "여름밤/NNG+의/JKG", "target" : "여름밤의", "word_id" : 4, "m_begin" : 12, "m_end" : 14},
		{"id" : 5, "result" : "이야기/NNG+>/SS+로/JKB", "target" : "이야기>로", "word_id" : 5, "m_begin" : 15, "m_end" : 17},
		{"id" : 6, "result" : "은상/NNG+을/JKO", "target" : "은상을", "word_id" : 6, "m_begin" : 18, "m_end" : 19},
		{"id" : 7, "result" : "수상하/VA+어/EC", "target" : "수상하여", "word_id" : 7, "m_begin" : 20, "m_end" : 22},
		{"id" : 8, "result" : "데뷔하/VV+었/EP+다/EF+./SF", "target" : "데뷔하였다.", "word_id" : 8, "m_begin" : 23, "m_end" : 27}
	],
	"WSD" : [
		{"id" : 0, "text" : "1985", "type" : "SN", "scode" : "00", "weight" : 1, "position" : 86, "begin" : 0, "end" : 0},
		{"id" : 1, "text" : "년", "type" : "NNB", "scode" : "02", "weight" : 1, "position" : 90, "begin" : 1, "end" : 1},
		{"id" : 2, "text" : "MBC", "type" : "SL", "scode" : "00", "weight" : 1, "position" : 93, "begin" : 2, "end" : 2},
		{"id" : 3, "text" : "강변", "type" : "NNG", "scode" : "01", "weight" : 1, "position" : 97, "begin" : 3, "end" : 3},
		{"id" : 4, "text" : "가요제", "type" : "NNG", "scode" : "00", "weight" : 1, "position" : 103, "begin" : 4, "end" : 5},
		{"id" : 5, "text" : "에서", "type" : "JKB", "scode" : "00", "weight" : 1, "position" : 112, "begin" : 6, "end" : 6},
		{"id" : 6, "text" : "자작곡", "type" : "NNG", "scode" : "00", "weight" : 1, "position" : 119, "begin" : 7, "end" : 8},
		{"id" : 7, "text" : "<", "type" : "SS", "scode" : "00", "weight" : 1, "position" : 129, "begin" : 9, "end" : 9},
		{"id" : 8, "text" : "지나", "type" : "VV", "scode" : "00", "weight" : 1, "position" : 130, "begin" : 10, "end" : 10},
		{"id" : 9, "text" : "ㄴ", "type" : "ETM", "scode" : "00", "weight" : 1, "position" : 133, "begin" : 11, "end" : 11},
		{"id" : 10, "text" : "여름밤", "type" : "NNG", "scode" : "00", "weight" : 1, "position" : 137, "begin" : 12, "end" : 13},
		{"id" : 11, "text" : "의", "type" : "JKG", "scode" : "00", "weight" : 1, "position" : 146, "begin" : 14, "end" : 14},
		{"id" : 12, "text" : "이야기", "type" : "NNG", "scode" : "00", "weight" : 1, "position" : 150, "begin" : 15, "end" : 15},
		{"id" : 13, "text" : ">", "type" : "SS", "scode" : "00", "weight" : 1, "position" : 159, "begin" : 16, "end" : 16},
		{"id" : 14, "text" : "로", "type" : "JKB", "scode" : "00", "weight" : 1, "position" : 160, "begin" : 17, "end" : 17},
		{"id" : 15, "text" : "은상", "type" : "NNP", "scode" : "02", "weight" : 1, "position" : 164, "begin" : 18, "end" : 18},
		{"id" : 16, "text" : "을", "type" : "JKO", "scode" : "00", "weight" : 1, "position" : 170, "begin" : 19, "end" : 19},
		{"id" : 17, "text" : "수상하", "type" : "VA", "scode" : "05", "weight" : 1, "position" : 174, "begin" : 20, "end" : 21},
		{"id" : 18, "text" : "어", "type" : "EC", "scode" : "00", "weight" : 1, "position" : 183, "begin" : 22, "end" : 22},
		{"id" : 19, "text" : "데뷔하", "type" : "VV", "scode" : "00", "weight" : 1, "position" : 187, "begin" : 23, "end" : 24},
		{"id" : 20, "text" : "었", "type" : "EP", "scode" : "00", "weight" : 1, "position" : 196, "begin" : 25, "end" : 25},
		{"id" : 21, "text" : "다", "type" : "EF", "scode" : "00", "weight" : 1, "position" : 199, "begin" : 26, "end" : 26},
		{"id" : 22, "text" : ".", "type" : "SF", "scode" : "00", "weight" : 1, "position" : 202, "begin" : 27, "end" : 27}
	],
	"word" : [
		{"id" : 0, "text" : "1985년MBC", "type" : "", "begin" : 0, "end" : 2},
		{"id" : 1, "text" : "강변가요제에서", "type" : "", "begin" : 3, "end" : 6},
		{"id" : 2, "text" : "자작곡", "type" : "", "begin" : 7, "end" : 8},
		{"id" : 3, "text" : "<지난", "type" : "", "begin" : 9, "end" : 11},
		{"id" : 4, "text" : "여름밤의", "type" : "", "begin" : 12, "end" : 14},
		{"id" : 5, "text" : "이야기>로", "type" : "", "begin" : 15, "end" : 17},
		{"id" : 6, "text" : "은상을", "type" : "", "begin" : 18, "end" : 19},
		{"id" : 7, "text" : "수상하여", "type" : "", "begin" : 20, "end" : 22},
		{"id" : 8, "text" : "데뷔하였다.", "type" : "", "begin" : 23, "end" : 27}
	],
	"NE" : [
		{"id" : 0, "text" : "1985년", "type" : "DT_YEAR", "begin" : 0, "end" : 1, "weight" : 0.585604, "common_noun" : 0},
		{"id" : 1, "text" : "MBC 강변가요제", "type" : "EV_OTHERS", "begin" : 2, "end" : 5, "weight" : 0.829095, "common_noun" : 0},
		{"id" : 2, "text" : "지난 여름밤의 이야기", "type" : "AFW_MUSIC", "begin" : 10, "end" : 15, "weight" : 0.221733, "common_noun" : 0},
		{"id" : 3, "text" : "은상", "type" : "CV_PRIZE", "begin" : 18, "end" : 18, "weight" : 0.345294, "common_noun" : 0}
	],
	"chunk" : [
	],
	"dependency" : [
		{"id" : 0, "text" : "1985년MBC", "head" : 1, "label" : "NP", "mod" : [], "weight" : 0.425448 },
		{"id" : 1, "text" : "강변가요제에서", "head" : 5, "label" : "NP_AJT", "mod" : [0], "weight" : 0.680528 },
		{"id" : 2, "text" : "자작곡", "head" : 5, "label" : "NP", "mod" : [], "weight" : 0.955479 },
		{"id" : 3, "text" : "<지난", "head" : 4, "label" : "VP_MOD", "mod" : [], "weight" : 0.932178 },
		{"id" : 4, "text" : "여름밤의", "head" : 5, "label" : "NP_MOD", "mod" : [3], "weight" : 0.84557 },
		{"id" : 5, "text" : "이야기>로", "head" : 7, "label" : "NP_AJT", "mod" : [1, 2, 4], "weight" : 0.793118 },
		{"id" : 6, "text" : "은상을", "head" : 7, "label" : "NP_OBJ", "mod" : [], "weight" : 0.598905 },
		{"id" : 7, "text" : "수상하여", "head" : 8, "label" : "VP", "mod" : [5, 6], "weight" : 0.465938 },
		{"id" : 8, "text" : "데뷔하였다.", "head" : -1, "label" : "VP", "mod" : [7], "weight" : 0.0279545 }
	],
	"SRL" : [
		{"verb" : "수상", "sense" : 1, "word_id" : 7, "weight" : 0.181635,
			"argument" : [
				{"type" : "ARGM-INS", "word_id" : 5, "text" : "이야기>로", "weight" : 0.0628739 },
				{"type" : "ARG1", "word_id" : 6, "text" : "은상을", "weight" : 0.300396 }
			] },
		{"verb" : "데뷔", "sense" : 1, "word_id" : 8, "weight" : 0,
			"argument" : [
			] }
	],
	"relation" : [
	],
	"SA" : [
	],
	"ZA" : [
		{"id" : 0, "verb_wid" : 7, "ant_sid" : -1, "ant_wid" : -1, "type" : "s", "istitle" : 0, "weight" : 0.627277 },
		{"id" : 1, "verb_wid" : 8, "ant_sid" : -1, "ant_wid" : -1, "type" : "s", "istitle" : 0, "weight" : 0.516513 }
	]
	},
	{
	"id" : 2,
	"reserve_str" : "",
	"text" : "한국외국어대학교네덜란드어학과에서 네덜란드어학 전공과 불어학 부전공으로 학사 졸업하였고, 경희대학교 대학원 공연예술학과를 예술학석사 졸업하였다.",
	"morp" : [
		{"id" : 0, "lemma" : "한국", "type" : "NNP", "position" : 203, "weight" : 0.0891983 },
		{"id" : 1, "lemma" : "외국", "type" : "NNG", "position" : 209, "weight" : 0.9 },
		{"id" : 2, "lemma" : "어", "type" : "XSN", "position" : 215, "weight" : 0.0001 },
		{"id" : 3, "lemma" : "대", "type" : "XPN", "position" : 218, "weight" : 0.0001 },
		{"id" : 4, "lemma" : "학교", "type" : "NNG", "position" : 221, "weight" : 0.473729 },
		{"id" : 5, "lemma" : "네덜란드", "type" : "NNP", "position" : 227, "weight" : 0.9 },
		{"id" : 6, "lemma" : "어학과", "type" : "NNP", "position" : 239, "weight" : 0.6 },
		{"id" : 7, "lemma" : "에서", "type" : "JKB", "position" : 248, "weight" : 0.0823859 },
		{"id" : 8, "lemma" : "네덜란드", "type" : "NNP", "position" : 255, "weight" : 0.9 },
		{"id" : 9, "lemma" : "어", "type" : "XSN", "position" : 267, "weight" : 0.0001 },
		{"id" : 10, "lemma" : "학", "type" : "NNG", "position" : 270, "weight" : 0.0408281 },
		{"id" : 11, "lemma" : "전공", "type" : "NNG", "position" : 274, "weight" : 0.9 },
		{"id" : 12, "lemma" : "과", "type" : "JC", "position" : 280, "weight" : 0.017569 },
		{"id" : 13, "lemma" : "불", "type" : "NNP", "position" : 284, "weight" : 0.000819504 },
		{"id" : 14, "lemma" : "어", "type" : "XSN", "position" : 287, "weight" : 0.0001 },
		{"id" : 15, "lemma" : "학", "type" : "XSN", "position" : 290, "weight" : 0.00803101 },
		{"id" : 16, "lemma" : "부", "type" : "XPN", "position" : 294, "weight" : 0.0001 },
		{"id" : 17, "lemma" : "전공", "type" : "NNG", "position" : 297, "weight" : 0.9 },
		{"id" : 18, "lemma" : "으로", "type" : "JKB", "position" : 303, "weight" : 0.153406 },
		{"id" : 19, "lemma" : "학사", "type" : "NNG", "position" : 310, "weight" : 0.207026 },
		{"id" : 20, "lemma" : "졸업", "type" : "NNG", "position" : 317, "weight" : 0.184568 },
		{"id" : 21, "lemma" : "하", "type" : "XSV", "position" : 323, "weight" : 0.0001 },
		{"id" : 22, "lemma" : "었", "type" : "EP", "position" : 326, "weight" : 0.9 },
		{"id" : 23, "lemma" : "고", "type" : "EC", "position" : 329, "weight" : 0.190901 },
		{"id" : 24, "lemma" : ",", "type" : "SP", "position" : 332, "weight" : 1 },
		{"id" : 25, "lemma" : "경희대학교", "type" : "NNP", "position" : 334, "weight" : 0.15 },
		{"id" : 26, "lemma" : "대학", "type" : "NNG", "position" : 350, "weight" : 0.281234 },
		{"id" : 27, "lemma" : "원", "type" : "XSN", "position" : 356, "weight" : 0.00350502 },
		{"id" : 28, "lemma" : "공연", "type" : "NNG", "position" : 360, "weight" : 0.9 },
		{"id" : 29, "lemma" : "예술", "type" : "NNG", "position" : 366, "weight" : 0.9 },
		{"id" : 30, "lemma" : "학과", "type" : "NNG", "position" : 372, "weight" : 0.9 },
		{"id" : 31, "lemma" : "를", "type" : "JKO", "position" : 378, "weight" : 0.137686 },
		{"id" : 32, "lemma" : "예술", "type" : "NNG", "position" : 382, "weight" : 0.9 },
		{"id" : 33, "lemma" : "학석사", "type" : "NNP", "position" : 388, "weight" : 0.6 },
		{"id" : 34, "lemma" : "졸업", "type" : "NNG", "position" : 398, "weight" : 0.281577 },
		{"id" : 35, "lemma" : "하", "type" : "XSV", "position" : 404, "weight" : 0.0001 },
		{"id" : 36, "lemma" : "었", "type" : "EP", "position" : 407, "weight" : 0.9 },
		{"id" : 37, "lemma" : "다", "type" : "EF", "position" : 410, "weight" : 0.640954 },
		{"id" : 38, "lemma" : ".", "type" : "SF", "position" : 413, "weight" : 1 }
	],
	"morp_eval" : [
		{"id" : 0, "result" : "한국외국어대학교네덜란드어학과/NNG+에서/JKB", "target" : "한국외국어대학교네덜란드어학과에서", "word_id" : 0, "m_begin" : 0, "m_end" : 7},
		{"id" : 1, "result" : "네덜란드어학/NNG", "target" : "네덜란드어학", "word_id" : 1, "m_begin" : 8, "m_end" : 10},
		{"id" : 2, "result" : "전공/NNG+과/JC", "target" : "전공과", "word_id" : 2, "m_begin" : 11, "m_end" : 12},
		{"id" : 3, "result" : "불어학/NNG", "target" : "불어학", "word_id" : 3, "m_begin" : 13, "m_end" : 15},
		{"id" : 4, "result" : "부전공/NNG+으로/JKB", "target" : "부전공으로", "word_id" : 4, "m_begin" : 16, "m_end" : 18},
		{"id" : 5, "result" : "학사/NNG", "target" : "학사", "word_id" : 5, "m_begin" : 19, "m_end" : 19},
		{"id" : 6, "result" : "졸업하/VV+었/EP+고/EC+,/SP", "target" : "졸업하였고,", "word_id" : 6, "m_begin" : 20, "m_end" : 24},
		{"id" : 7, "result" : "경희대학교/NNG", "target" : "경희대학교", "word_id" : 7, "m_begin" : 25, "m_end" : 25},
		{"id" : 8, "result" : "대학원/NNG", "target" : "대학원", "word_id" : 8, "m_begin" : 26, "m_end" : 27},
		{"id" : 9, "result" : "공연예술학과/NNG+를/JKO", "target" : "공연예술학과를", "word_id" : 9, "m_begin" : 28, "m_end" : 31},
		{"id" : 10, "result" : "예술학석사/NNG", "target" : "예술학석사", "word_id" : 10, "m_begin" : 32, "m_end" : 33},
		{"id" : 11, "result" : "졸업하/VV+었/EP+다/EF+./SF", "target" : "졸업하였다.", "word_id" : 11, "m_begin" : 34, "m_end" : 38}
	],
	"WSD" : [
		{"id" : 0, "text" : "한국", "type" : "NNP", "scode" : "05", "weight" : 1, "position" : 203, "begin" : 0, "end" : 0},
		{"id" : 1, "text" : "외국어", "type" : "NNG", "scode" : "00", "weight" : 1, "position" : 209, "begin" : 1, "end" : 2},
		{"id" : 2, "text" : "대학교", "type" : "NNG", "scode" : "00", "weight" : 1, "position" : 218, "begin" : 3, "end" : 4},
		{"id" : 3, "text" : "네덜란드", "type" : "NNP", "scode" : "00", "weight" : 1, "position" : 227, "begin" : 5, "end" : 5},
		{"id" : 4, "text" : "어학과", "type" : "NNP", "scode" : "00", "weight" : 0, "position" : 239, "begin" : 6, "end" : 6},
		{"id" : 5, "text" : "에서", "type" : "JKB", "scode" : "00", "weight" : 1, "position" : 248, "begin" : 7, "end" : 7},
		{"id" : 6, "text" : "네덜란드", "type" : "NNP", "scode" : "00", "weight" : 1, "position" : 255, "begin" : 8, "end" : 8},
		{"id" : 7, "text" : "어학", "type" : "NNG", "scode" : "02", "weight" : 1, "position" : 267, "begin" : 9, "end" : 10},
		{"id" : 8, "text" : "전공", "type" : "NNG", "scode" : "05", "weight" : 1, "position" : 274, "begin" : 11, "end" : 11},
		{"id" : 9, "text" : "과", "type" : "JC", "scode" : "00", "weight" : 1, "position" : 280, "begin" : 12, "end" : 12},
		{"id" : 10, "text" : "불", "type" : "NNP", "scode" : "10", "weight" : 1, "position" : 284, "begin" : 13, "end" : 13},
		{"id" : 11, "text" : "어학", "type" : "NNG", "scode" : "02", "weight" : 1, "position" : 287, "begin" : 14, "end" : 15},
		{"id" : 12, "text" : "부", "type" : "XPN", "scode" : "22", "weight" : 1, "position" : 294, "begin" : 16, "end" : 16},
		{"id" : 13, "text" : "전공", "type" : "NNG", "scode" : "05", "weight" : 1, "position" : 297, "begin" : 17, "end" : 17},
		{"id" : 14, "text" : "으로", "type" : "JKB", "scode" : "00", "weight" : 1, "position" : 303, "begin" : 18, "end" : 18},
		{"id" : 15, "text" : "학사", "type" : "NNG", "scode" : "03", "weight" : 1, "position" : 310, "begin" : 19, "end" : 19},
		{"id" : 16, "text" : "졸업하", "type" : "VV", "scode" : "00", "weight" : 1, "position" : 317, "begin" : 20, "end" : 21},
		{"id" : 17, "text" : "었", "type" : "EP", "scode" : "00", "weight" : 1, "position" : 326, "begin" : 22, "end" : 22},
		{"id" : 18, "text" : "고", "type" : "EC", "scode" : "00", "weight" : 1, "position" : 329, "begin" : 23, "end" : 23},
		{"id" : 19, "text" : ",", "type" : "SP", "scode" : "00", "weight" : 1, "position" : 332, "begin" : 24, "end" : 24},
		{"id" : 20, "text" : "경희대학교", "type" : "NNP", "scode" : "00", "weight" : 1, "position" : 334, "begin" : 25, "end" : 25},
		{"id" : 21, "text" : "대학원", "type" : "NNG", "scode" : "00", "weight" : 1, "position" : 350, "begin" : 26, "end" : 27},
		{"id" : 22, "text" : "공연", "type" : "NNG", "scode" : "02", "weight" : 1, "position" : 360, "begin" : 28, "end" : 28},
		{"id" : 23, "text" : "예술", "type" : "NNG", "scode" : "00", "weight" : 1, "position" : 366, "begin" : 29, "end" : 29},
		{"id" : 24, "text" : "학과", "type" : "NNG", "scode" : "01", "weight" : 1, "position" : 372, "begin" : 30, "end" : 30},
		{"id" : 25, "text" : "를", "type" : "JKO", "scode" : "00", "weight" : 1, "position" : 378, "begin" : 31, "end" : 31},
		{"id" : 26, "text" : "예술", "type" : "NNG", "scode" : "00", "weight" : 1, "position" : 382, "begin" : 32, "end" : 32},
		{"id" : 27, "text" : "학석사", "type" : "NNP", "scode" : "00", "weight" : 0, "position" : 388, "begin" : 33, "end" : 33},
		{"id" : 28, "text" : "졸업하", "type" : "VV", "scode" : "00", "weight" : 1, "position" : 398, "begin" : 34, "end" : 35},
		{"id" : 29, "text" : "었", "type" : "EP", "scode" : "00", "weight" : 1, "position" : 407, "begin" : 36, "end" : 36},
		{"id" : 30, "text" : "다", "type" : "EF", "scode" : "00", "weight" : 1, "position" : 410, "begin" : 37, "end" : 37},
		{"id" : 31, "text" : ".", "type" : "SF", "scode" : "00", "weight" : 1, "position" : 413, "begin" : 38, "end" : 38}
	],
	"word" : [
		{"id" : 0, "text" : "한국외국어대학교네덜란드어학과에서", "type" : "", "begin" : 0, "end" : 7},
		{"id" : 1, "text" : "네덜란드어학", "type" : "", "begin" : 8, "end" : 10},
		{"id" : 2, "text" : "전공과", "type" : "", "begin" : 11, "end" : 12},
		{"id" : 3, "text" : "불어학", "type" : "", "begin" : 13, "end" : 15},
		{"id" : 4, "text" : "부전공으로", "type" : "", "begin" : 16, "end" : 18},
		{"id" : 5, "text" : "학사", "type" : "", "begin" : 19, "end" : 19},
		{"id" : 6, "text" : "졸업하였고,", "type" : "", "begin" : 20, "end" : 24},
		{"id" : 7, "text" : "경희대학교", "type" : "", "begin" : 25, "end" : 25},
		{"id" : 8, "text" : "대학원", "type" : "", "begin" : 26, "end" : 27},
		{"id" : 9, "text" : "공연예술학과를", "type" : "", "begin" : 28, "end" : 31},
		{"id" : 10, "text" : "예술학석사", "type" : "", "begin" : 32, "end" : 33},
		{"id" : 11, "text" : "졸업하였다.", "type" : "", "begin" : 34, "end" : 38}
	],
	"NE" : [
		{"id" : 0, "text" : "한국외국어대학교네덜란드어학과", "type" : "OGG_EDUCATION", "begin" : 0, "end" : 6, "weight" : 0.598524, "common_noun" : 0},
		{"id" : 1, "text" : "네덜란드어학", "type" : "CV_LANGUAGE", "begin" : 8, "end" : 10, "weight" : 0.260762, "common_noun" : 0},
		{"id" : 2, "text" : "불어학", "type" : "CV_LANGUAGE", "begin" : 13, "end" : 15, "weight" : 0.336787, "common_noun" : 0},
		{"id" : 3, "text" : "학사", "type" : "CV_POSITION", "begin" : 19, "end" : 19, "weight" : 0.243237, "common_noun" : 0},
		{"id" : 4, "text" : "경희대학교", "type" : "OGG_EDUCATION", "begin" : 25, "end" : 25, "weight" : 0.626622, "common_noun" : 0},
		{"id" : 5, "text" : "공연예술학과", "type" : "FD_ART", "begin" : 28, "end" : 30, "weight" : 0.35803, "common_noun" : 0},
		{"id" : 6, "text" : "예술", "type" : "FD_ART", "begin" : 32, "end" : 32, "weight" : 0.318188, "common_noun" : 0}
	],
	"chunk" : [
	],
	"dependency" : [
		{"id" : 0, "text" : "한국외국어대학교네덜란드어학과에서", "head" : 6, "label" : "NP_AJT", "mod" : [], "weight" : 0.947542 },
		{"id" : 1, "text" : "네덜란드어학", "head" : 2, "label" : "NP", "mod" : [], "weight" : 0.853315 },
		{"id" : 2, "text" : "전공과", "head" : 4, "label" : "NP_CNJ", "mod" : [1], "weight" : 0.689929 },
		{"id" : 3, "text" : "불어학", "head" : 4, "label" : "NP", "mod" : [], "weight" : 0.704746 },
		{"id" : 4, "text" : "부전공으로", "head" : 6, "label" : "NP_AJT", "mod" : [2, 3], "weight" : 0.784639 },
		{"id" : 5, "text" : "학사", "head" : 6, "label" : "NP", "mod" : [], "weight" : 0.424721 },
		{"id" : 6, "text" : "졸업하였고,", "head" : 11, "label" : "VP", "mod" : [0, 4, 5], "weight" : 0.554964 },
		{"id" : 7, "text" : "경희대학교", "head" : 8, "label" : "NP", "mod" : [], "weight" : 0.766794 },
		{"id" : 8, "text" : "대학원", "head" : 9, "label" : "NP", "mod" : [7], "weight" : 0.684037 },
		{"id" : 9, "text" : "공연예술학과를", "head" : 11, "label" : "NP_OBJ", "mod" : [8], "weight" : 0.591078 },
		{"id" : 10, "text" : "예술학석사", "head" : 11, "label" : "NP", "mod" : [], "weight" : 0.216909 },
		{"id" : 11, "text" : "졸업하였다.", "head" : -1, "label" : "VP", "mod" : [6, 9, 10], "weight" : 0.00266824 }
	],
	"SRL" : [
		{"verb" : "졸업", "sense" : 1, "word_id" : 6, "weight" : 0.138585,
			"argument" : [
				{"type" : "ARGM-LOC", "word_id" : 0, "text" : "한국외국어대학교네덜란드어학과에서", "weight" : 0.196219 },
				{"type" : "ARGM-PRD", "word_id" : 4, "text" : "부전공으로", "weight" : 0.0809507 }
			] },
		{"verb" : "졸업", "sense" : 1, "word_id" : 11, "weight" : 0.156955,
			"argument" : [
				{"type" : "ARG1", "word_id" : 9, "text" : "공연예술학과를", "weight" : 0.156955 }
			] }
	],
	"relation" : [
	],
	"SA" : [
	],
	"ZA" : [
		{"id" : 0, "verb_wid" : 6, "ant_sid" : -1, "ant_wid" : -1, "type" : "s", "istitle" : 0, "weight" : 0.497484 },
		{"id" : 1, "verb_wid" : 11, "ant_sid" : -1, "ant_wid" : -1, "type" : "s", "istitle" : 0, "weight" : 0.451739 }
	]
	},
	{
	"id" : 3,
	"reserve_str" : "",
	"text" : "그 후 경희대학교 포스트모던음악학과 겸임교수와 동아방송대학 영상음악학과 겸임교수를 지낸 바 있고, 현재 서울예술대학 실용음악학과 교수직에 있다",
	"morp" : [
		{"id" : 0, "lemma" : "그", "type" : "MM", "position" : 414, "weight" : 0.026321 },
		{"id" : 1, "lemma" : "후", "type" : "NNG", "position" : 418, "weight" : 0.734062 },
		{"id" : 2, "lemma" : "경희대학교", "type" : "NNP", "position" : 422, "weight" : 0.15 },
		{"id" : 3, "lemma" : "포스트모던", "type" : "NNG", "position" : 438, "weight" : 0.9 },
		{"id" : 4, "lemma" : "음악", "type" : "NNG", "position" : 453, "weight" : 0.184797 },
		{"id" : 5, "lemma" : "학", "type" : "XSN", "position" : 459, "weight" : 0.0233263 },
		{"id" : 6, "lemma" : "과", "type" : "JC", "position" : 462, "weight" : 0.0096702 },
		{"id" : 7, "lemma" : "겸임", "type" : "NNG", "position" : 466, "weight" : 0.9 },
		{"id" : 8, "lemma" : "교수", "type" : "NNG", "position" : 472, "weight" : 0.9 },
		{"id" : 9, "lemma" : "와", "type" : "JC", "position" : 478, "weight" : 0.0169714 },
		{"id" : 10, "lemma" : "동아", "type" : "NNP", "position" : 482, "weight" : 0.0659439 },
		{"id" : 11, "lemma" : "방송", "type" : "NNG", "position" : 488, "weight" : 0.9 },
		{"id" : 12, "lemma" : "대학", "type" : "NNG", "position" : 494, "weight" : 0.184343 },
		{"id" : 13, "lemma" : "영상", "type" : "NNG", "position" : 501, "weight" : 0.9 },
		{"id" : 14, "lemma" : "음악", "type" : "NNG", "position" : 507, "weight" : 0.184797 },
		{"id" : 15, "lemma" : "학", "type" : "XSN", "position" : 513, "weight" : 0.0233263 },
		{"id" : 16, "lemma" : "과", "type" : "JC", "position" : 516, "weight" : 0.0096702 },
		{"id" : 17, "lemma" : "겸임", "type" : "NNG", "position" : 520, "weight" : 0.9 },
		{"id" : 18, "lemma" : "교수", "type" : "NNG", "position" : 526, "weight" : 0.9 },
		{"id" : 19, "lemma" : "를", "type" : "JKO", "position" : 532, "weight" : 0.137686 },
		{"id" : 20, "lemma" : "지내", "type" : "VV", "position" : 536, "weight" : 0.777813 },
		{"id" : 21, "lemma" : "ㄴ", "type" : "ETM", "position" : 539, "weight" : 0.304215 },
		{"id" : 22, "lemma" : "바", "type" : "NNB", "position" : 543, "weight" : 0.216256 },
		{"id" : 23, "lemma" : "있", "type" : "VA", "position" : 547, "weight" : 0.0518488 },
		{"id" : 24, "lemma" : "고", "type" : "EC", "position" : 550, "weight" : 0.310376 },
		{"id" : 25, "lemma" : ",", "type" : "SP", "position" : 553, "weight" : 1 },
		{"id" : 26, "lemma" : "현재", "type" : "MAG", "position" : 555, "weight" : 0.034489 },
		{"id" : 27, "lemma" : "서울", "type" : "NNP", "position" : 562, "weight" : 0.026493 },
		{"id" : 28, "lemma" : "예술", "type" : "NNG", "position" : 568, "weight" : 0.9 },
		{"id" : 29, "lemma" : "대학", "type" : "NNG", "position" : 574, "weight" : 0.184343 },
		{"id" : 30, "lemma" : "실용", "type" : "NNG", "position" : 581, "weight" : 0.9 },
		{"id" : 31, "lemma" : "음악", "type" : "NNG", "position" : 587, "weight" : 0.184797 },
		{"id" : 32, "lemma" : "학", "type" : "XSN", "position" : 593, "weight" : 0.0233263 },
		{"id" : 33, "lemma" : "과", "type" : "JC", "position" : 596, "weight" : 0.0096702 },
		{"id" : 34, "lemma" : "교수", "type" : "NNG", "position" : 600, "weight" : 0.9 },
		{"id" : 35, "lemma" : "직", "type" : "NNG", "position" : 606, "weight" : 0.183317 },
		{"id" : 36, "lemma" : "에", "type" : "JKB", "position" : 609, "weight" : 0.153364 },
		{"id" : 37, "lemma" : "있", "type" : "VA", "position" : 613, "weight" : 0.037292 },
		{"id" : 38, "lemma" : "다", "type" : "EC", "position" : 616, "weight" : 0.00798949 }
	],
	"morp_eval" : [
		{"id" : 0, "result" : "그/MM", "target" : "그", "word_id" : 0, "m_begin" : 0, "m_end" : 0},
		{"id" : 1, "result" : "후/NNG", "target" : "후", "word_id" : 1, "m_begin" : 1, "m_end" : 1},
		{"id" : 2, "result" : "경희대학교/NNG", "target" : "경희대학교", "word_id" : 2, "m_begin" : 2, "m_end" : 2},
		{"id" : 3, "result" : "포스트모던음악학/NNG+과/JC", "target" : "포스트모던음악학과", "word_id" : 3, "m_begin" : 3, "m_end" : 6},
		{"id" : 4, "result" : "겸임교수/NNG+와/JC", "target" : "겸임교수와", "word_id" : 4, "m_begin" : 7, "m_end" : 9},
		{"id" : 5, "result" : "동아방송대학/NNG", "target" : "동아방송대학", "word_id" : 5, "m_begin" : 10, "m_end" : 12},
		{"id" : 6, "result" : "영상음악학/NNG+과/JC", "target" : "영상음악학과", "word_id" : 6, "m_begin" : 13, "m_end" : 16},
		{"id" : 7, "result" : "겸임교수/NNG+를/JKO", "target" : "겸임교수를", "word_id" : 7, "m_begin" : 17, "m_end" : 19},
		{"id" : 8, "result" : "지내/VV+ㄴ/ETM", "target" : "지낸", "word_id" : 8, "m_begin" : 20, "m_end" : 21},
		{"id" : 9, "result" : "바/NNB", "target" : "바", "word_id" : 9, "m_begin" : 22, "m_end" : 22},
		{"id" : 10, "result" : "있/VA+고/EC+,/SP", "target" : "있고,", "word_id" : 10, "m_begin" : 23, "m_end" : 25},
		{"id" : 11, "result" : "현재/MAG", "target" : "현재", "word_id" : 11, "m_begin" : 26, "m_end" : 26},
		{"id" : 12, "result" : "서울예술대학/NNG", "target" : "서울예술대학", "word_id" : 12, "m_begin" : 27, "m_end" : 29},
		{"id" : 13, "result" : "실용음악학/NNG+과/JC", "target" : "실용음악학과", "word_id" : 13, "m_begin" : 30, "m_end" : 33},
		{"id" : 14, "result" : "교수직/NNG+에/JKB", "target" : "교수직에", "word_id" : 14, "m_begin" : 34, "m_end" : 36},
		{"id" : 15, "result" : "있/VA+다/EC", "target" : "있다", "word_id" : 15, "m_begin" : 37, "m_end" : 38}
	],
	"WSD" : [
		{"id" : 0, "text" : "그", "type" : "MM", "scode" : "01", "weight" : 1, "position" : 414, "begin" : 0, "end" : 0},
		{"id" : 1, "text" : "후", "type" : "NNG", "scode" : "08", "weight" : 1, "position" : 418, "begin" : 1, "end" : 1},
		{"id" : 2, "text" : "경희대학교", "type" : "NNP", "scode" : "00", "weight" : 1, "position" : 422, "begin" : 2, "end" : 2},
		{"id" : 3, "text" : "포스트모던", "type" : "NNG", "scode" : "00", "weight" : 1, "position" : 438, "begin" : 3, "end" : 3},
		{"id" : 4, "text" : "음악학", "type" : "NNG", "scode" : "00", "weight" : 1, "position" : 453, "begin" : 4, "end" : 5},
		{"id" : 5, "text" : "과", "type" : "JC", "scode" : "00", "weight" : 1, "position" : 462, "begin" : 6, "end" : 6},
		{"id" : 6, "text" : "겸임", "type" : "NNG", "scode" : "00", "weight" : 1, "position" : 466, "begin" : 7, "end" : 7},
		{"id" : 7, "text" : "교수", "type" : "NNG", "scode" : "06", "weight" : 1, "position" : 472, "begin" : 8, "end" : 8},
		{"id" : 8, "text" : "와", "type" : "JC", "scode" : "00", "weight" : 1, "position" : 478, "begin" : 9, "end" : 9},
		{"id" : 9, "text" : "동아", "type" : "NNP", "scode" : "03", "weight" : 1, "position" : 482, "begin" : 10, "end" : 10},
		{"id" : 10, "text" : "방송대학", "type" : "NNG", "scode" : "00", "weight" : 1, "position" : 488, "begin" : 11, "end" : 12},
		{"id" : 11, "text" : "영상", "type" : "NNG", "scode" : "01", "weight" : 1, "position" : 501, "begin" : 13, "end" : 13},
		{"id" : 12, "text" : "음악학", "type" : "NNG", "scode" : "00", "weight" : 1, "position" : 507, "begin" : 14, "end" : 15},
		{"id" : 13, "text" : "과", "type" : "JC", "scode" : "00", "weight" : 1, "position" : 516, "begin" : 16, "end" : 16},
		{"id" : 14, "text" : "겸임", "type" : "NNG", "scode" : "00", "weight" : 1, "position" : 520, "begin" : 17, "end" : 17},
		{"id" : 15, "text" : "교수", "type" : "NNG", "scode" : "06", "weight" : 1, "position" : 526, "begin" : 18, "end" : 18},
		{"id" : 16, "text" : "를", "type" : "JKO", "scode" : "00", "weight" : 1, "position" : 532, "begin" : 19, "end" : 19},
		{"id" : 17, "text" : "지내", "type" : "VV", "scode" : "01", "weight" : 1, "position" : 536, "begin" : 20, "end" : 20},
		{"id" : 18, "text" : "ㄴ", "type" : "ETM", "scode" : "00", "weight" : 1, "position" : 539, "begin" : 21, "end" : 21},
		{"id" : 19, "text" : "바", "type" : "NNB", "scode" : "03", "weight" : 1, "position" : 543, "begin" : 22, "end" : 22},
		{"id" : 20, "text" : "있", "type" : "VA", "scode" : "01", "weight" : 1, "position" : 547, "begin" : 23, "end" : 23},
		{"id" : 21, "text" : "고", "type" : "EC", "scode" : "00", "weight" : 1, "position" : 550, "begin" : 24, "end" : 24},
		{"id" : 22, "text" : ",", "type" : "SP", "scode" : "00", "weight" : 1, "position" : 553, "begin" : 25, "end" : 25},
		{"id" : 23, "text" : "현재", "type" : "MAG", "scode" : "02", "weight" : 1, "position" : 555, "begin" : 26, "end" : 26},
		{"id" : 24, "text" : "서울", "type" : "NNP", "scode" : "01", "weight" : 1, "position" : 562, "begin" : 27, "end" : 27},
		{"id" : 25, "text" : "예술대학", "type" : "NNG", "scode" : "00", "weight" : 0, "position" : 568, "begin" : 28, "end" : 29},
		{"id" : 26, "text" : "실용", "type" : "NNG", "scode" : "00", "weight" : 1, "position" : 581, "begin" : 30, "end" : 30},
		{"id" : 27, "text" : "음악학", "type" : "NNG", "scode" : "00", "weight" : 1, "position" : 587, "begin" : 31, "end" : 32},
		{"id" : 28, "text" : "과", "type" : "JC", "scode" : "00", "weight" : 1, "position" : 596, "begin" : 33, "end" : 33},
		{"id" : 29, "text" : "교수", "type" : "NNG", "scode" : "06", "weight" : 1, "position" : 600, "begin" : 34, "end" : 34},
		{"id" : 30, "text" : "직", "type" : "NNG", "scode" : "06", "weight" : 1, "position" : 606, "begin" : 35, "end" : 35},
		{"id" : 31, "text" : "에", "type" : "JKB", "scode" : "00", "weight" : 1, "position" : 609, "begin" : 36, "end" : 36},
		{"id" : 32, "text" : "있", "type" : "VA", "scode" : "01", "weight" : 1, "position" : 613, "begin" : 37, "end" : 37},
		{"id" : 33, "text" : "다", "type" : "EC", "scode" : "00", "weight" : 1, "position" : 616, "begin" : 38, "end" : 38}
	],
	"word" : [
		{"id" : 0, "text" : "그", "type" : "", "begin" : 0, "end" : 0},
		{"id" : 1, "text" : "후", "type" : "", "begin" : 1, "end" : 1},
		{"id" : 2, "text" : "경희대학교", "type" : "", "begin" : 2, "end" : 2},
		{"id" : 3, "text" : "포스트모던음악학과", "type" : "", "begin" : 3, "end" : 6},
		{"id" : 4, "text" : "겸임교수와", "type" : "", "begin" : 7, "end" : 9},
		{"id" : 5, "text" : "동아방송대학", "type" : "", "begin" : 10, "end" : 12},
		{"id" : 6, "text" : "영상음악학과", "type" : "", "begin" : 13, "end" : 16},
		{"id" : 7, "text" : "겸임교수를", "type" : "", "begin" : 17, "end" : 19},
		{"id" : 8, "text" : "지낸", "type" : "", "begin" : 20, "end" : 21},
		{"id" : 9, "text" : "바", "type" : "", "begin" : 22, "end" : 22},
		{"id" : 10, "text" : "있고,", "type" : "", "begin" : 23, "end" : 25},
		{"id" : 11, "text" : "현재", "type" : "", "begin" : 26, "end" : 26},
		{"id" : 12, "text" : "서울예술대학", "type" : "", "begin" : 27, "end" : 29},
		{"id" : 13, "text" : "실용음악학과", "type" : "", "begin" : 30, "end" : 33},
		{"id" : 14, "text" : "교수직에", "type" : "", "begin" : 34, "end" : 36},
		{"id" : 15, "text" : "있다", "type" : "", "begin" : 37, "end" : 38}
	],
	"NE" : [
		{"id" : 0, "text" : "경희대학교", "type" : "OGG_EDUCATION", "begin" : 2, "end" : 2, "weight" : 0.471362, "common_noun" : 0},
		{"id" : 1, "text" : "포스트모던음악학과", "type" : "OGG_EDUCATION", "begin" : 3, "end" : 6, "weight" : 0.234037, "common_noun" : 0},
		{"id" : 2, "text" : "겸임교수", "type" : "CV_POSITION", "begin" : 7, "end" : 8, "weight" : 0.461361, "common_noun" : 0},
		{"id" : 3, "text" : "동아방송대학", "type" : "OGG_EDUCATION", "begin" : 10, "end" : 12, "weight" : 0.727317, "common_noun" : 0},
		{"id" : 4, "text" : "영상음악학과", "type" : "OGG_EDUCATION", "begin" : 13, "end" : 16, "weight" : 0.273215, "common_noun" : 0},
		{"id" : 5, "text" : "겸임교수", "type" : "CV_POSITION", "begin" : 17, "end" : 18, "weight" : 0.557144, "common_noun" : 0},
		{"id" : 6, "text" : "서울예술대학", "type" : "OGG_EDUCATION", "begin" : 27, "end" : 29, "weight" : 0.711479, "common_noun" : 0},
		{"id" : 7, "text" : "실용음악학", "type" : "OGG_EDUCATION", "begin" : 30, "end" : 32, "weight" : 0.433379, "common_noun" : 0},
		{"id" : 8, "text" : "교수", "type" : "CV_OCCUPATION", "begin" : 34, "end" : 34, "weight" : 0.578846, "common_noun" : 0}
	],
	"chunk" : [
	],
	"dependency" : [
		{"id" : 0, "text" : "그", "head" : 1, "label" : "DP", "mod" : [], "weight" : 0.867675 },
		{"id" : 1, "text" : "후", "head" : 8, "label" : "NP_AJT", "mod" : [0], "weight" : 0.513594 },
		{"id" : 2, "text" : "경희대학교", "head" : 3, "label" : "NP", "mod" : [], "weight" : 0.657932 },
		{"id" : 3, "text" : "포스트모던음악학과", "head" : 7, "label" : "NP_CNJ", "mod" : [2], "weight" : 0.596034 },
		{"id" : 4, "text" : "겸임교수와", "head" : 7, "label" : "NP_CNJ", "mod" : [], "weight" : 0.669281 },
		{"id" : 5, "text" : "동아방송대학", "head" : 6, "label" : "NP", "mod" : [], "weight" : 0.718632 },
		{"id" : 6, "text" : "영상음악학과", "head" : 7, "label" : "NP_CNJ", "mod" : [5], "weight" : 0.595968 },
		{"id" : 7, "text" : "겸임교수를", "head" : 8, "label" : "NP_OBJ", "mod" : [3, 4, 6], "weight" : 0.900165 },
		{"id" : 8, "text" : "지낸", "head" : 9, "label" : "VP_MOD", "mod" : [1, 7], "weight" : 0.925286 },
		{"id" : 9, "text" : "바", "head" : 10, "label" : "NP_SBJ", "mod" : [8], "weight" : 0.632919 },
		{"id" : 10, "text" : "있고,", "head" : 15, "label" : "VP", "mod" : [9], "weight" : 0.966837 },
		{"id" : 11, "text" : "현재", "head" : 15, "label" : "AP", "mod" : [], "weight" : 0.759721 },
		{"id" : 12, "text" : "서울예술대학", "head" : 13, "label" : "NP", "mod" : [], "weight" : 0.712677 },
		{"id" : 13, "text" : "실용음악학과", "head" : 14, "label" : "NP_CNJ", "mod" : [12], "weight" : 0.855001 },
		{"id" : 14, "text" : "교수직에", "head" : 15, "label" : "NP_AJT", "mod" : [13], "weight" : 0.576736 },
		{"id" : 15, "text" : "있다", "head" : -1, "label" : "VP", "mod" : [10, 11, 14], "weight" : 0.00458537 }
	],
	"SRL" : [
		{"verb" : "지내", "sense" : 2, "word_id" : 8, "weight" : 0.229962,
			"argument" : [
				{"type" : "ARGM-TMP", "word_id" : 1, "text" : "후", "weight" : 0.297006 },
				{"type" : "ARG1", "word_id" : 3, "text" : "포스트모던음악학과", "weight" : 0.111689 },
				{"type" : "ARG1", "word_id" : 6, "text" : "영상음악학과", "weight" : 0.126444 },
				{"type" : "ARG1", "word_id" : 7, "text" : "겸임교수를", "weight" : 0.384708 }
			] },
		{"verb" : "있", "sense" : 1, "word_id" : 10, "weight" : 0.286118,
			"argument" : [
				{"type" : "ARG1", "word_id" : 9, "text" : "바", "weight" : 0.286118 }
			] },
		{"verb" : "있", "sense" : 1, "word_id" : 15, "weight" : 0.246176,
			"argument" : [
				{"type" : "ARGM-TMP", "word_id" : 11, "text" : "현재", "weight" : 0.299847 },
				{"type" : "ARG2", "word_id" : 14, "text" : "교수직에", "weight" : 0.192504 }
			] }
	],
	"relation" : [
	],
	"SA" : [
	],
	"ZA" : [
		{"id" : 0, "verb_wid" : 8, "ant_sid" : -1, "ant_wid" : -1, "type" : "s", "istitle" : 0, "weight" : 0.394167 },
		{"id" : 1, "verb_wid" : 15, "ant_sid" : -1, "ant_wid" : -1, "type" : "s", "istitle" : 0, "weight" : 0.428333 }
	]
	}
 ],
 "entity" : [
	{"id" : 0, "type" : "CV_OCCUPATION", "number" : "singular", "gender" : "", "person" : "", "animacy" : "", "loc" : "", 
	 "mention" : [
		{"id" : 0, "sent_id" : 0, "start_eid" : 0, "end_eid" : 0, "ne_id" : 0, "text" : "권진원(1966년1월", "start_eid_short" : 0, "end_eid_short" : 0, "text_short" : "권진원(1966년1월", "weight" : 0.007 },
		{"id" : 2, "sent_id" : 0, "start_eid" : 4, "end_eid" : 5, "ne_id" : 3, "text" : "대한민국의 가수", "start_eid_short" : 4, "end_eid_short" : 5, "text_short" : "대한민국의 가수,", "weight" : 0.012 }
	] },
	{"id" : 1, "type" : "CV_POSITION", "number" : "singular", "gender" : "", "person" : "", "animacy" : "", "loc" : "", 
	 "mention" : [
		{"id" : 16, "sent_id" : 2, "start_eid" : 5, "end_eid" : 5, "ne_id" : 3, "text" : "학사", "start_eid_short" : 5, "end_eid_short" : 5, "text_short" : "학사", "weight" : 0.002 },
		{"id" : 25, "sent_id" : 3, "start_eid" : 0, "end_eid" : 1, "ne_id" : -1, "text" : "그 후", "start_eid_short" : 0, "end_eid_short" : 1, "text_short" : "그 후", "weight" : 0.006 }
	] },
	{"id" : 2, "type" : "FD_ART", "number" : "singular", "gender" : "", "person" : "", "animacy" : "", "loc" : "", 
	 "mention" : [
		{"id" : 20, "sent_id" : 2, "start_eid" : 10, "end_eid" : 10, "ne_id" : 6, "text" : "예술학석사", "start_eid_short" : 10, "end_eid_short" : 10, "text_short" : "예술학석사", "weight" : 0.003 },
		{"id" : 17, "sent_id" : 2, "start_eid" : 7, "end_eid" : 9, "ne_id" : 5, "text" : "경희대학교 대학원 공연예술학과", "start_eid_short" : 7, "end_eid_short" : 9, "text_short" : "경희대학교 대학원 공연예술학과", "weight" : 0.002 }
	] },
	{"id" : 3, "type" : "OGG_EDUCATION", "number" : "singular", "gender" : "", "person" : "", "animacy" : "", "loc" : "", 
	 "mention" : [
		{"id" : 19, "sent_id" : 2, "start_eid" : 7, "end_eid" : 7, "ne_id" : 4, "text" : "경희대학교", "start_eid_short" : 7, "end_eid_short" : 7, "text_short" : "경희대학교", "weight" : 0.011 },
		{"id" : 27, "sent_id" : 3, "start_eid" : 2, "end_eid" : 3, "ne_id" : 1, "text" : "경희대학교 포스트모던음악학", "start_eid_short" : 2, "end_eid_short" : 3, "text_short" : "경희대학교 포스트모던음악학", "weight" : 0.002 },
		{"id" : 28, "sent_id" : 3, "start_eid" : 2, "end_eid" : 2, "ne_id" : 0, "text" : "경희대학교", "start_eid_short" : 2, "end_eid_short" : 2, "text_short" : "경희대학교", "weight" : 0.017 },
		{"id" : 29, "sent_id" : 3, "start_eid" : 5, "end_eid" : 6, "ne_id" : 4, "text" : "동아방송대학 영상음악학", "start_eid_short" : 5, "end_eid_short" : 6, "text_short" : "동아방송대학 영상음악학", "weight" : 0.003 },
		{"id" : 30, "sent_id" : 3, "start_eid" : 5, "end_eid" : 5, "ne_id" : 3, "text" : "동아방송대학", "start_eid_short" : 5, "end_eid_short" : 5, "text_short" : "동아방송대학", "weight" : 0.003 },
		{"id" : 33, "sent_id" : 3, "start_eid" : 12, "end_eid" : 13, "ne_id" : 7, "text" : "서울예술대학 실용음악학", "start_eid_short" : 12, "end_eid_short" : 13, "text_short" : "서울예술대학 실용음악학", "weight" : 0.003 },
		{"id" : 34, "sent_id" : 3, "start_eid" : 12, "end_eid" : 12, "ne_id" : 6, "text" : "서울예술대학", "start_eid_short" : 12, "end_eid_short" : 12, "text_short" : "서울예술대학", "weight" : 0.003 }
	] }
 ]
}

