{"doc_id" : "",
 "DCT" : "",
 "category" : "",
 "category_weight" : 0,
 "title" : {"text" : "", "NE" : ""},
 "metaInfo" : { },
 "sentence" : [
	{
	"id" : 0,
	"reserve_str" : "",
	"text" : "김삼(金森, 1941년 11월 15일~ )은 대한민국의 만화가이다.",
	"morp" : [
		{"id" : 0, "lemma" : "김삼", "type" : "NNP", "position" : 0, "weight" : 0.6 },
		{"id" : 1, "lemma" : "(", "type" : "SS", "position" : 6, "weight" : 1 },
		{"id" : 2, "lemma" : "金森", "type" : "SH", "position" : 7, "weight" : 1 },
		{"id" : 3, "lemma" : ",", "type" : "SP", "position" : 13, "weight" : 1 },
		{"id" : 4, "lemma" : "1941", "type" : "SN", "position" : 15, "weight" : 1 },
		{"id" : 5, "lemma" : "년", "type" : "NNB", "position" : 19, "weight" : 0.414343 },
		{"id" : 6, "lemma" : "11", "type" : "SN", "position" : 23, "weight" : 1 },
		{"id" : 7, "lemma" : "월", "type" : "NNB", "position" : 25, "weight" : 0.408539 },
		{"id" : 8, "lemma" : "15", "type" : "SN", "position" : 29, "weight" : 1 },
		{"id" : 9, "lemma" : "일", "type" : "NNB", "position" : 31, "weight" : 0.126777 },
		{"id" : 10, "lemma" : "~", "type" : "SO", "position" : 34, "weight" : 1 },
		{"id" : 11, "lemma" : ")", "type" : "SS", "position" : 36, "weight" : 1 },
		{"id" : 12, "lemma" : "은", "type" : "JX", "position" : 37, "weight" : 0.0128817 },
		{"id" : 13, "lemma" : "대한민국", "type" : "NNP", "position" : 41, "weight" : 0.0447775 },
		{"id" : 14, "lemma" : "의", "type" : "JKG", "position" : 53, "weight" : 0.0987295 },
		{"id" : 15, "lemma" : "만화", "type" : "NNG", "position" : 57, "weight" : 0.83848 },
		{"id" : 16, "lemma" : "가", "type" : "XSN", "position" : 63, "weight" : 0.000115417 },
		{"id" : 17, "lemma" : "이", "type" : "VCP", "position" : 66, "weight" : 0.0165001 },
		{"id" : 18, "lemma" : "다", "type" : "EF", "position" : 69, "weight" : 0.353579 },
		{"id" : 19, "lemma" : ".", "type" : "SF", "position" : 72, "weight" : 1 }
	],
	"morp_eval" : [
		{"id" : 0, "result" : "김삼/NNG+(/SS+金森/SH+,/SP", "target" : "김삼(金森,", "word_id" : 0, "m_begin" : 0, "m_end" : 3},
		{"id" : 1, "result" : "1941/SN+년/NNB", "target" : "1941년", "word_id" : 1, "m_begin" : 4, "m_end" : 5},
		{"id" : 2, "result" : "11/SN+월/NNB", "target" : "11월", "word_id" : 2, "m_begin" : 6, "m_end" : 7},
		{"id" : 3, "result" : "15/SN+일/NNB+~/SO", "target" : "15일~", "word_id" : 3, "m_begin" : 8, "m_end" : 10},
		{"id" : 4, "result" : ")/SS+은/JX", "target" : ")은", "word_id" : 4, "m_begin" : 11, "m_end" : 12},
		{"id" : 5, "result" : "대한민국/NNG+의/JKG", "target" : "대한민국의", "word_id" : 5, "m_begin" : 13, "m_end" : 14},
		{"id" : 6, "result" : "만화가/NNG+이/VCP+다/EF+./SF", "target" : "만화가이다.", "word_id" : 6, "m_begin" : 15, "m_end" : 19}
	],
	"WSD" : [
		{"id" : 0, "text" : "김삼", "type" : "NNP", "scode" : "00", "weight" : 0, "position" : 0, "begin" : 0, "end" : 0},
		{"id" : 1, "text" : "(", "type" : "SS", "scode" : "00", "weight" : 1, "position" : 6, "begin" : 1, "end" : 1},
		{"id" : 2, "text" : "金森", "type" : "SH", "scode" : "00", "weight" : 1, "position" : 7, "begin" : 2, "end" : 2},
		{"id" : 3, "text" : ",", "type" : "SP", "scode" : "00", "weight" : 1, "position" : 13, "begin" : 3, "end" : 3},
		{"id" : 4, "text" : "1941", "type" : "SN", "scode" : "00", "weight" : 1, "position" : 15, "begin" : 4, "end" : 4},
		{"id" : 5, "text" : "년", "type" : "NNB", "scode" : "02", "weight" : 1, "position" : 19, "begin" : 5, "end" : 5},
		{"id" : 6, "text" : "11", "type" : "SN", "scode" : "00", "weight" : 1, "position" : 23, "begin" : 6, "end" : 6},
		{"id" : 7, "text" : "월", "type" : "NNB", "scode" : "02", "weight" : 1, "position" : 25, "begin" : 7, "end" : 7},
		{"id" : 8, "text" : "15", "type" : "SN", "scode" : "00", "weight" : 1, "position" : 29, "begin" : 8, "end" : 8},
		{"id" : 9, "text" : "일", "type" : "NNB", "scode" : "07", "weight" : 1, "position" : 31, "begin" : 9, "end" : 9},
		{"id" : 10, "text" : "~", "type" : "SO", "scode" : "00", "weight" : 1, "position" : 34, "begin" : 10, "end" : 10},
		{"id" : 11, "text" : ")", "type" : "SS", "scode" : "00", "weight" : 1, "position" : 36, "begin" : 11, "end" : 11},
		{"id" : 12, "text" : "은", "type" : "JX", "scode" : "00", "weight" : 1, "position" : 37, "begin" : 12, "end" : 12},
		{"id" : 13, "text" : "대한민국", "type" : "NNP", "scode" : "00", "weight" : 1, "position" : 41, "begin" : 13, "end" : 13},
		{"id" : 14, "text" : "의", "type" : "JKG", "scode" : "00", "weight" : 1, "position" : 53, "begin" : 14, "end" : 14},
		{"id" : 15, "text" : "만화가", "type" : "NNG", "scode" : "00", "weight" : 1, "position" : 57, "begin" : 15, "end" : 16},
		{"id" : 16, "text" : "이", "type" : "VCP", "scode" : "00", "weight" : 1, "position" : 66, "begin" : 17, "end" : 17},
		{"id" : 17, "text" : "다", "type" : "EF", "scode" : "00", "weight" : 1, "position" : 69, "begin" : 18, "end" : 18},
		{"id" : 18, "text" : ".", "type" : "SF", "scode" : "00", "weight" : 1, "position" : 72, "begin" : 19, "end" : 19}
	],
	"word" : [
		{"id" : 0, "text" : "김삼(金森,", "type" : "", "begin" : 0, "end" : 3},
		{"id" : 1, "text" : "1941년", "type" : "", "begin" : 4, "end" : 5},
		{"id" : 2, "text" : "11월", "type" : "", "begin" : 6, "end" : 7},
		{"id" : 3, "text" : "15일~", "type" : "", "begin" : 8, "end" : 10},
		{"id" : 4, "text" : ")은", "type" : "", "begin" : 11, "end" : 12},
		{"id" : 5, "text" : "대한민국의", "type" : "", "begin" : 13, "end" : 14},
		{"id" : 6, "text" : "만화가이다.", "type" : "", "begin" : 15, "end" : 19}
	],
	"NE" : [
		{"id" : 0, "text" : "김삼", "type" : "PS_NAME", "begin" : 0, "end" : 0, "weight" : 0.24601, "common_noun" : 0},
		{"id" : 1, "text" : "1941년 11월 15일~", "type" : "DT_OTHERS", "begin" : 4, "end" : 10, "weight" : 0.656554, "common_noun" : 0},
		{"id" : 2, "text" : "대한민국", "type" : "LCP_COUNTRY", "begin" : 13, "end" : 13, "weight" : 0.184148, "common_noun" : 0},
		{"id" : 3, "text" : "만화가", "type" : "CV_OCCUPATION", "begin" : 15, "end" : 16, "weight" : 0.285646, "common_noun" : 0}
	],
	"chunk" : [
	],
	"dependency" : [
		{"id" : 0, "text" : "김삼(金森,", "head" : 4, "label" : "NP", "mod" : [], "weight" : 0.396604 },
		{"id" : 1, "text" : "1941년", "head" : 2, "label" : "NP", "mod" : [], "weight" : 0.650179 },
		{"id" : 2, "text" : "11월", "head" : 3, "label" : "NP", "mod" : [1], "weight" : 0.775881 },
		{"id" : 3, "text" : "15일~", "head" : 4, "label" : "NP", "mod" : [2], "weight" : 0.35983 },
		{"id" : 4, "text" : ")은", "head" : 6, "label" : "NP_SBJ", "mod" : [0, 3], "weight" : 0.384185 },
		{"id" : 5, "text" : "대한민국의", "head" : 6, "label" : "NP_MOD", "mod" : [], "weight" : 0.446421 },
		{"id" : 6, "text" : "만화가이다.", "head" : -1, "label" : "VNP", "mod" : [4, 5], "weight" : 0.00716789 }
	],
	"SRL" : [
	],
	"relation" : [
	],
	"SA" : [
	],
	"ZA" : [
	]
	},
	{
	"id" : 1,
	"reserve_str" : "",
	"text" : "본명은 이정래이고 황해도 출생이다.",
	"morp" : [
		{"id" : 0, "lemma" : "본명", "type" : "NNG", "position" : 73, "weight" : 0.9 },
		{"id" : 1, "lemma" : "은", "type" : "JX", "position" : 79, "weight" : 0.0449928 },
		{"id" : 2, "lemma" : "이정래", "type" : "NNP", "position" : 83, "weight" : 0.6 },
		{"id" : 3, "lemma" : "이", "type" : "VCP", "position" : 92, "weight" : 0.00359898 },
		{"id" : 4, "lemma" : "고", "type" : "EC", "position" : 95, "weight" : 0.242962 },
		{"id" : 5, "lemma" : "황해도", "type" : "NNP", "position" : 99, "weight" : 0.9 },
		{"id" : 6, "lemma" : "출생", "type" : "NNG", "position" : 109, "weight" : 0.9 },
		{"id" : 7, "lemma" : "이", "type" : "VCP", "position" : 115, "weight" : 0.0177525 },
		{"id" : 8, "lemma" : "다", "type" : "EF", "position" : 118, "weight" : 0.353579 },
		{"id" : 9, "lemma" : ".", "type" : "SF", "position" : 121, "weight" : 1 }
	],
	"morp_eval" : [
		{"id" : 0, "result" : "본명/NNG+은/JX", "target" : "본명은", "word_id" : 0, "m_begin" : 0, "m_end" : 1},
		{"id" : 1, "result" : "이정래/NNG+이/VCP+고/EC", "target" : "이정래이고", "word_id" : 1, "m_begin" : 2, "m_end" : 4},
		{"id" : 2, "result" : "황해도/NNG", "target" : "황해도", "word_id" : 2, "m_begin" : 5, "m_end" : 5},
		{"id" : 3, "result" : "출생/NNG+이/VCP+다/EF+./SF", "target" : "출생이다.", "word_id" : 3, "m_begin" : 6, "m_end" : 9}
	],
	"WSD" : [
		{"id" : 0, "text" : "본명", "type" : "NNG", "scode" : "01", "weight" : 1, "position" : 73, "begin" : 0, "end" : 0},
		{"id" : 1, "text" : "은", "type" : "JX", "scode" : "00", "weight" : 1, "position" : 79, "begin" : 1, "end" : 1},
		{"id" : 2, "text" : "이정래", "type" : "NNP", "scode" : "00", "weight" : 1, "position" : 83, "begin" : 2, "end" : 2},
		{"id" : 3, "text" : "이", "type" : "VCP", "scode" : "00", "weight" : 1, "position" : 92, "begin" : 3, "end" : 3},
		{"id" : 4, "text" : "고", "type" : "EC", "scode" : "00", "weight" : 1, "position" : 95, "begin" : 4, "end" : 4},
		{"id" : 5, "text" : "황해도", "type" : "NNP", "scode" : "00", "weight" : 1, "position" : 99, "begin" : 5, "end" : 5},
		{"id" : 6, "text" : "출생", "type" : "NNG", "scode" : "00", "weight" : 1, "position" : 109, "begin" : 6, "end" : 6},
		{"id" : 7, "text" : "이", "type" : "VCP", "scode" : "00", "weight" : 1, "position" : 115, "begin" : 7, "end" : 7},
		{"id" : 8, "text" : "다", "type" : "EF", "scode" : "00", "weight" : 1, "position" : 118, "begin" : 8, "end" : 8},
		{"id" : 9, "text" : ".", "type" : "SF", "scode" : "00", "weight" : 1, "position" : 121, "begin" : 9, "end" : 9}
	],
	"word" : [
		{"id" : 0, "text" : "본명은", "type" : "", "begin" : 0, "end" : 1},
		{"id" : 1, "text" : "이정래이고", "type" : "", "begin" : 2, "end" : 4},
		{"id" : 2, "text" : "황해도", "type" : "", "begin" : 5, "end" : 5},
		{"id" : 3, "text" : "출생이다.", "type" : "", "begin" : 6, "end" : 9}
	],
	"NE" : [
		{"id" : 0, "text" : "이정래", "type" : "PS_NAME", "begin" : 2, "end" : 2, "weight" : 0.563614, "common_noun" : 0},
		{"id" : 1, "text" : "황해도", "type" : "LCP_PROVINCE", "begin" : 5, "end" : 5, "weight" : 0.602876, "common_noun" : 0}
	],
	"chunk" : [
	],
	"dependency" : [
		{"id" : 0, "text" : "본명은", "head" : 1, "label" : "NP_SBJ", "mod" : [], "weight" : 0.784906 },
		{"id" : 1, "text" : "이정래이고", "head" : 3, "label" : "VNP", "mod" : [0], "weight" : 0.652084 },
		{"id" : 2, "text" : "황해도", "head" : 3, "label" : "NP", "mod" : [], "weight" : 0.334625 },
		{"id" : 3, "text" : "출생이다.", "head" : -1, "label" : "VNP", "mod" : [1, 2], "weight" : 0.0989657 }
	],
	"SRL" : [
	],
	"relation" : [
	],
	"SA" : [
	],
	"ZA" : [
		{"id" : 0, "verb_wid" : 3, "ant_sid" : -1, "ant_wid" : -1, "type" : "s", "istitle" : 0, "weight" : 0.378211 }
	]
	},
	{
	"id" : 2,
	"reserve_str" : "",
	"text" : "1962년 만화 데뷔 후 '소년007시리즈'를 《소년동아일보》에 1965년 11월부터 1980년 9월까지 15년 넘게 4500여 회에 걸쳐 연재했다.",
	"morp" : [
		{"id" : 0, "lemma" : "1962", "type" : "SN", "position" : 122, "weight" : 1 },
		{"id" : 1, "lemma" : "년", "type" : "NNB", "position" : 126, "weight" : 0.414343 },
		{"id" : 2, "lemma" : "만화", "type" : "NNG", "position" : 130, "weight" : 0.106433 },
		{"id" : 3, "lemma" : "데뷔", "type" : "NNG", "position" : 137, "weight" : 0.9 },
		{"id" : 4, "lemma" : "후", "type" : "NNG", "position" : 144, "weight" : 0.18399 },
		{"id" : 5, "lemma" : "'", "type" : "SS", "position" : 148, "weight" : 1 },
		{"id" : 6, "lemma" : "소년", "type" : "NNG", "position" : 149, "weight" : 0.199453 },
		{"id" : 7, "lemma" : "007", "type" : "SN", "position" : 155, "weight" : 1 },
		{"id" : 8, "lemma" : "시리즈", "type" : "NNG", "position" : 158, "weight" : 0.9 },
		{"id" : 9, "lemma" : "'", "type" : "SS", "position" : 167, "weight" : 1 },
		{"id" : 10, "lemma" : "를", "type" : "JKO", "position" : 168, "weight" : 0.0357023 },
		{"id" : 11, "lemma" : "《", "type" : "SS", "position" : 172, "weight" : 1 },
		{"id" : 12, "lemma" : "소년", "type" : "NNG", "position" : 175, "weight" : 0.199453 },
		{"id" : 13, "lemma" : "동아", "type" : "NNG", "position" : 181, "weight" : 0.0119734 },
		{"id" : 14, "lemma" : "일보", "type" : "NNP", "position" : 187, "weight" : 0.0001 },
		{"id" : 15, "lemma" : "》", "type" : "SS", "position" : 193, "weight" : 1 },
		{"id" : 16, "lemma" : "에", "type" : "JKB", "position" : 196, "weight" : 0.048593 },
		{"id" : 17, "lemma" : "1965", "type" : "SN", "position" : 200, "weight" : 1 },
		{"id" : 18, "lemma" : "년", "type" : "NNB", "position" : 204, "weight" : 0.414343 },
		{"id" : 19, "lemma" : "11", "type" : "SN", "position" : 208, "weight" : 1 },
		{"id" : 20, "lemma" : "월", "type" : "NNB", "position" : 210, "weight" : 0.408539 },
		{"id" : 21, "lemma" : "부터", "type" : "JX", "position" : 213, "weight" : 0.105319 },
		{"id" : 22, "lemma" : "1980", "type" : "SN", "position" : 220, "weight" : 1 },
		{"id" : 23, "lemma" : "년", "type" : "NNB", "position" : 224, "weight" : 0.414343 },
		{"id" : 24, "lemma" : "9", "type" : "SN", "position" : 228, "weight" : 1 },
		{"id" : 25, "lemma" : "월", "type" : "NNB", "position" : 229, "weight" : 0.408539 },
		{"id" : 26, "lemma" : "까지", "type" : "JX", "position" : 232, "weight" : 0.105153 },
		{"id" : 27, "lemma" : "15", "type" : "SN", "position" : 239, "weight" : 1 },
		{"id" : 28, "lemma" : "년", "type" : "NNB", "position" : 241, "weight" : 0.414343 },
		{"id" : 29, "lemma" : "넘", "type" : "VV", "position" : 245, "weight" : 0.0336366 },
		{"id" : 30, "lemma" : "게", "type" : "EC", "position" : 248, "weight" : 0.427975 },
		{"id" : 31, "lemma" : "4500", "type" : "SN", "position" : 252, "weight" : 1 },
		{"id" : 32, "lemma" : "여", "type" : "XSN", "position" : 256, "weight" : 0.0134481 },
		{"id" : 33, "lemma" : "회", "type" : "NNB", "position" : 260, "weight" : 0.01895 },
		{"id" : 34, "lemma" : "에", "type" : "JKB", "position" : 263, "weight" : 0.135559 },
		{"id" : 35, "lemma" : "걸치", "type" : "VV", "position" : 267, "weight" : 0.9 },
		{"id" : 36, "lemma" : "어", "type" : "EC", "position" : 270, "weight" : 0.41831 },
		{"id" : 37, "lemma" : "연재", "type" : "NNG", "position" : 274, "weight" : 0.210984 },
		{"id" : 38, "lemma" : "하", "type" : "XSV", "position" : 280, "weight" : 0.0001 },
		{"id" : 39, "lemma" : "었", "type" : "EP", "position" : 280, "weight" : 0.9 },
		{"id" : 40, "lemma" : "다", "type" : "EF", "position" : 283, "weight" : 0.640954 },
		{"id" : 41, "lemma" : ".", "type" : "SF", "position" : 286, "weight" : 1 }
	],
	"morp_eval" : [
		{"id" : 0, "result" : "1962/SN+년/NNB", "target" : "1962년", "word_id" : 0, "m_begin" : 0, "m_end" : 1},
		{"id" : 1, "result" : "만화/NNG", "target" : "만화", "word_id" : 1, "m_begin" : 2, "m_end" : 2},
		{"id" : 2, "result" : "데뷔/NNG", "target" : "데뷔", "word_id" : 2, "m_begin" : 3, "m_end" : 3},
		{"id" : 3, "result" : "후/NNG", "target" : "후", "word_id" : 3, "m_begin" : 4, "m_end" : 4},
		{"id" : 4, "result" : "'/SS+소년/NNG+007/SN+시리즈/NNG+'/SS+를/JKO", "target" : "'소년007시리즈'를", "word_id" : 4, "m_begin" : 5, "m_end" : 10},
		{"id" : 5, "result" : "《/SS+소년동아일보/NNG+》/SS+에/JKB", "target" : "《소년동아일보》에", "word_id" : 5, "m_begin" : 11, "m_end" : 16},
		{"id" : 6, "result" : "1965/SN+년/NNB", "target" : "1965년", "word_id" : 6, "m_begin" : 17, "m_end" : 18},
		{"id" : 7, "result" : "11/SN+월/NNB+부터/JX", "target" : "11월부터", "word_id" : 7, "m_begin" : 19, "m_end" : 21},
		{"id" : 8, "result" : "1980/SN+년/NNB", "target" : "1980년", "word_id" : 8, "m_begin" : 22, "m_end" : 23},
		{"id" : 9, "result" : "9/SN+월/NNB+까지/JX", "target" : "9월까지", "word_id" : 9, "m_begin" : 24, "m_end" : 26},
		{"id" : 10, "result" : "15/SN+년/NNB", "target" : "15년", "word_id" : 10, "m_begin" : 27, "m_end" : 28},
		{"id" : 11, "result" : "넘/VV+게/EC", "target" : "넘게", "word_id" : 11, "m_begin" : 29, "m_end" : 30},
		{"id" : 12, "result" : "4500/SN+여/XSN", "target" : "4500여", "word_id" : 12, "m_begin" : 31, "m_end" : 32},
		{"id" : 13, "result" : "회/NNB+에/JKB", "target" : "회에", "word_id" : 13, "m_begin" : 33, "m_end" : 34},
		{"id" : 14, "result" : "걸치/VV+어/EC", "target" : "걸쳐", "word_id" : 14, "m_begin" : 35, "m_end" : 36},
		{"id" : 15, "result" : "연재하/VV+었/EP+다/EF+./SF", "target" : "연재했다.", "word_id" : 15, "m_begin" : 37, "m_end" : 41}
	],
	"WSD" : [
		{"id" : 0, "text" : "1962", "type" : "SN", "scode" : "00", "weight" : 1, "position" : 122, "begin" : 0, "end" : 0},
		{"id" : 1, "text" : "년", "type" : "NNB", "scode" : "02", "weight" : 1, "position" : 126, "begin" : 1, "end" : 1},
		{"id" : 2, "text" : "만화", "type" : "NNG", "scode" : "10", "weight" : 1, "position" : 130, "begin" : 2, "end" : 2},
		{"id" : 3, "text" : "데뷔", "type" : "NNG", "scode" : "00", "weight" : 1, "position" : 137, "begin" : 3, "end" : 3},
		{"id" : 4, "text" : "후", "type" : "NNG", "scode" : "08", "weight" : 1, "position" : 144, "begin" : 4, "end" : 4},
		{"id" : 5, "text" : "'", "type" : "SS", "scode" : "00", "weight" : 1, "position" : 148, "begin" : 5, "end" : 5},
		{"id" : 6, "text" : "소년", "type" : "NNG", "scode" : "01", "weight" : 1, "position" : 149, "begin" : 6, "end" : 6},
		{"id" : 7, "text" : "007", "type" : "SN", "scode" : "00", "weight" : 1, "position" : 155, "begin" : 7, "end" : 7},
		{"id" : 8, "text" : "시리즈", "type" : "NNG", "scode" : "00", "weight" : 1, "position" : 158, "begin" : 8, "end" : 8},
		{"id" : 9, "text" : "'", "type" : "SS", "scode" : "00", "weight" : 1, "position" : 167, "begin" : 9, "end" : 9},
		{"id" : 10, "text" : "를", "type" : "JKO", "scode" : "00", "weight" : 1, "position" : 168, "begin" : 10, "end" : 10},
		{"id" : 11, "text" : "《", "type" : "SS", "scode" : "00", "weight" : 1, "position" : 172, "begin" : 11, "end" : 11},
		{"id" : 12, "text" : "소년", "type" : "NNG", "scode" : "01", "weight" : 1, "position" : 175, "begin" : 12, "end" : 12},
		{"id" : 13, "text" : "동아", "type" : "NNG", "scode" : "03", "weight" : 1, "position" : 181, "begin" : 13, "end" : 13},
		{"id" : 14, "text" : "일보", "type" : "NNP", "scode" : "03", "weight" : 1, "position" : 187, "begin" : 14, "end" : 14},
		{"id" : 15, "text" : "》", "type" : "SS", "scode" : "00", "weight" : 1, "position" : 193, "begin" : 15, "end" : 15},
		{"id" : 16, "text" : "에", "type" : "JKB", "scode" : "00", "weight" : 1, "position" : 196, "begin" : 16, "end" : 16},
		{"id" : 17, "text" : "1965", "type" : "SN", "scode" : "00", "weight" : 1, "position" : 200, "begin" : 17, "end" : 17},
		{"id" : 18, "text" : "년", "type" : "NNB", "scode" : "02", "weight" : 1, "position" : 204, "begin" : 18, "end" : 18},
		{"id" : 19, "text" : "11", "type" : "SN", "scode" : "00", "weight" : 1, "position" : 208, "begin" : 19, "end" : 19},
		{"id" : 20, "text" : "월", "type" : "NNB", "scode" : "02", "weight" : 1, "position" : 210, "begin" : 20, "end" : 20},
		{"id" : 21, "text" : "부터", "type" : "JX", "scode" : "00", "weight" : 1, "position" : 213, "begin" : 21, "end" : 21},
		{"id" : 22, "text" : "1980", "type" : "SN", "scode" : "00", "weight" : 1, "position" : 220, "begin" : 22, "end" : 22},
		{"id" : 23, "text" : "년", "type" : "NNB", "scode" : "02", "weight" : 1, "position" : 224, "begin" : 23, "end" : 23},
		{"id" : 24, "text" : "9", "type" : "SN", "scode" : "00", "weight" : 1, "position" : 228, "begin" : 24, "end" : 24},
		{"id" : 25, "text" : "월", "type" : "NNB", "scode" : "02", "weight" : 1, "position" : 229, "begin" : 25, "end" : 25},
		{"id" : 26, "text" : "까지", "type" : "JX", "scode" : "00", "weight" : 1, "position" : 232, "begin" : 26, "end" : 26},
		{"id" : 27, "text" : "15", "type" : "SN", "scode" : "00", "weight" : 1, "position" : 239, "begin" : 27, "end" : 27},
		{"id" : 28, "text" : "년", "type" : "NNB", "scode" : "02", "weight" : 1, "position" : 241, "begin" : 28, "end" : 28},
		{"id" : 29, "text" : "넘", "type" : "VV", "scode" : "01", "weight" : 1, "position" : 245, "begin" : 29, "end" : 29},
		{"id" : 30, "text" : "게", "type" : "EC", "scode" : "00", "weight" : 1, "position" : 248, "begin" : 30, "end" : 30},
		{"id" : 31, "text" : "4500", "type" : "SN", "scode" : "00", "weight" : 1, "position" : 252, "begin" : 31, "end" : 31},
		{"id" : 32, "text" : "여", "type" : "XSN", "scode" : "27", "weight" : 1, "position" : 256, "begin" : 32, "end" : 32},
		{"id" : 33, "text" : "회", "type" : "NNB", "scode" : "08", "weight" : 1, "position" : 260, "begin" : 33, "end" : 33},
		{"id" : 34, "text" : "에", "type" : "JKB", "scode" : "00", "weight" : 1, "position" : 263, "begin" : 34, "end" : 34},
		{"id" : 35, "text" : "걸치", "type" : "VV", "scode" : "00", "weight" : 1, "position" : 267, "begin" : 35, "end" : 35},
		{"id" : 36, "text" : "어", "type" : "EC", "scode" : "00", "weight" : 1, "position" : 270, "begin" : 36, "end" : 36},
		{"id" : 37, "text" : "연재하", "type" : "VV", "scode" : "00", "weight" : 1, "position" : 274, "begin" : 37, "end" : 38},
		{"id" : 38, "text" : "었", "type" : "EP", "scode" : "00", "weight" : 1, "position" : 280, "begin" : 39, "end" : 39},
		{"id" : 39, "text" : "다", "type" : "EF", "scode" : "00", "weight" : 1, "position" : 283, "begin" : 40, "end" : 40},
		{"id" : 40, "text" : ".", "type" : "SF", "scode" : "00", "weight" : 1, "position" : 286, "begin" : 41, "end" : 41}
	],
	"word" : [
		{"id" : 0, "text" : "1962년", "type" : "", "begin" : 0, "end" : 1},
		{"id" : 1, "text" : "만화", "type" : "", "begin" : 2, "end" : 2},
		{"id" : 2, "text" : "데뷔", "type" : "", "begin" : 3, "end" : 3},
		{"id" : 3, "text" : "후", "type" : "", "begin" : 4, "end" : 4},
		{"id" : 4, "text" : "'소년007시리즈'를", "type" : "", "begin" : 5, "end" : 10},
		{"id" : 5, "text" : "《소년동아일보》에", "type" : "", "begin" : 11, "end" : 16},
		{"id" : 6, "text" : "1965년", "type" : "", "begin" : 17, "end" : 18},
		{"id" : 7, "text" : "11월부터", "type" : "", "begin" : 19, "end" : 21},
		{"id" : 8, "text" : "1980년", "type" : "", "begin" : 22, "end" : 23},
		{"id" : 9, "text" : "9월까지", "type" : "", "begin" : 24, "end" : 26},
		{"id" : 10, "text" : "15년", "type" : "", "begin" : 27, "end" : 28},
		{"id" : 11, "text" : "넘게", "type" : "", "begin" : 29, "end" : 30},
		{"id" : 12, "text" : "4500여", "type" : "", "begin" : 31, "end" : 32},
		{"id" : 13, "text" : "회에", "type" : "", "begin" : 33, "end" : 34},
		{"id" : 14, "text" : "걸쳐", "type" : "", "begin" : 35, "end" : 36},
		{"id" : 15, "text" : "연재했다.", "type" : "", "begin" : 37, "end" : 41}
	],
	"NE" : [
		{"id" : 0, "text" : "1962년", "type" : "DT_YEAR", "begin" : 0, "end" : 1, "weight" : 0.706921, "common_noun" : 0},
		{"id" : 1, "text" : "만화", "type" : "FD_ART", "begin" : 2, "end" : 2, "weight" : 0.235719, "common_noun" : 0},
		{"id" : 2, "text" : "소년007시리즈", "type" : "AF_WORKS", "begin" : 6, "end" : 8, "weight" : 0.121789, "common_noun" : 0},
		{"id" : 3, "text" : "소년동아일보", "type" : "AF_WORKS", "begin" : 12, "end" : 14, "weight" : 0.967451, "common_noun" : 0},
		{"id" : 4, "text" : "1965년 11월부터", "type" : "DT_OTHERS", "begin" : 17, "end" : 21, "weight" : 0.76961, "common_noun" : 0},
		{"id" : 5, "text" : "1980년 9월까지", "type" : "DT_OTHERS", "begin" : 22, "end" : 26, "weight" : 0.723348, "common_noun" : 0},
		{"id" : 6, "text" : "15년", "type" : "DT_DURATION", "begin" : 27, "end" : 28, "weight" : 0.604476, "common_noun" : 0},
		{"id" : 7, "text" : "4500여 회", "type" : "QT_COUNT", "begin" : 31, "end" : 33, "weight" : 0.626872, "common_noun" : 0}
	],
	"chunk" : [
	],
	"dependency" : [
		{"id" : 0, "text" : "1962년", "head" : 2, "label" : "NP", "mod" : [], "weight" : 0.547284 },
		{"id" : 1, "text" : "만화", "head" : 2, "label" : "NP", "mod" : [], "weight" : 0.733324 },
		{"id" : 2, "text" : "데뷔", "head" : 3, "label" : "NP", "mod" : [0, 1], "weight" : 0.96816 },
		{"id" : 3, "text" : "후", "head" : 11, "label" : "NP_AJT", "mod" : [2], "weight" : 0.700098 },
		{"id" : 4, "text" : "'소년007시리즈'를", "head" : 11, "label" : "NP_OBJ", "mod" : [], "weight" : 0.999884 },
		{"id" : 5, "text" : "《소년동아일보》에", "head" : 11, "label" : "NP_AJT", "mod" : [], "weight" : 0.727801 },
		{"id" : 6, "text" : "1965년", "head" : 7, "label" : "NP", "mod" : [], "weight" : 0.713415 },
		{"id" : 7, "text" : "11월부터", "head" : 9, "label" : "NP_AJT", "mod" : [6], "weight" : 0.622279 },
		{"id" : 8, "text" : "1980년", "head" : 9, "label" : "NP", "mod" : [], "weight" : 0.843716 },
		{"id" : 9, "text" : "9월까지", "head" : 11, "label" : "NP_AJT", "mod" : [7, 8], "weight" : 0.856131 },
		{"id" : 10, "text" : "15년", "head" : 11, "label" : "AP", "mod" : [], "weight" : 0.719341 },
		{"id" : 11, "text" : "넘게", "head" : 14, "label" : "VP", "mod" : [3, 4, 5, 9, 10], "weight" : 0.679941 },
		{"id" : 12, "text" : "4500여", "head" : 13, "label" : "NP", "mod" : [], "weight" : 0.970794 },
		{"id" : 13, "text" : "회에", "head" : 14, "label" : "NP_AJT", "mod" : [12], "weight" : 0.639483 },
		{"id" : 14, "text" : "걸쳐", "head" : 15, "label" : "VP", "mod" : [11, 13], "weight" : 0.549688 },
		{"id" : 15, "text" : "연재했다.", "head" : -1, "label" : "VP", "mod" : [14], "weight" : 0.00599108 }
	],
	"SRL" : [
		{"verb" : "넘", "sense" : 2, "word_id" : 11, "weight" : 0.136802,
			"argument" : [
				{"type" : "ARG1", "word_id" : 4, "text" : "'소년007시리즈'를", "weight" : 0.116925 },
				{"type" : "ARG2", "word_id" : 5, "text" : "《소년동아일보》에", "weight" : 0.117812 },
				{"type" : "ARGM-TMP", "word_id" : 9, "text" : "9월까지", "weight" : 0.114675 },
				{"type" : "ARGM-EXT", "word_id" : 10, "text" : "15년", "weight" : 0.197795 }
			] },
		{"verb" : "걸치", "sense" : 1, "word_id" : 14, "weight" : 0.22184,
			"argument" : [
				{"type" : "ARG2", "word_id" : 13, "text" : "회에", "weight" : 0.22184 }
			] },
		{"verb" : "연재", "sense" : 1, "word_id" : 15, "weight" : 0.0529903,
			"argument" : [
				{"type" : "ARGM-DIS", "word_id" : 14, "text" : "걸쳐", "weight" : 0.0529903 }
			] }
	],
	"relation" : [
	],
	"SA" : [
	],
	"ZA" : [
		{"id" : 0, "verb_wid" : 11, "ant_sid" : -1, "ant_wid" : -1, "type" : "s", "istitle" : 0, "weight" : 0.793919 },
		{"id" : 1, "verb_wid" : 15, "ant_sid" : -1, "ant_wid" : -1, "type" : "s", "istitle" : 0, "weight" : 0.602142 },
		{"id" : 2, "verb_wid" : 15, "ant_sid" : -1, "ant_wid" : -1, "type" : "o", "istitle" : 0, "weight" : 0.44369 }
	]
	},
	{
	"id" : 3,
	"reserve_str" : "",
	"text" : "소년007시리즈는 《소년007 지저세계》《소년007 로봇 작전》《소년 007 원자탄 작전》《소년007 4차원 작전》 등으로 20여 편을 발표했다.",
	"morp" : [
		{"id" : 0, "lemma" : "소년", "type" : "NNG", "position" : 287, "weight" : 0.436749 },
		{"id" : 1, "lemma" : "007", "type" : "SN", "position" : 293, "weight" : 1 },
		{"id" : 2, "lemma" : "시리즈", "type" : "NNG", "position" : 296, "weight" : 0.9 },
		{"id" : 3, "lemma" : "는", "type" : "JX", "position" : 305, "weight" : 0.0287565 },
		{"id" : 4, "lemma" : "《", "type" : "SS", "position" : 309, "weight" : 1 },
		{"id" : 5, "lemma" : "소년", "type" : "NNG", "position" : 312, "weight" : 0.199453 },
		{"id" : 6, "lemma" : "007", "type" : "SN", "position" : 318, "weight" : 1 },
		{"id" : 7, "lemma" : "지저", "type" : "NNG", "position" : 322, "weight" : 0.1 },
		{"id" : 8, "lemma" : "세계", "type" : "NNG", "position" : 328, "weight" : 0.9 },
		{"id" : 9, "lemma" : "》", "type" : "SS", "position" : 334, "weight" : 1 },
		{"id" : 10, "lemma" : "《", "type" : "SS", "position" : 337, "weight" : 1 },
		{"id" : 11, "lemma" : "소년", "type" : "NNG", "position" : 340, "weight" : 0.199453 },
		{"id" : 12, "lemma" : "007", "type" : "SN", "position" : 346, "weight" : 1 },
		{"id" : 13, "lemma" : "로봇", "type" : "NNG", "position" : 350, "weight" : 0.9 },
		{"id" : 14, "lemma" : "작전", "type" : "NNG", "position" : 357, "weight" : 0.184565 },
		{"id" : 15, "lemma" : "》", "type" : "SS", "position" : 363, "weight" : 1 },
		{"id" : 16, "lemma" : "《", "type" : "SS", "position" : 366, "weight" : 1 },
		{"id" : 17, "lemma" : "소년", "type" : "NNG", "position" : 369, "weight" : 0.199453 },
		{"id" : 18, "lemma" : "007", "type" : "SN", "position" : 376, "weight" : 1 },
		{"id" : 19, "lemma" : "원자", "type" : "NNG", "position" : 380, "weight" : 0.9 },
		{"id" : 20, "lemma" : "탄", "type" : "NNG", "position" : 386, "weight" : 0.168844 },
		{"id" : 21, "lemma" : "작전", "type" : "NNG", "position" : 390, "weight" : 0.184565 },
		{"id" : 22, "lemma" : "》", "type" : "SS", "position" : 396, "weight" : 1 },
		{"id" : 23, "lemma" : "《", "type" : "SS", "position" : 399, "weight" : 1 },
		{"id" : 24, "lemma" : "소년", "type" : "NNG", "position" : 402, "weight" : 0.199453 },
		{"id" : 25, "lemma" : "007", "type" : "SN", "position" : 408, "weight" : 1 },
		{"id" : 26, "lemma" : "4", "type" : "SN", "position" : 412, "weight" : 1 },
		{"id" : 27, "lemma" : "차원", "type" : "NNG", "position" : 413, "weight" : 0.100272 },
		{"id" : 28, "lemma" : "작전", "type" : "NNG", "position" : 420, "weight" : 0.184565 },
		{"id" : 29, "lemma" : "》", "type" : "SS", "position" : 426, "weight" : 1 },
		{"id" : 30, "lemma" : "등", "type" : "NNB", "position" : 430, "weight" : 0.0121753 },
		{"id" : 31, "lemma" : "으로", "type" : "JKB", "position" : 433, "weight" : 0.135596 },
		{"id" : 32, "lemma" : "20", "type" : "SN", "position" : 440, "weight" : 1 },
		{"id" : 33, "lemma" : "여", "type" : "XSN", "position" : 442, "weight" : 0.0134481 },
		{"id" : 34, "lemma" : "편", "type" : "NNB", "position" : 446, "weight" : 0.0243861 },
		{"id" : 35, "lemma" : "을", "type" : "JKO", "position" : 449, "weight" : 0.0630104 },
		{"id" : 36, "lemma" : "발표", "type" : "NNG", "position" : 453, "weight" : 0.9 },
		{"id" : 37, "lemma" : "하", "type" : "XSV", "position" : 459, "weight" : 0.0001 },
		{"id" : 38, "lemma" : "었", "type" : "EP", "position" : 459, "weight" : 0.9 },
		{"id" : 39, "lemma" : "다", "type" : "EF", "position" : 462, "weight" : 0.640954 },
		{"id" : 40, "lemma" : ".", "type" : "SF", "position" : 465, "weight" : 1 }
	],
	"morp_eval" : [
		{"id" : 0, "result" : "소년/NNG+007/SN+시리즈/NNG+는/JX", "target" : "소년007시리즈는", "word_id" : 0, "m_begin" : 0, "m_end" : 3},
		{"id" : 1, "result" : "《/SS+소년/NNG+007/SN", "target" : "《소년007", "word_id" : 1, "m_begin" : 4, "m_end" : 6},
		{"id" : 2, "result" : "지저세계/NNG+》/SS+《/SS+소년/NNG+007/SN", "target" : "지저세계》《소년007", "word_id" : 2, "m_begin" : 7, "m_end" : 12},
		{"id" : 3, "result" : "로봇/NNG", "target" : "로봇", "word_id" : 3, "m_begin" : 13, "m_end" : 13},
		{"id" : 4, "result" : "작전/NNG+》/SS+《/SS+소년/NNG", "target" : "작전》《소년", "word_id" : 4, "m_begin" : 14, "m_end" : 17},
		{"id" : 5, "result" : "007/SN", "target" : "007", "word_id" : 5, "m_begin" : 18, "m_end" : 18},
		{"id" : 6, "result" : "원자탄/NNG", "target" : "원자탄", "word_id" : 6, "m_begin" : 19, "m_end" : 20},
		{"id" : 7, "result" : "작전/NNG+》/SS+《/SS+소년/NNG+007/SN", "target" : "작전》《소년007", "word_id" : 7, "m_begin" : 21, "m_end" : 25},
		{"id" : 8, "result" : "4/SN+차원/NNG", "target" : "4차원", "word_id" : 8, "m_begin" : 26, "m_end" : 27},
		{"id" : 9, "result" : "작전/NNG+》/SS", "target" : "작전》", "word_id" : 9, "m_begin" : 28, "m_end" : 29},
		{"id" : 10, "result" : "등/NNB+으로/JKB", "target" : "등으로", "word_id" : 10, "m_begin" : 30, "m_end" : 31},
		{"id" : 11, "result" : "20/SN+여/XSN", "target" : "20여", "word_id" : 11, "m_begin" : 32, "m_end" : 33},
		{"id" : 12, "result" : "편/NNB+을/JKO", "target" : "편을", "word_id" : 12, "m_begin" : 34, "m_end" : 35},
		{"id" : 13, "result" : "발표하/VV+었/EP+다/EF+./SF", "target" : "발표했다.", "word_id" : 13, "m_begin" : 36, "m_end" : 40}
	],
	"WSD" : [
		{"id" : 0, "text" : "소년", "type" : "NNG", "scode" : "01", "weight" : 1, "position" : 287, "begin" : 0, "end" : 0},
		{"id" : 1, "text" : "007", "type" : "SN", "scode" : "00", "weight" : 1, "position" : 293, "begin" : 1, "end" : 1},
		{"id" : 2, "text" : "시리즈", "type" : "NNG", "scode" : "00", "weight" : 1, "position" : 296, "begin" : 2, "end" : 2},
		{"id" : 3, "text" : "는", "type" : "JX", "scode" : "00", "weight" : 1, "position" : 305, "begin" : 3, "end" : 3},
		{"id" : 4, "text" : "《", "type" : "SS", "scode" : "00", "weight" : 1, "position" : 309, "begin" : 4, "end" : 4},
		{"id" : 5, "text" : "소년", "type" : "NNG", "scode" : "01", "weight" : 1, "position" : 312, "begin" : 5, "end" : 5},
		{"id" : 6, "text" : "007", "type" : "SN", "scode" : "00", "weight" : 1, "position" : 318, "begin" : 6, "end" : 6},
		{"id" : 7, "text" : "지저", "type" : "NNG", "scode" : "01", "weight" : 1, "position" : 322, "begin" : 7, "end" : 7},
		{"id" : 8, "text" : "세계", "type" : "NNG", "scode" : "02", "weight" : 1, "position" : 328, "begin" : 8, "end" : 8},
		{"id" : 9, "text" : "》", "type" : "SS", "scode" : "00", "weight" : 1, "position" : 334, "begin" : 9, "end" : 9},
		{"id" : 10, "text" : "《", "type" : "SS", "scode" : "00", "weight" : 1, "position" : 337, "begin" : 10, "end" : 10},
		{"id" : 11, "text" : "소년", "type" : "NNG", "scode" : "01", "weight" : 1, "position" : 340, "begin" : 11, "end" : 11},
		{"id" : 12, "text" : "007", "type" : "SN", "scode" : "00", "weight" : 1, "position" : 346, "begin" : 12, "end" : 12},
		{"id" : 13, "text" : "로봇", "type" : "NNG", "scode" : "00", "weight" : 1, "position" : 350, "begin" : 13, "end" : 13},
		{"id" : 14, "text" : "작전", "type" : "NNG", "scode" : "01", "weight" : 1, "position" : 357, "begin" : 14, "end" : 14},
		{"id" : 15, "text" : "》", "type" : "SS", "scode" : "00", "weight" : 1, "position" : 363, "begin" : 15, "end" : 15},
		{"id" : 16, "text" : "《", "type" : "SS", "scode" : "00", "weight" : 1, "position" : 366, "begin" : 16, "end" : 16},
		{"id" : 17, "text" : "소년", "type" : "NNG", "scode" : "01", "weight" : 1, "position" : 369, "begin" : 17, "end" : 17},
		{"id" : 18, "text" : "007", "type" : "SN", "scode" : "00", "weight" : 1, "position" : 376, "begin" : 18, "end" : 18},
		{"id" : 19, "text" : "원자탄", "type" : "NNG", "scode" : "00", "weight" : 1, "position" : 380, "begin" : 19, "end" : 20},
		{"id" : 20, "text" : "작전", "type" : "NNG", "scode" : "01", "weight" : 1, "position" : 390, "begin" : 21, "end" : 21},
		{"id" : 21, "text" : "》", "type" : "SS", "scode" : "00", "weight" : 1, "position" : 396, "begin" : 22, "end" : 22},
		{"id" : 22, "text" : "《", "type" : "SS", "scode" : "00", "weight" : 1, "position" : 399, "begin" : 23, "end" : 23},
		{"id" : 23, "text" : "소년", "type" : "NNG", "scode" : "01", "weight" : 1, "position" : 402, "begin" : 24, "end" : 24},
		{"id" : 24, "text" : "007", "type" : "SN", "scode" : "00", "weight" : 1, "position" : 408, "begin" : 25, "end" : 25},
		{"id" : 25, "text" : "4", "type" : "SN", "scode" : "00", "weight" : 1, "position" : 412, "begin" : 26, "end" : 26},
		{"id" : 26, "text" : "차원", "type" : "NNG", "scode" : "01", "weight" : 1, "position" : 413, "begin" : 27, "end" : 27},
		{"id" : 27, "text" : "작전", "type" : "NNG", "scode" : "01", "weight" : 1, "position" : 420, "begin" : 28, "end" : 28},
		{"id" : 28, "text" : "》", "type" : "SS", "scode" : "00", "weight" : 1, "position" : 426, "begin" : 29, "end" : 29},
		{"id" : 29, "text" : "등", "type" : "NNB", "scode" : "05", "weight" : 1, "position" : 430, "begin" : 30, "end" : 30},
		{"id" : 30, "text" : "으로", "type" : "JKB", "scode" : "00", "weight" : 1, "position" : 433, "begin" : 31, "end" : 31},
		{"id" : 31, "text" : "20", "type" : "SN", "scode" : "00", "weight" : 1, "position" : 440, "begin" : 32, "end" : 32},
		{"id" : 32, "text" : "여", "type" : "XSN", "scode" : "27", "weight" : 1, "position" : 442, "begin" : 33, "end" : 33},
		{"id" : 33, "text" : "편", "type" : "NNB", "scode" : "09", "weight" : 1, "position" : 446, "begin" : 34, "end" : 34},
		{"id" : 34, "text" : "을", "type" : "JKO", "scode" : "00", "weight" : 1, "position" : 449, "begin" : 35, "end" : 35},
		{"id" : 35, "text" : "발표하", "type" : "VV", "scode" : "00", "weight" : 1, "position" : 453, "begin" : 36, "end" : 37},
		{"id" : 36, "text" : "었", "type" : "EP", "scode" : "00", "weight" : 1, "position" : 459, "begin" : 38, "end" : 38},
		{"id" : 37, "text" : "다", "type" : "EF", "scode" : "00", "weight" : 1, "position" : 462, "begin" : 39, "end" : 39},
		{"id" : 38, "text" : ".", "type" : "SF", "scode" : "00", "weight" : 1, "position" : 465, "begin" : 40, "end" : 40}
	],
	"word" : [
		{"id" : 0, "text" : "소년007시리즈는", "type" : "", "begin" : 0, "end" : 3},
		{"id" : 1, "text" : "《소년007", "type" : "", "begin" : 4, "end" : 6},
		{"id" : 2, "text" : "지저세계》《소년007", "type" : "", "begin" : 7, "end" : 12},
		{"id" : 3, "text" : "로봇", "type" : "", "begin" : 13, "end" : 13},
		{"id" : 4, "text" : "작전》《소년", "type" : "", "begin" : 14, "end" : 17},
		{"id" : 5, "text" : "007", "type" : "", "begin" : 18, "end" : 18},
		{"id" : 6, "text" : "원자탄", "type" : "", "begin" : 19, "end" : 20},
		{"id" : 7, "text" : "작전》《소년007", "type" : "", "begin" : 21, "end" : 25},
		{"id" : 8, "text" : "4차원", "type" : "", "begin" : 26, "end" : 27},
		{"id" : 9, "text" : "작전》", "type" : "", "begin" : 28, "end" : 29},
		{"id" : 10, "text" : "등으로", "type" : "", "begin" : 30, "end" : 31},
		{"id" : 11, "text" : "20여", "type" : "", "begin" : 32, "end" : 33},
		{"id" : 12, "text" : "편을", "type" : "", "begin" : 34, "end" : 35},
		{"id" : 13, "text" : "발표했다.", "type" : "", "begin" : 36, "end" : 40}
	],
	"NE" : [
		{"id" : 0, "text" : "007시리즈", "type" : "AFW_VIDEO", "begin" : 1, "end" : 2, "weight" : 0.116568, "common_noun" : 0},
		{"id" : 1, "text" : "소년007 지저세계", "type" : "AF_WORKS", "begin" : 5, "end" : 8, "weight" : 0.787918, "common_noun" : 0},
		{"id" : 2, "text" : "소년007 로봇 작전", "type" : "AF_WORKS", "begin" : 11, "end" : 14, "weight" : 0.812041, "common_noun" : 0},
		{"id" : 3, "text" : "소년 007 원자탄 작전", "type" : "AF_WORKS", "begin" : 17, "end" : 21, "weight" : 0.505595, "common_noun" : 0},
		{"id" : 4, "text" : "소년007 4차원 작전", "type" : "AF_WORKS", "begin" : 24, "end" : 28, "weight" : 0.47818, "common_noun" : 0},
		{"id" : 5, "text" : "20여 편", "type" : "QT_COUNT", "begin" : 32, "end" : 34, "weight" : 0.521686, "common_noun" : 0}
	],
	"chunk" : [
	],
	"dependency" : [
		{"id" : 0, "text" : "소년007시리즈는", "head" : 13, "label" : "NP_SBJ", "mod" : [], "weight" : 0.71987 },
		{"id" : 1, "text" : "《소년007", "head" : 2, "label" : "NP", "mod" : [], "weight" : 0.442154 },
		{"id" : 2, "text" : "지저세계》《소년007", "head" : 4, "label" : "NP", "mod" : [1], "weight" : 0.571423 },
		{"id" : 3, "text" : "로봇", "head" : 4, "label" : "NP", "mod" : [], "weight" : 0.555834 },
		{"id" : 4, "text" : "작전》《소년", "head" : 5, "label" : "NP", "mod" : [2, 3], "weight" : 0.520433 },
		{"id" : 5, "text" : "007", "head" : 6, "label" : "NP", "mod" : [4], "weight" : 0.590848 },
		{"id" : 6, "text" : "원자탄", "head" : 7, "label" : "NP", "mod" : [5], "weight" : 0.49134 },
		{"id" : 7, "text" : "작전》《소년007", "head" : 9, "label" : "NP", "mod" : [6], "weight" : 0.782244 },
		{"id" : 8, "text" : "4차원", "head" : 9, "label" : "NP", "mod" : [], "weight" : 0.68844 },
		{"id" : 9, "text" : "작전》", "head" : 10, "label" : "NP", "mod" : [7, 8], "weight" : 0.808726 },
		{"id" : 10, "text" : "등으로", "head" : 13, "label" : "NP_AJT", "mod" : [9], "weight" : 0.5914 },
		{"id" : 11, "text" : "20여", "head" : 12, "label" : "NP", "mod" : [], "weight" : 0.869668 },
		{"id" : 12, "text" : "편을", "head" : 13, "label" : "NP_OBJ", "mod" : [11], "weight" : 0.530427 },
		{"id" : 13, "text" : "발표했다.", "head" : -1, "label" : "VP", "mod" : [0, 10, 12], "weight" : 0.00104906 }
	],
	"SRL" : [
		{"verb" : "발표", "sense" : 1, "word_id" : 13, "weight" : 0.129655,
			"argument" : [
				{"type" : "ARG0", "word_id" : 0, "text" : "소년007시리즈는", "weight" : 0.187821 },
				{"type" : "ARGM-PRD", "word_id" : 10, "text" : "등으로", "weight" : 0.0555722 },
				{"type" : "ARG1", "word_id" : 12, "text" : "편을", "weight" : 0.145571 }
			] }
	],
	"relation" : [
	],
	"SA" : [
	],
	"ZA" : [
	]
	},
	{
	"id" : 4,
	"reserve_str" : "",
	"text" : "이 시기에 동물만화 《검둥이 강가딘》을 발표했다.",
	"morp" : [
		{"id" : 0, "lemma" : "이", "type" : "MM", "position" : 466, "weight" : 0.0020222 },
		{"id" : 1, "lemma" : "시기", "type" : "NNG", "position" : 470, "weight" : 0.737 },
		{"id" : 2, "lemma" : "에", "type" : "JKB", "position" : 476, "weight" : 0.153364 },
		{"id" : 3, "lemma" : "동물", "type" : "NNG", "position" : 480, "weight" : 0.9 },
		{"id" : 4, "lemma" : "만화", "type" : "NNG", "position" : 486, "weight" : 0.177848 },
		{"id" : 5, "lemma" : "《", "type" : "SS", "position" : 493, "weight" : 1 },
		{"id" : 6, "lemma" : "검둥", "type" : "NNG", "position" : 496, "weight" : 0.1 },
		{"id" : 7, "lemma" : "이", "type" : "JKS", "position" : 502, "weight" : 0.0360723 },
		{"id" : 8, "lemma" : "강가딘", "type" : "NNP", "position" : 506, "weight" : 0.6 },
		{"id" : 9, "lemma" : "》", "type" : "SS", "position" : 515, "weight" : 1 },
		{"id" : 10, "lemma" : "을", "type" : "JKO", "position" : 518, "weight" : 0.0336085 },
		{"id" : 11, "lemma" : "발표", "type" : "NNG", "position" : 522, "weight" : 0.9 },
		{"id" : 12, "lemma" : "하", "type" : "XSV", "position" : 528, "weight" : 0.0001 },
		{"id" : 13, "lemma" : "었", "type" : "EP", "position" : 528, "weight" : 0.9 },
		{"id" : 14, "lemma" : "다", "type" : "EF", "position" : 531, "weight" : 0.640954 },
		{"id" : 15, "lemma" : ".", "type" : "SF", "position" : 534, "weight" : 1 }
	],
	"morp_eval" : [
		{"id" : 0, "result" : "이/MM", "target" : "이", "word_id" : 0, "m_begin" : 0, "m_end" : 0},
		{"id" : 1, "result" : "시기/NNG+에/JKB", "target" : "시기에", "word_id" : 1, "m_begin" : 1, "m_end" : 2},
		{"id" : 2, "result" : "동물만화/NNG", "target" : "동물만화", "word_id" : 2, "m_begin" : 3, "m_end" : 4},
		{"id" : 3, "result" : "《/SS+검둥/NNG+이/JKS", "target" : "《검둥이", "word_id" : 3, "m_begin" : 5, "m_end" : 7},
		{"id" : 4, "result" : "강가딘/NNG+》/SS+을/JKO", "target" : "강가딘》을", "word_id" : 4, "m_begin" : 8, "m_end" : 10},
		{"id" : 5, "result" : "발표하/VV+었/EP+다/EF+./SF", "target" : "발표했다.", "word_id" : 5, "m_begin" : 11, "m_end" : 15}
	],
	"WSD" : [
		{"id" : 0, "text" : "이", "type" : "MM", "scode" : "05", "weight" : 1, "position" : 466, "begin" : 0, "end" : 0},
		{"id" : 1, "text" : "시기", "type" : "NNG", "scode" : "04", "weight" : 1, "position" : 470, "begin" : 1, "end" : 1},
		{"id" : 2, "text" : "에", "type" : "JKB", "scode" : "00", "weight" : 1, "position" : 476, "begin" : 2, "end" : 2},
		{"id" : 3, "text" : "동물", "type" : "NNG", "scode" : "00", "weight" : 1, "position" : 480, "begin" : 3, "end" : 3},
		{"id" : 4, "text" : "만화", "type" : "NNG", "scode" : "10", "weight" : 1, "position" : 486, "begin" : 4, "end" : 4},
		{"id" : 5, "text" : "《", "type" : "SS", "scode" : "00", "weight" : 1, "position" : 493, "begin" : 5, "end" : 5},
		{"id" : 6, "text" : "검둥", "type" : "NNG", "scode" : "00", "weight" : 1, "position" : 496, "begin" : 6, "end" : 6},
		{"id" : 7, "text" : "이", "type" : "JKS", "scode" : "00", "weight" : 1, "position" : 502, "begin" : 7, "end" : 7},
		{"id" : 8, "text" : "강가딘", "type" : "NNP", "scode" : "00", "weight" : 0, "position" : 506, "begin" : 8, "end" : 8},
		{"id" : 9, "text" : "》", "type" : "SS", "scode" : "00", "weight" : 1, "position" : 515, "begin" : 9, "end" : 9},
		{"id" : 10, "text" : "을", "type" : "JKO", "scode" : "00", "weight" : 1, "position" : 518, "begin" : 10, "end" : 10},
		{"id" : 11, "text" : "발표하", "type" : "VV", "scode" : "00", "weight" : 1, "position" : 522, "begin" : 11, "end" : 12},
		{"id" : 12, "text" : "었", "type" : "EP", "scode" : "00", "weight" : 1, "position" : 528, "begin" : 13, "end" : 13},
		{"id" : 13, "text" : "다", "type" : "EF", "scode" : "00", "weight" : 1, "position" : 531, "begin" : 14, "end" : 14},
		{"id" : 14, "text" : ".", "type" : "SF", "scode" : "00", "weight" : 1, "position" : 534, "begin" : 15, "end" : 15}
	],
	"word" : [
		{"id" : 0, "text" : "이", "type" : "", "begin" : 0, "end" : 0},
		{"id" : 1, "text" : "시기에", "type" : "", "begin" : 1, "end" : 2},
		{"id" : 2, "text" : "동물만화", "type" : "", "begin" : 3, "end" : 4},
		{"id" : 3, "text" : "《검둥이", "type" : "", "begin" : 5, "end" : 7},
		{"id" : 4, "text" : "강가딘》을", "type" : "", "begin" : 8, "end" : 10},
		{"id" : 5, "text" : "발표했다.", "type" : "", "begin" : 11, "end" : 15}
	],
	"NE" : [
		{"id" : 0, "text" : "만화", "type" : "FD_ART", "begin" : 4, "end" : 4, "weight" : 0.208442, "common_noun" : 0},
		{"id" : 1, "text" : "검둥이 강가딘", "type" : "AF_WORKS", "begin" : 6, "end" : 8, "weight" : 0.8522, "common_noun" : 0}
	],
	"chunk" : [
	],
	"dependency" : [
		{"id" : 0, "text" : "이", "head" : 1, "label" : "DP", "mod" : [], "weight" : 0.963194 },
		{"id" : 1, "text" : "시기에", "head" : 5, "label" : "NP_AJT", "mod" : [0], "weight" : 0.767441 },
		{"id" : 2, "text" : "동물만화", "head" : 4, "label" : "NP", "mod" : [], "weight" : 0.553452 },
		{"id" : 3, "text" : "《검둥이", "head" : 4, "label" : "NP_SBJ", "mod" : [], "weight" : 0.340987 },
		{"id" : 4, "text" : "강가딘》을", "head" : 5, "label" : "NP_OBJ", "mod" : [2, 3], "weight" : 0.469723 },
		{"id" : 5, "text" : "발표했다.", "head" : -1, "label" : "VP", "mod" : [1, 4], "weight" : 0.034943 }
	],
	"SRL" : [
		{"verb" : "발표", "sense" : 1, "word_id" : 5, "weight" : 0.202754,
			"argument" : [
				{"type" : "ARGM-TMP", "word_id" : 1, "text" : "시기에", "weight" : 0.182498 },
				{"type" : "ARG1", "word_id" : 4, "text" : "강가딘》을", "weight" : 0.22301 }
			] }
	],
	"relation" : [
	],
	"SA" : [
	],
	"ZA" : [
		{"id" : 0, "verb_wid" : 5, "ant_sid" : -1, "ant_wid" : -1, "type" : "s", "istitle" : 0, "weight" : 0.49104 }
	]
	},
	{
	"id" : 5,
	"reserve_str" : "",
	"text" : "어린이 만화로 《칠삭동이》《사랑방이야기》《바다의 왕자》등이 있고 1980년 말부터는 성인만화를 그리기 시작 《대물》《이창》등을 그렸다.",
	"morp" : [
		{"id" : 0, "lemma" : "어린", "type" : "NNG", "position" : 535, "weight" : 0.05 },
		{"id" : 1, "lemma" : "이", "type" : "NNG", "position" : 541, "weight" : 0.000193221 },
		{"id" : 2, "lemma" : "만화", "type" : "NNG", "position" : 545, "weight" : 0.177848 },
		{"id" : 3, "lemma" : "로", "type" : "JKB", "position" : 551, "weight" : 0.153229 },
		{"id" : 4, "lemma" : "《", "type" : "SS", "position" : 555, "weight" : 1 },
		{"id" : 5, "lemma" : "칠삭동이", "type" : "NNG", "position" : 558, "weight" : 0.05 },
		{"id" : 6, "lemma" : "》", "type" : "SS", "position" : 570, "weight" : 1 },
		{"id" : 7, "lemma" : "《", "type" : "SS", "position" : 573, "weight" : 1 },
		{"id" : 8, "lemma" : "사랑", "type" : "NNG", "position" : 576, "weight" : 0.199786 },
		{"id" : 9, "lemma" : "방이야기", "type" : "NNP", "position" : 582, "weight" : 0.6 },
		{"id" : 10, "lemma" : "》", "type" : "SS", "position" : 594, "weight" : 1 },
		{"id" : 11, "lemma" : "《", "type" : "SS", "position" : 597, "weight" : 1 },
		{"id" : 12, "lemma" : "바다", "type" : "NNG", "position" : 600, "weight" : 0.192845 },
		{"id" : 13, "lemma" : "의", "type" : "JKG", "position" : 606, "weight" : 0.0694213 },
		{"id" : 14, "lemma" : "왕자", "type" : "NNG", "position" : 610, "weight" : 0.9 },
		{"id" : 15, "lemma" : "》", "type" : "SS", "position" : 616, "weight" : 1 },
		{"id" : 16, "lemma" : "등", "type" : "NNB", "position" : 619, "weight" : 0.0121753 },
		{"id" : 17, "lemma" : "이", "type" : "JKS", "position" : 622, "weight" : 0.0376169 },
		{"id" : 18, "lemma" : "있", "type" : "VA", "position" : 626, "weight" : 0.12767 },
		{"id" : 19, "lemma" : "고", "type" : "EC", "position" : 629, "weight" : 0.310376 },
		{"id" : 20, "lemma" : "1980", "type" : "SN", "position" : 633, "weight" : 1 },
		{"id" : 21, "lemma" : "년", "type" : "NNB", "position" : 637, "weight" : 0.414343 },
		{"id" : 22, "lemma" : "말", "type" : "NNB", "position" : 641, "weight" : 0.000309097 },
		{"id" : 23, "lemma" : "부터", "type" : "JX", "position" : 644, "weight" : 0.105319 },
		{"id" : 24, "lemma" : "는", "type" : "JX", "position" : 650, "weight" : 0.00494613 },
		{"id" : 25, "lemma" : "성인", "type" : "NNG", "position" : 654, "weight" : 0.9 },
		{"id" : 26, "lemma" : "만화", "type" : "NNG", "position" : 660, "weight" : 0.177848 },
		{"id" : 27, "lemma" : "를", "type" : "JKO", "position" : 666, "weight" : 0.137686 },
		{"id" : 28, "lemma" : "그리", "type" : "VV", "position" : 670, "weight" : 0.604417 },
		{"id" : 29, "lemma" : "기", "type" : "ETN", "position" : 676, "weight" : 0.0380514 },
		{"id" : 30, "lemma" : "시작", "type" : "NNG", "position" : 680, "weight" : 0.9 },
		{"id" : 31, "lemma" : "《", "type" : "SS", "position" : 687, "weight" : 1 },
		{"id" : 32, "lemma" : "대물", "type" : "NNG", "position" : 690, "weight" : 0.95 },
		{"id" : 33, "lemma" : "》", "type" : "SS", "position" : 696, "weight" : 1 },
		{"id" : 34, "lemma" : "《", "type" : "SS", "position" : 699, "weight" : 1 },
		{"id" : 35, "lemma" : "이창", "type" : "NNP", "position" : 702, "weight" : 0.0539657 },
		{"id" : 36, "lemma" : "》", "type" : "SS", "position" : 708, "weight" : 1 },
		{"id" : 37, "lemma" : "등", "type" : "NNB", "position" : 711, "weight" : 0.0121753 },
		{"id" : 38, "lemma" : "을", "type" : "JKO", "position" : 714, "weight" : 0.0630104 },
		{"id" : 39, "lemma" : "그리", "type" : "VV", "position" : 718, "weight" : 0.604417 },
		{"id" : 40, "lemma" : "었", "type" : "EP", "position" : 721, "weight" : 0.9 },
		{"id" : 41, "lemma" : "다", "type" : "EF", "position" : 724, "weight" : 0.640954 },
		{"id" : 42, "lemma" : ".", "type" : "SF", "position" : 727, "weight" : 1 }
	],
	"morp_eval" : [
		{"id" : 0, "result" : "어린이/NNG", "target" : "어린이", "word_id" : 0, "m_begin" : 0, "m_end" : 1},
		{"id" : 1, "result" : "만화/NNG+로/JKB", "target" : "만화로", "word_id" : 1, "m_begin" : 2, "m_end" : 3},
		{"id" : 2, "result" : "《/SS+칠삭동이/NNG+》/SS+《/SS+사랑방이야기/NNG+》/SS+《/SS+바다/NNG+의/JKG", "target" : "《칠삭동이》《사랑방이야기》《바다의", "word_id" : 2, "m_begin" : 4, "m_end" : 13},
		{"id" : 3, "result" : "왕자/NNG+》/SS+등/NNB+이/JKS", "target" : "왕자》등이", "word_id" : 3, "m_begin" : 14, "m_end" : 17},
		{"id" : 4, "result" : "있/VA+고/EC", "target" : "있고", "word_id" : 4, "m_begin" : 18, "m_end" : 19},
		{"id" : 5, "result" : "1980/SN+년/NNB", "target" : "1980년", "word_id" : 5, "m_begin" : 20, "m_end" : 21},
		{"id" : 6, "result" : "말/NNB+부터/JX+는/JX", "target" : "말부터는", "word_id" : 6, "m_begin" : 22, "m_end" : 24},
		{"id" : 7, "result" : "성인만화/NNG+를/JKO", "target" : "성인만화를", "word_id" : 7, "m_begin" : 25, "m_end" : 27},
		{"id" : 8, "result" : "그리/VV+기/ETN", "target" : "그리기", "word_id" : 8, "m_begin" : 28, "m_end" : 29},
		{"id" : 9, "result" : "시작/NNG", "target" : "시작", "word_id" : 9, "m_begin" : 30, "m_end" : 30},
		{"id" : 10, "result" : "《/SS+대물/NNG+》/SS+《/SS+이창/NNG+》/SS+등/NNB+을/JKO", "target" : "《대물》《이창》등을", "word_id" : 10, "m_begin" : 31, "m_end" : 38},
		{"id" : 11, "result" : "그리/VV+었/EP+다/EF+./SF", "target" : "그렸다.", "word_id" : 11, "m_begin" : 39, "m_end" : 42}
	],
	"WSD" : [
		{"id" : 0, "text" : "어린이", "type" : "NNG", "scode" : "01", "weight" : 1, "position" : 535, "begin" : 0, "end" : 1},
		{"id" : 1, "text" : "만화", "type" : "NNG", "scode" : "10", "weight" : 1, "position" : 545, "begin" : 2, "end" : 2},
		{"id" : 2, "text" : "로", "type" : "JKB", "scode" : "00", "weight" : 1, "position" : 551, "begin" : 3, "end" : 3},
		{"id" : 3, "text" : "《", "type" : "SS", "scode" : "00", "weight" : 1, "position" : 555, "begin" : 4, "end" : 4},
		{"id" : 4, "text" : "칠삭동이", "type" : "NNG", "scode" : "00", "weight" : 1, "position" : 558, "begin" : 5, "end" : 5},
		{"id" : 5, "text" : "》", "type" : "SS", "scode" : "00", "weight" : 1, "position" : 570, "begin" : 6, "end" : 6},
		{"id" : 6, "text" : "《", "type" : "SS", "scode" : "00", "weight" : 1, "position" : 573, "begin" : 7, "end" : 7},
		{"id" : 7, "text" : "사랑", "type" : "NNG", "scode" : "01", "weight" : 1, "position" : 576, "begin" : 8, "end" : 8},
		{"id" : 8, "text" : "방이야기", "type" : "NNP", "scode" : "00", "weight" : 0, "position" : 582, "begin" : 9, "end" : 9},
		{"id" : 9, "text" : "》", "type" : "SS", "scode" : "00", "weight" : 1, "position" : 594, "begin" : 10, "end" : 10},
		{"id" : 10, "text" : "《", "type" : "SS", "scode" : "00", "weight" : 1, "position" : 597, "begin" : 11, "end" : 11},
		{"id" : 11, "text" : "바다", "type" : "NNG", "scode" : "00", "weight" : 1, "position" : 600, "begin" : 12, "end" : 12},
		{"id" : 12, "text" : "의", "type" : "JKG", "scode" : "00", "weight" : 1, "position" : 606, "begin" : 13, "end" : 13},
		{"id" : 13, "text" : "왕자", "type" : "NNG", "scode" : "01", "weight" : 1, "position" : 610, "begin" : 14, "end" : 14},
		{"id" : 14, "text" : "》", "type" : "SS", "scode" : "00", "weight" : 1, "position" : 616, "begin" : 15, "end" : 15},
		{"id" : 15, "text" : "등", "type" : "NNB", "scode" : "05", "weight" : 1, "position" : 619, "begin" : 16, "end" : 16},
		{"id" : 16, "text" : "이", "type" : "JKS", "scode" : "00", "weight" : 1, "position" : 622, "begin" : 17, "end" : 17},
		{"id" : 17, "text" : "있", "type" : "VA", "scode" : "01", "weight" : 1, "position" : 626, "begin" : 18, "end" : 18},
		{"id" : 18, "text" : "고", "type" : "EC", "scode" : "00", "weight" : 1, "position" : 629, "begin" : 19, "end" : 19},
		{"id" : 19, "text" : "1980", "type" : "SN", "scode" : "00", "weight" : 1, "position" : 633, "begin" : 20, "end" : 20},
		{"id" : 20, "text" : "년", "type" : "NNB", "scode" : "02", "weight" : 1, "position" : 637, "begin" : 21, "end" : 21},
		{"id" : 21, "text" : "말", "type" : "NNB", "scode" : "11", "weight" : 1, "position" : 641, "begin" : 22, "end" : 22},
		{"id" : 22, "text" : "부터", "type" : "JX", "scode" : "00", "weight" : 1, "position" : 644, "begin" : 23, "end" : 23},
		{"id" : 23, "text" : "는", "type" : "JX", "scode" : "00", "weight" : 1, "position" : 650, "begin" : 24, "end" : 24},
		{"id" : 24, "text" : "성인", "type" : "NNG", "scode" : "01", "weight" : 1, "position" : 654, "begin" : 25, "end" : 25},
		{"id" : 25, "text" : "만화", "type" : "NNG", "scode" : "10", "weight" : 1, "position" : 660, "begin" : 26, "end" : 26},
		{"id" : 26, "text" : "를", "type" : "JKO", "scode" : "00", "weight" : 1, "position" : 666, "begin" : 27, "end" : 27},
		{"id" : 27, "text" : "그리", "type" : "VV", "scode" : "02", "weight" : 1, "position" : 670, "begin" : 28, "end" : 28},
		{"id" : 28, "text" : "기", "type" : "ETN", "scode" : "00", "weight" : 1, "position" : 676, "begin" : 29, "end" : 29},
		{"id" : 29, "text" : "시작", "type" : "NNG", "scode" : "01", "weight" : 1, "position" : 680, "begin" : 30, "end" : 30},
		{"id" : 30, "text" : "《", "type" : "SS", "scode" : "00", "weight" : 1, "position" : 687, "begin" : 31, "end" : 31},
		{"id" : 31, "text" : "대물", "type" : "NNG", "scode" : "01", "weight" : 1, "position" : 690, "begin" : 32, "end" : 32},
		{"id" : 32, "text" : "》", "type" : "SS", "scode" : "00", "weight" : 1, "position" : 696, "begin" : 33, "end" : 33},
		{"id" : 33, "text" : "《", "type" : "SS", "scode" : "00", "weight" : 1, "position" : 699, "begin" : 34, "end" : 34},
		{"id" : 34, "text" : "이창", "type" : "NNP", "scode" : "02", "weight" : 1, "position" : 702, "begin" : 35, "end" : 35},
		{"id" : 35, "text" : "》", "type" : "SS", "scode" : "00", "weight" : 1, "position" : 708, "begin" : 36, "end" : 36},
		{"id" : 36, "text" : "등", "type" : "NNB", "scode" : "05", "weight" : 1, "position" : 711, "begin" : 37, "end" : 37},
		{"id" : 37, "text" : "을", "type" : "JKO", "scode" : "00", "weight" : 1, "position" : 714, "begin" : 38, "end" : 38},
		{"id" : 38, "text" : "그리", "type" : "VV", "scode" : "02", "weight" : 1, "position" : 718, "begin" : 39, "end" : 39},
		{"id" : 39, "text" : "었", "type" : "EP", "scode" : "00", "weight" : 1, "position" : 721, "begin" : 40, "end" : 40},
		{"id" : 40, "text" : "다", "type" : "EF", "scode" : "00", "weight" : 1, "position" : 724, "begin" : 41, "end" : 41},
		{"id" : 41, "text" : ".", "type" : "SF", "scode" : "00", "weight" : 1, "position" : 727, "begin" : 42, "end" : 42}
	],
	"word" : [
		{"id" : 0, "text" : "어린이", "type" : "", "begin" : 0, "end" : 1},
		{"id" : 1, "text" : "만화로", "type" : "", "begin" : 2, "end" : 3},
		{"id" : 2, "text" : "《칠삭동이》《사랑방이야기》《바다의", "type" : "", "begin" : 4, "end" : 13},
		{"id" : 3, "text" : "왕자》등이", "type" : "", "begin" : 14, "end" : 17},
		{"id" : 4, "text" : "있고", "type" : "", "begin" : 18, "end" : 19},
		{"id" : 5, "text" : "1980년", "type" : "", "begin" : 20, "end" : 21},
		{"id" : 6, "text" : "말부터는", "type" : "", "begin" : 22, "end" : 24},
		{"id" : 7, "text" : "성인만화를", "type" : "", "begin" : 25, "end" : 27},
		{"id" : 8, "text" : "그리기", "type" : "", "begin" : 28, "end" : 29},
		{"id" : 9, "text" : "시작", "type" : "", "begin" : 30, "end" : 30},
		{"id" : 10, "text" : "《대물》《이창》등을", "type" : "", "begin" : 31, "end" : 38},
		{"id" : 11, "text" : "그렸다.", "type" : "", "begin" : 39, "end" : 42}
	],
	"NE" : [
		{"id" : 0, "text" : "만화", "type" : "FD_ART", "begin" : 2, "end" : 2, "weight" : 0.189474, "common_noun" : 0},
		{"id" : 1, "text" : "칠삭동이", "type" : "AFW_DOCUMENT", "begin" : 5, "end" : 5, "weight" : 0.637593, "common_noun" : 0},
		{"id" : 2, "text" : "사랑방이야기", "type" : "AFW_DOCUMENT", "begin" : 8, "end" : 9, "weight" : 0.924766, "common_noun" : 0},
		{"id" : 3, "text" : "바다의 왕자", "type" : "AFW_DOCUMENT", "begin" : 12, "end" : 14, "weight" : 0.95099, "common_noun" : 0},
		{"id" : 4, "text" : "1980년 말부터", "type" : "DT_OTHERS", "begin" : 20, "end" : 23, "weight" : 0.476208, "common_noun" : 0},
		{"id" : 5, "text" : "성인만화", "type" : "FD_ART", "begin" : 25, "end" : 26, "weight" : 0.561301, "common_noun" : 0},
		{"id" : 6, "text" : "대물", "type" : "AFW_DOCUMENT", "begin" : 32, "end" : 32, "weight" : 0.785205, "common_noun" : 0},
		{"id" : 7, "text" : "이창", "type" : "AFW_DOCUMENT", "begin" : 35, "end" : 35, "weight" : 0.729961, "common_noun" : 0}
	],
	"chunk" : [
	],
	"dependency" : [
		{"id" : 0, "text" : "어린이", "head" : 1, "label" : "NP", "mod" : [], "weight" : 0.962931 },
		{"id" : 1, "text" : "만화로", "head" : 4, "label" : "NP_AJT", "mod" : [0], "weight" : 0.881019 },
		{"id" : 2, "text" : "《칠삭동이》《사랑방이야기》《바다의", "head" : 3, "label" : "NP_MOD", "mod" : [], "weight" : 0.991195 },
		{"id" : 3, "text" : "왕자》등이", "head" : 4, "label" : "NP_SBJ", "mod" : [2], "weight" : 0.685678 },
		{"id" : 4, "text" : "있고", "head" : 11, "label" : "VP", "mod" : [1, 3], "weight" : 0.784108 },
		{"id" : 5, "text" : "1980년", "head" : 6, "label" : "NP", "mod" : [], "weight" : 0.833866 },
		{"id" : 6, "text" : "말부터는", "head" : 11, "label" : "NP_AJT", "mod" : [5], "weight" : 0.768317 },
		{"id" : 7, "text" : "성인만화를", "head" : 8, "label" : "NP_OBJ", "mod" : [], "weight" : 0.831319 },
		{"id" : 8, "text" : "그리기", "head" : 9, "label" : "VP", "mod" : [7], "weight" : 0.74865 },
		{"id" : 9, "text" : "시작", "head" : 11, "label" : "NP_AJT", "mod" : [8], "weight" : 0.504138 },
		{"id" : 10, "text" : "《대물》《이창》등을", "head" : 11, "label" : "NP_OBJ", "mod" : [], "weight" : 0.62162 },
		{"id" : 11, "text" : "그렸다.", "head" : -1, "label" : "VP", "mod" : [4, 6, 9, 10], "weight" : 0.0405101 }
	],
	"SRL" : [
		{"verb" : "있", "sense" : 1, "word_id" : 4, "weight" : 0.168962,
			"argument" : [
				{"type" : "ARGM-PRD", "word_id" : 1, "text" : "만화로", "weight" : 0.0846563 },
				{"type" : "ARG1", "word_id" : 3, "text" : "왕자》등이", "weight" : 0.253269 }
			] },
		{"verb" : "그리", "sense" : 1, "word_id" : 8, "weight" : 0.281989,
			"argument" : [
				{"type" : "ARG1", "word_id" : 7, "text" : "성인만화를", "weight" : 0.281989 }
			] },
		{"verb" : "그리", "sense" : 1, "word_id" : 11, "weight" : 0.281357,
			"argument" : [
				{"type" : "ARGM-TMP", "word_id" : 9, "text" : "시작", "weight" : 0.172775 },
				{"type" : "ARG1", "word_id" : 10, "text" : "《대물》《이창》등을", "weight" : 0.389939 }
			] }
	],
	"relation" : [
	],
	"SA" : [
	],
	"ZA" : [
		{"id" : 0, "verb_wid" : 8, "ant_sid" : -1, "ant_wid" : -1, "type" : "s", "istitle" : 0, "weight" : 0.477526 },
		{"id" : 1, "verb_wid" : 11, "ant_sid" : 5, "ant_wid" : 3, "type" : "s", "istitle" : 0, "weight" : 0.399057 }
	]
	}
 ],
 "entity" : [
	{"id" : 0, "type" : "FD_ART", "number" : "singular", "gender" : "", "person" : "", "animacy" : "", "loc" : "", 
	 "mention" : [
		{"id" : 10, "sent_id" : 2, "start_eid" : 1, "end_eid" : 1, "ne_id" : 1, "text" : "만화", "start_eid_short" : 1, "end_eid_short" : 1, "text_short" : "만화", "weight" : 0.002 },
		{"id" : 27, "sent_id" : 5, "start_eid" : 0, "end_eid" : 1, "ne_id" : 0, "text" : "어린이 만화", "start_eid_short" : 0, "end_eid_short" : 1, "text_short" : "어린이 만화", "weight" : 0.0035 }
	] },
	{"id" : 1, "type" : "AF_WORKS", "number" : "singular", "gender" : "", "person" : "", "animacy" : "", "loc" : "", 
	 "mention" : [
		{"id" : 12, "sent_id" : 2, "start_eid" : 5, "end_eid" : 5, "ne_id" : 3, "text" : "《소년동아일보》", "start_eid_short" : 5, "end_eid_short" : 5, "text_short" : "《소년동아일보》", "weight" : 0.0035 },
		{"id" : 20, "sent_id" : 3, "start_eid" : 1, "end_eid" : 7, "ne_id" : 3, "text" : "《소년007 지저세계》《소년007 로봇 작전》《소년 007 원자탄 작전》《소년007", "start_eid_short" : 1, "end_eid_short" : 7, "text_short" : "《소년007 지저세계》《소년007 로봇 작전》《소년 007 원자탄 작전》《소년007", "weight" : 0.003 },
		{"id" : 21, "sent_id" : 3, "start_eid" : 1, "end_eid" : 4, "ne_id" : 2, "text" : "《소년007 지저세계》《소년007 로봇 작전》《소년", "start_eid_short" : 1, "end_eid_short" : 4, "text_short" : "《소년007 지저세계》《소년007 로봇 작전》《소년", "weight" : 0.003 },
		{"id" : 22, "sent_id" : 3, "start_eid" : 1, "end_eid" : 2, "ne_id" : 1, "text" : "《소년007 지저세계》《소년007", "start_eid_short" : 1, "end_eid_short" : 2, "text_short" : "《소년007 지저세계》《소년007", "weight" : 0.003 },
		{"id" : 24, "sent_id" : 4, "start_eid" : 0, "end_eid" : 1, "ne_id" : -1, "text" : "이 시기", "start_eid_short" : 0, "end_eid_short" : 1, "text_short" : "이 시기", "weight" : 0.006 },
		{"id" : 11, "sent_id" : 2, "start_eid" : 4, "end_eid" : 4, "ne_id" : 2, "text" : "'소년007시리즈'", "start_eid_short" : 4, "end_eid_short" : 4, "text_short" : "'소년007시리즈'", "weight" : 0.002 }
	] },
	{"id" : 2, "type" : "AFW_DOCUMENT", "number" : "singular", "gender" : "", "person" : "", "animacy" : "", "loc" : "", 
	 "mention" : [
		{"id" : 30, "sent_id" : 5, "start_eid" : 2, "end_eid" : 2, "ne_id" : 2, "text" : "《칠삭동이》《사랑방이야기》《바다", "start_eid_short" : 2, "end_eid_short" : 2, "text_short" : "《칠삭동이》《사랑방이야기》《바다", "weight" : 0.002 },
		{"id" : 35, "sent_id" : 5, "start_eid" : 10, "end_eid" : 10, "ne_id" : 7, "text" : "《대물》《이창》등", "start_eid_short" : 10, "end_eid_short" : 10, "text_short" : "《대물》《이창》등", "weight" : 0.0035 }
	] }
 ]
}

