{"doc_id" : "",
 "DCT" : "",
 "category" : "",
 "category_weight" : 0,
 "title" : {"text" : "", "NE" : ""},
 "metaInfo" : { },
 "sentence" : [
	{
	"id" : 0,
	"reserve_str" : "",
	"text" : "박은아(1974년 5월 8일생 ~ )은 대한민국 여성만화가이다.",
	"morp" : [
		{"id" : 0, "lemma" : "박은아", "type" : "NNP", "position" : 0, "weight" : 0.6 },
		{"id" : 1, "lemma" : "(", "type" : "SS", "position" : 9, "weight" : 1 },
		{"id" : 2, "lemma" : "1974", "type" : "SN", "position" : 10, "weight" : 1 },
		{"id" : 3, "lemma" : "년", "type" : "NNB", "position" : 14, "weight" : 0.414343 },
		{"id" : 4, "lemma" : "5", "type" : "SN", "position" : 18, "weight" : 1 },
		{"id" : 5, "lemma" : "월", "type" : "NNB", "position" : 19, "weight" : 0.408539 },
		{"id" : 6, "lemma" : "8", "type" : "SN", "position" : 23, "weight" : 1 },
		{"id" : 7, "lemma" : "일", "type" : "NNB", "position" : 24, "weight" : 0.126777 },
		{"id" : 8, "lemma" : "생", "type" : "XSN", "position" : 27, "weight" : 0.0119367 },
		{"id" : 9, "lemma" : "~", "type" : "SO", "position" : 31, "weight" : 1 },
		{"id" : 10, "lemma" : ")", "type" : "SS", "position" : 33, "weight" : 1 },
		{"id" : 11, "lemma" : "은", "type" : "JX", "position" : 34, "weight" : 0.0128817 },
		{"id" : 12, "lemma" : "대한민국", "type" : "NNP", "position" : 38, "weight" : 0.0447775 },
		{"id" : 13, "lemma" : "여성", "type" : "NNG", "position" : 51, "weight" : 0.281909 },
		{"id" : 14, "lemma" : "만화", "type" : "NNG", "position" : 57, "weight" : 0.177848 },
		{"id" : 15, "lemma" : "가", "type" : "XSN", "position" : 63, "weight" : 0.000115417 },
		{"id" : 16, "lemma" : "이", "type" : "VCP", "position" : 66, "weight" : 0.0165001 },
		{"id" : 17, "lemma" : "다", "type" : "EF", "position" : 69, "weight" : 0.353579 },
		{"id" : 18, "lemma" : ".", "type" : "SF", "position" : 72, "weight" : 1 }
	],
	"morp_eval" : [
		{"id" : 0, "result" : "박은아/NNG+(/SS+1974/SN+년/NNB", "target" : "박은아(1974년", "word_id" : 0, "m_begin" : 0, "m_end" : 3},
		{"id" : 1, "result" : "5/SN+월/NNB", "target" : "5월", "word_id" : 1, "m_begin" : 4, "m_end" : 5},
		{"id" : 2, "result" : "8/SN+일생/NNB", "target" : "8일생", "word_id" : 2, "m_begin" : 6, "m_end" : 8},
		{"id" : 3, "result" : "~/SO", "target" : "~", "word_id" : 3, "m_begin" : 9, "m_end" : 9},
		{"id" : 4, "result" : ")/SS+은/JX", "target" : ")은", "word_id" : 4, "m_begin" : 10, "m_end" : 11},
		{"id" : 5, "result" : "대한민국/NNG", "target" : "대한민국", "word_id" : 5, "m_begin" : 12, "m_end" : 12},
		{"id" : 6, "result" : "여성만화가/NNG+이/VCP+다/EF+./SF", "target" : "여성만화가이다.", "word_id" : 6, "m_begin" : 13, "m_end" : 18}
	],
	"WSD" : [
		{"id" : 0, "text" : "박은아", "type" : "NNP", "scode" : "00", "weight" : 1, "position" : 0, "begin" : 0, "end" : 0},
		{"id" : 1, "text" : "(", "type" : "SS", "scode" : "00", "weight" : 1, "position" : 9, "begin" : 1, "end" : 1},
		{"id" : 2, "text" : "1974", "type" : "SN", "scode" : "00", "weight" : 1, "position" : 10, "begin" : 2, "end" : 2},
		{"id" : 3, "text" : "년", "type" : "NNB", "scode" : "02", "weight" : 1, "position" : 14, "begin" : 3, "end" : 3},
		{"id" : 4, "text" : "5", "type" : "SN", "scode" : "00", "weight" : 1, "position" : 18, "begin" : 4, "end" : 4},
		{"id" : 5, "text" : "월", "type" : "NNB", "scode" : "02", "weight" : 1, "position" : 19, "begin" : 5, "end" : 5},
		{"id" : 6, "text" : "8", "type" : "SN", "scode" : "00", "weight" : 1, "position" : 23, "begin" : 6, "end" : 6},
		{"id" : 7, "text" : "일", "type" : "NNB", "scode" : "07", "weight" : 1, "position" : 24, "begin" : 7, "end" : 7},
		{"id" : 8, "text" : "생", "type" : "XSN", "scode" : "08", "weight" : 1, "position" : 27, "begin" : 8, "end" : 8},
		{"id" : 9, "text" : "~", "type" : "SO", "scode" : "00", "weight" : 1, "position" : 31, "begin" : 9, "end" : 9},
		{"id" : 10, "text" : ")", "type" : "SS", "scode" : "00", "weight" : 1, "position" : 33, "begin" : 10, "end" : 10},
		{"id" : 11, "text" : "은", "type" : "JX", "scode" : "00", "weight" : 1, "position" : 34, "begin" : 11, "end" : 11},
		{"id" : 12, "text" : "대한민국", "type" : "NNP", "scode" : "00", "weight" : 1, "position" : 38, "begin" : 12, "end" : 12},
		{"id" : 13, "text" : "여성", "type" : "NNG", "scode" : "01", "weight" : 1, "position" : 51, "begin" : 13, "end" : 13},
		{"id" : 14, "text" : "만화가", "type" : "NNG", "scode" : "00", "weight" : 1, "position" : 57, "begin" : 14, "end" : 15},
		{"id" : 15, "text" : "이", "type" : "VCP", "scode" : "00", "weight" : 1, "position" : 66, "begin" : 16, "end" : 16},
		{"id" : 16, "text" : "다", "type" : "EF", "scode" : "00", "weight" : 1, "position" : 69, "begin" : 17, "end" : 17},
		{"id" : 17, "text" : ".", "type" : "SF", "scode" : "00", "weight" : 1, "position" : 72, "begin" : 18, "end" : 18}
	],
	"word" : [
		{"id" : 0, "text" : "박은아(1974년", "type" : "", "begin" : 0, "end" : 3},
		{"id" : 1, "text" : "5월", "type" : "", "begin" : 4, "end" : 5},
		{"id" : 2, "text" : "8일생", "type" : "", "begin" : 6, "end" : 8},
		{"id" : 3, "text" : "~", "type" : "", "begin" : 9, "end" : 9},
		{"id" : 4, "text" : ")은", "type" : "", "begin" : 10, "end" : 11},
		{"id" : 5, "text" : "대한민국", "type" : "", "begin" : 12, "end" : 12},
		{"id" : 6, "text" : "여성만화가이다.", "type" : "", "begin" : 13, "end" : 18}
	],
	"NE" : [
		{"id" : 0, "text" : "박은아", "type" : "PS_NAME", "begin" : 0, "end" : 0, "weight" : 0.454052, "common_noun" : 0},
		{"id" : 1, "text" : "1974년 5월 8일생", "type" : "QT_AGE", "begin" : 2, "end" : 8, "weight" : 0.527162, "common_noun" : 0},
		{"id" : 2, "text" : "대한민국", "type" : "LCP_COUNTRY", "begin" : 12, "end" : 12, "weight" : 0.36344, "common_noun" : 0},
		{"id" : 3, "text" : "여성만화가", "type" : "CV_OCCUPATION", "begin" : 13, "end" : 15, "weight" : 0.140178, "common_noun" : 0}
	],
	"chunk" : [
	],
	"dependency" : [
		{"id" : 0, "text" : "박은아(1974년", "head" : 1, "label" : "NP", "mod" : [], "weight" : 0.56246 },
		{"id" : 1, "text" : "5월", "head" : 2, "label" : "NP", "mod" : [0], "weight" : 0.692494 },
		{"id" : 2, "text" : "8일생", "head" : 4, "label" : "NP", "mod" : [1], "weight" : 0.537725 },
		{"id" : 3, "text" : "~", "head" : 4, "label" : "X", "mod" : [], "weight" : 0.693299 },
		{"id" : 4, "text" : ")은", "head" : 6, "label" : "NP_SBJ", "mod" : [2, 3], "weight" : 0.465698 },
		{"id" : 5, "text" : "대한민국", "head" : 6, "label" : "NP", "mod" : [], "weight" : 0.318479 },
		{"id" : 6, "text" : "여성만화가이다.", "head" : -1, "label" : "VNP", "mod" : [4, 5], "weight" : 0.0123906 }
	],
	"SRL" : [
	],
	"relation" : [
	],
	"SA" : [
	],
	"ZA" : [
	]
	},
	{
	"id" : 1,
	"reserve_str" : "",
	"text" : "1974년 5월 8일생이며 1994년 20세의 나이로 '키작은 보호자' 를 통해 데뷔하였다.",
	"morp" : [
		{"id" : 0, "lemma" : "1974", "type" : "SN", "position" : 73, "weight" : 1 },
		{"id" : 1, "lemma" : "년", "type" : "NNB", "position" : 77, "weight" : 0.414343 },
		{"id" : 2, "lemma" : "5", "type" : "SN", "position" : 81, "weight" : 1 },
		{"id" : 3, "lemma" : "월", "type" : "NNB", "position" : 82, "weight" : 0.408539 },
		{"id" : 4, "lemma" : "8", "type" : "SN", "position" : 86, "weight" : 1 },
		{"id" : 5, "lemma" : "일생", "type" : "NNG", "position" : 87, "weight" : 0.9 },
		{"id" : 6, "lemma" : "이", "type" : "VCP", "position" : 93, "weight" : 0.0177525 },
		{"id" : 7, "lemma" : "며", "type" : "EC", "position" : 96, "weight" : 0.250555 },
		{"id" : 8, "lemma" : "1994", "type" : "SN", "position" : 100, "weight" : 1 },
		{"id" : 9, "lemma" : "년", "type" : "NNB", "position" : 104, "weight" : 0.414343 },
		{"id" : 10, "lemma" : "20", "type" : "SN", "position" : 108, "weight" : 1 },
		{"id" : 11, "lemma" : "세", "type" : "NNB", "position" : 110, "weight" : 0.0850602 },
		{"id" : 12, "lemma" : "의", "type" : "JKG", "position" : 113, "weight" : 0.0520933 },
		{"id" : 13, "lemma" : "나이", "type" : "NNG", "position" : 117, "weight" : 0.9 },
		{"id" : 14, "lemma" : "로", "type" : "JKB", "position" : 123, "weight" : 0.153229 },
		{"id" : 15, "lemma" : "'", "type" : "SS", "position" : 127, "weight" : 1 },
		{"id" : 16, "lemma" : "키작", "type" : "NNP", "position" : 128, "weight" : 0.6 },
		{"id" : 17, "lemma" : "은", "type" : "JX", "position" : 134, "weight" : 0.0520511 },
		{"id" : 18, "lemma" : "보호", "type" : "NNG", "position" : 138, "weight" : 0.9 },
		{"id" : 19, "lemma" : "자", "type" : "XSN", "position" : 144, "weight" : 0.00398741 },
		{"id" : 20, "lemma" : "'", "type" : "SS", "position" : 147, "weight" : 1 },
		{"id" : 21, "lemma" : "를", "type" : "JKO", "position" : 149, "weight" : 0.0357023 },
		{"id" : 22, "lemma" : "통하", "type" : "VV", "position" : 153, "weight" : 0.9 },
		{"id" : 23, "lemma" : "어", "type" : "EC", "position" : 156, "weight" : 0.41831 },
		{"id" : 24, "lemma" : "데뷔", "type" : "NNG", "position" : 160, "weight" : 0.9 },
		{"id" : 25, "lemma" : "하", "type" : "XSV", "position" : 166, "weight" : 0.0001 },
		{"id" : 26, "lemma" : "었", "type" : "EP", "position" : 169, "weight" : 0.9 },
		{"id" : 27, "lemma" : "다", "type" : "EF", "position" : 172, "weight" : 0.640954 },
		{"id" : 28, "lemma" : ".", "type" : "SF", "position" : 175, "weight" : 1 }
	],
	"morp_eval" : [
		{"id" : 0, "result" : "1974/SN+년/NNB", "target" : "1974년", "word_id" : 0, "m_begin" : 0, "m_end" : 1},
		{"id" : 1, "result" : "5/SN+월/NNB", "target" : "5월", "word_id" : 1, "m_begin" : 2, "m_end" : 3},
		{"id" : 2, "result" : "8/SN+일생/NNG+이/VCP+며/EC", "target" : "8일생이며", "word_id" : 2, "m_begin" : 4, "m_end" : 7},
		{"id" : 3, "result" : "1994/SN+년/NNB", "target" : "1994년", "word_id" : 3, "m_begin" : 8, "m_end" : 9},
		{"id" : 4, "result" : "20/SN+세/NNB+의/JKG", "target" : "20세의", "word_id" : 4, "m_begin" : 10, "m_end" : 12},
		{"id" : 5, "result" : "나이/NNG+로/JKB", "target" : "나이로", "word_id" : 5, "m_begin" : 13, "m_end" : 14},
		{"id" : 6, "result" : "'/SS+키작/NNG+은/JX", "target" : "'키작은", "word_id" : 6, "m_begin" : 15, "m_end" : 17},
		{"id" : 7, "result" : "보호자/NNG+'/SS", "target" : "보호자'", "word_id" : 7, "m_begin" : 18, "m_end" : 20},
		{"id" : 8, "result" : "를/JKO", "target" : "를", "word_id" : 8, "m_begin" : 21, "m_end" : 21},
		{"id" : 9, "result" : "통하/VV+어/EC", "target" : "통해", "word_id" : 9, "m_begin" : 22, "m_end" : 23},
		{"id" : 10, "result" : "데뷔하/VV+었/EP+다/EF+./SF", "target" : "데뷔하였다.", "word_id" : 10, "m_begin" : 24, "m_end" : 28}
	],
	"WSD" : [
		{"id" : 0, "text" : "1974", "type" : "SN", "scode" : "00", "weight" : 1, "position" : 73, "begin" : 0, "end" : 0},
		{"id" : 1, "text" : "년", "type" : "NNB", "scode" : "02", "weight" : 1, "position" : 77, "begin" : 1, "end" : 1},
		{"id" : 2, "text" : "5", "type" : "SN", "scode" : "00", "weight" : 1, "position" : 81, "begin" : 2, "end" : 2},
		{"id" : 3, "text" : "월", "type" : "NNB", "scode" : "02", "weight" : 1, "position" : 82, "begin" : 3, "end" : 3},
		{"id" : 4, "text" : "8", "type" : "SN", "scode" : "00", "weight" : 1, "position" : 86, "begin" : 4, "end" : 4},
		{"id" : 5, "text" : "일생", "type" : "NNG", "scode" : "01", "weight" : 1, "position" : 87, "begin" : 5, "end" : 5},
		{"id" : 6, "text" : "이", "type" : "VCP", "scode" : "00", "weight" : 1, "position" : 93, "begin" : 6, "end" : 6},
		{"id" : 7, "text" : "며", "type" : "EC", "scode" : "00", "weight" : 1, "position" : 96, "begin" : 7, "end" : 7},
		{"id" : 8, "text" : "1994", "type" : "SN", "scode" : "00", "weight" : 1, "position" : 100, "begin" : 8, "end" : 8},
		{"id" : 9, "text" : "년", "type" : "NNB", "scode" : "02", "weight" : 1, "position" : 104, "begin" : 9, "end" : 9},
		{"id" : 10, "text" : "20", "type" : "SN", "scode" : "00", "weight" : 1, "position" : 108, "begin" : 10, "end" : 10},
		{"id" : 11, "text" : "세", "type" : "NNB", "scode" : "13", "weight" : 1, "position" : 110, "begin" : 11, "end" : 11},
		{"id" : 12, "text" : "의", "type" : "JKG", "scode" : "00", "weight" : 1, "position" : 113, "begin" : 12, "end" : 12},
		{"id" : 13, "text" : "나이", "type" : "NNG", "scode" : "01", "weight" : 1, "position" : 117, "begin" : 13, "end" : 13},
		{"id" : 14, "text" : "로", "type" : "JKB", "scode" : "00", "weight" : 1, "position" : 123, "begin" : 14, "end" : 14},
		{"id" : 15, "text" : "'", "type" : "SS", "scode" : "00", "weight" : 1, "position" : 127, "begin" : 15, "end" : 15},
		{"id" : 16, "text" : "키작", "type" : "NNP", "scode" : "00", "weight" : 0, "position" : 128, "begin" : 16, "end" : 16},
		{"id" : 17, "text" : "은", "type" : "JX", "scode" : "00", "weight" : 1, "position" : 134, "begin" : 17, "end" : 17},
		{"id" : 18, "text" : "보호자", "type" : "NNG", "scode" : "00", "weight" : 1, "position" : 138, "begin" : 18, "end" : 19},
		{"id" : 19, "text" : "'", "type" : "SS", "scode" : "00", "weight" : 1, "position" : 147, "begin" : 20, "end" : 20},
		{"id" : 20, "text" : "를", "type" : "JKO", "scode" : "00", "weight" : 1, "position" : 149, "begin" : 21, "end" : 21},
		{"id" : 21, "text" : "통하", "type" : "VV", "scode" : "00", "weight" : 1, "position" : 153, "begin" : 22, "end" : 22},
		{"id" : 22, "text" : "어", "type" : "EC", "scode" : "00", "weight" : 1, "position" : 156, "begin" : 23, "end" : 23},
		{"id" : 23, "text" : "데뷔하", "type" : "VV", "scode" : "00", "weight" : 1, "position" : 160, "begin" : 24, "end" : 25},
		{"id" : 24, "text" : "었", "type" : "EP", "scode" : "00", "weight" : 1, "position" : 169, "begin" : 26, "end" : 26},
		{"id" : 25, "text" : "다", "type" : "EF", "scode" : "00", "weight" : 1, "position" : 172, "begin" : 27, "end" : 27},
		{"id" : 26, "text" : ".", "type" : "SF", "scode" : "00", "weight" : 1, "position" : 175, "begin" : 28, "end" : 28}
	],
	"word" : [
		{"id" : 0, "text" : "1974년", "type" : "", "begin" : 0, "end" : 1},
		{"id" : 1, "text" : "5월", "type" : "", "begin" : 2, "end" : 3},
		{"id" : 2, "text" : "8일생이며", "type" : "", "begin" : 4, "end" : 7},
		{"id" : 3, "text" : "1994년", "type" : "", "begin" : 8, "end" : 9},
		{"id" : 4, "text" : "20세의", "type" : "", "begin" : 10, "end" : 12},
		{"id" : 5, "text" : "나이로", "type" : "", "begin" : 13, "end" : 14},
		{"id" : 6, "text" : "'키작은", "type" : "", "begin" : 15, "end" : 17},
		{"id" : 7, "text" : "보호자'", "type" : "", "begin" : 18, "end" : 20},
		{"id" : 8, "text" : "를", "type" : "", "begin" : 21, "end" : 21},
		{"id" : 9, "text" : "통해", "type" : "", "begin" : 22, "end" : 23},
		{"id" : 10, "text" : "데뷔하였다.", "type" : "", "begin" : 24, "end" : 28}
	],
	"NE" : [
		{"id" : 0, "text" : "1974년 5월 8일생", "type" : "DT_OTHERS", "begin" : 0, "end" : 5, "weight" : 0.415712, "common_noun" : 0},
		{"id" : 1, "text" : "1994년", "type" : "DT_YEAR", "begin" : 8, "end" : 9, "weight" : 0.744148, "common_noun" : 0},
		{"id" : 2, "text" : "20세", "type" : "QT_AGE", "begin" : 10, "end" : 11, "weight" : 0.478791, "common_noun" : 0},
		{"id" : 3, "text" : "보호자", "type" : "CV_POSITION", "begin" : 18, "end" : 19, "weight" : 0.599546, "common_noun" : 0}
	],
	"chunk" : [
	],
	"dependency" : [
		{"id" : 0, "text" : "1974년", "head" : 1, "label" : "NP", "mod" : [], "weight" : 0.823333 },
		{"id" : 1, "text" : "5월", "head" : 2, "label" : "NP", "mod" : [0], "weight" : 0.741056 },
		{"id" : 2, "text" : "8일생이며", "head" : 9, "label" : "VNP", "mod" : [1], "weight" : 0.916343 },
		{"id" : 3, "text" : "1994년", "head" : 9, "label" : "NP_AJT", "mod" : [], "weight" : 0.783501 },
		{"id" : 4, "text" : "20세의", "head" : 5, "label" : "NP_MOD", "mod" : [], "weight" : 0.755243 },
		{"id" : 5, "text" : "나이로", "head" : 9, "label" : "NP_AJT", "mod" : [4], "weight" : 0.810047 },
		{"id" : 6, "text" : "'키작은", "head" : 7, "label" : "NP_SBJ", "mod" : [], "weight" : 0.249129 },
		{"id" : 7, "text" : "보호자'", "head" : 8, "label" : "NP", "mod" : [6], "weight" : 0.546829 },
		{"id" : 8, "text" : "를", "head" : 9, "label" : "NP_OBJ", "mod" : [7], "weight" : 0.562895 },
		{"id" : 9, "text" : "통해", "head" : 10, "label" : "VP", "mod" : [2, 3, 5, 8], "weight" : 0.49456 },
		{"id" : 10, "text" : "데뷔하였다.", "head" : -1, "label" : "VP", "mod" : [9], "weight" : 0.0056087 }
	],
	"SRL" : [
		{"verb" : "통하", "sense" : 1, "word_id" : 9, "weight" : 0,
			"argument" : [
			] },
		{"verb" : "데뷔", "sense" : 1, "word_id" : 10, "weight" : 0.0980951,
			"argument" : [
				{"type" : "ARGM-MNR", "word_id" : 9, "text" : "통해", "weight" : 0.0980951 }
			] }
	],
	"relation" : [
	],
	"SA" : [
	],
	"ZA" : [
		{"id" : 0, "verb_wid" : 2, "ant_sid" : 0, "ant_wid" : 4, "type" : "s", "istitle" : 0, "weight" : 0.581585 },
		{"id" : 1, "verb_wid" : 10, "ant_sid" : 1, "ant_wid" : 6, "type" : "s", "istitle" : 0, "weight" : 0.333458 }
	]
	},
	{
	"id" : 2,
	"reserve_str" : "",
	"text" : "1998년 학산문화사 만화잡지 월간 파티에 스위티젬을 연재했고 1999년에는 대원씨아이의 잡지 이슈에 다정다감을 연재했으며 2000년에 만화 불면증을 연재하였다.",
	"morp" : [
		{"id" : 0, "lemma" : "1998", "type" : "SN", "position" : 176, "weight" : 1 },
		{"id" : 1, "lemma" : "년", "type" : "NNB", "position" : 180, "weight" : 0.414343 },
		{"id" : 2, "lemma" : "학산", "type" : "NNP", "position" : 184, "weight" : 0.9 },
		{"id" : 3, "lemma" : "문화", "type" : "NNG", "position" : 190, "weight" : 0.281422 },
		{"id" : 4, "lemma" : "사", "type" : "XSN", "position" : 196, "weight" : 0.00634534 },
		{"id" : 5, "lemma" : "만화", "type" : "NNG", "position" : 200, "weight" : 0.12631 },
		{"id" : 6, "lemma" : "잡지", "type" : "NNG", "position" : 206, "weight" : 0.9 },
		{"id" : 7, "lemma" : "월간", "type" : "NNG", "position" : 213, "weight" : 0.9 },
		{"id" : 8, "lemma" : "파티", "type" : "NNG", "position" : 220, "weight" : 0.184189 },
		{"id" : 9, "lemma" : "에", "type" : "JKB", "position" : 226, "weight" : 0.153364 },
		{"id" : 10, "lemma" : "스위티젬", "type" : "NNP", "position" : 230, "weight" : 0.6 },
		{"id" : 11, "lemma" : "을", "type" : "JKO", "position" : 242, "weight" : 0.0266447 },
		{"id" : 12, "lemma" : "연재", "type" : "NNG", "position" : 246, "weight" : 0.0975025 },
		{"id" : 13, "lemma" : "하", "type" : "XSV", "position" : 252, "weight" : 0.0001 },
		{"id" : 14, "lemma" : "었", "type" : "EP", "position" : 252, "weight" : 0.9 },
		{"id" : 15, "lemma" : "고", "type" : "EC", "position" : 255, "weight" : 0.190901 },
		{"id" : 16, "lemma" : "1999", "type" : "SN", "position" : 259, "weight" : 1 },
		{"id" : 17, "lemma" : "년", "type" : "NNB", "position" : 263, "weight" : 0.414343 },
		{"id" : 18, "lemma" : "에", "type" : "JKB", "position" : 266, "weight" : 0.135559 },
		{"id" : 19, "lemma" : "는", "type" : "JX", "position" : 269, "weight" : 0.0387928 },
		{"id" : 20, "lemma" : "대원씨아이", "type" : "NNP", "position" : 273, "weight" : 0.2 },
		{"id" : 21, "lemma" : "의", "type" : "JKG", "position" : 288, "weight" : 0.0987295 },
		{"id" : 22, "lemma" : "잡지", "type" : "NNG", "position" : 292, "weight" : 0.9 },
		{"id" : 23, "lemma" : "이슈", "type" : "NNG", "position" : 299, "weight" : 0.182715 },
		{"id" : 24, "lemma" : "에", "type" : "JKB", "position" : 305, "weight" : 0.153364 },
		{"id" : 25, "lemma" : "다정", "type" : "NNG", "position" : 309, "weight" : 0.55 },
		{"id" : 26, "lemma" : "다감", "type" : "NNG", "position" : 315, "weight" : 0.05 },
		{"id" : 27, "lemma" : "을", "type" : "JKO", "position" : 321, "weight" : 0.129611 },
		{"id" : 28, "lemma" : "연재", "type" : "NNG", "position" : 325, "weight" : 0.0975025 },
		{"id" : 29, "lemma" : "하", "type" : "XSV", "position" : 331, "weight" : 0.0001 },
		{"id" : 30, "lemma" : "었", "type" : "EP", "position" : 331, "weight" : 0.9 },
		{"id" : 31, "lemma" : "으며", "type" : "EC", "position" : 334, "weight" : 0.197482 },
		{"id" : 32, "lemma" : "2000", "type" : "SN", "position" : 341, "weight" : 1 },
		{"id" : 33, "lemma" : "년", "type" : "NNB", "position" : 345, "weight" : 0.414343 },
		{"id" : 34, "lemma" : "에", "type" : "JKB", "position" : 348, "weight" : 0.135559 },
		{"id" : 35, "lemma" : "만화", "type" : "NNG", "position" : 352, "weight" : 0.200177 },
		{"id" : 36, "lemma" : "불면", "type" : "NNG", "position" : 359, "weight" : 0.9 },
		{"id" : 37, "lemma" : "증", "type" : "XSN", "position" : 365, "weight" : 0.0294359 },
		{"id" : 38, "lemma" : "을", "type" : "JKO", "position" : 368, "weight" : 0.0819193 },
		{"id" : 39, "lemma" : "연재", "type" : "NNG", "position" : 372, "weight" : 0.0975025 },
		{"id" : 40, "lemma" : "하", "type" : "XSV", "position" : 378, "weight" : 0.0001 },
		{"id" : 41, "lemma" : "었", "type" : "EP", "position" : 381, "weight" : 0.9 },
		{"id" : 42, "lemma" : "다", "type" : "EF", "position" : 384, "weight" : 0.640954 },
		{"id" : 43, "lemma" : ".", "type" : "SF", "position" : 387, "weight" : 1 }
	],
	"morp_eval" : [
		{"id" : 0, "result" : "1998/SN+년/NNB", "target" : "1998년", "word_id" : 0, "m_begin" : 0, "m_end" : 1},
		{"id" : 1, "result" : "학산문화사/NNG", "target" : "학산문화사", "word_id" : 1, "m_begin" : 2, "m_end" : 4},
		{"id" : 2, "result" : "만화잡지/NNG", "target" : "만화잡지", "word_id" : 2, "m_begin" : 5, "m_end" : 6},
		{"id" : 3, "result" : "월간/NNG", "target" : "월간", "word_id" : 3, "m_begin" : 7, "m_end" : 7},
		{"id" : 4, "result" : "파티/NNG+에/JKB", "target" : "파티에", "word_id" : 4, "m_begin" : 8, "m_end" : 9},
		{"id" : 5, "result" : "스위티젬/NNG+을/JKO", "target" : "스위티젬을", "word_id" : 5, "m_begin" : 10, "m_end" : 11},
		{"id" : 6, "result" : "연재하/VV+었/EP+고/EC", "target" : "연재했고", "word_id" : 6, "m_begin" : 12, "m_end" : 15},
		{"id" : 7, "result" : "1999/SN+년/NNB+에/JKB+는/JX", "target" : "1999년에는", "word_id" : 7, "m_begin" : 16, "m_end" : 19},
		{"id" : 8, "result" : "대원씨아이/NNG+의/JKG", "target" : "대원씨아이의", "word_id" : 8, "m_begin" : 20, "m_end" : 21},
		{"id" : 9, "result" : "잡지/NNG", "target" : "잡지", "word_id" : 9, "m_begin" : 22, "m_end" : 22},
		{"id" : 10, "result" : "이슈/NNG+에/JKB", "target" : "이슈에", "word_id" : 10, "m_begin" : 23, "m_end" : 24},
		{"id" : 11, "result" : "다정다감/NNG+을/JKO", "target" : "다정다감을", "word_id" : 11, "m_begin" : 25, "m_end" : 27},
		{"id" : 12, "result" : "연재하/VV+었/EP+으며/EC", "target" : "연재했으며", "word_id" : 12, "m_begin" : 28, "m_end" : 31},
		{"id" : 13, "result" : "2000/SN+년/NNB+에/JKB", "target" : "2000년에", "word_id" : 13, "m_begin" : 32, "m_end" : 34},
		{"id" : 14, "result" : "만화/NNG", "target" : "만화", "word_id" : 14, "m_begin" : 35, "m_end" : 35},
		{"id" : 15, "result" : "불면증/NNG+을/JKO", "target" : "불면증을", "word_id" : 15, "m_begin" : 36, "m_end" : 38},
		{"id" : 16, "result" : "연재하/VV+었/EP+다/EF+./SF", "target" : "연재하였다.", "word_id" : 16, "m_begin" : 39, "m_end" : 43}
	],
	"WSD" : [
		{"id" : 0, "text" : "1998", "type" : "SN", "scode" : "00", "weight" : 1, "position" : 176, "begin" : 0, "end" : 0},
		{"id" : 1, "text" : "년", "type" : "NNB", "scode" : "02", "weight" : 1, "position" : 180, "begin" : 1, "end" : 1},
		{"id" : 2, "text" : "학산", "type" : "NNP", "scode" : "00", "weight" : 1, "position" : 184, "begin" : 2, "end" : 2},
		{"id" : 3, "text" : "문화사", "type" : "NNG", "scode" : "00", "weight" : 1, "position" : 190, "begin" : 3, "end" : 4},
		{"id" : 4, "text" : "만화", "type" : "NNG", "scode" : "10", "weight" : 1, "position" : 200, "begin" : 5, "end" : 5},
		{"id" : 5, "text" : "잡지", "type" : "NNG", "scode" : "00", "weight" : 1, "position" : 206, "begin" : 6, "end" : 6},
		{"id" : 6, "text" : "월간", "type" : "NNG", "scode" : "01", "weight" : 1, "position" : 213, "begin" : 7, "end" : 7},
		{"id" : 7, "text" : "파티", "type" : "NNG", "scode" : "00", "weight" : 1, "position" : 220, "begin" : 8, "end" : 8},
		{"id" : 8, "text" : "에", "type" : "JKB", "scode" : "00", "weight" : 1, "position" : 226, "begin" : 9, "end" : 9},
		{"id" : 9, "text" : "스위티젬", "type" : "NNP", "scode" : "00", "weight" : 0, "position" : 230, "begin" : 10, "end" : 10},
		{"id" : 10, "text" : "을", "type" : "JKO", "scode" : "00", "weight" : 1, "position" : 242, "begin" : 11, "end" : 11},
		{"id" : 11, "text" : "연재하", "type" : "VV", "scode" : "00", "weight" : 1, "position" : 246, "begin" : 12, "end" : 13},
		{"id" : 12, "text" : "었", "type" : "EP", "scode" : "00", "weight" : 1, "position" : 252, "begin" : 14, "end" : 14},
		{"id" : 13, "text" : "고", "type" : "EC", "scode" : "00", "weight" : 1, "position" : 255, "begin" : 15, "end" : 15},
		{"id" : 14, "text" : "1999", "type" : "SN", "scode" : "00", "weight" : 1, "position" : 259, "begin" : 16, "end" : 16},
		{"id" : 15, "text" : "년", "type" : "NNB", "scode" : "02", "weight" : 1, "position" : 263, "begin" : 17, "end" : 17},
		{"id" : 16, "text" : "에", "type" : "JKB", "scode" : "00", "weight" : 1, "position" : 266, "begin" : 18, "end" : 18},
		{"id" : 17, "text" : "는", "type" : "JX", "scode" : "00", "weight" : 1, "position" : 269, "begin" : 19, "end" : 19},
		{"id" : 18, "text" : "대원씨아이", "type" : "NNP", "scode" : "00", "weight" : 1, "position" : 273, "begin" : 20, "end" : 20},
		{"id" : 19, "text" : "의", "type" : "JKG", "scode" : "00", "weight" : 1, "position" : 288, "begin" : 21, "end" : 21},
		{"id" : 20, "text" : "잡지", "type" : "NNG", "scode" : "00", "weight" : 1, "position" : 292, "begin" : 22, "end" : 22},
		{"id" : 21, "text" : "이슈", "type" : "NNG", "scode" : "00", "weight" : 1, "position" : 299, "begin" : 23, "end" : 23},
		{"id" : 22, "text" : "에", "type" : "JKB", "scode" : "00", "weight" : 1, "position" : 305, "begin" : 24, "end" : 24},
		{"id" : 23, "text" : "다정다감", "type" : "NNG", "scode" : "00", "weight" : 1, "position" : 309, "begin" : 25, "end" : 26},
		{"id" : 24, "text" : "을", "type" : "JKO", "scode" : "00", "weight" : 1, "position" : 321, "begin" : 27, "end" : 27},
		{"id" : 25, "text" : "연재하", "type" : "VV", "scode" : "00", "weight" : 1, "position" : 325, "begin" : 28, "end" : 29},
		{"id" : 26, "text" : "었", "type" : "EP", "scode" : "00", "weight" : 1, "position" : 331, "begin" : 30, "end" : 30},
		{"id" : 27, "text" : "으며", "type" : "EC", "scode" : "00", "weight" : 1, "position" : 334, "begin" : 31, "end" : 31},
		{"id" : 28, "text" : "2000", "type" : "SN", "scode" : "00", "weight" : 1, "position" : 341, "begin" : 32, "end" : 32},
		{"id" : 29, "text" : "년", "type" : "NNB", "scode" : "02", "weight" : 1, "position" : 345, "begin" : 33, "end" : 33},
		{"id" : 30, "text" : "에", "type" : "JKB", "scode" : "00", "weight" : 1, "position" : 348, "begin" : 34, "end" : 34},
		{"id" : 31, "text" : "만화", "type" : "NNG", "scode" : "10", "weight" : 1, "position" : 352, "begin" : 35, "end" : 35},
		{"id" : 32, "text" : "불면증", "type" : "NNG", "scode" : "00", "weight" : 1, "position" : 359, "begin" : 36, "end" : 37},
		{"id" : 33, "text" : "을", "type" : "JKO", "scode" : "00", "weight" : 1, "position" : 368, "begin" : 38, "end" : 38},
		{"id" : 34, "text" : "연재하", "type" : "VV", "scode" : "00", "weight" : 1, "position" : 372, "begin" : 39, "end" : 40},
		{"id" : 35, "text" : "었", "type" : "EP", "scode" : "00", "weight" : 1, "position" : 381, "begin" : 41, "end" : 41},
		{"id" : 36, "text" : "다", "type" : "EF", "scode" : "00", "weight" : 1, "position" : 384, "begin" : 42, "end" : 42},
		{"id" : 37, "text" : ".", "type" : "SF", "scode" : "00", "weight" : 1, "position" : 387, "begin" : 43, "end" : 43}
	],
	"word" : [
		{"id" : 0, "text" : "1998년", "type" : "", "begin" : 0, "end" : 1},
		{"id" : 1, "text" : "학산문화사", "type" : "", "begin" : 2, "end" : 4},
		{"id" : 2, "text" : "만화잡지", "type" : "", "begin" : 5, "end" : 6},
		{"id" : 3, "text" : "월간", "type" : "", "begin" : 7, "end" : 7},
		{"id" : 4, "text" : "파티에", "type" : "", "begin" : 8, "end" : 9},
		{"id" : 5, "text" : "스위티젬을", "type" : "", "begin" : 10, "end" : 11},
		{"id" : 6, "text" : "연재했고", "type" : "", "begin" : 12, "end" : 15},
		{"id" : 7, "text" : "1999년에는", "type" : "", "begin" : 16, "end" : 19},
		{"id" : 8, "text" : "대원씨아이의", "type" : "", "begin" : 20, "end" : 21},
		{"id" : 9, "text" : "잡지", "type" : "", "begin" : 22, "end" : 22},
		{"id" : 10, "text" : "이슈에", "type" : "", "begin" : 23, "end" : 24},
		{"id" : 11, "text" : "다정다감을", "type" : "", "begin" : 25, "end" : 27},
		{"id" : 12, "text" : "연재했으며", "type" : "", "begin" : 28, "end" : 31},
		{"id" : 13, "text" : "2000년에", "type" : "", "begin" : 32, "end" : 34},
		{"id" : 14, "text" : "만화", "type" : "", "begin" : 35, "end" : 35},
		{"id" : 15, "text" : "불면증을", "type" : "", "begin" : 36, "end" : 38},
		{"id" : 16, "text" : "연재하였다.", "type" : "", "begin" : 39, "end" : 43}
	],
	"NE" : [
		{"id" : 0, "text" : "1998년", "type" : "DT_YEAR", "begin" : 0, "end" : 1, "weight" : 0.74045, "common_noun" : 0},
		{"id" : 1, "text" : "학산문화사", "type" : "OGG_ECONOMY", "begin" : 2, "end" : 4, "weight" : 0.164389, "common_noun" : 0},
		{"id" : 2, "text" : "만화", "type" : "FD_ART", "begin" : 5, "end" : 5, "weight" : 0.315563, "common_noun" : 0},
		{"id" : 3, "text" : "1999년", "type" : "DT_YEAR", "begin" : 16, "end" : 17, "weight" : 0.680541, "common_noun" : 0},
		{"id" : 4, "text" : "대원씨아이", "type" : "OGG_ECONOMY", "begin" : 20, "end" : 20, "weight" : 0.429774, "common_noun" : 0},
		{"id" : 5, "text" : "2000년", "type" : "DT_YEAR", "begin" : 32, "end" : 33, "weight" : 0.526743, "common_noun" : 0},
		{"id" : 6, "text" : "만화", "type" : "FD_ART", "begin" : 35, "end" : 35, "weight" : 0.244334, "common_noun" : 0},
		{"id" : 7, "text" : "불면증", "type" : "TMM_DISEASE", "begin" : 36, "end" : 37, "weight" : 0.413783, "common_noun" : 0}
	],
	"chunk" : [
	],
	"dependency" : [
		{"id" : 0, "text" : "1998년", "head" : 6, "label" : "NP_AJT", "mod" : [], "weight" : 0.718621 },
		{"id" : 1, "text" : "학산문화사", "head" : 2, "label" : "NP", "mod" : [], "weight" : 0.521454 },
		{"id" : 2, "text" : "만화잡지", "head" : 3, "label" : "NP", "mod" : [1], "weight" : 0.607598 },
		{"id" : 3, "text" : "월간", "head" : 4, "label" : "NP", "mod" : [2], "weight" : 0.959534 },
		{"id" : 4, "text" : "파티에", "head" : 6, "label" : "NP_AJT", "mod" : [3], "weight" : 0.763706 },
		{"id" : 5, "text" : "스위티젬을", "head" : 6, "label" : "NP_OBJ", "mod" : [], "weight" : 0.610355 },
		{"id" : 6, "text" : "연재했고", "head" : 12, "label" : "VP", "mod" : [0, 4, 5], "weight" : 0.780782 },
		{"id" : 7, "text" : "1999년에는", "head" : 12, "label" : "NP_AJT", "mod" : [], "weight" : 0.907914 },
		{"id" : 8, "text" : "대원씨아이의", "head" : 10, "label" : "NP_MOD", "mod" : [], "weight" : 0.896721 },
		{"id" : 9, "text" : "잡지", "head" : 10, "label" : "NP", "mod" : [], "weight" : 0.869684 },
		{"id" : 10, "text" : "이슈에", "head" : 12, "label" : "NP_AJT", "mod" : [8, 9], "weight" : 0.7591 },
		{"id" : 11, "text" : "다정다감을", "head" : 12, "label" : "NP_OBJ", "mod" : [], "weight" : 0.687363 },
		{"id" : 12, "text" : "연재했으며", "head" : 16, "label" : "VP", "mod" : [6, 7, 10, 11], "weight" : 0.638858 },
		{"id" : 13, "text" : "2000년에", "head" : 16, "label" : "NP_AJT", "mod" : [], "weight" : 0.699789 },
		{"id" : 14, "text" : "만화", "head" : 15, "label" : "NP", "mod" : [], "weight" : 0.650224 },
		{"id" : 15, "text" : "불면증을", "head" : 16, "label" : "NP_OBJ", "mod" : [14], "weight" : 0.566193 },
		{"id" : 16, "text" : "연재하였다.", "head" : -1, "label" : "VP", "mod" : [12, 13, 15], "weight" : 0.00269769 }
	],
	"SRL" : [
		{"verb" : "연재", "sense" : 1, "word_id" : 6, "weight" : 0.397057,
			"argument" : [
				{"type" : "ARG1", "word_id" : 5, "text" : "스위티젬을", "weight" : 0.397057 }
			] },
		{"verb" : "연재", "sense" : 1, "word_id" : 12, "weight" : 0.236347,
			"argument" : [
				{"type" : "ARGM-TMP", "word_id" : 7, "text" : "1999년에는", "weight" : 0.286439 },
				{"type" : "ARG2", "word_id" : 10, "text" : "이슈에", "weight" : 0.093772 },
				{"type" : "ARG1", "word_id" : 11, "text" : "다정다감을", "weight" : 0.328831 }
			] },
		{"verb" : "연재", "sense" : 1, "word_id" : 16, "weight" : 0.15962,
			"argument" : [
				{"type" : "ARGM-TMP", "word_id" : 13, "text" : "2000년에", "weight" : 0.137899 },
				{"type" : "ARG1", "word_id" : 15, "text" : "불면증을", "weight" : 0.181341 }
			] }
	],
	"relation" : [
	],
	"SA" : [
	],
	"ZA" : [
		{"id" : 0, "verb_wid" : 6, "ant_sid" : -1, "ant_wid" : -1, "type" : "s", "istitle" : 0, "weight" : 0.510168 },
		{"id" : 1, "verb_wid" : 12, "ant_sid" : -1, "ant_wid" : -1, "type" : "s", "istitle" : 0, "weight" : 0.499804 },
		{"id" : 2, "verb_wid" : 16, "ant_sid" : -1, "ant_wid" : -1, "type" : "s", "istitle" : 0, "weight" : 0.441367 }
	]
	},
	{
	"id" : 3,
	"reserve_str" : "",
	"text" : "이외에도 버드 키스, 방울공주, 녹턴이 있으며 현재 파티에 방울공주, 이슈에 녹턴을 연재하고 있다.",
	"morp" : [
		{"id" : 0, "lemma" : "이외", "type" : "NNG", "position" : 388, "weight" : 0.9 },
		{"id" : 1, "lemma" : "에", "type" : "JKB", "position" : 394, "weight" : 0.153364 },
		{"id" : 2, "lemma" : "도", "type" : "JX", "position" : 397, "weight" : 0.0912297 },
		{"id" : 3, "lemma" : "버드", "type" : "NNG", "position" : 401, "weight" : 0.0565081 },
		{"id" : 4, "lemma" : "키스", "type" : "NNG", "position" : 408, "weight" : 0.180777 },
		{"id" : 5, "lemma" : ",", "type" : "SP", "position" : 414, "weight" : 1 },
		{"id" : 6, "lemma" : "방울", "type" : "NNG", "position" : 416, "weight" : 0.9 },
		{"id" : 7, "lemma" : "공주", "type" : "NNG", "position" : 422, "weight" : 0.130893 },
		{"id" : 8, "lemma" : ",", "type" : "SP", "position" : 428, "weight" : 1 },
		{"id" : 9, "lemma" : "녹턴", "type" : "NNG", "position" : 430, "weight" : 0.1772 },
		{"id" : 10, "lemma" : "이", "type" : "JKS", "position" : 436, "weight" : 0.0360723 },
		{"id" : 11, "lemma" : "있", "type" : "VA", "position" : 440, "weight" : 0.12767 },
		{"id" : 12, "lemma" : "으며", "type" : "EC", "position" : 443, "weight" : 0.321076 },
		{"id" : 13, "lemma" : "현재", "type" : "MAG", "position" : 450, "weight" : 0.0283089 },
		{"id" : 14, "lemma" : "파티", "type" : "NNG", "position" : 457, "weight" : 0.260575 },
		{"id" : 15, "lemma" : "에", "type" : "JKB", "position" : 463, "weight" : 0.153364 },
		{"id" : 16, "lemma" : "방울", "type" : "NNG", "position" : 467, "weight" : 0.9 },
		{"id" : 17, "lemma" : "공주", "type" : "NNG", "position" : 473, "weight" : 0.130893 },
		{"id" : 18, "lemma" : ",", "type" : "SP", "position" : 479, "weight" : 1 },
		{"id" : 19, "lemma" : "이슈", "type" : "NNG", "position" : 481, "weight" : 0.525489 },
		{"id" : 20, "lemma" : "에", "type" : "JKB", "position" : 487, "weight" : 0.153364 },
		{"id" : 21, "lemma" : "녹턴", "type" : "NNG", "position" : 491, "weight" : 0.0693487 },
		{"id" : 22, "lemma" : "을", "type" : "JKO", "position" : 497, "weight" : 0.129611 },
		{"id" : 23, "lemma" : "연재", "type" : "NNG", "position" : 501, "weight" : 0.0975025 },
		{"id" : 24, "lemma" : "하", "type" : "XSV", "position" : 507, "weight" : 0.0001 },
		{"id" : 25, "lemma" : "고", "type" : "EC", "position" : 510, "weight" : 0.359917 },
		{"id" : 26, "lemma" : "있", "type" : "VX", "position" : 514, "weight" : 0.125953 },
		{"id" : 27, "lemma" : "다", "type" : "EF", "position" : 517, "weight" : 0.180366 },
		{"id" : 28, "lemma" : ".", "type" : "SF", "position" : 520, "weight" : 1 }
	],
	"morp_eval" : [
		{"id" : 0, "result" : "이외/NNG+에/JKB+도/JX", "target" : "이외에도", "word_id" : 0, "m_begin" : 0, "m_end" : 2},
		{"id" : 1, "result" : "버드/NNG", "target" : "버드", "word_id" : 1, "m_begin" : 3, "m_end" : 3},
		{"id" : 2, "result" : "키스/NNG+,/SP", "target" : "키스,", "word_id" : 2, "m_begin" : 4, "m_end" : 5},
		{"id" : 3, "result" : "방울공주/NNG+,/SP", "target" : "방울공주,", "word_id" : 3, "m_begin" : 6, "m_end" : 8},
		{"id" : 4, "result" : "녹턴/NNG+이/JKS", "target" : "녹턴이", "word_id" : 4, "m_begin" : 9, "m_end" : 10},
		{"id" : 5, "result" : "있/VA+으며/EC", "target" : "있으며", "word_id" : 5, "m_begin" : 11, "m_end" : 12},
		{"id" : 6, "result" : "현재/MAG", "target" : "현재", "word_id" : 6, "m_begin" : 13, "m_end" : 13},
		{"id" : 7, "result" : "파티/NNG+에/JKB", "target" : "파티에", "word_id" : 7, "m_begin" : 14, "m_end" : 15},
		{"id" : 8, "result" : "방울공주/NNG+,/SP", "target" : "방울공주,", "word_id" : 8, "m_begin" : 16, "m_end" : 18},
		{"id" : 9, "result" : "이슈/NNG+에/JKB", "target" : "이슈에", "word_id" : 9, "m_begin" : 19, "m_end" : 20},
		{"id" : 10, "result" : "녹턴/NNG+을/JKO", "target" : "녹턴을", "word_id" : 10, "m_begin" : 21, "m_end" : 22},
		{"id" : 11, "result" : "연재하/VV+고/EC", "target" : "연재하고", "word_id" : 11, "m_begin" : 23, "m_end" : 25},
		{"id" : 12, "result" : "있/VX+다/EF+./SF", "target" : "있다.", "word_id" : 12, "m_begin" : 26, "m_end" : 28}
	],
	"WSD" : [
		{"id" : 0, "text" : "이외", "type" : "NNG", "scode" : "01", "weight" : 1, "position" : 388, "begin" : 0, "end" : 0},
		{"id" : 1, "text" : "에", "type" : "JKB", "scode" : "00", "weight" : 1, "position" : 394, "begin" : 1, "end" : 1},
		{"id" : 2, "text" : "도", "type" : "JX", "scode" : "00", "weight" : 1, "position" : 397, "begin" : 2, "end" : 2},
		{"id" : 3, "text" : "버드", "type" : "NNG", "scode" : "00", "weight" : 1, "position" : 401, "begin" : 3, "end" : 3},
		{"id" : 4, "text" : "키스", "type" : "NNG", "scode" : "00", "weight" : 1, "position" : 408, "begin" : 4, "end" : 4},
		{"id" : 5, "text" : ",", "type" : "SP", "scode" : "00", "weight" : 1, "position" : 414, "begin" : 5, "end" : 5},
		{"id" : 6, "text" : "방울", "type" : "NNG", "scode" : "01", "weight" : 1, "position" : 416, "begin" : 6, "end" : 6},
		{"id" : 7, "text" : "공주", "type" : "NNG", "scode" : "01", "weight" : 1, "position" : 422, "begin" : 7, "end" : 7},
		{"id" : 8, "text" : ",", "type" : "SP", "scode" : "00", "weight" : 1, "position" : 428, "begin" : 8, "end" : 8},
		{"id" : 9, "text" : "녹턴", "type" : "NNG", "scode" : "00", "weight" : 1, "position" : 430, "begin" : 9, "end" : 9},
		{"id" : 10, "text" : "이", "type" : "JKS", "scode" : "00", "weight" : 1, "position" : 436, "begin" : 10, "end" : 10},
		{"id" : 11, "text" : "있", "type" : "VA", "scode" : "01", "weight" : 1, "position" : 440, "begin" : 11, "end" : 11},
		{"id" : 12, "text" : "으며", "type" : "EC", "scode" : "00", "weight" : 1, "position" : 443, "begin" : 12, "end" : 12},
		{"id" : 13, "text" : "현재", "type" : "MAG", "scode" : "02", "weight" : 1, "position" : 450, "begin" : 13, "end" : 13},
		{"id" : 14, "text" : "파티", "type" : "NNG", "scode" : "00", "weight" : 1, "position" : 457, "begin" : 14, "end" : 14},
		{"id" : 15, "text" : "에", "type" : "JKB", "scode" : "00", "weight" : 1, "position" : 463, "begin" : 15, "end" : 15},
		{"id" : 16, "text" : "방울", "type" : "NNG", "scode" : "01", "weight" : 1, "position" : 467, "begin" : 16, "end" : 16},
		{"id" : 17, "text" : "공주", "type" : "NNG", "scode" : "01", "weight" : 1, "position" : 473, "begin" : 17, "end" : 17},
		{"id" : 18, "text" : ",", "type" : "SP", "scode" : "00", "weight" : 1, "position" : 479, "begin" : 18, "end" : 18},
		{"id" : 19, "text" : "이슈", "type" : "NNG", "scode" : "00", "weight" : 1, "position" : 481, "begin" : 19, "end" : 19},
		{"id" : 20, "text" : "에", "type" : "JKB", "scode" : "00", "weight" : 1, "position" : 487, "begin" : 20, "end" : 20},
		{"id" : 21, "text" : "녹턴", "type" : "NNG", "scode" : "00", "weight" : 1, "position" : 491, "begin" : 21, "end" : 21},
		{"id" : 22, "text" : "을", "type" : "JKO", "scode" : "00", "weight" : 1, "position" : 497, "begin" : 22, "end" : 22},
		{"id" : 23, "text" : "연재하", "type" : "VV", "scode" : "00", "weight" : 1, "position" : 501, "begin" : 23, "end" : 24},
		{"id" : 24, "text" : "고", "type" : "EC", "scode" : "00", "weight" : 1, "position" : 510, "begin" : 25, "end" : 25},
		{"id" : 25, "text" : "있", "type" : "VX", "scode" : "01", "weight" : 1, "position" : 514, "begin" : 26, "end" : 26},
		{"id" : 26, "text" : "다", "type" : "EF", "scode" : "00", "weight" : 1, "position" : 517, "begin" : 27, "end" : 27},
		{"id" : 27, "text" : ".", "type" : "SF", "scode" : "00", "weight" : 1, "position" : 520, "begin" : 28, "end" : 28}
	],
	"word" : [
		{"id" : 0, "text" : "이외에도", "type" : "", "begin" : 0, "end" : 2},
		{"id" : 1, "text" : "버드", "type" : "", "begin" : 3, "end" : 3},
		{"id" : 2, "text" : "키스,", "type" : "", "begin" : 4, "end" : 5},
		{"id" : 3, "text" : "방울공주,", "type" : "", "begin" : 6, "end" : 8},
		{"id" : 4, "text" : "녹턴이", "type" : "", "begin" : 9, "end" : 10},
		{"id" : 5, "text" : "있으며", "type" : "", "begin" : 11, "end" : 12},
		{"id" : 6, "text" : "현재", "type" : "", "begin" : 13, "end" : 13},
		{"id" : 7, "text" : "파티에", "type" : "", "begin" : 14, "end" : 15},
		{"id" : 8, "text" : "방울공주,", "type" : "", "begin" : 16, "end" : 18},
		{"id" : 9, "text" : "이슈에", "type" : "", "begin" : 19, "end" : 20},
		{"id" : 10, "text" : "녹턴을", "type" : "", "begin" : 21, "end" : 22},
		{"id" : 11, "text" : "연재하고", "type" : "", "begin" : 23, "end" : 25},
		{"id" : 12, "text" : "있다.", "type" : "", "begin" : 26, "end" : 28}
	],
	"NE" : [
		{"id" : 0, "text" : "버드", "type" : "PS_NAME", "begin" : 3, "end" : 3, "weight" : 0.148743, "common_noun" : 0},
		{"id" : 1, "text" : "방울공주", "type" : "PS_NAME", "begin" : 6, "end" : 7, "weight" : 0.141022, "common_noun" : 0},
		{"id" : 2, "text" : "녹턴", "type" : "TMI_SW", "begin" : 9, "end" : 9, "weight" : 0.16813, "common_noun" : 0}
	],
	"chunk" : [
	],
	"dependency" : [
		{"id" : 0, "text" : "이외에도", "head" : 5, "label" : "NP_AJT", "mod" : [], "weight" : 0.93895 },
		{"id" : 1, "text" : "버드", "head" : 2, "label" : "NP", "mod" : [], "weight" : 0.587717 },
		{"id" : 2, "text" : "키스,", "head" : 4, "label" : "NP_CNJ", "mod" : [1], "weight" : 0.543827 },
		{"id" : 3, "text" : "방울공주,", "head" : 4, "label" : "NP_CNJ", "mod" : [], "weight" : 0.541325 },
		{"id" : 4, "text" : "녹턴이", "head" : 5, "label" : "NP_SBJ", "mod" : [2, 3], "weight" : 0.637023 },
		{"id" : 5, "text" : "있으며", "head" : 11, "label" : "VP", "mod" : [0, 4], "weight" : 0.642341 },
		{"id" : 6, "text" : "현재", "head" : 11, "label" : "AP", "mod" : [], "weight" : 0.54134 },
		{"id" : 7, "text" : "파티에", "head" : 11, "label" : "NP_AJT", "mod" : [], "weight" : 0.588484 },
		{"id" : 8, "text" : "방울공주,", "head" : 9, "label" : "NP_CNJ", "mod" : [], "weight" : 0.637341 },
		{"id" : 9, "text" : "이슈에", "head" : 11, "label" : "NP_AJT", "mod" : [8], "weight" : 0.507821 },
		{"id" : 10, "text" : "녹턴을", "head" : 11, "label" : "NP_OBJ", "mod" : [], "weight" : 0.583331 },
		{"id" : 11, "text" : "연재하고", "head" : 12, "label" : "VP", "mod" : [5, 6, 7, 9, 10], "weight" : 0.51672 },
		{"id" : 12, "text" : "있다.", "head" : -1, "label" : "VP", "mod" : [11], "weight" : 0.00155896 }
	],
	"SRL" : [
		{"verb" : "있", "sense" : 1, "word_id" : 5, "weight" : 0.194904,
			"argument" : [
				{"type" : "ARGM-DIS", "word_id" : 0, "text" : "이외에도", "weight" : 0.0909107 },
				{"type" : "ARG1", "word_id" : 4, "text" : "녹턴이", "weight" : 0.298897 }
			] },
		{"verb" : "연재", "sense" : 1, "word_id" : 11, "weight" : 0.244139,
			"argument" : [
				{"type" : "ARGM-TMP", "word_id" : 6, "text" : "현재", "weight" : 0.217619 },
				{"type" : "ARGM-LOC", "word_id" : 7, "text" : "파티에", "weight" : 0.0915328 },
				{"type" : "ARG2", "word_id" : 9, "text" : "이슈에", "weight" : 0.132846 },
				{"type" : "ARG1", "word_id" : 10, "text" : "녹턴을", "weight" : 0.268064 },
				{"type" : "AUX", "word_id" : 12, "text" : "있다.", "weight" : 0.510635 }
			] }
	],
	"relation" : [
	],
	"SA" : [
	],
	"ZA" : [
		{"id" : 0, "verb_wid" : 11, "ant_sid" : -1, "ant_wid" : -1, "type" : "s", "istitle" : 0, "weight" : 0.544411 }
	]
	},
	{
	"id" : 4,
	"reserve_str" : "",
	"text" : "1남 2녀 중 막내이며 그녀의 언니는 일본만화 번역가로 활동중이다.",
	"morp" : [
		{"id" : 0, "lemma" : "1", "type" : "SN", "position" : 521, "weight" : 1 },
		{"id" : 1, "lemma" : "남", "type" : "NNG", "position" : 522, "weight" : 0.0504342 },
		{"id" : 2, "lemma" : "2", "type" : "SN", "position" : 526, "weight" : 1 },
		{"id" : 3, "lemma" : "녀", "type" : "NNG", "position" : 527, "weight" : 0.0813956 },
		{"id" : 4, "lemma" : "중", "type" : "NNB", "position" : 531, "weight" : 0.013531 },
		{"id" : 5, "lemma" : "막내", "type" : "NNG", "position" : 535, "weight" : 0.9 },
		{"id" : 6, "lemma" : "이", "type" : "VCP", "position" : 541, "weight" : 0.0177525 },
		{"id" : 7, "lemma" : "며", "type" : "EC", "position" : 544, "weight" : 0.250555 },
		{"id" : 8, "lemma" : "그녀", "type" : "NP", "position" : 548, "weight" : 0.9 },
		{"id" : 9, "lemma" : "의", "type" : "JKG", "position" : 554, "weight" : 0.134696 },
		{"id" : 10, "lemma" : "언니", "type" : "NNG", "position" : 558, "weight" : 0.9 },
		{"id" : 11, "lemma" : "는", "type" : "JX", "position" : 564, "weight" : 0.0287565 },
		{"id" : 12, "lemma" : "일본", "type" : "NNP", "position" : 568, "weight" : 0.044866 },
		{"id" : 13, "lemma" : "만화", "type" : "NNG", "position" : 574, "weight" : 0.271325 },
		{"id" : 14, "lemma" : "번역", "type" : "NNG", "position" : 581, "weight" : 0.9 },
		{"id" : 15, "lemma" : "가", "type" : "XSN", "position" : 587, "weight" : 0.000115417 },
		{"id" : 16, "lemma" : "로", "type" : "JKB", "position" : 590, "weight" : 0.121577 },
		{"id" : 17, "lemma" : "활동", "type" : "NNG", "position" : 594, "weight" : 0.9 },
		{"id" : 18, "lemma" : "중", "type" : "NNB", "position" : 600, "weight" : 0.013531 },
		{"id" : 19, "lemma" : "이", "type" : "VCP", "position" : 603, "weight" : 0.0607843 },
		{"id" : 20, "lemma" : "다", "type" : "EF", "position" : 606, "weight" : 0.353579 },
		{"id" : 21, "lemma" : ".", "type" : "SF", "position" : 609, "weight" : 1 }
	],
	"morp_eval" : [
		{"id" : 0, "result" : "1/SN+남/NNG", "target" : "1남", "word_id" : 0, "m_begin" : 0, "m_end" : 1},
		{"id" : 1, "result" : "2/SN+녀/NNG", "target" : "2녀", "word_id" : 1, "m_begin" : 2, "m_end" : 3},
		{"id" : 2, "result" : "중/NNB", "target" : "중", "word_id" : 2, "m_begin" : 4, "m_end" : 4},
		{"id" : 3, "result" : "막내/NNG+이/VCP+며/EC", "target" : "막내이며", "word_id" : 3, "m_begin" : 5, "m_end" : 7},
		{"id" : 4, "result" : "그녀/NP+의/JKG", "target" : "그녀의", "word_id" : 4, "m_begin" : 8, "m_end" : 9},
		{"id" : 5, "result" : "언니/NNG+는/JX", "target" : "언니는", "word_id" : 5, "m_begin" : 10, "m_end" : 11},
		{"id" : 6, "result" : "일본만화/NNG", "target" : "일본만화", "word_id" : 6, "m_begin" : 12, "m_end" : 13},
		{"id" : 7, "result" : "번역가/NNG+로/JKB", "target" : "번역가로", "word_id" : 7, "m_begin" : 14, "m_end" : 16},
		{"id" : 8, "result" : "활동/NNG+중/NNB+이/VCP+다/EF+./SF", "target" : "활동중이다.", "word_id" : 8, "m_begin" : 17, "m_end" : 21}
	],
	"WSD" : [
		{"id" : 0, "text" : "1", "type" : "SN", "scode" : "00", "weight" : 1, "position" : 521, "begin" : 0, "end" : 0},
		{"id" : 1, "text" : "남", "type" : "NNG", "scode" : "01", "weight" : 1, "position" : 522, "begin" : 1, "end" : 1},
		{"id" : 2, "text" : "2", "type" : "SN", "scode" : "00", "weight" : 1, "position" : 526, "begin" : 2, "end" : 2},
		{"id" : 3, "text" : "녀", "type" : "NNG", "scode" : "01", "weight" : 1, "position" : 527, "begin" : 3, "end" : 3},
		{"id" : 4, "text" : "중", "type" : "NNB", "scode" : "04", "weight" : 1, "position" : 531, "begin" : 4, "end" : 4},
		{"id" : 5, "text" : "막내", "type" : "NNG", "scode" : "00", "weight" : 1, "position" : 535, "begin" : 5, "end" : 5},
		{"id" : 6, "text" : "이", "type" : "VCP", "scode" : "00", "weight" : 1, "position" : 541, "begin" : 6, "end" : 6},
		{"id" : 7, "text" : "며", "type" : "EC", "scode" : "00", "weight" : 1, "position" : 544, "begin" : 7, "end" : 7},
		{"id" : 8, "text" : "그녀", "type" : "NP", "scode" : "00", "weight" : 1, "position" : 548, "begin" : 8, "end" : 8},
		{"id" : 9, "text" : "의", "type" : "JKG", "scode" : "00", "weight" : 1, "position" : 554, "begin" : 9, "end" : 9},
		{"id" : 10, "text" : "언니", "type" : "NNG", "scode" : "00", "weight" : 1, "position" : 558, "begin" : 10, "end" : 10},
		{"id" : 11, "text" : "는", "type" : "JX", "scode" : "00", "weight" : 1, "position" : 564, "begin" : 11, "end" : 11},
		{"id" : 12, "text" : "일본", "type" : "NNP", "scode" : "02", "weight" : 1, "position" : 568, "begin" : 12, "end" : 12},
		{"id" : 13, "text" : "만화", "type" : "NNG", "scode" : "10", "weight" : 1, "position" : 574, "begin" : 13, "end" : 13},
		{"id" : 14, "text" : "번역가", "type" : "NNG", "scode" : "00", "weight" : 1, "position" : 581, "begin" : 14, "end" : 15},
		{"id" : 15, "text" : "로", "type" : "JKB", "scode" : "00", "weight" : 1, "position" : 590, "begin" : 16, "end" : 16},
		{"id" : 16, "text" : "활동", "type" : "NNG", "scode" : "02", "weight" : 1, "position" : 594, "begin" : 17, "end" : 17},
		{"id" : 17, "text" : "중", "type" : "NNB", "scode" : "04", "weight" : 1, "position" : 600, "begin" : 18, "end" : 18},
		{"id" : 18, "text" : "이", "type" : "VCP", "scode" : "00", "weight" : 1, "position" : 603, "begin" : 19, "end" : 19},
		{"id" : 19, "text" : "다", "type" : "EF", "scode" : "00", "weight" : 1, "position" : 606, "begin" : 20, "end" : 20},
		{"id" : 20, "text" : ".", "type" : "SF", "scode" : "00", "weight" : 1, "position" : 609, "begin" : 21, "end" : 21}
	],
	"word" : [
		{"id" : 0, "text" : "1남", "type" : "", "begin" : 0, "end" : 1},
		{"id" : 1, "text" : "2녀", "type" : "", "begin" : 2, "end" : 3},
		{"id" : 2, "text" : "중", "type" : "", "begin" : 4, "end" : 4},
		{"id" : 3, "text" : "막내이며", "type" : "", "begin" : 5, "end" : 7},
		{"id" : 4, "text" : "그녀의", "type" : "", "begin" : 8, "end" : 9},
		{"id" : 5, "text" : "언니는", "type" : "", "begin" : 10, "end" : 11},
		{"id" : 6, "text" : "일본만화", "type" : "", "begin" : 12, "end" : 13},
		{"id" : 7, "text" : "번역가로", "type" : "", "begin" : 14, "end" : 16},
		{"id" : 8, "text" : "활동중이다.", "type" : "", "begin" : 17, "end" : 21}
	],
	"NE" : [
		{"id" : 0, "text" : "1남 2녀", "type" : "QT_OTHERS", "begin" : 0, "end" : 3, "weight" : 0.321937, "common_noun" : 0},
		{"id" : 1, "text" : "막내", "type" : "CV_RELATION", "begin" : 5, "end" : 5, "weight" : 0.312305, "common_noun" : 0},
		{"id" : 2, "text" : "언니", "type" : "CV_RELATION", "begin" : 10, "end" : 10, "weight" : 0.365068, "common_noun" : 0},
		{"id" : 3, "text" : "일본만화", "type" : "FD_ART", "begin" : 12, "end" : 13, "weight" : 0.133508, "common_noun" : 0},
		{"id" : 4, "text" : "번역가", "type" : "CV_OCCUPATION", "begin" : 14, "end" : 15, "weight" : 0.318266, "common_noun" : 0}
	],
	"chunk" : [
	],
	"dependency" : [
		{"id" : 0, "text" : "1남", "head" : 1, "label" : "NP", "mod" : [], "weight" : 0.753776 },
		{"id" : 1, "text" : "2녀", "head" : 2, "label" : "NP", "mod" : [0], "weight" : 0.998729 },
		{"id" : 2, "text" : "중", "head" : 3, "label" : "NP", "mod" : [1], "weight" : 0.600297 },
		{"id" : 3, "text" : "막내이며", "head" : 8, "label" : "VNP", "mod" : [2], "weight" : 0.679629 },
		{"id" : 4, "text" : "그녀의", "head" : 5, "label" : "NP_MOD", "mod" : [], "weight" : 0.88331 },
		{"id" : 5, "text" : "언니는", "head" : 8, "label" : "NP_SBJ", "mod" : [4], "weight" : 0.629174 },
		{"id" : 6, "text" : "일본만화", "head" : 7, "label" : "NP", "mod" : [], "weight" : 0.75978 },
		{"id" : 7, "text" : "번역가로", "head" : 8, "label" : "NP_AJT", "mod" : [6], "weight" : 0.565158 },
		{"id" : 8, "text" : "활동중이다.", "head" : -1, "label" : "VNP", "mod" : [3, 5, 7], "weight" : 0.0369505 }
	],
	"SRL" : [
	],
	"relation" : [
	],
	"SA" : [
	],
	"ZA" : [
		{"id" : 0, "verb_wid" : 3, "ant_sid" : -1, "ant_wid" : -1, "type" : "s", "istitle" : 0, "weight" : 0.528747 }
	]
	}
 ],
 "entity" : [
	{"id" : 0, "type" : "", "number" : "singular", "gender" : "", "person" : "", "animacy" : "", "loc" : "", 
	 "mention" : [
		{"id" : 11, "sent_id" : 2, "start_eid" : 1, "end_eid" : 4, "ne_id" : -1, "text" : "학산문화사 만화잡지 월간 파티", "start_eid_short" : 1, "end_eid_short" : 4, "text_short" : "학산문화사 만화잡지 월간 파티", "weight" : 0.006 },
		{"id" : 29, "sent_id" : 3, "start_eid" : 7, "end_eid" : 7, "ne_id" : -1, "text" : "파티", "start_eid_short" : 7, "end_eid_short" : 7, "text_short" : "파티", "weight" : 0.01 }
	] },
	{"id" : 1, "type" : "FD_ART", "number" : "singular", "gender" : "", "person" : "", "animacy" : "", "loc" : "", 
	 "mention" : [
		{"id" : 23, "sent_id" : 2, "start_eid" : 14, "end_eid" : 14, "ne_id" : 6, "text" : "만화", "start_eid_short" : 14, "end_eid_short" : 14, "text_short" : "만화", "weight" : 0.003 },
		{"id" : 13, "sent_id" : 2, "start_eid" : 1, "end_eid" : 2, "ne_id" : 2, "text" : "학산문화사 만화잡지", "start_eid_short" : 1, "end_eid_short" : 2, "text_short" : "학산문화사 만화잡지", "weight" : 0.002 }
	] },
	{"id" : 2, "type" : "", "number" : "singular", "gender" : "", "person" : "", "animacy" : "", "loc" : "", 
	 "mention" : [
		{"id" : 17, "sent_id" : 2, "start_eid" : 8, "end_eid" : 10, "ne_id" : -1, "text" : "대원씨아이의 잡지 이슈", "start_eid_short" : 8, "end_eid_short" : 10, "text_short" : "대원씨아이의 잡지 이슈", "weight" : 0.006 },
		{"id" : 32, "sent_id" : 3, "start_eid" : 9, "end_eid" : 9, "ne_id" : -1, "text" : "이슈", "start_eid_short" : 9, "end_eid_short" : 9, "text_short" : "이슈", "weight" : 0.01 }
	] },
	{"id" : 3, "type" : "PS_NAME", "number" : "singular", "gender" : "", "person" : "", "animacy" : "", "loc" : "", 
	 "mention" : [
		{"id" : 27, "sent_id" : 3, "start_eid" : 1, "end_eid" : 1, "ne_id" : 0, "text" : "버드", "start_eid_short" : 1, "end_eid_short" : 1, "text_short" : "버드", "weight" : 0.002 },
		{"id" : 37, "sent_id" : 4, "start_eid" : 4, "end_eid" : 4, "ne_id" : -1, "text" : "그녀", "start_eid_short" : 4, "end_eid_short" : 4, "text_short" : "그녀", "weight" : 0.006 }
	] },
	{"id" : 4, "type" : "PS_NAME", "number" : "singular", "gender" : "", "person" : "", "animacy" : "", "loc" : "", 
	 "mention" : [
		{"id" : 28, "sent_id" : 3, "start_eid" : 3, "end_eid" : 3, "ne_id" : 1, "text" : "방울공주", "start_eid_short" : 3, "end_eid_short" : 3, "text_short" : "방울공주,", "weight" : 0.01 },
		{"id" : 31, "sent_id" : 3, "start_eid" : 8, "end_eid" : 8, "ne_id" : -1, "text" : "방울공주", "start_eid_short" : 8, "end_eid_short" : 8, "text_short" : "방울공주,", "weight" : 0.016 }
	] }
 ]
}

