{"doc_id" : "",
 "DCT" : "",
 "category" : "",
 "category_weight" : 0,
 "title" : {"text" : "", "NE" : ""},
 "metaInfo" : { },
 "sentence" : [
	{
	"id" : 0,
	"reserve_str" : "",
	"text" : "﻿조선 중기인 16세기부터 지방의 특산물을 바치던 공납에서 여러 가지 폐단이 생겨났다. ",
	"morp" : [
		{"id" : 0, "lemma" : "﻿", "type" : "NNP", "position" : 0, "weight" : 0.6 },
		{"id" : 1, "lemma" : "조선", "type" : "NNP", "position" : 3, "weight" : 0.0796816 },
		{"id" : 2, "lemma" : "중기", "type" : "NNG", "position" : 10, "weight" : 0.279669 },
		{"id" : 3, "lemma" : "이", "type" : "VCP", "position" : 16, "weight" : 0.0177525 },
		{"id" : 4, "lemma" : "ㄴ", "type" : "ETM", "position" : 16, "weight" : 0.220712 },
		{"id" : 5, "lemma" : "16", "type" : "SN", "position" : 20, "weight" : 1 },
		{"id" : 6, "lemma" : "세기", "type" : "NNG", "position" : 22, "weight" : 0.100259 },
		{"id" : 7, "lemma" : "부터", "type" : "JX", "position" : 28, "weight" : 0.0688504 },
		{"id" : 8, "lemma" : "지방", "type" : "NNG", "position" : 35, "weight" : 0.9 },
		{"id" : 9, "lemma" : "의", "type" : "JKG", "position" : 41, "weight" : 0.0694213 },
		{"id" : 10, "lemma" : "특산", "type" : "NNG", "position" : 45, "weight" : 0.9 },
		{"id" : 11, "lemma" : "물", "type" : "XSN", "position" : 51, "weight" : 0.00142289 },
		{"id" : 12, "lemma" : "을", "type" : "JKO", "position" : 54, "weight" : 0.0819193 },
		{"id" : 13, "lemma" : "바치", "type" : "VV", "position" : 58, "weight" : 0.777706 },
		{"id" : 14, "lemma" : "던", "type" : "ETM", "position" : 64, "weight" : 0.317449 },
		{"id" : 15, "lemma" : "공납", "type" : "NNG", "position" : 68, "weight" : 0.85 },
		{"id" : 16, "lemma" : "에서", "type" : "JKB", "position" : 74, "weight" : 0.153407 },
		{"id" : 17, "lemma" : "여러", "type" : "MM", "position" : 81, "weight" : 0.9 },
		{"id" : 18, "lemma" : "가지", "type" : "NNB", "position" : 88, "weight" : 0.0671689 },
		{"id" : 19, "lemma" : "폐단", "type" : "NNG", "position" : 95, "weight" : 0.9 },
		{"id" : 20, "lemma" : "이", "type" : "JKS", "position" : 101, "weight" : 0.0360723 },
		{"id" : 21, "lemma" : "생겨나", "type" : "VV", "position" : 105, "weight" : 0.9 },
		{"id" : 22, "lemma" : "았", "type" : "EP", "position" : 111, "weight" : 0.9 },
		{"id" : 23, "lemma" : "다", "type" : "EF", "position" : 114, "weight" : 0.640954 },
		{"id" : 24, "lemma" : ".", "type" : "SF", "position" : 117, "weight" : 1 }
	],
	"morp_eval" : [
		{"id" : 0, "result" : "﻿조선/NNG", "target" : "﻿조선", "word_id" : 0, "m_begin" : 0, "m_end" : 1},
		{"id" : 1, "result" : "중기/NNG+이/VCP+ㄴ/ETM", "target" : "중기인", "word_id" : 1, "m_begin" : 2, "m_end" : 4},
		{"id" : 2, "result" : "16/SN+세기/NNG+부터/JX", "target" : "16세기부터", "word_id" : 2, "m_begin" : 5, "m_end" : 7},
		{"id" : 3, "result" : "지방/NNG+의/JKG", "target" : "지방의", "word_id" : 3, "m_begin" : 8, "m_end" : 9},
		{"id" : 4, "result" : "특산물/NNG+을/JKO", "target" : "특산물을", "word_id" : 4, "m_begin" : 10, "m_end" : 12},
		{"id" : 5, "result" : "바치/VV+던/ETM", "target" : "바치던", "word_id" : 5, "m_begin" : 13, "m_end" : 14},
		{"id" : 6, "result" : "공납/NNG+에서/JKB", "target" : "공납에서", "word_id" : 6, "m_begin" : 15, "m_end" : 16},
		{"id" : 7, "result" : "여러/MM", "target" : "여러", "word_id" : 7, "m_begin" : 17, "m_end" : 17},
		{"id" : 8, "result" : "가지/NNB", "target" : "가지", "word_id" : 8, "m_begin" : 18, "m_end" : 18},
		{"id" : 9, "result" : "폐단/NNG+이/JKS", "target" : "폐단이", "word_id" : 9, "m_begin" : 19, "m_end" : 20},
		{"id" : 10, "result" : "생겨나/VV+었/EP+다/EF+./SF", "target" : "생겨났다.", "word_id" : 10, "m_begin" : 21, "m_end" : 24}
	],
	"WSD" : [
		{"id" : 0, "text" : "﻿", "type" : "NNP", "scode" : "00", "weight" : 0, "position" : 0, "begin" : 0, "end" : 0},
		{"id" : 1, "text" : "조선", "type" : "NNP", "scode" : "05", "weight" : 1, "position" : 3, "begin" : 1, "end" : 1},
		{"id" : 2, "text" : "중기", "type" : "NNG", "scode" : "03", "weight" : 1, "position" : 10, "begin" : 2, "end" : 2},
		{"id" : 3, "text" : "이", "type" : "VCP", "scode" : "00", "weight" : 1, "position" : 16, "begin" : 3, "end" : 3},
		{"id" : 4, "text" : "ㄴ", "type" : "ETM", "scode" : "00", "weight" : 1, "position" : 16, "begin" : 4, "end" : 4},
		{"id" : 5, "text" : "16", "type" : "SN", "scode" : "00", "weight" : 1, "position" : 20, "begin" : 5, "end" : 5},
		{"id" : 6, "text" : "세기", "type" : "NNG", "scode" : "03", "weight" : 1, "position" : 22, "begin" : 6, "end" : 6},
		{"id" : 7, "text" : "부터", "type" : "JX", "scode" : "00", "weight" : 1, "position" : 28, "begin" : 7, "end" : 7},
		{"id" : 8, "text" : "지방", "type" : "NNG", "scode" : "05", "weight" : 1, "position" : 35, "begin" : 8, "end" : 8},
		{"id" : 9, "text" : "의", "type" : "JKG", "scode" : "00", "weight" : 1, "position" : 41, "begin" : 9, "end" : 9},
		{"id" : 10, "text" : "특산물", "type" : "NNG", "scode" : "00", "weight" : 1, "position" : 45, "begin" : 10, "end" : 11},
		{"id" : 11, "text" : "을", "type" : "JKO", "scode" : "00", "weight" : 1, "position" : 54, "begin" : 12, "end" : 12},
		{"id" : 12, "text" : "바치", "type" : "VV", "scode" : "01", "weight" : 1, "position" : 58, "begin" : 13, "end" : 13},
		{"id" : 13, "text" : "던", "type" : "ETM", "scode" : "00", "weight" : 1, "position" : 64, "begin" : 14, "end" : 14},
		{"id" : 14, "text" : "공납", "type" : "NNG", "scode" : "02", "weight" : 1, "position" : 68, "begin" : 15, "end" : 15},
		{"id" : 15, "text" : "에서", "type" : "JKB", "scode" : "00", "weight" : 1, "position" : 74, "begin" : 16, "end" : 16},
		{"id" : 16, "text" : "여러", "type" : "MM", "scode" : "00", "weight" : 1, "position" : 81, "begin" : 17, "end" : 17},
		{"id" : 17, "text" : "가지", "type" : "NNB", "scode" : "04", "weight" : 1, "position" : 88, "begin" : 18, "end" : 18},
		{"id" : 18, "text" : "폐단", "type" : "NNG", "scode" : "00", "weight" : 1, "position" : 95, "begin" : 19, "end" : 19},
		{"id" : 19, "text" : "이", "type" : "JKS", "scode" : "00", "weight" : 1, "position" : 101, "begin" : 20, "end" : 20},
		{"id" : 20, "text" : "생겨나", "type" : "VV", "scode" : "00", "weight" : 1, "position" : 105, "begin" : 21, "end" : 21},
		{"id" : 21, "text" : "았", "type" : "EP", "scode" : "00", "weight" : 1, "position" : 111, "begin" : 22, "end" : 22},
		{"id" : 22, "text" : "다", "type" : "EF", "scode" : "00", "weight" : 1, "position" : 114, "begin" : 23, "end" : 23},
		{"id" : 23, "text" : ".", "type" : "SF", "scode" : "00", "weight" : 1, "position" : 117, "begin" : 24, "end" : 24}
	],
	"word" : [
		{"id" : 0, "text" : "﻿조선", "type" : "", "begin" : 0, "end" : 1},
		{"id" : 1, "text" : "중기인", "type" : "", "begin" : 2, "end" : 4},
		{"id" : 2, "text" : "16세기부터", "type" : "", "begin" : 5, "end" : 7},
		{"id" : 3, "text" : "지방의", "type" : "", "begin" : 8, "end" : 9},
		{"id" : 4, "text" : "특산물을", "type" : "", "begin" : 10, "end" : 12},
		{"id" : 5, "text" : "바치던", "type" : "", "begin" : 13, "end" : 14},
		{"id" : 6, "text" : "공납에서", "type" : "", "begin" : 15, "end" : 16},
		{"id" : 7, "text" : "여러", "type" : "", "begin" : 17, "end" : 17},
		{"id" : 8, "text" : "가지", "type" : "", "begin" : 18, "end" : 18},
		{"id" : 9, "text" : "폐단이", "type" : "", "begin" : 19, "end" : 20},
		{"id" : 10, "text" : "생겨났다.", "type" : "", "begin" : 21, "end" : 24}
	],
	"NE" : [
		{"id" : 0, "text" : "조선 중기", "type" : "DT_DYNASTY", "begin" : 1, "end" : 2, "weight" : 0.76399, "common_noun" : 0},
		{"id" : 1, "text" : "16세기부터", "type" : "DT_OTHERS", "begin" : 5, "end" : 7, "weight" : 0.541221, "common_noun" : 0}
	],
	"chunk" : [
	],
	"dependency" : [
		{"id" : 0, "text" : "﻿조선", "head" : 1, "label" : "NP", "mod" : [], "weight" : 0.749051 },
		{"id" : 1, "text" : "중기인", "head" : 2, "label" : "VNP_MOD", "mod" : [0], "weight" : 0.596994 },
		{"id" : 2, "text" : "16세기부터", "head" : 5, "label" : "NP_AJT", "mod" : [1], "weight" : 0.602752 },
		{"id" : 3, "text" : "지방의", "head" : 4, "label" : "NP_MOD", "mod" : [], "weight" : 0.809457 },
		{"id" : 4, "text" : "특산물을", "head" : 5, "label" : "NP_OBJ", "mod" : [3], "weight" : 0.998834 },
		{"id" : 5, "text" : "바치던", "head" : 6, "label" : "VP_MOD", "mod" : [2, 4], "weight" : 0.932528 },
		{"id" : 6, "text" : "공납에서", "head" : 10, "label" : "NP_AJT", "mod" : [5], "weight" : 0.806015 },
		{"id" : 7, "text" : "여러", "head" : 8, "label" : "DP", "mod" : [], "weight" : 0.801904 },
		{"id" : 8, "text" : "가지", "head" : 9, "label" : "NP", "mod" : [7], "weight" : 0.832507 },
		{"id" : 9, "text" : "폐단이", "head" : 10, "label" : "NP_SBJ", "mod" : [8], "weight" : 0.522653 },
		{"id" : 10, "text" : "생겨났다.", "head" : -1, "label" : "VP", "mod" : [6, 9], "weight" : 0.0382124 }
	],
	"SRL" : [
		{"verb" : "바치", "sense" : 1, "word_id" : 5, "weight" : 0.271754,
			"argument" : [
				{"type" : "ARG1", "word_id" : 4, "text" : "특산물을", "weight" : 0.271754 }
			] },
		{"verb" : "생겨나", "sense" : 1, "word_id" : 10, "weight" : 0.192727,
			"argument" : [
				{"type" : "ARGM-TMP", "word_id" : 2, "text" : "16세기부터", "weight" : 0.223268 },
				{"type" : "ARG2", "word_id" : 6, "text" : "공납에서", "weight" : 0.129729 },
				{"type" : "ARG1", "word_id" : 9, "text" : "폐단이", "weight" : 0.225185 }
			] }
	],
	"relation" : [
	],
	"SA" : [
	],
	"ZA" : [
	]
	},
	{
	"id" : 1,
	"reserve_str" : "",
	"text" : " 공납이란 지방의 특산물을 부담하는 제도인데, 현지에서 생산되지 않는 물품을 공납으로 부과하는 불산과세가 많았다. ",
	"morp" : [
		{"id" : 0, "lemma" : "공납", "type" : "NNG", "position" : 120, "weight" : 0.85 },
		{"id" : 1, "lemma" : "이란", "type" : "JX", "position" : 126, "weight" : 0.0614517 },
		{"id" : 2, "lemma" : "지방", "type" : "NNG", "position" : 133, "weight" : 0.9 },
		{"id" : 3, "lemma" : "의", "type" : "JKG", "position" : 139, "weight" : 0.0694213 },
		{"id" : 4, "lemma" : "특산", "type" : "NNG", "position" : 143, "weight" : 0.9 },
		{"id" : 5, "lemma" : "물", "type" : "XSN", "position" : 149, "weight" : 0.00142289 },
		{"id" : 6, "lemma" : "을", "type" : "JKO", "position" : 152, "weight" : 0.0819193 },
		{"id" : 7, "lemma" : "부담", "type" : "NNG", "position" : 156, "weight" : 0.9 },
		{"id" : 8, "lemma" : "하", "type" : "XSV", "position" : 162, "weight" : 0.0001 },
		{"id" : 9, "lemma" : "는", "type" : "ETM", "position" : 165, "weight" : 0.238503 },
		{"id" : 10, "lemma" : "제도", "type" : "NNG", "position" : 169, "weight" : 0.9 },
		{"id" : 11, "lemma" : "이", "type" : "VCP", "position" : 175, "weight" : 0.0177525 },
		{"id" : 12, "lemma" : "ㄴ데", "type" : "EC", "position" : 175, "weight" : 0.209075 },
		{"id" : 13, "lemma" : ",", "type" : "SP", "position" : 181, "weight" : 1 },
		{"id" : 14, "lemma" : "현지", "type" : "NNG", "position" : 183, "weight" : 0.481525 },
		{"id" : 15, "lemma" : "에서", "type" : "JKB", "position" : 189, "weight" : 0.153407 },
		{"id" : 16, "lemma" : "생산", "type" : "NNG", "position" : 196, "weight" : 0.9 },
		{"id" : 17, "lemma" : "되", "type" : "XSV", "position" : 202, "weight" : 0.000224177 },
		{"id" : 18, "lemma" : "지", "type" : "EC", "position" : 205, "weight" : 0.260723 },
		{"id" : 19, "lemma" : "않", "type" : "VX", "position" : 209, "weight" : 0.256301 },
		{"id" : 20, "lemma" : "는", "type" : "ETM", "position" : 212, "weight" : 0.183966 },
		{"id" : 21, "lemma" : "물품", "type" : "NNG", "position" : 216, "weight" : 0.9 },
		{"id" : 22, "lemma" : "을", "type" : "JKO", "position" : 222, "weight" : 0.129611 },
		{"id" : 23, "lemma" : "공납", "type" : "NNG", "position" : 226, "weight" : 0.85 },
		{"id" : 24, "lemma" : "으로", "type" : "JKB", "position" : 232, "weight" : 0.153406 },
		{"id" : 25, "lemma" : "부과", "type" : "NNG", "position" : 239, "weight" : 0.9 },
		{"id" : 26, "lemma" : "하", "type" : "XSV", "position" : 245, "weight" : 0.0001 },
		{"id" : 27, "lemma" : "는", "type" : "ETM", "position" : 248, "weight" : 0.238503 },
		{"id" : 28, "lemma" : "불산", "type" : "NNG", "position" : 252, "weight" : 0.25 },
		{"id" : 29, "lemma" : "과세", "type" : "NNG", "position" : 258, "weight" : 0.9 },
		{"id" : 30, "lemma" : "가", "type" : "JKS", "position" : 264, "weight" : 0.066324 },
		{"id" : 31, "lemma" : "많", "type" : "VA", "position" : 268, "weight" : 0.249378 },
		{"id" : 32, "lemma" : "았", "type" : "EP", "position" : 271, "weight" : 0.9 },
		{"id" : 33, "lemma" : "다", "type" : "EF", "position" : 274, "weight" : 0.640954 },
		{"id" : 34, "lemma" : ".", "type" : "SF", "position" : 277, "weight" : 1 }
	],
	"morp_eval" : [
		{"id" : 0, "result" : "공납/NNG+이란/JX", "target" : "공납이란", "word_id" : 0, "m_begin" : 0, "m_end" : 1},
		{"id" : 1, "result" : "지방/NNG+의/JKG", "target" : "지방의", "word_id" : 1, "m_begin" : 2, "m_end" : 3},
		{"id" : 2, "result" : "특산물/NNG+을/JKO", "target" : "특산물을", "word_id" : 2, "m_begin" : 4, "m_end" : 6},
		{"id" : 3, "result" : "부담하/VV+는/ETM", "target" : "부담하는", "word_id" : 3, "m_begin" : 7, "m_end" : 9},
		{"id" : 4, "result" : "제도/NNG+이/VCP+ㄴ데/EC+,/SP", "target" : "제도인데,", "word_id" : 4, "m_begin" : 10, "m_end" : 13},
		{"id" : 5, "result" : "현지/NNG+에서/JKB", "target" : "현지에서", "word_id" : 5, "m_begin" : 14, "m_end" : 15},
		{"id" : 6, "result" : "생산되/VV+지/EC", "target" : "생산되지", "word_id" : 6, "m_begin" : 16, "m_end" : 18},
		{"id" : 7, "result" : "않/VX+는/ETM", "target" : "않는", "word_id" : 7, "m_begin" : 19, "m_end" : 20},
		{"id" : 8, "result" : "물품/NNG+을/JKO", "target" : "물품을", "word_id" : 8, "m_begin" : 21, "m_end" : 22},
		{"id" : 9, "result" : "공납/NNG+으로/JKB", "target" : "공납으로", "word_id" : 9, "m_begin" : 23, "m_end" : 24},
		{"id" : 10, "result" : "부과하/VV+는/ETM", "target" : "부과하는", "word_id" : 10, "m_begin" : 25, "m_end" : 27},
		{"id" : 11, "result" : "불산과세/NNG+가/JKS", "target" : "불산과세가", "word_id" : 11, "m_begin" : 28, "m_end" : 30},
		{"id" : 12, "result" : "많/VA+었/EP+다/EF+./SF", "target" : "많았다.", "word_id" : 12, "m_begin" : 31, "m_end" : 34}
	],
	"WSD" : [
		{"id" : 0, "text" : "공납", "type" : "NNG", "scode" : "02", "weight" : 1, "position" : 120, "begin" : 0, "end" : 0},
		{"id" : 1, "text" : "이란", "type" : "JX", "scode" : "00", "weight" : 1, "position" : 126, "begin" : 1, "end" : 1},
		{"id" : 2, "text" : "지방", "type" : "NNG", "scode" : "05", "weight" : 1, "position" : 133, "begin" : 2, "end" : 2},
		{"id" : 3, "text" : "의", "type" : "JKG", "scode" : "00", "weight" : 1, "position" : 139, "begin" : 3, "end" : 3},
		{"id" : 4, "text" : "특산물", "type" : "NNG", "scode" : "00", "weight" : 1, "position" : 143, "begin" : 4, "end" : 5},
		{"id" : 5, "text" : "을", "type" : "JKO", "scode" : "00", "weight" : 1, "position" : 152, "begin" : 6, "end" : 6},
		{"id" : 6, "text" : "부담하", "type" : "VV", "scode" : "01", "weight" : 1, "position" : 156, "begin" : 7, "end" : 8},
		{"id" : 7, "text" : "는", "type" : "ETM", "scode" : "00", "weight" : 1, "position" : 165, "begin" : 9, "end" : 9},
		{"id" : 8, "text" : "제도", "type" : "NNG", "scode" : "01", "weight" : 1, "position" : 169, "begin" : 10, "end" : 10},
		{"id" : 9, "text" : "이", "type" : "VCP", "scode" : "00", "weight" : 1, "position" : 175, "begin" : 11, "end" : 11},
		{"id" : 10, "text" : "ㄴ데", "type" : "EC", "scode" : "00", "weight" : 1, "position" : 175, "begin" : 12, "end" : 12},
		{"id" : 11, "text" : ",", "type" : "SP", "scode" : "00", "weight" : 1, "position" : 181, "begin" : 13, "end" : 13},
		{"id" : 12, "text" : "현지", "type" : "NNG", "scode" : "03", "weight" : 1, "position" : 183, "begin" : 14, "end" : 14},
		{"id" : 13, "text" : "에서", "type" : "JKB", "scode" : "00", "weight" : 1, "position" : 189, "begin" : 15, "end" : 15},
		{"id" : 14, "text" : "생산되", "type" : "VV", "scode" : "00", "weight" : 1, "position" : 196, "begin" : 16, "end" : 17},
		{"id" : 15, "text" : "지", "type" : "EC", "scode" : "00", "weight" : 1, "position" : 205, "begin" : 18, "end" : 18},
		{"id" : 16, "text" : "않", "type" : "VX", "scode" : "00", "weight" : 1, "position" : 209, "begin" : 19, "end" : 19},
		{"id" : 17, "text" : "는", "type" : "ETM", "scode" : "00", "weight" : 1, "position" : 212, "begin" : 20, "end" : 20},
		{"id" : 18, "text" : "물품", "type" : "NNG", "scode" : "00", "weight" : 1, "position" : 216, "begin" : 21, "end" : 21},
		{"id" : 19, "text" : "을", "type" : "JKO", "scode" : "00", "weight" : 1, "position" : 222, "begin" : 22, "end" : 22},
		{"id" : 20, "text" : "공납", "type" : "NNG", "scode" : "02", "weight" : 1, "position" : 226, "begin" : 23, "end" : 23},
		{"id" : 21, "text" : "으로", "type" : "JKB", "scode" : "00", "weight" : 1, "position" : 232, "begin" : 24, "end" : 24},
		{"id" : 22, "text" : "부과하", "type" : "VV", "scode" : "03", "weight" : 1, "position" : 239, "begin" : 25, "end" : 26},
		{"id" : 23, "text" : "는", "type" : "ETM", "scode" : "00", "weight" : 1, "position" : 248, "begin" : 27, "end" : 27},
		{"id" : 24, "text" : "불산", "type" : "NNG", "scode" : "00", "weight" : 1, "position" : 252, "begin" : 28, "end" : 28},
		{"id" : 25, "text" : "과세", "type" : "NNG", "scode" : "04", "weight" : 1, "position" : 258, "begin" : 29, "end" : 29},
		{"id" : 26, "text" : "가", "type" : "JKS", "scode" : "00", "weight" : 1, "position" : 264, "begin" : 30, "end" : 30},
		{"id" : 27, "text" : "많", "type" : "VA", "scode" : "00", "weight" : 1, "position" : 268, "begin" : 31, "end" : 31},
		{"id" : 28, "text" : "았", "type" : "EP", "scode" : "00", "weight" : 1, "position" : 271, "begin" : 32, "end" : 32},
		{"id" : 29, "text" : "다", "type" : "EF", "scode" : "00", "weight" : 1, "position" : 274, "begin" : 33, "end" : 33},
		{"id" : 30, "text" : ".", "type" : "SF", "scode" : "00", "weight" : 1, "position" : 277, "begin" : 34, "end" : 34}
	],
	"word" : [
		{"id" : 0, "text" : "공납이란", "type" : "", "begin" : 0, "end" : 1},
		{"id" : 1, "text" : "지방의", "type" : "", "begin" : 2, "end" : 3},
		{"id" : 2, "text" : "특산물을", "type" : "", "begin" : 4, "end" : 6},
		{"id" : 3, "text" : "부담하는", "type" : "", "begin" : 7, "end" : 9},
		{"id" : 4, "text" : "제도인데,", "type" : "", "begin" : 10, "end" : 13},
		{"id" : 5, "text" : "현지에서", "type" : "", "begin" : 14, "end" : 15},
		{"id" : 6, "text" : "생산되지", "type" : "", "begin" : 16, "end" : 18},
		{"id" : 7, "text" : "않는", "type" : "", "begin" : 19, "end" : 20},
		{"id" : 8, "text" : "물품을", "type" : "", "begin" : 21, "end" : 22},
		{"id" : 9, "text" : "공납으로", "type" : "", "begin" : 23, "end" : 24},
		{"id" : 10, "text" : "부과하는", "type" : "", "begin" : 25, "end" : 27},
		{"id" : 11, "text" : "불산과세가", "type" : "", "begin" : 28, "end" : 30},
		{"id" : 12, "text" : "많았다.", "type" : "", "begin" : 31, "end" : 34}
	],
	"NE" : [
	],
	"chunk" : [
	],
	"dependency" : [
		{"id" : 0, "text" : "공납이란", "head" : 3, "label" : "NP_SBJ", "mod" : [], "weight" : 0.946495 },
		{"id" : 1, "text" : "지방의", "head" : 2, "label" : "NP_MOD", "mod" : [], "weight" : 0.97072 },
		{"id" : 2, "text" : "특산물을", "head" : 3, "label" : "NP_OBJ", "mod" : [1], "weight" : 0.628032 },
		{"id" : 3, "text" : "부담하는", "head" : 4, "label" : "VP_MOD", "mod" : [0, 2], "weight" : 0.669837 },
		{"id" : 4, "text" : "제도인데,", "head" : 12, "label" : "VNP", "mod" : [3], "weight" : 0.803975 },
		{"id" : 5, "text" : "현지에서", "head" : 6, "label" : "NP_AJT", "mod" : [], "weight" : 0.650277 },
		{"id" : 6, "text" : "생산되지", "head" : 7, "label" : "VP", "mod" : [5], "weight" : 0.792067 },
		{"id" : 7, "text" : "않는", "head" : 8, "label" : "VP_MOD", "mod" : [6], "weight" : 0.689711 },
		{"id" : 8, "text" : "물품을", "head" : 10, "label" : "NP_OBJ", "mod" : [7], "weight" : 0.865512 },
		{"id" : 9, "text" : "공납으로", "head" : 10, "label" : "NP_AJT", "mod" : [], "weight" : 0.877715 },
		{"id" : 10, "text" : "부과하는", "head" : 11, "label" : "VP_MOD", "mod" : [8, 9], "weight" : 0.778358 },
		{"id" : 11, "text" : "불산과세가", "head" : 12, "label" : "NP_SBJ", "mod" : [10], "weight" : 0.614939 },
		{"id" : 12, "text" : "많았다.", "head" : -1, "label" : "VP", "mod" : [4, 11], "weight" : 0.0303486 }
	],
	"SRL" : [
		{"verb" : "부담", "sense" : 1, "word_id" : 3, "weight" : 0.225342,
			"argument" : [
				{"type" : "ARG1", "word_id" : 2, "text" : "특산물을", "weight" : 0.225342 }
			] },
		{"verb" : "생산", "sense" : 1, "word_id" : 6, "weight" : 0.253449,
			"argument" : [
				{"type" : "ARGM-LOC", "word_id" : 5, "text" : "현지에서", "weight" : 0.151742 },
				{"type" : "ARGM-NEG", "word_id" : 7, "text" : "않는", "weight" : 0.378563 },
				{"type" : "ARG1", "word_id" : 8, "text" : "물품을", "weight" : 0.230041 }
			] },
		{"verb" : "부과", "sense" : 1, "word_id" : 10, "weight" : 0.179024,
			"argument" : [
				{"type" : "ARG1", "word_id" : 8, "text" : "물품을", "weight" : 0.234186 },
				{"type" : "ARGM-PRD", "word_id" : 9, "text" : "공납으로", "weight" : 0.123862 }
			] },
		{"verb" : "많", "sense" : 1, "word_id" : 12, "weight" : 0.251812,
			"argument" : [
				{"type" : "ARG1", "word_id" : 11, "text" : "불산과세가", "weight" : 0.251812 }
			] }
	],
	"relation" : [
	],
	"SA" : [
	],
	"ZA" : [
	]
	},
	{
	"id" : 2,
	"reserve_str" : "",
	"text" : "이로 인해 지방에서 납부할 공물을 중간에서 관리들이 대신 납부하고 농민에게 대가를 받는 방납이 성행하였다. ",
	"morp" : [
		{"id" : 0, "lemma" : "이", "type" : "NP", "position" : 279, "weight" : 0.00185676 },
		{"id" : 1, "lemma" : "로", "type" : "JKB", "position" : 282, "weight" : 0.126042 },
		{"id" : 2, "lemma" : "인", "type" : "NNG", "position" : 286, "weight" : 0.0846637 },
		{"id" : 3, "lemma" : "하", "type" : "XSV", "position" : 289, "weight" : 0.0001 },
		{"id" : 4, "lemma" : "어", "type" : "EC", "position" : 289, "weight" : 0.361326 },
		{"id" : 5, "lemma" : "지방", "type" : "NNG", "position" : 293, "weight" : 0.9 },
		{"id" : 6, "lemma" : "에서", "type" : "JKB", "position" : 299, "weight" : 0.153407 },
		{"id" : 7, "lemma" : "납부", "type" : "NNG", "position" : 306, "weight" : 0.9 },
		{"id" : 8, "lemma" : "하", "type" : "XSV", "position" : 312, "weight" : 0.0001 },
		{"id" : 9, "lemma" : "ㄹ", "type" : "ETM", "position" : 312, "weight" : 0.387847 },
		{"id" : 10, "lemma" : "공물", "type" : "NNG", "position" : 316, "weight" : 0.9 },
		{"id" : 11, "lemma" : "을", "type" : "JKO", "position" : 322, "weight" : 0.129611 },
		{"id" : 12, "lemma" : "중간", "type" : "NNG", "position" : 326, "weight" : 0.9 },
		{"id" : 13, "lemma" : "에서", "type" : "JKB", "position" : 332, "weight" : 0.153407 },
		{"id" : 14, "lemma" : "관리", "type" : "NNG", "position" : 339, "weight" : 0.9 },
		{"id" : 15, "lemma" : "들", "type" : "XSN", "position" : 345, "weight" : 0.0299841 },
		{"id" : 16, "lemma" : "이", "type" : "JKS", "position" : 348, "weight" : 0.0731805 },
		{"id" : 17, "lemma" : "대신", "type" : "NNG", "position" : 352, "weight" : 0.208157 },
		{"id" : 18, "lemma" : "납부", "type" : "NNG", "position" : 359, "weight" : 0.9 },
		{"id" : 19, "lemma" : "하", "type" : "XSV", "position" : 365, "weight" : 0.0001 },
		{"id" : 20, "lemma" : "고", "type" : "EC", "position" : 368, "weight" : 0.359917 },
		{"id" : 21, "lemma" : "농민", "type" : "NNG", "position" : 372, "weight" : 0.9 },
		{"id" : 22, "lemma" : "에게", "type" : "JKB", "position" : 378, "weight" : 0.153356 },
		{"id" : 23, "lemma" : "대가", "type" : "NNG", "position" : 385, "weight" : 0.207303 },
		{"id" : 24, "lemma" : "를", "type" : "JKO", "position" : 391, "weight" : 0.137686 },
		{"id" : 25, "lemma" : "받", "type" : "VV", "position" : 395, "weight" : 0.765648 },
		{"id" : 26, "lemma" : "는", "type" : "ETM", "position" : 398, "weight" : 0.184941 },
		{"id" : 27, "lemma" : "방납", "type" : "NNG", "position" : 402, "weight" : 0.1 },
		{"id" : 28, "lemma" : "이", "type" : "JKS", "position" : 408, "weight" : 0.0360723 },
		{"id" : 29, "lemma" : "성행", "type" : "NNG", "position" : 412, "weight" : 0.9 },
		{"id" : 30, "lemma" : "하", "type" : "XSV", "position" : 418, "weight" : 0.0001 },
		{"id" : 31, "lemma" : "었", "type" : "EP", "position" : 421, "weight" : 0.9 },
		{"id" : 32, "lemma" : "다", "type" : "EF", "position" : 424, "weight" : 0.640954 },
		{"id" : 33, "lemma" : ".", "type" : "SF", "position" : 427, "weight" : 1 }
	],
	"morp_eval" : [
		{"id" : 0, "result" : "이/NP+로/JKB", "target" : "이로", "word_id" : 0, "m_begin" : 0, "m_end" : 1},
		{"id" : 1, "result" : "인하/VV+어/EC", "target" : "인해", "word_id" : 1, "m_begin" : 2, "m_end" : 4},
		{"id" : 2, "result" : "지방/NNG+에서/JKB", "target" : "지방에서", "word_id" : 2, "m_begin" : 5, "m_end" : 6},
		{"id" : 3, "result" : "납부하/VV+ㄹ/ETM", "target" : "납부할", "word_id" : 3, "m_begin" : 7, "m_end" : 9},
		{"id" : 4, "result" : "공물/NNG+을/JKO", "target" : "공물을", "word_id" : 4, "m_begin" : 10, "m_end" : 11},
		{"id" : 5, "result" : "중간/NNG+에서/JKB", "target" : "중간에서", "word_id" : 5, "m_begin" : 12, "m_end" : 13},
		{"id" : 6, "result" : "관리들/NNG+이/JKS", "target" : "관리들이", "word_id" : 6, "m_begin" : 14, "m_end" : 16},
		{"id" : 7, "result" : "대신/NNG", "target" : "대신", "word_id" : 7, "m_begin" : 17, "m_end" : 17},
		{"id" : 8, "result" : "납부하/VV+고/EC", "target" : "납부하고", "word_id" : 8, "m_begin" : 18, "m_end" : 20},
		{"id" : 9, "result" : "농민/NNG+에게/JKB", "target" : "농민에게", "word_id" : 9, "m_begin" : 21, "m_end" : 22},
		{"id" : 10, "result" : "대가/NNG+를/JKO", "target" : "대가를", "word_id" : 10, "m_begin" : 23, "m_end" : 24},
		{"id" : 11, "result" : "받/VV+는/ETM", "target" : "받는", "word_id" : 11, "m_begin" : 25, "m_end" : 26},
		{"id" : 12, "result" : "방납/NNG+이/JKS", "target" : "방납이", "word_id" : 12, "m_begin" : 27, "m_end" : 28},
		{"id" : 13, "result" : "성행하/VV+었/EP+다/EF+./SF", "target" : "성행하였다.", "word_id" : 13, "m_begin" : 29, "m_end" : 33}
	],
	"WSD" : [
		{"id" : 0, "text" : "이", "type" : "NP", "scode" : "05", "weight" : 1, "position" : 279, "begin" : 0, "end" : 0},
		{"id" : 1, "text" : "로", "type" : "JKB", "scode" : "00", "weight" : 1, "position" : 282, "begin" : 1, "end" : 1},
		{"id" : 2, "text" : "인하", "type" : "VV", "scode" : "01", "weight" : 1, "position" : 286, "begin" : 2, "end" : 3},
		{"id" : 3, "text" : "어", "type" : "EC", "scode" : "00", "weight" : 1, "position" : 289, "begin" : 4, "end" : 4},
		{"id" : 4, "text" : "지방", "type" : "NNG", "scode" : "05", "weight" : 1, "position" : 293, "begin" : 5, "end" : 5},
		{"id" : 5, "text" : "에서", "type" : "JKB", "scode" : "00", "weight" : 1, "position" : 299, "begin" : 6, "end" : 6},
		{"id" : 6, "text" : "납부하", "type" : "VV", "scode" : "00", "weight" : 1, "position" : 306, "begin" : 7, "end" : 8},
		{"id" : 7, "text" : "ㄹ", "type" : "ETM", "scode" : "00", "weight" : 1, "position" : 312, "begin" : 9, "end" : 9},
		{"id" : 8, "text" : "공물", "type" : "NNG", "scode" : "04", "weight" : 1, "position" : 316, "begin" : 10, "end" : 10},
		{"id" : 9, "text" : "을", "type" : "JKO", "scode" : "00", "weight" : 1, "position" : 322, "begin" : 11, "end" : 11},
		{"id" : 10, "text" : "중간", "type" : "NNG", "scode" : "01", "weight" : 1, "position" : 326, "begin" : 12, "end" : 12},
		{"id" : 11, "text" : "에서", "type" : "JKB", "scode" : "00", "weight" : 1, "position" : 332, "begin" : 13, "end" : 13},
		{"id" : 12, "text" : "관리", "type" : "NNG", "scode" : "04", "weight" : 1, "position" : 339, "begin" : 14, "end" : 14},
		{"id" : 13, "text" : "들", "type" : "XSN", "scode" : "09", "weight" : 1, "position" : 345, "begin" : 15, "end" : 15},
		{"id" : 14, "text" : "이", "type" : "JKS", "scode" : "00", "weight" : 1, "position" : 348, "begin" : 16, "end" : 16},
		{"id" : 15, "text" : "대신", "type" : "NNG", "scode" : "03", "weight" : 1, "position" : 352, "begin" : 17, "end" : 17},
		{"id" : 16, "text" : "납부하", "type" : "VV", "scode" : "00", "weight" : 1, "position" : 359, "begin" : 18, "end" : 19},
		{"id" : 17, "text" : "고", "type" : "EC", "scode" : "00", "weight" : 1, "position" : 368, "begin" : 20, "end" : 20},
		{"id" : 18, "text" : "농민", "type" : "NNG", "scode" : "00", "weight" : 1, "position" : 372, "begin" : 21, "end" : 21},
		{"id" : 19, "text" : "에게", "type" : "JKB", "scode" : "00", "weight" : 1, "position" : 378, "begin" : 22, "end" : 22},
		{"id" : 20, "text" : "대가", "type" : "NNG", "scode" : "06", "weight" : 1, "position" : 385, "begin" : 23, "end" : 23},
		{"id" : 21, "text" : "를", "type" : "JKO", "scode" : "00", "weight" : 1, "position" : 391, "begin" : 24, "end" : 24},
		{"id" : 22, "text" : "받", "type" : "VV", "scode" : "01", "weight" : 1, "position" : 395, "begin" : 25, "end" : 25},
		{"id" : 23, "text" : "는", "type" : "ETM", "scode" : "00", "weight" : 1, "position" : 398, "begin" : 26, "end" : 26},
		{"id" : 24, "text" : "방납", "type" : "NNG", "scode" : "00", "weight" : 1, "position" : 402, "begin" : 27, "end" : 27},
		{"id" : 25, "text" : "이", "type" : "JKS", "scode" : "00", "weight" : 1, "position" : 408, "begin" : 28, "end" : 28},
		{"id" : 26, "text" : "성행하", "type" : "VV", "scode" : "00", "weight" : 1, "position" : 412, "begin" : 29, "end" : 30},
		{"id" : 27, "text" : "었", "type" : "EP", "scode" : "00", "weight" : 1, "position" : 421, "begin" : 31, "end" : 31},
		{"id" : 28, "text" : "다", "type" : "EF", "scode" : "00", "weight" : 1, "position" : 424, "begin" : 32, "end" : 32},
		{"id" : 29, "text" : ".", "type" : "SF", "scode" : "00", "weight" : 1, "position" : 427, "begin" : 33, "end" : 33}
	],
	"word" : [
		{"id" : 0, "text" : "이로", "type" : "", "begin" : 0, "end" : 1},
		{"id" : 1, "text" : "인해", "type" : "", "begin" : 2, "end" : 4},
		{"id" : 2, "text" : "지방에서", "type" : "", "begin" : 5, "end" : 6},
		{"id" : 3, "text" : "납부할", "type" : "", "begin" : 7, "end" : 9},
		{"id" : 4, "text" : "공물을", "type" : "", "begin" : 10, "end" : 11},
		{"id" : 5, "text" : "중간에서", "type" : "", "begin" : 12, "end" : 13},
		{"id" : 6, "text" : "관리들이", "type" : "", "begin" : 14, "end" : 16},
		{"id" : 7, "text" : "대신", "type" : "", "begin" : 17, "end" : 17},
		{"id" : 8, "text" : "납부하고", "type" : "", "begin" : 18, "end" : 20},
		{"id" : 9, "text" : "농민에게", "type" : "", "begin" : 21, "end" : 22},
		{"id" : 10, "text" : "대가를", "type" : "", "begin" : 23, "end" : 24},
		{"id" : 11, "text" : "받는", "type" : "", "begin" : 25, "end" : 26},
		{"id" : 12, "text" : "방납이", "type" : "", "begin" : 27, "end" : 28},
		{"id" : 13, "text" : "성행하였다.", "type" : "", "begin" : 29, "end" : 33}
	],
	"NE" : [
		{"id" : 0, "text" : "농민", "type" : "CV_OCCUPATION", "begin" : 21, "end" : 21, "weight" : 0.487184, "common_noun" : 0}
	],
	"chunk" : [
	],
	"dependency" : [
		{"id" : 0, "text" : "이로", "head" : 1, "label" : "NP_AJT", "mod" : [], "weight" : 0.741553 },
		{"id" : 1, "text" : "인해", "head" : 13, "label" : "VP", "mod" : [0], "weight" : 0.76519 },
		{"id" : 2, "text" : "지방에서", "head" : 3, "label" : "NP_AJT", "mod" : [], "weight" : 0.753879 },
		{"id" : 3, "text" : "납부할", "head" : 4, "label" : "VP_MOD", "mod" : [2], "weight" : 0.961114 },
		{"id" : 4, "text" : "공물을", "head" : 8, "label" : "NP_OBJ", "mod" : [3], "weight" : 0.689056 },
		{"id" : 5, "text" : "중간에서", "head" : 8, "label" : "NP_AJT", "mod" : [], "weight" : 0.627751 },
		{"id" : 6, "text" : "관리들이", "head" : 8, "label" : "NP_SBJ", "mod" : [], "weight" : 0.738433 },
		{"id" : 7, "text" : "대신", "head" : 8, "label" : "NP_AJT", "mod" : [], "weight" : 0.961252 },
		{"id" : 8, "text" : "납부하고", "head" : 11, "label" : "VP", "mod" : [4, 5, 6, 7], "weight" : 0.527282 },
		{"id" : 9, "text" : "농민에게", "head" : 11, "label" : "NP_AJT", "mod" : [], "weight" : 0.726282 },
		{"id" : 10, "text" : "대가를", "head" : 11, "label" : "NP_OBJ", "mod" : [], "weight" : 0.917504 },
		{"id" : 11, "text" : "받는", "head" : 12, "label" : "VP_MOD", "mod" : [8, 9, 10], "weight" : 0.727734 },
		{"id" : 12, "text" : "방납이", "head" : 13, "label" : "NP_SBJ", "mod" : [11], "weight" : 0.499152 },
		{"id" : 13, "text" : "성행하였다.", "head" : -1, "label" : "VP", "mod" : [1, 12], "weight" : 0.00908077 }
	],
	"SRL" : [
		{"verb" : "인", "sense" : 1, "word_id" : 1, "weight" : 0.276776,
			"argument" : [
				{"type" : "ARG1", "word_id" : 0, "text" : "이로", "weight" : 0.276776 }
			] },
		{"verb" : "납부", "sense" : 1, "word_id" : 3, "weight" : 0.195408,
			"argument" : [
				{"type" : "ARGM-LOC", "word_id" : 2, "text" : "지방에서", "weight" : 0.135838 },
				{"type" : "ARG1", "word_id" : 4, "text" : "공물을", "weight" : 0.254978 }
			] },
		{"verb" : "납부", "sense" : 1, "word_id" : 8, "weight" : 0.187409,
			"argument" : [
				{"type" : "ARG1", "word_id" : 4, "text" : "공물을", "weight" : 0.242667 },
				{"type" : "ARG0", "word_id" : 6, "text" : "관리들이", "weight" : 0.215677 },
				{"type" : "ARGM-MNR", "word_id" : 7, "text" : "대신", "weight" : 0.103884 }
			] },
		{"verb" : "받", "sense" : 1, "word_id" : 11, "weight" : 0.311963,
			"argument" : [
				{"type" : "ARG0", "word_id" : 6, "text" : "관리들이", "weight" : 0.33006 },
				{"type" : "ARG2", "word_id" : 9, "text" : "농민에게", "weight" : 0.189572 },
				{"type" : "ARG1", "word_id" : 10, "text" : "대가를", "weight" : 0.416259 }
			] },
		{"verb" : "성행", "sense" : 1, "word_id" : 13, "weight" : 0.186554,
			"argument" : [
				{"type" : "ARGM-CAU", "word_id" : 1, "text" : "인해", "weight" : 0.184791 },
				{"type" : "ARG1", "word_id" : 12, "text" : "방납이", "weight" : 0.188317 }
			] }
	],
	"relation" : [
	],
	"SA" : [
	],
	"ZA" : [
		{"id" : 0, "verb_wid" : 1, "ant_sid" : -1, "ant_wid" : -1, "type" : "s", "istitle" : 0, "weight" : 0.521706 }
	]
	},
	{
	"id" : 3,
	"reserve_str" : "",
	"text" : "그러나 방납업자들이 농민들에게 높은 대가를 요구하여 농민의 부담이 늘어난 반면 국가의 수입은 감소되었다. ",
	"morp" : [
		{"id" : 0, "lemma" : "그러나", "type" : "MAJ", "position" : 429, "weight" : 0.0461081 },
		{"id" : 1, "lemma" : "방납업자", "type" : "NNP", "position" : 439, "weight" : 0.6 },
		{"id" : 2, "lemma" : "들", "type" : "XSN", "position" : 451, "weight" : 0.0138465 },
		{"id" : 3, "lemma" : "이", "type" : "JKS", "position" : 454, "weight" : 0.0731805 },
		{"id" : 4, "lemma" : "농민", "type" : "NNG", "position" : 458, "weight" : 0.9 },
		{"id" : 5, "lemma" : "들", "type" : "XSN", "position" : 464, "weight" : 0.0299841 },
		{"id" : 6, "lemma" : "에게", "type" : "JKB", "position" : 467, "weight" : 0.121677 },
		{"id" : 7, "lemma" : "높", "type" : "VA", "position" : 474, "weight" : 0.0728384 },
		{"id" : 8, "lemma" : "은", "type" : "ETM", "position" : 477, "weight" : 0.155123 },
		{"id" : 9, "lemma" : "대가", "type" : "NNG", "position" : 481, "weight" : 0.656486 },
		{"id" : 10, "lemma" : "를", "type" : "JKO", "position" : 487, "weight" : 0.137686 },
		{"id" : 11, "lemma" : "요구", "type" : "NNG", "position" : 491, "weight" : 0.9 },
		{"id" : 12, "lemma" : "하", "type" : "XSV", "position" : 497, "weight" : 0.0001 },
		{"id" : 13, "lemma" : "어", "type" : "EC", "position" : 500, "weight" : 0.361326 },
		{"id" : 14, "lemma" : "농민", "type" : "NNG", "position" : 504, "weight" : 0.9 },
		{"id" : 15, "lemma" : "의", "type" : "JKG", "position" : 510, "weight" : 0.0694213 },
		{"id" : 16, "lemma" : "부담", "type" : "NNG", "position" : 514, "weight" : 0.9 },
		{"id" : 17, "lemma" : "이", "type" : "JKS", "position" : 520, "weight" : 0.0360723 },
		{"id" : 18, "lemma" : "늘어나", "type" : "VV", "position" : 524, "weight" : 0.9 },
		{"id" : 19, "lemma" : "ㄴ", "type" : "ETM", "position" : 530, "weight" : 0.304215 },
		{"id" : 20, "lemma" : "반면", "type" : "NNG", "position" : 534, "weight" : 0.9 },
		{"id" : 21, "lemma" : "국가", "type" : "NNG", "position" : 541, "weight" : 0.184818 },
		{"id" : 22, "lemma" : "의", "type" : "JKG", "position" : 547, "weight" : 0.0694213 },
		{"id" : 23, "lemma" : "수입", "type" : "NNG", "position" : 551, "weight" : 0.9 },
		{"id" : 24, "lemma" : "은", "type" : "JX", "position" : 557, "weight" : 0.0449928 },
		{"id" : 25, "lemma" : "감소", "type" : "NNG", "position" : 561, "weight" : 0.9 },
		{"id" : 26, "lemma" : "되", "type" : "XSV", "position" : 567, "weight" : 0.000224177 },
		{"id" : 27, "lemma" : "었", "type" : "EP", "position" : 570, "weight" : 0.9 },
		{"id" : 28, "lemma" : "다", "type" : "EF", "position" : 573, "weight" : 0.640954 },
		{"id" : 29, "lemma" : ".", "type" : "SF", "position" : 576, "weight" : 1 }
	],
	"morp_eval" : [
		{"id" : 0, "result" : "그러나/MAJ", "target" : "그러나", "word_id" : 0, "m_begin" : 0, "m_end" : 0},
		{"id" : 1, "result" : "방납업자들/NNG+이/JKS", "target" : "방납업자들이", "word_id" : 1, "m_begin" : 1, "m_end" : 3},
		{"id" : 2, "result" : "농민들/NNG+에게/JKB", "target" : "농민들에게", "word_id" : 2, "m_begin" : 4, "m_end" : 6},
		{"id" : 3, "result" : "높/VA+은/ETM", "target" : "높은", "word_id" : 3, "m_begin" : 7, "m_end" : 8},
		{"id" : 4, "result" : "대가/NNG+를/JKO", "target" : "대가를", "word_id" : 4, "m_begin" : 9, "m_end" : 10},
		{"id" : 5, "result" : "요구하/VV+어/EC", "target" : "요구하여", "word_id" : 5, "m_begin" : 11, "m_end" : 13},
		{"id" : 6, "result" : "농민/NNG+의/JKG", "target" : "농민의", "word_id" : 6, "m_begin" : 14, "m_end" : 15},
		{"id" : 7, "result" : "부담/NNG+이/JKS", "target" : "부담이", "word_id" : 7, "m_begin" : 16, "m_end" : 17},
		{"id" : 8, "result" : "늘어나/VV+ㄴ/ETM", "target" : "늘어난", "word_id" : 8, "m_begin" : 18, "m_end" : 19},
		{"id" : 9, "result" : "반면/NNG", "target" : "반면", "word_id" : 9, "m_begin" : 20, "m_end" : 20},
		{"id" : 10, "result" : "국가/NNG+의/JKG", "target" : "국가의", "word_id" : 10, "m_begin" : 21, "m_end" : 22},
		{"id" : 11, "result" : "수입/NNG+은/JX", "target" : "수입은", "word_id" : 11, "m_begin" : 23, "m_end" : 24},
		{"id" : 12, "result" : "감소되/VV+었/EP+다/EF+./SF", "target" : "감소되었다.", "word_id" : 12, "m_begin" : 25, "m_end" : 29}
	],
	"WSD" : [
		{"id" : 0, "text" : "그러나", "type" : "MAJ", "scode" : "00", "weight" : 1, "position" : 429, "begin" : 0, "end" : 0},
		{"id" : 1, "text" : "방납업자", "type" : "NNP", "scode" : "00", "weight" : 0, "position" : 439, "begin" : 1, "end" : 1},
		{"id" : 2, "text" : "들", "type" : "XSN", "scode" : "09", "weight" : 1, "position" : 451, "begin" : 2, "end" : 2},
		{"id" : 3, "text" : "이", "type" : "JKS", "scode" : "00", "weight" : 1, "position" : 454, "begin" : 3, "end" : 3},
		{"id" : 4, "text" : "농민", "type" : "NNG", "scode" : "00", "weight" : 1, "position" : 458, "begin" : 4, "end" : 4},
		{"id" : 5, "text" : "들", "type" : "XSN", "scode" : "09", "weight" : 1, "position" : 464, "begin" : 5, "end" : 5},
		{"id" : 6, "text" : "에게", "type" : "JKB", "scode" : "00", "weight" : 1, "position" : 467, "begin" : 6, "end" : 6},
		{"id" : 7, "text" : "높", "type" : "VA", "scode" : "00", "weight" : 1, "position" : 474, "begin" : 7, "end" : 7},
		{"id" : 8, "text" : "은", "type" : "ETM", "scode" : "00", "weight" : 1, "position" : 477, "begin" : 8, "end" : 8},
		{"id" : 9, "text" : "대가", "type" : "NNG", "scode" : "06", "weight" : 1, "position" : 481, "begin" : 9, "end" : 9},
		{"id" : 10, "text" : "를", "type" : "JKO", "scode" : "00", "weight" : 1, "position" : 487, "begin" : 10, "end" : 10},
		{"id" : 11, "text" : "요구하", "type" : "VV", "scode" : "00", "weight" : 1, "position" : 491, "begin" : 11, "end" : 12},
		{"id" : 12, "text" : "어", "type" : "EC", "scode" : "00", "weight" : 1, "position" : 500, "begin" : 13, "end" : 13},
		{"id" : 13, "text" : "농민", "type" : "NNG", "scode" : "00", "weight" : 1, "position" : 504, "begin" : 14, "end" : 14},
		{"id" : 14, "text" : "의", "type" : "JKG", "scode" : "00", "weight" : 1, "position" : 510, "begin" : 15, "end" : 15},
		{"id" : 15, "text" : "부담", "type" : "NNG", "scode" : "01", "weight" : 1, "position" : 514, "begin" : 16, "end" : 16},
		{"id" : 16, "text" : "이", "type" : "JKS", "scode" : "00", "weight" : 1, "position" : 520, "begin" : 17, "end" : 17},
		{"id" : 17, "text" : "늘어나", "type" : "VV", "scode" : "00", "weight" : 1, "position" : 524, "begin" : 18, "end" : 18},
		{"id" : 18, "text" : "ㄴ", "type" : "ETM", "scode" : "00", "weight" : 1, "position" : 530, "begin" : 19, "end" : 19},
		{"id" : 19, "text" : "반면", "type" : "NNG", "scode" : "02", "weight" : 1, "position" : 534, "begin" : 20, "end" : 20},
		{"id" : 20, "text" : "국가", "type" : "NNG", "scode" : "01", "weight" : 1, "position" : 541, "begin" : 21, "end" : 21},
		{"id" : 21, "text" : "의", "type" : "JKG", "scode" : "00", "weight" : 1, "position" : 547, "begin" : 22, "end" : 22},
		{"id" : 22, "text" : "수입", "type" : "NNG", "scode" : "02", "weight" : 1, "position" : 551, "begin" : 23, "end" : 23},
		{"id" : 23, "text" : "은", "type" : "JX", "scode" : "00", "weight" : 1, "position" : 557, "begin" : 24, "end" : 24},
		{"id" : 24, "text" : "감소되", "type" : "VV", "scode" : "00", "weight" : 1, "position" : 561, "begin" : 25, "end" : 26},
		{"id" : 25, "text" : "었", "type" : "EP", "scode" : "00", "weight" : 1, "position" : 570, "begin" : 27, "end" : 27},
		{"id" : 26, "text" : "다", "type" : "EF", "scode" : "00", "weight" : 1, "position" : 573, "begin" : 28, "end" : 28},
		{"id" : 27, "text" : ".", "type" : "SF", "scode" : "00", "weight" : 1, "position" : 576, "begin" : 29, "end" : 29}
	],
	"word" : [
		{"id" : 0, "text" : "그러나", "type" : "", "begin" : 0, "end" : 0},
		{"id" : 1, "text" : "방납업자들이", "type" : "", "begin" : 1, "end" : 3},
		{"id" : 2, "text" : "농민들에게", "type" : "", "begin" : 4, "end" : 6},
		{"id" : 3, "text" : "높은", "type" : "", "begin" : 7, "end" : 8},
		{"id" : 4, "text" : "대가를", "type" : "", "begin" : 9, "end" : 10},
		{"id" : 5, "text" : "요구하여", "type" : "", "begin" : 11, "end" : 13},
		{"id" : 6, "text" : "농민의", "type" : "", "begin" : 14, "end" : 15},
		{"id" : 7, "text" : "부담이", "type" : "", "begin" : 16, "end" : 17},
		{"id" : 8, "text" : "늘어난", "type" : "", "begin" : 18, "end" : 19},
		{"id" : 9, "text" : "반면", "type" : "", "begin" : 20, "end" : 20},
		{"id" : 10, "text" : "국가의", "type" : "", "begin" : 21, "end" : 22},
		{"id" : 11, "text" : "수입은", "type" : "", "begin" : 23, "end" : 24},
		{"id" : 12, "text" : "감소되었다.", "type" : "", "begin" : 25, "end" : 29}
	],
	"NE" : [
		{"id" : 0, "text" : "농민", "type" : "CV_OCCUPATION", "begin" : 4, "end" : 4, "weight" : 0.600022, "common_noun" : 0},
		{"id" : 1, "text" : "농민", "type" : "CV_OCCUPATION", "begin" : 14, "end" : 14, "weight" : 0.37696, "common_noun" : 0}
	],
	"chunk" : [
	],
	"dependency" : [
		{"id" : 0, "text" : "그러나", "head" : 12, "label" : "AP", "mod" : [], "weight" : 0.817246 },
		{"id" : 1, "text" : "방납업자들이", "head" : 5, "label" : "NP_SBJ", "mod" : [], "weight" : 0.613342 },
		{"id" : 2, "text" : "농민들에게", "head" : 5, "label" : "NP_AJT", "mod" : [], "weight" : 0.84544 },
		{"id" : 3, "text" : "높은", "head" : 4, "label" : "VP_MOD", "mod" : [], "weight" : 0.905193 },
		{"id" : 4, "text" : "대가를", "head" : 5, "label" : "NP_OBJ", "mod" : [3], "weight" : 0.958834 },
		{"id" : 5, "text" : "요구하여", "head" : 8, "label" : "VP", "mod" : [1, 2, 4], "weight" : 0.517444 },
		{"id" : 6, "text" : "농민의", "head" : 7, "label" : "NP_MOD", "mod" : [], "weight" : 0.783059 },
		{"id" : 7, "text" : "부담이", "head" : 8, "label" : "NP_SBJ", "mod" : [6], "weight" : 0.902824 },
		{"id" : 8, "text" : "늘어난", "head" : 9, "label" : "VP_MOD", "mod" : [5, 7], "weight" : 0.87991 },
		{"id" : 9, "text" : "반면", "head" : 12, "label" : "NP_AJT", "mod" : [8], "weight" : 0.548621 },
		{"id" : 10, "text" : "국가의", "head" : 11, "label" : "NP_MOD", "mod" : [], "weight" : 0.80734 },
		{"id" : 11, "text" : "수입은", "head" : 12, "label" : "NP_SBJ", "mod" : [10], "weight" : 0.554937 },
		{"id" : 12, "text" : "감소되었다.", "head" : -1, "label" : "VP", "mod" : [0, 9, 11], "weight" : 0.0163427 }
	],
	"SRL" : [
		{"verb" : "높", "sense" : 1, "word_id" : 3, "weight" : 0.377939,
			"argument" : [
				{"type" : "ARG1", "word_id" : 4, "text" : "대가를", "weight" : 0.377939 }
			] },
		{"verb" : "요구", "sense" : 1, "word_id" : 5, "weight" : 0.260859,
			"argument" : [
				{"type" : "ARG0", "word_id" : 1, "text" : "방납업자들이", "weight" : 0.263692 },
				{"type" : "ARG2", "word_id" : 2, "text" : "농민들에게", "weight" : 0.219956 },
				{"type" : "ARG1", "word_id" : 4, "text" : "대가를", "weight" : 0.298929 }
			] },
		{"verb" : "늘어나", "sense" : 1, "word_id" : 8, "weight" : 0.29735,
			"argument" : [
				{"type" : "ARGM-DIS", "word_id" : 0, "text" : "그러나", "weight" : 0.448811 },
				{"type" : "ARGM-CAU", "word_id" : 5, "text" : "요구하여", "weight" : 0.152472 },
				{"type" : "ARG1", "word_id" : 7, "text" : "부담이", "weight" : 0.290768 }
			] },
		{"verb" : "감소", "sense" : 1, "word_id" : 12, "weight" : 0.246641,
			"argument" : [
				{"type" : "ARGM-DIS", "word_id" : 9, "text" : "반면", "weight" : 0.157165 },
				{"type" : "ARG1", "word_id" : 11, "text" : "수입은", "weight" : 0.336116 }
			] }
	],
	"relation" : [
	],
	"SA" : [
	],
	"ZA" : [
	]
	},
	{
	"id" : 4,
	"reserve_str" : "",
	"text" : "이에 16세기에 조광조, 이이, 유성룡 등의 관리는 공납을 쌀로 대신 내게 하는 수미법(收米法) 등을 주장하였다. ",
	"morp" : [
		{"id" : 0, "lemma" : "이", "type" : "NP", "position" : 578, "weight" : 0.00185676 },
		{"id" : 1, "lemma" : "에", "type" : "JKB", "position" : 581, "weight" : 0.126153 },
		{"id" : 2, "lemma" : "16", "type" : "SN", "position" : 585, "weight" : 1 },
		{"id" : 3, "lemma" : "세기", "type" : "NNG", "position" : 587, "weight" : 0.100259 },
		{"id" : 4, "lemma" : "에", "type" : "JKB", "position" : 593, "weight" : 0.153364 },
		{"id" : 5, "lemma" : "조광조", "type" : "NNP", "position" : 597, "weight" : 0.9 },
		{"id" : 6, "lemma" : ",", "type" : "SP", "position" : 606, "weight" : 1 },
		{"id" : 7, "lemma" : "이이", "type" : "NNP", "position" : 608, "weight" : 0.0865284 },
		{"id" : 8, "lemma" : ",", "type" : "SP", "position" : 614, "weight" : 1 },
		{"id" : 9, "lemma" : "유성룡", "type" : "NNP", "position" : 616, "weight" : 0.9 },
		{"id" : 10, "lemma" : "등", "type" : "NNB", "position" : 626, "weight" : 0.0459798 },
		{"id" : 11, "lemma" : "의", "type" : "JKG", "position" : 629, "weight" : 0.0520933 },
		{"id" : 12, "lemma" : "관리", "type" : "NNG", "position" : 633, "weight" : 0.9 },
		{"id" : 13, "lemma" : "는", "type" : "JX", "position" : 639, "weight" : 0.0287565 },
		{"id" : 14, "lemma" : "공납", "type" : "NNG", "position" : 643, "weight" : 0.85 },
		{"id" : 15, "lemma" : "을", "type" : "JKO", "position" : 649, "weight" : 0.129611 },
		{"id" : 16, "lemma" : "쌀", "type" : "NNG", "position" : 653, "weight" : 0.101366 },
		{"id" : 17, "lemma" : "로", "type" : "JKB", "position" : 656, "weight" : 0.153229 },
		{"id" : 18, "lemma" : "대신", "type" : "NNG", "position" : 660, "weight" : 0.206966 },
		{"id" : 19, "lemma" : "나", "type" : "NP", "position" : 667, "weight" : 0.000888242 },
		{"id" : 20, "lemma" : "에게", "type" : "JKB", "position" : 667, "weight" : 0.126146 },
		{"id" : 21, "lemma" : "하", "type" : "VX", "position" : 674, "weight" : 0.0001 },
		{"id" : 22, "lemma" : "는", "type" : "ETM", "position" : 677, "weight" : 0.183966 },
		{"id" : 23, "lemma" : "수미", "type" : "NNG", "position" : 681, "weight" : 0.122835 },
		{"id" : 24, "lemma" : "법", "type" : "NNG", "position" : 687, "weight" : 0.11676 },
		{"id" : 25, "lemma" : "(", "type" : "SS", "position" : 690, "weight" : 1 },
		{"id" : 26, "lemma" : "收米法", "type" : "SH", "position" : 691, "weight" : 1 },
		{"id" : 27, "lemma" : ")", "type" : "SS", "position" : 700, "weight" : 1 },
		{"id" : 28, "lemma" : "등", "type" : "NNB", "position" : 702, "weight" : 0.0121753 },
		{"id" : 29, "lemma" : "을", "type" : "JKO", "position" : 705, "weight" : 0.0630104 },
		{"id" : 30, "lemma" : "주장", "type" : "NNG", "position" : 709, "weight" : 0.101174 },
		{"id" : 31, "lemma" : "하", "type" : "XSV", "position" : 715, "weight" : 0.0001 },
		{"id" : 32, "lemma" : "었", "type" : "EP", "position" : 718, "weight" : 0.9 },
		{"id" : 33, "lemma" : "다", "type" : "EF", "position" : 721, "weight" : 0.640954 },
		{"id" : 34, "lemma" : ".", "type" : "SF", "position" : 724, "weight" : 1 }
	],
	"morp_eval" : [
		{"id" : 0, "result" : "이/NP+에/JKB", "target" : "이에", "word_id" : 0, "m_begin" : 0, "m_end" : 1},
		{"id" : 1, "result" : "16/SN+세기/NNG+에/JKB", "target" : "16세기에", "word_id" : 1, "m_begin" : 2, "m_end" : 4},
		{"id" : 2, "result" : "조광조/NNG+,/SP", "target" : "조광조,", "word_id" : 2, "m_begin" : 5, "m_end" : 6},
		{"id" : 3, "result" : "이이/NNG+,/SP", "target" : "이이,", "word_id" : 3, "m_begin" : 7, "m_end" : 8},
		{"id" : 4, "result" : "유성룡/NNG", "target" : "유성룡", "word_id" : 4, "m_begin" : 9, "m_end" : 9},
		{"id" : 5, "result" : "등/NNB+의/JKG", "target" : "등의", "word_id" : 5, "m_begin" : 10, "m_end" : 11},
		{"id" : 6, "result" : "관리/NNG+는/JX", "target" : "관리는", "word_id" : 6, "m_begin" : 12, "m_end" : 13},
		{"id" : 7, "result" : "공납/NNG+을/JKO", "target" : "공납을", "word_id" : 7, "m_begin" : 14, "m_end" : 15},
		{"id" : 8, "result" : "쌀/NNG+로/JKB", "target" : "쌀로", "word_id" : 8, "m_begin" : 16, "m_end" : 17},
		{"id" : 9, "result" : "대신/NNG", "target" : "대신", "word_id" : 9, "m_begin" : 18, "m_end" : 18},
		{"id" : 10, "result" : "나/NP+에게/JKB", "target" : "내게", "word_id" : 10, "m_begin" : 19, "m_end" : 20},
		{"id" : 11, "result" : "하/VX+는/ETM", "target" : "하는", "word_id" : 11, "m_begin" : 21, "m_end" : 22},
		{"id" : 12, "result" : "수미법/NNG+(/SS+收米法/SH+)/SS", "target" : "수미법(收米法)", "word_id" : 12, "m_begin" : 23, "m_end" : 27},
		{"id" : 13, "result" : "등/NNB+을/JKO", "target" : "등을", "word_id" : 13, "m_begin" : 28, "m_end" : 29},
		{"id" : 14, "result" : "주장하/VV+었/EP+다/EF+./SF", "target" : "주장하였다.", "word_id" : 14, "m_begin" : 30, "m_end" : 34}
	],
	"WSD" : [
		{"id" : 0, "text" : "이", "type" : "NP", "scode" : "05", "weight" : 1, "position" : 578, "begin" : 0, "end" : 0},
		{"id" : 1, "text" : "에", "type" : "JKB", "scode" : "00", "weight" : 1, "position" : 581, "begin" : 1, "end" : 1},
		{"id" : 2, "text" : "16", "type" : "SN", "scode" : "00", "weight" : 1, "position" : 585, "begin" : 2, "end" : 2},
		{"id" : 3, "text" : "세기", "type" : "NNG", "scode" : "03", "weight" : 1, "position" : 587, "begin" : 3, "end" : 3},
		{"id" : 4, "text" : "에", "type" : "JKB", "scode" : "00", "weight" : 1, "position" : 593, "begin" : 4, "end" : 4},
		{"id" : 5, "text" : "조광조", "type" : "NNP", "scode" : "00", "weight" : 1, "position" : 597, "begin" : 5, "end" : 5},
		{"id" : 6, "text" : ",", "type" : "SP", "scode" : "00", "weight" : 1, "position" : 606, "begin" : 6, "end" : 6},
		{"id" : 7, "text" : "이이", "type" : "NNP", "scode" : "02", "weight" : 1, "position" : 608, "begin" : 7, "end" : 7},
		{"id" : 8, "text" : ",", "type" : "SP", "scode" : "00", "weight" : 1, "position" : 614, "begin" : 8, "end" : 8},
		{"id" : 9, "text" : "유성룡", "type" : "NNP", "scode" : "00", "weight" : 1, "position" : 616, "begin" : 9, "end" : 9},
		{"id" : 10, "text" : "등", "type" : "NNB", "scode" : "05", "weight" : 1, "position" : 626, "begin" : 10, "end" : 10},
		{"id" : 11, "text" : "의", "type" : "JKG", "scode" : "00", "weight" : 1, "position" : 629, "begin" : 11, "end" : 11},
		{"id" : 12, "text" : "관리", "type" : "NNG", "scode" : "04", "weight" : 1, "position" : 633, "begin" : 12, "end" : 12},
		{"id" : 13, "text" : "는", "type" : "JX", "scode" : "00", "weight" : 1, "position" : 639, "begin" : 13, "end" : 13},
		{"id" : 14, "text" : "공납", "type" : "NNG", "scode" : "02", "weight" : 1, "position" : 643, "begin" : 14, "end" : 14},
		{"id" : 15, "text" : "을", "type" : "JKO", "scode" : "00", "weight" : 1, "position" : 649, "begin" : 15, "end" : 15},
		{"id" : 16, "text" : "쌀", "type" : "NNG", "scode" : "00", "weight" : 1, "position" : 653, "begin" : 16, "end" : 16},
		{"id" : 17, "text" : "로", "type" : "JKB", "scode" : "00", "weight" : 1, "position" : 656, "begin" : 17, "end" : 17},
		{"id" : 18, "text" : "대신", "type" : "NNG", "scode" : "03", "weight" : 1, "position" : 660, "begin" : 18, "end" : 18},
		{"id" : 19, "text" : "나", "type" : "NP", "scode" : "03", "weight" : 1, "position" : 667, "begin" : 19, "end" : 19},
		{"id" : 20, "text" : "에게", "type" : "JKB", "scode" : "00", "weight" : 1, "position" : 667, "begin" : 20, "end" : 20},
		{"id" : 21, "text" : "하", "type" : "VX", "scode" : "01", "weight" : 1, "position" : 674, "begin" : 21, "end" : 21},
		{"id" : 22, "text" : "는", "type" : "ETM", "scode" : "00", "weight" : 1, "position" : 677, "begin" : 22, "end" : 22},
		{"id" : 23, "text" : "수미법", "type" : "NNG", "scode" : "00", "weight" : 1, "position" : 681, "begin" : 23, "end" : 24},
		{"id" : 24, "text" : "(", "type" : "SS", "scode" : "00", "weight" : 1, "position" : 690, "begin" : 25, "end" : 25},
		{"id" : 25, "text" : "收米法", "type" : "SH", "scode" : "00", "weight" : 1, "position" : 691, "begin" : 26, "end" : 26},
		{"id" : 26, "text" : ")", "type" : "SS", "scode" : "00", "weight" : 1, "position" : 700, "begin" : 27, "end" : 27},
		{"id" : 27, "text" : "등", "type" : "NNB", "scode" : "05", "weight" : 1, "position" : 702, "begin" : 28, "end" : 28},
		{"id" : 28, "text" : "을", "type" : "JKO", "scode" : "00", "weight" : 1, "position" : 705, "begin" : 29, "end" : 29},
		{"id" : 29, "text" : "주장하", "type" : "VV", "scode" : "01", "weight" : 1, "position" : 709, "begin" : 30, "end" : 31},
		{"id" : 30, "text" : "었", "type" : "EP", "scode" : "00", "weight" : 1, "position" : 718, "begin" : 32, "end" : 32},
		{"id" : 31, "text" : "다", "type" : "EF", "scode" : "00", "weight" : 1, "position" : 721, "begin" : 33, "end" : 33},
		{"id" : 32, "text" : ".", "type" : "SF", "scode" : "00", "weight" : 1, "position" : 724, "begin" : 34, "end" : 34}
	],
	"word" : [
		{"id" : 0, "text" : "이에", "type" : "", "begin" : 0, "end" : 1},
		{"id" : 1, "text" : "16세기에", "type" : "", "begin" : 2, "end" : 4},
		{"id" : 2, "text" : "조광조,", "type" : "", "begin" : 5, "end" : 6},
		{"id" : 3, "text" : "이이,", "type" : "", "begin" : 7, "end" : 8},
		{"id" : 4, "text" : "유성룡", "type" : "", "begin" : 9, "end" : 9},
		{"id" : 5, "text" : "등의", "type" : "", "begin" : 10, "end" : 11},
		{"id" : 6, "text" : "관리는", "type" : "", "begin" : 12, "end" : 13},
		{"id" : 7, "text" : "공납을", "type" : "", "begin" : 14, "end" : 15},
		{"id" : 8, "text" : "쌀로", "type" : "", "begin" : 16, "end" : 17},
		{"id" : 9, "text" : "대신", "type" : "", "begin" : 18, "end" : 18},
		{"id" : 10, "text" : "내게", "type" : "", "begin" : 19, "end" : 20},
		{"id" : 11, "text" : "하는", "type" : "", "begin" : 21, "end" : 22},
		{"id" : 12, "text" : "수미법(收米法)", "type" : "", "begin" : 23, "end" : 27},
		{"id" : 13, "text" : "등을", "type" : "", "begin" : 28, "end" : 29},
		{"id" : 14, "text" : "주장하였다.", "type" : "", "begin" : 30, "end" : 34}
	],
	"NE" : [
		{"id" : 0, "text" : "16세기", "type" : "DT_OTHERS", "begin" : 2, "end" : 3, "weight" : 0.464581, "common_noun" : 0},
		{"id" : 1, "text" : "조광조", "type" : "PS_NAME", "begin" : 5, "end" : 5, "weight" : 0.3397, "common_noun" : 0},
		{"id" : 2, "text" : "이이", "type" : "PS_NAME", "begin" : 7, "end" : 7, "weight" : 0.495182, "common_noun" : 0},
		{"id" : 3, "text" : "유성룡", "type" : "PS_NAME", "begin" : 9, "end" : 9, "weight" : 0.366765, "common_noun" : 0},
		{"id" : 4, "text" : "쌀", "type" : "CV_FOOD", "begin" : 16, "end" : 16, "weight" : 0.519744, "common_noun" : 0},
		{"id" : 5, "text" : "수미법", "type" : "TR_SOCIAL_SCIENCE", "begin" : 23, "end" : 24, "weight" : 0.105497, "common_noun" : 0}
	],
	"chunk" : [
	],
	"dependency" : [
		{"id" : 0, "text" : "이에", "head" : 14, "label" : "NP_AJT", "mod" : [], "weight" : 0.715429 },
		{"id" : 1, "text" : "16세기에", "head" : 14, "label" : "NP_AJT", "mod" : [], "weight" : 0.567579 },
		{"id" : 2, "text" : "조광조,", "head" : 4, "label" : "NP_CNJ", "mod" : [], "weight" : 0.782552 },
		{"id" : 3, "text" : "이이,", "head" : 4, "label" : "NP_CNJ", "mod" : [], "weight" : 0.886611 },
		{"id" : 4, "text" : "유성룡", "head" : 5, "label" : "NP", "mod" : [2, 3], "weight" : 0.712867 },
		{"id" : 5, "text" : "등의", "head" : 6, "label" : "NP_MOD", "mod" : [4], "weight" : 0.866327 },
		{"id" : 6, "text" : "관리는", "head" : 14, "label" : "NP_SBJ", "mod" : [5], "weight" : 0.603334 },
		{"id" : 7, "text" : "공납을", "head" : 8, "label" : "NP_OBJ", "mod" : [], "weight" : 0.50312 },
		{"id" : 8, "text" : "쌀로", "head" : 14, "label" : "NP_AJT", "mod" : [7], "weight" : 0.598715 },
		{"id" : 9, "text" : "대신", "head" : 14, "label" : "NP_AJT", "mod" : [], "weight" : 0.470883 },
		{"id" : 10, "text" : "내게", "head" : 11, "label" : "NP_AJT", "mod" : [], "weight" : 0.686563 },
		{"id" : 11, "text" : "하는", "head" : 12, "label" : "VP_MOD", "mod" : [10], "weight" : 0.600105 },
		{"id" : 12, "text" : "수미법(收米法)", "head" : 13, "label" : "NP", "mod" : [11], "weight" : 0.884224 },
		{"id" : 13, "text" : "등을", "head" : 14, "label" : "NP_OBJ", "mod" : [12], "weight" : 0.532026 },
		{"id" : 14, "text" : "주장하였다.", "head" : -1, "label" : "VP", "mod" : [0, 1, 6, 8, 9, 13], "weight" : 0.00162111 }
	],
	"SRL" : [
		{"verb" : "주장", "sense" : 1, "word_id" : 14, "weight" : 0.258531,
			"argument" : [
				{"type" : "ARGM-TMP", "word_id" : 1, "text" : "16세기에", "weight" : 0.205804 },
				{"type" : "ARG0", "word_id" : 6, "text" : "관리는", "weight" : 0.329392 },
				{"type" : "ARG1", "word_id" : 13, "text" : "등을", "weight" : 0.240399 }
			] }
	],
	"relation" : [
	],
	"SA" : [
	],
	"ZA" : [
	]
	},
	{
	"id" : 5,
	"reserve_str" : "",
	"text" : "‘대동법’을 달리 이르는 말. 공물을 쌀로 거두어들인다는 데에서 유래한다. ",
	"morp" : [
		{"id" : 0, "lemma" : "‘", "type" : "SS", "position" : 726, "weight" : 1 },
		{"id" : 1, "lemma" : "대동", "type" : "NNG", "position" : 729, "weight" : 0.168519 },
		{"id" : 2, "lemma" : "법", "type" : "NNG", "position" : 735, "weight" : 0.11676 },
		{"id" : 3, "lemma" : "’", "type" : "SS", "position" : 738, "weight" : 1 },
		{"id" : 4, "lemma" : "을", "type" : "JKO", "position" : 741, "weight" : 0.0336085 },
		{"id" : 5, "lemma" : "달리", "type" : "MAG", "position" : 745, "weight" : 0.0295718 },
		{"id" : 6, "lemma" : "이르", "type" : "VV", "position" : 752, "weight" : 0.380808 },
		{"id" : 7, "lemma" : "는", "type" : "ETM", "position" : 758, "weight" : 0.184941 },
		{"id" : 8, "lemma" : "말", "type" : "NNG", "position" : 762, "weight" : 0.528926 },
		{"id" : 9, "lemma" : ".", "type" : "SF", "position" : 765, "weight" : 1 },
		{"id" : 10, "lemma" : "공물", "type" : "NNG", "position" : 767, "weight" : 0.9 },
		{"id" : 11, "lemma" : "을", "type" : "JKO", "position" : 773, "weight" : 0.129611 },
		{"id" : 12, "lemma" : "쌀", "type" : "NNG", "position" : 777, "weight" : 0.101366 },
		{"id" : 13, "lemma" : "로", "type" : "JKB", "position" : 780, "weight" : 0.153229 },
		{"id" : 14, "lemma" : "거두어들이", "type" : "VV", "position" : 784, "weight" : 0.9 },
		{"id" : 15, "lemma" : "ㄴ다는", "type" : "ETM", "position" : 796, "weight" : 0.317555 },
		{"id" : 16, "lemma" : "데", "type" : "NNB", "position" : 806, "weight" : 0.226476 },
		{"id" : 17, "lemma" : "에서", "type" : "JKB", "position" : 809, "weight" : 0.135597 },
		{"id" : 18, "lemma" : "유래", "type" : "NNG", "position" : 816, "weight" : 0.9 },
		{"id" : 19, "lemma" : "하", "type" : "XSV", "position" : 822, "weight" : 0.0001 },
		{"id" : 20, "lemma" : "ㄴ다", "type" : "EF", "position" : 822, "weight" : 0.0449045 },
		{"id" : 21, "lemma" : ".", "type" : "SF", "position" : 828, "weight" : 1 }
	],
	"morp_eval" : [
		{"id" : 0, "result" : "‘/SS+대동법/NNG+’/SS+을/JKO", "target" : "‘대동법’을", "word_id" : 0, "m_begin" : 0, "m_end" : 4},
		{"id" : 1, "result" : "달리/MAG", "target" : "달리", "word_id" : 1, "m_begin" : 5, "m_end" : 5},
		{"id" : 2, "result" : "이르/VV+는/ETM", "target" : "이르는", "word_id" : 2, "m_begin" : 6, "m_end" : 7},
		{"id" : 3, "result" : "말/NNG+./SF", "target" : "말.", "word_id" : 3, "m_begin" : 8, "m_end" : 9},
		{"id" : 4, "result" : "공물/NNG+을/JKO", "target" : "공물을", "word_id" : 4, "m_begin" : 10, "m_end" : 11},
		{"id" : 5, "result" : "쌀/NNG+로/JKB", "target" : "쌀로", "word_id" : 5, "m_begin" : 12, "m_end" : 13},
		{"id" : 6, "result" : "거두어들이/VV+ㄴ다는/ETM", "target" : "거두어들인다는", "word_id" : 6, "m_begin" : 14, "m_end" : 15},
		{"id" : 7, "result" : "데/NNB+에서/JKB", "target" : "데에서", "word_id" : 7, "m_begin" : 16, "m_end" : 17},
		{"id" : 8, "result" : "유래하/VV+ㄴ다/EF+./SF", "target" : "유래한다.", "word_id" : 8, "m_begin" : 18, "m_end" : 21}
	],
	"WSD" : [
		{"id" : 0, "text" : "‘", "type" : "SS", "scode" : "00", "weight" : 1, "position" : 726, "begin" : 0, "end" : 0},
		{"id" : 1, "text" : "대동법", "type" : "NNG", "scode" : "00", "weight" : 1, "position" : 729, "begin" : 1, "end" : 2},
		{"id" : 2, "text" : "’", "type" : "SS", "scode" : "00", "weight" : 1, "position" : 738, "begin" : 3, "end" : 3},
		{"id" : 3, "text" : "을", "type" : "JKO", "scode" : "00", "weight" : 1, "position" : 741, "begin" : 4, "end" : 4},
		{"id" : 4, "text" : "달리", "type" : "MAG", "scode" : "01", "weight" : 1, "position" : 745, "begin" : 5, "end" : 5},
		{"id" : 5, "text" : "이르", "type" : "VV", "scode" : "01", "weight" : 1, "position" : 752, "begin" : 6, "end" : 6},
		{"id" : 6, "text" : "는", "type" : "ETM", "scode" : "00", "weight" : 1, "position" : 758, "begin" : 7, "end" : 7},
		{"id" : 7, "text" : "말", "type" : "NNG", "scode" : "01", "weight" : 1, "position" : 762, "begin" : 8, "end" : 8},
		{"id" : 8, "text" : ".", "type" : "SF", "scode" : "00", "weight" : 1, "position" : 765, "begin" : 9, "end" : 9},
		{"id" : 9, "text" : "공물", "type" : "NNG", "scode" : "04", "weight" : 1, "position" : 767, "begin" : 10, "end" : 10},
		{"id" : 10, "text" : "을", "type" : "JKO", "scode" : "00", "weight" : 1, "position" : 773, "begin" : 11, "end" : 11},
		{"id" : 11, "text" : "쌀", "type" : "NNG", "scode" : "00", "weight" : 1, "position" : 777, "begin" : 12, "end" : 12},
		{"id" : 12, "text" : "로", "type" : "JKB", "scode" : "00", "weight" : 1, "position" : 780, "begin" : 13, "end" : 13},
		{"id" : 13, "text" : "거두어들이", "type" : "VV", "scode" : "00", "weight" : 1, "position" : 784, "begin" : 14, "end" : 14},
		{"id" : 14, "text" : "ㄴ다는", "type" : "ETM", "scode" : "00", "weight" : 1, "position" : 796, "begin" : 15, "end" : 15},
		{"id" : 15, "text" : "데", "type" : "NNB", "scode" : "01", "weight" : 1, "position" : 806, "begin" : 16, "end" : 16},
		{"id" : 16, "text" : "에서", "type" : "JKB", "scode" : "00", "weight" : 1, "position" : 809, "begin" : 17, "end" : 17},
		{"id" : 17, "text" : "유래하", "type" : "VV", "scode" : "00", "weight" : 1, "position" : 816, "begin" : 18, "end" : 19},
		{"id" : 18, "text" : "ㄴ다", "type" : "EF", "scode" : "00", "weight" : 1, "position" : 822, "begin" : 20, "end" : 20},
		{"id" : 19, "text" : ".", "type" : "SF", "scode" : "00", "weight" : 1, "position" : 828, "begin" : 21, "end" : 21}
	],
	"word" : [
		{"id" : 0, "text" : "‘대동법’을", "type" : "", "begin" : 0, "end" : 4},
		{"id" : 1, "text" : "달리", "type" : "", "begin" : 5, "end" : 5},
		{"id" : 2, "text" : "이르는", "type" : "", "begin" : 6, "end" : 7},
		{"id" : 3, "text" : "말.", "type" : "", "begin" : 8, "end" : 9},
		{"id" : 4, "text" : "공물을", "type" : "", "begin" : 10, "end" : 11},
		{"id" : 5, "text" : "쌀로", "type" : "", "begin" : 12, "end" : 13},
		{"id" : 6, "text" : "거두어들인다는", "type" : "", "begin" : 14, "end" : 15},
		{"id" : 7, "text" : "데에서", "type" : "", "begin" : 16, "end" : 17},
		{"id" : 8, "text" : "유래한다.", "type" : "", "begin" : 18, "end" : 21}
	],
	"NE" : [
		{"id" : 0, "text" : "대동법", "type" : "CV_LAW", "begin" : 1, "end" : 2, "weight" : 0.214957, "common_noun" : 0},
		{"id" : 1, "text" : "쌀", "type" : "CV_FOOD", "begin" : 12, "end" : 12, "weight" : 0.394502, "common_noun" : 0}
	],
	"chunk" : [
	],
	"dependency" : [
		{"id" : 0, "text" : "‘대동법’을", "head" : 2, "label" : "NP_OBJ", "mod" : [], "weight" : 0.904089 },
		{"id" : 1, "text" : "달리", "head" : 2, "label" : "AP", "mod" : [], "weight" : 0.855169 },
		{"id" : 2, "text" : "이르는", "head" : 3, "label" : "VP_MOD", "mod" : [0, 1], "weight" : 0.721188 },
		{"id" : 3, "text" : "말.", "head" : 8, "label" : "NP", "mod" : [2], "weight" : 0.404454 },
		{"id" : 4, "text" : "공물을", "head" : 6, "label" : "NP_OBJ", "mod" : [], "weight" : 0.873313 },
		{"id" : 5, "text" : "쌀로", "head" : 6, "label" : "NP_AJT", "mod" : [], "weight" : 0.920288 },
		{"id" : 6, "text" : "거두어들인다는", "head" : 7, "label" : "VP_MOD", "mod" : [4, 5], "weight" : 0.856531 },
		{"id" : 7, "text" : "데에서", "head" : 8, "label" : "NP_AJT", "mod" : [6], "weight" : 0.741204 },
		{"id" : 8, "text" : "유래한다.", "head" : -1, "label" : "VP", "mod" : [3, 7], "weight" : 0.0698063 }
	],
	"SRL" : [
		{"verb" : "이르", "sense" : 1, "word_id" : 2, "weight" : 0.26268,
			"argument" : [
				{"type" : "ARG1", "word_id" : 0, "text" : "‘대동법’을", "weight" : 0.276163 },
				{"type" : "ARGM-MNR", "word_id" : 1, "text" : "달리", "weight" : 0.249197 }
			] },
		{"verb" : "거두어들이", "sense" : 1, "word_id" : 6, "weight" : 0.198412,
			"argument" : [
				{"type" : "ARG1", "word_id" : 4, "text" : "공물을", "weight" : 0.268936 },
				{"type" : "ARGM-PRD", "word_id" : 5, "text" : "쌀로", "weight" : 0.127887 }
			] },
		{"verb" : "유래", "sense" : 1, "word_id" : 8, "weight" : 0.344835,
			"argument" : [
				{"type" : "ARG2", "word_id" : 7, "text" : "데에서", "weight" : 0.344835 }
			] }
	],
	"relation" : [
	],
	"SA" : [
	],
	"ZA" : [
		{"id" : 0, "verb_wid" : 8, "ant_sid" : -1, "ant_wid" : -1, "type" : "s", "istitle" : 0, "weight" : 0.194843 }
	]
	}
 ],
 "entity" : [
	{"id" : 0, "type" : "", "number" : "singular", "gender" : "", "person" : "", "animacy" : "", "loc" : "", 
	 "mention" : [
		{"id" : 0, "sent_id" : 0, "start_eid" : 0, "end_eid" : 6, "ne_id" : -1, "text" : "﻿조선 중기인 16세기부터 지방의 특산물을 바치던 공납", "start_eid_short" : 6, "end_eid_short" : 6, "text_short" : "공납", "weight" : 0.034 },
		{"id" : 8, "sent_id" : 1, "start_eid" : 0, "end_eid" : 0, "ne_id" : -1, "text" : "공납", "start_eid_short" : 0, "end_eid_short" : 0, "text_short" : "공납", "weight" : 0.038 },
		{"id" : 14, "sent_id" : 1, "start_eid" : 9, "end_eid" : 9, "ne_id" : -1, "text" : "공납", "start_eid_short" : 9, "end_eid_short" : 9, "text_short" : "공납", "weight" : 0.044 },
		{"id" : 40, "sent_id" : 4, "start_eid" : 7, "end_eid" : 7, "ne_id" : -1, "text" : "공납", "start_eid_short" : 7, "end_eid_short" : 7, "text_short" : "공납", "weight" : 0.044 }
	] },
	{"id" : 1, "type" : "DT_OTHERS", "number" : "singular", "gender" : "", "person" : "", "animacy" : "", "loc" : "", 
	 "mention" : [
		{"id" : 33, "sent_id" : 4, "start_eid" : 1, "end_eid" : 1, "ne_id" : 0, "text" : "16세기", "start_eid_short" : 1, "end_eid_short" : 1, "text_short" : "16세기", "weight" : 0.01 },
		{"id" : 1, "sent_id" : 0, "start_eid" : 0, "end_eid" : 2, "ne_id" : 1, "text" : "﻿조선 중기인 16세기", "start_eid_short" : 2, "end_eid_short" : 2, "text_short" : "16세기", "weight" : 0.006 }
	] },
	{"id" : 2, "type" : "", "number" : "singular", "gender" : "", "person" : "", "animacy" : "", "loc" : "", 
	 "mention" : [
		{"id" : 9, "sent_id" : 1, "start_eid" : 1, "end_eid" : 2, "ne_id" : -1, "text" : "지방의 특산물", "start_eid_short" : 1, "end_eid_short" : 2, "text_short" : "지방의 특산물", "weight" : 0.016 },
		{"id" : 3, "sent_id" : 0, "start_eid" : 3, "end_eid" : 4, "ne_id" : -1, "text" : "지방의 특산물", "start_eid_short" : 3, "end_eid_short" : 4, "text_short" : "지방의 특산물", "weight" : 0.01 }
	] },
	{"id" : 3, "type" : "", "number" : "singular", "gender" : "", "person" : "", "animacy" : "", "loc" : "", 
	 "mention" : [
		{"id" : 18, "sent_id" : 2, "start_eid" : 2, "end_eid" : 2, "ne_id" : -1, "text" : "지방", "start_eid_short" : 2, "end_eid_short" : 2, "text_short" : "지방", "weight" : 0.03 },
		{"id" : 10, "sent_id" : 1, "start_eid" : 1, "end_eid" : 1, "ne_id" : -1, "text" : "지방", "start_eid_short" : 1, "end_eid_short" : 1, "text_short" : "지방", "weight" : 0.03 },
		{"id" : 4, "sent_id" : 0, "start_eid" : 3, "end_eid" : 3, "ne_id" : -1, "text" : "지방", "start_eid_short" : 3, "end_eid_short" : 3, "text_short" : "지방", "weight" : 0.024 }
	] },
	{"id" : 4, "type" : "", "number" : "singular", "gender" : "", "person" : "", "animacy" : "", "loc" : "", 
	 "mention" : [
		{"id" : 15, "sent_id" : 2, "start_eid" : 0, "end_eid" : 0, "ne_id" : -1, "text" : "이", "start_eid_short" : 0, "end_eid_short" : 0, "text_short" : "이", "weight" : 0 },
		{"id" : 32, "sent_id" : 4, "start_eid" : 0, "end_eid" : 0, "ne_id" : -1, "text" : "이", "start_eid_short" : 0, "end_eid_short" : 0, "text_short" : "이", "weight" : 0.006 }
	] },
	{"id" : 5, "type" : "", "number" : "singular", "gender" : "", "person" : "", "animacy" : "", "loc" : "", 
	 "mention" : [
		{"id" : 17, "sent_id" : 2, "start_eid" : 2, "end_eid" : 4, "ne_id" : -1, "text" : "지방에서 납부할 공물", "start_eid_short" : 4, "end_eid_short" : 4, "text_short" : "공물", "weight" : 0.006 },
		{"id" : 47, "sent_id" : 5, "start_eid" : 4, "end_eid" : 4, "ne_id" : -1, "text" : "공물", "start_eid_short" : 4, "end_eid_short" : 4, "text_short" : "공물", "weight" : 0.01 }
	] },
	{"id" : 6, "type" : "", "number" : "singular", "gender" : "", "person" : "", "animacy" : "", "loc" : "", 
	 "mention" : [
		{"id" : 41, "sent_id" : 4, "start_eid" : 9, "end_eid" : 9, "ne_id" : -1, "text" : "대신", "start_eid_short" : 9, "end_eid_short" : 9, "text_short" : "대신", "weight" : 0.016 },
		{"id" : 21, "sent_id" : 2, "start_eid" : 7, "end_eid" : 7, "ne_id" : -1, "text" : "대신", "start_eid_short" : 7, "end_eid_short" : 7, "text_short" : "대신", "weight" : 0.01 }
	] },
	{"id" : 7, "type" : "PS_NAME", "number" : "singular", "gender" : "", "person" : "", "animacy" : "", "loc" : "", 
	 "mention" : [
		{"id" : 22, "sent_id" : 2, "start_eid" : 9, "end_eid" : 9, "ne_id" : 0, "text" : "농민", "start_eid_short" : 9, "end_eid_short" : 9, "text_short" : "농민", "weight" : 0.01 },
		{"id" : 29, "sent_id" : 3, "start_eid" : 6, "end_eid" : 6, "ne_id" : 1, "text" : "농민", "start_eid_short" : 6, "end_eid_short" : 6, "text_short" : "농민", "weight" : 0.016 },
		{"id" : 42, "sent_id" : 4, "start_eid" : 10, "end_eid" : 10, "ne_id" : -1, "text" : "나", "start_eid_short" : 10, "end_eid_short" : 10, "text_short" : "나", "weight" : 0.006 },
		{"id" : 38, "sent_id" : 4, "start_eid" : 3, "end_eid" : 3, "ne_id" : 2, "text" : "이이", "start_eid_short" : 3, "end_eid_short" : 3, "text_short" : "이이,", "weight" : 0.006 }
	] },
	{"id" : 8, "type" : "", "number" : "singular", "gender" : "", "person" : "", "animacy" : "", "loc" : "", 
	 "mention" : [
		{"id" : 23, "sent_id" : 2, "start_eid" : 10, "end_eid" : 10, "ne_id" : -1, "text" : "대가", "start_eid_short" : 10, "end_eid_short" : 10, "text_short" : "대가", "weight" : 0.01 },
		{"id" : 27, "sent_id" : 3, "start_eid" : 4, "end_eid" : 4, "ne_id" : -1, "text" : "대가", "start_eid_short" : 4, "end_eid_short" : 4, "text_short" : "대가", "weight" : 0.016 }
	] },
	{"id" : 9, "type" : "CV_FOOD", "number" : "singular", "gender" : "", "person" : "", "animacy" : "", "loc" : "", 
	 "mention" : [
		{"id" : 39, "sent_id" : 4, "start_eid" : 7, "end_eid" : 8, "ne_id" : 4, "text" : "공납을 쌀", "start_eid_short" : 8, "end_eid_short" : 8, "text_short" : "쌀", "weight" : 0.006 },
		{"id" : 48, "sent_id" : 5, "start_eid" : 5, "end_eid" : 5, "ne_id" : 1, "text" : "쌀", "start_eid_short" : 5, "end_eid_short" : 5, "text_short" : "쌀", "weight" : 0.01 }
	] }
 ]
}

