{"doc_id" : "",
 "DCT" : "",
 "category" : "",
 "category_weight" : 0,
 "title" : {"text" : "", "NE" : ""},
 "metaInfo" : { },
 "sentence" : [
	{
	"id" : 0,
	"reserve_str" : "",
	"text" : "이명진(1974년 4월 12일 ~ )은 대한민국의 만화가이다.",
	"morp" : [
		{"id" : 0, "lemma" : "이명진", "type" : "NNP", "position" : 0, "weight" : 0.65 },
		{"id" : 1, "lemma" : "(", "type" : "SS", "position" : 9, "weight" : 1 },
		{"id" : 2, "lemma" : "1974", "type" : "SN", "position" : 10, "weight" : 1 },
		{"id" : 3, "lemma" : "년", "type" : "NNB", "position" : 14, "weight" : 0.414343 },
		{"id" : 4, "lemma" : "4", "type" : "SN", "position" : 18, "weight" : 1 },
		{"id" : 5, "lemma" : "월", "type" : "NNB", "position" : 19, "weight" : 0.408539 },
		{"id" : 6, "lemma" : "12", "type" : "SN", "position" : 23, "weight" : 1 },
		{"id" : 7, "lemma" : "일", "type" : "NNB", "position" : 25, "weight" : 0.126777 },
		{"id" : 8, "lemma" : "~", "type" : "SO", "position" : 29, "weight" : 1 },
		{"id" : 9, "lemma" : ")", "type" : "SS", "position" : 31, "weight" : 1 },
		{"id" : 10, "lemma" : "은", "type" : "JX", "position" : 32, "weight" : 0.0128817 },
		{"id" : 11, "lemma" : "대한민국", "type" : "NNP", "position" : 36, "weight" : 0.0447775 },
		{"id" : 12, "lemma" : "의", "type" : "JKG", "position" : 48, "weight" : 0.0987295 },
		{"id" : 13, "lemma" : "만화", "type" : "NNG", "position" : 52, "weight" : 0.83848 },
		{"id" : 14, "lemma" : "가", "type" : "XSN", "position" : 58, "weight" : 0.000115417 },
		{"id" : 15, "lemma" : "이", "type" : "VCP", "position" : 61, "weight" : 0.0165001 },
		{"id" : 16, "lemma" : "다", "type" : "EF", "position" : 64, "weight" : 0.353579 },
		{"id" : 17, "lemma" : ".", "type" : "SF", "position" : 67, "weight" : 1 }
	],
	"morp_eval" : [
		{"id" : 0, "result" : "이명진/NNG+(/SS+1974/SN+년/NNB", "target" : "이명진(1974년", "word_id" : 0, "m_begin" : 0, "m_end" : 3},
		{"id" : 1, "result" : "4/SN+월/NNB", "target" : "4월", "word_id" : 1, "m_begin" : 4, "m_end" : 5},
		{"id" : 2, "result" : "12/SN+일/NNB", "target" : "12일", "word_id" : 2, "m_begin" : 6, "m_end" : 7},
		{"id" : 3, "result" : "~/SO", "target" : "~", "word_id" : 3, "m_begin" : 8, "m_end" : 8},
		{"id" : 4, "result" : ")/SS+은/JX", "target" : ")은", "word_id" : 4, "m_begin" : 9, "m_end" : 10},
		{"id" : 5, "result" : "대한민국/NNG+의/JKG", "target" : "대한민국의", "word_id" : 5, "m_begin" : 11, "m_end" : 12},
		{"id" : 6, "result" : "만화가/NNG+이/VCP+다/EF+./SF", "target" : "만화가이다.", "word_id" : 6, "m_begin" : 13, "m_end" : 17}
	],
	"WSD" : [
		{"id" : 0, "text" : "이명진", "type" : "NNP", "scode" : "00", "weight" : 1, "position" : 0, "begin" : 0, "end" : 0},
		{"id" : 1, "text" : "(", "type" : "SS", "scode" : "00", "weight" : 1, "position" : 9, "begin" : 1, "end" : 1},
		{"id" : 2, "text" : "1974", "type" : "SN", "scode" : "00", "weight" : 1, "position" : 10, "begin" : 2, "end" : 2},
		{"id" : 3, "text" : "년", "type" : "NNB", "scode" : "02", "weight" : 1, "position" : 14, "begin" : 3, "end" : 3},
		{"id" : 4, "text" : "4", "type" : "SN", "scode" : "00", "weight" : 1, "position" : 18, "begin" : 4, "end" : 4},
		{"id" : 5, "text" : "월", "type" : "NNB", "scode" : "02", "weight" : 1, "position" : 19, "begin" : 5, "end" : 5},
		{"id" : 6, "text" : "12", "type" : "SN", "scode" : "00", "weight" : 1, "position" : 23, "begin" : 6, "end" : 6},
		{"id" : 7, "text" : "일", "type" : "NNB", "scode" : "07", "weight" : 1, "position" : 25, "begin" : 7, "end" : 7},
		{"id" : 8, "text" : "~", "type" : "SO", "scode" : "00", "weight" : 1, "position" : 29, "begin" : 8, "end" : 8},
		{"id" : 9, "text" : ")", "type" : "SS", "scode" : "00", "weight" : 1, "position" : 31, "begin" : 9, "end" : 9},
		{"id" : 10, "text" : "은", "type" : "JX", "scode" : "00", "weight" : 1, "position" : 32, "begin" : 10, "end" : 10},
		{"id" : 11, "text" : "대한민국", "type" : "NNP", "scode" : "00", "weight" : 1, "position" : 36, "begin" : 11, "end" : 11},
		{"id" : 12, "text" : "의", "type" : "JKG", "scode" : "00", "weight" : 1, "position" : 48, "begin" : 12, "end" : 12},
		{"id" : 13, "text" : "만화가", "type" : "NNG", "scode" : "00", "weight" : 1, "position" : 52, "begin" : 13, "end" : 14},
		{"id" : 14, "text" : "이", "type" : "VCP", "scode" : "00", "weight" : 1, "position" : 61, "begin" : 15, "end" : 15},
		{"id" : 15, "text" : "다", "type" : "EF", "scode" : "00", "weight" : 1, "position" : 64, "begin" : 16, "end" : 16},
		{"id" : 16, "text" : ".", "type" : "SF", "scode" : "00", "weight" : 1, "position" : 67, "begin" : 17, "end" : 17}
	],
	"word" : [
		{"id" : 0, "text" : "이명진(1974년", "type" : "", "begin" : 0, "end" : 3},
		{"id" : 1, "text" : "4월", "type" : "", "begin" : 4, "end" : 5},
		{"id" : 2, "text" : "12일", "type" : "", "begin" : 6, "end" : 7},
		{"id" : 3, "text" : "~", "type" : "", "begin" : 8, "end" : 8},
		{"id" : 4, "text" : ")은", "type" : "", "begin" : 9, "end" : 10},
		{"id" : 5, "text" : "대한민국의", "type" : "", "begin" : 11, "end" : 12},
		{"id" : 6, "text" : "만화가이다.", "type" : "", "begin" : 13, "end" : 17}
	],
	"NE" : [
		{"id" : 0, "text" : "이명진", "type" : "PS_NAME", "begin" : 0, "end" : 0, "weight" : 0.397531, "common_noun" : 0},
		{"id" : 1, "text" : "1974년 4월 12일 ~", "type" : "DT_OTHERS", "begin" : 2, "end" : 8, "weight" : 0.569263, "common_noun" : 0},
		{"id" : 2, "text" : "대한민국", "type" : "LCP_COUNTRY", "begin" : 11, "end" : 11, "weight" : 0.18423, "common_noun" : 0},
		{"id" : 3, "text" : "만화가", "type" : "CV_OCCUPATION", "begin" : 13, "end" : 14, "weight" : 0.285657, "common_noun" : 0}
	],
	"chunk" : [
	],
	"dependency" : [
		{"id" : 0, "text" : "이명진(1974년", "head" : 1, "label" : "NP", "mod" : [], "weight" : 0.577197 },
		{"id" : 1, "text" : "4월", "head" : 2, "label" : "NP", "mod" : [0], "weight" : 0.72449 },
		{"id" : 2, "text" : "12일", "head" : 3, "label" : "NP", "mod" : [1], "weight" : 0.2888 },
		{"id" : 3, "text" : "~", "head" : 4, "label" : "X", "mod" : [2], "weight" : 0.749806 },
		{"id" : 4, "text" : ")은", "head" : 6, "label" : "NP_SBJ", "mod" : [3], "weight" : 0.448183 },
		{"id" : 5, "text" : "대한민국의", "head" : 6, "label" : "NP_MOD", "mod" : [], "weight" : 0.431135 },
		{"id" : 6, "text" : "만화가이다.", "head" : -1, "label" : "VNP", "mod" : [4, 5], "weight" : 0.0101576 }
	],
	"SRL" : [
	],
	"relation" : [
	],
	"SA" : [
	],
	"ZA" : [
	]
	},
	{
	"id" : 1,
	"reserve_str" : "",
	"text" : "1992년 대원이 주최한 제1회 챔프슈퍼만화대상에서《어쩐지 좋은 일이 생길것 같은 저녁》으로 우수상을 받으면서 만화가로 등단했다.",
	"morp" : [
		{"id" : 0, "lemma" : "1992", "type" : "SN", "position" : 68, "weight" : 1 },
		{"id" : 1, "lemma" : "년", "type" : "NNB", "position" : 72, "weight" : 0.414343 },
		{"id" : 2, "lemma" : "대원", "type" : "NNG", "position" : 76, "weight" : 0.107926 },
		{"id" : 3, "lemma" : "이", "type" : "JKS", "position" : 82, "weight" : 0.0360723 },
		{"id" : 4, "lemma" : "주최", "type" : "NNG", "position" : 86, "weight" : 0.9 },
		{"id" : 5, "lemma" : "하", "type" : "XSV", "position" : 92, "weight" : 0.0001 },
		{"id" : 6, "lemma" : "ㄴ", "type" : "ETM", "position" : 92, "weight" : 0.392321 },
		{"id" : 7, "lemma" : "제", "type" : "XPN", "position" : 96, "weight" : 0.000887051 },
		{"id" : 8, "lemma" : "1", "type" : "SN", "position" : 99, "weight" : 1 },
		{"id" : 9, "lemma" : "회", "type" : "NNB", "position" : 100, "weight" : 0.258682 },
		{"id" : 10, "lemma" : "챔프", "type" : "NNG", "position" : 104, "weight" : 0.45 },
		{"id" : 11, "lemma" : "슈퍼", "type" : "NNG", "position" : 110, "weight" : 0.9 },
		{"id" : 12, "lemma" : "만화", "type" : "NNG", "position" : 116, "weight" : 0.177848 },
		{"id" : 13, "lemma" : "대상", "type" : "NNG", "position" : 122, "weight" : 0.184636 },
		{"id" : 14, "lemma" : "에서", "type" : "JKB", "position" : 128, "weight" : 0.153407 },
		{"id" : 15, "lemma" : "《", "type" : "SS", "position" : 134, "weight" : 1 },
		{"id" : 16, "lemma" : "어쩐지", "type" : "MAG", "position" : 137, "weight" : 0.9 },
		{"id" : 17, "lemma" : "좋", "type" : "VA", "position" : 147, "weight" : 0.133231 },
		{"id" : 18, "lemma" : "은", "type" : "ETM", "position" : 150, "weight" : 0.155123 },
		{"id" : 19, "lemma" : "일", "type" : "NNG", "position" : 154, "weight" : 0.421798 },
		{"id" : 20, "lemma" : "이", "type" : "JKS", "position" : 157, "weight" : 0.0360723 },
		{"id" : 21, "lemma" : "생길것", "type" : "NNP", "position" : 161, "weight" : 0.6 },
		{"id" : 22, "lemma" : "같", "type" : "VA", "position" : 171, "weight" : 0.0012625 },
		{"id" : 23, "lemma" : "은", "type" : "ETM", "position" : 174, "weight" : 0.155123 },
		{"id" : 24, "lemma" : "저녁", "type" : "NNG", "position" : 178, "weight" : 0.9 },
		{"id" : 25, "lemma" : "》", "type" : "SS", "position" : 184, "weight" : 1 },
		{"id" : 26, "lemma" : "으로", "type" : "JKB", "position" : 187, "weight" : 0.0486063 },
		{"id" : 27, "lemma" : "우수", "type" : "NNG", "position" : 194, "weight" : 0.207448 },
		{"id" : 28, "lemma" : "상", "type" : "NNG", "position" : 200, "weight" : 0.0834075 },
		{"id" : 29, "lemma" : "을", "type" : "JKO", "position" : 203, "weight" : 0.129611 },
		{"id" : 30, "lemma" : "받", "type" : "VV", "position" : 207, "weight" : 0.765648 },
		{"id" : 31, "lemma" : "으면서", "type" : "EC", "position" : 210, "weight" : 0.428734 },
		{"id" : 32, "lemma" : "만화", "type" : "NNG", "position" : 220, "weight" : 0.211124 },
		{"id" : 33, "lemma" : "가", "type" : "XSN", "position" : 226, "weight" : 0.000115417 },
		{"id" : 34, "lemma" : "로", "type" : "JKB", "position" : 229, "weight" : 0.121577 },
		{"id" : 35, "lemma" : "등단", "type" : "NNG", "position" : 233, "weight" : 0.9 },
		{"id" : 36, "lemma" : "하", "type" : "XSV", "position" : 239, "weight" : 0.0001 },
		{"id" : 37, "lemma" : "었", "type" : "EP", "position" : 239, "weight" : 0.9 },
		{"id" : 38, "lemma" : "다", "type" : "EF", "position" : 242, "weight" : 0.640954 },
		{"id" : 39, "lemma" : ".", "type" : "SF", "position" : 245, "weight" : 1 }
	],
	"morp_eval" : [
		{"id" : 0, "result" : "1992/SN+년/NNB", "target" : "1992년", "word_id" : 0, "m_begin" : 0, "m_end" : 1},
		{"id" : 1, "result" : "대원/NNG+이/JKS", "target" : "대원이", "word_id" : 1, "m_begin" : 2, "m_end" : 3},
		{"id" : 2, "result" : "주최하/VV+ㄴ/ETM", "target" : "주최한", "word_id" : 2, "m_begin" : 4, "m_end" : 6},
		{"id" : 3, "result" : "제/XPN+1/SN+회/NNB", "target" : "제1회", "word_id" : 3, "m_begin" : 7, "m_end" : 9},
		{"id" : 4, "result" : "챔프슈퍼만화대상/NNG+에서/JKB+《/SS+어쩐지/MAG", "target" : "챔프슈퍼만화대상에서《어쩐지", "word_id" : 4, "m_begin" : 10, "m_end" : 16},
		{"id" : 5, "result" : "좋/VA+은/ETM", "target" : "좋은", "word_id" : 5, "m_begin" : 17, "m_end" : 18},
		{"id" : 6, "result" : "일/NNG+이/JKS", "target" : "일이", "word_id" : 6, "m_begin" : 19, "m_end" : 20},
		{"id" : 7, "result" : "생길것/NNG", "target" : "생길것", "word_id" : 7, "m_begin" : 21, "m_end" : 21},
		{"id" : 8, "result" : "같/VA+은/ETM", "target" : "같은", "word_id" : 8, "m_begin" : 22, "m_end" : 23},
		{"id" : 9, "result" : "저녁/NNG+》/SS+으로/JKB", "target" : "저녁》으로", "word_id" : 9, "m_begin" : 24, "m_end" : 26},
		{"id" : 10, "result" : "우수상/NNG+을/JKO", "target" : "우수상을", "word_id" : 10, "m_begin" : 27, "m_end" : 29},
		{"id" : 11, "result" : "받/VV+으면서/EC", "target" : "받으면서", "word_id" : 11, "m_begin" : 30, "m_end" : 31},
		{"id" : 12, "result" : "만화가/NNG+로/JKB", "target" : "만화가로", "word_id" : 12, "m_begin" : 32, "m_end" : 34},
		{"id" : 13, "result" : "등단하/VV+었/EP+다/EF+./SF", "target" : "등단했다.", "word_id" : 13, "m_begin" : 35, "m_end" : 39}
	],
	"WSD" : [
		{"id" : 0, "text" : "1992", "type" : "SN", "scode" : "00", "weight" : 1, "position" : 68, "begin" : 0, "end" : 0},
		{"id" : 1, "text" : "년", "type" : "NNB", "scode" : "02", "weight" : 1, "position" : 72, "begin" : 1, "end" : 1},
		{"id" : 2, "text" : "대원", "type" : "NNG", "scode" : "08", "weight" : 1, "position" : 76, "begin" : 2, "end" : 2},
		{"id" : 3, "text" : "이", "type" : "JKS", "scode" : "00", "weight" : 1, "position" : 82, "begin" : 3, "end" : 3},
		{"id" : 4, "text" : "주최하", "type" : "VV", "scode" : "00", "weight" : 1, "position" : 86, "begin" : 4, "end" : 5},
		{"id" : 5, "text" : "ㄴ", "type" : "ETM", "scode" : "00", "weight" : 1, "position" : 92, "begin" : 6, "end" : 6},
		{"id" : 6, "text" : "제", "type" : "XPN", "scode" : "21", "weight" : 1, "position" : 96, "begin" : 7, "end" : 7},
		{"id" : 7, "text" : "1", "type" : "SN", "scode" : "00", "weight" : 1, "position" : 99, "begin" : 8, "end" : 8},
		{"id" : 8, "text" : "회", "type" : "NNB", "scode" : "08", "weight" : 1, "position" : 100, "begin" : 9, "end" : 9},
		{"id" : 9, "text" : "챔프", "type" : "NNG", "scode" : "00", "weight" : 1, "position" : 104, "begin" : 10, "end" : 10},
		{"id" : 10, "text" : "슈퍼", "type" : "NNG", "scode" : "00", "weight" : 1, "position" : 110, "begin" : 11, "end" : 11},
		{"id" : 11, "text" : "만화", "type" : "NNG", "scode" : "10", "weight" : 1, "position" : 116, "begin" : 12, "end" : 12},
		{"id" : 12, "text" : "대상", "type" : "NNG", "scode" : "11", "weight" : 1, "position" : 122, "begin" : 13, "end" : 13},
		{"id" : 13, "text" : "에서", "type" : "JKB", "scode" : "00", "weight" : 1, "position" : 128, "begin" : 14, "end" : 14},
		{"id" : 14, "text" : "《", "type" : "SS", "scode" : "00", "weight" : 1, "position" : 134, "begin" : 15, "end" : 15},
		{"id" : 15, "text" : "어쩐지", "type" : "MAG", "scode" : "00", "weight" : 1, "position" : 137, "begin" : 16, "end" : 16},
		{"id" : 16, "text" : "좋", "type" : "VA", "scode" : "01", "weight" : 1, "position" : 147, "begin" : 17, "end" : 17},
		{"id" : 17, "text" : "은", "type" : "ETM", "scode" : "00", "weight" : 1, "position" : 150, "begin" : 18, "end" : 18},
		{"id" : 18, "text" : "일", "type" : "NNG", "scode" : "01", "weight" : 1, "position" : 154, "begin" : 19, "end" : 19},
		{"id" : 19, "text" : "이", "type" : "JKS", "scode" : "00", "weight" : 1, "position" : 157, "begin" : 20, "end" : 20},
		{"id" : 20, "text" : "생길것", "type" : "NNP", "scode" : "00", "weight" : 0, "position" : 161, "begin" : 21, "end" : 21},
		{"id" : 21, "text" : "같", "type" : "VA", "scode" : "00", "weight" : 1, "position" : 171, "begin" : 22, "end" : 22},
		{"id" : 22, "text" : "은", "type" : "ETM", "scode" : "00", "weight" : 1, "position" : 174, "begin" : 23, "end" : 23},
		{"id" : 23, "text" : "저녁", "type" : "NNG", "scode" : "00", "weight" : 1, "position" : 178, "begin" : 24, "end" : 24},
		{"id" : 24, "text" : "》", "type" : "SS", "scode" : "00", "weight" : 1, "position" : 184, "begin" : 25, "end" : 25},
		{"id" : 25, "text" : "으로", "type" : "JKB", "scode" : "00", "weight" : 1, "position" : 187, "begin" : 26, "end" : 26},
		{"id" : 26, "text" : "우수", "type" : "NNG", "scode" : "11", "weight" : 1, "position" : 194, "begin" : 27, "end" : 27},
		{"id" : 27, "text" : "상", "type" : "NNG", "scode" : "25", "weight" : 1, "position" : 200, "begin" : 28, "end" : 28},
		{"id" : 28, "text" : "을", "type" : "JKO", "scode" : "00", "weight" : 1, "position" : 203, "begin" : 29, "end" : 29},
		{"id" : 29, "text" : "받", "type" : "VV", "scode" : "01", "weight" : 1, "position" : 207, "begin" : 30, "end" : 30},
		{"id" : 30, "text" : "으면서", "type" : "EC", "scode" : "00", "weight" : 1, "position" : 210, "begin" : 31, "end" : 31},
		{"id" : 31, "text" : "만화가", "type" : "NNG", "scode" : "00", "weight" : 1, "position" : 220, "begin" : 32, "end" : 33},
		{"id" : 32, "text" : "로", "type" : "JKB", "scode" : "00", "weight" : 1, "position" : 229, "begin" : 34, "end" : 34},
		{"id" : 33, "text" : "등단하", "type" : "VV", "scode" : "00", "weight" : 1, "position" : 233, "begin" : 35, "end" : 36},
		{"id" : 34, "text" : "었", "type" : "EP", "scode" : "00", "weight" : 1, "position" : 239, "begin" : 37, "end" : 37},
		{"id" : 35, "text" : "다", "type" : "EF", "scode" : "00", "weight" : 1, "position" : 242, "begin" : 38, "end" : 38},
		{"id" : 36, "text" : ".", "type" : "SF", "scode" : "00", "weight" : 1, "position" : 245, "begin" : 39, "end" : 39}
	],
	"word" : [
		{"id" : 0, "text" : "1992년", "type" : "", "begin" : 0, "end" : 1},
		{"id" : 1, "text" : "대원이", "type" : "", "begin" : 2, "end" : 3},
		{"id" : 2, "text" : "주최한", "type" : "", "begin" : 4, "end" : 6},
		{"id" : 3, "text" : "제1회", "type" : "", "begin" : 7, "end" : 9},
		{"id" : 4, "text" : "챔프슈퍼만화대상에서《어쩐지", "type" : "", "begin" : 10, "end" : 16},
		{"id" : 5, "text" : "좋은", "type" : "", "begin" : 17, "end" : 18},
		{"id" : 6, "text" : "일이", "type" : "", "begin" : 19, "end" : 20},
		{"id" : 7, "text" : "생길것", "type" : "", "begin" : 21, "end" : 21},
		{"id" : 8, "text" : "같은", "type" : "", "begin" : 22, "end" : 23},
		{"id" : 9, "text" : "저녁》으로", "type" : "", "begin" : 24, "end" : 26},
		{"id" : 10, "text" : "우수상을", "type" : "", "begin" : 27, "end" : 29},
		{"id" : 11, "text" : "받으면서", "type" : "", "begin" : 30, "end" : 31},
		{"id" : 12, "text" : "만화가로", "type" : "", "begin" : 32, "end" : 34},
		{"id" : 13, "text" : "등단했다.", "type" : "", "begin" : 35, "end" : 39}
	],
	"NE" : [
		{"id" : 0, "text" : "1992년", "type" : "DT_YEAR", "begin" : 0, "end" : 1, "weight" : 0.628107, "common_noun" : 0},
		{"id" : 1, "text" : "대원", "type" : "CV_POSITION", "begin" : 2, "end" : 2, "weight" : 0.164174, "common_noun" : 0},
		{"id" : 2, "text" : "제1회", "type" : "QT_ORDER", "begin" : 7, "end" : 9, "weight" : 0.817691, "common_noun" : 0},
		{"id" : 3, "text" : "챔프슈퍼만화대상", "type" : "EV_OTHERS", "begin" : 10, "end" : 13, "weight" : 0.734844, "common_noun" : 0},
		{"id" : 4, "text" : "어쩐지 좋", "type" : "AFW_DOCUMENT", "begin" : 16, "end" : 17, "weight" : 0.594306, "common_noun" : 0},
		{"id" : 5, "text" : "저녁", "type" : "TI_DURATION", "begin" : 24, "end" : 24, "weight" : 0.195438, "common_noun" : 0},
		{"id" : 6, "text" : "우수상", "type" : "CV_PRIZE", "begin" : 27, "end" : 28, "weight" : 0.564516, "common_noun" : 0},
		{"id" : 7, "text" : "만화가", "type" : "CV_OCCUPATION", "begin" : 32, "end" : 33, "weight" : 0.298713, "common_noun" : 0}
	],
	"chunk" : [
	],
	"dependency" : [
		{"id" : 0, "text" : "1992년", "head" : 1, "label" : "NP", "mod" : [], "weight" : 0.549828 },
		{"id" : 1, "text" : "대원이", "head" : 2, "label" : "NP_SBJ", "mod" : [0], "weight" : 0.72169 },
		{"id" : 2, "text" : "주최한", "head" : 9, "label" : "VP_MOD", "mod" : [1], "weight" : 0.980083 },
		{"id" : 3, "text" : "제1회", "head" : 9, "label" : "NP", "mod" : [], "weight" : 0.677819 },
		{"id" : 4, "text" : "챔프슈퍼만화대상에서《어쩐지", "head" : 5, "label" : "AP", "mod" : [], "weight" : 0.335373 },
		{"id" : 5, "text" : "좋은", "head" : 6, "label" : "VP_MOD", "mod" : [4], "weight" : 0.661662 },
		{"id" : 6, "text" : "일이", "head" : 9, "label" : "NP", "mod" : [5], "weight" : 0.287205 },
		{"id" : 7, "text" : "생길것", "head" : 8, "label" : "NP_AJT", "mod" : [], "weight" : 0.917811 },
		{"id" : 8, "text" : "같은", "head" : 9, "label" : "VP_MOD", "mod" : [7], "weight" : 0.959623 },
		{"id" : 9, "text" : "저녁》으로", "head" : 11, "label" : "NP_AJT", "mod" : [2, 3, 6, 8], "weight" : 0.973537 },
		{"id" : 10, "text" : "우수상을", "head" : 11, "label" : "NP_OBJ", "mod" : [], "weight" : 0.896407 },
		{"id" : 11, "text" : "받으면서", "head" : 13, "label" : "VP", "mod" : [9, 10], "weight" : 0.57793 },
		{"id" : 12, "text" : "만화가로", "head" : 13, "label" : "NP_AJT", "mod" : [], "weight" : 0.491569 },
		{"id" : 13, "text" : "등단했다.", "head" : -1, "label" : "VP", "mod" : [11, 12], "weight" : 0.00200514 }
	],
	"SRL" : [
		{"verb" : "주최", "sense" : 1, "word_id" : 2, "weight" : 0.230745,
			"argument" : [
				{"type" : "ARG0", "word_id" : 1, "text" : "대원이", "weight" : 0.230745 }
			] },
		{"verb" : "좋", "sense" : 1, "word_id" : 5, "weight" : 0.454614,
			"argument" : [
				{"type" : "ARG1", "word_id" : 6, "text" : "일이", "weight" : 0.454614 }
			] },
		{"verb" : "같", "sense" : 1, "word_id" : 8, "weight" : 0.182657,
			"argument" : [
				{"type" : "ARG2", "word_id" : 7, "text" : "생길것", "weight" : 0.165351 },
				{"type" : "ARG1", "word_id" : 9, "text" : "저녁》으로", "weight" : 0.199962 }
			] },
		{"verb" : "받", "sense" : 1, "word_id" : 11, "weight" : 0.169877,
			"argument" : [
				{"type" : "ARGM-TMP", "word_id" : 9, "text" : "저녁》으로", "weight" : 0.0938028 },
				{"type" : "ARG1", "word_id" : 10, "text" : "우수상을", "weight" : 0.245951 }
			] },
		{"verb" : "등단", "sense" : 1, "word_id" : 13, "weight" : 0.0899421,
			"argument" : [
				{"type" : "ARG2", "word_id" : 12, "text" : "만화가로", "weight" : 0.0899421 }
			] }
	],
	"relation" : [
	],
	"SA" : [
	],
	"ZA" : [
		{"id" : 0, "verb_wid" : 11, "ant_sid" : -1, "ant_wid" : -1, "type" : "s", "istitle" : 0, "weight" : 0.489278 },
		{"id" : 1, "verb_wid" : 13, "ant_sid" : -1, "ant_wid" : -1, "type" : "s", "istitle" : 0, "weight" : 0.462916 }
	]
	},
	{
	"id" : 2,
	"reserve_str" : "",
	"text" : "1997년부터 소년챔프에 《라그나로크》를 연재하였는데, 이는 2001년 그라피티에 의해 온라인 게임 라그나로크 온라인로 만들어졌다 이명진은 이 게임의 개발에도 직접 참여했다.",
	"morp" : [
		{"id" : 0, "lemma" : "1997", "type" : "SN", "position" : 246, "weight" : 1 },
		{"id" : 1, "lemma" : "년", "type" : "NNB", "position" : 250, "weight" : 0.414343 },
		{"id" : 2, "lemma" : "부터", "type" : "JX", "position" : 253, "weight" : 0.105319 },
		{"id" : 3, "lemma" : "소년", "type" : "NNG", "position" : 260, "weight" : 0.324032 },
		{"id" : 4, "lemma" : "챔프", "type" : "NNG", "position" : 266, "weight" : 0.45 },
		{"id" : 5, "lemma" : "에", "type" : "JKB", "position" : 272, "weight" : 0.153364 },
		{"id" : 6, "lemma" : "《", "type" : "SS", "position" : 276, "weight" : 1 },
		{"id" : 7, "lemma" : "라그나로크", "type" : "NNP", "position" : 279, "weight" : 0.6 },
		{"id" : 8, "lemma" : "》", "type" : "SS", "position" : 294, "weight" : 1 },
		{"id" : 9, "lemma" : "를", "type" : "JKO", "position" : 297, "weight" : 0.0357023 },
		{"id" : 10, "lemma" : "연재", "type" : "NNG", "position" : 301, "weight" : 0.0975025 },
		{"id" : 11, "lemma" : "하", "type" : "XSV", "position" : 307, "weight" : 0.0001 },
		{"id" : 12, "lemma" : "었", "type" : "EP", "position" : 310, "weight" : 0.9 },
		{"id" : 13, "lemma" : "는데", "type" : "EC", "position" : 313, "weight" : 0.188154 },
		{"id" : 14, "lemma" : ",", "type" : "SP", "position" : 319, "weight" : 1 },
		{"id" : 15, "lemma" : "이", "type" : "NP", "position" : 321, "weight" : 0.00125759 },
		{"id" : 16, "lemma" : "는", "type" : "JX", "position" : 324, "weight" : 0.122593 },
		{"id" : 17, "lemma" : "2001", "type" : "SN", "position" : 328, "weight" : 1 },
		{"id" : 18, "lemma" : "년", "type" : "NNB", "position" : 332, "weight" : 0.414343 },
		{"id" : 19, "lemma" : "그라피티", "type" : "NNP", "position" : 336, "weight" : 0.6 },
		{"id" : 20, "lemma" : "에", "type" : "JKB", "position" : 348, "weight" : 0.0823628 },
		{"id" : 21, "lemma" : "의하", "type" : "VV", "position" : 352, "weight" : 0.9 },
		{"id" : 22, "lemma" : "어", "type" : "EC", "position" : 355, "weight" : 0.41831 },
		{"id" : 23, "lemma" : "온라인", "type" : "NNG", "position" : 359, "weight" : 0.9 },
		{"id" : 24, "lemma" : "게임", "type" : "NNG", "position" : 369, "weight" : 0.9 },
		{"id" : 25, "lemma" : "라그나로크", "type" : "NNP", "position" : 376, "weight" : 0.6 },
		{"id" : 26, "lemma" : "온라인", "type" : "NNG", "position" : 392, "weight" : 0.9 },
		{"id" : 27, "lemma" : "로", "type" : "JKB", "position" : 401, "weight" : 0.153229 },
		{"id" : 28, "lemma" : "만들", "type" : "VV", "position" : 405, "weight" : 0.9 },
		{"id" : 29, "lemma" : "어", "type" : "EC", "position" : 411, "weight" : 0.41831 },
		{"id" : 30, "lemma" : "지", "type" : "VX", "position" : 414, "weight" : 0.0539764 },
		{"id" : 31, "lemma" : "었", "type" : "EP", "position" : 414, "weight" : 0.9 },
		{"id" : 32, "lemma" : "다", "type" : "EC", "position" : 417, "weight" : 0.00491404 },
		{"id" : 33, "lemma" : "이명진", "type" : "NNP", "position" : 421, "weight" : 0.65 },
		{"id" : 34, "lemma" : "은", "type" : "JX", "position" : 430, "weight" : 0.0520511 },
		{"id" : 35, "lemma" : "이", "type" : "MM", "position" : 434, "weight" : 0.00176496 },
		{"id" : 36, "lemma" : "게임", "type" : "NNG", "position" : 438, "weight" : 0.9 },
		{"id" : 37, "lemma" : "의", "type" : "JKG", "position" : 444, "weight" : 0.0694213 },
		{"id" : 38, "lemma" : "개발", "type" : "NNG", "position" : 448, "weight" : 0.9 },
		{"id" : 39, "lemma" : "에", "type" : "JKB", "position" : 454, "weight" : 0.153364 },
		{"id" : 40, "lemma" : "도", "type" : "JX", "position" : 457, "weight" : 0.0912297 },
		{"id" : 41, "lemma" : "직접", "type" : "MAG", "position" : 461, "weight" : 0.11214 },
		{"id" : 42, "lemma" : "참여", "type" : "NNG", "position" : 468, "weight" : 0.9 },
		{"id" : 43, "lemma" : "하", "type" : "XSV", "position" : 474, "weight" : 0.0001 },
		{"id" : 44, "lemma" : "었", "type" : "EP", "position" : 474, "weight" : 0.9 },
		{"id" : 45, "lemma" : "다", "type" : "EF", "position" : 477, "weight" : 0.640954 },
		{"id" : 46, "lemma" : ".", "type" : "SF", "position" : 480, "weight" : 1 }
	],
	"morp_eval" : [
		{"id" : 0, "result" : "1997/SN+년/NNB+부터/JX", "target" : "1997년부터", "word_id" : 0, "m_begin" : 0, "m_end" : 2},
		{"id" : 1, "result" : "소년챔프/NNG+에/JKB", "target" : "소년챔프에", "word_id" : 1, "m_begin" : 3, "m_end" : 5},
		{"id" : 2, "result" : "《/SS+라그나로크/NNG+》/SS+를/JKO", "target" : "《라그나로크》를", "word_id" : 2, "m_begin" : 6, "m_end" : 9},
		{"id" : 3, "result" : "연재하/VV+었/EP+는데/EC+,/SP", "target" : "연재하였는데,", "word_id" : 3, "m_begin" : 10, "m_end" : 14},
		{"id" : 4, "result" : "이/NP+는/JX", "target" : "이는", "word_id" : 4, "m_begin" : 15, "m_end" : 16},
		{"id" : 5, "result" : "2001/SN+년/NNB", "target" : "2001년", "word_id" : 5, "m_begin" : 17, "m_end" : 18},
		{"id" : 6, "result" : "그라피티/NNG+에/JKB", "target" : "그라피티에", "word_id" : 6, "m_begin" : 19, "m_end" : 20},
		{"id" : 7, "result" : "의하/VV+어/EC", "target" : "의해", "word_id" : 7, "m_begin" : 21, "m_end" : 22},
		{"id" : 8, "result" : "온라인/NNG", "target" : "온라인", "word_id" : 8, "m_begin" : 23, "m_end" : 23},
		{"id" : 9, "result" : "게임/NNG", "target" : "게임", "word_id" : 9, "m_begin" : 24, "m_end" : 24},
		{"id" : 10, "result" : "라그나로크/NNG", "target" : "라그나로크", "word_id" : 10, "m_begin" : 25, "m_end" : 25},
		{"id" : 11, "result" : "온라인/NNG+로/JKB", "target" : "온라인로", "word_id" : 11, "m_begin" : 26, "m_end" : 27},
		{"id" : 12, "result" : "만들/VV+어/EC+지/VX+었/EP+다/EC", "target" : "만들어졌다", "word_id" : 12, "m_begin" : 28, "m_end" : 32},
		{"id" : 13, "result" : "이명진/NNG+은/JX", "target" : "이명진은", "word_id" : 13, "m_begin" : 33, "m_end" : 34},
		{"id" : 14, "result" : "이/MM", "target" : "이", "word_id" : 14, "m_begin" : 35, "m_end" : 35},
		{"id" : 15, "result" : "게임/NNG+의/JKG", "target" : "게임의", "word_id" : 15, "m_begin" : 36, "m_end" : 37},
		{"id" : 16, "result" : "개발/NNG+에/JKB+도/JX", "target" : "개발에도", "word_id" : 16, "m_begin" : 38, "m_end" : 40},
		{"id" : 17, "result" : "직접/MAG", "target" : "직접", "word_id" : 17, "m_begin" : 41, "m_end" : 41},
		{"id" : 18, "result" : "참여하/VV+었/EP+다/EF+./SF", "target" : "참여했다.", "word_id" : 18, "m_begin" : 42, "m_end" : 46}
	],
	"WSD" : [
		{"id" : 0, "text" : "1997", "type" : "SN", "scode" : "00", "weight" : 1, "position" : 246, "begin" : 0, "end" : 0},
		{"id" : 1, "text" : "년", "type" : "NNB", "scode" : "02", "weight" : 1, "position" : 250, "begin" : 1, "end" : 1},
		{"id" : 2, "text" : "부터", "type" : "JX", "scode" : "00", "weight" : 1, "position" : 253, "begin" : 2, "end" : 2},
		{"id" : 3, "text" : "소년", "type" : "NNG", "scode" : "01", "weight" : 1, "position" : 260, "begin" : 3, "end" : 3},
		{"id" : 4, "text" : "챔프", "type" : "NNG", "scode" : "00", "weight" : 1, "position" : 266, "begin" : 4, "end" : 4},
		{"id" : 5, "text" : "에", "type" : "JKB", "scode" : "00", "weight" : 1, "position" : 272, "begin" : 5, "end" : 5},
		{"id" : 6, "text" : "《", "type" : "SS", "scode" : "00", "weight" : 1, "position" : 276, "begin" : 6, "end" : 6},
		{"id" : 7, "text" : "라그나로크", "type" : "NNP", "scode" : "00", "weight" : 0, "position" : 279, "begin" : 7, "end" : 7},
		{"id" : 8, "text" : "》", "type" : "SS", "scode" : "00", "weight" : 1, "position" : 294, "begin" : 8, "end" : 8},
		{"id" : 9, "text" : "를", "type" : "JKO", "scode" : "00", "weight" : 1, "position" : 297, "begin" : 9, "end" : 9},
		{"id" : 10, "text" : "연재하", "type" : "VV", "scode" : "00", "weight" : 1, "position" : 301, "begin" : 10, "end" : 11},
		{"id" : 11, "text" : "었", "type" : "EP", "scode" : "00", "weight" : 1, "position" : 310, "begin" : 12, "end" : 12},
		{"id" : 12, "text" : "는데", "type" : "EC", "scode" : "00", "weight" : 1, "position" : 313, "begin" : 13, "end" : 13},
		{"id" : 13, "text" : ",", "type" : "SP", "scode" : "00", "weight" : 1, "position" : 319, "begin" : 14, "end" : 14},
		{"id" : 14, "text" : "이", "type" : "NP", "scode" : "05", "weight" : 1, "position" : 321, "begin" : 15, "end" : 15},
		{"id" : 15, "text" : "는", "type" : "JX", "scode" : "00", "weight" : 1, "position" : 324, "begin" : 16, "end" : 16},
		{"id" : 16, "text" : "2001", "type" : "SN", "scode" : "00", "weight" : 1, "position" : 328, "begin" : 17, "end" : 17},
		{"id" : 17, "text" : "년", "type" : "NNB", "scode" : "02", "weight" : 1, "position" : 332, "begin" : 18, "end" : 18},
		{"id" : 18, "text" : "그라피티", "type" : "NNP", "scode" : "00", "weight" : 0, "position" : 336, "begin" : 19, "end" : 19},
		{"id" : 19, "text" : "에", "type" : "JKB", "scode" : "00", "weight" : 1, "position" : 348, "begin" : 20, "end" : 20},
		{"id" : 20, "text" : "의하", "type" : "VV", "scode" : "01", "weight" : 1, "position" : 352, "begin" : 21, "end" : 21},
		{"id" : 21, "text" : "어", "type" : "EC", "scode" : "00", "weight" : 1, "position" : 355, "begin" : 22, "end" : 22},
		{"id" : 22, "text" : "온라인", "type" : "NNG", "scode" : "00", "weight" : 1, "position" : 359, "begin" : 23, "end" : 23},
		{"id" : 23, "text" : "게임", "type" : "NNG", "scode" : "00", "weight" : 1, "position" : 369, "begin" : 24, "end" : 24},
		{"id" : 24, "text" : "라그나로크", "type" : "NNP", "scode" : "00", "weight" : 0, "position" : 376, "begin" : 25, "end" : 25},
		{"id" : 25, "text" : "온라인", "type" : "NNG", "scode" : "00", "weight" : 1, "position" : 392, "begin" : 26, "end" : 26},
		{"id" : 26, "text" : "로", "type" : "JKB", "scode" : "00", "weight" : 1, "position" : 401, "begin" : 27, "end" : 27},
		{"id" : 27, "text" : "만들", "type" : "VV", "scode" : "00", "weight" : 1, "position" : 405, "begin" : 28, "end" : 28},
		{"id" : 28, "text" : "어", "type" : "EC", "scode" : "00", "weight" : 1, "position" : 411, "begin" : 29, "end" : 29},
		{"id" : 29, "text" : "지", "type" : "VX", "scode" : "04", "weight" : 1, "position" : 414, "begin" : 30, "end" : 30},
		{"id" : 30, "text" : "었", "type" : "EP", "scode" : "00", "weight" : 1, "position" : 414, "begin" : 31, "end" : 31},
		{"id" : 31, "text" : "다", "type" : "EC", "scode" : "00", "weight" : 1, "position" : 417, "begin" : 32, "end" : 32},
		{"id" : 32, "text" : "이명진", "type" : "NNP", "scode" : "00", "weight" : 1, "position" : 421, "begin" : 33, "end" : 33},
		{"id" : 33, "text" : "은", "type" : "JX", "scode" : "00", "weight" : 1, "position" : 430, "begin" : 34, "end" : 34},
		{"id" : 34, "text" : "이", "type" : "MM", "scode" : "05", "weight" : 1, "position" : 434, "begin" : 35, "end" : 35},
		{"id" : 35, "text" : "게임", "type" : "NNG", "scode" : "00", "weight" : 1, "position" : 438, "begin" : 36, "end" : 36},
		{"id" : 36, "text" : "의", "type" : "JKG", "scode" : "00", "weight" : 1, "position" : 444, "begin" : 37, "end" : 37},
		{"id" : 37, "text" : "개발", "type" : "NNG", "scode" : "00", "weight" : 1, "position" : 448, "begin" : 38, "end" : 38},
		{"id" : 38, "text" : "에", "type" : "JKB", "scode" : "00", "weight" : 1, "position" : 454, "begin" : 39, "end" : 39},
		{"id" : 39, "text" : "도", "type" : "JX", "scode" : "00", "weight" : 1, "position" : 457, "begin" : 40, "end" : 40},
		{"id" : 40, "text" : "직접", "type" : "MAG", "scode" : "00", "weight" : 1, "position" : 461, "begin" : 41, "end" : 41},
		{"id" : 41, "text" : "참여하", "type" : "VV", "scode" : "00", "weight" : 1, "position" : 468, "begin" : 42, "end" : 43},
		{"id" : 42, "text" : "었", "type" : "EP", "scode" : "00", "weight" : 1, "position" : 474, "begin" : 44, "end" : 44},
		{"id" : 43, "text" : "다", "type" : "EF", "scode" : "00", "weight" : 1, "position" : 477, "begin" : 45, "end" : 45},
		{"id" : 44, "text" : ".", "type" : "SF", "scode" : "00", "weight" : 1, "position" : 480, "begin" : 46, "end" : 46}
	],
	"word" : [
		{"id" : 0, "text" : "1997년부터", "type" : "", "begin" : 0, "end" : 2},
		{"id" : 1, "text" : "소년챔프에", "type" : "", "begin" : 3, "end" : 5},
		{"id" : 2, "text" : "《라그나로크》를", "type" : "", "begin" : 6, "end" : 9},
		{"id" : 3, "text" : "연재하였는데,", "type" : "", "begin" : 10, "end" : 14},
		{"id" : 4, "text" : "이는", "type" : "", "begin" : 15, "end" : 16},
		{"id" : 5, "text" : "2001년", "type" : "", "begin" : 17, "end" : 18},
		{"id" : 6, "text" : "그라피티에", "type" : "", "begin" : 19, "end" : 20},
		{"id" : 7, "text" : "의해", "type" : "", "begin" : 21, "end" : 22},
		{"id" : 8, "text" : "온라인", "type" : "", "begin" : 23, "end" : 23},
		{"id" : 9, "text" : "게임", "type" : "", "begin" : 24, "end" : 24},
		{"id" : 10, "text" : "라그나로크", "type" : "", "begin" : 25, "end" : 25},
		{"id" : 11, "text" : "온라인로", "type" : "", "begin" : 26, "end" : 27},
		{"id" : 12, "text" : "만들어졌다", "type" : "", "begin" : 28, "end" : 32},
		{"id" : 13, "text" : "이명진은", "type" : "", "begin" : 33, "end" : 34},
		{"id" : 14, "text" : "이", "type" : "", "begin" : 35, "end" : 35},
		{"id" : 15, "text" : "게임의", "type" : "", "begin" : 36, "end" : 37},
		{"id" : 16, "text" : "개발에도", "type" : "", "begin" : 38, "end" : 40},
		{"id" : 17, "text" : "직접", "type" : "", "begin" : 41, "end" : 41},
		{"id" : 18, "text" : "참여했다.", "type" : "", "begin" : 42, "end" : 46}
	],
	"NE" : [
		{"id" : 0, "text" : "1997년부터", "type" : "DT_OTHERS", "begin" : 0, "end" : 2, "weight" : 0.748829, "common_noun" : 0},
		{"id" : 1, "text" : "소년챔프", "type" : "OGG_MEDIA", "begin" : 3, "end" : 4, "weight" : 0.111538, "common_noun" : 0},
		{"id" : 2, "text" : "라그나로크", "type" : "AF_WORKS", "begin" : 7, "end" : 7, "weight" : 0.597817, "common_noun" : 0},
		{"id" : 3, "text" : "2001년", "type" : "DT_YEAR", "begin" : 17, "end" : 18, "weight" : 0.706592, "common_noun" : 0},
		{"id" : 4, "text" : "그라피티", "type" : "PS_NAME", "begin" : 19, "end" : 19, "weight" : 0.0947022, "common_noun" : 0},
		{"id" : 5, "text" : "온라인 게임", "type" : "TMIG_GENRE", "begin" : 23, "end" : 24, "weight" : 0.533203, "common_noun" : 0},
		{"id" : 6, "text" : "라그나로크 온라인", "type" : "TMI_SW", "begin" : 25, "end" : 26, "weight" : 0.326087, "common_noun" : 0},
		{"id" : 7, "text" : "이명진", "type" : "PS_NAME", "begin" : 33, "end" : 33, "weight" : 0.358928, "common_noun" : 0}
	],
	"chunk" : [
	],
	"dependency" : [
		{"id" : 0, "text" : "1997년부터", "head" : 3, "label" : "NP_AJT", "mod" : [], "weight" : 0.607878 },
		{"id" : 1, "text" : "소년챔프에", "head" : 3, "label" : "NP_AJT", "mod" : [], "weight" : 0.697844 },
		{"id" : 2, "text" : "《라그나로크》를", "head" : 3, "label" : "NP_OBJ", "mod" : [], "weight" : 0.491172 },
		{"id" : 3, "text" : "연재하였는데,", "head" : 7, "label" : "VP", "mod" : [0, 1, 2], "weight" : 0.780139 },
		{"id" : 4, "text" : "이는", "head" : 7, "label" : "NP_SBJ", "mod" : [], "weight" : 0.683666 },
		{"id" : 5, "text" : "2001년", "head" : 7, "label" : "NP_AJT", "mod" : [], "weight" : 0.809429 },
		{"id" : 6, "text" : "그라피티에", "head" : 7, "label" : "NP_AJT", "mod" : [], "weight" : 0.722351 },
		{"id" : 7, "text" : "의해", "head" : 12, "label" : "VP", "mod" : [3, 4, 5, 6], "weight" : 0.727683 },
		{"id" : 8, "text" : "온라인", "head" : 9, "label" : "NP", "mod" : [], "weight" : 0.865705 },
		{"id" : 9, "text" : "게임", "head" : 11, "label" : "NP", "mod" : [8], "weight" : 0.648443 },
		{"id" : 10, "text" : "라그나로크", "head" : 11, "label" : "NP", "mod" : [], "weight" : 0.991149 },
		{"id" : 11, "text" : "온라인로", "head" : 12, "label" : "NP_AJT", "mod" : [9, 10], "weight" : 0.570918 },
		{"id" : 12, "text" : "만들어졌다", "head" : 18, "label" : "VP", "mod" : [7, 11], "weight" : 0.709465 },
		{"id" : 13, "text" : "이명진은", "head" : 18, "label" : "NP_SBJ", "mod" : [], "weight" : 0.699052 },
		{"id" : 14, "text" : "이", "head" : 15, "label" : "DP", "mod" : [], "weight" : 0.758187 },
		{"id" : 15, "text" : "게임의", "head" : 16, "label" : "NP_MOD", "mod" : [14], "weight" : 0.963649 },
		{"id" : 16, "text" : "개발에도", "head" : 18, "label" : "NP_AJT", "mod" : [15], "weight" : 0.64801 },
		{"id" : 17, "text" : "직접", "head" : 18, "label" : "AP", "mod" : [], "weight" : 0.436345 },
		{"id" : 18, "text" : "참여했다.", "head" : -1, "label" : "VP", "mod" : [12, 13, 16, 17], "weight" : 0.000866727 }
	],
	"SRL" : [
		{"verb" : "연재", "sense" : 1, "word_id" : 3, "weight" : 0.19392,
			"argument" : [
				{"type" : "ARGM-TMP", "word_id" : 0, "text" : "1997년부터", "weight" : 0.22998 },
				{"type" : "ARGM-LOC", "word_id" : 1, "text" : "소년챔프에", "weight" : 0.0976027 },
				{"type" : "ARG1", "word_id" : 2, "text" : "《라그나로크》를", "weight" : 0.254177 }
			] },
		{"verb" : "의하", "sense" : 1, "word_id" : 7, "weight" : 0.283693,
			"argument" : [
				{"type" : "ARG2", "word_id" : 6, "text" : "그라피티에", "weight" : 0.283693 }
			] },
		{"verb" : "만들", "sense" : 1, "word_id" : 12, "weight" : 0.102145,
			"argument" : [
				{"type" : "ARG1", "word_id" : 4, "text" : "이는", "weight" : 0.131567 },
				{"type" : "ARGM-INS", "word_id" : 7, "text" : "의해", "weight" : 0.0923021 },
				{"type" : "ARGM-INS", "word_id" : 11, "text" : "온라인로", "weight" : 0.0825648 }
			] },
		{"verb" : "참여", "sense" : 1, "word_id" : 18, "weight" : 0.136943,
			"argument" : [
				{"type" : "ARG0", "word_id" : 13, "text" : "이명진은", "weight" : 0.203006 },
				{"type" : "ARG1", "word_id" : 16, "text" : "개발에도", "weight" : 0.0704063 },
				{"type" : "ARGM-MNR", "word_id" : 17, "text" : "직접", "weight" : 0.137416 }
			] }
	],
	"relation" : [
	],
	"SA" : [
	],
	"ZA" : [
		{"id" : 0, "verb_wid" : 3, "ant_sid" : -1, "ant_wid" : -1, "type" : "s", "istitle" : 0, "weight" : 0.605756 },
		{"id" : 1, "verb_wid" : 12, "ant_sid" : 2, "ant_wid" : 4, "type" : "s", "istitle" : 0, "weight" : 0.323869 }
	]
	},
	{
	"id" : 3,
	"reserve_str" : "",
	"text" : "2004년에는 라그나로크를 바탕으로 한 TV 만화도 만들어졌다.",
	"morp" : [
		{"id" : 0, "lemma" : "2004", "type" : "SN", "position" : 481, "weight" : 1 },
		{"id" : 1, "lemma" : "년", "type" : "NNB", "position" : 485, "weight" : 0.414343 },
		{"id" : 2, "lemma" : "에", "type" : "JKB", "position" : 488, "weight" : 0.135559 },
		{"id" : 3, "lemma" : "는", "type" : "JX", "position" : 491, "weight" : 0.0387928 },
		{"id" : 4, "lemma" : "라그나로크", "type" : "NNP", "position" : 495, "weight" : 0.6 },
		{"id" : 5, "lemma" : "를", "type" : "JKO", "position" : 510, "weight" : 0.0283046 },
		{"id" : 6, "lemma" : "바탕", "type" : "NNG", "position" : 514, "weight" : 0.10118 },
		{"id" : 7, "lemma" : "으로", "type" : "JKB", "position" : 520, "weight" : 0.153406 },
		{"id" : 8, "lemma" : "하", "type" : "VV", "position" : 527, "weight" : 0.275522 },
		{"id" : 9, "lemma" : "ㄴ", "type" : "ETM", "position" : 527, "weight" : 0.304215 },
		{"id" : 10, "lemma" : "TV", "type" : "SL", "position" : 531, "weight" : 1 },
		{"id" : 11, "lemma" : "만화", "type" : "NNG", "position" : 534, "weight" : 0.166882 },
		{"id" : 12, "lemma" : "도", "type" : "JX", "position" : 540, "weight" : 0.0676272 },
		{"id" : 13, "lemma" : "만들", "type" : "VV", "position" : 544, "weight" : 0.9 },
		{"id" : 14, "lemma" : "어", "type" : "EC", "position" : 550, "weight" : 0.41831 },
		{"id" : 15, "lemma" : "지", "type" : "VX", "position" : 553, "weight" : 0.0539764 },
		{"id" : 16, "lemma" : "었", "type" : "EP", "position" : 553, "weight" : 0.9 },
		{"id" : 17, "lemma" : "다", "type" : "EF", "position" : 556, "weight" : 0.640954 },
		{"id" : 18, "lemma" : ".", "type" : "SF", "position" : 559, "weight" : 1 }
	],
	"morp_eval" : [
		{"id" : 0, "result" : "2004/SN+년/NNB+에/JKB+는/JX", "target" : "2004년에는", "word_id" : 0, "m_begin" : 0, "m_end" : 3},
		{"id" : 1, "result" : "라그나로크/NNG+를/JKO", "target" : "라그나로크를", "word_id" : 1, "m_begin" : 4, "m_end" : 5},
		{"id" : 2, "result" : "바탕/NNG+으로/JKB", "target" : "바탕으로", "word_id" : 2, "m_begin" : 6, "m_end" : 7},
		{"id" : 3, "result" : "하/VV+ㄴ/ETM", "target" : "한", "word_id" : 3, "m_begin" : 8, "m_end" : 9},
		{"id" : 4, "result" : "TV/SL", "target" : "TV", "word_id" : 4, "m_begin" : 10, "m_end" : 10},
		{"id" : 5, "result" : "만화/NNG+도/JX", "target" : "만화도", "word_id" : 5, "m_begin" : 11, "m_end" : 12},
		{"id" : 6, "result" : "만들/VV+어/EC+지/VX+었/EP+다/EF+./SF", "target" : "만들어졌다.", "word_id" : 6, "m_begin" : 13, "m_end" : 18}
	],
	"WSD" : [
		{"id" : 0, "text" : "2004", "type" : "SN", "scode" : "00", "weight" : 1, "position" : 481, "begin" : 0, "end" : 0},
		{"id" : 1, "text" : "년", "type" : "NNB", "scode" : "02", "weight" : 1, "position" : 485, "begin" : 1, "end" : 1},
		{"id" : 2, "text" : "에", "type" : "JKB", "scode" : "00", "weight" : 1, "position" : 488, "begin" : 2, "end" : 2},
		{"id" : 3, "text" : "는", "type" : "JX", "scode" : "00", "weight" : 1, "position" : 491, "begin" : 3, "end" : 3},
		{"id" : 4, "text" : "라그나로크", "type" : "NNP", "scode" : "00", "weight" : 0, "position" : 495, "begin" : 4, "end" : 4},
		{"id" : 5, "text" : "를", "type" : "JKO", "scode" : "00", "weight" : 1, "position" : 510, "begin" : 5, "end" : 5},
		{"id" : 6, "text" : "바탕", "type" : "NNG", "scode" : "01", "weight" : 1, "position" : 514, "begin" : 6, "end" : 6},
		{"id" : 7, "text" : "으로", "type" : "JKB", "scode" : "00", "weight" : 1, "position" : 520, "begin" : 7, "end" : 7},
		{"id" : 8, "text" : "하", "type" : "VV", "scode" : "01", "weight" : 1, "position" : 527, "begin" : 8, "end" : 8},
		{"id" : 9, "text" : "ㄴ", "type" : "ETM", "scode" : "00", "weight" : 1, "position" : 527, "begin" : 9, "end" : 9},
		{"id" : 10, "text" : "TV", "type" : "SL", "scode" : "00", "weight" : 1, "position" : 531, "begin" : 10, "end" : 10},
		{"id" : 11, "text" : "만화", "type" : "NNG", "scode" : "10", "weight" : 1, "position" : 534, "begin" : 11, "end" : 11},
		{"id" : 12, "text" : "도", "type" : "JX", "scode" : "00", "weight" : 1, "position" : 540, "begin" : 12, "end" : 12},
		{"id" : 13, "text" : "만들", "type" : "VV", "scode" : "00", "weight" : 1, "position" : 544, "begin" : 13, "end" : 13},
		{"id" : 14, "text" : "어", "type" : "EC", "scode" : "00", "weight" : 1, "position" : 550, "begin" : 14, "end" : 14},
		{"id" : 15, "text" : "지", "type" : "VX", "scode" : "04", "weight" : 1, "position" : 553, "begin" : 15, "end" : 15},
		{"id" : 16, "text" : "었", "type" : "EP", "scode" : "00", "weight" : 1, "position" : 553, "begin" : 16, "end" : 16},
		{"id" : 17, "text" : "다", "type" : "EF", "scode" : "00", "weight" : 1, "position" : 556, "begin" : 17, "end" : 17},
		{"id" : 18, "text" : ".", "type" : "SF", "scode" : "00", "weight" : 1, "position" : 559, "begin" : 18, "end" : 18}
	],
	"word" : [
		{"id" : 0, "text" : "2004년에는", "type" : "", "begin" : 0, "end" : 3},
		{"id" : 1, "text" : "라그나로크를", "type" : "", "begin" : 4, "end" : 5},
		{"id" : 2, "text" : "바탕으로", "type" : "", "begin" : 6, "end" : 7},
		{"id" : 3, "text" : "한", "type" : "", "begin" : 8, "end" : 9},
		{"id" : 4, "text" : "TV", "type" : "", "begin" : 10, "end" : 10},
		{"id" : 5, "text" : "만화도", "type" : "", "begin" : 11, "end" : 12},
		{"id" : 6, "text" : "만들어졌다.", "type" : "", "begin" : 13, "end" : 18}
	],
	"NE" : [
		{"id" : 0, "text" : "2004년", "type" : "DT_YEAR", "begin" : 0, "end" : 1, "weight" : 0.631293, "common_noun" : 0},
		{"id" : 1, "text" : "라그나로크", "type" : "TMI_SW", "begin" : 4, "end" : 4, "weight" : 0.178653, "common_noun" : 0},
		{"id" : 2, "text" : "TV", "type" : "TMI_HW", "begin" : 10, "end" : 10, "weight" : 0.224217, "common_noun" : 0}
	],
	"chunk" : [
	],
	"dependency" : [
		{"id" : 0, "text" : "2004년에는", "head" : 6, "label" : "NP_AJT", "mod" : [], "weight" : 0.807634 },
		{"id" : 1, "text" : "라그나로크를", "head" : 3, "label" : "NP_OBJ", "mod" : [], "weight" : 0.848258 },
		{"id" : 2, "text" : "바탕으로", "head" : 3, "label" : "NP_AJT", "mod" : [], "weight" : 0.749837 },
		{"id" : 3, "text" : "한", "head" : 5, "label" : "VP_MOD", "mod" : [1, 2], "weight" : 0.845059 },
		{"id" : 4, "text" : "TV", "head" : 5, "label" : "NP", "mod" : [], "weight" : 0.937072 },
		{"id" : 5, "text" : "만화도", "head" : 6, "label" : "NP_OBJ", "mod" : [3, 4], "weight" : 0.458415 },
		{"id" : 6, "text" : "만들어졌다.", "head" : -1, "label" : "VP", "mod" : [0, 5], "weight" : 0.130455 }
	],
	"SRL" : [
		{"verb" : "하", "sense" : 3, "word_id" : 3, "weight" : 0.206614,
			"argument" : [
				{"type" : "ARG1", "word_id" : 1, "text" : "라그나로크를", "weight" : 0.217993 },
				{"type" : "ARG2", "word_id" : 2, "text" : "바탕으로", "weight" : 0.145968 },
				{"type" : "ARG0", "word_id" : 5, "text" : "만화도", "weight" : 0.255881 }
			] },
		{"verb" : "만들", "sense" : 1, "word_id" : 6, "weight" : 0.25053,
			"argument" : [
				{"type" : "ARGM-TMP", "word_id" : 0, "text" : "2004년에는", "weight" : 0.276746 },
				{"type" : "ARG1", "word_id" : 5, "text" : "만화도", "weight" : 0.224315 }
			] }
	],
	"relation" : [
	],
	"SA" : [
	],
	"ZA" : [
		{"id" : 0, "verb_wid" : 6, "ant_sid" : -1, "ant_wid" : -1, "type" : "s", "istitle" : 0, "weight" : 0.30849 }
	]
	}
 ],
 "entity" : [
	{"id" : 0, "type" : "PS_NAME", "number" : "singular", "gender" : "", "person" : "", "animacy" : "", "loc" : "", 
	 "mention" : [
		{"id" : 0, "sent_id" : 0, "start_eid" : 0, "end_eid" : 0, "ne_id" : 0, "text" : "이명진(1974년", "start_eid_short" : 0, "end_eid_short" : 0, "text_short" : "이명진(1974년", "weight" : 0.006 },
		{"id" : 21, "sent_id" : 2, "start_eid" : 13, "end_eid" : 13, "ne_id" : 7, "text" : "이명진", "start_eid_short" : 13, "end_eid_short" : 13, "text_short" : "이명진", "weight" : 0.01 }
	] },
	{"id" : 1, "type" : "", "number" : "singular", "gender" : "", "person" : "", "animacy" : "", "loc" : "", 
	 "mention" : [
		{"id" : 6, "sent_id" : 1, "start_eid" : 4, "end_eid" : 6, "ne_id" : -1, "text" : "챔프슈퍼만화대상에서《어쩐지 좋은 일", "start_eid_short" : 6, "end_eid_short" : 6, "text_short" : "일", "weight" : 0.002 },
		{"id" : 23, "sent_id" : 2, "start_eid" : 14, "end_eid" : 15, "ne_id" : -1, "text" : "이 게임", "start_eid_short" : 14, "end_eid_short" : 15, "text_short" : "이 게임", "weight" : 0.006 }
	] },
	{"id" : 2, "type" : "EV_OTHERS", "number" : "singular", "gender" : "", "person" : "", "animacy" : "", "loc" : "", 
	 "mention" : [
		{"id" : 8, "sent_id" : 1, "start_eid" : 4, "end_eid" : 4, "ne_id" : 3, "text" : "챔프슈퍼만화대상", "start_eid_short" : 4, "end_eid_short" : 4, "text_short" : "챔프슈퍼만화대상", "weight" : 0.002 },
		{"id" : 16, "sent_id" : 2, "start_eid" : 4, "end_eid" : 4, "ne_id" : -1, "text" : "이", "start_eid_short" : 4, "end_eid_short" : 4, "text_short" : "이", "weight" : 0.006 }
	] },
	{"id" : 3, "type" : "TMI_SW", "number" : "singular", "gender" : "", "person" : "", "animacy" : "", "loc" : "", 
	 "mention" : [
		{"id" : 19, "sent_id" : 2, "start_eid" : 8, "end_eid" : 11, "ne_id" : 6, "text" : "온라인 게임 라그나로크 온라인", "start_eid_short" : 8, "end_eid_short" : 11, "text_short" : "온라인 게임 라그나로크 온라인", "weight" : 0.002 },
		{"id" : 26, "sent_id" : 3, "start_eid" : 1, "end_eid" : 1, "ne_id" : 1, "text" : "라그나로크", "start_eid_short" : 1, "end_eid_short" : 1, "text_short" : "라그나로크", "weight" : 0.003 }
	] }
 ]
}

