{"doc_id" : "",
 "DCT" : "",
 "category" : "",
 "category_weight" : 0,
 "title" : {"text" : "", "NE" : ""},
 "metaInfo" : { },
 "sentence" : [
	{
	"id" : 0,
	"reserve_str" : "",
	"text" : "정철연(1979년 ~ )은 대한민국 만화가이자 카툰 작가이다.",
	"morp" : [
		{"id" : 0, "lemma" : "정철연", "type" : "NNP", "position" : 0, "weight" : 0.6 },
		{"id" : 1, "lemma" : "(", "type" : "SS", "position" : 9, "weight" : 1 },
		{"id" : 2, "lemma" : "1979", "type" : "SN", "position" : 10, "weight" : 1 },
		{"id" : 3, "lemma" : "년", "type" : "NNB", "position" : 14, "weight" : 0.414343 },
		{"id" : 4, "lemma" : "~", "type" : "SO", "position" : 18, "weight" : 1 },
		{"id" : 5, "lemma" : ")", "type" : "SS", "position" : 20, "weight" : 1 },
		{"id" : 6, "lemma" : "은", "type" : "JX", "position" : 21, "weight" : 0.0128817 },
		{"id" : 7, "lemma" : "대한민국", "type" : "NNP", "position" : 25, "weight" : 0.0447775 },
		{"id" : 8, "lemma" : "만화", "type" : "NNG", "position" : 38, "weight" : 0.271325 },
		{"id" : 9, "lemma" : "가", "type" : "XSN", "position" : 44, "weight" : 0.000115417 },
		{"id" : 10, "lemma" : "이", "type" : "VCP", "position" : 47, "weight" : 0.0165001 },
		{"id" : 11, "lemma" : "자", "type" : "EC", "position" : 50, "weight" : 0.109096 },
		{"id" : 12, "lemma" : "카툰", "type" : "NNG", "position" : 54, "weight" : 0.05 },
		{"id" : 13, "lemma" : "작가", "type" : "NNG", "position" : 61, "weight" : 0.184798 },
		{"id" : 14, "lemma" : "이", "type" : "VCP", "position" : 67, "weight" : 0.0177525 },
		{"id" : 15, "lemma" : "다", "type" : "EF", "position" : 70, "weight" : 0.353579 },
		{"id" : 16, "lemma" : ".", "type" : "SF", "position" : 73, "weight" : 1 }
	],
	"morp_eval" : [
		{"id" : 0, "result" : "정철연/NNG+(/SS+1979/SN+년/NNB", "target" : "정철연(1979년", "word_id" : 0, "m_begin" : 0, "m_end" : 3},
		{"id" : 1, "result" : "~/SO", "target" : "~", "word_id" : 1, "m_begin" : 4, "m_end" : 4},
		{"id" : 2, "result" : ")/SS+은/JX", "target" : ")은", "word_id" : 2, "m_begin" : 5, "m_end" : 6},
		{"id" : 3, "result" : "대한민국/NNG", "target" : "대한민국", "word_id" : 3, "m_begin" : 7, "m_end" : 7},
		{"id" : 4, "result" : "만화가/NNG+이/VCP+자/EC", "target" : "만화가이자", "word_id" : 4, "m_begin" : 8, "m_end" : 11},
		{"id" : 5, "result" : "카툰/NNG", "target" : "카툰", "word_id" : 5, "m_begin" : 12, "m_end" : 12},
		{"id" : 6, "result" : "작가/NNG+이/VCP+다/EF+./SF", "target" : "작가이다.", "word_id" : 6, "m_begin" : 13, "m_end" : 16}
	],
	"WSD" : [
		{"id" : 0, "text" : "정철연", "type" : "NNP", "scode" : "00", "weight" : 0, "position" : 0, "begin" : 0, "end" : 0},
		{"id" : 1, "text" : "(", "type" : "SS", "scode" : "00", "weight" : 1, "position" : 9, "begin" : 1, "end" : 1},
		{"id" : 2, "text" : "1979", "type" : "SN", "scode" : "00", "weight" : 1, "position" : 10, "begin" : 2, "end" : 2},
		{"id" : 3, "text" : "년", "type" : "NNB", "scode" : "02", "weight" : 1, "position" : 14, "begin" : 3, "end" : 3},
		{"id" : 4, "text" : "~", "type" : "SO", "scode" : "00", "weight" : 1, "position" : 18, "begin" : 4, "end" : 4},
		{"id" : 5, "text" : ")", "type" : "SS", "scode" : "00", "weight" : 1, "position" : 20, "begin" : 5, "end" : 5},
		{"id" : 6, "text" : "은", "type" : "JX", "scode" : "00", "weight" : 1, "position" : 21, "begin" : 6, "end" : 6},
		{"id" : 7, "text" : "대한민국", "type" : "NNP", "scode" : "00", "weight" : 1, "position" : 25, "begin" : 7, "end" : 7},
		{"id" : 8, "text" : "만화가", "type" : "NNG", "scode" : "00", "weight" : 1, "position" : 38, "begin" : 8, "end" : 9},
		{"id" : 9, "text" : "이", "type" : "VCP", "scode" : "00", "weight" : 1, "position" : 47, "begin" : 10, "end" : 10},
		{"id" : 10, "text" : "자", "type" : "EC", "scode" : "00", "weight" : 1, "position" : 50, "begin" : 11, "end" : 11},
		{"id" : 11, "text" : "카툰", "type" : "NNG", "scode" : "00", "weight" : 1, "position" : 54, "begin" : 12, "end" : 12},
		{"id" : 12, "text" : "작가", "type" : "NNG", "scode" : "01", "weight" : 1, "position" : 61, "begin" : 13, "end" : 13},
		{"id" : 13, "text" : "이", "type" : "VCP", "scode" : "00", "weight" : 1, "position" : 67, "begin" : 14, "end" : 14},
		{"id" : 14, "text" : "다", "type" : "EF", "scode" : "00", "weight" : 1, "position" : 70, "begin" : 15, "end" : 15},
		{"id" : 15, "text" : ".", "type" : "SF", "scode" : "00", "weight" : 1, "position" : 73, "begin" : 16, "end" : 16}
	],
	"word" : [
		{"id" : 0, "text" : "정철연(1979년", "type" : "", "begin" : 0, "end" : 3},
		{"id" : 1, "text" : "~", "type" : "", "begin" : 4, "end" : 4},
		{"id" : 2, "text" : ")은", "type" : "", "begin" : 5, "end" : 6},
		{"id" : 3, "text" : "대한민국", "type" : "", "begin" : 7, "end" : 7},
		{"id" : 4, "text" : "만화가이자", "type" : "", "begin" : 8, "end" : 11},
		{"id" : 5, "text" : "카툰", "type" : "", "begin" : 12, "end" : 12},
		{"id" : 6, "text" : "작가이다.", "type" : "", "begin" : 13, "end" : 16}
	],
	"NE" : [
		{"id" : 0, "text" : "정철연", "type" : "PS_NAME", "begin" : 0, "end" : 0, "weight" : 0.388709, "common_noun" : 0},
		{"id" : 1, "text" : "1979년", "type" : "DT_YEAR", "begin" : 2, "end" : 3, "weight" : 0.648992, "common_noun" : 0},
		{"id" : 2, "text" : "대한민국", "type" : "LCP_COUNTRY", "begin" : 7, "end" : 7, "weight" : 0.310098, "common_noun" : 0},
		{"id" : 3, "text" : "만화가", "type" : "CV_OCCUPATION", "begin" : 8, "end" : 9, "weight" : 0.331015, "common_noun" : 0},
		{"id" : 4, "text" : "카툰", "type" : "PS_NAME", "begin" : 12, "end" : 12, "weight" : 0.107723, "common_noun" : 0},
		{"id" : 5, "text" : "작가", "type" : "CV_OCCUPATION", "begin" : 13, "end" : 13, "weight" : 0.39094, "common_noun" : 0}
	],
	"chunk" : [
	],
	"dependency" : [
		{"id" : 0, "text" : "정철연(1979년", "head" : 1, "label" : "NP", "mod" : [], "weight" : 0.646634 },
		{"id" : 1, "text" : "~", "head" : 2, "label" : "X", "mod" : [0], "weight" : 0.894385 },
		{"id" : 2, "text" : ")은", "head" : 4, "label" : "NP_SBJ", "mod" : [1], "weight" : 0.740677 },
		{"id" : 3, "text" : "대한민국", "head" : 4, "label" : "NP", "mod" : [], "weight" : 0.614223 },
		{"id" : 4, "text" : "만화가이자", "head" : 6, "label" : "VNP", "mod" : [2, 3], "weight" : 0.561819 },
		{"id" : 5, "text" : "카툰", "head" : 6, "label" : "NP", "mod" : [], "weight" : 0.402974 },
		{"id" : 6, "text" : "작가이다.", "head" : -1, "label" : "VNP", "mod" : [4, 5], "weight" : 0.0342487 }
	],
	"SRL" : [
	],
	"relation" : [
	],
	"SA" : [
	],
	"ZA" : [
		{"id" : 0, "verb_wid" : 6, "ant_sid" : 0, "ant_wid" : 2, "type" : "s", "istitle" : 0, "weight" : 0.881208 }
	]
	},
	{
	"id" : 1,
	"reserve_str" : "",
	"text" : "1979년 서울특별시에서 태어났으며 2003년에는 마린블루스를 통해 데뷔하여 마린블루스 작가로 잘 알려져 있다.",
	"morp" : [
		{"id" : 0, "lemma" : "1979", "type" : "SN", "position" : 74, "weight" : 1 },
		{"id" : 1, "lemma" : "년", "type" : "NNB", "position" : 78, "weight" : 0.414343 },
		{"id" : 2, "lemma" : "서울", "type" : "NNP", "position" : 82, "weight" : 0.0151353 },
		{"id" : 3, "lemma" : "특별", "type" : "NNG", "position" : 88, "weight" : 0.9 },
		{"id" : 4, "lemma" : "시", "type" : "NNG", "position" : 94, "weight" : 0.0346872 },
		{"id" : 5, "lemma" : "에서", "type" : "JKB", "position" : 97, "weight" : 0.153407 },
		{"id" : 6, "lemma" : "태어나", "type" : "VV", "position" : 104, "weight" : 0.9 },
		{"id" : 7, "lemma" : "았", "type" : "EP", "position" : 110, "weight" : 0.9 },
		{"id" : 8, "lemma" : "으며", "type" : "EC", "position" : 113, "weight" : 0.197482 },
		{"id" : 9, "lemma" : "2003", "type" : "SN", "position" : 120, "weight" : 1 },
		{"id" : 10, "lemma" : "년", "type" : "NNB", "position" : 124, "weight" : 0.414343 },
		{"id" : 11, "lemma" : "에", "type" : "JKB", "position" : 127, "weight" : 0.135559 },
		{"id" : 12, "lemma" : "는", "type" : "JX", "position" : 130, "weight" : 0.0387928 },
		{"id" : 13, "lemma" : "마린블루스", "type" : "NNP", "position" : 134, "weight" : 0.6 },
		{"id" : 14, "lemma" : "를", "type" : "JKO", "position" : 149, "weight" : 0.0283046 },
		{"id" : 15, "lemma" : "통하", "type" : "VV", "position" : 153, "weight" : 0.9 },
		{"id" : 16, "lemma" : "어", "type" : "EC", "position" : 156, "weight" : 0.41831 },
		{"id" : 17, "lemma" : "데뷔", "type" : "NNG", "position" : 160, "weight" : 0.9 },
		{"id" : 18, "lemma" : "하", "type" : "XSV", "position" : 166, "weight" : 0.0001 },
		{"id" : 19, "lemma" : "어", "type" : "EC", "position" : 169, "weight" : 0.361326 },
		{"id" : 20, "lemma" : "마린블루스", "type" : "NNP", "position" : 173, "weight" : 0.6 },
		{"id" : 21, "lemma" : "작가", "type" : "NNG", "position" : 189, "weight" : 0.281928 },
		{"id" : 22, "lemma" : "로", "type" : "JKB", "position" : 195, "weight" : 0.153229 },
		{"id" : 23, "lemma" : "잘", "type" : "MAG", "position" : 199, "weight" : 0.0532428 },
		{"id" : 24, "lemma" : "알려지", "type" : "VV", "position" : 203, "weight" : 0.9 },
		{"id" : 25, "lemma" : "어", "type" : "EC", "position" : 209, "weight" : 0.41831 },
		{"id" : 26, "lemma" : "있", "type" : "VX", "position" : 213, "weight" : 0.125953 },
		{"id" : 27, "lemma" : "다", "type" : "EF", "position" : 216, "weight" : 0.180366 },
		{"id" : 28, "lemma" : ".", "type" : "SF", "position" : 219, "weight" : 1 }
	],
	"morp_eval" : [
		{"id" : 0, "result" : "1979/SN+년/NNB", "target" : "1979년", "word_id" : 0, "m_begin" : 0, "m_end" : 1},
		{"id" : 1, "result" : "서울특별시/NNG+에서/JKB", "target" : "서울특별시에서", "word_id" : 1, "m_begin" : 2, "m_end" : 5},
		{"id" : 2, "result" : "태어나/VV+었/EP+으며/EC", "target" : "태어났으며", "word_id" : 2, "m_begin" : 6, "m_end" : 8},
		{"id" : 3, "result" : "2003/SN+년/NNB+에/JKB+는/JX", "target" : "2003년에는", "word_id" : 3, "m_begin" : 9, "m_end" : 12},
		{"id" : 4, "result" : "마린블루스/NNG+를/JKO", "target" : "마린블루스를", "word_id" : 4, "m_begin" : 13, "m_end" : 14},
		{"id" : 5, "result" : "통하/VV+어/EC", "target" : "통해", "word_id" : 5, "m_begin" : 15, "m_end" : 16},
		{"id" : 6, "result" : "데뷔하/VV+어/EC", "target" : "데뷔하여", "word_id" : 6, "m_begin" : 17, "m_end" : 19},
		{"id" : 7, "result" : "마린블루스/NNG", "target" : "마린블루스", "word_id" : 7, "m_begin" : 20, "m_end" : 20},
		{"id" : 8, "result" : "작가/NNG+로/JKB", "target" : "작가로", "word_id" : 8, "m_begin" : 21, "m_end" : 22},
		{"id" : 9, "result" : "잘/MAG", "target" : "잘", "word_id" : 9, "m_begin" : 23, "m_end" : 23},
		{"id" : 10, "result" : "알려지/VV+어/EC", "target" : "알려져", "word_id" : 10, "m_begin" : 24, "m_end" : 25},
		{"id" : 11, "result" : "있/VX+다/EF+./SF", "target" : "있다.", "word_id" : 11, "m_begin" : 26, "m_end" : 28}
	],
	"WSD" : [
		{"id" : 0, "text" : "1979", "type" : "SN", "scode" : "00", "weight" : 1, "position" : 74, "begin" : 0, "end" : 0},
		{"id" : 1, "text" : "년", "type" : "NNB", "scode" : "02", "weight" : 1, "position" : 78, "begin" : 1, "end" : 1},
		{"id" : 2, "text" : "서울특별시", "type" : "NNP", "scode" : "00", "weight" : 1, "position" : 82, "begin" : 2, "end" : 4},
		{"id" : 3, "text" : "에서", "type" : "JKB", "scode" : "00", "weight" : 1, "position" : 97, "begin" : 5, "end" : 5},
		{"id" : 4, "text" : "태어나", "type" : "VV", "scode" : "00", "weight" : 1, "position" : 104, "begin" : 6, "end" : 6},
		{"id" : 5, "text" : "았", "type" : "EP", "scode" : "00", "weight" : 1, "position" : 110, "begin" : 7, "end" : 7},
		{"id" : 6, "text" : "으며", "type" : "EC", "scode" : "00", "weight" : 1, "position" : 113, "begin" : 8, "end" : 8},
		{"id" : 7, "text" : "2003", "type" : "SN", "scode" : "00", "weight" : 1, "position" : 120, "begin" : 9, "end" : 9},
		{"id" : 8, "text" : "년", "type" : "NNB", "scode" : "02", "weight" : 1, "position" : 124, "begin" : 10, "end" : 10},
		{"id" : 9, "text" : "에", "type" : "JKB", "scode" : "00", "weight" : 1, "position" : 127, "begin" : 11, "end" : 11},
		{"id" : 10, "text" : "는", "type" : "JX", "scode" : "00", "weight" : 1, "position" : 130, "begin" : 12, "end" : 12},
		{"id" : 11, "text" : "마린블루스", "type" : "NNP", "scode" : "00", "weight" : 0, "position" : 134, "begin" : 13, "end" : 13},
		{"id" : 12, "text" : "를", "type" : "JKO", "scode" : "00", "weight" : 1, "position" : 149, "begin" : 14, "end" : 14},
		{"id" : 13, "text" : "통하", "type" : "VV", "scode" : "00", "weight" : 1, "position" : 153, "begin" : 15, "end" : 15},
		{"id" : 14, "text" : "어", "type" : "EC", "scode" : "00", "weight" : 1, "position" : 156, "begin" : 16, "end" : 16},
		{"id" : 15, "text" : "데뷔하", "type" : "VV", "scode" : "00", "weight" : 1, "position" : 160, "begin" : 17, "end" : 18},
		{"id" : 16, "text" : "어", "type" : "EC", "scode" : "00", "weight" : 1, "position" : 169, "begin" : 19, "end" : 19},
		{"id" : 17, "text" : "마린블루스", "type" : "NNP", "scode" : "00", "weight" : 0, "position" : 173, "begin" : 20, "end" : 20},
		{"id" : 18, "text" : "작가", "type" : "NNG", "scode" : "01", "weight" : 1, "position" : 189, "begin" : 21, "end" : 21},
		{"id" : 19, "text" : "로", "type" : "JKB", "scode" : "00", "weight" : 1, "position" : 195, "begin" : 22, "end" : 22},
		{"id" : 20, "text" : "잘", "type" : "MAG", "scode" : "02", "weight" : 1, "position" : 199, "begin" : 23, "end" : 23},
		{"id" : 21, "text" : "알려지", "type" : "VV", "scode" : "00", "weight" : 1, "position" : 203, "begin" : 24, "end" : 24},
		{"id" : 22, "text" : "어", "type" : "EC", "scode" : "00", "weight" : 1, "position" : 209, "begin" : 25, "end" : 25},
		{"id" : 23, "text" : "있", "type" : "VX", "scode" : "01", "weight" : 1, "position" : 213, "begin" : 26, "end" : 26},
		{"id" : 24, "text" : "다", "type" : "EF", "scode" : "00", "weight" : 1, "position" : 216, "begin" : 27, "end" : 27},
		{"id" : 25, "text" : ".", "type" : "SF", "scode" : "00", "weight" : 1, "position" : 219, "begin" : 28, "end" : 28}
	],
	"word" : [
		{"id" : 0, "text" : "1979년", "type" : "", "begin" : 0, "end" : 1},
		{"id" : 1, "text" : "서울특별시에서", "type" : "", "begin" : 2, "end" : 5},
		{"id" : 2, "text" : "태어났으며", "type" : "", "begin" : 6, "end" : 8},
		{"id" : 3, "text" : "2003년에는", "type" : "", "begin" : 9, "end" : 12},
		{"id" : 4, "text" : "마린블루스를", "type" : "", "begin" : 13, "end" : 14},
		{"id" : 5, "text" : "통해", "type" : "", "begin" : 15, "end" : 16},
		{"id" : 6, "text" : "데뷔하여", "type" : "", "begin" : 17, "end" : 19},
		{"id" : 7, "text" : "마린블루스", "type" : "", "begin" : 20, "end" : 20},
		{"id" : 8, "text" : "작가로", "type" : "", "begin" : 21, "end" : 22},
		{"id" : 9, "text" : "잘", "type" : "", "begin" : 23, "end" : 23},
		{"id" : 10, "text" : "알려져", "type" : "", "begin" : 24, "end" : 25},
		{"id" : 11, "text" : "있다.", "type" : "", "begin" : 26, "end" : 28}
	],
	"NE" : [
		{"id" : 0, "text" : "1979년", "type" : "DT_YEAR", "begin" : 0, "end" : 1, "weight" : 0.704818, "common_noun" : 0},
		{"id" : 1, "text" : "서울특별시", "type" : "LCP_CAPITALCITY", "begin" : 2, "end" : 4, "weight" : 0.711953, "common_noun" : 0},
		{"id" : 2, "text" : "2003년", "type" : "DT_YEAR", "begin" : 9, "end" : 10, "weight" : 0.717984, "common_noun" : 0},
		{"id" : 3, "text" : "마린블루스", "type" : "PS_NAME", "begin" : 13, "end" : 13, "weight" : 0.0840549, "common_noun" : 0},
		{"id" : 4, "text" : "마린블루스", "type" : "PS_NAME", "begin" : 20, "end" : 20, "weight" : 0.115193, "common_noun" : 0},
		{"id" : 5, "text" : "작가", "type" : "CV_OCCUPATION", "begin" : 21, "end" : 21, "weight" : 0.363455, "common_noun" : 0}
	],
	"chunk" : [
	],
	"dependency" : [
		{"id" : 0, "text" : "1979년", "head" : 2, "label" : "NP_AJT", "mod" : [], "weight" : 0.814403 },
		{"id" : 1, "text" : "서울특별시에서", "head" : 2, "label" : "NP_AJT", "mod" : [], "weight" : 0.716121 },
		{"id" : 2, "text" : "태어났으며", "head" : 5, "label" : "VP", "mod" : [0, 1], "weight" : 0.85636 },
		{"id" : 3, "text" : "2003년에는", "head" : 5, "label" : "NP_AJT", "mod" : [], "weight" : 0.607247 },
		{"id" : 4, "text" : "마린블루스를", "head" : 5, "label" : "NP_OBJ", "mod" : [], "weight" : 0.676024 },
		{"id" : 5, "text" : "통해", "head" : 6, "label" : "VP", "mod" : [2, 3, 4], "weight" : 0.721818 },
		{"id" : 6, "text" : "데뷔하여", "head" : 10, "label" : "VP", "mod" : [5], "weight" : 0.746347 },
		{"id" : 7, "text" : "마린블루스", "head" : 8, "label" : "NP", "mod" : [], "weight" : 0.96834 },
		{"id" : 8, "text" : "작가로", "head" : 10, "label" : "NP_AJT", "mod" : [7], "weight" : 0.643838 },
		{"id" : 9, "text" : "잘", "head" : 10, "label" : "AP", "mod" : [], "weight" : 0.545168 },
		{"id" : 10, "text" : "알려져", "head" : 11, "label" : "VP", "mod" : [6, 8, 9], "weight" : 0.479201 },
		{"id" : 11, "text" : "있다.", "head" : -1, "label" : "VP", "mod" : [10], "weight" : 0.0137535 }
	],
	"SRL" : [
		{"verb" : "태어나", "sense" : 1, "word_id" : 2, "weight" : 0.248797,
			"argument" : [
				{"type" : "ARGM-TMP", "word_id" : 0, "text" : "1979년", "weight" : 0.297822 },
				{"type" : "ARGM-LOC", "word_id" : 1, "text" : "서울특별시에서", "weight" : 0.199771 }
			] },
		{"verb" : "통하", "sense" : 1, "word_id" : 5, "weight" : 0.3071,
			"argument" : [
				{"type" : "ARG2", "word_id" : 4, "text" : "마린블루스를", "weight" : 0.3071 }
			] },
		{"verb" : "데뷔", "sense" : 1, "word_id" : 6, "weight" : 0.160665,
			"argument" : [
				{"type" : "ARGM-TMP", "word_id" : 3, "text" : "2003년에는", "weight" : 0.219515 },
				{"type" : "ARGM-MNR", "word_id" : 5, "text" : "통해", "weight" : 0.101815 }
			] },
		{"verb" : "알려지", "sense" : 1, "word_id" : 10, "weight" : 0.237542,
			"argument" : [
				{"type" : "ARG0", "word_id" : 8, "text" : "작가로", "weight" : 0.0836179 },
				{"type" : "ARGM-ADV", "word_id" : 9, "text" : "잘", "weight" : 0.135793 },
				{"type" : "AUX", "word_id" : 11, "text" : "있다.", "weight" : 0.493216 }
			] }
	],
	"relation" : [
	],
	"SA" : [
	],
	"ZA" : [
		{"id" : 0, "verb_wid" : 2, "ant_sid" : -1, "ant_wid" : -1, "type" : "s", "istitle" : 0, "weight" : 0.533364 },
		{"id" : 1, "verb_wid" : 6, "ant_sid" : -1, "ant_wid" : -1, "type" : "s", "istitle" : 0, "weight" : 0.597537 },
		{"id" : 2, "verb_wid" : 10, "ant_sid" : -1, "ant_wid" : -1, "type" : "s", "istitle" : 0, "weight" : 0.41123 }
	]
	},
	{
	"id" : 2,
	"reserve_str" : "",
	"text" : "10살 때 경북포항으로 이사한 것을 계기로 마린블루스 창작의 근원인 바다와 바닷가를 접하게 되어서 이를 계기로 마린블루스의 기원을 만들었다.",
	"morp" : [
		{"id" : 0, "lemma" : "10", "type" : "SN", "position" : 220, "weight" : 1 },
		{"id" : 1, "lemma" : "살", "type" : "NNB", "position" : 222, "weight" : 0.0504567 },
		{"id" : 2, "lemma" : "때", "type" : "NNG", "position" : 226, "weight" : 0.110228 },
		{"id" : 3, "lemma" : "경북", "type" : "NNP", "position" : 230, "weight" : 0.9 },
		{"id" : 4, "lemma" : "포항", "type" : "NNP", "position" : 236, "weight" : 0.9 },
		{"id" : 5, "lemma" : "으로", "type" : "JKB", "position" : 242, "weight" : 0.0823853 },
		{"id" : 6, "lemma" : "이사", "type" : "NNG", "position" : 249, "weight" : 0.203813 },
		{"id" : 7, "lemma" : "하", "type" : "XSV", "position" : 255, "weight" : 0.0001 },
		{"id" : 8, "lemma" : "ㄴ", "type" : "ETM", "position" : 255, "weight" : 0.392321 },
		{"id" : 9, "lemma" : "것", "type" : "NNB", "position" : 259, "weight" : 0.228788 },
		{"id" : 10, "lemma" : "을", "type" : "JKO", "position" : 262, "weight" : 0.0630104 },
		{"id" : 11, "lemma" : "계기", "type" : "NNG", "position" : 266, "weight" : 0.101355 },
		{"id" : 12, "lemma" : "로", "type" : "JKB", "position" : 272, "weight" : 0.153229 },
		{"id" : 13, "lemma" : "마린블루스", "type" : "NNP", "position" : 276, "weight" : 0.6 },
		{"id" : 14, "lemma" : "창작", "type" : "NNG", "position" : 292, "weight" : 0.9 },
		{"id" : 15, "lemma" : "의", "type" : "JKG", "position" : 298, "weight" : 0.0694213 },
		{"id" : 16, "lemma" : "근원", "type" : "NNG", "position" : 302, "weight" : 0.9 },
		{"id" : 17, "lemma" : "이", "type" : "VCP", "position" : 308, "weight" : 0.0177525 },
		{"id" : 18, "lemma" : "ㄴ", "type" : "ETM", "position" : 308, "weight" : 0.220712 },
		{"id" : 19, "lemma" : "바다", "type" : "NNG", "position" : 312, "weight" : 0.635269 },
		{"id" : 20, "lemma" : "와", "type" : "JC", "position" : 318, "weight" : 0.0169714 },
		{"id" : 21, "lemma" : "바닷가", "type" : "NNG", "position" : 322, "weight" : 0.9 },
		{"id" : 22, "lemma" : "를", "type" : "JKO", "position" : 331, "weight" : 0.137686 },
		{"id" : 23, "lemma" : "접", "type" : "NNG", "position" : 335, "weight" : 0.0044236 },
		{"id" : 24, "lemma" : "하", "type" : "XSV", "position" : 338, "weight" : 0.0001 },
		{"id" : 25, "lemma" : "게", "type" : "EC", "position" : 341, "weight" : 0.369675 },
		{"id" : 26, "lemma" : "되", "type" : "VV", "position" : 345, "weight" : 0.209958 },
		{"id" : 27, "lemma" : "어서", "type" : "EC", "position" : 348, "weight" : 0.421998 },
		{"id" : 28, "lemma" : "이", "type" : "NP", "position" : 355, "weight" : 0.000657584 },
		{"id" : 29, "lemma" : "를", "type" : "JKO", "position" : 358, "weight" : 0.0808985 },
		{"id" : 30, "lemma" : "계기", "type" : "NNG", "position" : 362, "weight" : 0.101355 },
		{"id" : 31, "lemma" : "로", "type" : "JKB", "position" : 368, "weight" : 0.153229 },
		{"id" : 32, "lemma" : "마린블루스", "type" : "NNP", "position" : 372, "weight" : 0.6 },
		{"id" : 33, "lemma" : "의", "type" : "JKG", "position" : 387, "weight" : 0.0987295 },
		{"id" : 34, "lemma" : "기원", "type" : "NNG", "position" : 391, "weight" : 0.858881 },
		{"id" : 35, "lemma" : "을", "type" : "JKO", "position" : 397, "weight" : 0.129611 },
		{"id" : 36, "lemma" : "만들", "type" : "VV", "position" : 401, "weight" : 0.9 },
		{"id" : 37, "lemma" : "었", "type" : "EP", "position" : 407, "weight" : 0.9 },
		{"id" : 38, "lemma" : "다", "type" : "EF", "position" : 410, "weight" : 0.640954 },
		{"id" : 39, "lemma" : ".", "type" : "SF", "position" : 413, "weight" : 1 }
	],
	"morp_eval" : [
		{"id" : 0, "result" : "10/SN+살/NNB", "target" : "10살", "word_id" : 0, "m_begin" : 0, "m_end" : 1},
		{"id" : 1, "result" : "때/NNG", "target" : "때", "word_id" : 1, "m_begin" : 2, "m_end" : 2},
		{"id" : 2, "result" : "경북포항/NNG+으로/JKB", "target" : "경북포항으로", "word_id" : 2, "m_begin" : 3, "m_end" : 5},
		{"id" : 3, "result" : "이사하/VV+ㄴ/ETM", "target" : "이사한", "word_id" : 3, "m_begin" : 6, "m_end" : 8},
		{"id" : 4, "result" : "것/NNB+을/JKO", "target" : "것을", "word_id" : 4, "m_begin" : 9, "m_end" : 10},
		{"id" : 5, "result" : "계기/NNG+로/JKB", "target" : "계기로", "word_id" : 5, "m_begin" : 11, "m_end" : 12},
		{"id" : 6, "result" : "마린블루스/NNG", "target" : "마린블루스", "word_id" : 6, "m_begin" : 13, "m_end" : 13},
		{"id" : 7, "result" : "창작/NNG+의/JKG", "target" : "창작의", "word_id" : 7, "m_begin" : 14, "m_end" : 15},
		{"id" : 8, "result" : "근원/NNG+이/VCP+ㄴ/ETM", "target" : "근원인", "word_id" : 8, "m_begin" : 16, "m_end" : 18},
		{"id" : 9, "result" : "바다/NNG+와/JC", "target" : "바다와", "word_id" : 9, "m_begin" : 19, "m_end" : 20},
		{"id" : 10, "result" : "바닷가/NNG+를/JKO", "target" : "바닷가를", "word_id" : 10, "m_begin" : 21, "m_end" : 22},
		{"id" : 11, "result" : "접하/VV+게/EC", "target" : "접하게", "word_id" : 11, "m_begin" : 23, "m_end" : 25},
		{"id" : 12, "result" : "되/VV+어서/EC", "target" : "되어서", "word_id" : 12, "m_begin" : 26, "m_end" : 27},
		{"id" : 13, "result" : "이/NP+를/JKO", "target" : "이를", "word_id" : 13, "m_begin" : 28, "m_end" : 29},
		{"id" : 14, "result" : "계기/NNG+로/JKB", "target" : "계기로", "word_id" : 14, "m_begin" : 30, "m_end" : 31},
		{"id" : 15, "result" : "마린블루스/NNG+의/JKG", "target" : "마린블루스의", "word_id" : 15, "m_begin" : 32, "m_end" : 33},
		{"id" : 16, "result" : "기원/NNG+을/JKO", "target" : "기원을", "word_id" : 16, "m_begin" : 34, "m_end" : 35},
		{"id" : 17, "result" : "만들/VV+었/EP+다/EF+./SF", "target" : "만들었다.", "word_id" : 17, "m_begin" : 36, "m_end" : 39}
	],
	"WSD" : [
		{"id" : 0, "text" : "10", "type" : "SN", "scode" : "00", "weight" : 1, "position" : 220, "begin" : 0, "end" : 0},
		{"id" : 1, "text" : "살", "type" : "NNB", "scode" : "04", "weight" : 1, "position" : 222, "begin" : 1, "end" : 1},
		{"id" : 2, "text" : "때", "type" : "NNG", "scode" : "01", "weight" : 1, "position" : 226, "begin" : 2, "end" : 2},
		{"id" : 3, "text" : "경북", "type" : "NNP", "scode" : "00", "weight" : 1, "position" : 230, "begin" : 3, "end" : 3},
		{"id" : 4, "text" : "포항", "type" : "NNP", "scode" : "03", "weight" : 1, "position" : 236, "begin" : 4, "end" : 4},
		{"id" : 5, "text" : "으로", "type" : "JKB", "scode" : "00", "weight" : 1, "position" : 242, "begin" : 5, "end" : 5},
		{"id" : 6, "text" : "이사하", "type" : "VV", "scode" : "01", "weight" : 1, "position" : 249, "begin" : 6, "end" : 7},
		{"id" : 7, "text" : "ㄴ", "type" : "ETM", "scode" : "00", "weight" : 1, "position" : 255, "begin" : 8, "end" : 8},
		{"id" : 8, "text" : "것", "type" : "NNB", "scode" : "01", "weight" : 1, "position" : 259, "begin" : 9, "end" : 9},
		{"id" : 9, "text" : "을", "type" : "JKO", "scode" : "00", "weight" : 1, "position" : 262, "begin" : 10, "end" : 10},
		{"id" : 10, "text" : "계기", "type" : "NNG", "scode" : "04", "weight" : 1, "position" : 266, "begin" : 11, "end" : 11},
		{"id" : 11, "text" : "로", "type" : "JKB", "scode" : "00", "weight" : 1, "position" : 272, "begin" : 12, "end" : 12},
		{"id" : 12, "text" : "마린블루스", "type" : "NNP", "scode" : "00", "weight" : 0, "position" : 276, "begin" : 13, "end" : 13},
		{"id" : 13, "text" : "창작", "type" : "NNG", "scode" : "00", "weight" : 1, "position" : 292, "begin" : 14, "end" : 14},
		{"id" : 14, "text" : "의", "type" : "JKG", "scode" : "00", "weight" : 1, "position" : 298, "begin" : 15, "end" : 15},
		{"id" : 15, "text" : "근원", "type" : "NNG", "scode" : "00", "weight" : 1, "position" : 302, "begin" : 16, "end" : 16},
		{"id" : 16, "text" : "이", "type" : "VCP", "scode" : "00", "weight" : 1, "position" : 308, "begin" : 17, "end" : 17},
		{"id" : 17, "text" : "ㄴ", "type" : "ETM", "scode" : "00", "weight" : 1, "position" : 308, "begin" : 18, "end" : 18},
		{"id" : 18, "text" : "바다", "type" : "NNG", "scode" : "00", "weight" : 1, "position" : 312, "begin" : 19, "end" : 19},
		{"id" : 19, "text" : "와", "type" : "JC", "scode" : "00", "weight" : 1, "position" : 318, "begin" : 20, "end" : 20},
		{"id" : 20, "text" : "바닷가", "type" : "NNG", "scode" : "00", "weight" : 1, "position" : 322, "begin" : 21, "end" : 21},
		{"id" : 21, "text" : "를", "type" : "JKO", "scode" : "00", "weight" : 1, "position" : 331, "begin" : 22, "end" : 22},
		{"id" : 22, "text" : "접하", "type" : "VV", "scode" : "01", "weight" : 1, "position" : 335, "begin" : 23, "end" : 24},
		{"id" : 23, "text" : "게", "type" : "EC", "scode" : "00", "weight" : 1, "position" : 341, "begin" : 25, "end" : 25},
		{"id" : 24, "text" : "되", "type" : "VV", "scode" : "01", "weight" : 1, "position" : 345, "begin" : 26, "end" : 26},
		{"id" : 25, "text" : "어서", "type" : "EC", "scode" : "00", "weight" : 1, "position" : 348, "begin" : 27, "end" : 27},
		{"id" : 26, "text" : "이", "type" : "NP", "scode" : "05", "weight" : 1, "position" : 355, "begin" : 28, "end" : 28},
		{"id" : 27, "text" : "를", "type" : "JKO", "scode" : "00", "weight" : 1, "position" : 358, "begin" : 29, "end" : 29},
		{"id" : 28, "text" : "계기", "type" : "NNG", "scode" : "04", "weight" : 1, "position" : 362, "begin" : 30, "end" : 30},
		{"id" : 29, "text" : "로", "type" : "JKB", "scode" : "00", "weight" : 1, "position" : 368, "begin" : 31, "end" : 31},
		{"id" : 30, "text" : "마린블루스", "type" : "NNP", "scode" : "00", "weight" : 0, "position" : 372, "begin" : 32, "end" : 32},
		{"id" : 31, "text" : "의", "type" : "JKG", "scode" : "00", "weight" : 1, "position" : 387, "begin" : 33, "end" : 33},
		{"id" : 32, "text" : "기원", "type" : "NNG", "scode" : "05", "weight" : 1, "position" : 391, "begin" : 34, "end" : 34},
		{"id" : 33, "text" : "을", "type" : "JKO", "scode" : "00", "weight" : 1, "position" : 397, "begin" : 35, "end" : 35},
		{"id" : 34, "text" : "만들", "type" : "VV", "scode" : "00", "weight" : 1, "position" : 401, "begin" : 36, "end" : 36},
		{"id" : 35, "text" : "었", "type" : "EP", "scode" : "00", "weight" : 1, "position" : 407, "begin" : 37, "end" : 37},
		{"id" : 36, "text" : "다", "type" : "EF", "scode" : "00", "weight" : 1, "position" : 410, "begin" : 38, "end" : 38},
		{"id" : 37, "text" : ".", "type" : "SF", "scode" : "00", "weight" : 1, "position" : 413, "begin" : 39, "end" : 39}
	],
	"word" : [
		{"id" : 0, "text" : "10살", "type" : "", "begin" : 0, "end" : 1},
		{"id" : 1, "text" : "때", "type" : "", "begin" : 2, "end" : 2},
		{"id" : 2, "text" : "경북포항으로", "type" : "", "begin" : 3, "end" : 5},
		{"id" : 3, "text" : "이사한", "type" : "", "begin" : 6, "end" : 8},
		{"id" : 4, "text" : "것을", "type" : "", "begin" : 9, "end" : 10},
		{"id" : 5, "text" : "계기로", "type" : "", "begin" : 11, "end" : 12},
		{"id" : 6, "text" : "마린블루스", "type" : "", "begin" : 13, "end" : 13},
		{"id" : 7, "text" : "창작의", "type" : "", "begin" : 14, "end" : 15},
		{"id" : 8, "text" : "근원인", "type" : "", "begin" : 16, "end" : 18},
		{"id" : 9, "text" : "바다와", "type" : "", "begin" : 19, "end" : 20},
		{"id" : 10, "text" : "바닷가를", "type" : "", "begin" : 21, "end" : 22},
		{"id" : 11, "text" : "접하게", "type" : "", "begin" : 23, "end" : 25},
		{"id" : 12, "text" : "되어서", "type" : "", "begin" : 26, "end" : 27},
		{"id" : 13, "text" : "이를", "type" : "", "begin" : 28, "end" : 29},
		{"id" : 14, "text" : "계기로", "type" : "", "begin" : 30, "end" : 31},
		{"id" : 15, "text" : "마린블루스의", "type" : "", "begin" : 32, "end" : 33},
		{"id" : 16, "text" : "기원을", "type" : "", "begin" : 34, "end" : 35},
		{"id" : 17, "text" : "만들었다.", "type" : "", "begin" : 36, "end" : 39}
	],
	"NE" : [
		{"id" : 0, "text" : "10살", "type" : "QT_AGE", "begin" : 0, "end" : 1, "weight" : 0.51831, "common_noun" : 0},
		{"id" : 1, "text" : "경북포항", "type" : "LCP_PROVINCE", "begin" : 3, "end" : 4, "weight" : 0.226334, "common_noun" : 0},
		{"id" : 2, "text" : "마린블루스", "type" : "PS_NAME", "begin" : 13, "end" : 13, "weight" : 0.101628, "common_noun" : 0},
		{"id" : 3, "text" : "마린블루스", "type" : "PS_NAME", "begin" : 32, "end" : 32, "weight" : 0.125636, "common_noun" : 0}
	],
	"chunk" : [
	],
	"dependency" : [
		{"id" : 0, "text" : "10살", "head" : 1, "label" : "NP", "mod" : [], "weight" : 0.855058 },
		{"id" : 1, "text" : "때", "head" : 3, "label" : "NP_AJT", "mod" : [0], "weight" : 0.577482 },
		{"id" : 2, "text" : "경북포항으로", "head" : 3, "label" : "NP_AJT", "mod" : [], "weight" : 0.746873 },
		{"id" : 3, "text" : "이사한", "head" : 4, "label" : "VP_MOD", "mod" : [1, 2], "weight" : 0.981679 },
		{"id" : 4, "text" : "것을", "head" : 5, "label" : "NP_OBJ", "mod" : [3], "weight" : 0.78265 },
		{"id" : 5, "text" : "계기로", "head" : 11, "label" : "NP_AJT", "mod" : [4], "weight" : 0.913086 },
		{"id" : 6, "text" : "마린블루스", "head" : 7, "label" : "NP", "mod" : [], "weight" : 0.752615 },
		{"id" : 7, "text" : "창작의", "head" : 8, "label" : "NP_MOD", "mod" : [6], "weight" : 0.613371 },
		{"id" : 8, "text" : "근원인", "head" : 10, "label" : "VNP_MOD", "mod" : [7], "weight" : 0.792943 },
		{"id" : 9, "text" : "바다와", "head" : 10, "label" : "NP_CNJ", "mod" : [], "weight" : 0.871678 },
		{"id" : 10, "text" : "바닷가를", "head" : 11, "label" : "NP_OBJ", "mod" : [8, 9], "weight" : 0.637856 },
		{"id" : 11, "text" : "접하게", "head" : 12, "label" : "VP", "mod" : [5, 10], "weight" : 0.737704 },
		{"id" : 12, "text" : "되어서", "head" : 17, "label" : "VP", "mod" : [11], "weight" : 0.702188 },
		{"id" : 13, "text" : "이를", "head" : 14, "label" : "NP_OBJ", "mod" : [], "weight" : 0.996415 },
		{"id" : 14, "text" : "계기로", "head" : 17, "label" : "NP_AJT", "mod" : [13], "weight" : 0.670895 },
		{"id" : 15, "text" : "마린블루스의", "head" : 16, "label" : "NP_MOD", "mod" : [], "weight" : 0.90712 },
		{"id" : 16, "text" : "기원을", "head" : 17, "label" : "NP_OBJ", "mod" : [15], "weight" : 0.606643 },
		{"id" : 17, "text" : "만들었다.", "head" : -1, "label" : "VP", "mod" : [12, 14, 16], "weight" : 0.00726458 }
	],
	"SRL" : [
		{"verb" : "이사", "sense" : 1, "word_id" : 3, "weight" : 0.178014,
			"argument" : [
				{"type" : "ARGM-TMP", "word_id" : 1, "text" : "때", "weight" : 0.270069 },
				{"type" : "ARG2", "word_id" : 2, "text" : "경북포항으로", "weight" : 0.0859589 }
			] },
		{"verb" : "접", "sense" : 1, "word_id" : 11, "weight" : 0.200804,
			"argument" : [
				{"type" : "ARGM-CAU", "word_id" : 5, "text" : "계기로", "weight" : 0.115878 },
				{"type" : "ARG1", "word_id" : 9, "text" : "바다와", "weight" : 0.164029 },
				{"type" : "ARG1", "word_id" : 10, "text" : "바닷가를", "weight" : 0.285042 },
				{"type" : "AUX", "word_id" : 12, "text" : "되어서", "weight" : 0.238267 }
			] },
		{"verb" : "만들", "sense" : 1, "word_id" : 17, "weight" : 0.162844,
			"argument" : [
				{"type" : "ARGM-MNR", "word_id" : 12, "text" : "되어서", "weight" : 0.103266 },
				{"type" : "ARGM-CAU", "word_id" : 14, "text" : "계기로", "weight" : 0.115908 },
				{"type" : "ARG1", "word_id" : 16, "text" : "기원을", "weight" : 0.269357 }
			] }
	],
	"relation" : [
	],
	"SA" : [
	],
	"ZA" : [
		{"id" : 0, "verb_wid" : 11, "ant_sid" : -1, "ant_wid" : -1, "type" : "s", "istitle" : 0, "weight" : 0.573853 },
		{"id" : 1, "verb_wid" : 17, "ant_sid" : -1, "ant_wid" : -1, "type" : "s", "istitle" : 0, "weight" : 0.433643 }
	]
	},
	{
	"id" : 3,
	"reserve_str" : "",
	"text" : "효성 가톨릭대학교의 시각디자인학과에 입학하였으나 자퇴하고 군복무후 고향인 서울로 상경하여 2002년 마린블루스로 만화계에 데뷔하여 마린블루스를 통해 유명한 작가가 되었다.",
	"morp" : [
		{"id" : 0, "lemma" : "효성", "type" : "NNG", "position" : 414, "weight" : 0.330317 },
		{"id" : 1, "lemma" : "가톨릭", "type" : "NNG", "position" : 421, "weight" : 0.9 },
		{"id" : 2, "lemma" : "대", "type" : "XPN", "position" : 430, "weight" : 0.0001 },
		{"id" : 3, "lemma" : "학교", "type" : "NNG", "position" : 433, "weight" : 0.473729 },
		{"id" : 4, "lemma" : "의", "type" : "JKG", "position" : 439, "weight" : 0.0694213 },
		{"id" : 5, "lemma" : "시각", "type" : "NNG", "position" : 443, "weight" : 0.9 },
		{"id" : 6, "lemma" : "디자인", "type" : "NNG", "position" : 449, "weight" : 0.9 },
		{"id" : 7, "lemma" : "학", "type" : "XSN", "position" : 458, "weight" : 0.0233263 },
		{"id" : 8, "lemma" : "과", "type" : "NNG", "position" : 461, "weight" : 0.00261106 },
		{"id" : 9, "lemma" : "에", "type" : "JKB", "position" : 464, "weight" : 0.153364 },
		{"id" : 10, "lemma" : "입학", "type" : "NNG", "position" : 468, "weight" : 0.9 },
		{"id" : 11, "lemma" : "하", "type" : "XSV", "position" : 474, "weight" : 0.0001 },
		{"id" : 12, "lemma" : "였", "type" : "EP", "position" : 477, "weight" : 0.9 },
		{"id" : 13, "lemma" : "으나", "type" : "EC", "position" : 480, "weight" : 0.197698 },
		{"id" : 14, "lemma" : "자퇴", "type" : "NNG", "position" : 487, "weight" : 0.9 },
		{"id" : 15, "lemma" : "하", "type" : "XSV", "position" : 493, "weight" : 0.0001 },
		{"id" : 16, "lemma" : "고", "type" : "EC", "position" : 496, "weight" : 0.359917 },
		{"id" : 17, "lemma" : "군", "type" : "NNG", "position" : 500, "weight" : 0.131666 },
		{"id" : 18, "lemma" : "복무", "type" : "NNG", "position" : 503, "weight" : 0.9 },
		{"id" : 19, "lemma" : "후", "type" : "NNG", "position" : 509, "weight" : 0.18399 },
		{"id" : 20, "lemma" : "고향", "type" : "NNG", "position" : 513, "weight" : 0.183789 },
		{"id" : 21, "lemma" : "이", "type" : "VCP", "position" : 519, "weight" : 0.0177525 },
		{"id" : 22, "lemma" : "ㄴ", "type" : "ETM", "position" : 519, "weight" : 0.220712 },
		{"id" : 23, "lemma" : "서울", "type" : "NNP", "position" : 523, "weight" : 0.0278177 },
		{"id" : 24, "lemma" : "로", "type" : "JKB", "position" : 529, "weight" : 0.0822907 },
		{"id" : 25, "lemma" : "상경", "type" : "NNG", "position" : 533, "weight" : 0.170953 },
		{"id" : 26, "lemma" : "하", "type" : "XSV", "position" : 539, "weight" : 0.0001 },
		{"id" : 27, "lemma" : "어", "type" : "EC", "position" : 542, "weight" : 0.361326 },
		{"id" : 28, "lemma" : "2002", "type" : "SN", "position" : 546, "weight" : 1 },
		{"id" : 29, "lemma" : "년", "type" : "NNB", "position" : 550, "weight" : 0.414343 },
		{"id" : 30, "lemma" : "마린블루스", "type" : "NNP", "position" : 554, "weight" : 0.6 },
		{"id" : 31, "lemma" : "로", "type" : "JKB", "position" : 569, "weight" : 0.0822907 },
		{"id" : 32, "lemma" : "만화", "type" : "NNG", "position" : 573, "weight" : 0.200177 },
		{"id" : 33, "lemma" : "계", "type" : "XSN", "position" : 579, "weight" : 0.027803 },
		{"id" : 34, "lemma" : "에", "type" : "JKB", "position" : 582, "weight" : 0.121683 },
		{"id" : 35, "lemma" : "데뷔", "type" : "NNG", "position" : 586, "weight" : 0.9 },
		{"id" : 36, "lemma" : "하", "type" : "XSV", "position" : 592, "weight" : 0.0001 },
		{"id" : 37, "lemma" : "어", "type" : "EC", "position" : 595, "weight" : 0.361326 },
		{"id" : 38, "lemma" : "마린블루스", "type" : "NNP", "position" : 599, "weight" : 0.6 },
		{"id" : 39, "lemma" : "를", "type" : "JKO", "position" : 614, "weight" : 0.0283046 },
		{"id" : 40, "lemma" : "통하", "type" : "VV", "position" : 618, "weight" : 0.9 },
		{"id" : 41, "lemma" : "어", "type" : "EC", "position" : 621, "weight" : 0.41831 },
		{"id" : 42, "lemma" : "유명", "type" : "NNG", "position" : 625, "weight" : 0.9 },
		{"id" : 43, "lemma" : "하", "type" : "XSA", "position" : 631, "weight" : 0.0001 },
		{"id" : 44, "lemma" : "ㄴ", "type" : "ETM", "position" : 631, "weight" : 0.488779 },
		{"id" : 45, "lemma" : "작가", "type" : "NNG", "position" : 635, "weight" : 0.658693 },
		{"id" : 46, "lemma" : "가", "type" : "JKC", "position" : 641, "weight" : 0.000442184 },
		{"id" : 47, "lemma" : "되", "type" : "VV", "position" : 645, "weight" : 0.542406 },
		{"id" : 48, "lemma" : "었", "type" : "EP", "position" : 648, "weight" : 0.9 },
		{"id" : 49, "lemma" : "다", "type" : "EF", "position" : 651, "weight" : 0.640954 },
		{"id" : 50, "lemma" : ".", "type" : "SF", "position" : 654, "weight" : 1 }
	],
	"morp_eval" : [
		{"id" : 0, "result" : "효성/NNG", "target" : "효성", "word_id" : 0, "m_begin" : 0, "m_end" : 0},
		{"id" : 1, "result" : "가톨릭대학교/NNG+의/JKG", "target" : "가톨릭대학교의", "word_id" : 1, "m_begin" : 1, "m_end" : 4},
		{"id" : 2, "result" : "시각디자인학과/NNG+에/JKB", "target" : "시각디자인학과에", "word_id" : 2, "m_begin" : 5, "m_end" : 9},
		{"id" : 3, "result" : "입학하/VV+었/EP+으나/EC", "target" : "입학하였으나", "word_id" : 3, "m_begin" : 10, "m_end" : 13},
		{"id" : 4, "result" : "자퇴하/VV+고/EC", "target" : "자퇴하고", "word_id" : 4, "m_begin" : 14, "m_end" : 16},
		{"id" : 5, "result" : "군복무후/NNG", "target" : "군복무후", "word_id" : 5, "m_begin" : 17, "m_end" : 19},
		{"id" : 6, "result" : "고향/NNG+이/VCP+ㄴ/ETM", "target" : "고향인", "word_id" : 6, "m_begin" : 20, "m_end" : 22},
		{"id" : 7, "result" : "서울/NNG+로/JKB", "target" : "서울로", "word_id" : 7, "m_begin" : 23, "m_end" : 24},
		{"id" : 8, "result" : "상경하/VV+어/EC", "target" : "상경하여", "word_id" : 8, "m_begin" : 25, "m_end" : 27},
		{"id" : 9, "result" : "2002/SN+년/NNB", "target" : "2002년", "word_id" : 9, "m_begin" : 28, "m_end" : 29},
		{"id" : 10, "result" : "마린블루스/NNG+로/JKB", "target" : "마린블루스로", "word_id" : 10, "m_begin" : 30, "m_end" : 31},
		{"id" : 11, "result" : "만화계/NNG+에/JKB", "target" : "만화계에", "word_id" : 11, "m_begin" : 32, "m_end" : 34},
		{"id" : 12, "result" : "데뷔하/VV+어/EC", "target" : "데뷔하여", "word_id" : 12, "m_begin" : 35, "m_end" : 37},
		{"id" : 13, "result" : "마린블루스/NNG+를/JKO", "target" : "마린블루스를", "word_id" : 13, "m_begin" : 38, "m_end" : 39},
		{"id" : 14, "result" : "통하/VV+어/EC", "target" : "통해", "word_id" : 14, "m_begin" : 40, "m_end" : 41},
		{"id" : 15, "result" : "유명하/VA+ㄴ/ETM", "target" : "유명한", "word_id" : 15, "m_begin" : 42, "m_end" : 44},
		{"id" : 16, "result" : "작가/NNG+가/JKC", "target" : "작가가", "word_id" : 16, "m_begin" : 45, "m_end" : 46},
		{"id" : 17, "result" : "되/VV+었/EP+다/EF+./SF", "target" : "되었다.", "word_id" : 17, "m_begin" : 47, "m_end" : 50}
	],
	"WSD" : [
		{"id" : 0, "text" : "효성", "type" : "NNG", "scode" : "01", "weight" : 1, "position" : 414, "begin" : 0, "end" : 0},
		{"id" : 1, "text" : "가톨릭", "type" : "NNG", "scode" : "00", "weight" : 1, "position" : 421, "begin" : 1, "end" : 1},
		{"id" : 2, "text" : "대학교", "type" : "NNG", "scode" : "00", "weight" : 1, "position" : 430, "begin" : 2, "end" : 3},
		{"id" : 3, "text" : "의", "type" : "JKG", "scode" : "00", "weight" : 1, "position" : 439, "begin" : 4, "end" : 4},
		{"id" : 4, "text" : "시각디자인", "type" : "NNG", "scode" : "00", "weight" : 0, "position" : 443, "begin" : 5, "end" : 6},
		{"id" : 5, "text" : "학과", "type" : "NNG", "scode" : "01", "weight" : 1, "position" : 458, "begin" : 7, "end" : 8},
		{"id" : 6, "text" : "에", "type" : "JKB", "scode" : "00", "weight" : 1, "position" : 464, "begin" : 9, "end" : 9},
		{"id" : 7, "text" : "입학하", "type" : "VV", "scode" : "00", "weight" : 1, "position" : 468, "begin" : 10, "end" : 11},
		{"id" : 8, "text" : "였", "type" : "EP", "scode" : "00", "weight" : 1, "position" : 477, "begin" : 12, "end" : 12},
		{"id" : 9, "text" : "으나", "type" : "EC", "scode" : "00", "weight" : 1, "position" : 480, "begin" : 13, "end" : 13},
		{"id" : 10, "text" : "자퇴하", "type" : "VV", "scode" : "00", "weight" : 1, "position" : 487, "begin" : 14, "end" : 15},
		{"id" : 11, "text" : "고", "type" : "EC", "scode" : "00", "weight" : 1, "position" : 496, "begin" : 16, "end" : 16},
		{"id" : 12, "text" : "군", "type" : "NNG", "scode" : "05", "weight" : 1, "position" : 500, "begin" : 17, "end" : 17},
		{"id" : 13, "text" : "복무", "type" : "NNG", "scode" : "02", "weight" : 1, "position" : 503, "begin" : 18, "end" : 18},
		{"id" : 14, "text" : "후", "type" : "NNG", "scode" : "08", "weight" : 1, "position" : 509, "begin" : 19, "end" : 19},
		{"id" : 15, "text" : "고향", "type" : "NNG", "scode" : "02", "weight" : 1, "position" : 513, "begin" : 20, "end" : 20},
		{"id" : 16, "text" : "이", "type" : "VCP", "scode" : "00", "weight" : 1, "position" : 519, "begin" : 21, "end" : 21},
		{"id" : 17, "text" : "ㄴ", "type" : "ETM", "scode" : "00", "weight" : 1, "position" : 519, "begin" : 22, "end" : 22},
		{"id" : 18, "text" : "서울", "type" : "NNP", "scode" : "01", "weight" : 1, "position" : 523, "begin" : 23, "end" : 23},
		{"id" : 19, "text" : "로", "type" : "JKB", "scode" : "00", "weight" : 1, "position" : 529, "begin" : 24, "end" : 24},
		{"id" : 20, "text" : "상경하", "type" : "VV", "scode" : "01", "weight" : 1, "position" : 533, "begin" : 25, "end" : 26},
		{"id" : 21, "text" : "어", "type" : "EC", "scode" : "00", "weight" : 1, "position" : 542, "begin" : 27, "end" : 27},
		{"id" : 22, "text" : "2002", "type" : "SN", "scode" : "00", "weight" : 1, "position" : 546, "begin" : 28, "end" : 28},
		{"id" : 23, "text" : "년", "type" : "NNB", "scode" : "02", "weight" : 1, "position" : 550, "begin" : 29, "end" : 29},
		{"id" : 24, "text" : "마린블루스", "type" : "NNP", "scode" : "00", "weight" : 0, "position" : 554, "begin" : 30, "end" : 30},
		{"id" : 25, "text" : "로", "type" : "JKB", "scode" : "00", "weight" : 1, "position" : 569, "begin" : 31, "end" : 31},
		{"id" : 26, "text" : "만화", "type" : "NNG", "scode" : "10", "weight" : 1, "position" : 573, "begin" : 32, "end" : 32},
		{"id" : 27, "text" : "계", "type" : "XSN", "scode" : "16", "weight" : 1, "position" : 579, "begin" : 33, "end" : 33},
		{"id" : 28, "text" : "에", "type" : "JKB", "scode" : "00", "weight" : 1, "position" : 582, "begin" : 34, "end" : 34},
		{"id" : 29, "text" : "데뷔하", "type" : "VV", "scode" : "00", "weight" : 1, "position" : 586, "begin" : 35, "end" : 36},
		{"id" : 30, "text" : "어", "type" : "EC", "scode" : "00", "weight" : 1, "position" : 595, "begin" : 37, "end" : 37},
		{"id" : 31, "text" : "마린블루스", "type" : "NNP", "scode" : "00", "weight" : 0, "position" : 599, "begin" : 38, "end" : 38},
		{"id" : 32, "text" : "를", "type" : "JKO", "scode" : "00", "weight" : 1, "position" : 614, "begin" : 39, "end" : 39},
		{"id" : 33, "text" : "통하", "type" : "VV", "scode" : "00", "weight" : 1, "position" : 618, "begin" : 40, "end" : 40},
		{"id" : 34, "text" : "어", "type" : "EC", "scode" : "00", "weight" : 1, "position" : 621, "begin" : 41, "end" : 41},
		{"id" : 35, "text" : "유명하", "type" : "VA", "scode" : "01", "weight" : 1, "position" : 625, "begin" : 42, "end" : 43},
		{"id" : 36, "text" : "ㄴ", "type" : "ETM", "scode" : "00", "weight" : 1, "position" : 631, "begin" : 44, "end" : 44},
		{"id" : 37, "text" : "작가", "type" : "NNG", "scode" : "01", "weight" : 1, "position" : 635, "begin" : 45, "end" : 45},
		{"id" : 38, "text" : "가", "type" : "JKC", "scode" : "00", "weight" : 1, "position" : 641, "begin" : 46, "end" : 46},
		{"id" : 39, "text" : "되", "type" : "VV", "scode" : "01", "weight" : 1, "position" : 645, "begin" : 47, "end" : 47},
		{"id" : 40, "text" : "었", "type" : "EP", "scode" : "00", "weight" : 1, "position" : 648, "begin" : 48, "end" : 48},
		{"id" : 41, "text" : "다", "type" : "EF", "scode" : "00", "weight" : 1, "position" : 651, "begin" : 49, "end" : 49},
		{"id" : 42, "text" : ".", "type" : "SF", "scode" : "00", "weight" : 1, "position" : 654, "begin" : 50, "end" : 50}
	],
	"word" : [
		{"id" : 0, "text" : "효성", "type" : "", "begin" : 0, "end" : 0},
		{"id" : 1, "text" : "가톨릭대학교의", "type" : "", "begin" : 1, "end" : 4},
		{"id" : 2, "text" : "시각디자인학과에", "type" : "", "begin" : 5, "end" : 9},
		{"id" : 3, "text" : "입학하였으나", "type" : "", "begin" : 10, "end" : 13},
		{"id" : 4, "text" : "자퇴하고", "type" : "", "begin" : 14, "end" : 16},
		{"id" : 5, "text" : "군복무후", "type" : "", "begin" : 17, "end" : 19},
		{"id" : 6, "text" : "고향인", "type" : "", "begin" : 20, "end" : 22},
		{"id" : 7, "text" : "서울로", "type" : "", "begin" : 23, "end" : 24},
		{"id" : 8, "text" : "상경하여", "type" : "", "begin" : 25, "end" : 27},
		{"id" : 9, "text" : "2002년", "type" : "", "begin" : 28, "end" : 29},
		{"id" : 10, "text" : "마린블루스로", "type" : "", "begin" : 30, "end" : 31},
		{"id" : 11, "text" : "만화계에", "type" : "", "begin" : 32, "end" : 34},
		{"id" : 12, "text" : "데뷔하여", "type" : "", "begin" : 35, "end" : 37},
		{"id" : 13, "text" : "마린블루스를", "type" : "", "begin" : 38, "end" : 39},
		{"id" : 14, "text" : "통해", "type" : "", "begin" : 40, "end" : 41},
		{"id" : 15, "text" : "유명한", "type" : "", "begin" : 42, "end" : 44},
		{"id" : 16, "text" : "작가가", "type" : "", "begin" : 45, "end" : 46},
		{"id" : 17, "text" : "되었다.", "type" : "", "begin" : 47, "end" : 50}
	],
	"NE" : [
		{"id" : 0, "text" : "효성 가톨릭대학교", "type" : "OGG_EDUCATION", "begin" : 0, "end" : 3, "weight" : 0.629661, "common_noun" : 0},
		{"id" : 1, "text" : "시각디자인학과", "type" : "OGG_EDUCATION", "begin" : 5, "end" : 8, "weight" : 0.263176, "common_noun" : 0},
		{"id" : 2, "text" : "서울", "type" : "LCP_CAPITALCITY", "begin" : 23, "end" : 23, "weight" : 0.184658, "common_noun" : 0},
		{"id" : 3, "text" : "2002년", "type" : "DT_YEAR", "begin" : 28, "end" : 29, "weight" : 0.713269, "common_noun" : 0},
		{"id" : 4, "text" : "마린블루스", "type" : "LCP_CAPITALCITY", "begin" : 30, "end" : 30, "weight" : 0.0978625, "common_noun" : 0},
		{"id" : 5, "text" : "만화", "type" : "FD_ART", "begin" : 32, "end" : 32, "weight" : 0.372473, "common_noun" : 0},
		{"id" : 6, "text" : "마린블루스", "type" : "FD_ART", "begin" : 38, "end" : 38, "weight" : 0.0895397, "common_noun" : 0},
		{"id" : 7, "text" : "작가", "type" : "CV_OCCUPATION", "begin" : 45, "end" : 45, "weight" : 0.492992, "common_noun" : 0}
	],
	"chunk" : [
	],
	"dependency" : [
		{"id" : 0, "text" : "효성", "head" : 1, "label" : "NP", "mod" : [], "weight" : 0.718523 },
		{"id" : 1, "text" : "가톨릭대학교의", "head" : 2, "label" : "NP_MOD", "mod" : [0], "weight" : 0.862271 },
		{"id" : 2, "text" : "시각디자인학과에", "head" : 3, "label" : "NP_AJT", "mod" : [1], "weight" : 0.78983 },
		{"id" : 3, "text" : "입학하였으나", "head" : 4, "label" : "VP", "mod" : [2], "weight" : 0.813605 },
		{"id" : 4, "text" : "자퇴하고", "head" : 8, "label" : "VP", "mod" : [3], "weight" : 0.995527 },
		{"id" : 5, "text" : "군복무후", "head" : 6, "label" : "NP", "mod" : [], "weight" : 0.513766 },
		{"id" : 6, "text" : "고향인", "head" : 7, "label" : "VNP_MOD", "mod" : [5], "weight" : 0.959593 },
		{"id" : 7, "text" : "서울로", "head" : 8, "label" : "NP_AJT", "mod" : [6], "weight" : 0.744314 },
		{"id" : 8, "text" : "상경하여", "head" : 12, "label" : "VP", "mod" : [4, 7], "weight" : 0.885722 },
		{"id" : 9, "text" : "2002년", "head" : 12, "label" : "NP_AJT", "mod" : [], "weight" : 0.839148 },
		{"id" : 10, "text" : "마린블루스로", "head" : 12, "label" : "NP_AJT", "mod" : [], "weight" : 0.775158 },
		{"id" : 11, "text" : "만화계에", "head" : 12, "label" : "NP_AJT", "mod" : [], "weight" : 0.683987 },
		{"id" : 12, "text" : "데뷔하여", "head" : 14, "label" : "VP", "mod" : [8, 9, 10, 11], "weight" : 0.832055 },
		{"id" : 13, "text" : "마린블루스를", "head" : 14, "label" : "NP_OBJ", "mod" : [], "weight" : 0.712242 },
		{"id" : 14, "text" : "통해", "head" : 17, "label" : "VP", "mod" : [12, 13], "weight" : 0.611014 },
		{"id" : 15, "text" : "유명한", "head" : 16, "label" : "VP_MOD", "mod" : [], "weight" : 0.833469 },
		{"id" : 16, "text" : "작가가", "head" : 17, "label" : "NP_CMP", "mod" : [15], "weight" : 0.452328 },
		{"id" : 17, "text" : "되었다.", "head" : -1, "label" : "VP", "mod" : [14, 16], "weight" : 0.00600783 }
	],
	"SRL" : [
		{"verb" : "입학", "sense" : 1, "word_id" : 3, "weight" : 0.118038,
			"argument" : [
				{"type" : "ARG1", "word_id" : 2, "text" : "시각디자인학과에", "weight" : 0.118038 }
			] },
		{"verb" : "자퇴", "sense" : 1, "word_id" : 4, "weight" : 0,
			"argument" : [
			] },
		{"verb" : "상경", "sense" : 1, "word_id" : 8, "weight" : 0.0724341,
			"argument" : [
				{"type" : "ARG2", "word_id" : 7, "text" : "서울로", "weight" : 0.0724341 }
			] },
		{"verb" : "데뷔", "sense" : 1, "word_id" : 12, "weight" : 0.116931,
			"argument" : [
				{"type" : "ARG2", "word_id" : 11, "text" : "만화계에", "weight" : 0.116931 }
			] },
		{"verb" : "통하", "sense" : 1, "word_id" : 14, "weight" : 0.296749,
			"argument" : [
				{"type" : "ARG2", "word_id" : 13, "text" : "마린블루스를", "weight" : 0.296749 }
			] },
		{"verb" : "유명", "sense" : 1, "word_id" : 15, "weight" : 0.226803,
			"argument" : [
				{"type" : "ARG1", "word_id" : 16, "text" : "작가가", "weight" : 0.226803 }
			] },
		{"verb" : "되", "sense" : 1, "word_id" : 17, "weight" : 0.337074,
			"argument" : [
				{"type" : "ARG2", "word_id" : 16, "text" : "작가가", "weight" : 0.337074 }
			] }
	],
	"relation" : [
	],
	"SA" : [
	],
	"ZA" : [
		{"id" : 0, "verb_wid" : 3, "ant_sid" : -1, "ant_wid" : -1, "type" : "s", "istitle" : 0, "weight" : 0.460983 },
		{"id" : 1, "verb_wid" : 4, "ant_sid" : -1, "ant_wid" : -1, "type" : "s", "istitle" : 0, "weight" : 0.590047 },
		{"id" : 2, "verb_wid" : 8, "ant_sid" : -1, "ant_wid" : -1, "type" : "s", "istitle" : 0, "weight" : 0.632476 },
		{"id" : 3, "verb_wid" : 12, "ant_sid" : -1, "ant_wid" : -1, "type" : "s", "istitle" : 0, "weight" : 0.703192 }
	]
	},
	{
	"id" : 4,
	"reserve_str" : "",
	"text" : "2008년 다음PC에서 P씨이야기 연재.",
	"morp" : [
		{"id" : 0, "lemma" : "2008", "type" : "SN", "position" : 655, "weight" : 1 },
		{"id" : 1, "lemma" : "년", "type" : "NNB", "position" : 659, "weight" : 0.414343 },
		{"id" : 2, "lemma" : "다음", "type" : "NNG", "position" : 663, "weight" : 0.110555 },
		{"id" : 3, "lemma" : "PC", "type" : "SL", "position" : 669, "weight" : 1 },
		{"id" : 4, "lemma" : "에서", "type" : "JKB", "position" : 671, "weight" : 0.0327964 },
		{"id" : 5, "lemma" : "P", "type" : "SL", "position" : 678, "weight" : 1 },
		{"id" : 6, "lemma" : "씨", "type" : "NNB", "position" : 679, "weight" : 0.0125725 },
		{"id" : 7, "lemma" : "이야기", "type" : "NNG", "position" : 682, "weight" : 0.9 },
		{"id" : 8, "lemma" : "연재", "type" : "NNG", "position" : 692, "weight" : 0.177731 },
		{"id" : 9, "lemma" : ".", "type" : "SF", "position" : 698, "weight" : 1 }
	],
	"morp_eval" : [
		{"id" : 0, "result" : "2008/SN+년/NNB", "target" : "2008년", "word_id" : 0, "m_begin" : 0, "m_end" : 1},
		{"id" : 1, "result" : "다음/NNG+PC/SL+에서/JKB", "target" : "다음PC에서", "word_id" : 1, "m_begin" : 2, "m_end" : 4},
		{"id" : 2, "result" : "P/SL+씨/NNB+이야기/NNG", "target" : "P씨이야기", "word_id" : 2, "m_begin" : 5, "m_end" : 7},
		{"id" : 3, "result" : "연재/NNG+./SF", "target" : "연재.", "word_id" : 3, "m_begin" : 8, "m_end" : 9}
	],
	"WSD" : [
		{"id" : 0, "text" : "2008", "type" : "SN", "scode" : "00", "weight" : 1, "position" : 655, "begin" : 0, "end" : 0},
		{"id" : 1, "text" : "년", "type" : "NNB", "scode" : "02", "weight" : 1, "position" : 659, "begin" : 1, "end" : 1},
		{"id" : 2, "text" : "다음", "type" : "NNG", "scode" : "01", "weight" : 1, "position" : 663, "begin" : 2, "end" : 2},
		{"id" : 3, "text" : "PC", "type" : "SL", "scode" : "00", "weight" : 1, "position" : 669, "begin" : 3, "end" : 3},
		{"id" : 4, "text" : "에서", "type" : "JKB", "scode" : "00", "weight" : 1, "position" : 671, "begin" : 4, "end" : 4},
		{"id" : 5, "text" : "P", "type" : "SL", "scode" : "00", "weight" : 1, "position" : 678, "begin" : 5, "end" : 5},
		{"id" : 6, "text" : "씨", "type" : "NNB", "scode" : "07", "weight" : 1, "position" : 679, "begin" : 6, "end" : 6},
		{"id" : 7, "text" : "이야기", "type" : "NNG", "scode" : "00", "weight" : 1, "position" : 682, "begin" : 7, "end" : 7},
		{"id" : 8, "text" : "연재", "type" : "NNG", "scode" : "04", "weight" : 1, "position" : 692, "begin" : 8, "end" : 8},
		{"id" : 9, "text" : ".", "type" : "SF", "scode" : "00", "weight" : 1, "position" : 698, "begin" : 9, "end" : 9}
	],
	"word" : [
		{"id" : 0, "text" : "2008년", "type" : "", "begin" : 0, "end" : 1},
		{"id" : 1, "text" : "다음PC에서", "type" : "", "begin" : 2, "end" : 4},
		{"id" : 2, "text" : "P씨이야기", "type" : "", "begin" : 5, "end" : 7},
		{"id" : 3, "text" : "연재.", "type" : "", "begin" : 8, "end" : 9}
	],
	"NE" : [
		{"id" : 0, "text" : "2008년", "type" : "DT_YEAR", "begin" : 0, "end" : 1, "weight" : 0.688105, "common_noun" : 0},
		{"id" : 1, "text" : "PC", "type" : "TMI_HW", "begin" : 3, "end" : 3, "weight" : 0.180677, "common_noun" : 0}
	],
	"chunk" : [
	],
	"dependency" : [
		{"id" : 0, "text" : "2008년", "head" : 3, "label" : "NP", "mod" : [], "weight" : 0.549492 },
		{"id" : 1, "text" : "다음PC에서", "head" : 3, "label" : "NP_AJT", "mod" : [], "weight" : 0.794131 },
		{"id" : 2, "text" : "P씨이야기", "head" : 3, "label" : "NP", "mod" : [], "weight" : 0.410187 },
		{"id" : 3, "text" : "연재.", "head" : -1, "label" : "NP", "mod" : [0, 1, 2], "weight" : 0.0870976 }
	],
	"SRL" : [
	],
	"relation" : [
	],
	"SA" : [
	],
	"ZA" : [
	]
	},
	{
	"id" : 5,
	"reserve_str" : "",
	"text" : "2010년 네이버 인텔 PC에서 마조앤새디를 연재중.",
	"morp" : [
		{"id" : 0, "lemma" : "2010", "type" : "SN", "position" : 699, "weight" : 1 },
		{"id" : 1, "lemma" : "년", "type" : "NNB", "position" : 703, "weight" : 0.414343 },
		{"id" : 2, "lemma" : "네이버", "type" : "NNP", "position" : 707, "weight" : 0.35 },
		{"id" : 3, "lemma" : "인텔", "type" : "NNP", "position" : 717, "weight" : 0.9 },
		{"id" : 4, "lemma" : "PC", "type" : "SL", "position" : 724, "weight" : 1 },
		{"id" : 5, "lemma" : "에서", "type" : "JKB", "position" : 726, "weight" : 0.0327964 },
		{"id" : 6, "lemma" : "마조앤새디", "type" : "NNP", "position" : 733, "weight" : 0.6 },
		{"id" : 7, "lemma" : "를", "type" : "JKO", "position" : 748, "weight" : 0.0283046 },
		{"id" : 8, "lemma" : "연재", "type" : "NNG", "position" : 752, "weight" : 0.0975025 },
		{"id" : 9, "lemma" : "중", "type" : "NNB", "position" : 758, "weight" : 0.013531 },
		{"id" : 10, "lemma" : ".", "type" : "SF", "position" : 761, "weight" : 1 }
	],
	"morp_eval" : [
		{"id" : 0, "result" : "2010/SN+년/NNB", "target" : "2010년", "word_id" : 0, "m_begin" : 0, "m_end" : 1},
		{"id" : 1, "result" : "네이버/NNG", "target" : "네이버", "word_id" : 1, "m_begin" : 2, "m_end" : 2},
		{"id" : 2, "result" : "인텔/NNG", "target" : "인텔", "word_id" : 2, "m_begin" : 3, "m_end" : 3},
		{"id" : 3, "result" : "PC/SL+에서/JKB", "target" : "PC에서", "word_id" : 3, "m_begin" : 4, "m_end" : 5},
		{"id" : 4, "result" : "마조앤새디/NNG+를/JKO", "target" : "마조앤새디를", "word_id" : 4, "m_begin" : 6, "m_end" : 7},
		{"id" : 5, "result" : "연재/NNG+중/NNB+./SF", "target" : "연재중.", "word_id" : 5, "m_begin" : 8, "m_end" : 10}
	],
	"WSD" : [
		{"id" : 0, "text" : "2010", "type" : "SN", "scode" : "00", "weight" : 1, "position" : 699, "begin" : 0, "end" : 0},
		{"id" : 1, "text" : "년", "type" : "NNB", "scode" : "02", "weight" : 1, "position" : 703, "begin" : 1, "end" : 1},
		{"id" : 2, "text" : "네이버", "type" : "NNP", "scode" : "00", "weight" : 1, "position" : 707, "begin" : 2, "end" : 2},
		{"id" : 3, "text" : "인텔", "type" : "NNP", "scode" : "00", "weight" : 1, "position" : 717, "begin" : 3, "end" : 3},
		{"id" : 4, "text" : "PC", "type" : "SL", "scode" : "00", "weight" : 1, "position" : 724, "begin" : 4, "end" : 4},
		{"id" : 5, "text" : "에서", "type" : "JKB", "scode" : "00", "weight" : 1, "position" : 726, "begin" : 5, "end" : 5},
		{"id" : 6, "text" : "마조앤새디", "type" : "NNP", "scode" : "00", "weight" : 0, "position" : 733, "begin" : 6, "end" : 6},
		{"id" : 7, "text" : "를", "type" : "JKO", "scode" : "00", "weight" : 1, "position" : 748, "begin" : 7, "end" : 7},
		{"id" : 8, "text" : "연재", "type" : "NNG", "scode" : "04", "weight" : 1, "position" : 752, "begin" : 8, "end" : 8},
		{"id" : 9, "text" : "중", "type" : "NNB", "scode" : "04", "weight" : 1, "position" : 758, "begin" : 9, "end" : 9},
		{"id" : 10, "text" : ".", "type" : "SF", "scode" : "00", "weight" : 1, "position" : 761, "begin" : 10, "end" : 10}
	],
	"word" : [
		{"id" : 0, "text" : "2010년", "type" : "", "begin" : 0, "end" : 1},
		{"id" : 1, "text" : "네이버", "type" : "", "begin" : 2, "end" : 2},
		{"id" : 2, "text" : "인텔", "type" : "", "begin" : 3, "end" : 3},
		{"id" : 3, "text" : "PC에서", "type" : "", "begin" : 4, "end" : 5},
		{"id" : 4, "text" : "마조앤새디를", "type" : "", "begin" : 6, "end" : 7},
		{"id" : 5, "text" : "연재중.", "type" : "", "begin" : 8, "end" : 10}
	],
	"NE" : [
		{"id" : 0, "text" : "2010년", "type" : "DT_YEAR", "begin" : 0, "end" : 1, "weight" : 0.698027, "common_noun" : 0},
		{"id" : 1, "text" : "네이버", "type" : "OGG_ECONOMY", "begin" : 2, "end" : 2, "weight" : 0.329746, "common_noun" : 0},
		{"id" : 2, "text" : "인텔", "type" : "OGG_ECONOMY", "begin" : 3, "end" : 3, "weight" : 0.341755, "common_noun" : 0},
		{"id" : 3, "text" : "PC", "type" : "TMI_HW", "begin" : 4, "end" : 4, "weight" : 0.27531, "common_noun" : 0},
		{"id" : 4, "text" : "마조앤새디", "type" : "TMI_HW", "begin" : 6, "end" : 6, "weight" : 0.0937855, "common_noun" : 0}
	],
	"chunk" : [
	],
	"dependency" : [
		{"id" : 0, "text" : "2010년", "head" : 3, "label" : "NP", "mod" : [], "weight" : 0.554779 },
		{"id" : 1, "text" : "네이버", "head" : 2, "label" : "NP", "mod" : [], "weight" : 0.625203 },
		{"id" : 2, "text" : "인텔", "head" : 3, "label" : "NP", "mod" : [1], "weight" : 0.854573 },
		{"id" : 3, "text" : "PC에서", "head" : 5, "label" : "NP_AJT", "mod" : [0, 2], "weight" : 0.494126 },
		{"id" : 4, "text" : "마조앤새디를", "head" : 5, "label" : "NP_OBJ", "mod" : [], "weight" : 0.48855 },
		{"id" : 5, "text" : "연재중.", "head" : -1, "label" : "NP", "mod" : [3, 4], "weight" : 0.0311998 }
	],
	"SRL" : [
	],
	"relation" : [
	],
	"SA" : [
	],
	"ZA" : [
	]
	}
 ],
 "entity" : [
	{"id" : 0, "type" : "PS_NAME", "number" : "singular", "gender" : "", "person" : "", "animacy" : "", "loc" : "", 
	 "mention" : [
		{"id" : 3, "sent_id" : 0, "start_eid" : 4, "end_eid" : 4, "ne_id" : 3, "text" : "만화가이자", "start_eid_short" : 4, "end_eid_short" : 4, "text_short" : "만화가이자", "weight" : 0.009 },
		{"id" : 4, "sent_id" : 0, "start_eid" : 5, "end_eid" : 5, "ne_id" : 4, "text" : "카툰", "start_eid_short" : 5, "end_eid_short" : 5, "text_short" : "카툰", "weight" : 0.004 }
	] },
	{"id" : 1, "type" : "CV_OCCUPATION", "number" : "singular", "gender" : "", "person" : "", "animacy" : "", "loc" : "", 
	 "mention" : [
		{"id" : 8, "sent_id" : 1, "start_eid" : 4, "end_eid" : 4, "ne_id" : 3, "text" : "마린블루스", "start_eid_short" : 4, "end_eid_short" : 4, "text_short" : "마린블루스", "weight" : 0.111 },
		{"id" : 9, "sent_id" : 1, "start_eid" : 7, "end_eid" : 8, "ne_id" : 5, "text" : "마린블루스 작가", "start_eid_short" : 7, "end_eid_short" : 8, "text_short" : "마린블루스 작가", "weight" : 0.116 },
		{"id" : 10, "sent_id" : 1, "start_eid" : 7, "end_eid" : 7, "ne_id" : 4, "text" : "마린블루스", "start_eid_short" : 7, "end_eid_short" : 7, "text_short" : "마린블루스", "weight" : 0.117 },
		{"id" : 17, "sent_id" : 2, "start_eid" : 6, "end_eid" : 6, "ne_id" : 2, "text" : "마린블루스", "start_eid_short" : 6, "end_eid_short" : 6, "text_short" : "마린블루스", "weight" : 0.117 },
		{"id" : 23, "sent_id" : 2, "start_eid" : 15, "end_eid" : 15, "ne_id" : 3, "text" : "마린블루스", "start_eid_short" : 15, "end_eid_short" : 15, "text_short" : "마린블루스", "weight" : 0.117 },
		{"id" : 29, "sent_id" : 3, "start_eid" : 10, "end_eid" : 10, "ne_id" : 4, "text" : "마린블루스", "start_eid_short" : 10, "end_eid_short" : 10, "text_short" : "마린블루스", "weight" : 0.117 },
		{"id" : 31, "sent_id" : 3, "start_eid" : 13, "end_eid" : 13, "ne_id" : 6, "text" : "마린블루스", "start_eid_short" : 13, "end_eid_short" : 13, "text_short" : "마린블루스", "weight" : 0.117 },
		{"id" : 32, "sent_id" : 3, "start_eid" : 16, "end_eid" : 16, "ne_id" : 7, "text" : "작가", "start_eid_short" : 16, "end_eid_short" : 16, "text_short" : "작가", "weight" : 0.0949999 }
	] },
	{"id" : 2, "type" : "", "number" : "singular", "gender" : "", "person" : "", "animacy" : "", "loc" : "", 
	 "mention" : [
		{"id" : 14, "sent_id" : 2, "start_eid" : 4, "end_eid" : 5, "ne_id" : -1, "text" : "것을 계기", "start_eid_short" : 5, "end_eid_short" : 5, "text_short" : "계기", "weight" : 0.006 },
		{"id" : 20, "sent_id" : 2, "start_eid" : 13, "end_eid" : 14, "ne_id" : -1, "text" : "이를 계기", "start_eid_short" : 14, "end_eid_short" : 14, "text_short" : "계기", "weight" : 0.01 }
	] },
	{"id" : 3, "type" : "TMI_HW", "number" : "singular", "gender" : "", "person" : "", "animacy" : "", "loc" : "", 
	 "mention" : [
		{"id" : 34, "sent_id" : 4, "start_eid" : 1, "end_eid" : 1, "ne_id" : 1, "text" : "다음PC", "start_eid_short" : 1, "end_eid_short" : 1, "text_short" : "다음PC", "weight" : 0.002 },
		{"id" : 39, "sent_id" : 5, "start_eid" : 3, "end_eid" : 3, "ne_id" : 3, "text" : "PC", "start_eid_short" : 3, "end_eid_short" : 3, "text_short" : "PC", "weight" : 0.003 }
	] },
	{"id" : 4, "type" : "OGG_ECONOMY", "number" : "singular", "gender" : "", "person" : "", "animacy" : "", "loc" : "", 
	 "mention" : [
		{"id" : 38, "sent_id" : 5, "start_eid" : 1, "end_eid" : 1, "ne_id" : 1, "text" : "네이버", "start_eid_short" : 1, "end_eid_short" : 1, "text_short" : "네이버", "weight" : 0.003 },
		{"id" : 37, "sent_id" : 5, "start_eid" : 1, "end_eid" : 2, "ne_id" : 2, "text" : "네이버 인텔", "start_eid_short" : 1, "end_eid_short" : 2, "text_short" : "네이버 인텔", "weight" : 0.002 }
	] }
 ]
}

