{"doc_id" : "",
 "DCT" : "",
 "category" : "",
 "category_weight" : 0,
 "title" : {"text" : "", "NE" : ""},
 "metaInfo" : { },
 "sentence" : [
	{
	"id" : 0,
	"reserve_str" : "",
	"text" : "﻿하여가는 고려 말과 조선 초기의 시조 1수로 『해동악부』에 전해지고 있다. ",
	"morp" : [
		{"id" : 0, "lemma" : "﻿하", "type" : "VV", "position" : 0, "weight" : 0 },
		{"id" : 1, "lemma" : "어", "type" : "EC", "position" : 6, "weight" : 0.41831 },
		{"id" : 2, "lemma" : "가", "type" : "VX", "position" : 9, "weight" : 0.00757084 },
		{"id" : 3, "lemma" : "는", "type" : "ETM", "position" : 12, "weight" : 0.183966 },
		{"id" : 4, "lemma" : "고려", "type" : "NNP", "position" : 16, "weight" : 0.0267336 },
		{"id" : 5, "lemma" : "말", "type" : "NNG", "position" : 23, "weight" : 0.226386 },
		{"id" : 6, "lemma" : "과", "type" : "JC", "position" : 26, "weight" : 0.017569 },
		{"id" : 7, "lemma" : "조선", "type" : "NNP", "position" : 30, "weight" : 0.0693909 },
		{"id" : 8, "lemma" : "초기", "type" : "NNG", "position" : 37, "weight" : 0.9 },
		{"id" : 9, "lemma" : "의", "type" : "JKG", "position" : 43, "weight" : 0.0694213 },
		{"id" : 10, "lemma" : "시조", "type" : "NNG", "position" : 47, "weight" : 0.9 },
		{"id" : 11, "lemma" : "1", "type" : "SN", "position" : 54, "weight" : 1 },
		{"id" : 12, "lemma" : "수", "type" : "NNB", "position" : 55, "weight" : 0.391533 },
		{"id" : 13, "lemma" : "로", "type" : "JKB", "position" : 58, "weight" : 0.13544 },
		{"id" : 14, "lemma" : "『", "type" : "SS", "position" : 62, "weight" : 1 },
		{"id" : 15, "lemma" : "해동", "type" : "NNG", "position" : 65, "weight" : 0.126667 },
		{"id" : 16, "lemma" : "악부", "type" : "NNG", "position" : 71, "weight" : 0.167236 },
		{"id" : 17, "lemma" : "』", "type" : "SS", "position" : 77, "weight" : 1 },
		{"id" : 18, "lemma" : "에", "type" : "JKB", "position" : 80, "weight" : 0.048593 },
		{"id" : 19, "lemma" : "전하", "type" : "VV", "position" : 84, "weight" : 0.420227 },
		{"id" : 20, "lemma" : "어", "type" : "EC", "position" : 87, "weight" : 0.41831 },
		{"id" : 21, "lemma" : "지", "type" : "VX", "position" : 90, "weight" : 0.0539764 },
		{"id" : 22, "lemma" : "고", "type" : "EC", "position" : 93, "weight" : 0.25644 },
		{"id" : 23, "lemma" : "있", "type" : "VX", "position" : 97, "weight" : 0.125953 },
		{"id" : 24, "lemma" : "다", "type" : "EF", "position" : 100, "weight" : 0.180366 },
		{"id" : 25, "lemma" : ".", "type" : "SF", "position" : 103, "weight" : 1 }
	],
	"morp_eval" : [
		{"id" : 0, "result" : "﻿하/VV+어/EC+가/VX+는/ETM", "target" : "﻿하여가는", "word_id" : 0, "m_begin" : 0, "m_end" : 3},
		{"id" : 1, "result" : "고려/NNG", "target" : "고려", "word_id" : 1, "m_begin" : 4, "m_end" : 4},
		{"id" : 2, "result" : "말/NNG+과/JC", "target" : "말과", "word_id" : 2, "m_begin" : 5, "m_end" : 6},
		{"id" : 3, "result" : "조선/NNG", "target" : "조선", "word_id" : 3, "m_begin" : 7, "m_end" : 7},
		{"id" : 4, "result" : "초기/NNG+의/JKG", "target" : "초기의", "word_id" : 4, "m_begin" : 8, "m_end" : 9},
		{"id" : 5, "result" : "시조/NNG", "target" : "시조", "word_id" : 5, "m_begin" : 10, "m_end" : 10},
		{"id" : 6, "result" : "1/SN+수/NNB+로/JKB", "target" : "1수로", "word_id" : 6, "m_begin" : 11, "m_end" : 13},
		{"id" : 7, "result" : "『/SS+해동악부/NNG+』/SS+에/JKB", "target" : "『해동악부』에", "word_id" : 7, "m_begin" : 14, "m_end" : 18},
		{"id" : 8, "result" : "전하/VV+어/EC+지/VX+고/EC", "target" : "전해지고", "word_id" : 8, "m_begin" : 19, "m_end" : 22},
		{"id" : 9, "result" : "있/VX+다/EF+./SF", "target" : "있다.", "word_id" : 9, "m_begin" : 23, "m_end" : 25}
	],
	"WSD" : [
		{"id" : 0, "text" : "﻿하", "type" : "VV", "scode" : "00", "weight" : 0, "position" : 0, "begin" : 0, "end" : 0},
		{"id" : 1, "text" : "어", "type" : "EC", "scode" : "00", "weight" : 1, "position" : 6, "begin" : 1, "end" : 1},
		{"id" : 2, "text" : "가", "type" : "VX", "scode" : "01", "weight" : 1, "position" : 9, "begin" : 2, "end" : 2},
		{"id" : 3, "text" : "는", "type" : "ETM", "scode" : "00", "weight" : 1, "position" : 12, "begin" : 3, "end" : 3},
		{"id" : 4, "text" : "고려", "type" : "NNP", "scode" : "05", "weight" : 1, "position" : 16, "begin" : 4, "end" : 4},
		{"id" : 5, "text" : "말", "type" : "NNG", "scode" : "01", "weight" : 1, "position" : 23, "begin" : 5, "end" : 5},
		{"id" : 6, "text" : "과", "type" : "JC", "scode" : "00", "weight" : 1, "position" : 26, "begin" : 6, "end" : 6},
		{"id" : 7, "text" : "조선", "type" : "NNP", "scode" : "05", "weight" : 1, "position" : 30, "begin" : 7, "end" : 7},
		{"id" : 8, "text" : "초기", "type" : "NNG", "scode" : "04", "weight" : 1, "position" : 37, "begin" : 8, "end" : 8},
		{"id" : 9, "text" : "의", "type" : "JKG", "scode" : "00", "weight" : 1, "position" : 43, "begin" : 9, "end" : 9},
		{"id" : 10, "text" : "시조", "type" : "NNG", "scode" : "07", "weight" : 1, "position" : 47, "begin" : 10, "end" : 10},
		{"id" : 11, "text" : "1", "type" : "SN", "scode" : "00", "weight" : 1, "position" : 54, "begin" : 11, "end" : 11},
		{"id" : 12, "text" : "수", "type" : "NNB", "scode" : "02", "weight" : 1, "position" : 55, "begin" : 12, "end" : 12},
		{"id" : 13, "text" : "로", "type" : "JKB", "scode" : "00", "weight" : 1, "position" : 58, "begin" : 13, "end" : 13},
		{"id" : 14, "text" : "『", "type" : "SS", "scode" : "00", "weight" : 1, "position" : 62, "begin" : 14, "end" : 14},
		{"id" : 15, "text" : "해동악부", "type" : "NNG", "scode" : "00", "weight" : 1, "position" : 65, "begin" : 15, "end" : 16},
		{"id" : 16, "text" : "』", "type" : "SS", "scode" : "00", "weight" : 1, "position" : 77, "begin" : 17, "end" : 17},
		{"id" : 17, "text" : "에", "type" : "JKB", "scode" : "00", "weight" : 1, "position" : 80, "begin" : 18, "end" : 18},
		{"id" : 18, "text" : "전하", "type" : "VV", "scode" : "00", "weight" : 1, "position" : 84, "begin" : 19, "end" : 19},
		{"id" : 19, "text" : "어", "type" : "EC", "scode" : "00", "weight" : 1, "position" : 87, "begin" : 20, "end" : 20},
		{"id" : 20, "text" : "지", "type" : "VX", "scode" : "04", "weight" : 1, "position" : 90, "begin" : 21, "end" : 21},
		{"id" : 21, "text" : "고", "type" : "EC", "scode" : "00", "weight" : 1, "position" : 93, "begin" : 22, "end" : 22},
		{"id" : 22, "text" : "있", "type" : "VX", "scode" : "01", "weight" : 1, "position" : 97, "begin" : 23, "end" : 23},
		{"id" : 23, "text" : "다", "type" : "EF", "scode" : "00", "weight" : 1, "position" : 100, "begin" : 24, "end" : 24},
		{"id" : 24, "text" : ".", "type" : "SF", "scode" : "00", "weight" : 1, "position" : 103, "begin" : 25, "end" : 25}
	],
	"word" : [
		{"id" : 0, "text" : "﻿하여가는", "type" : "", "begin" : 0, "end" : 3},
		{"id" : 1, "text" : "고려", "type" : "", "begin" : 4, "end" : 4},
		{"id" : 2, "text" : "말과", "type" : "", "begin" : 5, "end" : 6},
		{"id" : 3, "text" : "조선", "type" : "", "begin" : 7, "end" : 7},
		{"id" : 4, "text" : "초기의", "type" : "", "begin" : 8, "end" : 9},
		{"id" : 5, "text" : "시조", "type" : "", "begin" : 10, "end" : 10},
		{"id" : 6, "text" : "1수로", "type" : "", "begin" : 11, "end" : 13},
		{"id" : 7, "text" : "『해동악부』에", "type" : "", "begin" : 14, "end" : 18},
		{"id" : 8, "text" : "전해지고", "type" : "", "begin" : 19, "end" : 22},
		{"id" : 9, "text" : "있다.", "type" : "", "begin" : 23, "end" : 25}
	],
	"NE" : [
		{"id" : 0, "text" : "고려 말", "type" : "DT_DYNASTY", "begin" : 4, "end" : 5, "weight" : 0.587082, "common_noun" : 0},
		{"id" : 1, "text" : "조선 초기", "type" : "DT_DYNASTY", "begin" : 7, "end" : 8, "weight" : 0.612696, "common_noun" : 0},
		{"id" : 2, "text" : "시조", "type" : "FD_ART", "begin" : 10, "end" : 10, "weight" : 0.263852, "common_noun" : 0},
		{"id" : 3, "text" : "1수", "type" : "QT_COUNT", "begin" : 11, "end" : 12, "weight" : 0.225648, "common_noun" : 0},
		{"id" : 4, "text" : "해동악부", "type" : "AF_WORKS", "begin" : 15, "end" : 16, "weight" : 0.184268, "common_noun" : 0}
	],
	"chunk" : [
	],
	"dependency" : [
		{"id" : 0, "text" : "﻿하여가는", "head" : 6, "label" : "VP_MOD", "mod" : [], "weight" : 0.70829 },
		{"id" : 1, "text" : "고려", "head" : 2, "label" : "NP", "mod" : [], "weight" : 0.864845 },
		{"id" : 2, "text" : "말과", "head" : 6, "label" : "NP_CNJ", "mod" : [1], "weight" : 0.594025 },
		{"id" : 3, "text" : "조선", "head" : 4, "label" : "NP", "mod" : [], "weight" : 0.741387 },
		{"id" : 4, "text" : "초기의", "head" : 5, "label" : "NP_MOD", "mod" : [3], "weight" : 0.54155 },
		{"id" : 5, "text" : "시조", "head" : 6, "label" : "NP", "mod" : [4], "weight" : 0.955724 },
		{"id" : 6, "text" : "1수로", "head" : 8, "label" : "NP_AJT", "mod" : [0, 2, 5], "weight" : 0.769822 },
		{"id" : 7, "text" : "『해동악부』에", "head" : 8, "label" : "NP_AJT", "mod" : [], "weight" : 0.476715 },
		{"id" : 8, "text" : "전해지고", "head" : 9, "label" : "VP", "mod" : [6, 7], "weight" : 0.515427 },
		{"id" : 9, "text" : "있다.", "head" : -1, "label" : "VP", "mod" : [8], "weight" : 0.0195467 }
	],
	"SRL" : [
		{"verb" : "﻿하", "sense" : 1, "word_id" : 0, "weight" : 0.174858,
			"argument" : [
				{"type" : "ARG1", "word_id" : 2, "text" : "말과", "weight" : 0.194484 },
				{"type" : "ARG1", "word_id" : 6, "text" : "1수로", "weight" : 0.155231 }
			] },
		{"verb" : "전하", "sense" : 1, "word_id" : 8, "weight" : 0.45265,
			"argument" : [
				{"type" : "ARG2", "word_id" : 7, "text" : "『해동악부』에", "weight" : 0.213512 },
				{"type" : "AUX", "word_id" : 9, "text" : "있다.", "weight" : 0.691789 }
			] }
	],
	"relation" : [
	],
	"SA" : [
	],
	"ZA" : [
		{"id" : 0, "verb_wid" : 8, "ant_sid" : -1, "ant_wid" : -1, "type" : "s", "istitle" : 0, "weight" : 0.925846 }
	]
	},
	{
	"id" : 1,
	"reserve_str" : "",
	"text" : "지은이는 조선 태조 이성계를 도와 조선 건국과 창업에 공이 큰 조선 제3대의 임금, 태종으로 이 작품은 반대당인 정몽주(鄭夢周)의 진심을 떠보고 회유하기 위하여 마련된 자리에서 지어 부른 작품이다. ",
	"morp" : [
		{"id" : 0, "lemma" : "지은", "type" : "NNG", "position" : 105, "weight" : 0.00858722 },
		{"id" : 1, "lemma" : "이", "type" : "NNG", "position" : 111, "weight" : 0.000193221 },
		{"id" : 2, "lemma" : "는", "type" : "JX", "position" : 114, "weight" : 0.0287565 },
		{"id" : 3, "lemma" : "조선", "type" : "NNP", "position" : 118, "weight" : 0.0441558 },
		{"id" : 4, "lemma" : "태조", "type" : "NNP", "position" : 125, "weight" : 0.0742057 },
		{"id" : 5, "lemma" : "이성계", "type" : "NNP", "position" : 132, "weight" : 0.9 },
		{"id" : 6, "lemma" : "를", "type" : "JKO", "position" : 141, "weight" : 0.0283046 },
		{"id" : 7, "lemma" : "돕", "type" : "VV", "position" : 145, "weight" : 0.777582 },
		{"id" : 8, "lemma" : "아", "type" : "EC", "position" : 145, "weight" : 0.398809 },
		{"id" : 9, "lemma" : "조선", "type" : "NNP", "position" : 152, "weight" : 0.0216239 },
		{"id" : 10, "lemma" : "건국", "type" : "NNG", "position" : 159, "weight" : 0.280947 },
		{"id" : 11, "lemma" : "과", "type" : "JC", "position" : 165, "weight" : 0.017569 },
		{"id" : 12, "lemma" : "창업", "type" : "NNG", "position" : 169, "weight" : 0.9 },
		{"id" : 13, "lemma" : "에", "type" : "JKB", "position" : 175, "weight" : 0.153364 },
		{"id" : 14, "lemma" : "공", "type" : "NNG", "position" : 179, "weight" : 0.197302 },
		{"id" : 15, "lemma" : "이", "type" : "JKS", "position" : 182, "weight" : 0.0360723 },
		{"id" : 16, "lemma" : "크", "type" : "VA", "position" : 186, "weight" : 0.245792 },
		{"id" : 17, "lemma" : "ㄴ", "type" : "ETM", "position" : 186, "weight" : 0.430446 },
		{"id" : 18, "lemma" : "조선", "type" : "NNG", "position" : 190, "weight" : 0.01047 },
		{"id" : 19, "lemma" : "제", "type" : "XPN", "position" : 197, "weight" : 0.000343053 },
		{"id" : 20, "lemma" : "3", "type" : "SN", "position" : 200, "weight" : 1 },
		{"id" : 21, "lemma" : "대", "type" : "NNB", "position" : 201, "weight" : 0.147138 },
		{"id" : 22, "lemma" : "의", "type" : "JKG", "position" : 204, "weight" : 0.0520933 },
		{"id" : 23, "lemma" : "임금", "type" : "NNG", "position" : 208, "weight" : 0.9 },
		{"id" : 24, "lemma" : ",", "type" : "SP", "position" : 214, "weight" : 1 },
		{"id" : 25, "lemma" : "태종", "type" : "NNP", "position" : 216, "weight" : 0.111169 },
		{"id" : 26, "lemma" : "으로", "type" : "JKB", "position" : 222, "weight" : 0.0823853 },
		{"id" : 27, "lemma" : "이", "type" : "MM", "position" : 229, "weight" : 0.000780002 },
		{"id" : 28, "lemma" : "작품", "type" : "NNG", "position" : 233, "weight" : 0.737373 },
		{"id" : 29, "lemma" : "은", "type" : "JX", "position" : 239, "weight" : 0.0449928 },
		{"id" : 30, "lemma" : "반대", "type" : "NNG", "position" : 243, "weight" : 0.9 },
		{"id" : 31, "lemma" : "당", "type" : "NNG", "position" : 249, "weight" : 0.107866 },
		{"id" : 32, "lemma" : "이", "type" : "VCP", "position" : 252, "weight" : 0.0177525 },
		{"id" : 33, "lemma" : "ㄴ", "type" : "ETM", "position" : 252, "weight" : 0.220712 },
		{"id" : 34, "lemma" : "정몽주", "type" : "NNP", "position" : 256, "weight" : 0.9 },
		{"id" : 35, "lemma" : "(", "type" : "SS", "position" : 265, "weight" : 1 },
		{"id" : 36, "lemma" : "鄭夢周", "type" : "SH", "position" : 266, "weight" : 1 },
		{"id" : 37, "lemma" : ")", "type" : "SS", "position" : 275, "weight" : 1 },
		{"id" : 38, "lemma" : "의", "type" : "JKG", "position" : 276, "weight" : 0.0878251 },
		{"id" : 39, "lemma" : "진심", "type" : "NNG", "position" : 280, "weight" : 0.9 },
		{"id" : 40, "lemma" : "을", "type" : "JKO", "position" : 286, "weight" : 0.129611 },
		{"id" : 41, "lemma" : "떠보", "type" : "VV", "position" : 290, "weight" : 0.9 },
		{"id" : 42, "lemma" : "고", "type" : "EC", "position" : 296, "weight" : 0.416679 },
		{"id" : 43, "lemma" : "회유", "type" : "NNG", "position" : 300, "weight" : 0.9 },
		{"id" : 44, "lemma" : "하", "type" : "XSV", "position" : 306, "weight" : 0.0001 },
		{"id" : 45, "lemma" : "기", "type" : "ETN", "position" : 309, "weight" : 0.0556099 },
		{"id" : 46, "lemma" : "위하", "type" : "VV", "position" : 313, "weight" : 0.176484 },
		{"id" : 47, "lemma" : "어", "type" : "EC", "position" : 319, "weight" : 0.41831 },
		{"id" : 48, "lemma" : "마련", "type" : "NNG", "position" : 323, "weight" : 0.0866194 },
		{"id" : 49, "lemma" : "되", "type" : "XSV", "position" : 329, "weight" : 0.000224177 },
		{"id" : 50, "lemma" : "ㄴ", "type" : "ETM", "position" : 329, "weight" : 0.392321 },
		{"id" : 51, "lemma" : "자리", "type" : "NNG", "position" : 333, "weight" : 0.657755 },
		{"id" : 52, "lemma" : "에서", "type" : "JKB", "position" : 339, "weight" : 0.153407 },
		{"id" : 53, "lemma" : "짓", "type" : "VV", "position" : 346, "weight" : 0.362981 },
		{"id" : 54, "lemma" : "어", "type" : "EC", "position" : 349, "weight" : 0.41831 },
		{"id" : 55, "lemma" : "부르", "type" : "VV", "position" : 353, "weight" : 0.222121 },
		{"id" : 56, "lemma" : "ㄴ", "type" : "ETM", "position" : 356, "weight" : 0.304215 },
		{"id" : 57, "lemma" : "작품", "type" : "NNG", "position" : 360, "weight" : 0.65877 },
		{"id" : 58, "lemma" : "이", "type" : "VCP", "position" : 366, "weight" : 0.0177525 },
		{"id" : 59, "lemma" : "다", "type" : "EF", "position" : 369, "weight" : 0.353579 },
		{"id" : 60, "lemma" : ".", "type" : "SF", "position" : 372, "weight" : 1 }
	],
	"morp_eval" : [
		{"id" : 0, "result" : "지은이/NNG+는/JX", "target" : "지은이는", "word_id" : 0, "m_begin" : 0, "m_end" : 2},
		{"id" : 1, "result" : "조선/NNG", "target" : "조선", "word_id" : 1, "m_begin" : 3, "m_end" : 3},
		{"id" : 2, "result" : "태조/NNG", "target" : "태조", "word_id" : 2, "m_begin" : 4, "m_end" : 4},
		{"id" : 3, "result" : "이성계/NNG+를/JKO", "target" : "이성계를", "word_id" : 3, "m_begin" : 5, "m_end" : 6},
		{"id" : 4, "result" : "돕/VV+어/EC", "target" : "도와", "word_id" : 4, "m_begin" : 7, "m_end" : 8},
		{"id" : 5, "result" : "조선/NNG", "target" : "조선", "word_id" : 5, "m_begin" : 9, "m_end" : 9},
		{"id" : 6, "result" : "건국/NNG+과/JC", "target" : "건국과", "word_id" : 6, "m_begin" : 10, "m_end" : 11},
		{"id" : 7, "result" : "창업/NNG+에/JKB", "target" : "창업에", "word_id" : 7, "m_begin" : 12, "m_end" : 13},
		{"id" : 8, "result" : "공/NNG+이/JKS", "target" : "공이", "word_id" : 8, "m_begin" : 14, "m_end" : 15},
		{"id" : 9, "result" : "크/VA+ㄴ/ETM", "target" : "큰", "word_id" : 9, "m_begin" : 16, "m_end" : 17},
		{"id" : 10, "result" : "조선/NNG", "target" : "조선", "word_id" : 10, "m_begin" : 18, "m_end" : 18},
		{"id" : 11, "result" : "제/XPN+3/SN+대/NNB+의/JKG", "target" : "제3대의", "word_id" : 11, "m_begin" : 19, "m_end" : 22},
		{"id" : 12, "result" : "임금/NNG+,/SP", "target" : "임금,", "word_id" : 12, "m_begin" : 23, "m_end" : 24},
		{"id" : 13, "result" : "태종/NNG+으로/JKB", "target" : "태종으로", "word_id" : 13, "m_begin" : 25, "m_end" : 26},
		{"id" : 14, "result" : "이/MM", "target" : "이", "word_id" : 14, "m_begin" : 27, "m_end" : 27},
		{"id" : 15, "result" : "작품/NNG+은/JX", "target" : "작품은", "word_id" : 15, "m_begin" : 28, "m_end" : 29},
		{"id" : 16, "result" : "반대당/NNG+이/VCP+ㄴ/ETM", "target" : "반대당인", "word_id" : 16, "m_begin" : 30, "m_end" : 33},
		{"id" : 17, "result" : "정몽주/NNG+(/SS+鄭夢周/SH+)/SS+의/JKG", "target" : "정몽주(鄭夢周)의", "word_id" : 17, "m_begin" : 34, "m_end" : 38},
		{"id" : 18, "result" : "진심/NNG+을/JKO", "target" : "진심을", "word_id" : 18, "m_begin" : 39, "m_end" : 40},
		{"id" : 19, "result" : "떠보/VV+고/EC", "target" : "떠보고", "word_id" : 19, "m_begin" : 41, "m_end" : 42},
		{"id" : 20, "result" : "회유하/VV+기/ETN", "target" : "회유하기", "word_id" : 20, "m_begin" : 43, "m_end" : 45},
		{"id" : 21, "result" : "위하/VV+어/EC", "target" : "위하여", "word_id" : 21, "m_begin" : 46, "m_end" : 47},
		{"id" : 22, "result" : "마련되/VV+ㄴ/ETM", "target" : "마련된", "word_id" : 22, "m_begin" : 48, "m_end" : 50},
		{"id" : 23, "result" : "자리/NNG+에서/JKB", "target" : "자리에서", "word_id" : 23, "m_begin" : 51, "m_end" : 52},
		{"id" : 24, "result" : "짓/VV+어/EC", "target" : "지어", "word_id" : 24, "m_begin" : 53, "m_end" : 54},
		{"id" : 25, "result" : "부르/VV+ㄴ/ETM", "target" : "부른", "word_id" : 25, "m_begin" : 55, "m_end" : 56},
		{"id" : 26, "result" : "작품/NNG+이/VCP+다/EF+./SF", "target" : "작품이다.", "word_id" : 26, "m_begin" : 57, "m_end" : 60}
	],
	"WSD" : [
		{"id" : 0, "text" : "지은이", "type" : "NNG", "scode" : "00", "weight" : 1, "position" : 105, "begin" : 0, "end" : 1},
		{"id" : 1, "text" : "는", "type" : "JX", "scode" : "00", "weight" : 1, "position" : 114, "begin" : 2, "end" : 2},
		{"id" : 2, "text" : "조선", "type" : "NNP", "scode" : "05", "weight" : 1, "position" : 118, "begin" : 3, "end" : 3},
		{"id" : 3, "text" : "태조", "type" : "NNP", "scode" : "04", "weight" : 1, "position" : 125, "begin" : 4, "end" : 4},
		{"id" : 4, "text" : "이성계", "type" : "NNP", "scode" : "00", "weight" : 1, "position" : 132, "begin" : 5, "end" : 5},
		{"id" : 5, "text" : "를", "type" : "JKO", "scode" : "00", "weight" : 1, "position" : 141, "begin" : 6, "end" : 6},
		{"id" : 6, "text" : "돕", "type" : "VV", "scode" : "00", "weight" : 1, "position" : 145, "begin" : 7, "end" : 7},
		{"id" : 7, "text" : "아", "type" : "EC", "scode" : "00", "weight" : 1, "position" : 145, "begin" : 8, "end" : 8},
		{"id" : 8, "text" : "조선", "type" : "NNP", "scode" : "05", "weight" : 1, "position" : 152, "begin" : 9, "end" : 9},
		{"id" : 9, "text" : "건국", "type" : "NNG", "scode" : "03", "weight" : 1, "position" : 159, "begin" : 10, "end" : 10},
		{"id" : 10, "text" : "과", "type" : "JC", "scode" : "00", "weight" : 1, "position" : 165, "begin" : 11, "end" : 11},
		{"id" : 11, "text" : "창업", "type" : "NNG", "scode" : "00", "weight" : 1, "position" : 169, "begin" : 12, "end" : 12},
		{"id" : 12, "text" : "에", "type" : "JKB", "scode" : "00", "weight" : 1, "position" : 175, "begin" : 13, "end" : 13},
		{"id" : 13, "text" : "공", "type" : "NNG", "scode" : "88", "weight" : 1, "position" : 179, "begin" : 14, "end" : 14},
		{"id" : 14, "text" : "이", "type" : "JKS", "scode" : "00", "weight" : 1, "position" : 182, "begin" : 15, "end" : 15},
		{"id" : 15, "text" : "크", "type" : "VA", "scode" : "01", "weight" : 1, "position" : 186, "begin" : 16, "end" : 16},
		{"id" : 16, "text" : "ㄴ", "type" : "ETM", "scode" : "00", "weight" : 1, "position" : 186, "begin" : 17, "end" : 17},
		{"id" : 17, "text" : "조선", "type" : "NNG", "scode" : "03", "weight" : 1, "position" : 190, "begin" : 18, "end" : 18},
		{"id" : 18, "text" : "제", "type" : "XPN", "scode" : "21", "weight" : 1, "position" : 197, "begin" : 19, "end" : 19},
		{"id" : 19, "text" : "3", "type" : "SN", "scode" : "00", "weight" : 1, "position" : 200, "begin" : 20, "end" : 20},
		{"id" : 20, "text" : "대", "type" : "NNB", "scode" : "06", "weight" : 1, "position" : 201, "begin" : 21, "end" : 21},
		{"id" : 21, "text" : "의", "type" : "JKG", "scode" : "00", "weight" : 1, "position" : 204, "begin" : 22, "end" : 22},
		{"id" : 22, "text" : "임금", "type" : "NNG", "scode" : "03", "weight" : 1, "position" : 208, "begin" : 23, "end" : 23},
		{"id" : 23, "text" : ",", "type" : "SP", "scode" : "00", "weight" : 1, "position" : 214, "begin" : 24, "end" : 24},
		{"id" : 24, "text" : "태종", "type" : "NNP", "scode" : "02", "weight" : 1, "position" : 216, "begin" : 25, "end" : 25},
		{"id" : 25, "text" : "으로", "type" : "JKB", "scode" : "00", "weight" : 1, "position" : 222, "begin" : 26, "end" : 26},
		{"id" : 26, "text" : "이", "type" : "MM", "scode" : "05", "weight" : 1, "position" : 229, "begin" : 27, "end" : 27},
		{"id" : 27, "text" : "작품", "type" : "NNG", "scode" : "01", "weight" : 1, "position" : 233, "begin" : 28, "end" : 28},
		{"id" : 28, "text" : "은", "type" : "JX", "scode" : "00", "weight" : 1, "position" : 239, "begin" : 29, "end" : 29},
		{"id" : 29, "text" : "반대", "type" : "NNG", "scode" : "03", "weight" : 1, "position" : 243, "begin" : 30, "end" : 30},
		{"id" : 30, "text" : "당", "type" : "NNG", "scode" : "14", "weight" : 1, "position" : 249, "begin" : 31, "end" : 31},
		{"id" : 31, "text" : "이", "type" : "VCP", "scode" : "00", "weight" : 1, "position" : 252, "begin" : 32, "end" : 32},
		{"id" : 32, "text" : "ㄴ", "type" : "ETM", "scode" : "00", "weight" : 1, "position" : 252, "begin" : 33, "end" : 33},
		{"id" : 33, "text" : "정몽주", "type" : "NNP", "scode" : "00", "weight" : 1, "position" : 256, "begin" : 34, "end" : 34},
		{"id" : 34, "text" : "(", "type" : "SS", "scode" : "00", "weight" : 1, "position" : 265, "begin" : 35, "end" : 35},
		{"id" : 35, "text" : "鄭夢周", "type" : "SH", "scode" : "00", "weight" : 1, "position" : 266, "begin" : 36, "end" : 36},
		{"id" : 36, "text" : ")", "type" : "SS", "scode" : "00", "weight" : 1, "position" : 275, "begin" : 37, "end" : 37},
		{"id" : 37, "text" : "의", "type" : "JKG", "scode" : "00", "weight" : 1, "position" : 276, "begin" : 38, "end" : 38},
		{"id" : 38, "text" : "진심", "type" : "NNG", "scode" : "01", "weight" : 1, "position" : 280, "begin" : 39, "end" : 39},
		{"id" : 39, "text" : "을", "type" : "JKO", "scode" : "00", "weight" : 1, "position" : 286, "begin" : 40, "end" : 40},
		{"id" : 40, "text" : "떠보", "type" : "VV", "scode" : "00", "weight" : 1, "position" : 290, "begin" : 41, "end" : 41},
		{"id" : 41, "text" : "고", "type" : "EC", "scode" : "00", "weight" : 1, "position" : 296, "begin" : 42, "end" : 42},
		{"id" : 42, "text" : "회유하", "type" : "VV", "scode" : "04", "weight" : 1, "position" : 300, "begin" : 43, "end" : 44},
		{"id" : 43, "text" : "기", "type" : "ETN", "scode" : "00", "weight" : 1, "position" : 309, "begin" : 45, "end" : 45},
		{"id" : 44, "text" : "위하", "type" : "VV", "scode" : "01", "weight" : 1, "position" : 313, "begin" : 46, "end" : 46},
		{"id" : 45, "text" : "어", "type" : "EC", "scode" : "00", "weight" : 1, "position" : 319, "begin" : 47, "end" : 47},
		{"id" : 46, "text" : "마련되", "type" : "VV", "scode" : "00", "weight" : 1, "position" : 323, "begin" : 48, "end" : 49},
		{"id" : 47, "text" : "ㄴ", "type" : "ETM", "scode" : "00", "weight" : 1, "position" : 329, "begin" : 50, "end" : 50},
		{"id" : 48, "text" : "자리", "type" : "NNG", "scode" : "01", "weight" : 1, "position" : 333, "begin" : 51, "end" : 51},
		{"id" : 49, "text" : "에서", "type" : "JKB", "scode" : "00", "weight" : 1, "position" : 339, "begin" : 52, "end" : 52},
		{"id" : 50, "text" : "짓", "type" : "VV", "scode" : "01", "weight" : 1, "position" : 346, "begin" : 53, "end" : 53},
		{"id" : 51, "text" : "어", "type" : "EC", "scode" : "00", "weight" : 1, "position" : 349, "begin" : 54, "end" : 54},
		{"id" : 52, "text" : "부르", "type" : "VV", "scode" : "01", "weight" : 1, "position" : 353, "begin" : 55, "end" : 55},
		{"id" : 53, "text" : "ㄴ", "type" : "ETM", "scode" : "00", "weight" : 1, "position" : 356, "begin" : 56, "end" : 56},
		{"id" : 54, "text" : "작품", "type" : "NNG", "scode" : "01", "weight" : 1, "position" : 360, "begin" : 57, "end" : 57},
		{"id" : 55, "text" : "이", "type" : "VCP", "scode" : "00", "weight" : 1, "position" : 366, "begin" : 58, "end" : 58},
		{"id" : 56, "text" : "다", "type" : "EF", "scode" : "00", "weight" : 1, "position" : 369, "begin" : 59, "end" : 59},
		{"id" : 57, "text" : ".", "type" : "SF", "scode" : "00", "weight" : 1, "position" : 372, "begin" : 60, "end" : 60}
	],
	"word" : [
		{"id" : 0, "text" : "지은이는", "type" : "", "begin" : 0, "end" : 2},
		{"id" : 1, "text" : "조선", "type" : "", "begin" : 3, "end" : 3},
		{"id" : 2, "text" : "태조", "type" : "", "begin" : 4, "end" : 4},
		{"id" : 3, "text" : "이성계를", "type" : "", "begin" : 5, "end" : 6},
		{"id" : 4, "text" : "도와", "type" : "", "begin" : 7, "end" : 8},
		{"id" : 5, "text" : "조선", "type" : "", "begin" : 9, "end" : 9},
		{"id" : 6, "text" : "건국과", "type" : "", "begin" : 10, "end" : 11},
		{"id" : 7, "text" : "창업에", "type" : "", "begin" : 12, "end" : 13},
		{"id" : 8, "text" : "공이", "type" : "", "begin" : 14, "end" : 15},
		{"id" : 9, "text" : "큰", "type" : "", "begin" : 16, "end" : 17},
		{"id" : 10, "text" : "조선", "type" : "", "begin" : 18, "end" : 18},
		{"id" : 11, "text" : "제3대의", "type" : "", "begin" : 19, "end" : 22},
		{"id" : 12, "text" : "임금,", "type" : "", "begin" : 23, "end" : 24},
		{"id" : 13, "text" : "태종으로", "type" : "", "begin" : 25, "end" : 26},
		{"id" : 14, "text" : "이", "type" : "", "begin" : 27, "end" : 27},
		{"id" : 15, "text" : "작품은", "type" : "", "begin" : 28, "end" : 29},
		{"id" : 16, "text" : "반대당인", "type" : "", "begin" : 30, "end" : 33},
		{"id" : 17, "text" : "정몽주(鄭夢周)의", "type" : "", "begin" : 34, "end" : 38},
		{"id" : 18, "text" : "진심을", "type" : "", "begin" : 39, "end" : 40},
		{"id" : 19, "text" : "떠보고", "type" : "", "begin" : 41, "end" : 42},
		{"id" : 20, "text" : "회유하기", "type" : "", "begin" : 43, "end" : 45},
		{"id" : 21, "text" : "위하여", "type" : "", "begin" : 46, "end" : 47},
		{"id" : 22, "text" : "마련된", "type" : "", "begin" : 48, "end" : 50},
		{"id" : 23, "text" : "자리에서", "type" : "", "begin" : 51, "end" : 52},
		{"id" : 24, "text" : "지어", "type" : "", "begin" : 53, "end" : 54},
		{"id" : 25, "text" : "부른", "type" : "", "begin" : 55, "end" : 56},
		{"id" : 26, "text" : "작품이다.", "type" : "", "begin" : 57, "end" : 60}
	],
	"NE" : [
		{"id" : 0, "text" : "지은이", "type" : "CV_POSITION", "begin" : 0, "end" : 1, "weight" : 0.244565, "common_noun" : 0},
		{"id" : 1, "text" : "조선", "type" : "LCP_COUNTRY", "begin" : 3, "end" : 3, "weight" : 0.270117, "common_noun" : 0},
		{"id" : 2, "text" : "태조", "type" : "PS_NAME", "begin" : 4, "end" : 4, "weight" : 0.21704, "common_noun" : 0},
		{"id" : 3, "text" : "이성계", "type" : "PS_NAME", "begin" : 5, "end" : 5, "weight" : 0.369361, "common_noun" : 0},
		{"id" : 4, "text" : "조선", "type" : "LCP_COUNTRY", "begin" : 9, "end" : 9, "weight" : 0.443479, "common_noun" : 0},
		{"id" : 5, "text" : "조선", "type" : "LCP_COUNTRY", "begin" : 18, "end" : 18, "weight" : 0.142204, "common_noun" : 0},
		{"id" : 6, "text" : "제3대", "type" : "QT_ORDER", "begin" : 19, "end" : 21, "weight" : 0.587636, "common_noun" : 0},
		{"id" : 7, "text" : "임금", "type" : "CV_POSITION", "begin" : 23, "end" : 23, "weight" : 0.172939, "common_noun" : 0},
		{"id" : 8, "text" : "태종", "type" : "PS_NAME", "begin" : 25, "end" : 25, "weight" : 0.200251, "common_noun" : 0},
		{"id" : 9, "text" : "정몽주", "type" : "PS_NAME", "begin" : 34, "end" : 34, "weight" : 0.309073, "common_noun" : 0},
		{"id" : 10, "text" : "鄭夢周", "type" : "PS_NAME", "begin" : 36, "end" : 36, "weight" : 0.140252, "common_noun" : 0}
	],
	"chunk" : [
	],
	"dependency" : [
		{"id" : 0, "text" : "지은이는", "head" : 26, "label" : "NP_SBJ", "mod" : [], "weight" : 0.963766 },
		{"id" : 1, "text" : "조선", "head" : 2, "label" : "NP", "mod" : [], "weight" : 0.7242 },
		{"id" : 2, "text" : "태조", "head" : 3, "label" : "NP", "mod" : [1], "weight" : 0.922856 },
		{"id" : 3, "text" : "이성계를", "head" : 4, "label" : "NP_OBJ", "mod" : [2], "weight" : 0.891252 },
		{"id" : 4, "text" : "도와", "head" : 9, "label" : "VP", "mod" : [3], "weight" : 0.513846 },
		{"id" : 5, "text" : "조선", "head" : 6, "label" : "NP", "mod" : [], "weight" : 0.598162 },
		{"id" : 6, "text" : "건국과", "head" : 7, "label" : "NP_CNJ", "mod" : [5], "weight" : 0.702663 },
		{"id" : 7, "text" : "창업에", "head" : 9, "label" : "NP_AJT", "mod" : [6], "weight" : 0.524607 },
		{"id" : 8, "text" : "공이", "head" : 9, "label" : "NP_SBJ", "mod" : [], "weight" : 0.720046 },
		{"id" : 9, "text" : "큰", "head" : 10, "label" : "VP_MOD", "mod" : [4, 7, 8], "weight" : 0.758081 },
		{"id" : 10, "text" : "조선", "head" : 19, "label" : "NP_AJT", "mod" : [9], "weight" : 0.5327 },
		{"id" : 11, "text" : "제3대의", "head" : 12, "label" : "NP_MOD", "mod" : [], "weight" : 0.83598 },
		{"id" : 12, "text" : "임금,", "head" : 13, "label" : "NP_CNJ", "mod" : [11], "weight" : 0.561206 },
		{"id" : 13, "text" : "태종으로", "head" : 19, "label" : "NP_AJT", "mod" : [12], "weight" : 0.752368 },
		{"id" : 14, "text" : "이", "head" : 15, "label" : "DP", "mod" : [], "weight" : 0.829104 },
		{"id" : 15, "text" : "작품은", "head" : 19, "label" : "NP_SBJ", "mod" : [14], "weight" : 0.554774 },
		{"id" : 16, "text" : "반대당인", "head" : 17, "label" : "VNP_MOD", "mod" : [], "weight" : 0.662664 },
		{"id" : 17, "text" : "정몽주(鄭夢周)의", "head" : 18, "label" : "NP_MOD", "mod" : [16], "weight" : 0.8608 },
		{"id" : 18, "text" : "진심을", "head" : 19, "label" : "NP_OBJ", "mod" : [17], "weight" : 0.890328 },
		{"id" : 19, "text" : "떠보고", "head" : 20, "label" : "VP", "mod" : [10, 13, 15, 18], "weight" : 0.914357 },
		{"id" : 20, "text" : "회유하기", "head" : 21, "label" : "VP_OBJ", "mod" : [19], "weight" : 0.860275 },
		{"id" : 21, "text" : "위하여", "head" : 22, "label" : "VP", "mod" : [20], "weight" : 0.662554 },
		{"id" : 22, "text" : "마련된", "head" : 23, "label" : "VP_MOD", "mod" : [21], "weight" : 0.724973 },
		{"id" : 23, "text" : "자리에서", "head" : 24, "label" : "NP_AJT", "mod" : [22], "weight" : 0.97889 },
		{"id" : 24, "text" : "지어", "head" : 25, "label" : "VP", "mod" : [23], "weight" : 0.685732 },
		{"id" : 25, "text" : "부른", "head" : 26, "label" : "VP_MOD", "mod" : [24], "weight" : 0.474464 },
		{"id" : 26, "text" : "작품이다.", "head" : -1, "label" : "VNP", "mod" : [0, 25], "weight" : 0.000110526 }
	],
	"SRL" : [
		{"verb" : "돕", "sense" : 1, "word_id" : 4, "weight" : 0.272484,
			"argument" : [
				{"type" : "ARG0", "word_id" : 0, "text" : "지은이는", "weight" : 0.303316 },
				{"type" : "ARG1", "word_id" : 3, "text" : "이성계를", "weight" : 0.241652 }
			] },
		{"verb" : "크", "sense" : 1, "word_id" : 9, "weight" : 0.205088,
			"argument" : [
				{"type" : "ARG2", "word_id" : 7, "text" : "창업에", "weight" : 0.169836 },
				{"type" : "ARG1", "word_id" : 8, "text" : "공이", "weight" : 0.24034 }
			] },
		{"verb" : "떠보", "sense" : 1, "word_id" : 19, "weight" : 0.235756,
			"argument" : [
				{"type" : "ARG1", "word_id" : 18, "text" : "진심을", "weight" : 0.235756 }
			] },
		{"verb" : "회유", "sense" : 1, "word_id" : 20, "weight" : 0,
			"argument" : [
			] },
		{"verb" : "위하", "sense" : 1, "word_id" : 21, "weight" : 0.245897,
			"argument" : [
				{"type" : "ARG1", "word_id" : 20, "text" : "회유하기", "weight" : 0.245897 }
			] },
		{"verb" : "마련", "sense" : 1, "word_id" : 22, "weight" : 0.284283,
			"argument" : [
				{"type" : "ARGM-PRP", "word_id" : 21, "text" : "위하여", "weight" : 0.249895 },
				{"type" : "ARG1", "word_id" : 23, "text" : "자리에서", "weight" : 0.318671 }
			] },
		{"verb" : "짓", "sense" : 1, "word_id" : 24, "weight" : 0.199909,
			"argument" : [
				{"type" : "ARG0", "word_id" : 13, "text" : "태종으로", "weight" : 0.192615 },
				{"type" : "ARG1", "word_id" : 15, "text" : "작품은", "weight" : 0.233384 },
				{"type" : "ARGM-LOC", "word_id" : 23, "text" : "자리에서", "weight" : 0.173728 }
			] },
		{"verb" : "부르", "sense" : 1, "word_id" : 25, "weight" : 0.208197,
			"argument" : [
				{"type" : "ARG0", "word_id" : 13, "text" : "태종으로", "weight" : 0.221821 },
				{"type" : "ARGM-LOC", "word_id" : 23, "text" : "자리에서", "weight" : 0.276952 },
				{"type" : "ARGM-MNR", "word_id" : 24, "text" : "지어", "weight" : 0.125817 }
			] }
	],
	"relation" : [
	],
	"SA" : [
	],
	"ZA" : [
		{"id" : 0, "verb_wid" : 4, "ant_sid" : 1, "ant_wid" : 0, "type" : "s", "istitle" : 0, "weight" : 0.512446 },
		{"id" : 1, "verb_wid" : 20, "ant_sid" : 1, "ant_wid" : 0, "type" : "s", "istitle" : 0, "weight" : 0.102375 },
		{"id" : 2, "verb_wid" : 24, "ant_sid" : 1, "ant_wid" : 0, "type" : "s", "istitle" : 0, "weight" : 0.140036 },
		{"id" : 3, "verb_wid" : 24, "ant_sid" : 1, "ant_wid" : 0, "type" : "o", "istitle" : 0, "weight" : 0.0729559 }
	]
	},
	{
	"id" : 2,
	"reserve_str" : "",
	"text" : "고려 말기에 이방원이 지은 시조. 충신 정몽주의 마음을 떠보고 회유하기 위하여 지은 것이나, 정몽주는 이에 고려에 충성을 다짐하는 &lt;단심가&gt;로 화답하였다고 한다. ",
	"morp" : [
		{"id" : 0, "lemma" : "고려", "type" : "NNP", "position" : 374, "weight" : 0.0850783 },
		{"id" : 1, "lemma" : "말기", "type" : "NNG", "position" : 381, "weight" : 0.9 },
		{"id" : 2, "lemma" : "에", "type" : "JKB", "position" : 387, "weight" : 0.153364 },
		{"id" : 3, "lemma" : "이방원", "type" : "NNP", "position" : 391, "weight" : 0.85 },
		{"id" : 4, "lemma" : "이", "type" : "JKS", "position" : 400, "weight" : 0.0234517 },
		{"id" : 5, "lemma" : "짓", "type" : "VV", "position" : 404, "weight" : 0.256547 },
		{"id" : 6, "lemma" : "은", "type" : "ETM", "position" : 407, "weight" : 0.109632 },
		{"id" : 7, "lemma" : "시조", "type" : "NNG", "position" : 411, "weight" : 0.9 },
		{"id" : 8, "lemma" : ".", "type" : "SF", "position" : 417, "weight" : 1 },
		{"id" : 9, "lemma" : "충신", "type" : "NNG", "position" : 419, "weight" : 0.9 },
		{"id" : 10, "lemma" : "정몽주", "type" : "NNP", "position" : 426, "weight" : 0.9 },
		{"id" : 11, "lemma" : "의", "type" : "JKG", "position" : 435, "weight" : 0.0987295 },
		{"id" : 12, "lemma" : "마음", "type" : "NNG", "position" : 439, "weight" : 0.9 },
		{"id" : 13, "lemma" : "을", "type" : "JKO", "position" : 445, "weight" : 0.129611 },
		{"id" : 14, "lemma" : "떠보", "type" : "VV", "position" : 449, "weight" : 0.9 },
		{"id" : 15, "lemma" : "고", "type" : "EC", "position" : 455, "weight" : 0.416679 },
		{"id" : 16, "lemma" : "회유", "type" : "NNG", "position" : 459, "weight" : 0.9 },
		{"id" : 17, "lemma" : "하", "type" : "XSV", "position" : 465, "weight" : 0.0001 },
		{"id" : 18, "lemma" : "기", "type" : "ETN", "position" : 468, "weight" : 0.0556099 },
		{"id" : 19, "lemma" : "위하", "type" : "VV", "position" : 472, "weight" : 0.176484 },
		{"id" : 20, "lemma" : "어", "type" : "EC", "position" : 478, "weight" : 0.41831 },
		{"id" : 21, "lemma" : "짓", "type" : "VV", "position" : 482, "weight" : 0.184681 },
		{"id" : 22, "lemma" : "은", "type" : "ETM", "position" : 485, "weight" : 0.109632 },
		{"id" : 23, "lemma" : "것", "type" : "NNB", "position" : 489, "weight" : 0.228788 },
		{"id" : 24, "lemma" : "이", "type" : "VCP", "position" : 492, "weight" : 0.0607843 },
		{"id" : 25, "lemma" : "나", "type" : "EC", "position" : 495, "weight" : 0.0107649 },
		{"id" : 26, "lemma" : ",", "type" : "SP", "position" : 498, "weight" : 1 },
		{"id" : 27, "lemma" : "정몽주", "type" : "NNP", "position" : 500, "weight" : 0.9 },
		{"id" : 28, "lemma" : "는", "type" : "JX", "position" : 509, "weight" : 0.0332677 },
		{"id" : 29, "lemma" : "이", "type" : "NP", "position" : 513, "weight" : 0.00112648 },
		{"id" : 30, "lemma" : "에", "type" : "JKB", "position" : 516, "weight" : 0.126153 },
		{"id" : 31, "lemma" : "고려", "type" : "NNP", "position" : 520, "weight" : 0.0219318 },
		{"id" : 32, "lemma" : "에", "type" : "JKB", "position" : 526, "weight" : 0.0823628 },
		{"id" : 33, "lemma" : "충성", "type" : "NNG", "position" : 530, "weight" : 0.9 },
		{"id" : 34, "lemma" : "을", "type" : "JKO", "position" : 536, "weight" : 0.129611 },
		{"id" : 35, "lemma" : "다짐", "type" : "NNG", "position" : 540, "weight" : 0.9 },
		{"id" : 36, "lemma" : "하", "type" : "XSV", "position" : 546, "weight" : 0.0001 },
		{"id" : 37, "lemma" : "는", "type" : "ETM", "position" : 549, "weight" : 0.238503 },
		{"id" : 38, "lemma" : "&", "type" : "SW", "position" : 553, "weight" : 1 },
		{"id" : 39, "lemma" : "lt", "type" : "SL", "position" : 554, "weight" : 1 },
		{"id" : 40, "lemma" : ";", "type" : "SW", "position" : 556, "weight" : 1 },
		{"id" : 41, "lemma" : "단심", "type" : "NNG", "position" : 557, "weight" : 0.55 },
		{"id" : 42, "lemma" : "가", "type" : "XSN", "position" : 563, "weight" : 0.000115417 },
		{"id" : 43, "lemma" : "&", "type" : "SW", "position" : 566, "weight" : 1 },
		{"id" : 44, "lemma" : "gt", "type" : "SL", "position" : 567, "weight" : 1 },
		{"id" : 45, "lemma" : ";", "type" : "SW", "position" : 569, "weight" : 1 },
		{"id" : 46, "lemma" : "로", "type" : "JKB", "position" : 570, "weight" : 0.0544879 },
		{"id" : 47, "lemma" : "화답", "type" : "NNG", "position" : 574, "weight" : 0.95 },
		{"id" : 48, "lemma" : "하", "type" : "XSV", "position" : 580, "weight" : 0.0001 },
		{"id" : 49, "lemma" : "었", "type" : "EP", "position" : 583, "weight" : 0.9 },
		{"id" : 50, "lemma" : "다고", "type" : "EC", "position" : 586, "weight" : 0.193823 },
		{"id" : 51, "lemma" : "하", "type" : "VV", "position" : 593, "weight" : 0.140183 },
		{"id" : 52, "lemma" : "ㄴ다", "type" : "EF", "position" : 593, "weight" : 0.0793196 },
		{"id" : 53, "lemma" : ".", "type" : "SF", "position" : 599, "weight" : 1 }
	],
	"morp_eval" : [
		{"id" : 0, "result" : "고려/NNG", "target" : "고려", "word_id" : 0, "m_begin" : 0, "m_end" : 0},
		{"id" : 1, "result" : "말기/NNG+에/JKB", "target" : "말기에", "word_id" : 1, "m_begin" : 1, "m_end" : 2},
		{"id" : 2, "result" : "이방원/NNG+이/JKS", "target" : "이방원이", "word_id" : 2, "m_begin" : 3, "m_end" : 4},
		{"id" : 3, "result" : "짓/VV+은/ETM", "target" : "지은", "word_id" : 3, "m_begin" : 5, "m_end" : 6},
		{"id" : 4, "result" : "시조/NNG+./SF", "target" : "시조.", "word_id" : 4, "m_begin" : 7, "m_end" : 8},
		{"id" : 5, "result" : "충신/NNG", "target" : "충신", "word_id" : 5, "m_begin" : 9, "m_end" : 9},
		{"id" : 6, "result" : "정몽주/NNG+의/JKG", "target" : "정몽주의", "word_id" : 6, "m_begin" : 10, "m_end" : 11},
		{"id" : 7, "result" : "마음/NNG+을/JKO", "target" : "마음을", "word_id" : 7, "m_begin" : 12, "m_end" : 13},
		{"id" : 8, "result" : "떠보/VV+고/EC", "target" : "떠보고", "word_id" : 8, "m_begin" : 14, "m_end" : 15},
		{"id" : 9, "result" : "회유하/VV+기/ETN", "target" : "회유하기", "word_id" : 9, "m_begin" : 16, "m_end" : 18},
		{"id" : 10, "result" : "위하/VV+어/EC", "target" : "위하여", "word_id" : 10, "m_begin" : 19, "m_end" : 20},
		{"id" : 11, "result" : "짓/VV+은/ETM", "target" : "지은", "word_id" : 11, "m_begin" : 21, "m_end" : 22},
		{"id" : 12, "result" : "것/NNB+이/VCP+나/EC+,/SP", "target" : "것이나,", "word_id" : 12, "m_begin" : 23, "m_end" : 26},
		{"id" : 13, "result" : "정몽주/NNG+는/JX", "target" : "정몽주는", "word_id" : 13, "m_begin" : 27, "m_end" : 28},
		{"id" : 14, "result" : "이/NP+에/JKB", "target" : "이에", "word_id" : 14, "m_begin" : 29, "m_end" : 30},
		{"id" : 15, "result" : "고려/NNG+에/JKB", "target" : "고려에", "word_id" : 15, "m_begin" : 31, "m_end" : 32},
		{"id" : 16, "result" : "충성/NNG+을/JKO", "target" : "충성을", "word_id" : 16, "m_begin" : 33, "m_end" : 34},
		{"id" : 17, "result" : "다짐하/VV+는/ETM", "target" : "다짐하는", "word_id" : 17, "m_begin" : 35, "m_end" : 37},
		{"id" : 18, "result" : "&/SW+lt/SL+;/SW+단심가/NNG+&/SW+gt/SL+;/SW+로/JKB", "target" : "&lt;단심가&gt;로", "word_id" : 18, "m_begin" : 38, "m_end" : 46},
		{"id" : 19, "result" : "화답하/VV+었/EP+다고/EC", "target" : "화답하였다고", "word_id" : 19, "m_begin" : 47, "m_end" : 50},
		{"id" : 20, "result" : "하/VV+ㄴ다/EF+./SF", "target" : "한다.", "word_id" : 20, "m_begin" : 51, "m_end" : 53}
	],
	"WSD" : [
		{"id" : 0, "text" : "고려", "type" : "NNP", "scode" : "05", "weight" : 1, "position" : 374, "begin" : 0, "end" : 0},
		{"id" : 1, "text" : "말기", "type" : "NNG", "scode" : "05", "weight" : 1, "position" : 381, "begin" : 1, "end" : 1},
		{"id" : 2, "text" : "에", "type" : "JKB", "scode" : "00", "weight" : 1, "position" : 387, "begin" : 2, "end" : 2},
		{"id" : 3, "text" : "이방원", "type" : "NNP", "scode" : "00", "weight" : 1, "position" : 391, "begin" : 3, "end" : 3},
		{"id" : 4, "text" : "이", "type" : "JKS", "scode" : "00", "weight" : 1, "position" : 400, "begin" : 4, "end" : 4},
		{"id" : 5, "text" : "짓", "type" : "VV", "scode" : "01", "weight" : 1, "position" : 404, "begin" : 5, "end" : 5},
		{"id" : 6, "text" : "은", "type" : "ETM", "scode" : "00", "weight" : 1, "position" : 407, "begin" : 6, "end" : 6},
		{"id" : 7, "text" : "시조", "type" : "NNG", "scode" : "07", "weight" : 1, "position" : 411, "begin" : 7, "end" : 7},
		{"id" : 8, "text" : ".", "type" : "SF", "scode" : "00", "weight" : 1, "position" : 417, "begin" : 8, "end" : 8},
		{"id" : 9, "text" : "충신", "type" : "NNG", "scode" : "01", "weight" : 1, "position" : 419, "begin" : 9, "end" : 9},
		{"id" : 10, "text" : "정몽주", "type" : "NNP", "scode" : "00", "weight" : 1, "position" : 426, "begin" : 10, "end" : 10},
		{"id" : 11, "text" : "의", "type" : "JKG", "scode" : "00", "weight" : 1, "position" : 435, "begin" : 11, "end" : 11},
		{"id" : 12, "text" : "마음", "type" : "NNG", "scode" : "01", "weight" : 1, "position" : 439, "begin" : 12, "end" : 12},
		{"id" : 13, "text" : "을", "type" : "JKO", "scode" : "00", "weight" : 1, "position" : 445, "begin" : 13, "end" : 13},
		{"id" : 14, "text" : "떠보", "type" : "VV", "scode" : "00", "weight" : 1, "position" : 449, "begin" : 14, "end" : 14},
		{"id" : 15, "text" : "고", "type" : "EC", "scode" : "00", "weight" : 1, "position" : 455, "begin" : 15, "end" : 15},
		{"id" : 16, "text" : "회유하", "type" : "VV", "scode" : "04", "weight" : 1, "position" : 459, "begin" : 16, "end" : 17},
		{"id" : 17, "text" : "기", "type" : "ETN", "scode" : "00", "weight" : 1, "position" : 468, "begin" : 18, "end" : 18},
		{"id" : 18, "text" : "위하", "type" : "VV", "scode" : "01", "weight" : 1, "position" : 472, "begin" : 19, "end" : 19},
		{"id" : 19, "text" : "어", "type" : "EC", "scode" : "00", "weight" : 1, "position" : 478, "begin" : 20, "end" : 20},
		{"id" : 20, "text" : "짓", "type" : "VV", "scode" : "01", "weight" : 1, "position" : 482, "begin" : 21, "end" : 21},
		{"id" : 21, "text" : "은", "type" : "ETM", "scode" : "00", "weight" : 1, "position" : 485, "begin" : 22, "end" : 22},
		{"id" : 22, "text" : "것", "type" : "NNB", "scode" : "01", "weight" : 1, "position" : 489, "begin" : 23, "end" : 23},
		{"id" : 23, "text" : "이", "type" : "VCP", "scode" : "00", "weight" : 1, "position" : 492, "begin" : 24, "end" : 24},
		{"id" : 24, "text" : "나", "type" : "EC", "scode" : "00", "weight" : 1, "position" : 495, "begin" : 25, "end" : 25},
		{"id" : 25, "text" : ",", "type" : "SP", "scode" : "00", "weight" : 1, "position" : 498, "begin" : 26, "end" : 26},
		{"id" : 26, "text" : "정몽주", "type" : "NNP", "scode" : "00", "weight" : 1, "position" : 500, "begin" : 27, "end" : 27},
		{"id" : 27, "text" : "는", "type" : "JX", "scode" : "00", "weight" : 1, "position" : 509, "begin" : 28, "end" : 28},
		{"id" : 28, "text" : "이", "type" : "NP", "scode" : "05", "weight" : 1, "position" : 513, "begin" : 29, "end" : 29},
		{"id" : 29, "text" : "에", "type" : "JKB", "scode" : "00", "weight" : 1, "position" : 516, "begin" : 30, "end" : 30},
		{"id" : 30, "text" : "고려", "type" : "NNP", "scode" : "05", "weight" : 1, "position" : 520, "begin" : 31, "end" : 31},
		{"id" : 31, "text" : "에", "type" : "JKB", "scode" : "00", "weight" : 1, "position" : 526, "begin" : 32, "end" : 32},
		{"id" : 32, "text" : "충성", "type" : "NNG", "scode" : "01", "weight" : 1, "position" : 530, "begin" : 33, "end" : 33},
		{"id" : 33, "text" : "을", "type" : "JKO", "scode" : "00", "weight" : 1, "position" : 536, "begin" : 34, "end" : 34},
		{"id" : 34, "text" : "다짐하", "type" : "VV", "scode" : "00", "weight" : 1, "position" : 540, "begin" : 35, "end" : 36},
		{"id" : 35, "text" : "는", "type" : "ETM", "scode" : "00", "weight" : 1, "position" : 549, "begin" : 37, "end" : 37},
		{"id" : 36, "text" : "&", "type" : "SW", "scode" : "00", "weight" : 1, "position" : 553, "begin" : 38, "end" : 38},
		{"id" : 37, "text" : "lt", "type" : "SL", "scode" : "00", "weight" : 1, "position" : 554, "begin" : 39, "end" : 39},
		{"id" : 38, "text" : ";", "type" : "SW", "scode" : "00", "weight" : 1, "position" : 556, "begin" : 40, "end" : 40},
		{"id" : 39, "text" : "단심가", "type" : "NNG", "scode" : "00", "weight" : 1, "position" : 557, "begin" : 41, "end" : 42},
		{"id" : 40, "text" : "&", "type" : "SW", "scode" : "00", "weight" : 1, "position" : 566, "begin" : 43, "end" : 43},
		{"id" : 41, "text" : "gt", "type" : "SL", "scode" : "00", "weight" : 1, "position" : 567, "begin" : 44, "end" : 44},
		{"id" : 42, "text" : ";", "type" : "SW", "scode" : "00", "weight" : 1, "position" : 569, "begin" : 45, "end" : 45},
		{"id" : 43, "text" : "로", "type" : "JKB", "scode" : "00", "weight" : 1, "position" : 570, "begin" : 46, "end" : 46},
		{"id" : 44, "text" : "화답하", "type" : "VV", "scode" : "00", "weight" : 1, "position" : 574, "begin" : 47, "end" : 48},
		{"id" : 45, "text" : "었", "type" : "EP", "scode" : "00", "weight" : 1, "position" : 583, "begin" : 49, "end" : 49},
		{"id" : 46, "text" : "다고", "type" : "EC", "scode" : "00", "weight" : 1, "position" : 586, "begin" : 50, "end" : 50},
		{"id" : 47, "text" : "하", "type" : "VV", "scode" : "01", "weight" : 1, "position" : 593, "begin" : 51, "end" : 51},
		{"id" : 48, "text" : "ㄴ다", "type" : "EF", "scode" : "00", "weight" : 1, "position" : 593, "begin" : 52, "end" : 52},
		{"id" : 49, "text" : ".", "type" : "SF", "scode" : "00", "weight" : 1, "position" : 599, "begin" : 53, "end" : 53}
	],
	"word" : [
		{"id" : 0, "text" : "고려", "type" : "", "begin" : 0, "end" : 0},
		{"id" : 1, "text" : "말기에", "type" : "", "begin" : 1, "end" : 2},
		{"id" : 2, "text" : "이방원이", "type" : "", "begin" : 3, "end" : 4},
		{"id" : 3, "text" : "지은", "type" : "", "begin" : 5, "end" : 6},
		{"id" : 4, "text" : "시조.", "type" : "", "begin" : 7, "end" : 8},
		{"id" : 5, "text" : "충신", "type" : "", "begin" : 9, "end" : 9},
		{"id" : 6, "text" : "정몽주의", "type" : "", "begin" : 10, "end" : 11},
		{"id" : 7, "text" : "마음을", "type" : "", "begin" : 12, "end" : 13},
		{"id" : 8, "text" : "떠보고", "type" : "", "begin" : 14, "end" : 15},
		{"id" : 9, "text" : "회유하기", "type" : "", "begin" : 16, "end" : 18},
		{"id" : 10, "text" : "위하여", "type" : "", "begin" : 19, "end" : 20},
		{"id" : 11, "text" : "지은", "type" : "", "begin" : 21, "end" : 22},
		{"id" : 12, "text" : "것이나,", "type" : "", "begin" : 23, "end" : 26},
		{"id" : 13, "text" : "정몽주는", "type" : "", "begin" : 27, "end" : 28},
		{"id" : 14, "text" : "이에", "type" : "", "begin" : 29, "end" : 30},
		{"id" : 15, "text" : "고려에", "type" : "", "begin" : 31, "end" : 32},
		{"id" : 16, "text" : "충성을", "type" : "", "begin" : 33, "end" : 34},
		{"id" : 17, "text" : "다짐하는", "type" : "", "begin" : 35, "end" : 37},
		{"id" : 18, "text" : "&lt;단심가&gt;로", "type" : "", "begin" : 38, "end" : 46},
		{"id" : 19, "text" : "화답하였다고", "type" : "", "begin" : 47, "end" : 50},
		{"id" : 20, "text" : "한다.", "type" : "", "begin" : 51, "end" : 53}
	],
	"NE" : [
		{"id" : 0, "text" : "고려 말기", "type" : "DT_DYNASTY", "begin" : 0, "end" : 1, "weight" : 0.494292, "common_noun" : 0},
		{"id" : 1, "text" : "이방원", "type" : "PS_NAME", "begin" : 3, "end" : 3, "weight" : 0.299202, "common_noun" : 0},
		{"id" : 2, "text" : "시조", "type" : "FD_ART", "begin" : 7, "end" : 7, "weight" : 0.284327, "common_noun" : 0},
		{"id" : 3, "text" : "충신", "type" : "CV_POSITION", "begin" : 9, "end" : 9, "weight" : 0.134192, "common_noun" : 0},
		{"id" : 4, "text" : "정몽주", "type" : "PS_NAME", "begin" : 10, "end" : 10, "weight" : 0.566358, "common_noun" : 0},
		{"id" : 5, "text" : "정몽주", "type" : "PS_NAME", "begin" : 27, "end" : 27, "weight" : 0.293005, "common_noun" : 0},
		{"id" : 6, "text" : "고려", "type" : "LCP_COUNTRY", "begin" : 31, "end" : 31, "weight" : 0.294407, "common_noun" : 0},
		{"id" : 7, "text" : "단심가", "type" : "AFW_MUSIC", "begin" : 41, "end" : 42, "weight" : 0.311173, "common_noun" : 0}
	],
	"chunk" : [
	],
	"dependency" : [
		{"id" : 0, "text" : "고려", "head" : 1, "label" : "NP", "mod" : [], "weight" : 0.967537 },
		{"id" : 1, "text" : "말기에", "head" : 3, "label" : "NP_AJT", "mod" : [0], "weight" : 0.671491 },
		{"id" : 2, "text" : "이방원이", "head" : 3, "label" : "NP_SBJ", "mod" : [], "weight" : 0.992224 },
		{"id" : 3, "text" : "지은", "head" : 4, "label" : "VP_MOD", "mod" : [1, 2], "weight" : 0.686218 },
		{"id" : 4, "text" : "시조.", "head" : 8, "label" : "NP", "mod" : [3], "weight" : 0.515199 },
		{"id" : 5, "text" : "충신", "head" : 6, "label" : "NP", "mod" : [], "weight" : 0.712075 },
		{"id" : 6, "text" : "정몽주의", "head" : 7, "label" : "NP_MOD", "mod" : [5], "weight" : 0.832092 },
		{"id" : 7, "text" : "마음을", "head" : 8, "label" : "NP_OBJ", "mod" : [6], "weight" : 0.856357 },
		{"id" : 8, "text" : "떠보고", "head" : 9, "label" : "VP", "mod" : [4, 7], "weight" : 0.839945 },
		{"id" : 9, "text" : "회유하기", "head" : 10, "label" : "VP_OBJ", "mod" : [8], "weight" : 0.898553 },
		{"id" : 10, "text" : "위하여", "head" : 11, "label" : "VP", "mod" : [9], "weight" : 0.651974 },
		{"id" : 11, "text" : "지은", "head" : 12, "label" : "VP_MOD", "mod" : [10], "weight" : 0.603416 },
		{"id" : 12, "text" : "것이나,", "head" : 19, "label" : "VNP", "mod" : [11], "weight" : 0.688185 },
		{"id" : 13, "text" : "정몽주는", "head" : 19, "label" : "NP_SBJ", "mod" : [], "weight" : 0.507129 },
		{"id" : 14, "text" : "이에", "head" : 19, "label" : "NP_AJT", "mod" : [], "weight" : 0.726415 },
		{"id" : 15, "text" : "고려에", "head" : 17, "label" : "NP_AJT", "mod" : [], "weight" : 0.591466 },
		{"id" : 16, "text" : "충성을", "head" : 17, "label" : "NP_OBJ", "mod" : [], "weight" : 0.926125 },
		{"id" : 17, "text" : "다짐하는", "head" : 18, "label" : "VP_MOD", "mod" : [15, 16], "weight" : 0.752995 },
		{"id" : 18, "text" : "&lt;단심가&gt;로", "head" : 19, "label" : "NP_AJT", "mod" : [17], "weight" : 0.704661 },
		{"id" : 19, "text" : "화답하였다고", "head" : 20, "label" : "VP_CMP", "mod" : [12, 13, 14, 18], "weight" : 0.452462 },
		{"id" : 20, "text" : "한다.", "head" : -1, "label" : "VP", "mod" : [19], "weight" : 0.000959355 }
	],
	"SRL" : [
		{"verb" : "짓", "sense" : 1, "word_id" : 3, "weight" : 0.268683,
			"argument" : [
				{"type" : "ARGM-TMP", "word_id" : 1, "text" : "말기에", "weight" : 0.171494 },
				{"type" : "ARG0", "word_id" : 2, "text" : "이방원이", "weight" : 0.380641 },
				{"type" : "ARG1", "word_id" : 4, "text" : "시조.", "weight" : 0.253915 }
			] },
		{"verb" : "떠보", "sense" : 1, "word_id" : 8, "weight" : 0.183651,
			"argument" : [
				{"type" : "ARG1", "word_id" : 7, "text" : "마음을", "weight" : 0.183651 }
			] },
		{"verb" : "회유", "sense" : 1, "word_id" : 9, "weight" : 0,
			"argument" : [
			] },
		{"verb" : "위하", "sense" : 1, "word_id" : 10, "weight" : 0.23508,
			"argument" : [
				{"type" : "ARG1", "word_id" : 9, "text" : "회유하기", "weight" : 0.23508 }
			] },
		{"verb" : "짓", "sense" : 1, "word_id" : 11, "weight" : 0.233674,
			"argument" : [
				{"type" : "ARGM-PRP", "word_id" : 10, "text" : "위하여", "weight" : 0.233674 }
			] },
		{"verb" : "다짐", "sense" : 1, "word_id" : 17, "weight" : 0.24591,
			"argument" : [
				{"type" : "ARG0", "word_id" : 13, "text" : "정몽주는", "weight" : 0.327495 },
				{"type" : "ARG2", "word_id" : 15, "text" : "고려에", "weight" : 0.15347 },
				{"type" : "ARG1", "word_id" : 16, "text" : "충성을", "weight" : 0.256764 }
			] },
		{"verb" : "화답", "sense" : 1, "word_id" : 19, "weight" : 0.150508,
			"argument" : [
				{"type" : "ARG0", "word_id" : 13, "text" : "정몽주는", "weight" : 0.258811 },
				{"type" : "ARG3", "word_id" : 14, "text" : "이에", "weight" : 0.106811 },
				{"type" : "ARG3", "word_id" : 18, "text" : "&lt;단심가&gt;로", "weight" : 0.0859018 }
			] },
		{"verb" : "하", "sense" : 2, "word_id" : 20, "weight" : 0.313174,
			"argument" : [
				{"type" : "ARG1", "word_id" : 19, "text" : "화답하였다고", "weight" : 0.313174 }
			] }
	],
	"relation" : [
	],
	"SA" : [
	],
	"ZA" : [
		{"id" : 0, "verb_wid" : 8, "ant_sid" : 2, "ant_wid" : 2, "type" : "s", "istitle" : 0, "weight" : 0.138099 },
		{"id" : 1, "verb_wid" : 9, "ant_sid" : 2, "ant_wid" : 2, "type" : "s", "istitle" : 0, "weight" : 0.147232 }
	]
	}
 ],
 "entity" : [
	{"id" : 0, "type" : "FD_ART", "number" : "singular", "gender" : "", "person" : "", "animacy" : "", "loc" : "", 
	 "mention" : [
		{"id" : 3, "sent_id" : 0, "start_eid" : 3, "end_eid" : 5, "ne_id" : 2, "text" : "조선 초기의 시조", "start_eid_short" : 3, "end_eid_short" : 5, "text_short" : "조선 초기의 시조", "weight" : 0.002 },
		{"id" : 27, "sent_id" : 2, "start_eid" : 4, "end_eid" : 4, "ne_id" : 2, "text" : "시조.", "start_eid_short" : 4, "end_eid_short" : 4, "text_short" : "시조.", "weight" : 0.003 },
		{"id" : 32, "sent_id" : 2, "start_eid" : 14, "end_eid" : 14, "ne_id" : -1, "text" : "이", "start_eid_short" : 14, "end_eid_short" : 14, "text_short" : "이", "weight" : 0.006 }
	] },
	{"id" : 1, "type" : "LCP_COUNTRY", "number" : "singular", "gender" : "", "person" : "", "animacy" : "", "loc" : "조선", 
	 "mention" : [
		{"id" : 15, "sent_id" : 1, "start_eid" : 5, "end_eid" : 5, "ne_id" : 4, "text" : "조선", "start_eid_short" : 5, "end_eid_short" : 5, "text_short" : "조선", "weight" : 0.024 },
		{"id" : 9, "sent_id" : 1, "start_eid" : 1, "end_eid" : 10, "ne_id" : 5, "text" : "조선 태조 이성계를 도와 조선 건국과 창업에 공이 큰 조선", "start_eid_short" : 10, "end_eid_short" : 10, "text_short" : "조선", "weight" : 0.014 },
		{"id" : 12, "sent_id" : 1, "start_eid" : 1, "end_eid" : 1, "ne_id" : 1, "text" : "조선", "start_eid_short" : 1, "end_eid_short" : 1, "text_short" : "조선", "weight" : 0.018 }
	] },
	{"id" : 2, "type" : "PS_NAME", "number" : "singular", "gender" : "", "person" : "", "animacy" : "", "loc" : "조선", 
	 "mention" : [
		{"id" : 10, "sent_id" : 1, "start_eid" : 1, "end_eid" : 3, "ne_id" : 3, "text" : "조선 태조 이성계", "start_eid_short" : 1, "end_eid_short" : 3, "text_short" : "조선 태조 이성계", "weight" : 0.002 },
		{"id" : 11, "sent_id" : 1, "start_eid" : 1, "end_eid" : 2, "ne_id" : 2, "text" : "조선 태조", "start_eid_short" : 1, "end_eid_short" : 2, "text_short" : "조선 태조", "weight" : 0.003 }
	] },
	{"id" : 3, "type" : "PS_NAME", "number" : "singular", "gender" : "", "person" : "", "animacy" : "", "loc" : "", 
	 "mention" : [
		{"id" : 29, "sent_id" : 2, "start_eid" : 5, "end_eid" : 6, "ne_id" : 4, "text" : "충신 정몽주", "start_eid_short" : 5, "end_eid_short" : 6, "text_short" : "충신 정몽주", "weight" : 0.015 },
		{"id" : 30, "sent_id" : 2, "start_eid" : 5, "end_eid" : 5, "ne_id" : 3, "text" : "충신", "start_eid_short" : 5, "end_eid_short" : 5, "text_short" : "충신", "weight" : 0.02 },
		{"id" : 31, "sent_id" : 2, "start_eid" : 13, "end_eid" : 13, "ne_id" : 5, "text" : "정몽주", "start_eid_short" : 13, "end_eid_short" : 13, "text_short" : "정몽주", "weight" : 0.023 },
		{"id" : 24, "sent_id" : 1, "start_eid" : 17, "end_eid" : 17, "ne_id" : 9, "text" : "정몽주(鄭夢周)", "start_eid_short" : 17, "end_eid_short" : 17, "text_short" : "정몽주(鄭夢周)", "weight" : 0.019 }
	] }
 ]
}

