{"doc_id" : "",
 "DCT" : "",
 "category" : "",
 "category_weight" : 0,
 "title" : {"text" : "Q19", "NE" : ""},
 "metaInfo" : { },
 "sentence" : [
	{
	"id" : 0,
	"reserve_str" : "",
	"text" : "이 책은 소비의 중요성과 국내 상업 및 외국과의 무역을 장려할 것을 주장하는 내용이 담겨있다.",
	"morp" : [
	],
	"morp_eval" : [
	],
	"WSD" : [
	],
	"word" : [
		{"id" : 0, "text" : "이", "type" : "", "begin" : 0, "end" : 0},
		{"id" : 1, "text" : "책은", "type" : "", "begin" : 1, "end" : 2},
		{"id" : 2, "text" : "소비의", "type" : "", "begin" : 3, "end" : 4},
		{"id" : 3, "text" : "중요성과", "type" : "", "begin" : 5, "end" : 7},
		{"id" : 4, "text" : "국내", "type" : "", "begin" : 8, "end" : 8},
		{"id" : 5, "text" : "상업", "type" : "", "begin" : 9, "end" : 9},
		{"id" : 6, "text" : "및", "type" : "", "begin" : 10, "end" : 10},
		{"id" : 7, "text" : "외국과의", "type" : "", "begin" : 11, "end" : 13},
		{"id" : 8, "text" : "무역을", "type" : "", "begin" : 14, "end" : 15},
		{"id" : 9, "text" : "장려할", "type" : "", "begin" : 16, "end" : 18},
		{"id" : 10, "text" : "것을", "type" : "", "begin" : 19, "end" : 20},
		{"id" : 11, "text" : "주장하는", "type" : "", "begin" : 21, "end" : 23},
		{"id" : 12, "text" : "내용이", "type" : "", "begin" : 24, "end" : 25},
		{"id" : 13, "text" : "담겨있다.", "type" : "", "begin" : 26, "end" : 30}
	],
	"NE" : [
	],
	"chunk" : [
	],
	"dependency" : [
	],
	"phrase_dependency" : [
	],
	"SRL" : [
		{"verb" : "장려", "sense" : 1, "word_id" : 9, "weight" : 0.168914,
			"argument" : [
				{"type" : "ARG1", "word_id" : 8, "text" : "무역을", "weight" : 0.168914 }
			] },
		{"verb" : "주장", "sense" : 1, "word_id" : 11, "weight" : 0.295836,
			"argument" : [
				{"type" : "ARG1", "word_id" : 10, "text" : "것을", "weight" : 0.295836 }
			] },
		{"verb" : "담", "sense" : 1, "word_id" : 13, "weight" : 0.228407,
			"argument" : [
				{"type" : "ARG2", "word_id" : 1, "text" : "책은", "weight" : 0.142229 },
				{"type" : "ARG1", "word_id" : 12, "text" : "내용이", "weight" : 0.314584 }
			] }
	],
	"relation" : [
	],
	"SA" : [
	],
	"ZA" : [
	]
	},
	{
	"id" : 1,
	"reserve_str" : "",
	"text" : " 조선 후기 실학자 박제가가 청의 문물을 시찰하고 돌아와 쓴 이 책은 무엇일까?",
	"morp" : [
	],
	"morp_eval" : [
	],
	"WSD" : [
	],
	"word" : [
		{"id" : 0, "text" : "조선", "type" : "", "begin" : 0, "end" : 0},
		{"id" : 1, "text" : "후기", "type" : "", "begin" : 1, "end" : 1},
		{"id" : 2, "text" : "실학자", "type" : "", "begin" : 2, "end" : 3},
		{"id" : 3, "text" : "박제가가", "type" : "", "begin" : 4, "end" : 5},
		{"id" : 4, "text" : "청의", "type" : "", "begin" : 6, "end" : 7},
		{"id" : 5, "text" : "문물을", "type" : "", "begin" : 8, "end" : 9},
		{"id" : 6, "text" : "시찰하고", "type" : "", "begin" : 10, "end" : 12},
		{"id" : 7, "text" : "돌아와", "type" : "", "begin" : 13, "end" : 14},
		{"id" : 8, "text" : "쓴", "type" : "", "begin" : 15, "end" : 16},
		{"id" : 9, "text" : "이", "type" : "", "begin" : 17, "end" : 17},
		{"id" : 10, "text" : "책은", "type" : "", "begin" : 18, "end" : 19},
		{"id" : 11, "text" : "무엇일까?", "type" : "", "begin" : 20, "end" : 23}
	],
	"NE" : [
	],
	"chunk" : [
	],
	"dependency" : [
	],
	"phrase_dependency" : [
	],
	"SRL" : [
		{"verb" : "시찰", "sense" : 1, "word_id" : 6, "weight" : 0.289422,
			"argument" : [
				{"type" : "ARG0", "word_id" : 3, "text" : "박제가가", "weight" : 0.387543 },
				{"type" : "ARG1", "word_id" : 5, "text" : "문물을", "weight" : 0.191301 }
			] },
		{"verb" : "돌아오", "sense" : 1, "word_id" : 7, "weight" : 0.381195,
			"argument" : [
				{"type" : "ARG0", "word_id" : 3, "text" : "박제가가", "weight" : 0.381195 }
			] },
		{"verb" : "쓰", "sense" : 2, "word_id" : 8, "weight" : 0.310549,
			"argument" : [
				{"type" : "ARG0", "word_id" : 3, "text" : "박제가가", "weight" : 0.527949 },
				{"type" : "ARGM-MNR", "word_id" : 7, "text" : "돌아와", "weight" : 0.152004 },
				{"type" : "ARG1", "word_id" : 10, "text" : "책은", "weight" : 0.251692 }
			] }
	],
	"relation" : [
	],
	"SA" : [
	],
	"ZA" : [
	]
	}
 ],
 "entity" : [
 ]
}

