{"doc_id" : "",
 "DCT" : "",
 "category" : "",
 "category_weight" : 0,
 "title" : {"text" : "후추", "NE" : ""},
 "metaInfo" : { },
 "sentence" : [
	{
	"id" : 0,
	"reserve_str" : "",
	"text" : "포르투갈의 바스코 다 가마가 인도 발견에 나서게 한 향신료이기도 하다.",
	"morp" : [
	],
	"morp_eval" : [
	],
	"WSD" : [
	],
	"word" : [
		{"id" : 0, "text" : "포르투갈의", "type" : "", "begin" : 0, "end" : 1},
		{"id" : 1, "text" : "바스코", "type" : "", "begin" : 2, "end" : 2},
		{"id" : 2, "text" : "다", "type" : "", "begin" : 3, "end" : 3},
		{"id" : 3, "text" : "가마가", "type" : "", "begin" : 4, "end" : 5},
		{"id" : 4, "text" : "인도", "type" : "", "begin" : 6, "end" : 6},
		{"id" : 5, "text" : "발견에", "type" : "", "begin" : 7, "end" : 8},
		{"id" : 6, "text" : "나서게", "type" : "", "begin" : 9, "end" : 10},
		{"id" : 7, "text" : "한", "type" : "", "begin" : 11, "end" : 12},
		{"id" : 8, "text" : "향신료이기도", "type" : "", "begin" : 13, "end" : 17},
		{"id" : 9, "text" : "하다.", "type" : "", "begin" : 18, "end" : 20}
	],
	"NE" : [
	],
	"chunk" : [
	],
	"dependency" : [
	],
	"phrase_dependency" : [
	],
	"SRL" : [
		{"verb" : "나서", "sense" : 1, "word_id" : 6, "weight" : 0.217124,
			"argument" : [
				{"type" : "ARG0", "word_id" : 3, "text" : "가마가", "weight" : 0.234039 },
				{"type" : "ARG1", "word_id" : 5, "text" : "발견에", "weight" : 0.763075 },
				{"type" : "AUX", "word_id" : 7, "text" : "한", "weight" : 0.341027 }
			] },
		{"verb" : "하", "sense" : 4, "word_id" : 7, "weight" : 0.186687,
			"argument" : [
				{"type" : "ARG1", "word_id" : 6, "text" : "나서게", "weight" : 1 },
				{"type" : "ARG0", "word_id" : 8, "text" : "향신료이기도", "weight" : 0.18043 }
			] }
	],
	"relation" : [
	],
	"SA" : [
	],
	"ZA" : [
	]
	}
 ],
 "entity" : [
 ]
}

