{"doc_id" : "937008",
 "DCT" : "",
 "category" : "",
 "category_weight" : 0,
 "title" : {"text" : "Q8", "NE" : ""},
 "metaInfo" : { },
 "sentence" : [
	{
	"id" : 0,
	"reserve_str" : "",
	"text" : "우리나라 최초의 근대적 조약인 강화도 조약에 포함된 내용은 무엇일까?",
	"morp" : [
	],
	"morp_eval" : [
	],
	"WSD" : [
	],
	"word" : [
		{"id" : 0, "text" : "우리나라", "type" : "", "begin" : 0, "end" : 1},
		{"id" : 1, "text" : "최초의", "type" : "", "begin" : 2, "end" : 3},
		{"id" : 2, "text" : "근대적", "type" : "", "begin" : 4, "end" : 5},
		{"id" : 3, "text" : "조약인", "type" : "", "begin" : 6, "end" : 8},
		{"id" : 4, "text" : "강화도", "type" : "", "begin" : 9, "end" : 9},
		{"id" : 5, "text" : "조약에", "type" : "", "begin" : 10, "end" : 11},
		{"id" : 6, "text" : "포함된", "type" : "", "begin" : 12, "end" : 14},
		{"id" : 7, "text" : "내용은", "type" : "", "begin" : 15, "end" : 16},
		{"id" : 8, "text" : "무엇일까?", "type" : "", "begin" : 17, "end" : 20}
	],
	"NE" : [
	],
	"chunk" : [
	],
	"dependency" : [
	],
	"phrase_dependency" : [
	],
	"SRL" : [
		{"verb" : "포함", "sense" : 1, "word_id" : 6, "weight" : 0.220821,
			"argument" : [
				{"type" : "ARG2", "word_id" : 5, "text" : "조약에", "weight" : 0.24762 },
				{"type" : "ARG1", "word_id" : 7, "text" : "내용은", "weight" : 1 }
			] }
	],
	"relation" : [
	],
	"SA" : [
	],
	"ZA" : [
	]
	}
 ],
 "entity" : [
 ]
}

