{"doc_id" : "",
 "DCT" : "",
 "category" : "",
 "category_weight" : 0,
 "title" : {"text" : "소포클레스", "NE" : ""},
 "metaInfo" : { },
 "sentence" : [
	{
	"id" : 0,
	"reserve_str" : "",
	"text" : "소포클레스(고대 그리스어: Σοφοκλῆς Sophoklē̃s; 기원전 497년 - 기원전 406년)는 고대 그리스 아테네의 비극 시인이다.",
	"morp" : [
	],
	"morp_eval" : [
	],
	"WSD" : [
	],
	"word" : [
		{"id" : 0, "text" : "소포클레스(고대", "type" : "", "begin" : 0, "end" : 2},
		{"id" : 1, "text" : "그리스어:", "type" : "", "begin" : 3, "end" : 5},
		{"id" : 2, "text" : "Σοφοκλῆς", "type" : "", "begin" : 6, "end" : 13},
		{"id" : 3, "text" : "Sophoklē̃s;", "type" : "", "begin" : 14, "end" : 18},
		{"id" : 4, "text" : "기원전", "type" : "", "begin" : 19, "end" : 20},
		{"id" : 5, "text" : "497년", "type" : "", "begin" : 21, "end" : 22},
		{"id" : 6, "text" : "-", "type" : "", "begin" : 23, "end" : 23},
		{"id" : 7, "text" : "기원전", "type" : "", "begin" : 24, "end" : 25},
		{"id" : 8, "text" : "406년)는", "type" : "", "begin" : 26, "end" : 29},
		{"id" : 9, "text" : "고대", "type" : "", "begin" : 30, "end" : 30},
		{"id" : 10, "text" : "그리스", "type" : "", "begin" : 31, "end" : 31},
		{"id" : 11, "text" : "아테네의", "type" : "", "begin" : 32, "end" : 33},
		{"id" : 12, "text" : "비극", "type" : "", "begin" : 34, "end" : 34},
		{"id" : 13, "text" : "시인이다.", "type" : "", "begin" : 35, "end" : 38}
	],
	"NE" : [
	],
	"chunk" : [
	],
	"dependency" : [
	],
	"phrase_dependency" : [
	],
	"SRL" : [
	],
	"relation" : [
	],
	"SA" : [
	],
	"ZA" : [
	]
	},
	{
	"id" : 1,
	"reserve_str" : "",
	"text" : " 아이스킬로스·에우리피데스와 함께 그리스의 3대 비극 시인으로 꼽힌다.",
	"morp" : [
	],
	"morp_eval" : [
	],
	"WSD" : [
	],
	"word" : [
		{"id" : 0, "text" : "아이스킬로스·에우리피데스와", "type" : "", "begin" : 0, "end" : 3},
		{"id" : 1, "text" : "함께", "type" : "", "begin" : 4, "end" : 4},
		{"id" : 2, "text" : "그리스의", "type" : "", "begin" : 5, "end" : 6},
		{"id" : 3, "text" : "3대", "type" : "", "begin" : 7, "end" : 8},
		{"id" : 4, "text" : "비극", "type" : "", "begin" : 9, "end" : 9},
		{"id" : 5, "text" : "시인으로", "type" : "", "begin" : 10, "end" : 11},
		{"id" : 6, "text" : "꼽힌다.", "type" : "", "begin" : 12, "end" : 14}
	],
	"NE" : [
	],
	"chunk" : [
	],
	"dependency" : [
	],
	"phrase_dependency" : [
	],
	"SRL" : [
		{"verb" : "꼽", "sense" : 1, "word_id" : 6, "weight" : 0.192224,
			"argument" : [
				{"type" : "ARGM-MNR", "word_id" : 1, "text" : "함께", "weight" : 1 },
				{"type" : "ARG2", "word_id" : 5, "text" : "시인으로", "weight" : 1 }
			] }
	],
	"relation" : [
	],
	"SA" : [
	],
	"ZA" : [
	]
	},
	{
	"id" : 2,
	"reserve_str" : "",
	"text" : " <안티고네>나 <오이디푸스왕>과 같은 극작이 운명극이나 성격극으로도 해석되는 연유가 바로 여기에 있는 것이다.",
	"morp" : [
	],
	"morp_eval" : [
	],
	"WSD" : [
	],
	"word" : [
		{"id" : 0, "text" : "<안티고네>나", "type" : "", "begin" : 0, "end" : 3},
		{"id" : 1, "text" : "<오이디푸스왕>과", "type" : "", "begin" : 4, "end" : 8},
		{"id" : 2, "text" : "같은", "type" : "", "begin" : 9, "end" : 10},
		{"id" : 3, "text" : "극작이", "type" : "", "begin" : 11, "end" : 12},
		{"id" : 4, "text" : "운명극이나", "type" : "", "begin" : 13, "end" : 15},
		{"id" : 5, "text" : "성격극으로도", "type" : "", "begin" : 16, "end" : 19},
		{"id" : 6, "text" : "해석되는", "type" : "", "begin" : 20, "end" : 22},
		{"id" : 7, "text" : "연유가", "type" : "", "begin" : 23, "end" : 24},
		{"id" : 8, "text" : "바로", "type" : "", "begin" : 25, "end" : 25},
		{"id" : 9, "text" : "여기에", "type" : "", "begin" : 26, "end" : 27},
		{"id" : 10, "text" : "있는", "type" : "", "begin" : 28, "end" : 29},
		{"id" : 11, "text" : "것이다.", "type" : "", "begin" : 30, "end" : 33}
	],
	"NE" : [
	],
	"chunk" : [
	],
	"dependency" : [
	],
	"phrase_dependency" : [
	],
	"SRL" : [
		{"verb" : "같", "sense" : 1, "word_id" : 2, "weight" : 0.330687,
			"argument" : [
				{"type" : "ARG2", "word_id" : 1, "text" : "<오이디푸스왕>과", "weight" : 0.256878 },
				{"type" : "ARG1", "word_id" : 3, "text" : "극작이", "weight" : 0.404495 }
			] },
		{"verb" : "해석", "sense" : 1, "word_id" : 6, "weight" : 0.192106,
			"argument" : [
				{"type" : "ARG1", "word_id" : 5, "text" : "성격극으로도", "weight" : 0.125213 }
			] },
		{"verb" : "있", "sense" : 1, "word_id" : 10, "weight" : 0.240972,
			"argument" : [
				{"type" : "ARG1", "word_id" : 7, "text" : "연유가", "weight" : 0.225473 },
				{"type" : "ARGM-ADV", "word_id" : 8, "text" : "바로", "weight" : 1 },
				{"type" : "ARG2", "word_id" : 9, "text" : "여기에", "weight" : 0.37351 }
			] }
	],
	"relation" : [
	],
	"SA" : [
	],
	"ZA" : [
	]
	}
 ],
 "entity" : [
 ]
}

