{"doc_id" : "",
 "DCT" : "",
 "category" : "",
 "category_weight" : 0,
 "title" : {"text" : "죽방렴", "NE" : ""},
 "metaInfo" : { },
 "sentence" : [
	{
	"id" : 0,
	"reserve_str" : "",
	"text" : "남해안의 협수로에서 멸치를 잡는 데 쓰이는 어법으로 통말목을 해저에 박아서 V자 모양으로 벌어지게 날개그물을 설치하고, V자의 꼭짓점에 해당하는 곳에 자루그물을 설치하여 어획하는 정치성 어구.",
	"morp" : [
	],
	"morp_eval" : [
	],
	"WSD" : [
	],
	"word" : [
		{"id" : 0, "text" : "남해안의", "type" : "", "begin" : 0, "end" : 2},
		{"id" : 1, "text" : "협수로에서", "type" : "", "begin" : 3, "end" : 5},
		{"id" : 2, "text" : "멸치를", "type" : "", "begin" : 6, "end" : 7},
		{"id" : 3, "text" : "잡는", "type" : "", "begin" : 8, "end" : 9},
		{"id" : 4, "text" : "데", "type" : "", "begin" : 10, "end" : 10},
		{"id" : 5, "text" : "쓰이는", "type" : "", "begin" : 11, "end" : 12},
		{"id" : 6, "text" : "어법으로", "type" : "", "begin" : 13, "end" : 14},
		{"id" : 7, "text" : "통말목을", "type" : "", "begin" : 15, "end" : 16},
		{"id" : 8, "text" : "해저에", "type" : "", "begin" : 17, "end" : 18},
		{"id" : 9, "text" : "박아서", "type" : "", "begin" : 19, "end" : 20},
		{"id" : 10, "text" : "V자", "type" : "", "begin" : 21, "end" : 22},
		{"id" : 11, "text" : "모양으로", "type" : "", "begin" : 23, "end" : 24},
		{"id" : 12, "text" : "벌어지게", "type" : "", "begin" : 25, "end" : 26},
		{"id" : 13, "text" : "날개그물을", "type" : "", "begin" : 27, "end" : 29},
		{"id" : 14, "text" : "설치하고,", "type" : "", "begin" : 30, "end" : 33},
		{"id" : 15, "text" : "V자의", "type" : "", "begin" : 34, "end" : 36},
		{"id" : 16, "text" : "꼭짓점에", "type" : "", "begin" : 37, "end" : 38},
		{"id" : 17, "text" : "해당하는", "type" : "", "begin" : 39, "end" : 41},
		{"id" : 18, "text" : "곳에", "type" : "", "begin" : 42, "end" : 43},
		{"id" : 19, "text" : "자루그물을", "type" : "", "begin" : 44, "end" : 46},
		{"id" : 20, "text" : "설치하여", "type" : "", "begin" : 47, "end" : 49},
		{"id" : 21, "text" : "어획하는", "type" : "", "begin" : 50, "end" : 52},
		{"id" : 22, "text" : "정치성", "type" : "", "begin" : 53, "end" : 54},
		{"id" : 23, "text" : "어구.", "type" : "", "begin" : 55, "end" : 56}
	],
	"NE" : [
	],
	"chunk" : [
	],
	"dependency" : [
	],
	"phrase_dependency" : [
	],
	"SRL" : [
		{"verb" : "잡", "sense" : 1, "word_id" : 3, "weight" : 0.237832,
			"argument" : [
				{"type" : "ARGM-LOC", "word_id" : 1, "text" : "협수로에서", "weight" : 0.800278 },
				{"type" : "ARG1", "word_id" : 2, "text" : "멸치를", "weight" : 0.395636 }
			] },
		{"verb" : "쓰", "sense" : 1, "word_id" : 5, "weight" : 0.156949,
			"argument" : [
				{"type" : "ARG2", "word_id" : 4, "text" : "데", "weight" : 0.197241 },
				{"type" : "ARG1", "word_id" : 6, "text" : "어법으로", "weight" : 0.116657 }
			] },
		{"verb" : "박", "sense" : 1, "word_id" : 9, "weight" : 0.126685,
			"argument" : [
				{"type" : "ARG1", "word_id" : 7, "text" : "통말목을", "weight" : 0.156403 },
				{"type" : "ARG2", "word_id" : 8, "text" : "해저에", "weight" : 0.152942 }
			] },
		{"verb" : "벌어지", "sense" : 1, "word_id" : 12, "weight" : 0.925483,
			"argument" : [
				{"type" : "ARGM-PRD", "word_id" : 11, "text" : "모양으로", "weight" : 0.925483 }
			] },
		{"verb" : "설치", "sense" : 1, "word_id" : 14, "weight" : 0.288355,
			"argument" : [
				{"type" : "ARG1", "word_id" : 13, "text" : "날개그물을", "weight" : 0.288355 },
				{"type" : "ARGM-MNR", "word_id" : 9, "text" : "박아서", "weight" : 1 }
			] },
		{"verb" : "해당", "sense" : 1, "word_id" : 17, "weight" : 0.177943,
			"argument" : [
				{"type" : "ARG2", "word_id" : 16, "text" : "꼭짓점에", "weight" : 0.18823 },
				{"type" : "ARG1", "word_id" : 18, "text" : "곳에", "weight" : 0.167656 }
			] },
		{"verb" : "설치", "sense" : 1, "word_id" : 20, "weight" : 0.26212,
			"argument" : [
				{"type" : "ARG2", "word_id" : 18, "text" : "곳에", "weight" : 0.262788 },
				{"type" : "ARG1", "word_id" : 19, "text" : "자루그물을", "weight" : 0.261453 }
			] },
		{"verb" : "어획", "sense" : 1, "word_id" : 21, "weight" : 0.146981,
			"argument" : [
				{"type" : "ARGM-MNR", "word_id" : 20, "text" : "설치하여", "weight" : 1 }
			] }
	],
	"relation" : [
	],
	"SA" : [
	],
	"ZA" : [
	]
	}
 ],
 "entity" : [
 ]
}

