{"doc_id" : "",
 "DCT" : "",
 "category" : "",
 "category_weight" : 0,
 "title" : {"text" : "후추 - 세계를 좌지우지하던 향신료", "NE" : ""},
 "metaInfo" : { },
 "sentence" : [
	{
	"id" : 0,
	"reserve_str" : "",
	"text" : "그런 어려움 속에서도 항해사 바스코 다 가마가 이끄는 포르투갈 선단이 1498년 인도의 고아에 입항하는데 성공했고 향신료를 잔뜩 싣고 리스본으로 돌아왔다.",
	"morp" : [
	],
	"morp_eval" : [
	],
	"WSD" : [
	],
	"word" : [
		{"id" : 0, "text" : "그런", "type" : "", "begin" : 0, "end" : 0},
		{"id" : 1, "text" : "어려움", "type" : "", "begin" : 1, "end" : 1},
		{"id" : 2, "text" : "속에서도", "type" : "", "begin" : 2, "end" : 4},
		{"id" : 3, "text" : "항해사", "type" : "", "begin" : 5, "end" : 6},
		{"id" : 4, "text" : "바스코", "type" : "", "begin" : 7, "end" : 7},
		{"id" : 5, "text" : "다", "type" : "", "begin" : 8, "end" : 8},
		{"id" : 6, "text" : "가마가", "type" : "", "begin" : 9, "end" : 10},
		{"id" : 7, "text" : "이끄는", "type" : "", "begin" : 11, "end" : 12},
		{"id" : 8, "text" : "포르투갈", "type" : "", "begin" : 13, "end" : 13},
		{"id" : 9, "text" : "선단이", "type" : "", "begin" : 14, "end" : 15},
		{"id" : 10, "text" : "1498년", "type" : "", "begin" : 16, "end" : 17},
		{"id" : 11, "text" : "인도의", "type" : "", "begin" : 18, "end" : 19},
		{"id" : 12, "text" : "고아에", "type" : "", "begin" : 20, "end" : 21},
		{"id" : 13, "text" : "입항하는데", "type" : "", "begin" : 22, "end" : 24},
		{"id" : 14, "text" : "성공했고", "type" : "", "begin" : 25, "end" : 28},
		{"id" : 15, "text" : "향신료를", "type" : "", "begin" : 29, "end" : 31},
		{"id" : 16, "text" : "잔뜩", "type" : "", "begin" : 32, "end" : 32},
		{"id" : 17, "text" : "싣고", "type" : "", "begin" : 33, "end" : 34},
		{"id" : 18, "text" : "리스본으로", "type" : "", "begin" : 35, "end" : 36},
		{"id" : 19, "text" : "돌아왔다.", "type" : "", "begin" : 37, "end" : 40}
	],
	"NE" : [
	],
	"chunk" : [
	],
	"dependency" : [
	],
	"phrase_dependency" : [
	],
	"SRL" : [
		{"verb" : "이끌", "sense" : 1, "word_id" : 7, "weight" : 0.258665,
			"argument" : [
				{"type" : "ARG0", "word_id" : 6, "text" : "가마가", "weight" : 0.3447 },
				{"type" : "ARG1", "word_id" : 9, "text" : "선단이", "weight" : 0.17263 }
			] },
		{"verb" : "입항", "sense" : 1, "word_id" : 13, "weight" : 0.209062,
			"argument" : [
				{"type" : "ARG1", "word_id" : 9, "text" : "선단이", "weight" : 0.284337 },
				{"type" : "ARGM-TMP", "word_id" : 10, "text" : "1498년", "weight" : 0.227666 },
				{"type" : "ARG2", "word_id" : 12, "text" : "고아에", "weight" : 0.115183 }
			] },
		{"verb" : "성공", "sense" : 1, "word_id" : 14, "weight" : 0,
			"argument" : [
				{"type" : "ARG0", "word_id" : 9, "text" : "선단이", "weight" : 1 },
				{"type" : "ARG1", "word_id" : 13, "text" : "입항하는데", "weight" : 1 }
			] },
		{"verb" : "싣", "sense" : 1, "word_id" : 17, "weight" : 0.170834,
			"argument" : [
				{"type" : "ARG1", "word_id" : 15, "text" : "향신료를", "weight" : 0.228231 },
				{"type" : "ARGM-EXT", "word_id" : 16, "text" : "잔뜩", "weight" : 0.113438 }
			] },
		{"verb" : "돌아오", "sense" : 1, "word_id" : 19, "weight" : 0.209934,
			"argument" : [
				{"type" : "ARG3", "word_id" : 18, "text" : "리스본으로", "weight" : 0.209934 }
			] }
	],
	"relation" : [
	],
	"SA" : [
	],
	"ZA" : [
	]
	},
	{
	"id" : 1,
	"reserve_str" : "",
	"text" : " 유럽인들은 이제 이슬람의 횡포에서 벗어나 정상적인 가격으로 후추를 살 수 있을 것이라 믿었다.",
	"morp" : [
	],
	"morp_eval" : [
	],
	"WSD" : [
	],
	"word" : [
		{"id" : 0, "text" : "유럽인들은", "type" : "", "begin" : 0, "end" : 3},
		{"id" : 1, "text" : "이제", "type" : "", "begin" : 4, "end" : 4},
		{"id" : 2, "text" : "이슬람의", "type" : "", "begin" : 5, "end" : 6},
		{"id" : 3, "text" : "횡포에서", "type" : "", "begin" : 7, "end" : 8},
		{"id" : 4, "text" : "벗어나", "type" : "", "begin" : 9, "end" : 10},
		{"id" : 5, "text" : "정상적인", "type" : "", "begin" : 11, "end" : 14},
		{"id" : 6, "text" : "가격으로", "type" : "", "begin" : 15, "end" : 16},
		{"id" : 7, "text" : "후추를", "type" : "", "begin" : 17, "end" : 18},
		{"id" : 8, "text" : "살", "type" : "", "begin" : 19, "end" : 20},
		{"id" : 9, "text" : "수", "type" : "", "begin" : 21, "end" : 21},
		{"id" : 10, "text" : "있을", "type" : "", "begin" : 22, "end" : 23},
		{"id" : 11, "text" : "것이라", "type" : "", "begin" : 24, "end" : 26},
		{"id" : 12, "text" : "믿었다.", "type" : "", "begin" : 27, "end" : 30}
	],
	"NE" : [
	],
	"chunk" : [
	],
	"dependency" : [
	],
	"phrase_dependency" : [
	],
	"SRL" : [
		{"verb" : "벗어나", "sense" : 1, "word_id" : 4, "weight" : 0.167108,
			"argument" : [
				{"type" : "ARG0", "word_id" : 0, "text" : "유럽인들은", "weight" : 0.265676 },
				{"type" : "ARGM-TMP", "word_id" : 1, "text" : "이제", "weight" : 0.148258 },
				{"type" : "ARG1", "word_id" : 3, "text" : "횡포에서", "weight" : 1 }
			] },
		{"verb" : "사", "sense" : 1, "word_id" : 8, "weight" : 0.267604,
			"argument" : [
				{"type" : "ARGM-CND", "word_id" : 6, "text" : "가격으로", "weight" : 1 },
				{"type" : "ARG1", "word_id" : 7, "text" : "후추를", "weight" : 0.139487 },
				{"type" : "AUX", "word_id" : 10, "text" : "있을", "weight" : 0.560441 },
				{"type" : "AUX", "word_id" : 11, "text" : "것이라", "weight" : 0.302316 },
				{"type" : "ARG0", "word_id" : 0, "text" : "유럽인들은", "weight" : 1 }
			] },
		{"verb" : "믿", "sense" : 1, "word_id" : 12, "weight" : 0.322071,
			"argument" : [
				{"type" : "ARG1", "word_id" : 11, "text" : "것이라", "weight" : 0.322071 },
				{"type" : "ARG0", "word_id" : 0, "text" : "유럽인들은", "weight" : 1 }
			] }
	],
	"relation" : [
	],
	"SA" : [
	],
	"ZA" : [
	]
	},
	{
	"id" : 2,
	"reserve_str" : "",
	"text" : " 그러나 이후로 향신료 무역은 포르투갈이 독점하게 되고 전 유럽의 돈은 리스본으로 모여들었다.",
	"morp" : [
	],
	"morp_eval" : [
	],
	"WSD" : [
	],
	"word" : [
		{"id" : 0, "text" : "그러나", "type" : "", "begin" : 0, "end" : 0},
		{"id" : 1, "text" : "이후로", "type" : "", "begin" : 1, "end" : 2},
		{"id" : 2, "text" : "향신료", "type" : "", "begin" : 3, "end" : 4},
		{"id" : 3, "text" : "무역은", "type" : "", "begin" : 5, "end" : 6},
		{"id" : 4, "text" : "포르투갈이", "type" : "", "begin" : 7, "end" : 8},
		{"id" : 5, "text" : "독점하게", "type" : "", "begin" : 9, "end" : 11},
		{"id" : 6, "text" : "되고", "type" : "", "begin" : 12, "end" : 13},
		{"id" : 7, "text" : "전", "type" : "", "begin" : 14, "end" : 14},
		{"id" : 8, "text" : "유럽의", "type" : "", "begin" : 15, "end" : 16},
		{"id" : 9, "text" : "돈은", "type" : "", "begin" : 17, "end" : 18},
		{"id" : 10, "text" : "리스본으로", "type" : "", "begin" : 19, "end" : 20},
		{"id" : 11, "text" : "모여들었다.", "type" : "", "begin" : 21, "end" : 24}
	],
	"NE" : [
	],
	"chunk" : [
	],
	"dependency" : [
	],
	"phrase_dependency" : [
	],
	"SRL" : [
		{"verb" : "독점", "sense" : 1, "word_id" : 5, "weight" : 0.219386,
			"argument" : [
				{"type" : "ARGM-DIS", "word_id" : 0, "text" : "그러나", "weight" : 0.174814 },
				{"type" : "ARGM-TMP", "word_id" : 1, "text" : "이후로", "weight" : 0.1265 },
				{"type" : "ARG1", "word_id" : 3, "text" : "무역은", "weight" : 0.116183 },
				{"type" : "ARG0", "word_id" : 4, "text" : "포르투갈이", "weight" : 0.173149 },
				{"type" : "AUX", "word_id" : 6, "text" : "되고", "weight" : 0.506281 }
			] },
		{"verb" : "모여들", "sense" : 1, "word_id" : 11, "weight" : 0.22362,
			"argument" : [
				{"type" : "ARG0", "word_id" : 9, "text" : "돈은", "weight" : 0.321072 },
				{"type" : "ARG2", "word_id" : 10, "text" : "리스본으로", "weight" : 0.126168 },
				{"type" : "ARGM-CAU", "word_id" : 6, "text" : "되고", "weight" : 1 }
			] }
	],
	"relation" : [
	],
	"SA" : [
	],
	"ZA" : [
	]
	}
 ],
 "entity" : [
 ]
}

