{"doc_id" : "",
 "DCT" : "",
 "category" : "",
 "category_weight" : 0,
 "title" : {"text" : "죽방렴", "NE" : ""},
 "metaInfo" : { },
 "sentence" : [
	{
	"id" : 0,
	"reserve_str" : "",
	"text" : "일명 대나무 어사리라고 하는데, 참나무나 대나무를 개펄에다 박고 주렴처럼 엮어서 그물을 조류와 역방향으로 설치하여 그 속에 갇힌 고기를 간조시에 걷는 전통적인 어업 방식.",
	"morp" : [
	],
	"morp_eval" : [
	],
	"WSD" : [
	],
	"word" : [
		{"id" : 0, "text" : "일명", "type" : "", "begin" : 0, "end" : 0},
		{"id" : 1, "text" : "대나무", "type" : "", "begin" : 1, "end" : 2},
		{"id" : 2, "text" : "어사리라고", "type" : "", "begin" : 3, "end" : 6},
		{"id" : 3, "text" : "하는데,", "type" : "", "begin" : 7, "end" : 9},
		{"id" : 4, "text" : "참나무나", "type" : "", "begin" : 10, "end" : 12},
		{"id" : 5, "text" : "대나무를", "type" : "", "begin" : 13, "end" : 15},
		{"id" : 6, "text" : "개펄에다", "type" : "", "begin" : 16, "end" : 17},
		{"id" : 7, "text" : "박고", "type" : "", "begin" : 18, "end" : 19},
		{"id" : 8, "text" : "주렴처럼", "type" : "", "begin" : 20, "end" : 21},
		{"id" : 9, "text" : "엮어서", "type" : "", "begin" : 22, "end" : 23},
		{"id" : 10, "text" : "그물을", "type" : "", "begin" : 24, "end" : 25},
		{"id" : 11, "text" : "조류와", "type" : "", "begin" : 26, "end" : 27},
		{"id" : 12, "text" : "역방향으로", "type" : "", "begin" : 28, "end" : 30},
		{"id" : 13, "text" : "설치하여", "type" : "", "begin" : 31, "end" : 33},
		{"id" : 14, "text" : "그", "type" : "", "begin" : 34, "end" : 34},
		{"id" : 15, "text" : "속에", "type" : "", "begin" : 35, "end" : 36},
		{"id" : 16, "text" : "갇힌", "type" : "", "begin" : 37, "end" : 38},
		{"id" : 17, "text" : "고기를", "type" : "", "begin" : 39, "end" : 40},
		{"id" : 18, "text" : "간조시에", "type" : "", "begin" : 41, "end" : 43},
		{"id" : 19, "text" : "걷는", "type" : "", "begin" : 44, "end" : 45},
		{"id" : 20, "text" : "전통적인", "type" : "", "begin" : 46, "end" : 49},
		{"id" : 21, "text" : "어업", "type" : "", "begin" : 50, "end" : 50},
		{"id" : 22, "text" : "방식.", "type" : "", "begin" : 51, "end" : 52}
	],
	"NE" : [
	],
	"chunk" : [
	],
	"dependency" : [
	],
	"phrase_dependency" : [
	],
	"SRL" : [
		{"verb" : "하", "sense" : 2, "word_id" : 3, "weight" : 0.204266,
			"argument" : [
				{"type" : "ARG1", "word_id" : 2, "text" : "어사리라고", "weight" : 0.204266 }
			] },
		{"verb" : "박", "sense" : 1, "word_id" : 7, "weight" : 0.212753,
			"argument" : [
				{"type" : "ARG1", "word_id" : 5, "text" : "대나무를", "weight" : 0.305146 },
				{"type" : "ARG2", "word_id" : 6, "text" : "개펄에다", "weight" : 0.12036 }
			] },
		{"verb" : "엮", "sense" : 1, "word_id" : 9, "weight" : 0.949655,
			"argument" : [
				{"type" : "ARGM-MNR", "word_id" : 8, "text" : "주렴처럼", "weight" : 0.949655 }
			] },
		{"verb" : "설치", "sense" : 1, "word_id" : 13, "weight" : 0.133198,
			"argument" : [
				{"type" : "ARG1", "word_id" : 10, "text" : "그물을", "weight" : 0.169453 },
				{"type" : "ARGM-DIR", "word_id" : 12, "text" : "역방향으로", "weight" : 0.969418 }
			] },
		{"verb" : "가두", "sense" : 1, "word_id" : 16, "weight" : 0.232485,
			"argument" : [
				{"type" : "ARG2", "word_id" : 15, "text" : "속에", "weight" : 0.14219 },
				{"type" : "ARG1", "word_id" : 17, "text" : "고기를", "weight" : 0.32278 }
			] },
		{"verb" : "걷", "sense" : 1, "word_id" : 19, "weight" : 0.201095,
			"argument" : [
				{"type" : "ARG1", "word_id" : 17, "text" : "고기를", "weight" : 0.32662 },
				{"type" : "ARGM-CND", "word_id" : 18, "text" : "간조시에", "weight" : 1 }
			] }
	],
	"relation" : [
	],
	"SA" : [
	],
	"ZA" : [
	]
	}
 ],
 "entity" : [
 ]
}

