{"doc_id" : "937035",
 "DCT" : "",
 "category" : "",
 "category_weight" : 0,
 "title" : {"text" : "서우젯소리", "NE" : ""},
 "metaInfo" : { },
 "sentence" : [
	{
	"id" : 0,
	"reserve_str" : "",
	"text" : "제주도 해녀(海女)놀이에 나오는 노래의 한 곡명.",
	"morp" : [
	],
	"morp_eval" : [
	],
	"WSD" : [
	],
	"word" : [
		{"id" : 0, "text" : "제주도", "type" : "", "begin" : 0, "end" : 0},
		{"id" : 1, "text" : "해녀(海女)놀이에", "type" : "", "begin" : 1, "end" : 6},
		{"id" : 2, "text" : "나오는", "type" : "", "begin" : 7, "end" : 8},
		{"id" : 3, "text" : "노래의", "type" : "", "begin" : 9, "end" : 10},
		{"id" : 4, "text" : "한", "type" : "", "begin" : 11, "end" : 11},
		{"id" : 5, "text" : "곡명.", "type" : "", "begin" : 12, "end" : 13}
	],
	"NE" : [
	],
	"chunk" : [
	],
	"dependency" : [
	],
	"phrase_dependency" : [
	],
	"SRL" : [
		{"verb" : "나오", "sense" : 1, "word_id" : 2, "weight" : 0.140682,
			"argument" : [
				{"type" : "ARG2", "word_id" : 1, "text" : "해녀(海女)놀이에", "weight" : 0.163407 },
				{"type" : "ARG0", "word_id" : 3, "text" : "노래의", "weight" : 0.117958 }
			] }
	],
	"relation" : [
	],
	"SA" : [
	],
	"ZA" : [
	]
	},
	{
	"id" : 1,
	"reserve_str" : "",
	"text" : " 일명 \"서우제소리\".",
	"morp" : [
	],
	"morp_eval" : [
	],
	"WSD" : [
	],
	"word" : [
		{"id" : 0, "text" : "일명", "type" : "", "begin" : 0, "end" : 0},
		{"id" : 1, "text" : "\"서우제소리\".", "type" : "", "begin" : 1, "end" : 6}
	],
	"NE" : [
	],
	"chunk" : [
	],
	"dependency" : [
	],
	"phrase_dependency" : [
	],
	"SRL" : [
	],
	"relation" : [
	],
	"SA" : [
	],
	"ZA" : [
	]
	}
 ],
 "entity" : [
 ]
}

