{"doc_id" : "937003",
 "DCT" : "",
 "category" : "",
 "category_weight" : 0,
 "title" : {"text" : "Q3", "NE" : ""},
 "metaInfo" : { },
 "sentence" : [
	{
	"id" : 0,
	"reserve_str" : "",
	"text" : "신문에는 일반적인 기사 외에 특정한 소식을 담은 부분이 있다.",
	"morp" : [
	],
	"morp_eval" : [
	],
	"WSD" : [
	],
	"word" : [
		{"id" : 0, "text" : "신문에는", "type" : "", "begin" : 0, "end" : 2},
		{"id" : 1, "text" : "일반적인", "type" : "", "begin" : 3, "end" : 6},
		{"id" : 2, "text" : "기사", "type" : "", "begin" : 7, "end" : 7},
		{"id" : 3, "text" : "외에", "type" : "", "begin" : 8, "end" : 9},
		{"id" : 4, "text" : "특정한", "type" : "", "begin" : 10, "end" : 12},
		{"id" : 5, "text" : "소식을", "type" : "", "begin" : 13, "end" : 14},
		{"id" : 6, "text" : "담은", "type" : "", "begin" : 15, "end" : 16},
		{"id" : 7, "text" : "부분이", "type" : "", "begin" : 17, "end" : 18},
		{"id" : 8, "text" : "있다.", "type" : "", "begin" : 19, "end" : 21}
	],
	"NE" : [
	],
	"chunk" : [
	],
	"dependency" : [
	],
	"phrase_dependency" : [
	],
	"SRL" : [
		{"verb" : "특정", "sense" : 1, "word_id" : 4, "weight" : 0.351952,
			"argument" : [
				{"type" : "ARG1", "word_id" : 5, "text" : "소식을", "weight" : 0.351952 }
			] },
		{"verb" : "담", "sense" : 1, "word_id" : 6, "weight" : 0.256798,
			"argument" : [
				{"type" : "ARG1", "word_id" : 5, "text" : "소식을", "weight" : 0.314452 },
				{"type" : "ARG2", "word_id" : 7, "text" : "부분이", "weight" : 0.199145 },
				{"type" : "ARGM-PRD", "word_id" : 3, "text" : "외에", "weight" : 1 }
			] },
		{"verb" : "있", "sense" : 1, "word_id" : 8, "weight" : 0.155957,
			"argument" : [
				{"type" : "ARG2", "word_id" : 0, "text" : "신문에는", "weight" : 0.941178 },
				{"type" : "ARG1", "word_id" : 7, "text" : "부분이", "weight" : 0.217797 }
			] }
	],
	"relation" : [
	],
	"SA" : [
	],
	"ZA" : [
	]
	},
	{
	"id" : 1,
	"reserve_str" : "",
	"text" : " 그 중 회사의 광고를 알리는 부분은 무엇일까?",
	"morp" : [
	],
	"morp_eval" : [
	],
	"WSD" : [
	],
	"word" : [
		{"id" : 0, "text" : "그", "type" : "", "begin" : 0, "end" : 0},
		{"id" : 1, "text" : "중", "type" : "", "begin" : 1, "end" : 1},
		{"id" : 2, "text" : "회사의", "type" : "", "begin" : 2, "end" : 3},
		{"id" : 3, "text" : "광고를", "type" : "", "begin" : 4, "end" : 5},
		{"id" : 4, "text" : "알리는", "type" : "", "begin" : 6, "end" : 7},
		{"id" : 5, "text" : "부분은", "type" : "", "begin" : 8, "end" : 9},
		{"id" : 6, "text" : "무엇일까?", "type" : "", "begin" : 10, "end" : 13}
	],
	"NE" : [
	],
	"chunk" : [
	],
	"dependency" : [
	],
	"phrase_dependency" : [
	],
	"SRL" : [
		{"verb" : "알", "sense" : 1, "word_id" : 4, "weight" : 0.123882,
			"argument" : [
				{"type" : "ARGM-EXT", "word_id" : 1, "text" : "중", "weight" : 0.101224 },
				{"type" : "ARG1", "word_id" : 3, "text" : "광고를", "weight" : 0.156792 }
			] }
	],
	"relation" : [
	],
	"SA" : [
	],
	"ZA" : [
	]
	}
 ],
 "entity" : [
 ]
}

