{"doc_id" : "",
 "DCT" : "",
 "category" : "",
 "category_weight" : 0,
 "title" : {"text" : "이립", "NE" : ""},
 "metaInfo" : { },
 "sentence" : [
	{
	"id" : 0,
	"reserve_str" : "",
	"text" : "서른 살을 달리 이르는 말.",
	"morp" : [
	],
	"morp_eval" : [
	],
	"WSD" : [
	],
	"word" : [
		{"id" : 0, "text" : "서른", "type" : "", "begin" : 0, "end" : 0},
		{"id" : 1, "text" : "살을", "type" : "", "begin" : 1, "end" : 2},
		{"id" : 2, "text" : "달리", "type" : "", "begin" : 3, "end" : 3},
		{"id" : 3, "text" : "이르는", "type" : "", "begin" : 4, "end" : 5},
		{"id" : 4, "text" : "말.", "type" : "", "begin" : 6, "end" : 7}
	],
	"NE" : [
	],
	"chunk" : [
	],
	"dependency" : [
	],
	"phrase_dependency" : [
	],
	"SRL" : [
		{"verb" : "이르", "sense" : 4, "word_id" : 3, "weight" : 0.184248,
			"argument" : [
				{"type" : "ARG1", "word_id" : 1, "text" : "살을", "weight" : 1 },
				{"type" : "ARGM-MNR", "word_id" : 2, "text" : "달리", "weight" : 1 },
				{"type" : "ARG2", "word_id" : 4, "text" : "말.", "weight" : 1 }
			] }
	],
	"relation" : [
	],
	"SA" : [
	],
	"ZA" : [
	]
	},
	{
	"id" : 1,
	"reserve_str" : "",
	"text" : " ≪논어≫ <위정편(爲政篇)>에서, 공자가 서른 살에 자립했다고 한 데서 나온 말이다.",
	"morp" : [
	],
	"morp_eval" : [
	],
	"WSD" : [
	],
	"word" : [
		{"id" : 0, "text" : "≪논어≫", "type" : "", "begin" : 0, "end" : 2},
		{"id" : 1, "text" : "<위정편(爲政篇)>에서,", "type" : "", "begin" : 3, "end" : 10},
		{"id" : 2, "text" : "공자가", "type" : "", "begin" : 11, "end" : 12},
		{"id" : 3, "text" : "서른", "type" : "", "begin" : 13, "end" : 13},
		{"id" : 4, "text" : "살에", "type" : "", "begin" : 14, "end" : 15},
		{"id" : 5, "text" : "자립했다고", "type" : "", "begin" : 16, "end" : 19},
		{"id" : 6, "text" : "한", "type" : "", "begin" : 20, "end" : 20},
		{"id" : 7, "text" : "데서", "type" : "", "begin" : 21, "end" : 22},
		{"id" : 8, "text" : "나온", "type" : "", "begin" : 23, "end" : 24},
		{"id" : 9, "text" : "말이다.", "type" : "", "begin" : 25, "end" : 28}
	],
	"NE" : [
	],
	"chunk" : [
	],
	"dependency" : [
	],
	"phrase_dependency" : [
	],
	"SRL" : [
		{"verb" : "자립", "sense" : 1, "word_id" : 5, "weight" : 0.189781,
			"argument" : [
				{"type" : "ARG0", "word_id" : 2, "text" : "공자가", "weight" : 0.237624 },
				{"type" : "ARGM-TMP", "word_id" : 4, "text" : "살에", "weight" : 1 }
			] },
		{"verb" : "하", "sense" : 1, "word_id" : 6, "weight" : 0,
			"argument" : [
				{"type" : "ARG1", "word_id" : 5, "text" : "자립했다고", "weight" : 1 }
			] },
		{"verb" : "나오", "sense" : 1, "word_id" : 8, "weight" : 0.163673,
			"argument" : [
				{"type" : "ARG2", "word_id" : 7, "text" : "데서", "weight" : 0.136641 },
				{"type" : "ARG0", "word_id" : 9, "text" : "말이다.", "weight" : 0.190704 }
			] }
	],
	"relation" : [
	],
	"SA" : [
	],
	"ZA" : [
	]
	}
 ],
 "entity" : [
 ]
}

