{"doc_id" : "",
 "DCT" : "",
 "category" : "",
 "category_weight" : 0,
 "title" : {"text" : "장 바티스트 시메옹 샤르댕", "NE" : ""},
 "metaInfo" : { },
 "sentence" : [
	{
	"id" : 0,
	"reserve_str" : "",
	"text" : "1728년 6월의 성체(聖體) 축일에 거리에서 열린 청년화가 전람회에 《가오리》 《식기 선반》을 출품하여 호평을 받고, 다시 이 작품들을 아카데미에 제출하여 회원으로 추천받았다.",
	"morp" : [
	],
	"morp_eval" : [
	],
	"WSD" : [
	],
	"word" : [
		{"id" : 0, "text" : "1728년", "type" : "", "begin" : 0, "end" : 1},
		{"id" : 1, "text" : "6월의", "type" : "", "begin" : 2, "end" : 4},
		{"id" : 2, "text" : "성체(聖體)", "type" : "", "begin" : 5, "end" : 8},
		{"id" : 3, "text" : "축일에", "type" : "", "begin" : 9, "end" : 10},
		{"id" : 4, "text" : "거리에서", "type" : "", "begin" : 11, "end" : 12},
		{"id" : 5, "text" : "열린", "type" : "", "begin" : 13, "end" : 14},
		{"id" : 6, "text" : "청년화가", "type" : "", "begin" : 15, "end" : 16},
		{"id" : 7, "text" : "전람회에", "type" : "", "begin" : 17, "end" : 19},
		{"id" : 8, "text" : "《가오리》", "type" : "", "begin" : 20, "end" : 22},
		{"id" : 9, "text" : "《식기", "type" : "", "begin" : 23, "end" : 24},
		{"id" : 10, "text" : "선반》을", "type" : "", "begin" : 25, "end" : 27},
		{"id" : 11, "text" : "출품하여", "type" : "", "begin" : 28, "end" : 30},
		{"id" : 12, "text" : "호평을", "type" : "", "begin" : 31, "end" : 32},
		{"id" : 13, "text" : "받고,", "type" : "", "begin" : 33, "end" : 35},
		{"id" : 14, "text" : "다시", "type" : "", "begin" : 36, "end" : 36},
		{"id" : 15, "text" : "이", "type" : "", "begin" : 37, "end" : 37},
		{"id" : 16, "text" : "작품들을", "type" : "", "begin" : 38, "end" : 40},
		{"id" : 17, "text" : "아카데미에", "type" : "", "begin" : 41, "end" : 42},
		{"id" : 18, "text" : "제출하여", "type" : "", "begin" : 43, "end" : 45},
		{"id" : 19, "text" : "회원으로", "type" : "", "begin" : 46, "end" : 47},
		{"id" : 20, "text" : "추천받았다.", "type" : "", "begin" : 48, "end" : 52}
	],
	"NE" : [
	],
	"chunk" : [
	],
	"dependency" : [
	],
	"phrase_dependency" : [
	],
	"SRL" : [
		{"verb" : "열", "sense" : 1, "word_id" : 5, "weight" : 0.176102,
			"argument" : [
				{"type" : "ARGM-TMP", "word_id" : 3, "text" : "축일에", "weight" : 0.745724 },
				{"type" : "ARGM-LOC", "word_id" : 4, "text" : "거리에서", "weight" : 0.148427 },
				{"type" : "ARG1", "word_id" : 7, "text" : "전람회에", "weight" : 0.305308 }
			] },
		{"verb" : "출품", "sense" : 1, "word_id" : 11, "weight" : 0.228288,
			"argument" : [
				{"type" : "ARG2", "word_id" : 7, "text" : "전람회에", "weight" : 1 },
				{"type" : "ARG1", "word_id" : 10, "text" : "선반》을", "weight" : 1 }
			] },
		{"verb" : "받", "sense" : 1, "word_id" : 13, "weight" : 0.222263,
			"argument" : [
				{"type" : "ARGM-CAU", "word_id" : 11, "text" : "출품하여", "weight" : 0.103188 },
				{"type" : "ARG1", "word_id" : 12, "text" : "호평을", "weight" : 0.341338 }
			] },
		{"verb" : "제출", "sense" : 1, "word_id" : 18, "weight" : 0.214539,
			"argument" : [
				{"type" : "ARGM-ADV", "word_id" : 14, "text" : "다시", "weight" : 0.154197 },
				{"type" : "ARG1", "word_id" : 16, "text" : "작품들을", "weight" : 0.26352 },
				{"type" : "ARG2", "word_id" : 17, "text" : "아카데미에", "weight" : 0.2259 }
			] },
		{"verb" : "추천", "sense" : 1, "word_id" : 20, "weight" : 0.984269,
			"argument" : [
				{"type" : "ARGM-CAU", "word_id" : 18, "text" : "제출하여", "weight" : 0.856925 },
				{"type" : "ARG2", "word_id" : 19, "text" : "회원으로", "weight" : 0.111161 }
			] }
	],
	"relation" : [
	],
	"SA" : [
	],
	"ZA" : [
	]
	},
	{
	"id" : 1,
	"reserve_str" : "",
	"text" : "  만년에 파스텔로 초상화를 그렸는데, 1771년의 《자화상》과 1775년의 《아내의 초상》은 탁월하여, 당시 파스텔 초상화의 으뜸으로 일컫던 라투르를 능가한 예리한 색감과 기법의 확실성을 보여주었다.",
	"morp" : [
	],
	"morp_eval" : [
	],
	"WSD" : [
	],
	"word" : [
		{"id" : 0, "text" : "만년에", "type" : "", "begin" : 0, "end" : 1},
		{"id" : 1, "text" : "파스텔로", "type" : "", "begin" : 2, "end" : 3},
		{"id" : 2, "text" : "초상화를", "type" : "", "begin" : 4, "end" : 6},
		{"id" : 3, "text" : "그렸는데,", "type" : "", "begin" : 7, "end" : 10},
		{"id" : 4, "text" : "1771년의", "type" : "", "begin" : 11, "end" : 13},
		{"id" : 5, "text" : "《자화상》과", "type" : "", "begin" : 14, "end" : 18},
		{"id" : 6, "text" : "1775년의", "type" : "", "begin" : 19, "end" : 21},
		{"id" : 7, "text" : "《아내의", "type" : "", "begin" : 22, "end" : 24},
		{"id" : 8, "text" : "초상》은", "type" : "", "begin" : 25, "end" : 27},
		{"id" : 9, "text" : "탁월하여,", "type" : "", "begin" : 28, "end" : 30},
		{"id" : 10, "text" : "당시", "type" : "", "begin" : 31, "end" : 31},
		{"id" : 11, "text" : "파스텔", "type" : "", "begin" : 32, "end" : 32},
		{"id" : 12, "text" : "초상화의", "type" : "", "begin" : 33, "end" : 35},
		{"id" : 13, "text" : "으뜸으로", "type" : "", "begin" : 36, "end" : 37},
		{"id" : 14, "text" : "일컫던", "type" : "", "begin" : 38, "end" : 39},
		{"id" : 15, "text" : "라투르를", "type" : "", "begin" : 40, "end" : 41},
		{"id" : 16, "text" : "능가한", "type" : "", "begin" : 42, "end" : 44},
		{"id" : 17, "text" : "예리한", "type" : "", "begin" : 45, "end" : 46},
		{"id" : 18, "text" : "색감과", "type" : "", "begin" : 47, "end" : 48},
		{"id" : 19, "text" : "기법의", "type" : "", "begin" : 49, "end" : 50},
		{"id" : 20, "text" : "확실성을", "type" : "", "begin" : 51, "end" : 53},
		{"id" : 21, "text" : "보여주었다.", "type" : "", "begin" : 54, "end" : 59}
	],
	"NE" : [
	],
	"chunk" : [
	],
	"dependency" : [
	],
	"phrase_dependency" : [
	],
	"SRL" : [
		{"verb" : "그리", "sense" : 1, "word_id" : 3, "weight" : 0.182207,
			"argument" : [
				{"type" : "ARGM-TMP", "word_id" : 0, "text" : "만년에", "weight" : 0.670416 },
				{"type" : "ARGM-INS", "word_id" : 1, "text" : "파스텔로", "weight" : 0.928153 },
				{"type" : "ARG1", "word_id" : 2, "text" : "초상화를", "weight" : 0.386764 }
			] },
		{"verb" : "탁월하", "sense" : 1, "word_id" : 9, "weight" : 0.171515,
			"argument" : [
				{"type" : "ARG1", "word_id" : 8, "text" : "초상》은", "weight" : 0.171515 }
			] },
		{"verb" : "일컫", "sense" : 1, "word_id" : 14, "weight" : 0.160466,
			"argument" : [
				{"type" : "ARGM-TMP", "word_id" : 10, "text" : "당시", "weight" : 0.193181 },
				{"type" : "ARG2", "word_id" : 13, "text" : "으뜸으로", "weight" : 0.118297 },
				{"type" : "ARG1", "word_id" : 15, "text" : "라투르를", "weight" : 0.169919 }
			] },
		{"verb" : "능가", "sense" : 1, "word_id" : 16, "weight" : 0.167164,
			"argument" : [
				{"type" : "ARG1", "word_id" : 15, "text" : "라투르를", "weight" : 0.167164 }
			] },
		{"verb" : "보", "sense" : 1, "word_id" : 21, "weight" : 0.340862,
			"argument" : [
				{"type" : "ARG1", "word_id" : 20, "text" : "확실성을", "weight" : 0.340862 },
				{"type" : "ARGM-CAU", "word_id" : 9, "text" : "탁월하여,", "weight" : 1 }
			] }
	],
	"relation" : [
	],
	"SA" : [
	],
	"ZA" : [
	]
	}
 ],
 "entity" : [
 ]
}

