{"doc_id" : "",
 "DCT" : "",
 "category" : "",
 "category_weight" : 0,
 "title" : {"text" : "Q32", "NE" : ""},
 "metaInfo" : { },
 "sentence" : [
	{
	"id" : 0,
	"reserve_str" : "",
	"text" : "유하 시인은 <자동문 앞에서>라는 시에서 현대 문명에 익숙해진 사람들을 이 동물에 빗대어 비판적으로 표현했다.",
	"morp" : [
	],
	"morp_eval" : [
	],
	"WSD" : [
	],
	"word" : [
		{"id" : 0, "text" : "유하", "type" : "", "begin" : 0, "end" : 0},
		{"id" : 1, "text" : "시인은", "type" : "", "begin" : 1, "end" : 2},
		{"id" : 2, "text" : "<자동문", "type" : "", "begin" : 3, "end" : 5},
		{"id" : 3, "text" : "앞에서>라는", "type" : "", "begin" : 6, "end" : 10},
		{"id" : 4, "text" : "시에서", "type" : "", "begin" : 11, "end" : 12},
		{"id" : 5, "text" : "현대", "type" : "", "begin" : 13, "end" : 13},
		{"id" : 6, "text" : "문명에", "type" : "", "begin" : 14, "end" : 15},
		{"id" : 7, "text" : "익숙해진", "type" : "", "begin" : 16, "end" : 19},
		{"id" : 8, "text" : "사람들을", "type" : "", "begin" : 20, "end" : 22},
		{"id" : 9, "text" : "이", "type" : "", "begin" : 23, "end" : 23},
		{"id" : 10, "text" : "동물에", "type" : "", "begin" : 24, "end" : 25},
		{"id" : 11, "text" : "빗대어", "type" : "", "begin" : 26, "end" : 27},
		{"id" : 12, "text" : "비판적으로", "type" : "", "begin" : 28, "end" : 30},
		{"id" : 13, "text" : "표현했다.", "type" : "", "begin" : 31, "end" : 35}
	],
	"NE" : [
	],
	"chunk" : [
	],
	"dependency" : [
	],
	"phrase_dependency" : [
	],
	"SRL" : [
		{"verb" : "익숙하", "sense" : 1, "word_id" : 7, "weight" : 0.161063,
			"argument" : [
				{"type" : "ARG2", "word_id" : 6, "text" : "문명에", "weight" : 0.114564 },
				{"type" : "ARG1", "word_id" : 8, "text" : "사람들을", "weight" : 0.207562 }
			] },
		{"verb" : "빗대", "sense" : 1, "word_id" : 11, "weight" : 0.190079,
			"argument" : [
				{"type" : "ARG1", "word_id" : 8, "text" : "사람들을", "weight" : 0.218074 },
				{"type" : "ARG2", "word_id" : 10, "text" : "동물에", "weight" : 0.162084 }
			] },
		{"verb" : "표현", "sense" : 1, "word_id" : 13, "weight" : 0.119163,
			"argument" : [
				{"type" : "ARG0", "word_id" : 1, "text" : "시인은", "weight" : 0.120322 },
				{"type" : "ARG1", "word_id" : 11, "text" : "빗대어", "weight" : 0.109716 },
				{"type" : "ARGM-MNR", "word_id" : 12, "text" : "비판적으로", "weight" : 0.127453 },
				{"type" : "ARGM-CND", "word_id" : 4, "text" : "시에서", "weight" : 1 }
			] }
	],
	"relation" : [
	],
	"SA" : [
	],
	"ZA" : [
	]
	},
	{
	"id" : 1,
	"reserve_str" : "",
	"text" : " 날지 못하는 새로 유명한 이 동물은 무엇일까?",
	"morp" : [
	],
	"morp_eval" : [
	],
	"WSD" : [
	],
	"word" : [
		{"id" : 0, "text" : "날지", "type" : "", "begin" : 0, "end" : 1},
		{"id" : 1, "text" : "못하는", "type" : "", "begin" : 2, "end" : 3},
		{"id" : 2, "text" : "새로", "type" : "", "begin" : 4, "end" : 4},
		{"id" : 3, "text" : "유명한", "type" : "", "begin" : 5, "end" : 7},
		{"id" : 4, "text" : "이", "type" : "", "begin" : 8, "end" : 8},
		{"id" : 5, "text" : "동물은", "type" : "", "begin" : 9, "end" : 10},
		{"id" : 6, "text" : "무엇일까?", "type" : "", "begin" : 11, "end" : 14}
	],
	"NE" : [
	],
	"chunk" : [
	],
	"dependency" : [
	],
	"phrase_dependency" : [
	],
	"SRL" : [
		{"verb" : "날", "sense" : 1, "word_id" : 0, "weight" : 0.261996,
			"argument" : [
				{"type" : "ARGM-NEG", "word_id" : 1, "text" : "못하는", "weight" : 0.384274 },
				{"type" : "ARG1", "word_id" : 5, "text" : "동물은", "weight" : 0.139718 },
				{"type" : "ARG0", "word_id" : 2, "text" : "새로", "weight" : 1 }
			] },
		{"verb" : "유명", "sense" : 1, "word_id" : 3, "weight" : 0.113725,
			"argument" : [
				{"type" : "ARG2", "word_id" : 2, "text" : "새로", "weight" : 0.116066 },
				{"type" : "ARG1", "word_id" : 5, "text" : "동물은", "weight" : 0.111384 }
			] }
	],
	"relation" : [
	],
	"SA" : [
	],
	"ZA" : [
	]
	}
 ],
 "entity" : [
 ]
}

