{"doc_id" : "",
 "DCT" : "",
 "category" : "",
 "category_weight" : 0,
 "title" : {"text" : "호민관", "NE" : ""},
 "metaInfo" : { },
 "sentence" : [
	{
	"id" : 0,
	"reserve_str" : "",
	"text" : "호민관은 평민회에서 선출했으며 민회를 소집하고 의장으로서 주재하며 평민들의 요구를 대변하고 그들의 권리를 옹호하는 일을 했다.",
	"morp" : [
	],
	"morp_eval" : [
	],
	"WSD" : [
	],
	"word" : [
		{"id" : 0, "text" : "호민관은", "type" : "", "begin" : 0, "end" : 2},
		{"id" : 1, "text" : "평민회에서", "type" : "", "begin" : 3, "end" : 5},
		{"id" : 2, "text" : "선출했으며", "type" : "", "begin" : 6, "end" : 9},
		{"id" : 3, "text" : "민회를", "type" : "", "begin" : 10, "end" : 11},
		{"id" : 4, "text" : "소집하고", "type" : "", "begin" : 12, "end" : 14},
		{"id" : 5, "text" : "의장으로서", "type" : "", "begin" : 15, "end" : 16},
		{"id" : 6, "text" : "주재하며", "type" : "", "begin" : 17, "end" : 19},
		{"id" : 7, "text" : "평민들의", "type" : "", "begin" : 20, "end" : 22},
		{"id" : 8, "text" : "요구를", "type" : "", "begin" : 23, "end" : 24},
		{"id" : 9, "text" : "대변하고", "type" : "", "begin" : 25, "end" : 27},
		{"id" : 10, "text" : "그들의", "type" : "", "begin" : 28, "end" : 30},
		{"id" : 11, "text" : "권리를", "type" : "", "begin" : 31, "end" : 32},
		{"id" : 12, "text" : "옹호하는", "type" : "", "begin" : 33, "end" : 35},
		{"id" : 13, "text" : "일을", "type" : "", "begin" : 36, "end" : 37},
		{"id" : 14, "text" : "했다.", "type" : "", "begin" : 38, "end" : 41}
	],
	"NE" : [
	],
	"chunk" : [
	],
	"dependency" : [
	],
	"phrase_dependency" : [
	],
	"SRL" : [
		{"verb" : "선출", "sense" : 1, "word_id" : 2, "weight" : 0.154579,
			"argument" : [
				{"type" : "ARG2", "word_id" : 0, "text" : "호민관은", "weight" : 1 },
				{"type" : "ARGM-CND", "word_id" : 1, "text" : "평민회에서", "weight" : 1 }
			] },
		{"verb" : "소집", "sense" : 1, "word_id" : 4, "weight" : 0.257607,
			"argument" : [
				{"type" : "ARG1", "word_id" : 3, "text" : "민회를", "weight" : 0.257607 },
				{"type" : "ARG0", "word_id" : 0, "text" : "호민관은", "weight" : 1 }
			] },
		{"verb" : "주재", "sense" : 1, "word_id" : 6, "weight" : 0.113829,
			"argument" : [
				{"type" : "ARGM-PRD", "word_id" : 5, "text" : "의장으로서", "weight" : 1 },
				{"type" : "ARG0", "word_id" : 0, "text" : "호민관은", "weight" : 1 },
				{"type" : "ARG1", "word_id" : 3, "text" : "민회를", "weight" : 1 }
			] },
		{"verb" : "대변", "sense" : 1, "word_id" : 9, "weight" : 0.327157,
			"argument" : [
				{"type" : "ARG1", "word_id" : 8, "text" : "요구를", "weight" : 0.327157 },
				{"type" : "ARG0", "word_id" : 0, "text" : "호민관은", "weight" : 1 }
			] },
		{"verb" : "옹호", "sense" : 1, "word_id" : 12, "weight" : 0.293133,
			"argument" : [
				{"type" : "ARG1", "word_id" : 11, "text" : "권리를", "weight" : 0.293133 },
				{"type" : "ARG0", "word_id" : 0, "text" : "호민관은", "weight" : 1 }
			] },
		{"verb" : "하", "sense" : 1, "word_id" : 14, "weight" : 0.33029,
			"argument" : [
				{"type" : "ARG0", "word_id" : 0, "text" : "호민관은", "weight" : 0.226765 },
				{"type" : "ARG1", "word_id" : 13, "text" : "일을", "weight" : 0.433814 }
			] }
	],
	"relation" : [
	],
	"SA" : [
	],
	"ZA" : [
	]
	},
	{
	"id" : 1,
	"reserve_str" : "",
	"text" : " 호민관의 의무와 기능은 정무관의 전횡을 막아달라고 자신에게 도움을 청하는 모든 평민들의 생명과 재산을 보호하는 것이었다.",
	"morp" : [
	],
	"morp_eval" : [
	],
	"WSD" : [
	],
	"word" : [
		{"id" : 0, "text" : "호민관의", "type" : "", "begin" : 0, "end" : 2},
		{"id" : 1, "text" : "의무와", "type" : "", "begin" : 3, "end" : 4},
		{"id" : 2, "text" : "기능은", "type" : "", "begin" : 5, "end" : 6},
		{"id" : 3, "text" : "정무관의", "type" : "", "begin" : 7, "end" : 9},
		{"id" : 4, "text" : "전횡을", "type" : "", "begin" : 10, "end" : 11},
		{"id" : 5, "text" : "막아달라고", "type" : "", "begin" : 12, "end" : 15},
		{"id" : 6, "text" : "자신에게", "type" : "", "begin" : 16, "end" : 17},
		{"id" : 7, "text" : "도움을", "type" : "", "begin" : 18, "end" : 19},
		{"id" : 8, "text" : "청하는", "type" : "", "begin" : 20, "end" : 22},
		{"id" : 9, "text" : "모든", "type" : "", "begin" : 23, "end" : 23},
		{"id" : 10, "text" : "평민들의", "type" : "", "begin" : 24, "end" : 26},
		{"id" : 11, "text" : "생명과", "type" : "", "begin" : 27, "end" : 28},
		{"id" : 12, "text" : "재산을", "type" : "", "begin" : 29, "end" : 30},
		{"id" : 13, "text" : "보호하는", "type" : "", "begin" : 31, "end" : 33},
		{"id" : 14, "text" : "것이었다.", "type" : "", "begin" : 34, "end" : 38}
	],
	"NE" : [
	],
	"chunk" : [
	],
	"dependency" : [
	],
	"phrase_dependency" : [
	],
	"SRL" : [
		{"verb" : "막", "sense" : 1, "word_id" : 5, "weight" : 0.286988,
			"argument" : [
				{"type" : "ARG1", "word_id" : 4, "text" : "전횡을", "weight" : 0.286988 }
			] },
		{"verb" : "청하", "sense" : 1, "word_id" : 8, "weight" : 0.159722,
			"argument" : [
				{"type" : "ARG2", "word_id" : 6, "text" : "자신에게", "weight" : 0.179494 },
				{"type" : "ARG1", "word_id" : 7, "text" : "도움을", "weight" : 0.207832 },
				{"type" : "ARG0", "word_id" : 10, "text" : "평민들의", "weight" : 0.918394 }
			] },
		{"verb" : "보호", "sense" : 1, "word_id" : 13, "weight" : 0.201934,
			"argument" : [
				{"type" : "ARG1", "word_id" : 12, "text" : "재산을", "weight" : 0.201934 },
				{"type" : "ARG0", "word_id" : 2, "text" : "기능은", "weight" : 1 }
			] }
	],
	"relation" : [
	],
	"SA" : [
	],
	"ZA" : [
	]
	}
 ],
 "entity" : [
 ]
}

