{"doc_id" : "",
 "DCT" : "",
 "category" : "",
 "category_weight" : 0,
 "title" : {"text" : "칼륨", "NE" : ""},
 "metaInfo" : { },
 "sentence" : [
	{
	"id" : 0,
	"reserve_str" : "",
	"text" : "<화학> 알칼리 금속 원소의 하나.",
	"morp" : [
	],
	"morp_eval" : [
	],
	"WSD" : [
	],
	"word" : [
		{"id" : 0, "text" : "<화학>", "type" : "", "begin" : 0, "end" : 2},
		{"id" : 1, "text" : "알칼리", "type" : "", "begin" : 3, "end" : 3},
		{"id" : 2, "text" : "금속", "type" : "", "begin" : 4, "end" : 4},
		{"id" : 3, "text" : "원소의", "type" : "", "begin" : 5, "end" : 6},
		{"id" : 4, "text" : "하나.", "type" : "", "begin" : 7, "end" : 8}
	],
	"NE" : [
	],
	"chunk" : [
	],
	"dependency" : [
	],
	"phrase_dependency" : [
	],
	"SRL" : [
	],
	"relation" : [
	],
	"SA" : [
	],
	"ZA" : [
	]
	},
	{
	"id" : 1,
	"reserve_str" : "",
	"text" : " 식물 회(灰) 가운데 탄산염으로 들어 있으며, 이온으로서 동식물의 생리에 중요한 역할을 한다.",
	"morp" : [
	],
	"morp_eval" : [
	],
	"WSD" : [
	],
	"word" : [
		{"id" : 0, "text" : "식물", "type" : "", "begin" : 0, "end" : 0},
		{"id" : 1, "text" : "회(灰)", "type" : "", "begin" : 1, "end" : 4},
		{"id" : 2, "text" : "가운데", "type" : "", "begin" : 5, "end" : 5},
		{"id" : 3, "text" : "탄산염으로", "type" : "", "begin" : 6, "end" : 8},
		{"id" : 4, "text" : "들어", "type" : "", "begin" : 9, "end" : 10},
		{"id" : 5, "text" : "있으며,", "type" : "", "begin" : 11, "end" : 13},
		{"id" : 6, "text" : "이온으로서", "type" : "", "begin" : 14, "end" : 15},
		{"id" : 7, "text" : "동식물의", "type" : "", "begin" : 16, "end" : 18},
		{"id" : 8, "text" : "생리에", "type" : "", "begin" : 19, "end" : 20},
		{"id" : 9, "text" : "중요한", "type" : "", "begin" : 21, "end" : 23},
		{"id" : 10, "text" : "역할을", "type" : "", "begin" : 24, "end" : 25},
		{"id" : 11, "text" : "한다.", "type" : "", "begin" : 26, "end" : 28}
	],
	"NE" : [
	],
	"chunk" : [
	],
	"dependency" : [
	],
	"phrase_dependency" : [
	],
	"SRL" : [
		{"verb" : "들", "sense" : 2, "word_id" : 4, "weight" : 0.266975,
			"argument" : [
				{"type" : "ARGM-CND", "word_id" : 2, "text" : "가운데", "weight" : 1 },
				{"type" : "ARG1", "word_id" : 3, "text" : "탄산염으로", "weight" : 1 },
				{"type" : "AUX", "word_id" : 5, "text" : "있으며,", "weight" : 0.54077 }
			] },
		{"verb" : "중요", "sense" : 1, "word_id" : 9, "weight" : 0.318686,
			"argument" : [
				{"type" : "ARG1", "word_id" : 10, "text" : "역할을", "weight" : 0.318686 }
			] },
		{"verb" : "하", "sense" : 1, "word_id" : 11, "weight" : 0.180936,
			"argument" : [
				{"type" : "ARG2", "word_id" : 8, "text" : "생리에", "weight" : 0.654333 },
				{"type" : "ARG1", "word_id" : 10, "text" : "역할을", "weight" : 0.296439 },
				{"type" : "ARGM-CND", "word_id" : 6, "text" : "이온으로서", "weight" : 1 }
			] }
	],
	"relation" : [
	],
	"SA" : [
	],
	"ZA" : [
	]
	},
	{
	"id" : 2,
	"reserve_str" : "",
	"text" : " 금속 원소 가운데 이온화 경향이 가장 큰 원소로서 산화하기 쉽고, 물에 넣으면 수소를 내고 수산화칼륨이 되며, 자줏빛의 불꽃을 내며 탄다.",
	"morp" : [
	],
	"morp_eval" : [
	],
	"WSD" : [
	],
	"word" : [
		{"id" : 0, "text" : "금속", "type" : "", "begin" : 0, "end" : 0},
		{"id" : 1, "text" : "원소", "type" : "", "begin" : 1, "end" : 1},
		{"id" : 2, "text" : "가운데", "type" : "", "begin" : 2, "end" : 2},
		{"id" : 3, "text" : "이온화", "type" : "", "begin" : 3, "end" : 4},
		{"id" : 4, "text" : "경향이", "type" : "", "begin" : 5, "end" : 6},
		{"id" : 5, "text" : "가장", "type" : "", "begin" : 7, "end" : 7},
		{"id" : 6, "text" : "큰", "type" : "", "begin" : 8, "end" : 9},
		{"id" : 7, "text" : "원소로서", "type" : "", "begin" : 10, "end" : 11},
		{"id" : 8, "text" : "산화하기", "type" : "", "begin" : 12, "end" : 14},
		{"id" : 9, "text" : "쉽고,", "type" : "", "begin" : 15, "end" : 17},
		{"id" : 10, "text" : "물에", "type" : "", "begin" : 18, "end" : 19},
		{"id" : 11, "text" : "넣으면", "type" : "", "begin" : 20, "end" : 21},
		{"id" : 12, "text" : "수소를", "type" : "", "begin" : 22, "end" : 23},
		{"id" : 13, "text" : "내고", "type" : "", "begin" : 24, "end" : 25},
		{"id" : 14, "text" : "수산화칼륨이", "type" : "", "begin" : 26, "end" : 28},
		{"id" : 15, "text" : "되며,", "type" : "", "begin" : 29, "end" : 31},
		{"id" : 16, "text" : "자줏빛의", "type" : "", "begin" : 32, "end" : 33},
		{"id" : 17, "text" : "불꽃을", "type" : "", "begin" : 34, "end" : 35},
		{"id" : 18, "text" : "내며", "type" : "", "begin" : 36, "end" : 37},
		{"id" : 19, "text" : "탄다.", "type" : "", "begin" : 38, "end" : 40}
	],
	"NE" : [
	],
	"chunk" : [
	],
	"dependency" : [
	],
	"phrase_dependency" : [
	],
	"SRL" : [
		{"verb" : "크", "sense" : 1, "word_id" : 6, "weight" : 0.228709,
			"argument" : [
				{"type" : "ARGM-CND", "word_id" : 2, "text" : "가운데", "weight" : 0.214387 },
				{"type" : "ARG1", "word_id" : 4, "text" : "경향이", "weight" : 0.185873 },
				{"type" : "ARGM-EXT", "word_id" : 5, "text" : "가장", "weight" : 0.283219 }
			] },
		{"verb" : "산화", "sense" : 1, "word_id" : 8, "weight" : 0.13737,
			"argument" : [
				{"type" : "ARGM-CND", "word_id" : 2, "text" : "가운데", "weight" : 0.134244 },
				{"type" : "ARGM-PRD", "word_id" : 7, "text" : "원소로서", "weight" : 1 }
			] },
		{"verb" : "쉽", "sense" : 1, "word_id" : 9, "weight" : 0.164915,
			"argument" : [
				{"type" : "ARG1", "word_id" : 8, "text" : "산화하기", "weight" : 0.164915 }
			] },
		{"verb" : "넣", "sense" : 1, "word_id" : 11, "weight" : 0.223158,
			"argument" : [
				{"type" : "ARG2", "word_id" : 10, "text" : "물에", "weight" : 0.223158 }
			] },
		{"verb" : "내", "sense" : 2, "word_id" : 13, "weight" : 0.164782,
			"argument" : [
				{"type" : "ARGM-CND", "word_id" : 11, "text" : "넣으면", "weight" : 1 },
				{"type" : "ARG1", "word_id" : 12, "text" : "수소를", "weight" : 1 }
			] },
		{"verb" : "되", "sense" : 1, "word_id" : 15, "weight" : 0.397794,
			"argument" : [
				{"type" : "ARG2", "word_id" : 14, "text" : "수산화칼륨이", "weight" : 0.397794 }
			] },
		{"verb" : "내", "sense" : 2, "word_id" : 18, "weight" : 0.196589,
			"argument" : [
				{"type" : "ARG1", "word_id" : 17, "text" : "불꽃을", "weight" : 1 }
			] },
		{"verb" : "타", "sense" : 1, "word_id" : 19, "weight" : 0.130765,
			"argument" : [
				{"type" : "ARGM-MNR", "word_id" : 18, "text" : "내며", "weight" : 0.130765 }
			] }
	],
	"relation" : [
	],
	"SA" : [
	],
	"ZA" : [
	]
	},
	{
	"id" : 3,
	"reserve_str" : "",
	"text" : " 환원제ㆍ칼륨 화합물의 원료로 쓴다.",
	"morp" : [
	],
	"morp_eval" : [
	],
	"WSD" : [
	],
	"word" : [
		{"id" : 0, "text" : "환원제ㆍ칼륨", "type" : "", "begin" : 0, "end" : 3},
		{"id" : 1, "text" : "화합물의", "type" : "", "begin" : 4, "end" : 6},
		{"id" : 2, "text" : "원료로", "type" : "", "begin" : 7, "end" : 8},
		{"id" : 3, "text" : "쓴다.", "type" : "", "begin" : 9, "end" : 11}
	],
	"NE" : [
	],
	"chunk" : [
	],
	"dependency" : [
	],
	"phrase_dependency" : [
	],
	"SRL" : [
		{"verb" : "쓰", "sense" : 1, "word_id" : 3, "weight" : 0.178586,
			"argument" : [
				{"type" : "ARG2", "word_id" : 2, "text" : "원료로", "weight" : 0.178586 }
			] }
	],
	"relation" : [
	],
	"SA" : [
	],
	"ZA" : [
	]
	},
	{
	"id" : 4,
	"reserve_str" : "",
	"text" : " 원자 기호는 K, 원자 번호는 19, 원자량은 39.0983.",
	"morp" : [
	],
	"morp_eval" : [
	],
	"WSD" : [
	],
	"word" : [
		{"id" : 0, "text" : "원자", "type" : "", "begin" : 0, "end" : 0},
		{"id" : 1, "text" : "기호는", "type" : "", "begin" : 1, "end" : 2},
		{"id" : 2, "text" : "K,", "type" : "", "begin" : 3, "end" : 4},
		{"id" : 3, "text" : "원자", "type" : "", "begin" : 5, "end" : 5},
		{"id" : 4, "text" : "번호는", "type" : "", "begin" : 6, "end" : 7},
		{"id" : 5, "text" : "19,", "type" : "", "begin" : 8, "end" : 9},
		{"id" : 6, "text" : "원자량은", "type" : "", "begin" : 10, "end" : 12},
		{"id" : 7, "text" : "39.0983.", "type" : "", "begin" : 13, "end" : 14}
	],
	"NE" : [
	],
	"chunk" : [
	],
	"dependency" : [
	],
	"phrase_dependency" : [
	],
	"SRL" : [
	],
	"relation" : [
	],
	"SA" : [
	],
	"ZA" : [
	]
	}
 ],
 "entity" : [
 ]
}

