{"doc_id" : "937018",
 "DCT" : "",
 "category" : "",
 "category_weight" : 0,
 "title" : {"text" : "헬륨", "NE" : ""},
 "metaInfo" : { },
 "sentence" : [
	{
	"id" : 0,
	"reserve_str" : "",
	"text" : "또한 헬륨은 수소 다음으로 가볍지만, 수소와 달리 불연성이고 안전하기 때문에 풍선이나 기구, 비행선을 띄우는 가스로서 사용되고 있다.",
	"morp" : [
	],
	"morp_eval" : [
	],
	"WSD" : [
	],
	"word" : [
		{"id" : 0, "text" : "또한", "type" : "", "begin" : 0, "end" : 0},
		{"id" : 1, "text" : "헬륨은", "type" : "", "begin" : 1, "end" : 2},
		{"id" : 2, "text" : "수소", "type" : "", "begin" : 3, "end" : 3},
		{"id" : 3, "text" : "다음으로", "type" : "", "begin" : 4, "end" : 5},
		{"id" : 4, "text" : "가볍지만,", "type" : "", "begin" : 6, "end" : 8},
		{"id" : 5, "text" : "수소와", "type" : "", "begin" : 9, "end" : 10},
		{"id" : 6, "text" : "달리", "type" : "", "begin" : 11, "end" : 11},
		{"id" : 7, "text" : "불연성이고", "type" : "", "begin" : 12, "end" : 15},
		{"id" : 8, "text" : "안전하기", "type" : "", "begin" : 16, "end" : 18},
		{"id" : 9, "text" : "때문에", "type" : "", "begin" : 19, "end" : 20},
		{"id" : 10, "text" : "풍선이나", "type" : "", "begin" : 21, "end" : 22},
		{"id" : 11, "text" : "기구,", "type" : "", "begin" : 23, "end" : 24},
		{"id" : 12, "text" : "비행선을", "type" : "", "begin" : 25, "end" : 27},
		{"id" : 13, "text" : "띄우는", "type" : "", "begin" : 28, "end" : 29},
		{"id" : 14, "text" : "가스로서", "type" : "", "begin" : 30, "end" : 31},
		{"id" : 15, "text" : "사용되고", "type" : "", "begin" : 32, "end" : 34},
		{"id" : 16, "text" : "있다.", "type" : "", "begin" : 35, "end" : 37}
	],
	"NE" : [
	],
	"chunk" : [
	],
	"dependency" : [
	],
	"phrase_dependency" : [
	],
	"SRL" : [
		{"verb" : "가볍", "sense" : 1, "word_id" : 4, "weight" : 0.120526,
			"argument" : [
				{"type" : "ARG1", "word_id" : 1, "text" : "헬륨은", "weight" : 0.179243 },
				{"type" : "ARGM-PRD", "word_id" : 3, "text" : "다음으로", "weight" : 0.618086 },
				{"type" : "ARGM-DIS", "word_id" : 0, "text" : "또한", "weight" : 1 }
			] },
		{"verb" : "안전", "sense" : 1, "word_id" : 8, "weight" : 0,
			"argument" : [
				{"type" : "ARGM-PRD", "word_id" : 6, "text" : "달리", "weight" : 1 }
			] },
		{"verb" : "띄우", "sense" : 1, "word_id" : 13, "weight" : 0.242068,
			"argument" : [
				{"type" : "ARG1", "word_id" : 12, "text" : "비행선을", "weight" : 0.242068 }
			] },
		{"verb" : "사용", "sense" : 1, "word_id" : 15, "weight" : 0.2807,
			"argument" : [
				{"type" : "ARGM-CAU", "word_id" : 9, "text" : "때문에", "weight" : 0.133589 },
				{"type" : "ARG2", "word_id" : 14, "text" : "가스로서", "weight" : 0.102192 },
				{"type" : "AUX", "word_id" : 16, "text" : "있다.", "weight" : 0.606319 }
			] }
	],
	"relation" : [
	],
	"SA" : [
	],
	"ZA" : [
	]
	}
 ],
 "entity" : [
 ]
}

