{"doc_id" : "",
 "DCT" : "",
 "category" : "",
 "category_weight" : 0,
 "title" : {"text" : "양", "NE" : ""},
 "metaInfo" : { },
 "sentence" : [
	{
	"id" : 0,
	"reserve_str" : "",
	"text" : "양은 떼를 지어 살며, 높은 곳에 올라가기를 좋아한다.",
	"morp" : [
	],
	"morp_eval" : [
	],
	"WSD" : [
	],
	"word" : [
		{"id" : 0, "text" : "양은", "type" : "", "begin" : 0, "end" : 1},
		{"id" : 1, "text" : "떼를", "type" : "", "begin" : 2, "end" : 3},
		{"id" : 2, "text" : "지어", "type" : "", "begin" : 4, "end" : 5},
		{"id" : 3, "text" : "살며,", "type" : "", "begin" : 6, "end" : 8},
		{"id" : 4, "text" : "높은", "type" : "", "begin" : 9, "end" : 10},
		{"id" : 5, "text" : "곳에", "type" : "", "begin" : 11, "end" : 12},
		{"id" : 6, "text" : "올라가기를", "type" : "", "begin" : 13, "end" : 15},
		{"id" : 7, "text" : "좋아한다.", "type" : "", "begin" : 16, "end" : 18}
	],
	"NE" : [
	],
	"chunk" : [
	],
	"dependency" : [
	],
	"phrase_dependency" : [
	],
	"SRL" : [
		{"verb" : "짓", "sense" : 1, "word_id" : 2, "weight" : 0.182671,
			"argument" : [
				{"type" : "ARG0", "word_id" : 0, "text" : "양은", "weight" : 0.165538 },
				{"type" : "ARG1", "word_id" : 1, "text" : "떼를", "weight" : 0.199804 }
			] },
		{"verb" : "살", "sense" : 1, "word_id" : 3, "weight" : 0.130546,
			"argument" : [
				{"type" : "ARG0", "word_id" : 0, "text" : "양은", "weight" : 0.123975 },
				{"type" : "ARGM-MNR", "word_id" : 2, "text" : "지어", "weight" : 0.137117 }
			] },
		{"verb" : "높", "sense" : 1, "word_id" : 4, "weight" : 0.388795,
			"argument" : [
				{"type" : "ARG1", "word_id" : 5, "text" : "곳에", "weight" : 0.388795 }
			] },
		{"verb" : "올라가", "sense" : 1, "word_id" : 6, "weight" : 0.101217,
			"argument" : [
				{"type" : "ARG2", "word_id" : 5, "text" : "곳에", "weight" : 0.101217 }
			] },
		{"verb" : "좋아하", "sense" : 2, "word_id" : 7, "weight" : 0.235386,
			"argument" : [
				{"type" : "ARG0", "word_id" : 0, "text" : "양은", "weight" : 0.193633 },
				{"type" : "ARG1", "word_id" : 6, "text" : "올라가기를", "weight" : 0.27714 }
			] }
	],
	"relation" : [
	],
	"SA" : [
	],
	"ZA" : [
	]
	},
	{
	"id" : 1,
	"reserve_str" : "",
	"text" : " 성질은 온순하고, 풀·나뭇잎·나무껍질 등의 식물질을 먹는다.",
	"morp" : [
	],
	"morp_eval" : [
	],
	"WSD" : [
	],
	"word" : [
		{"id" : 0, "text" : "성질은", "type" : "", "begin" : 0, "end" : 1},
		{"id" : 1, "text" : "온순하고,", "type" : "", "begin" : 2, "end" : 4},
		{"id" : 2, "text" : "풀·나뭇잎·나무껍질", "type" : "", "begin" : 5, "end" : 10},
		{"id" : 3, "text" : "등의", "type" : "", "begin" : 11, "end" : 12},
		{"id" : 4, "text" : "식물질을", "type" : "", "begin" : 13, "end" : 15},
		{"id" : 5, "text" : "먹는다.", "type" : "", "begin" : 16, "end" : 18}
	],
	"NE" : [
	],
	"chunk" : [
	],
	"dependency" : [
	],
	"phrase_dependency" : [
	],
	"SRL" : [
		{"verb" : "온순하", "sense" : 1, "word_id" : 1, "weight" : 0.196244,
			"argument" : [
				{"type" : "ARG1", "word_id" : 0, "text" : "성질은", "weight" : 0.196244 }
			] },
		{"verb" : "먹", "sense" : 1, "word_id" : 5, "weight" : 0.420643,
			"argument" : [
				{"type" : "ARG1", "word_id" : 4, "text" : "식물질을", "weight" : 0.420643 }
			] }
	],
	"relation" : [
	],
	"SA" : [
	],
	"ZA" : [
	]
	}
 ],
 "entity" : [
 ]
}

