{"doc_id" : "",
 "DCT" : "",
 "category" : "",
 "category_weight" : 0,
 "title" : {"text" : "Q13", "NE" : ""},
 "metaInfo" : { },
 "sentence" : [
	{
	"id" : 0,
	"reserve_str" : "",
	"text" : "두 판이 서로 반대 방향으로 멀어지는 경계를 발산 경계라고 한다.",
	"morp" : [
	],
	"morp_eval" : [
	],
	"WSD" : [
	],
	"word" : [
		{"id" : 0, "text" : "두", "type" : "", "begin" : 0, "end" : 0},
		{"id" : 1, "text" : "판이", "type" : "", "begin" : 1, "end" : 2},
		{"id" : 2, "text" : "서로", "type" : "", "begin" : 3, "end" : 3},
		{"id" : 3, "text" : "반대", "type" : "", "begin" : 4, "end" : 4},
		{"id" : 4, "text" : "방향으로", "type" : "", "begin" : 5, "end" : 6},
		{"id" : 5, "text" : "멀어지는", "type" : "", "begin" : 7, "end" : 8},
		{"id" : 6, "text" : "경계를", "type" : "", "begin" : 9, "end" : 10},
		{"id" : 7, "text" : "발산", "type" : "", "begin" : 11, "end" : 11},
		{"id" : 8, "text" : "경계라고", "type" : "", "begin" : 12, "end" : 14},
		{"id" : 9, "text" : "한다.", "type" : "", "begin" : 15, "end" : 17}
	],
	"NE" : [
	],
	"chunk" : [
	],
	"dependency" : [
	],
	"phrase_dependency" : [
	],
	"SRL" : [
		{"verb" : "멀", "sense" : 1, "word_id" : 5, "weight" : 0.135959,
			"argument" : [
				{"type" : "ARG1", "word_id" : 1, "text" : "판이", "weight" : 1 },
				{"type" : "ARGM-ADV", "word_id" : 2, "text" : "서로", "weight" : 1 },
				{"type" : "ARGM-DIR", "word_id" : 4, "text" : "방향으로", "weight" : 0.109315 }
			] },
		{"verb" : "하", "sense" : 2, "word_id" : 9, "weight" : 0.225362,
			"argument" : [
				{"type" : "ARG2", "word_id" : 8, "text" : "경계라고", "weight" : 0.225362 },
				{"type" : "ARG1", "word_id" : 6, "text" : "경계를", "weight" : 1 }
			] }
	],
	"relation" : [
	],
	"SA" : [
	],
	"ZA" : [
	]
	},
	{
	"id" : 1,
	"reserve_str" : "",
	"text" : " 이러한 발산 경계에서 나타나는 특징적인 지형은 무엇일까?",
	"morp" : [
	],
	"morp_eval" : [
	],
	"WSD" : [
	],
	"word" : [
		{"id" : 0, "text" : "이러한", "type" : "", "begin" : 0, "end" : 1},
		{"id" : 1, "text" : "발산", "type" : "", "begin" : 2, "end" : 2},
		{"id" : 2, "text" : "경계에서", "type" : "", "begin" : 3, "end" : 4},
		{"id" : 3, "text" : "나타나는", "type" : "", "begin" : 5, "end" : 6},
		{"id" : 4, "text" : "특징적인", "type" : "", "begin" : 7, "end" : 10},
		{"id" : 5, "text" : "지형은", "type" : "", "begin" : 11, "end" : 12},
		{"id" : 6, "text" : "무엇일까?", "type" : "", "begin" : 13, "end" : 16}
	],
	"NE" : [
	],
	"chunk" : [
	],
	"dependency" : [
	],
	"phrase_dependency" : [
	],
	"SRL" : [
		{"verb" : "나타나", "sense" : 1, "word_id" : 3, "weight" : 0.133935,
			"argument" : [
				{"type" : "ARG2", "word_id" : 2, "text" : "경계에서", "weight" : 0.994881 },
				{"type" : "ARG1", "word_id" : 5, "text" : "지형은", "weight" : 0.168382 }
			] }
	],
	"relation" : [
	],
	"SA" : [
	],
	"ZA" : [
	]
	}
 ],
 "entity" : [
 ]
}

