{"doc_id" : "",
 "DCT" : "",
 "category" : "",
 "category_weight" : 0,
 "title" : {"text" : "Q26", "NE" : ""},
 "metaInfo" : { },
 "sentence" : [
	{
	"id" : 0,
	"reserve_str" : "",
	"text" : "이 관직은 평민의 생명과 재산을 보호하는 것을 주 임무로 했으며 집정관과 원로원의 결정에 대한 거부권을 행사할 수 있었다.",
	"morp" : [
	],
	"morp_eval" : [
	],
	"WSD" : [
	],
	"word" : [
		{"id" : 0, "text" : "이", "type" : "", "begin" : 0, "end" : 0},
		{"id" : 1, "text" : "관직은", "type" : "", "begin" : 1, "end" : 2},
		{"id" : 2, "text" : "평민의", "type" : "", "begin" : 3, "end" : 4},
		{"id" : 3, "text" : "생명과", "type" : "", "begin" : 5, "end" : 6},
		{"id" : 4, "text" : "재산을", "type" : "", "begin" : 7, "end" : 8},
		{"id" : 5, "text" : "보호하는", "type" : "", "begin" : 9, "end" : 11},
		{"id" : 6, "text" : "것을", "type" : "", "begin" : 12, "end" : 13},
		{"id" : 7, "text" : "주", "type" : "", "begin" : 14, "end" : 14},
		{"id" : 8, "text" : "임무로", "type" : "", "begin" : 15, "end" : 16},
		{"id" : 9, "text" : "했으며", "type" : "", "begin" : 17, "end" : 19},
		{"id" : 10, "text" : "집정관과", "type" : "", "begin" : 20, "end" : 22},
		{"id" : 11, "text" : "원로원의", "type" : "", "begin" : 23, "end" : 25},
		{"id" : 12, "text" : "결정에", "type" : "", "begin" : 26, "end" : 27},
		{"id" : 13, "text" : "대한", "type" : "", "begin" : 28, "end" : 30},
		{"id" : 14, "text" : "거부권을", "type" : "", "begin" : 31, "end" : 33},
		{"id" : 15, "text" : "행사할", "type" : "", "begin" : 34, "end" : 36},
		{"id" : 16, "text" : "수", "type" : "", "begin" : 37, "end" : 37},
		{"id" : 17, "text" : "있었다.", "type" : "", "begin" : 38, "end" : 41}
	],
	"NE" : [
	],
	"chunk" : [
	],
	"dependency" : [
	],
	"phrase_dependency" : [
	],
	"SRL" : [
		{"verb" : "보호", "sense" : 1, "word_id" : 5, "weight" : 0.24501,
			"argument" : [
				{"type" : "ARG1", "word_id" : 4, "text" : "재산을", "weight" : 0.24501 }
			] },
		{"verb" : "하", "sense" : 3, "word_id" : 9, "weight" : 0.156113,
			"argument" : [
				{"type" : "ARG2", "word_id" : 8, "text" : "임무로", "weight" : 0.156113 },
				{"type" : "ARG0", "word_id" : 1, "text" : "관직은", "weight" : 1 },
				{"type" : "ARG1", "word_id" : 6, "text" : "것을", "weight" : 1 }
			] },
		{"verb" : "대하", "sense" : 1, "word_id" : 13, "weight" : 0.325505,
			"argument" : [
				{"type" : "ARG2", "word_id" : 12, "text" : "결정에", "weight" : 0.189548 },
				{"type" : "ARG1", "word_id" : 14, "text" : "거부권을", "weight" : 0.461463 }
			] },
		{"verb" : "행사", "sense" : 1, "word_id" : 15, "weight" : 0.359524,
			"argument" : [
				{"type" : "ARG1", "word_id" : 14, "text" : "거부권을", "weight" : 0.271571 },
				{"type" : "AUX", "word_id" : 17, "text" : "있었다.", "weight" : 0.447476 },
				{"type" : "ARG0", "word_id" : 1, "text" : "관직은", "weight" : 1 }
			] }
	],
	"relation" : [
	],
	"SA" : [
	],
	"ZA" : [
	]
	},
	{
	"id" : 1,
	"reserve_str" : "",
	"text" : " 로마에서 평민의 권리를 지키기 위해 선출한 이 관직은 무엇일까?",
	"morp" : [
	],
	"morp_eval" : [
	],
	"WSD" : [
	],
	"word" : [
		{"id" : 0, "text" : "로마에서", "type" : "", "begin" : 0, "end" : 1},
		{"id" : 1, "text" : "평민의", "type" : "", "begin" : 2, "end" : 3},
		{"id" : 2, "text" : "권리를", "type" : "", "begin" : 4, "end" : 5},
		{"id" : 3, "text" : "지키기", "type" : "", "begin" : 6, "end" : 7},
		{"id" : 4, "text" : "위해", "type" : "", "begin" : 8, "end" : 9},
		{"id" : 5, "text" : "선출한", "type" : "", "begin" : 10, "end" : 12},
		{"id" : 6, "text" : "이", "type" : "", "begin" : 13, "end" : 13},
		{"id" : 7, "text" : "관직은", "type" : "", "begin" : 14, "end" : 15},
		{"id" : 8, "text" : "무엇일까?", "type" : "", "begin" : 16, "end" : 19}
	],
	"NE" : [
	],
	"chunk" : [
	],
	"dependency" : [
	],
	"phrase_dependency" : [
	],
	"SRL" : [
		{"verb" : "지키", "sense" : 1, "word_id" : 3, "weight" : 0.246676,
			"argument" : [
				{"type" : "ARGM-LOC", "word_id" : 0, "text" : "로마에서", "weight" : 0.15726 },
				{"type" : "ARG1", "word_id" : 2, "text" : "권리를", "weight" : 0.336093 }
			] },
		{"verb" : "위하", "sense" : 1, "word_id" : 4, "weight" : 0.251557,
			"argument" : [
				{"type" : "ARG1", "word_id" : 3, "text" : "지키기", "weight" : 0.251557 }
			] },
		{"verb" : "선출", "sense" : 1, "word_id" : 5, "weight" : 0.248692,
			"argument" : [
				{"type" : "ARGM-PRP", "word_id" : 4, "text" : "위해", "weight" : 0.277946 },
				{"type" : "ARG2", "word_id" : 7, "text" : "관직은", "weight" : 0.219437 }
			] }
	],
	"relation" : [
	],
	"SA" : [
	],
	"ZA" : [
	]
	}
 ],
 "entity" : [
 ]
}

