{"doc_id" : "",
 "DCT" : "",
 "category" : "",
 "category_weight" : 0,
 "title" : {"text" : "북학의", "NE" : ""},
 "metaInfo" : { },
 "sentence" : [
	{
	"id" : 0,
	"reserve_str" : "",
	"text" : "<책명> 조선 정조 2년(1778)에 실학자인 박제가가 지은 책.",
	"morp" : [
	],
	"morp_eval" : [
	],
	"WSD" : [
	],
	"word" : [
		{"id" : 0, "text" : "<책명>", "type" : "", "begin" : 0, "end" : 2},
		{"id" : 1, "text" : "조선", "type" : "", "begin" : 3, "end" : 3},
		{"id" : 2, "text" : "정조", "type" : "", "begin" : 4, "end" : 4},
		{"id" : 3, "text" : "2년(1778)에", "type" : "", "begin" : 5, "end" : 10},
		{"id" : 4, "text" : "실학자인", "type" : "", "begin" : 11, "end" : 14},
		{"id" : 5, "text" : "박제가가", "type" : "", "begin" : 15, "end" : 16},
		{"id" : 6, "text" : "지은", "type" : "", "begin" : 17, "end" : 18},
		{"id" : 7, "text" : "책.", "type" : "", "begin" : 19, "end" : 20}
	],
	"NE" : [
	],
	"chunk" : [
	],
	"dependency" : [
	],
	"phrase_dependency" : [
	],
	"SRL" : [
		{"verb" : "짓", "sense" : 1, "word_id" : 6, "weight" : 0.35573,
			"argument" : [
				{"type" : "ARGM-TMP", "word_id" : 3, "text" : "2년(1778)에", "weight" : 0.164709 },
				{"type" : "ARG0", "word_id" : 5, "text" : "박제가가", "weight" : 0.672948 },
				{"type" : "ARG1", "word_id" : 7, "text" : "책.", "weight" : 0.229533 }
			] }
	],
	"relation" : [
	],
	"SA" : [
	],
	"ZA" : [
	]
	},
	{
	"id" : 1,
	"reserve_str" : "",
	"text" : " 청나라의 풍속과 제도를 시찰하고 자신의 의견을 덧붙여 쓴 책으로, 실학사상을 연구하는 데 중요한 자료이다.",
	"morp" : [
	],
	"morp_eval" : [
	],
	"WSD" : [
	],
	"word" : [
		{"id" : 0, "text" : "청나라의", "type" : "", "begin" : 0, "end" : 2},
		{"id" : 1, "text" : "풍속과", "type" : "", "begin" : 3, "end" : 4},
		{"id" : 2, "text" : "제도를", "type" : "", "begin" : 5, "end" : 6},
		{"id" : 3, "text" : "시찰하고", "type" : "", "begin" : 7, "end" : 9},
		{"id" : 4, "text" : "자신의", "type" : "", "begin" : 10, "end" : 11},
		{"id" : 5, "text" : "의견을", "type" : "", "begin" : 12, "end" : 13},
		{"id" : 6, "text" : "덧붙여", "type" : "", "begin" : 14, "end" : 15},
		{"id" : 7, "text" : "쓴", "type" : "", "begin" : 16, "end" : 17},
		{"id" : 8, "text" : "책으로,", "type" : "", "begin" : 18, "end" : 20},
		{"id" : 9, "text" : "실학사상을", "type" : "", "begin" : 21, "end" : 23},
		{"id" : 10, "text" : "연구하는", "type" : "", "begin" : 24, "end" : 26},
		{"id" : 11, "text" : "데", "type" : "", "begin" : 27, "end" : 27},
		{"id" : 12, "text" : "중요한", "type" : "", "begin" : 28, "end" : 30},
		{"id" : 13, "text" : "자료이다.", "type" : "", "begin" : 31, "end" : 34}
	],
	"NE" : [
	],
	"chunk" : [
	],
	"dependency" : [
	],
	"phrase_dependency" : [
	],
	"SRL" : [
		{"verb" : "시찰", "sense" : 1, "word_id" : 3, "weight" : 0.361151,
			"argument" : [
				{"type" : "ARG1", "word_id" : 2, "text" : "제도를", "weight" : 0.361151 }
			] },
		{"verb" : "덧붙이", "sense" : 1, "word_id" : 6, "weight" : 0.176153,
			"argument" : [
				{"type" : "ARG1", "word_id" : 5, "text" : "의견을", "weight" : 0.176153 }
			] },
		{"verb" : "쓰", "sense" : 1, "word_id" : 7, "weight" : 0.23722,
			"argument" : [
				{"type" : "ARGM-MNR", "word_id" : 6, "text" : "덧붙여", "weight" : 0.127254 },
				{"type" : "ARG1", "word_id" : 8, "text" : "책으로,", "weight" : 0.347186 }
			] },
		{"verb" : "연구", "sense" : 1, "word_id" : 10, "weight" : 0.289541,
			"argument" : [
				{"type" : "ARG1", "word_id" : 9, "text" : "실학사상을", "weight" : 0.289541 }
			] },
		{"verb" : "중요", "sense" : 1, "word_id" : 12, "weight" : 0.142375,
			"argument" : [
				{"type" : "ARG2", "word_id" : 11, "text" : "데", "weight" : 0.142375 },
				{"type" : "ARG1", "word_id" : 13, "text" : "자료이다.", "weight" : 1 }
			] }
	],
	"relation" : [
	],
	"SA" : [
	],
	"ZA" : [
	]
	}
 ],
 "entity" : [
 ]
}

