{"doc_id" : "",
 "DCT" : "",
 "category" : "",
 "category_weight" : 0,
 "title" : {"text" : "Q1", "NE" : ""},
 "metaInfo" : { },
 "sentence" : [
	{
	"id" : 0,
	"reserve_str" : "",
	"text" : "이것은 철에 크로뮴, 니켈 등을 혼합해 만든 것으로 녹이 잘 슬지 않고 매우 단단한 성질이 있어 조리 기구 등을 만들 때 사용한다.",
	"morp" : [
	],
	"morp_eval" : [
	],
	"WSD" : [
	],
	"word" : [
		{"id" : 0, "text" : "이것은", "type" : "", "begin" : 0, "end" : 1},
		{"id" : 1, "text" : "철에", "type" : "", "begin" : 2, "end" : 3},
		{"id" : 2, "text" : "크로뮴,", "type" : "", "begin" : 4, "end" : 5},
		{"id" : 3, "text" : "니켈", "type" : "", "begin" : 6, "end" : 6},
		{"id" : 4, "text" : "등을", "type" : "", "begin" : 7, "end" : 8},
		{"id" : 5, "text" : "혼합해", "type" : "", "begin" : 9, "end" : 11},
		{"id" : 6, "text" : "만든", "type" : "", "begin" : 12, "end" : 13},
		{"id" : 7, "text" : "것으로", "type" : "", "begin" : 14, "end" : 15},
		{"id" : 8, "text" : "녹이", "type" : "", "begin" : 16, "end" : 17},
		{"id" : 9, "text" : "잘", "type" : "", "begin" : 18, "end" : 18},
		{"id" : 10, "text" : "슬지", "type" : "", "begin" : 19, "end" : 20},
		{"id" : 11, "text" : "않고", "type" : "", "begin" : 21, "end" : 22},
		{"id" : 12, "text" : "매우", "type" : "", "begin" : 23, "end" : 23},
		{"id" : 13, "text" : "단단한", "type" : "", "begin" : 24, "end" : 25},
		{"id" : 14, "text" : "성질이", "type" : "", "begin" : 26, "end" : 27},
		{"id" : 15, "text" : "있어", "type" : "", "begin" : 28, "end" : 29},
		{"id" : 16, "text" : "조리", "type" : "", "begin" : 30, "end" : 30},
		{"id" : 17, "text" : "기구", "type" : "", "begin" : 31, "end" : 31},
		{"id" : 18, "text" : "등을", "type" : "", "begin" : 32, "end" : 33},
		{"id" : 19, "text" : "만들", "type" : "", "begin" : 34, "end" : 35},
		{"id" : 20, "text" : "때", "type" : "", "begin" : 36, "end" : 36},
		{"id" : 21, "text" : "사용한다.", "type" : "", "begin" : 37, "end" : 40}
	],
	"NE" : [
	],
	"chunk" : [
	],
	"dependency" : [
	],
	"phrase_dependency" : [
	],
	"SRL" : [
		{"verb" : "혼합", "sense" : 1, "word_id" : 5, "weight" : 0.289715,
			"argument" : [
				{"type" : "ARG1", "word_id" : 4, "text" : "등을", "weight" : 0.289715 },
				{"type" : "ARG2", "word_id" : 1, "text" : "철에", "weight" : 1 }
			] },
		{"verb" : "만들", "sense" : 1, "word_id" : 6, "weight" : 0.194678,
			"argument" : [
				{"type" : "ARGM-MNR", "word_id" : 5, "text" : "혼합해", "weight" : 0.167684 },
				{"type" : "ARG1", "word_id" : 7, "text" : "것으로", "weight" : 0.221671 }
			] },
		{"verb" : "슬", "sense" : 1, "word_id" : 10, "weight" : 0.244224,
			"argument" : [
				{"type" : "ARG1", "word_id" : 8, "text" : "녹이", "weight" : 0.205288 },
				{"type" : "ARGM-ADV", "word_id" : 9, "text" : "잘", "weight" : 0.108722 },
				{"type" : "ARGM-NEG", "word_id" : 11, "text" : "않고", "weight" : 0.418662 }
			] },
		{"verb" : "단단하", "sense" : 1, "word_id" : 13, "weight" : 0.266902,
			"argument" : [
				{"type" : "ARGM-EXT", "word_id" : 12, "text" : "매우", "weight" : 0.226359 },
				{"type" : "ARG1", "word_id" : 14, "text" : "성질이", "weight" : 0.307445 }
			] },
		{"verb" : "있", "sense" : 1, "word_id" : 15, "weight" : 0.405373,
			"argument" : [
				{"type" : "ARG1", "word_id" : 14, "text" : "성질이", "weight" : 0.405373 }
			] },
		{"verb" : "만들", "sense" : 1, "word_id" : 19, "weight" : 0.321261,
			"argument" : [
				{"type" : "ARG1", "word_id" : 18, "text" : "등을", "weight" : 0.321261 }
			] },
		{"verb" : "사용", "sense" : 1, "word_id" : 21, "weight" : 0.108555,
			"argument" : [
				{"type" : "ARGM-TMP", "word_id" : 20, "text" : "때", "weight" : 0.108555 }
			] }
	],
	"relation" : [
	],
	"SA" : [
	],
	"ZA" : [
	]
	},
	{
	"id" : 1,
	"reserve_str" : "",
	"text" : " 이것은 무엇일까?",
	"morp" : [
	],
	"morp_eval" : [
	],
	"WSD" : [
	],
	"word" : [
		{"id" : 0, "text" : "이것은", "type" : "", "begin" : 0, "end" : 1},
		{"id" : 1, "text" : "무엇일까?", "type" : "", "begin" : 2, "end" : 5}
	],
	"NE" : [
	],
	"chunk" : [
	],
	"dependency" : [
	],
	"phrase_dependency" : [
	],
	"SRL" : [
	],
	"relation" : [
	],
	"SA" : [
	],
	"ZA" : [
	]
	}
 ],
 "entity" : [
 ]
}

