{"doc_id" : "",
 "DCT" : "",
 "category" : "",
 "category_weight" : 0,
 "title" : {"text" : "헬륨", "NE" : ""},
 "metaInfo" : { },
 "sentence" : [
	{
	"id" : 0,
	"reserve_str" : "",
	"text" : "1868년의 일식 관측 때 태양의 스펙트럼선으로부터 P. J. C. Jansen이 신원소로서 발견하여, J. N. Lockyer와 E. Frankland가 그리스어의 태양(ήλιὸς)에서 따서 명명하였다.",
	"morp" : [
	],
	"morp_eval" : [
	],
	"WSD" : [
	],
	"word" : [
		{"id" : 0, "text" : "1868년의", "type" : "", "begin" : 0, "end" : 3},
		{"id" : 1, "text" : "일식", "type" : "", "begin" : 4, "end" : 4},
		{"id" : 2, "text" : "관측", "type" : "", "begin" : 5, "end" : 5},
		{"id" : 3, "text" : "때", "type" : "", "begin" : 6, "end" : 6},
		{"id" : 4, "text" : "태양의", "type" : "", "begin" : 7, "end" : 8},
		{"id" : 5, "text" : "스펙트럼선으로부터", "type" : "", "begin" : 9, "end" : 11},
		{"id" : 6, "text" : "P.", "type" : "", "begin" : 12, "end" : 13},
		{"id" : 7, "text" : "J.", "type" : "", "begin" : 14, "end" : 15},
		{"id" : 8, "text" : "C.", "type" : "", "begin" : 16, "end" : 17},
		{"id" : 9, "text" : "Jansen이", "type" : "", "begin" : 18, "end" : 19},
		{"id" : 10, "text" : "신원소로서", "type" : "", "begin" : 20, "end" : 22},
		{"id" : 11, "text" : "발견하여,", "type" : "", "begin" : 23, "end" : 26},
		{"id" : 12, "text" : "J.", "type" : "", "begin" : 27, "end" : 28},
		{"id" : 13, "text" : "N.", "type" : "", "begin" : 29, "end" : 30},
		{"id" : 14, "text" : "Lockyer와", "type" : "", "begin" : 31, "end" : 32},
		{"id" : 15, "text" : "E.", "type" : "", "begin" : 33, "end" : 34},
		{"id" : 16, "text" : "Frankland가", "type" : "", "begin" : 35, "end" : 36},
		{"id" : 17, "text" : "그리스어의", "type" : "", "begin" : 37, "end" : 38},
		{"id" : 18, "text" : "태양(ήλιὸς)에서", "type" : "", "begin" : 39, "end" : 47},
		{"id" : 19, "text" : "따서", "type" : "", "begin" : 48, "end" : 49},
		{"id" : 20, "text" : "명명하였다.", "type" : "", "begin" : 50, "end" : 54}
	],
	"NE" : [
	],
	"chunk" : [
	],
	"dependency" : [
	],
	"phrase_dependency" : [
	],
	"SRL" : [
		{"verb" : "발견", "sense" : 1, "word_id" : 11, "weight" : 0.161439,
			"argument" : [
				{"type" : "ARGM-TMP", "word_id" : 3, "text" : "때", "weight" : 0.250897 },
				{"type" : "ARG2", "word_id" : 5, "text" : "스펙트럼선으로부터", "weight" : 1 },
				{"type" : "ARG0", "word_id" : 9, "text" : "Jansen이", "weight" : 0.21346 },
				{"type" : "ARGM-PRD", "word_id" : 10, "text" : "신원소로서", "weight" : 0.107089 }
			] },
		{"verb" : "따", "sense" : 2, "word_id" : 19, "weight" : 0.183039,
			"argument" : [
				{"type" : "ARG0", "word_id" : 16, "text" : "Frankland가", "weight" : 1 },
				{"type" : "ARG2", "word_id" : 18, "text" : "태양(ήλιὸς)에서", "weight" : 1 }
			] },
		{"verb" : "명명", "sense" : 1, "word_id" : 20, "weight" : 0.120031,
			"argument" : [
				{"type" : "ARG0", "word_id" : 16, "text" : "Frankland가", "weight" : 1 },
				{"type" : "ARGM-MNR", "word_id" : 19, "text" : "따서", "weight" : 1 }
			] }
	],
	"relation" : [
	],
	"SA" : [
	],
	"ZA" : [
	]
	}
 ],
 "entity" : [
 ]
}

