{"doc_id" : "940028A02",
 "DCT" : "",
 "category" : "",
 "category_weight" : 0,
 "title" : {"text" : "강우규", "NE" : ""},
 "metaInfo" : { },
 "sentence" : [
	{
	"id" : 0,
	"reserve_str" : "",
	"text" : "<인명> 독립운동가(1855~1920).",
	"morp" : [
	],
	"morp_eval" : [
	],
	"WSD" : [
	],
	"word" : [
		{"id" : 0, "text" : "<인명>", "type" : "", "begin" : 0, "end" : 2},
		{"id" : 1, "text" : "독립운동가(1855~1920).", "type" : "", "begin" : 3, "end" : 11}
	],
	"NE" : [
	],
	"chunk" : [
	],
	"dependency" : [
	],
	"phrase_dependency" : [
	],
	"SRL" : [
	],
	"relation" : [
	],
	"SA" : [
	],
	"ZA" : [
	]
	},
	{
	"id" : 1,
	"reserve_str" : "",
	"text" : " 자는 찬구(燦九).",
	"morp" : [
	],
	"morp_eval" : [
	],
	"WSD" : [
	],
	"word" : [
		{"id" : 0, "text" : "자는", "type" : "", "begin" : 0, "end" : 1},
		{"id" : 1, "text" : "찬구(燦九).", "type" : "", "begin" : 2, "end" : 6}
	],
	"NE" : [
	],
	"chunk" : [
	],
	"dependency" : [
	],
	"phrase_dependency" : [
	],
	"SRL" : [
	],
	"relation" : [
	],
	"SA" : [
	],
	"ZA" : [
	]
	},
	{
	"id" : 2,
	"reserve_str" : "",
	"text" : " 호는 일우(日愚).",
	"morp" : [
	],
	"morp_eval" : [
	],
	"WSD" : [
	],
	"word" : [
		{"id" : 0, "text" : "호는", "type" : "", "begin" : 0, "end" : 1},
		{"id" : 1, "text" : "일우(日愚).", "type" : "", "begin" : 2, "end" : 6}
	],
	"NE" : [
	],
	"chunk" : [
	],
	"dependency" : [
	],
	"phrase_dependency" : [
	],
	"SRL" : [
	],
	"relation" : [
	],
	"SA" : [
	],
	"ZA" : [
	]
	},
	{
	"id" : 3,
	"reserve_str" : "",
	"text" : " 1911년에 만주로 건너가 지린(吉林)에 동광(東光) 학교를 세워 인재를 양성하였다.",
	"morp" : [
	],
	"morp_eval" : [
	],
	"WSD" : [
	],
	"word" : [
		{"id" : 0, "text" : "1911년에", "type" : "", "begin" : 0, "end" : 2},
		{"id" : 1, "text" : "만주로", "type" : "", "begin" : 3, "end" : 4},
		{"id" : 2, "text" : "건너가", "type" : "", "begin" : 5, "end" : 6},
		{"id" : 3, "text" : "지린(吉林)에", "type" : "", "begin" : 7, "end" : 11},
		{"id" : 4, "text" : "동광(東光)", "type" : "", "begin" : 12, "end" : 15},
		{"id" : 5, "text" : "학교를", "type" : "", "begin" : 16, "end" : 17},
		{"id" : 6, "text" : "세워", "type" : "", "begin" : 18, "end" : 19},
		{"id" : 7, "text" : "인재를", "type" : "", "begin" : 20, "end" : 21},
		{"id" : 8, "text" : "양성하였다.", "type" : "", "begin" : 22, "end" : 26}
	],
	"NE" : [
	],
	"chunk" : [
	],
	"dependency" : [
	],
	"phrase_dependency" : [
	],
	"SRL" : [
		{"verb" : "건너가", "sense" : 1, "word_id" : 2, "weight" : 0.17853,
			"argument" : [
				{"type" : "ARGM-TMP", "word_id" : 0, "text" : "1911년에", "weight" : 0.229476 },
				{"type" : "ARG3", "word_id" : 1, "text" : "만주로", "weight" : 0.127584 }
			] },
		{"verb" : "세우", "sense" : 1, "word_id" : 6, "weight" : 0.163966,
			"argument" : [
				{"type" : "ARGM-LOC", "word_id" : 3, "text" : "지린(吉林)에", "weight" : 0.113941 },
				{"type" : "ARG1", "word_id" : 5, "text" : "학교를", "weight" : 0.213991 }
			] },
		{"verb" : "양성", "sense" : 1, "word_id" : 8, "weight" : 0.141217,
			"argument" : [
				{"type" : "ARGM-MNR", "word_id" : 6, "text" : "세워", "weight" : 0.701556 },
				{"type" : "ARG1", "word_id" : 7, "text" : "인재를", "weight" : 0.212279 }
			] }
	],
	"relation" : [
	],
	"SA" : [
	],
	"ZA" : [
	]
	},
	{
	"id" : 4,
	"reserve_str" : "",
	"text" : " 1919년 9월에는 조선총독으로 부임하는 사이토 마코토(齋藤實)를 죽이기 위하여 폭탄을 던졌으나 실패하고 체포되어 순국하였다.",
	"morp" : [
	],
	"morp_eval" : [
	],
	"WSD" : [
	],
	"word" : [
		{"id" : 0, "text" : "1919년", "type" : "", "begin" : 0, "end" : 1},
		{"id" : 1, "text" : "9월에는", "type" : "", "begin" : 2, "end" : 5},
		{"id" : 2, "text" : "조선총독으로", "type" : "", "begin" : 6, "end" : 8},
		{"id" : 3, "text" : "부임하는", "type" : "", "begin" : 9, "end" : 11},
		{"id" : 4, "text" : "사이토", "type" : "", "begin" : 12, "end" : 12},
		{"id" : 5, "text" : "마코토(齋藤實)를", "type" : "", "begin" : 13, "end" : 17},
		{"id" : 6, "text" : "죽이기", "type" : "", "begin" : 18, "end" : 19},
		{"id" : 7, "text" : "위하여", "type" : "", "begin" : 20, "end" : 21},
		{"id" : 8, "text" : "폭탄을", "type" : "", "begin" : 22, "end" : 23},
		{"id" : 9, "text" : "던졌으나", "type" : "", "begin" : 24, "end" : 26},
		{"id" : 10, "text" : "실패하고", "type" : "", "begin" : 27, "end" : 29},
		{"id" : 11, "text" : "체포되어", "type" : "", "begin" : 30, "end" : 32},
		{"id" : 12, "text" : "순국하였다.", "type" : "", "begin" : 33, "end" : 37}
	],
	"NE" : [
	],
	"chunk" : [
	],
	"dependency" : [
	],
	"phrase_dependency" : [
	],
	"SRL" : [
		{"verb" : "부임", "sense" : 1, "word_id" : 3, "weight" : 0.171892,
			"argument" : [
				{"type" : "ARG1", "word_id" : 2, "text" : "조선총독으로", "weight" : 1 },
				{"type" : "ARG0", "word_id" : 5, "text" : "마코토(齋藤實)를", "weight" : 0.264289 }
			] },
		{"verb" : "죽", "sense" : 1, "word_id" : 6, "weight" : 0.317693,
			"argument" : [
				{"type" : "ARG1", "word_id" : 5, "text" : "마코토(齋藤實)를", "weight" : 1 }
			] },
		{"verb" : "위하", "sense" : 1, "word_id" : 7, "weight" : 0.249139,
			"argument" : [
				{"type" : "ARG1", "word_id" : 6, "text" : "죽이기", "weight" : 0.249139 }
			] },
		{"verb" : "던지", "sense" : 1, "word_id" : 9, "weight" : 0.312727,
			"argument" : [
				{"type" : "ARGM-PRP", "word_id" : 7, "text" : "위하여", "weight" : 0.313935 },
				{"type" : "ARG1", "word_id" : 8, "text" : "폭탄을", "weight" : 0.311519 },
				{"type" : "ARGM-TMP", "word_id" : 1, "text" : "9월에는", "weight" : 1 }
			] },
		{"verb" : "실패", "sense" : 1, "word_id" : 10, "weight" : 0.160364,
			"argument" : [
				{"type" : "ARG2", "word_id" : 9, "text" : "던졌으나", "weight" : 1 }
			] }
	],
	"relation" : [
	],
	"SA" : [
	],
	"ZA" : [
	]
	}
 ],
 "entity" : [
 ]
}

