{"doc_id" : "940009A04",
 "DCT" : "",
 "category" : "",
 "category_weight" : 0,
 "title" : {"text" : "헨리 핼릿 데일", "NE" : ""},
 "metaInfo" : { },
 "sentence" : [
	{
	"id" : 0,
	"reserve_str" : "",
	"text" : "아세틸콜린의 분리, 신경자극의 화학적 전달 발견으로 노벨 생리·의학상을 받았다.",
	"morp" : [
	],
	"morp_eval" : [
	],
	"WSD" : [
	],
	"word" : [
		{"id" : 0, "text" : "아세틸콜린의", "type" : "", "begin" : 0, "end" : 2},
		{"id" : 1, "text" : "분리,", "type" : "", "begin" : 3, "end" : 4},
		{"id" : 2, "text" : "신경자극의", "type" : "", "begin" : 5, "end" : 7},
		{"id" : 3, "text" : "화학적", "type" : "", "begin" : 8, "end" : 9},
		{"id" : 4, "text" : "전달", "type" : "", "begin" : 10, "end" : 10},
		{"id" : 5, "text" : "발견으로", "type" : "", "begin" : 11, "end" : 12},
		{"id" : 6, "text" : "노벨", "type" : "", "begin" : 13, "end" : 13},
		{"id" : 7, "text" : "생리·의학상을", "type" : "", "begin" : 14, "end" : 18},
		{"id" : 8, "text" : "받았다.", "type" : "", "begin" : 19, "end" : 22}
	],
	"NE" : [
	],
	"chunk" : [
	],
	"dependency" : [
	],
	"phrase_dependency" : [
	],
	"SRL" : [
		{"verb" : "받", "sense" : 1, "word_id" : 8, "weight" : 0.233643,
			"argument" : [
				{"type" : "ARGM-CAU", "word_id" : 5, "text" : "발견으로", "weight" : 0.118967 },
				{"type" : "ARG1", "word_id" : 7, "text" : "생리·의학상을", "weight" : 0.348318 }
			] }
	],
	"relation" : [
	],
	"SA" : [
	],
	"ZA" : [
	]
	}
 ],
 "entity" : [
 ]
}

