{"doc_id" : "940030A02",
 "DCT" : "",
 "category" : "",
 "category_weight" : 0,
 "title" : {"text" : "페즈", "NE" : ""},
 "metaInfo" : { },
 "sentence" : [
	{
	"id" : 0,
	"reserve_str" : "",
	"text" : "터키 사람들이 애용하는 모자로 마치 양동이를 엎어놓은 듯한 챙 없는 원통형이 특징.",
	"morp" : [
	],
	"morp_eval" : [
	],
	"WSD" : [
	],
	"word" : [
		{"id" : 0, "text" : "터키", "type" : "", "begin" : 0, "end" : 0},
		{"id" : 1, "text" : "사람들이", "type" : "", "begin" : 1, "end" : 3},
		{"id" : 2, "text" : "애용하는", "type" : "", "begin" : 4, "end" : 6},
		{"id" : 3, "text" : "모자로", "type" : "", "begin" : 7, "end" : 8},
		{"id" : 4, "text" : "마치", "type" : "", "begin" : 9, "end" : 9},
		{"id" : 5, "text" : "양동이를", "type" : "", "begin" : 10, "end" : 12},
		{"id" : 6, "text" : "엎어놓은", "type" : "", "begin" : 13, "end" : 16},
		{"id" : 7, "text" : "듯한", "type" : "", "begin" : 17, "end" : 18},
		{"id" : 8, "text" : "챙", "type" : "", "begin" : 19, "end" : 19},
		{"id" : 9, "text" : "없는", "type" : "", "begin" : 20, "end" : 21},
		{"id" : 10, "text" : "원통형이", "type" : "", "begin" : 22, "end" : 24},
		{"id" : 11, "text" : "특징.", "type" : "", "begin" : 25, "end" : 26}
	],
	"NE" : [
	],
	"chunk" : [
	],
	"dependency" : [
	],
	"phrase_dependency" : [
	],
	"SRL" : [
		{"verb" : "애용", "sense" : 1, "word_id" : 2, "weight" : 0.204722,
			"argument" : [
				{"type" : "ARG0", "word_id" : 1, "text" : "사람들이", "weight" : 0.205833 },
				{"type" : "ARG1", "word_id" : 3, "text" : "모자로", "weight" : 0.203611 }
			] },
		{"verb" : "엎", "sense" : 1, "word_id" : 6, "weight" : 0.195156,
			"argument" : [
				{"type" : "ARG1", "word_id" : 5, "text" : "양동이를", "weight" : 0.335865 },
				{"type" : "AUX", "word_id" : 7, "text" : "듯한", "weight" : 0.175244 }
			] },
		{"verb" : "없", "sense" : 1, "word_id" : 9, "weight" : 0.146612,
			"argument" : [
				{"type" : "ARG1", "word_id" : 8, "text" : "챙", "weight" : 0.180152 },
				{"type" : "ARG2", "word_id" : 3, "text" : "모자로", "weight" : 1 }
			] }
	],
	"relation" : [
	],
	"SA" : [
	],
	"ZA" : [
	]
	},
	{
	"id" : 1,
	"reserve_str" : "",
	"text" : " 본래는 빨강색의 펠트에 검정이나 하늘색의 술이 달려 있다.",
	"morp" : [
	],
	"morp_eval" : [
	],
	"WSD" : [
	],
	"word" : [
		{"id" : 0, "text" : "본래는", "type" : "", "begin" : 0, "end" : 1},
		{"id" : 1, "text" : "빨강색의", "type" : "", "begin" : 2, "end" : 4},
		{"id" : 2, "text" : "펠트에", "type" : "", "begin" : 5, "end" : 6},
		{"id" : 3, "text" : "검정이나", "type" : "", "begin" : 7, "end" : 8},
		{"id" : 4, "text" : "하늘색의", "type" : "", "begin" : 9, "end" : 11},
		{"id" : 5, "text" : "술이", "type" : "", "begin" : 12, "end" : 13},
		{"id" : 6, "text" : "달려", "type" : "", "begin" : 14, "end" : 15},
		{"id" : 7, "text" : "있다.", "type" : "", "begin" : 16, "end" : 18}
	],
	"NE" : [
	],
	"chunk" : [
	],
	"dependency" : [
	],
	"phrase_dependency" : [
	],
	"SRL" : [
		{"verb" : "달", "sense" : 2, "word_id" : 6, "weight" : 0.331078,
			"argument" : [
				{"type" : "ARG2", "word_id" : 2, "text" : "펠트에", "weight" : 1 },
				{"type" : "ARG1", "word_id" : 5, "text" : "술이", "weight" : 1 },
				{"type" : "AUX", "word_id" : 7, "text" : "있다.", "weight" : 0.60285 }
			] }
	],
	"relation" : [
	],
	"SA" : [
	],
	"ZA" : [
	]
	}
 ],
 "entity" : [
 ]
}

