{"doc_id" : "940007A01",
 "DCT" : "",
 "category" : "",
 "category_weight" : 0,
 "title" : {"text" : "용궁부연록", "NE" : ""},
 "metaInfo" : { },
 "sentence" : [
	{
	"id" : 0,
	"reserve_str" : "",
	"text" : "글에 능하여 그 재주가 조정에까지 알려진 한생(韓生)이 어느 날 꿈속에서 용궁으로 초대되어 간다.",
	"morp" : [
	],
	"morp_eval" : [
	],
	"WSD" : [
	],
	"word" : [
		{"id" : 0, "text" : "글에", "type" : "", "begin" : 0, "end" : 1},
		{"id" : 1, "text" : "능하여", "type" : "", "begin" : 2, "end" : 3},
		{"id" : 2, "text" : "그", "type" : "", "begin" : 4, "end" : 4},
		{"id" : 3, "text" : "재주가", "type" : "", "begin" : 5, "end" : 6},
		{"id" : 4, "text" : "조정에까지", "type" : "", "begin" : 7, "end" : 9},
		{"id" : 5, "text" : "알려진", "type" : "", "begin" : 10, "end" : 11},
		{"id" : 6, "text" : "한생(韓生)이", "type" : "", "begin" : 12, "end" : 16},
		{"id" : 7, "text" : "어느", "type" : "", "begin" : 17, "end" : 17},
		{"id" : 8, "text" : "날", "type" : "", "begin" : 18, "end" : 18},
		{"id" : 9, "text" : "꿈속에서", "type" : "", "begin" : 19, "end" : 20},
		{"id" : 10, "text" : "용궁으로", "type" : "", "begin" : 21, "end" : 22},
		{"id" : 11, "text" : "초대되어", "type" : "", "begin" : 23, "end" : 25},
		{"id" : 12, "text" : "간다.", "type" : "", "begin" : 26, "end" : 28}
	],
	"NE" : [
	],
	"chunk" : [
	],
	"dependency" : [
	],
	"phrase_dependency" : [
	],
	"SRL" : [
		{"verb" : "능하", "sense" : 1, "word_id" : 1, "weight" : 0.118311,
			"argument" : [
				{"type" : "ARG2", "word_id" : 0, "text" : "글에", "weight" : 0.118311 }
			] },
		{"verb" : "알", "sense" : 1, "word_id" : 5, "weight" : 0.226709,
			"argument" : [
				{"type" : "ARG1", "word_id" : 3, "text" : "재주가", "weight" : 1 },
				{"type" : "ARG0", "word_id" : 4, "text" : "조정에까지", "weight" : 1 }
			] },
		{"verb" : "초대", "sense" : 1, "word_id" : 11, "weight" : 0.148152,
			"argument" : [
				{"type" : "ARG1", "word_id" : 6, "text" : "한생(韓生)이", "weight" : 1 },
				{"type" : "ARGM-TMP", "word_id" : 8, "text" : "날", "weight" : 0.110919 },
				{"type" : "ARGM-CND", "word_id" : 9, "text" : "꿈속에서", "weight" : 1 },
				{"type" : "ARG2", "word_id" : 10, "text" : "용궁으로", "weight" : 0.683753 },
				{"type" : "AUX", "word_id" : 12, "text" : "간다.", "weight" : 0.275153 }
			] }
	],
	"relation" : [
	],
	"SA" : [
	],
	"ZA" : [
	]
	},
	{
	"id" : 1,
	"reserve_str" : "",
	"text" : " 용왕의 청을 받고, 새로 지은 누각의 상량문을 지어주었더니 용왕은 그 재주를 크게 칭찬하고 잔치를 베풀어 대접한다.",
	"morp" : [
	],
	"morp_eval" : [
	],
	"WSD" : [
	],
	"word" : [
		{"id" : 0, "text" : "용왕의", "type" : "", "begin" : 0, "end" : 1},
		{"id" : 1, "text" : "청을", "type" : "", "begin" : 2, "end" : 3},
		{"id" : 2, "text" : "받고,", "type" : "", "begin" : 4, "end" : 6},
		{"id" : 3, "text" : "새로", "type" : "", "begin" : 7, "end" : 7},
		{"id" : 4, "text" : "지은", "type" : "", "begin" : 8, "end" : 9},
		{"id" : 5, "text" : "누각의", "type" : "", "begin" : 10, "end" : 11},
		{"id" : 6, "text" : "상량문을", "type" : "", "begin" : 12, "end" : 14},
		{"id" : 7, "text" : "지어주었더니", "type" : "", "begin" : 15, "end" : 19},
		{"id" : 8, "text" : "용왕은", "type" : "", "begin" : 20, "end" : 21},
		{"id" : 9, "text" : "그", "type" : "", "begin" : 22, "end" : 22},
		{"id" : 10, "text" : "재주를", "type" : "", "begin" : 23, "end" : 24},
		{"id" : 11, "text" : "크게", "type" : "", "begin" : 25, "end" : 26},
		{"id" : 12, "text" : "칭찬하고", "type" : "", "begin" : 27, "end" : 29},
		{"id" : 13, "text" : "잔치를", "type" : "", "begin" : 30, "end" : 31},
		{"id" : 14, "text" : "베풀어", "type" : "", "begin" : 32, "end" : 33},
		{"id" : 15, "text" : "대접한다.", "type" : "", "begin" : 34, "end" : 37}
	],
	"NE" : [
	],
	"chunk" : [
	],
	"dependency" : [
	],
	"phrase_dependency" : [
	],
	"SRL" : [
		{"verb" : "받", "sense" : 1, "word_id" : 2, "weight" : 0.231745,
			"argument" : [
				{"type" : "ARG1", "word_id" : 1, "text" : "청을", "weight" : 0.231745 }
			] },
		{"verb" : "짓", "sense" : 1, "word_id" : 4, "weight" : 0.179325,
			"argument" : [
				{"type" : "ARGM-ADV", "word_id" : 3, "text" : "새로", "weight" : 1 },
				{"type" : "ARG1", "word_id" : 5, "text" : "누각의", "weight" : 0.162035 }
			] },
		{"verb" : "짓", "sense" : 1, "word_id" : 7, "weight" : 0.396309,
			"argument" : [
				{"type" : "ARG1", "word_id" : 6, "text" : "상량문을", "weight" : 0.396309 }
			] },
		{"verb" : "칭찬", "sense" : 1, "word_id" : 12, "weight" : 0.226811,
			"argument" : [
				{"type" : "ARG0", "word_id" : 8, "text" : "용왕은", "weight" : 0.225575 },
				{"type" : "ARG1", "word_id" : 10, "text" : "재주를", "weight" : 0.275972 },
				{"type" : "ARGM-ADV", "word_id" : 11, "text" : "크게", "weight" : 1 }
			] },
		{"verb" : "베풀", "sense" : 1, "word_id" : 14, "weight" : 0.314464,
			"argument" : [
				{"type" : "ARG1", "word_id" : 13, "text" : "잔치를", "weight" : 0.314464 },
				{"type" : "ARG0", "word_id" : 8, "text" : "용왕은", "weight" : 1 }
			] },
		{"verb" : "대접", "sense" : 1, "word_id" : 15, "weight" : 0.134683,
			"argument" : [
				{"type" : "ARG0", "word_id" : 8, "text" : "용왕은", "weight" : 0.192812 },
				{"type" : "ARGM-MNR", "word_id" : 14, "text" : "베풀어", "weight" : 1 }
			] }
	],
	"relation" : [
	],
	"SA" : [
	],
	"ZA" : [
	]
	}
 ],
 "entity" : [
 ]
}

