{"doc_id" : "940031A05",
 "DCT" : "",
 "category" : "",
 "category_weight" : 0,
 "title" : {"text" : "원성왕", "NE" : ""},
 "metaInfo" : { },
 "sentence" : [
	{
	"id" : 0,
	"reserve_str" : "",
	"text" : "785년(원성왕 1) 원성왕은 총관(摠管)을 도독(都督)으로 바꾸었으며, 788년에는 독서삼품과(讀書三品科)를 설치하였다.",
	"morp" : [
	],
	"morp_eval" : [
	],
	"WSD" : [
	],
	"word" : [
		{"id" : 0, "text" : "785년(원성왕", "type" : "", "begin" : 0, "end" : 3},
		{"id" : 1, "text" : "1)", "type" : "", "begin" : 4, "end" : 5},
		{"id" : 2, "text" : "원성왕은", "type" : "", "begin" : 6, "end" : 7},
		{"id" : 3, "text" : "총관(摠管)을", "type" : "", "begin" : 8, "end" : 12},
		{"id" : 4, "text" : "도독(都督)으로", "type" : "", "begin" : 13, "end" : 17},
		{"id" : 5, "text" : "바꾸었으며,", "type" : "", "begin" : 18, "end" : 21},
		{"id" : 6, "text" : "788년에는", "type" : "", "begin" : 22, "end" : 25},
		{"id" : 7, "text" : "독서삼품과(讀書三品科)를", "type" : "", "begin" : 26, "end" : 32},
		{"id" : 8, "text" : "설치하였다.", "type" : "", "begin" : 33, "end" : 37}
	],
	"NE" : [
	],
	"chunk" : [
	],
	"dependency" : [
	],
	"phrase_dependency" : [
	],
	"SRL" : [
		{"verb" : "바꾸", "sense" : 1, "word_id" : 5, "weight" : 0.247433,
			"argument" : [
				{"type" : "ARG0", "word_id" : 2, "text" : "원성왕은", "weight" : 0.229653 },
				{"type" : "ARG1", "word_id" : 3, "text" : "총관(摠管)을", "weight" : 0.376239 },
				{"type" : "ARG3", "word_id" : 4, "text" : "도독(都督)으로", "weight" : 0.136408 },
				{"type" : "ARGM-TMP", "word_id" : 1, "text" : "1)", "weight" : 1 }
			] },
		{"verb" : "설치", "sense" : 1, "word_id" : 8, "weight" : 0.182406,
			"argument" : [
				{"type" : "ARG0", "word_id" : 2, "text" : "원성왕은", "weight" : 0.157946 },
				{"type" : "ARGM-TMP", "word_id" : 6, "text" : "788년에는", "weight" : 0.242458 },
				{"type" : "ARG1", "word_id" : 7, "text" : "독서삼품과(讀書三品科)를", "weight" : 0.146813 }
			] }
	],
	"relation" : [
	],
	"SA" : [
	],
	"ZA" : [
	]
	},
	{
	"id" : 1,
	"reserve_str" : "",
	"text" : " 독서삼품과는 유교경전에 능통한 사람을 3품으로 나누어 실력에 따라 관리로 등용한 것으로, 이러한 개혁은 국학(國學)을 설치한 지 이미 1세기가 지난 당시 신라사회에 있어서 무예를 중심으로 한 종래의 관리등용법의 개혁이 요청되고 있었음을 의미한다.",
	"morp" : [
	],
	"morp_eval" : [
	],
	"WSD" : [
	],
	"word" : [
		{"id" : 0, "text" : "독서삼품과는", "type" : "", "begin" : 0, "end" : 2},
		{"id" : 1, "text" : "유교경전에", "type" : "", "begin" : 3, "end" : 5},
		{"id" : 2, "text" : "능통한", "type" : "", "begin" : 6, "end" : 8},
		{"id" : 3, "text" : "사람을", "type" : "", "begin" : 9, "end" : 10},
		{"id" : 4, "text" : "3품으로", "type" : "", "begin" : 11, "end" : 13},
		{"id" : 5, "text" : "나누어", "type" : "", "begin" : 14, "end" : 15},
		{"id" : 6, "text" : "실력에", "type" : "", "begin" : 16, "end" : 17},
		{"id" : 7, "text" : "따라", "type" : "", "begin" : 18, "end" : 19},
		{"id" : 8, "text" : "관리로", "type" : "", "begin" : 20, "end" : 21},
		{"id" : 9, "text" : "등용한", "type" : "", "begin" : 22, "end" : 24},
		{"id" : 10, "text" : "것으로,", "type" : "", "begin" : 25, "end" : 27},
		{"id" : 11, "text" : "이러한", "type" : "", "begin" : 28, "end" : 29},
		{"id" : 12, "text" : "개혁은", "type" : "", "begin" : 30, "end" : 31},
		{"id" : 13, "text" : "국학(國學)을", "type" : "", "begin" : 32, "end" : 36},
		{"id" : 14, "text" : "설치한", "type" : "", "begin" : 37, "end" : 39},
		{"id" : 15, "text" : "지", "type" : "", "begin" : 40, "end" : 40},
		{"id" : 16, "text" : "이미", "type" : "", "begin" : 41, "end" : 41},
		{"id" : 17, "text" : "1세기가", "type" : "", "begin" : 42, "end" : 44},
		{"id" : 18, "text" : "지난", "type" : "", "begin" : 45, "end" : 46},
		{"id" : 19, "text" : "당시", "type" : "", "begin" : 47, "end" : 47},
		{"id" : 20, "text" : "신라사회에", "type" : "", "begin" : 48, "end" : 50},
		{"id" : 21, "text" : "있어서", "type" : "", "begin" : 51, "end" : 52},
		{"id" : 22, "text" : "무예를", "type" : "", "begin" : 53, "end" : 54},
		{"id" : 23, "text" : "중심으로", "type" : "", "begin" : 55, "end" : 56},
		{"id" : 24, "text" : "한", "type" : "", "begin" : 57, "end" : 58},
		{"id" : 25, "text" : "종래의", "type" : "", "begin" : 59, "end" : 60},
		{"id" : 26, "text" : "관리등용법의", "type" : "", "begin" : 61, "end" : 63},
		{"id" : 27, "text" : "개혁이", "type" : "", "begin" : 64, "end" : 65},
		{"id" : 28, "text" : "요청되고", "type" : "", "begin" : 66, "end" : 68},
		{"id" : 29, "text" : "있었음을", "type" : "", "begin" : 69, "end" : 72},
		{"id" : 30, "text" : "의미한다.", "type" : "", "begin" : 73, "end" : 76}
	],
	"NE" : [
	],
	"chunk" : [
	],
	"dependency" : [
	],
	"phrase_dependency" : [
	],
	"SRL" : [
		{"verb" : "능통", "sense" : 1, "word_id" : 2, "weight" : 0.216157,
			"argument" : [
				{"type" : "ARG0", "word_id" : 3, "text" : "사람을", "weight" : 1 },
				{"type" : "ARG1", "word_id" : 1, "text" : "유교경전에", "weight" : 1 }
			] },
		{"verb" : "나누", "sense" : 1, "word_id" : 5, "weight" : 0.23159,
			"argument" : [
				{"type" : "ARG1", "word_id" : 3, "text" : "사람을", "weight" : 0.304693 },
				{"type" : "ARG2", "word_id" : 4, "text" : "3품으로", "weight" : 0.158488 },
				{"type" : "ARG0", "word_id" : 0, "text" : "독서삼품과는", "weight" : 1 }
			] },
		{"verb" : "따르", "sense" : 2, "word_id" : 7, "weight" : 0.249939,
			"argument" : [
				{"type" : "ARG2", "word_id" : 6, "text" : "실력에", "weight" : 0.249939 }
			] },
		{"verb" : "등용", "sense" : 1, "word_id" : 9, "weight" : 0.122402,
			"argument" : [
				{"type" : "ARGM-MNR", "word_id" : 7, "text" : "따라", "weight" : 0.111844 },
				{"type" : "ARG2", "word_id" : 8, "text" : "관리로", "weight" : 1 }
			] },
		{"verb" : "설치", "sense" : 1, "word_id" : 14, "weight" : 0.266909,
			"argument" : [
				{"type" : "ARG1", "word_id" : 13, "text" : "국학(國學)을", "weight" : 0.266909 }
			] },
		{"verb" : "지나", "sense" : 1, "word_id" : 18, "weight" : 0.169834,
			"argument" : [
				{"type" : "ARGM-ADV", "word_id" : 16, "text" : "이미", "weight" : 1 },
				{"type" : "ARG1", "word_id" : 17, "text" : "1세기가", "weight" : 1 },
				{"type" : "ARG0", "word_id" : 15, "text" : "지", "weight" : 1 }
			] },
		{"verb" : "있", "sense" : 1, "word_id" : 21, "weight" : 0.25456,
			"argument" : [
				{"type" : "ARGM-TMP", "word_id" : 19, "text" : "당시", "weight" : 0.228361 },
				{"type" : "ARG2", "word_id" : 20, "text" : "신라사회에", "weight" : 1 },
				{"type" : "ARG1", "word_id" : 18, "text" : "지난", "weight" : 1 }
			] },
		{"verb" : "하", "sense" : 3, "word_id" : 24, "weight" : 0.155977,
			"argument" : [
				{"type" : "ARG1", "word_id" : 22, "text" : "무예를", "weight" : 0.183552 },
				{"type" : "ARG2", "word_id" : 23, "text" : "중심으로", "weight" : 0.128403 }
			] },
		{"verb" : "요청", "sense" : 1, "word_id" : 28, "weight" : 0.311299,
			"argument" : [
				{"type" : "ARG1", "word_id" : 27, "text" : "개혁이", "weight" : 0.195426 },
				{"type" : "AUX", "word_id" : 29, "text" : "있었음을", "weight" : 0.427173 },
				{"type" : "ARG2", "word_id" : 21, "text" : "있어서", "weight" : 1 }
			] },
		{"verb" : "의미", "sense" : 1, "word_id" : 30, "weight" : 0.168208,
			"argument" : [
				{"type" : "ARG2", "word_id" : 29, "text" : "있었음을", "weight" : 0.168208 }
			] }
	],
	"relation" : [
	],
	"SA" : [
	],
	"ZA" : [
	]
	}
 ],
 "entity" : [
 ]
}

