{"doc_id" : "940026A02",
 "DCT" : "",
 "category" : "",
 "category_weight" : 0,
 "title" : {"text" : "게토", "NE" : ""},
 "metaInfo" : { },
 "sentence" : [
	{
	"id" : 0,
	"reserve_str" : "",
	"text" : "예전에, 유대 인들이 모여 살도록 법으로 규정해 놓은 거주 지역.",
	"morp" : [
	],
	"morp_eval" : [
	],
	"WSD" : [
	],
	"word" : [
		{"id" : 0, "text" : "예전에,", "type" : "", "begin" : 0, "end" : 2},
		{"id" : 1, "text" : "유대", "type" : "", "begin" : 3, "end" : 3},
		{"id" : 2, "text" : "인들이", "type" : "", "begin" : 4, "end" : 6},
		{"id" : 3, "text" : "모여", "type" : "", "begin" : 7, "end" : 8},
		{"id" : 4, "text" : "살도록", "type" : "", "begin" : 9, "end" : 10},
		{"id" : 5, "text" : "법으로", "type" : "", "begin" : 11, "end" : 12},
		{"id" : 6, "text" : "규정해", "type" : "", "begin" : 13, "end" : 15},
		{"id" : 7, "text" : "놓은", "type" : "", "begin" : 16, "end" : 17},
		{"id" : 8, "text" : "거주", "type" : "", "begin" : 18, "end" : 18},
		{"id" : 9, "text" : "지역.", "type" : "", "begin" : 19, "end" : 20}
	],
	"NE" : [
	],
	"chunk" : [
	],
	"dependency" : [
	],
	"phrase_dependency" : [
	],
	"SRL" : [
		{"verb" : "모으", "sense" : 1, "word_id" : 3, "weight" : 0.240204,
			"argument" : [
				{"type" : "ARG1", "word_id" : 2, "text" : "인들이", "weight" : 0.240204 }
			] },
		{"verb" : "살", "sense" : 1, "word_id" : 4, "weight" : 0.18051,
			"argument" : [
				{"type" : "ARG0", "word_id" : 2, "text" : "인들이", "weight" : 0.172379 },
				{"type" : "ARGM-MNR", "word_id" : 3, "text" : "모여", "weight" : 0.18864 },
				{"type" : "ARG2", "word_id" : 9, "text" : "지역.", "weight" : 1 }
			] },
		{"verb" : "규정", "sense" : 1, "word_id" : 6, "weight" : 0.19433,
			"argument" : [
				{"type" : "ARGM-INS", "word_id" : 5, "text" : "법으로", "weight" : 1 },
				{"type" : "AUX", "word_id" : 7, "text" : "놓은", "weight" : 0.313678 },
				{"type" : "ARG1", "word_id" : 4, "text" : "살도록", "weight" : 1 }
			] }
	],
	"relation" : [
	],
	"SA" : [
	],
	"ZA" : [
	]
	},
	{
	"id" : 1,
	"reserve_str" : "",
	"text" : " 미국에서, 흑인 또는 소수 민족이 사는 빈민가.",
	"morp" : [
	],
	"morp_eval" : [
	],
	"WSD" : [
	],
	"word" : [
		{"id" : 0, "text" : "미국에서,", "type" : "", "begin" : 0, "end" : 2},
		{"id" : 1, "text" : "흑인", "type" : "", "begin" : 3, "end" : 3},
		{"id" : 2, "text" : "또는", "type" : "", "begin" : 4, "end" : 4},
		{"id" : 3, "text" : "소수", "type" : "", "begin" : 5, "end" : 5},
		{"id" : 4, "text" : "민족이", "type" : "", "begin" : 6, "end" : 7},
		{"id" : 5, "text" : "사는", "type" : "", "begin" : 8, "end" : 9},
		{"id" : 6, "text" : "빈민가.", "type" : "", "begin" : 10, "end" : 12}
	],
	"NE" : [
	],
	"chunk" : [
	],
	"dependency" : [
	],
	"phrase_dependency" : [
	],
	"SRL" : [
		{"verb" : "살", "sense" : 1, "word_id" : 5, "weight" : 0.235841,
			"argument" : [
				{"type" : "ARG0", "word_id" : 4, "text" : "민족이", "weight" : 0.235841 },
				{"type" : "ARG2", "word_id" : 6, "text" : "빈민가.", "weight" : 1 }
			] }
	],
	"relation" : [
	],
	"SA" : [
	],
	"ZA" : [
	]
	}
 ],
 "entity" : [
 ]
}

