{"doc_id" : "940036A01",
 "DCT" : "",
 "category" : "",
 "category_weight" : 0,
 "title" : {"text" : "뤼순 감옥", "NE" : ""},
 "metaInfo" : { },
 "sentence" : [
	{
	"id" : 0,
	"reserve_str" : "",
	"text" : "뤼순 감옥은 러시아의 감옥이었으나 러일전쟁 이후 일본이 차지하였다 안중근과 신채호도 이곳에 갇혀 사형되고 옥사했다.",
	"morp" : [
	],
	"morp_eval" : [
	],
	"WSD" : [
	],
	"word" : [
		{"id" : 0, "text" : "뤼순", "type" : "", "begin" : 0, "end" : 0},
		{"id" : 1, "text" : "감옥은", "type" : "", "begin" : 1, "end" : 2},
		{"id" : 2, "text" : "러시아의", "type" : "", "begin" : 3, "end" : 4},
		{"id" : 3, "text" : "감옥이었으나", "type" : "", "begin" : 5, "end" : 8},
		{"id" : 4, "text" : "러일전쟁", "type" : "", "begin" : 9, "end" : 10},
		{"id" : 5, "text" : "이후", "type" : "", "begin" : 11, "end" : 11},
		{"id" : 6, "text" : "일본이", "type" : "", "begin" : 12, "end" : 13},
		{"id" : 7, "text" : "차지하였다", "type" : "", "begin" : 14, "end" : 17},
		{"id" : 8, "text" : "안중근과", "type" : "", "begin" : 18, "end" : 20},
		{"id" : 9, "text" : "신채호도", "type" : "", "begin" : 21, "end" : 22},
		{"id" : 10, "text" : "이곳에", "type" : "", "begin" : 23, "end" : 24},
		{"id" : 11, "text" : "갇혀", "type" : "", "begin" : 25, "end" : 26},
		{"id" : 12, "text" : "사형되고", "type" : "", "begin" : 27, "end" : 29},
		{"id" : 13, "text" : "옥사했다.", "type" : "", "begin" : 30, "end" : 34}
	],
	"NE" : [
	],
	"chunk" : [
	],
	"dependency" : [
	],
	"phrase_dependency" : [
	],
	"SRL" : [
		{"verb" : "차지", "sense" : 1, "word_id" : 7, "weight" : 0.384603,
			"argument" : [
				{"type" : "ARGM-TMP", "word_id" : 5, "text" : "이후", "weight" : 0.459771 },
				{"type" : "ARG0", "word_id" : 6, "text" : "일본이", "weight" : 0.309436 }
			] },
		{"verb" : "가두", "sense" : 1, "word_id" : 11, "weight" : 0.186413,
			"argument" : [
				{"type" : "ARG2", "word_id" : 10, "text" : "이곳에", "weight" : 1 },
				{"type" : "ARG1", "word_id" : 9, "text" : "신채호도", "weight" : 1 }
			] },
		{"verb" : "사형", "sense" : 1, "word_id" : 12, "weight" : 0.100404,
			"argument" : [
				{"type" : "ARG1", "word_id" : 9, "text" : "신채호도", "weight" : 0.135557 }
			] }
	],
	"relation" : [
	],
	"SA" : [
	],
	"ZA" : [
	]
	}
 ],
 "entity" : [
 ]
}

