{"doc_id" : "940030Q01",
 "DCT" : "",
 "category" : "",
 "category_weight" : 0,
 "title" : {"text" : "Q30", "NE" : ""},
 "metaInfo" : { },
 "sentence" : [
	{
	"id" : 0,
	"reserve_str" : "",
	"text" : "이것은 위가 평평한 원통형에 여러 가닥의 실을 단 붉은 모자이다.",
	"morp" : [
	],
	"morp_eval" : [
	],
	"WSD" : [
	],
	"word" : [
		{"id" : 0, "text" : "이것은", "type" : "", "begin" : 0, "end" : 1},
		{"id" : 1, "text" : "위가", "type" : "", "begin" : 2, "end" : 3},
		{"id" : 2, "text" : "평평한", "type" : "", "begin" : 4, "end" : 5},
		{"id" : 3, "text" : "원통형에", "type" : "", "begin" : 6, "end" : 8},
		{"id" : 4, "text" : "여러", "type" : "", "begin" : 9, "end" : 9},
		{"id" : 5, "text" : "가닥의", "type" : "", "begin" : 10, "end" : 11},
		{"id" : 6, "text" : "실을", "type" : "", "begin" : 12, "end" : 13},
		{"id" : 7, "text" : "단", "type" : "", "begin" : 14, "end" : 15},
		{"id" : 8, "text" : "붉은", "type" : "", "begin" : 16, "end" : 17},
		{"id" : 9, "text" : "모자이다.", "type" : "", "begin" : 18, "end" : 21}
	],
	"NE" : [
	],
	"chunk" : [
	],
	"dependency" : [
	],
	"phrase_dependency" : [
	],
	"SRL" : [
		{"verb" : "평평하", "sense" : 1, "word_id" : 2, "weight" : 0.175049,
			"argument" : [
				{"type" : "ARG1", "word_id" : 1, "text" : "위가", "weight" : 0.205993 },
				{"type" : "ARGM-PRD", "word_id" : 3, "text" : "원통형에", "weight" : 1 }
			] },
		{"verb" : "달", "sense" : 2, "word_id" : 7, "weight" : 0.317501,
			"argument" : [
				{"type" : "ARG1", "word_id" : 6, "text" : "실을", "weight" : 0.317501 },
				{"type" : "ARG2", "word_id" : 3, "text" : "원통형에", "weight" : 1 }
			] },
		{"verb" : "붉", "sense" : 1, "word_id" : 8, "weight" : 0.174189,
			"argument" : [
				{"type" : "ARG1", "word_id" : 9, "text" : "모자이다.", "weight" : 0.174189 }
			] }
	],
	"relation" : [
	],
	"SA" : [
	],
	"ZA" : [
	]
	},
	{
	"id" : 1,
	"reserve_str" : "",
	"text" : " 오스만 제국은 국민적 일치감을 높이기 위해 각 종교, 민족별로 달리 쓰던 모자를 통일해 이것의 착용을 의무화했는데, '터키모자'로도 불리는 이것은 무엇일까?",
	"morp" : [
	],
	"morp_eval" : [
	],
	"WSD" : [
	],
	"word" : [
		{"id" : 0, "text" : "오스만", "type" : "", "begin" : 0, "end" : 0},
		{"id" : 1, "text" : "제국은", "type" : "", "begin" : 1, "end" : 2},
		{"id" : 2, "text" : "국민적", "type" : "", "begin" : 3, "end" : 4},
		{"id" : 3, "text" : "일치감을", "type" : "", "begin" : 5, "end" : 7},
		{"id" : 4, "text" : "높이기", "type" : "", "begin" : 8, "end" : 9},
		{"id" : 5, "text" : "위해", "type" : "", "begin" : 10, "end" : 11},
		{"id" : 6, "text" : "각", "type" : "", "begin" : 12, "end" : 12},
		{"id" : 7, "text" : "종교,", "type" : "", "begin" : 13, "end" : 14},
		{"id" : 8, "text" : "민족별로", "type" : "", "begin" : 15, "end" : 17},
		{"id" : 9, "text" : "달리", "type" : "", "begin" : 18, "end" : 18},
		{"id" : 10, "text" : "쓰던", "type" : "", "begin" : 19, "end" : 20},
		{"id" : 11, "text" : "모자를", "type" : "", "begin" : 21, "end" : 22},
		{"id" : 12, "text" : "통일해", "type" : "", "begin" : 23, "end" : 25},
		{"id" : 13, "text" : "이것의", "type" : "", "begin" : 26, "end" : 27},
		{"id" : 14, "text" : "착용을", "type" : "", "begin" : 28, "end" : 29},
		{"id" : 15, "text" : "의무화했는데,", "type" : "", "begin" : 30, "end" : 35},
		{"id" : 16, "text" : "'터키모자'로도", "type" : "", "begin" : 36, "end" : 41},
		{"id" : 17, "text" : "불리는", "type" : "", "begin" : 42, "end" : 43},
		{"id" : 18, "text" : "이것은", "type" : "", "begin" : 44, "end" : 45},
		{"id" : 19, "text" : "무엇일까?", "type" : "", "begin" : 46, "end" : 49}
	],
	"NE" : [
	],
	"chunk" : [
	],
	"dependency" : [
	],
	"phrase_dependency" : [
	],
	"SRL" : [
		{"verb" : "높", "sense" : 1, "word_id" : 4, "weight" : 0.328975,
			"argument" : [
				{"type" : "ARG1", "word_id" : 3, "text" : "일치감을", "weight" : 1 }
			] },
		{"verb" : "위하", "sense" : 1, "word_id" : 5, "weight" : 0.217752,
			"argument" : [
				{"type" : "ARG1", "word_id" : 4, "text" : "높이기", "weight" : 0.217752 },
				{"type" : "ARG0", "word_id" : 1, "text" : "제국은", "weight" : 1 }
			] },
		{"verb" : "쓰", "sense" : 3, "word_id" : 10, "weight" : 0.120336,
			"argument" : [
				{"type" : "ARGM-CND", "word_id" : 8, "text" : "민족별로", "weight" : 1 },
				{"type" : "ARGM-MNR", "word_id" : 9, "text" : "달리", "weight" : 0.950295 },
				{"type" : "ARG1", "word_id" : 11, "text" : "모자를", "weight" : 1 }
			] },
		{"verb" : "통일", "sense" : 1, "word_id" : 12, "weight" : 0.390911,
			"argument" : [
				{"type" : "ARG1", "word_id" : 11, "text" : "모자를", "weight" : 0.390911 },
				{"type" : "ARG0", "word_id" : 1, "text" : "제국은", "weight" : 1 }
			] },
		{"verb" : "의무", "sense" : 1, "word_id" : 15, "weight" : 0.302142,
			"argument" : [
				{"type" : "ARG1", "word_id" : 14, "text" : "착용을", "weight" : 0.302142 }
			] },
		{"verb" : "부르", "sense" : 2, "word_id" : 17, "weight" : 0.222835,
			"argument" : [
				{"type" : "ARG2", "word_id" : 16, "text" : "'터키모자'로도", "weight" : 1 },
				{"type" : "ARG1", "word_id" : 18, "text" : "이것은", "weight" : 1 }
			] }
	],
	"relation" : [
	],
	"SA" : [
	],
	"ZA" : [
	]
	}
 ],
 "entity" : [
 ]
}

