{"doc_id" : "940001A02",
 "DCT" : "",
 "category" : "",
 "category_weight" : 0,
 "title" : {"text" : "고물", "NE" : ""},
 "metaInfo" : { },
 "sentence" : [
	{
	"id" : 0,
	"reserve_str" : "",
	"text" : "시루떡을 찔 때 켜켜로 놓거나, 각종 단자류의 겉에 묻히는 가루.",
	"morp" : [
	],
	"morp_eval" : [
	],
	"WSD" : [
	],
	"word" : [
		{"id" : 0, "text" : "시루떡을", "type" : "", "begin" : 0, "end" : 2},
		{"id" : 1, "text" : "찔", "type" : "", "begin" : 3, "end" : 4},
		{"id" : 2, "text" : "때", "type" : "", "begin" : 5, "end" : 5},
		{"id" : 3, "text" : "켜켜로", "type" : "", "begin" : 6, "end" : 6},
		{"id" : 4, "text" : "놓거나,", "type" : "", "begin" : 7, "end" : 9},
		{"id" : 5, "text" : "각종", "type" : "", "begin" : 10, "end" : 10},
		{"id" : 6, "text" : "단자류의", "type" : "", "begin" : 11, "end" : 12},
		{"id" : 7, "text" : "겉에", "type" : "", "begin" : 13, "end" : 14},
		{"id" : 8, "text" : "묻히는", "type" : "", "begin" : 15, "end" : 16},
		{"id" : 9, "text" : "가루.", "type" : "", "begin" : 17, "end" : 18}
	],
	"NE" : [
	],
	"chunk" : [
	],
	"dependency" : [
	],
	"phrase_dependency" : [
	],
	"SRL" : [
		{"verb" : "찌", "sense" : 1, "word_id" : 1, "weight" : 0.299424,
			"argument" : [
				{"type" : "ARG1", "word_id" : 0, "text" : "시루떡을", "weight" : 0.299424 }
			] },
		{"verb" : "묻", "sense" : 3, "word_id" : 8, "weight" : 0.224947,
			"argument" : [
				{"type" : "ARG2", "word_id" : 7, "text" : "겉에", "weight" : 1 },
				{"type" : "ARG1", "word_id" : 9, "text" : "가루.", "weight" : 1 }
			] }
	],
	"relation" : [
	],
	"SA" : [
	],
	"ZA" : [
	]
	}
 ],
 "entity" : [
 ]
}

