{"doc_id" : "940013A04",
 "DCT" : "",
 "category" : "",
 "category_weight" : 0,
 "title" : {"text" : "헝가리의 외교", "NE" : ""},
 "metaInfo" : { },
 "sentence" : [
	{
	"id" : 0,
	"reserve_str" : "",
	"text" : "특히 비세그라드 4국(헝가리, 폴란드, 체코, 슬로바키아)간 협정을 통해 중동부유럽지역의 협력 체제를 구축하고 이탈리아, 슬로베니아,크로아티아 등을 포함한 광범위한 유럽국가들의 협력체제 건설을 추진하고 있다.",
	"morp" : [
	],
	"morp_eval" : [
	],
	"WSD" : [
	],
	"word" : [
		{"id" : 0, "text" : "특히", "type" : "", "begin" : 0, "end" : 0},
		{"id" : 1, "text" : "비세그라드", "type" : "", "begin" : 1, "end" : 1},
		{"id" : 2, "text" : "4국(헝가리,", "type" : "", "begin" : 2, "end" : 6},
		{"id" : 3, "text" : "폴란드,", "type" : "", "begin" : 7, "end" : 8},
		{"id" : 4, "text" : "체코,", "type" : "", "begin" : 9, "end" : 10},
		{"id" : 5, "text" : "슬로바키아)간", "type" : "", "begin" : 11, "end" : 13},
		{"id" : 6, "text" : "협정을", "type" : "", "begin" : 14, "end" : 15},
		{"id" : 7, "text" : "통해", "type" : "", "begin" : 16, "end" : 17},
		{"id" : 8, "text" : "중동부유럽지역의", "type" : "", "begin" : 18, "end" : 22},
		{"id" : 9, "text" : "협력", "type" : "", "begin" : 23, "end" : 23},
		{"id" : 10, "text" : "체제를", "type" : "", "begin" : 24, "end" : 25},
		{"id" : 11, "text" : "구축하고", "type" : "", "begin" : 26, "end" : 28},
		{"id" : 12, "text" : "이탈리아,", "type" : "", "begin" : 29, "end" : 30},
		{"id" : 13, "text" : "슬로베니아,크로아티아", "type" : "", "begin" : 31, "end" : 33},
		{"id" : 14, "text" : "등을", "type" : "", "begin" : 34, "end" : 35},
		{"id" : 15, "text" : "포함한", "type" : "", "begin" : 36, "end" : 38},
		{"id" : 16, "text" : "광범위한", "type" : "", "begin" : 39, "end" : 41},
		{"id" : 17, "text" : "유럽국가들의", "type" : "", "begin" : 42, "end" : 45},
		{"id" : 18, "text" : "협력체제", "type" : "", "begin" : 46, "end" : 47},
		{"id" : 19, "text" : "건설을", "type" : "", "begin" : 48, "end" : 49},
		{"id" : 20, "text" : "추진하고", "type" : "", "begin" : 50, "end" : 52},
		{"id" : 21, "text" : "있다.", "type" : "", "begin" : 53, "end" : 55}
	],
	"NE" : [
	],
	"chunk" : [
	],
	"dependency" : [
	],
	"phrase_dependency" : [
	],
	"SRL" : [
		{"verb" : "통하", "sense" : 1, "word_id" : 7, "weight" : 0.433718,
			"argument" : [
				{"type" : "ARG2", "word_id" : 6, "text" : "협정을", "weight" : 0.433718 },
				{"type" : "ARG1", "word_id" : 11, "text" : "구축하고", "weight" : 1 }
			] },
		{"verb" : "구축", "sense" : 1, "word_id" : 11, "weight" : 0.145222,
			"argument" : [
				{"type" : "ARG1", "word_id" : 10, "text" : "체제를", "weight" : 0.145222 }
			] },
		{"verb" : "포함", "sense" : 1, "word_id" : 15, "weight" : 0.298724,
			"argument" : [
				{"type" : "ARG1", "word_id" : 14, "text" : "등을", "weight" : 0.339766 },
				{"type" : "ARG2", "word_id" : 17, "text" : "유럽국가들의", "weight" : 0.257682 }
			] },
		{"verb" : "광범위", "sense" : 1, "word_id" : 16, "weight" : 0.154636,
			"argument" : [
				{"type" : "ARG1", "word_id" : 19, "text" : "건설을", "weight" : 1 }
			] },
		{"verb" : "추진", "sense" : 1, "word_id" : 20, "weight" : 0.408888,
			"argument" : [
				{"type" : "ARG1", "word_id" : 19, "text" : "건설을", "weight" : 0.279644 },
				{"type" : "AUX", "word_id" : 21, "text" : "있다.", "weight" : 0.538132 }
			] }
	],
	"relation" : [
	],
	"SA" : [
	],
	"ZA" : [
	]
	}
 ],
 "entity" : [
 ]
}

