{"doc_id" : "940025A01",
 "DCT" : "",
 "category" : "",
 "category_weight" : 0,
 "title" : {"text" : "공명", "NE" : ""},
 "metaInfo" : { },
 "sentence" : [
	{
	"id" : 0,
	"reserve_str" : "",
	"text" : "190km/h의 강풍에도 견딜 수 있도록 설계 된 타코마 다리는 구조물의 고유 진동수와 일치하는 바람에 의해 붕괴되었다.",
	"morp" : [
	],
	"morp_eval" : [
	],
	"WSD" : [
	],
	"word" : [
		{"id" : 0, "text" : "190km/h의", "type" : "", "begin" : 0, "end" : 4},
		{"id" : 1, "text" : "강풍에도", "type" : "", "begin" : 5, "end" : 7},
		{"id" : 2, "text" : "견딜", "type" : "", "begin" : 8, "end" : 9},
		{"id" : 3, "text" : "수", "type" : "", "begin" : 10, "end" : 10},
		{"id" : 4, "text" : "있도록", "type" : "", "begin" : 11, "end" : 12},
		{"id" : 5, "text" : "설계", "type" : "", "begin" : 13, "end" : 13},
		{"id" : 6, "text" : "된", "type" : "", "begin" : 14, "end" : 15},
		{"id" : 7, "text" : "타코마", "type" : "", "begin" : 16, "end" : 16},
		{"id" : 8, "text" : "다리는", "type" : "", "begin" : 17, "end" : 18},
		{"id" : 9, "text" : "구조물의", "type" : "", "begin" : 19, "end" : 21},
		{"id" : 10, "text" : "고유", "type" : "", "begin" : 22, "end" : 22},
		{"id" : 11, "text" : "진동수와", "type" : "", "begin" : 23, "end" : 25},
		{"id" : 12, "text" : "일치하는", "type" : "", "begin" : 26, "end" : 28},
		{"id" : 13, "text" : "바람에", "type" : "", "begin" : 29, "end" : 30},
		{"id" : 14, "text" : "의해", "type" : "", "begin" : 31, "end" : 32},
		{"id" : 15, "text" : "붕괴되었다.", "type" : "", "begin" : 33, "end" : 37}
	],
	"NE" : [
	],
	"chunk" : [
	],
	"dependency" : [
	],
	"phrase_dependency" : [
	],
	"SRL" : [
		{"verb" : "견디", "sense" : 1, "word_id" : 2, "weight" : 0.306054,
			"argument" : [
				{"type" : "ARG1", "word_id" : 1, "text" : "강풍에도", "weight" : 0.810355 },
				{"type" : "AUX", "word_id" : 4, "text" : "있도록", "weight" : 0.531072 }
			] },
		{"verb" : "되", "sense" : 1, "word_id" : 6, "weight" : 0.160343,
			"argument" : [
				{"type" : "ARG2", "word_id" : 5, "text" : "설계", "weight" : 0.189205 },
				{"type" : "ARG1", "word_id" : 8, "text" : "다리는", "weight" : 0.232247 }
			] },
		{"verb" : "일치", "sense" : 1, "word_id" : 12, "weight" : 0.112335,
			"argument" : [
				{"type" : "ARG1", "word_id" : 8, "text" : "다리는", "weight" : 0.115167 },
				{"type" : "ARG2", "word_id" : 11, "text" : "진동수와", "weight" : 0.109503 }
			] },
		{"verb" : "의하", "sense" : 1, "word_id" : 14, "weight" : 0.21247,
			"argument" : [
				{"type" : "ARG2", "word_id" : 13, "text" : "바람에", "weight" : 1 }
			] },
		{"verb" : "붕괴", "sense" : 1, "word_id" : 15, "weight" : 0.104082,
			"argument" : [
				{"type" : "ARG1", "word_id" : 8, "text" : "다리는", "weight" : 0.133356 },
				{"type" : "ARGM-CAU", "word_id" : 14, "text" : "의해", "weight" : 1 }
			] }
	],
	"relation" : [
	],
	"SA" : [
	],
	"ZA" : [
	]
	},
	{
	"id" : 1,
	"reserve_str" : "",
	"text" : " 바람의 풍속이 70km/h에 불과했음에도 불구하고, 고유 진동수에 의한 진동으로 인해 길이 840m의 거대 철 구조물이 붕괴 된 것 또한 공명 현상의 원리로 볼 수 있다.",
	"morp" : [
	],
	"morp_eval" : [
	],
	"WSD" : [
	],
	"word" : [
		{"id" : 0, "text" : "바람의", "type" : "", "begin" : 0, "end" : 1},
		{"id" : 1, "text" : "풍속이", "type" : "", "begin" : 2, "end" : 3},
		{"id" : 2, "text" : "70km/h에", "type" : "", "begin" : 4, "end" : 8},
		{"id" : 3, "text" : "불과했음에도", "type" : "", "begin" : 9, "end" : 14},
		{"id" : 4, "text" : "불구하고,", "type" : "", "begin" : 15, "end" : 18},
		{"id" : 5, "text" : "고유", "type" : "", "begin" : 19, "end" : 19},
		{"id" : 6, "text" : "진동수에", "type" : "", "begin" : 20, "end" : 22},
		{"id" : 7, "text" : "의한", "type" : "", "begin" : 23, "end" : 24},
		{"id" : 8, "text" : "진동으로", "type" : "", "begin" : 25, "end" : 26},
		{"id" : 9, "text" : "인해", "type" : "", "begin" : 27, "end" : 29},
		{"id" : 10, "text" : "길이", "type" : "", "begin" : 30, "end" : 30},
		{"id" : 11, "text" : "840m의", "type" : "", "begin" : 31, "end" : 33},
		{"id" : 12, "text" : "거대", "type" : "", "begin" : 34, "end" : 34},
		{"id" : 13, "text" : "철", "type" : "", "begin" : 35, "end" : 35},
		{"id" : 14, "text" : "구조물이", "type" : "", "begin" : 36, "end" : 38},
		{"id" : 15, "text" : "붕괴", "type" : "", "begin" : 39, "end" : 39},
		{"id" : 16, "text" : "된", "type" : "", "begin" : 40, "end" : 41},
		{"id" : 17, "text" : "것", "type" : "", "begin" : 42, "end" : 42},
		{"id" : 18, "text" : "또한", "type" : "", "begin" : 43, "end" : 43},
		{"id" : 19, "text" : "공명", "type" : "", "begin" : 44, "end" : 44},
		{"id" : 20, "text" : "현상의", "type" : "", "begin" : 45, "end" : 46},
		{"id" : 21, "text" : "원리로", "type" : "", "begin" : 47, "end" : 48},
		{"id" : 22, "text" : "볼", "type" : "", "begin" : 49, "end" : 50},
		{"id" : 23, "text" : "수", "type" : "", "begin" : 51, "end" : 51},
		{"id" : 24, "text" : "있다.", "type" : "", "begin" : 52, "end" : 54}
	],
	"NE" : [
	],
	"chunk" : [
	],
	"dependency" : [
	],
	"phrase_dependency" : [
	],
	"SRL" : [
		{"verb" : "불과", "sense" : 1, "word_id" : 3, "weight" : 0,
			"argument" : [
				{"type" : "ARG1", "word_id" : 1, "text" : "풍속이", "weight" : 1 },
				{"type" : "ARG2", "word_id" : 2, "text" : "70km/h에", "weight" : 1 }
			] },
		{"verb" : "불구하", "sense" : 1, "word_id" : 4, "weight" : 0.976666,
			"argument" : [
				{"type" : "ARG1", "word_id" : 3, "text" : "불과했음에도", "weight" : 1 }
			] },
		{"verb" : "의하", "sense" : 1, "word_id" : 7, "weight" : 0.221689,
			"argument" : [
				{"type" : "ARG2", "word_id" : 6, "text" : "진동수에", "weight" : 0.194646 }
			] },
		{"verb" : "인하", "sense" : 2, "word_id" : 9, "weight" : 0.246304,
			"argument" : [
				{"type" : "ARG1", "word_id" : 8, "text" : "진동으로", "weight" : 1 },
				{"type" : "ARG2", "word_id" : 16, "text" : "된", "weight" : 1 }
			] },
		{"verb" : "되", "sense" : 1, "word_id" : 16, "weight" : 0.160957,
			"argument" : [
				{"type" : "ARG1", "word_id" : 14, "text" : "구조물이", "weight" : 0.183827 },
				{"type" : "ARG2", "word_id" : 15, "text" : "붕괴", "weight" : 0.138086 }
			] },
		{"verb" : "보", "sense" : 2, "word_id" : 22, "weight" : 0.26287,
			"argument" : [
				{"type" : "ARG1", "word_id" : 17, "text" : "것", "weight" : 0.353992 },
				{"type" : "ARGM-DIS", "word_id" : 18, "text" : "또한", "weight" : 0.118302 },
				{"type" : "ARG2", "word_id" : 21, "text" : "원리로", "weight" : 0.773858 },
				{"type" : "AUX", "word_id" : 24, "text" : "있다.", "weight" : 0.501802 }
			] }
	],
	"relation" : [
	],
	"SA" : [
	],
	"ZA" : [
	]
	}
 ],
 "entity" : [
 ]
}

