{"doc_id" : "940016A04",
 "DCT" : "",
 "category" : "",
 "category_weight" : 0,
 "title" : {"text" : "빈", "NE" : ""},
 "metaInfo" : { },
 "sentence" : [
	{
	"id" : 0,
	"reserve_str" : "",
	"text" : "오스트리아의 수도.",
	"morp" : [
	],
	"morp_eval" : [
	],
	"WSD" : [
	],
	"word" : [
		{"id" : 0, "text" : "오스트리아의", "type" : "", "begin" : 0, "end" : 1},
		{"id" : 1, "text" : "수도.", "type" : "", "begin" : 2, "end" : 3}
	],
	"NE" : [
	],
	"chunk" : [
	],
	"dependency" : [
	],
	"phrase_dependency" : [
	],
	"SRL" : [
	],
	"relation" : [
	],
	"SA" : [
	],
	"ZA" : [
	]
	}
 ],
 "entity" : [
 ]
}

