{"doc_id" : "940017A05",
 "DCT" : "",
 "category" : "",
 "category_weight" : 0,
 "title" : {"text" : "간도", "NE" : ""},
 "metaInfo" : { },
 "sentence" : [
	{
	"id" : 0,
	"reserve_str" : "",
	"text" : "그러나 1909년 국권을 침탈한 일제는 만주 지역의 안동-봉천 철도 부설권을 획득한 대가로 청나라에 그 소유권을 넘겨주었다.",
	"morp" : [
	],
	"morp_eval" : [
	],
	"WSD" : [
	],
	"word" : [
		{"id" : 0, "text" : "그러나", "type" : "", "begin" : 0, "end" : 0},
		{"id" : 1, "text" : "1909년", "type" : "", "begin" : 1, "end" : 2},
		{"id" : 2, "text" : "국권을", "type" : "", "begin" : 3, "end" : 4},
		{"id" : 3, "text" : "침탈한", "type" : "", "begin" : 5, "end" : 7},
		{"id" : 4, "text" : "일제는", "type" : "", "begin" : 8, "end" : 9},
		{"id" : 5, "text" : "만주", "type" : "", "begin" : 10, "end" : 10},
		{"id" : 6, "text" : "지역의", "type" : "", "begin" : 11, "end" : 12},
		{"id" : 7, "text" : "안동-봉천", "type" : "", "begin" : 13, "end" : 15},
		{"id" : 8, "text" : "철도", "type" : "", "begin" : 16, "end" : 16},
		{"id" : 9, "text" : "부설권을", "type" : "", "begin" : 17, "end" : 19},
		{"id" : 10, "text" : "획득한", "type" : "", "begin" : 20, "end" : 22},
		{"id" : 11, "text" : "대가로", "type" : "", "begin" : 23, "end" : 24},
		{"id" : 12, "text" : "청나라에", "type" : "", "begin" : 25, "end" : 27},
		{"id" : 13, "text" : "그", "type" : "", "begin" : 28, "end" : 28},
		{"id" : 14, "text" : "소유권을", "type" : "", "begin" : 29, "end" : 31},
		{"id" : 15, "text" : "넘겨주었다.", "type" : "", "begin" : 32, "end" : 35}
	],
	"NE" : [
	],
	"chunk" : [
	],
	"dependency" : [
	],
	"phrase_dependency" : [
	],
	"SRL" : [
		{"verb" : "침탈", "sense" : 1, "word_id" : 3, "weight" : 0.210621,
			"argument" : [
				{"type" : "ARG1", "word_id" : 2, "text" : "국권을", "weight" : 0.148315 },
				{"type" : "ARG0", "word_id" : 4, "text" : "일제는", "weight" : 0.272927 }
			] },
		{"verb" : "획득", "sense" : 1, "word_id" : 10, "weight" : 0.313574,
			"argument" : [
				{"type" : "ARG1", "word_id" : 9, "text" : "부설권을", "weight" : 0.313574 },
				{"type" : "ARG0", "word_id" : 4, "text" : "일제는", "weight" : 1 }
			] },
		{"verb" : "넘겨주", "sense" : 1, "word_id" : 15, "weight" : 0.188697,
			"argument" : [
				{"type" : "ARGM-DIS", "word_id" : 0, "text" : "그러나", "weight" : 0.239442 },
				{"type" : "ARG0", "word_id" : 4, "text" : "일제는", "weight" : 0.200286 },
				{"type" : "ARGM-CAU", "word_id" : 11, "text" : "대가로", "weight" : 0.963683 },
				{"type" : "ARG2", "word_id" : 12, "text" : "청나라에", "weight" : 0.115432 },
				{"type" : "ARG1", "word_id" : 14, "text" : "소유권을", "weight" : 0.291959 }
			] }
	],
	"relation" : [
	],
	"SA" : [
	],
	"ZA" : [
	]
	}
 ],
 "entity" : [
 ]
}

