{"doc_id" : "940003Q01",
 "DCT" : "",
 "category" : "",
 "category_weight" : 0,
 "title" : {"text" : "Q3", "NE" : ""},
 "metaInfo" : { },
 "sentence" : [
	{
	"id" : 0,
	"reserve_str" : "",
	"text" : "조선 광해군 시기 한백겸이 고대 지명을 새롭게 고증해 편찬한 책은 무엇일까?",
	"morp" : [
	],
	"morp_eval" : [
	],
	"WSD" : [
	],
	"word" : [
		{"id" : 0, "text" : "조선", "type" : "", "begin" : 0, "end" : 0},
		{"id" : 1, "text" : "광해군", "type" : "", "begin" : 1, "end" : 1},
		{"id" : 2, "text" : "시기", "type" : "", "begin" : 2, "end" : 2},
		{"id" : 3, "text" : "한백겸이", "type" : "", "begin" : 3, "end" : 4},
		{"id" : 4, "text" : "고대", "type" : "", "begin" : 5, "end" : 5},
		{"id" : 5, "text" : "지명을", "type" : "", "begin" : 6, "end" : 7},
		{"id" : 6, "text" : "새롭게", "type" : "", "begin" : 8, "end" : 9},
		{"id" : 7, "text" : "고증해", "type" : "", "begin" : 10, "end" : 12},
		{"id" : 8, "text" : "편찬한", "type" : "", "begin" : 13, "end" : 15},
		{"id" : 9, "text" : "책은", "type" : "", "begin" : 16, "end" : 17},
		{"id" : 10, "text" : "무엇일까?", "type" : "", "begin" : 18, "end" : 21}
	],
	"NE" : [
	],
	"chunk" : [
	],
	"dependency" : [
	],
	"phrase_dependency" : [
	],
	"SRL" : [
		{"verb" : "고증", "sense" : 1, "word_id" : 7, "weight" : 0.235316,
			"argument" : [
				{"type" : "ARG0", "word_id" : 3, "text" : "한백겸이", "weight" : 0.268988 },
				{"type" : "ARG1", "word_id" : 5, "text" : "지명을", "weight" : 0.276159 },
				{"type" : "ARGM-ADV", "word_id" : 6, "text" : "새롭게", "weight" : 1 }
			] },
		{"verb" : "편찬", "sense" : 1, "word_id" : 8, "weight" : 0.328876,
			"argument" : [
				{"type" : "ARGM-TMP", "word_id" : 2, "text" : "시기", "weight" : 0.275115 },
				{"type" : "ARG0", "word_id" : 3, "text" : "한백겸이", "weight" : 0.426094 },
				{"type" : "ARG1", "word_id" : 9, "text" : "책은", "weight" : 0.285419 }
			] }
	],
	"relation" : [
	],
	"SA" : [
	],
	"ZA" : [
	]
	}
 ],
 "entity" : [
 ]
}

