{"doc_id" : "940004A03",
 "DCT" : "",
 "category" : "",
 "category_weight" : 0,
 "title" : {"text" : "호연지기", "NE" : ""},
 "metaInfo" : { },
 "sentence" : [
	{
	"id" : 0,
	"reserve_str" : "",
	"text" : "클 호, 그럴 연, 갈 지, 기운 기",
	"morp" : [
	],
	"morp_eval" : [
	],
	"WSD" : [
	],
	"word" : [
		{"id" : 0, "text" : "클", "type" : "", "begin" : 0, "end" : 1},
		{"id" : 1, "text" : "호,", "type" : "", "begin" : 2, "end" : 3},
		{"id" : 2, "text" : "그럴", "type" : "", "begin" : 4, "end" : 5},
		{"id" : 3, "text" : "연,", "type" : "", "begin" : 6, "end" : 7},
		{"id" : 4, "text" : "갈", "type" : "", "begin" : 8, "end" : 9},
		{"id" : 5, "text" : "지,", "type" : "", "begin" : 10, "end" : 11},
		{"id" : 6, "text" : "기운", "type" : "", "begin" : 12, "end" : 12},
		{"id" : 7, "text" : "기", "type" : "", "begin" : 13, "end" : 13}
	],
	"NE" : [
	],
	"chunk" : [
	],
	"dependency" : [
	],
	"phrase_dependency" : [
	],
	"SRL" : [
	],
	"relation" : [
	],
	"SA" : [
	],
	"ZA" : [
	]
	}
 ],
 "entity" : [
 ]
}

