{"doc_id" : "940019A02",
 "DCT" : "",
 "category" : "",
 "category_weight" : 0,
 "title" : {"text" : "뭉크", "NE" : ""},
 "metaInfo" : { },
 "sentence" : [
	{
	"id" : 0,
	"reserve_str" : "",
	"text" : "<인명> 노르웨이의 화가ㆍ판화가(1863~1944).",
	"morp" : [
	],
	"morp_eval" : [
	],
	"WSD" : [
	],
	"word" : [
		{"id" : 0, "text" : "<인명>", "type" : "", "begin" : 0, "end" : 2},
		{"id" : 1, "text" : "노르웨이의", "type" : "", "begin" : 3, "end" : 4},
		{"id" : 2, "text" : "화가ㆍ판화가(1863~1944).", "type" : "", "begin" : 5, "end" : 14}
	],
	"NE" : [
	],
	"chunk" : [
	],
	"dependency" : [
	],
	"phrase_dependency" : [
	],
	"SRL" : [
	],
	"relation" : [
	],
	"SA" : [
	],
	"ZA" : [
	]
	},
	{
	"id" : 1,
	"reserve_str" : "",
	"text" : " 사랑ㆍ죽음ㆍ불안 따위의 주제를 강렬한 색채로 환상적으로 표현하여, 표현주의의 작풍(作風)을 확립하였다.",
	"morp" : [
	],
	"morp_eval" : [
	],
	"WSD" : [
	],
	"word" : [
		{"id" : 0, "text" : "사랑ㆍ죽음ㆍ불안", "type" : "", "begin" : 0, "end" : 4},
		{"id" : 1, "text" : "따위의", "type" : "", "begin" : 5, "end" : 6},
		{"id" : 2, "text" : "주제를", "type" : "", "begin" : 7, "end" : 8},
		{"id" : 3, "text" : "강렬한", "type" : "", "begin" : 9, "end" : 10},
		{"id" : 4, "text" : "색채로", "type" : "", "begin" : 11, "end" : 12},
		{"id" : 5, "text" : "환상적으로", "type" : "", "begin" : 13, "end" : 15},
		{"id" : 6, "text" : "표현하여,", "type" : "", "begin" : 16, "end" : 19},
		{"id" : 7, "text" : "표현주의의", "type" : "", "begin" : 20, "end" : 22},
		{"id" : 8, "text" : "작풍(作風)을", "type" : "", "begin" : 23, "end" : 27},
		{"id" : 9, "text" : "확립하였다.", "type" : "", "begin" : 28, "end" : 32}
	],
	"NE" : [
	],
	"chunk" : [
	],
	"dependency" : [
	],
	"phrase_dependency" : [
	],
	"SRL" : [
		{"verb" : "강렬하", "sense" : 1, "word_id" : 3, "weight" : 0.260606,
			"argument" : [
				{"type" : "ARG1", "word_id" : 4, "text" : "색채로", "weight" : 0.260606 }
			] },
		{"verb" : "표현", "sense" : 1, "word_id" : 6, "weight" : 0.194995,
			"argument" : [
				{"type" : "ARG1", "word_id" : 2, "text" : "주제를", "weight" : 0.293763 },
				{"type" : "ARGM-INS", "word_id" : 4, "text" : "색채로", "weight" : 0.772669 },
				{"type" : "ARGM-MNR", "word_id" : 5, "text" : "환상적으로", "weight" : 0.213955 }
			] },
		{"verb" : "확립", "sense" : 1, "word_id" : 9, "weight" : 0.194321,
			"argument" : [
				{"type" : "ARG1", "word_id" : 8, "text" : "작풍(作風)을", "weight" : 0.194321 },
				{"type" : "ARGM-MNR", "word_id" : 6, "text" : "표현하여,", "weight" : 1 }
			] }
	],
	"relation" : [
	],
	"SA" : [
	],
	"ZA" : [
	]
	},
	{
	"id" : 2,
	"reserve_str" : "",
	"text" : " 작품에 <절규>가 있다.",
	"morp" : [
	],
	"morp_eval" : [
	],
	"WSD" : [
	],
	"word" : [
		{"id" : 0, "text" : "작품에", "type" : "", "begin" : 0, "end" : 1},
		{"id" : 1, "text" : "<절규>가", "type" : "", "begin" : 2, "end" : 5},
		{"id" : 2, "text" : "있다.", "type" : "", "begin" : 6, "end" : 8}
	],
	"NE" : [
	],
	"chunk" : [
	],
	"dependency" : [
	],
	"phrase_dependency" : [
	],
	"SRL" : [
		{"verb" : "있", "sense" : 1, "word_id" : 2, "weight" : 0.250286,
			"argument" : [
				{"type" : "ARG2", "word_id" : 0, "text" : "작품에", "weight" : 0.147473 },
				{"type" : "ARG1", "word_id" : 1, "text" : "<절규>가", "weight" : 0.353099 }
			] }
	],
	"relation" : [
	],
	"SA" : [
	],
	"ZA" : [
	]
	}
 ],
 "entity" : [
 ]
}

