{"doc_id" : "940003A03",
 "DCT" : "",
 "category" : "",
 "category_weight" : 0,
 "title" : {"text" : "동국지리지", "NE" : ""},
 "metaInfo" : { },
 "sentence" : [
	{
	"id" : 0,
	"reserve_str" : "",
	"text" : "조선 중기의 학자 한백겸(韓百謙:1552~1615)이 한국 지리에 관한 사항을 여러 고서(古書)에서 뽑아 엮은 책.",
	"morp" : [
	],
	"morp_eval" : [
	],
	"WSD" : [
	],
	"word" : [
		{"id" : 0, "text" : "조선", "type" : "", "begin" : 0, "end" : 0},
		{"id" : 1, "text" : "중기의", "type" : "", "begin" : 1, "end" : 2},
		{"id" : 2, "text" : "학자", "type" : "", "begin" : 3, "end" : 3},
		{"id" : 3, "text" : "한백겸(韓百謙:1552~1615)이", "type" : "", "begin" : 4, "end" : 12},
		{"id" : 4, "text" : "한국", "type" : "", "begin" : 13, "end" : 13},
		{"id" : 5, "text" : "지리에", "type" : "", "begin" : 14, "end" : 15},
		{"id" : 6, "text" : "관한", "type" : "", "begin" : 16, "end" : 18},
		{"id" : 7, "text" : "사항을", "type" : "", "begin" : 19, "end" : 20},
		{"id" : 8, "text" : "여러", "type" : "", "begin" : 21, "end" : 21},
		{"id" : 9, "text" : "고서(古書)에서", "type" : "", "begin" : 22, "end" : 26},
		{"id" : 10, "text" : "뽑아", "type" : "", "begin" : 27, "end" : 28},
		{"id" : 11, "text" : "엮은", "type" : "", "begin" : 29, "end" : 30},
		{"id" : 12, "text" : "책.", "type" : "", "begin" : 31, "end" : 32}
	],
	"NE" : [
	],
	"chunk" : [
	],
	"dependency" : [
	],
	"phrase_dependency" : [
	],
	"SRL" : [
		{"verb" : "관하", "sense" : 1, "word_id" : 6, "weight" : 0.32869,
			"argument" : [
				{"type" : "ARG2", "word_id" : 5, "text" : "지리에", "weight" : 1 },
				{"type" : "ARG1", "word_id" : 7, "text" : "사항을", "weight" : 1 }
			] },
		{"verb" : "뽑", "sense" : 1, "word_id" : 10, "weight" : 0.262523,
			"argument" : [
				{"type" : "ARG0", "word_id" : 3, "text" : "한백겸(韓百謙:1552~1615)이", "weight" : 0.310796 },
				{"type" : "ARG1", "word_id" : 7, "text" : "사항을", "weight" : 0.342938 },
				{"type" : "ARG2", "word_id" : 9, "text" : "고서(古書)에서", "weight" : 0.133834 }
			] },
		{"verb" : "엮", "sense" : 1, "word_id" : 11, "weight" : 0.238271,
			"argument" : [
				{"type" : "ARG0", "word_id" : 3, "text" : "한백겸(韓百謙:1552~1615)이", "weight" : 0.448999 },
				{"type" : "ARGM-MNR", "word_id" : 10, "text" : "뽑아", "weight" : 0.994351 },
				{"type" : "ARG1", "word_id" : 12, "text" : "책.", "weight" : 0.166379 }
			] }
	],
	"relation" : [
	],
	"SA" : [
	],
	"ZA" : [
	]
	}
 ],
 "entity" : [
 ]
}

