{"doc_id" : "940005Q01",
 "DCT" : "",
 "category" : "",
 "category_weight" : 0,
 "title" : {"text" : "Q5", "NE" : ""},
 "metaInfo" : { },
 "sentence" : [
	{
	"id" : 0,
	"reserve_str" : "",
	"text" : "입사되는 태양 복사 에너지양에 대해 반사되는 에너지양의 비율을 반사율이라고 한다.",
	"morp" : [
	],
	"morp_eval" : [
	],
	"WSD" : [
	],
	"word" : [
		{"id" : 0, "text" : "입사되는", "type" : "", "begin" : 0, "end" : 1},
		{"id" : 1, "text" : "태양", "type" : "", "begin" : 2, "end" : 2},
		{"id" : 2, "text" : "복사", "type" : "", "begin" : 3, "end" : 3},
		{"id" : 3, "text" : "에너지양에", "type" : "", "begin" : 4, "end" : 6},
		{"id" : 4, "text" : "대해", "type" : "", "begin" : 7, "end" : 9},
		{"id" : 5, "text" : "반사되는", "type" : "", "begin" : 10, "end" : 12},
		{"id" : 6, "text" : "에너지양의", "type" : "", "begin" : 13, "end" : 15},
		{"id" : 7, "text" : "비율을", "type" : "", "begin" : 16, "end" : 17},
		{"id" : 8, "text" : "반사율이라고", "type" : "", "begin" : 18, "end" : 21},
		{"id" : 9, "text" : "한다.", "type" : "", "begin" : 22, "end" : 24}
	],
	"NE" : [
	],
	"chunk" : [
	],
	"dependency" : [
	],
	"phrase_dependency" : [
	],
	"SRL" : [
		{"verb" : "입사되", "sense" : 1, "word_id" : 0, "weight" : 0.341665,
			"argument" : [
				{"type" : "ARG1", "word_id" : 3, "text" : "에너지양에", "weight" : 0.341665 }
			] },
		{"verb" : "대하", "sense" : 1, "word_id" : 4, "weight" : 0.32321,
			"argument" : [
				{"type" : "ARG2", "word_id" : 3, "text" : "에너지양에", "weight" : 0.32321 }
			] },
		{"verb" : "반사", "sense" : 1, "word_id" : 5, "weight" : 0.22103,
			"argument" : [
				{"type" : "ARG1", "word_id" : 6, "text" : "에너지양의", "weight" : 0.22103 }
			] },
		{"verb" : "하", "sense" : 2, "word_id" : 9, "weight" : 0.213272,
			"argument" : [
				{"type" : "ARG2", "word_id" : 8, "text" : "반사율이라고", "weight" : 0.213272 },
				{"type" : "ARG1", "word_id" : 7, "text" : "비율을", "weight" : 1 }
			] }
	],
	"relation" : [
	],
	"SA" : [
	],
	"ZA" : [
	]
	},
	{
	"id" : 1,
	"reserve_str" : "",
	"text" : " 이러한 반사율은 지표의 성질에 따라 달라지는데 그 값이 가장 큰 것은 무엇일까?",
	"morp" : [
	],
	"morp_eval" : [
	],
	"WSD" : [
	],
	"word" : [
		{"id" : 0, "text" : "이러한", "type" : "", "begin" : 0, "end" : 1},
		{"id" : 1, "text" : "반사율은", "type" : "", "begin" : 2, "end" : 4},
		{"id" : 2, "text" : "지표의", "type" : "", "begin" : 5, "end" : 6},
		{"id" : 3, "text" : "성질에", "type" : "", "begin" : 7, "end" : 8},
		{"id" : 4, "text" : "따라", "type" : "", "begin" : 9, "end" : 10},
		{"id" : 5, "text" : "달라지는데", "type" : "", "begin" : 11, "end" : 12},
		{"id" : 6, "text" : "그", "type" : "", "begin" : 13, "end" : 13},
		{"id" : 7, "text" : "값이", "type" : "", "begin" : 14, "end" : 15},
		{"id" : 8, "text" : "가장", "type" : "", "begin" : 16, "end" : 16},
		{"id" : 9, "text" : "큰", "type" : "", "begin" : 17, "end" : 18},
		{"id" : 10, "text" : "것은", "type" : "", "begin" : 19, "end" : 20},
		{"id" : 11, "text" : "무엇일까?", "type" : "", "begin" : 21, "end" : 24}
	],
	"NE" : [
	],
	"chunk" : [
	],
	"dependency" : [
	],
	"phrase_dependency" : [
	],
	"SRL" : [
		{"verb" : "따르", "sense" : 2, "word_id" : 4, "weight" : 0.262119,
			"argument" : [
				{"type" : "ARG2", "word_id" : 3, "text" : "성질에", "weight" : 0.262119 },
				{"type" : "ARG1", "word_id" : 1, "text" : "반사율은", "weight" : 1 }
			] },
		{"verb" : "다르", "sense" : 1, "word_id" : 5, "weight" : 0.159045,
			"argument" : [
				{"type" : "ARG1", "word_id" : 1, "text" : "반사율은", "weight" : 1 },
				{"type" : "ARGM-CND", "word_id" : 4, "text" : "따라", "weight" : 0.948785 }
			] },
		{"verb" : "크", "sense" : 1, "word_id" : 9, "weight" : 0.298312,
			"argument" : [
				{"type" : "ARG1", "word_id" : 7, "text" : "값이", "weight" : 0.241351 },
				{"type" : "ARGM-EXT", "word_id" : 8, "text" : "가장", "weight" : 0.355273 }
			] }
	],
	"relation" : [
	],
	"SA" : [
	],
	"ZA" : [
	]
	}
 ],
 "entity" : [
 ]
}

