{"doc_id" : "940034Q01",
 "DCT" : "",
 "category" : "",
 "category_weight" : 0,
 "title" : {"text" : "Q34", "NE" : ""},
 "metaInfo" : { },
 "sentence" : [
	{
	"id" : 0,
	"reserve_str" : "",
	"text" : "이 곡은 앙리 카잘리스의 시에 영향을 받은 서정적인 곡이다.",
	"morp" : [
	],
	"morp_eval" : [
	],
	"WSD" : [
	],
	"word" : [
		{"id" : 0, "text" : "이", "type" : "", "begin" : 0, "end" : 0},
		{"id" : 1, "text" : "곡은", "type" : "", "begin" : 1, "end" : 2},
		{"id" : 2, "text" : "앙리", "type" : "", "begin" : 3, "end" : 3},
		{"id" : 3, "text" : "카잘리스의", "type" : "", "begin" : 4, "end" : 5},
		{"id" : 4, "text" : "시에", "type" : "", "begin" : 6, "end" : 7},
		{"id" : 5, "text" : "영향을", "type" : "", "begin" : 8, "end" : 9},
		{"id" : 6, "text" : "받은", "type" : "", "begin" : 10, "end" : 11},
		{"id" : 7, "text" : "서정적인", "type" : "", "begin" : 12, "end" : 15},
		{"id" : 8, "text" : "곡이다.", "type" : "", "begin" : 16, "end" : 19}
	],
	"NE" : [
	],
	"chunk" : [
	],
	"dependency" : [
	],
	"phrase_dependency" : [
	],
	"SRL" : [
		{"verb" : "받", "sense" : 1, "word_id" : 6, "weight" : 0.190627,
			"argument" : [
				{"type" : "ARG2", "word_id" : 4, "text" : "시에", "weight" : 0.872331 },
				{"type" : "ARG1", "word_id" : 5, "text" : "영향을", "weight" : 0.294021 },
				{"type" : "ARG0", "word_id" : 8, "text" : "곡이다.", "weight" : 1 }
			] }
	],
	"relation" : [
	],
	"SA" : [
	],
	"ZA" : [
	]
	},
	{
	"id" : 1,
	"reserve_str" : "",
	"text" : " 선율을 중심으로 한밤중 묘지에서의 춤을 묘사하고 있는데 1874년 카미유 생상스가 작곡한 이 곡은 무엇일까?",
	"morp" : [
	],
	"morp_eval" : [
	],
	"WSD" : [
	],
	"word" : [
		{"id" : 0, "text" : "선율을", "type" : "", "begin" : 0, "end" : 1},
		{"id" : 1, "text" : "중심으로", "type" : "", "begin" : 2, "end" : 3},
		{"id" : 2, "text" : "한밤중", "type" : "", "begin" : 4, "end" : 5},
		{"id" : 3, "text" : "묘지에서의", "type" : "", "begin" : 6, "end" : 8},
		{"id" : 4, "text" : "춤을", "type" : "", "begin" : 9, "end" : 10},
		{"id" : 5, "text" : "묘사하고", "type" : "", "begin" : 11, "end" : 13},
		{"id" : 6, "text" : "있는데", "type" : "", "begin" : 14, "end" : 15},
		{"id" : 7, "text" : "1874년", "type" : "", "begin" : 16, "end" : 17},
		{"id" : 8, "text" : "카미유", "type" : "", "begin" : 18, "end" : 18},
		{"id" : 9, "text" : "생상스가", "type" : "", "begin" : 19, "end" : 20},
		{"id" : 10, "text" : "작곡한", "type" : "", "begin" : 21, "end" : 23},
		{"id" : 11, "text" : "이", "type" : "", "begin" : 24, "end" : 24},
		{"id" : 12, "text" : "곡은", "type" : "", "begin" : 25, "end" : 26},
		{"id" : 13, "text" : "무엇일까?", "type" : "", "begin" : 27, "end" : 30}
	],
	"NE" : [
	],
	"chunk" : [
	],
	"dependency" : [
	],
	"phrase_dependency" : [
	],
	"SRL" : [
		{"verb" : "묘사", "sense" : 1, "word_id" : 5, "weight" : 0.362929,
			"argument" : [
				{"type" : "ARG1", "word_id" : 4, "text" : "춤을", "weight" : 0.431097 },
				{"type" : "AUX", "word_id" : 6, "text" : "있는데", "weight" : 0.294761 },
				{"type" : "ARGM-MNR", "word_id" : 1, "text" : "중심으로", "weight" : 1 }
			] },
		{"verb" : "작곡", "sense" : 1, "word_id" : 10, "weight" : 0.311974,
			"argument" : [
				{"type" : "ARGM-TMP", "word_id" : 7, "text" : "1874년", "weight" : 0.290296 },
				{"type" : "ARG0", "word_id" : 9, "text" : "생상스가", "weight" : 0.38615 },
				{"type" : "ARG1", "word_id" : 12, "text" : "곡은", "weight" : 0.259477 }
			] }
	],
	"relation" : [
	],
	"SA" : [
	],
	"ZA" : [
	]
	}
 ],
 "entity" : [
 ]
}

