{"doc_id" : "940016A01",
 "DCT" : "",
 "category" : "",
 "category_weight" : 0,
 "title" : {"text" : "빈", "NE" : ""},
 "metaInfo" : { },
 "sentence" : [
	{
	"id" : 0,
	"reserve_str" : "",
	"text" : "빈(독일어: Wien, 오스트로바이에른어: Wean, 프랑스어: Vienne 비엔, 영어:Vienna 비엔나)은 도나우 강변에 있는 오스트리아의 수도이다.",
	"morp" : [
	],
	"morp_eval" : [
	],
	"WSD" : [
	],
	"word" : [
		{"id" : 0, "text" : "빈(독일어:", "type" : "", "begin" : 0, "end" : 4},
		{"id" : 1, "text" : "Wien,", "type" : "", "begin" : 5, "end" : 6},
		{"id" : 2, "text" : "오스트로바이에른어:", "type" : "", "begin" : 7, "end" : 8},
		{"id" : 3, "text" : "Wean,", "type" : "", "begin" : 9, "end" : 10},
		{"id" : 4, "text" : "프랑스어:", "type" : "", "begin" : 11, "end" : 13},
		{"id" : 5, "text" : "Vienne", "type" : "", "begin" : 14, "end" : 14},
		{"id" : 6, "text" : "비엔,", "type" : "", "begin" : 15, "end" : 16},
		{"id" : 7, "text" : "영어:Vienna", "type" : "", "begin" : 17, "end" : 19},
		{"id" : 8, "text" : "비엔나)은", "type" : "", "begin" : 20, "end" : 22},
		{"id" : 9, "text" : "도나우", "type" : "", "begin" : 23, "end" : 23},
		{"id" : 10, "text" : "강변에", "type" : "", "begin" : 24, "end" : 25},
		{"id" : 11, "text" : "있는", "type" : "", "begin" : 26, "end" : 27},
		{"id" : 12, "text" : "오스트리아의", "type" : "", "begin" : 28, "end" : 29},
		{"id" : 13, "text" : "수도이다.", "type" : "", "begin" : 30, "end" : 33}
	],
	"NE" : [
	],
	"chunk" : [
	],
	"dependency" : [
	],
	"phrase_dependency" : [
	],
	"SRL" : [
		{"verb" : "있", "sense" : 1, "word_id" : 11, "weight" : 0.18647,
			"argument" : [
				{"type" : "ARG1", "word_id" : 8, "text" : "비엔나)은", "weight" : 0.209247 },
				{"type" : "ARG2", "word_id" : 10, "text" : "강변에", "weight" : 0.163693 }
			] }
	],
	"relation" : [
	],
	"SA" : [
	],
	"ZA" : [
	]
	}
 ],
 "entity" : [
 ]
}

