{"doc_id" : "940023Q01",
 "DCT" : "",
 "category" : "",
 "category_weight" : 0,
 "title" : {"text" : "Q23", "NE" : ""},
 "metaInfo" : { },
 "sentence" : [
	{
	"id" : 0,
	"reserve_str" : "",
	"text" : "경복궁 수정전은 1894년 갑오개혁 당시 이 기관으로 사용했다.",
	"morp" : [
	],
	"morp_eval" : [
	],
	"WSD" : [
	],
	"word" : [
		{"id" : 0, "text" : "경복궁", "type" : "", "begin" : 0, "end" : 1},
		{"id" : 1, "text" : "수정전은", "type" : "", "begin" : 2, "end" : 4},
		{"id" : 2, "text" : "1894년", "type" : "", "begin" : 5, "end" : 6},
		{"id" : 3, "text" : "갑오개혁", "type" : "", "begin" : 7, "end" : 8},
		{"id" : 4, "text" : "당시", "type" : "", "begin" : 9, "end" : 9},
		{"id" : 5, "text" : "이", "type" : "", "begin" : 10, "end" : 10},
		{"id" : 6, "text" : "기관으로", "type" : "", "begin" : 11, "end" : 12},
		{"id" : 7, "text" : "사용했다.", "type" : "", "begin" : 13, "end" : 17}
	],
	"NE" : [
	],
	"chunk" : [
	],
	"dependency" : [
	],
	"phrase_dependency" : [
	],
	"SRL" : [
		{"verb" : "사용", "sense" : 1, "word_id" : 7, "weight" : 0.132725,
			"argument" : [
				{"type" : "ARG1", "word_id" : 1, "text" : "수정전은", "weight" : 0.88164 },
				{"type" : "ARGM-TMP", "word_id" : 4, "text" : "당시", "weight" : 0.135436 },
				{"type" : "ARG2", "word_id" : 6, "text" : "기관으로", "weight" : 0.174575 }
			] }
	],
	"relation" : [
	],
	"SA" : [
	],
	"ZA" : [
	]
	},
	{
	"id" : 1,
	"reserve_str" : "",
	"text" : " 갑오개혁의 중추적 역할을 한 기관으로, 정치·군사에 관한 일체의 사무를 맡아보던 이 기관은 무엇일까?",
	"morp" : [
	],
	"morp_eval" : [
	],
	"WSD" : [
	],
	"word" : [
		{"id" : 0, "text" : "갑오개혁의", "type" : "", "begin" : 0, "end" : 2},
		{"id" : 1, "text" : "중추적", "type" : "", "begin" : 3, "end" : 4},
		{"id" : 2, "text" : "역할을", "type" : "", "begin" : 5, "end" : 6},
		{"id" : 3, "text" : "한", "type" : "", "begin" : 7, "end" : 8},
		{"id" : 4, "text" : "기관으로,", "type" : "", "begin" : 9, "end" : 11},
		{"id" : 5, "text" : "정치·군사에", "type" : "", "begin" : 12, "end" : 15},
		{"id" : 6, "text" : "관한", "type" : "", "begin" : 16, "end" : 18},
		{"id" : 7, "text" : "일체의", "type" : "", "begin" : 19, "end" : 20},
		{"id" : 8, "text" : "사무를", "type" : "", "begin" : 21, "end" : 22},
		{"id" : 9, "text" : "맡아보던", "type" : "", "begin" : 23, "end" : 24},
		{"id" : 10, "text" : "이", "type" : "", "begin" : 25, "end" : 25},
		{"id" : 11, "text" : "기관은", "type" : "", "begin" : 26, "end" : 27},
		{"id" : 12, "text" : "무엇일까?", "type" : "", "begin" : 28, "end" : 31}
	],
	"NE" : [
	],
	"chunk" : [
	],
	"dependency" : [
	],
	"phrase_dependency" : [
	],
	"SRL" : [
		{"verb" : "하", "sense" : 1, "word_id" : 3, "weight" : 0.223975,
			"argument" : [
				{"type" : "ARG1", "word_id" : 2, "text" : "역할을", "weight" : 0.214949 },
				{"type" : "ARG0", "word_id" : 4, "text" : "기관으로,", "weight" : 0.233001 }
			] },
		{"verb" : "관하", "sense" : 1, "word_id" : 6, "weight" : 0.229992,
			"argument" : [
				{"type" : "ARG2", "word_id" : 5, "text" : "정치·군사에", "weight" : 1 },
				{"type" : "ARG1", "word_id" : 8, "text" : "사무를", "weight" : 1 }
			] },
		{"verb" : "맡아보", "sense" : 1, "word_id" : 9, "weight" : 0.246724,
			"argument" : [
				{"type" : "ARG1", "word_id" : 8, "text" : "사무를", "weight" : 0.272134 },
				{"type" : "ARG0", "word_id" : 11, "text" : "기관은", "weight" : 0.221314 }
			] }
	],
	"relation" : [
	],
	"SA" : [
	],
	"ZA" : [
	]
	}
 ],
 "entity" : [
 ]
}

