{"doc_id" : "E2015.947.023_A_05",
 "DCT" : "",
 "category" : "",
 "category_weight" : 0,
 "title" : {"text" : "", "NE" : ""},
 "metaInfo" : { },
 "sentence" : [
	{
	"id" : 0,
	"reserve_str" : "",
	"text" : "부엌을 관할하는 신.",
	"morp" : [
		{"id" : 0, "lemma" : "부엌", "type" : "NNG", "position" : 0, "weight" : 0.0231863 },
		{"id" : 1, "lemma" : "을", "type" : "JKO", "position" : 6, "weight" : 0.0394673 },
		{"id" : 2, "lemma" : "관할", "type" : "NNG", "position" : 10, "weight" : 0.0231863 },
		{"id" : 3, "lemma" : "하", "type" : "XSV", "position" : 16, "weight" : 0.0394673 },
		{"id" : 4, "lemma" : "는", "type" : "ETM", "position" : 19, "weight" : 1 },
		{"id" : 5, "lemma" : "신", "type" : "NNG", "position" : 23, "weight" : 0.0283394 },
		{"id" : 6, "lemma" : ".", "type" : "SF", "position" : 26, "weight" : 0.0180332 }
	],
	"morp_eval" : [
	],
	"WSD" : [
	],
	"word" : [
		{"id" : 0, "text" : "부엌을", "type" : "", "begin" : 0, "end" : 1},
		{"id" : 1, "text" : "관할하는", "type" : "", "begin" : 2, "end" : 4},
		{"id" : 2, "text" : "신.", "type" : "", "begin" : 5, "end" : 6}
	],
	"NE" : [
	],
	"chunk" : [
	],
	"dependency" : [
		{"id" : 0, "text" : "부엌을", "head" : 1, "label" : "NP_OBJ", "mod" : [], "weight" : 0.973717 },
		{"id" : 1, "text" : "관할하는", "head" : 2, "label" : "VP_MOD", "mod" : [0], "weight" : 0.653492 },
		{"id" : 2, "text" : "신.", "head" : -1, "label" : "NP", "mod" : [1], "weight" : 0.372038 }
	],
	"SRL" : [
		{"verb" : "관할", "sense" : 1, "word_id" : 1, "weight" : 0.182694,
			"argument" : [
				{"type" : "ARG1", "word_id" : 0, "text" : "부엌을", "weight" : 0.182694 },
				{"type" : "ARG0", "word_id" : 2, "text" : "신.", "weight" : 0 }
			] }
	],
	"relation" : [
	],
	"SA" : [
	],
	"ZA" : [
	]
	},
	{
	"id" : 1,
	"reserve_str" : "",
	"text" : "부뚜막의 신으로 오사(五祀)의 하나.",
	"morp" : [
		{"id" : 0, "lemma" : "부뚜막", "type" : "NNG", "position" : 28, "weight" : 1 },
		{"id" : 1, "lemma" : "의", "type" : "JKG", "position" : 37, "weight" : 0.0468141 },
		{"id" : 2, "lemma" : "신", "type" : "NNG", "position" : 41, "weight" : 1 },
		{"id" : 3, "lemma" : "으로", "type" : "JKB", "position" : 44, "weight" : 1 },
		{"id" : 4, "lemma" : "오사", "type" : "NNG", "position" : 51, "weight" : 1 },
		{"id" : 5, "lemma" : "(", "type" : "SS", "position" : 57, "weight" : 1 },
		{"id" : 6, "lemma" : "五祀", "type" : "SH", "position" : 58, "weight" : 0.038553 },
		{"id" : 7, "lemma" : ")", "type" : "SS", "position" : 64, "weight" : 0.0375955 },
		{"id" : 8, "lemma" : "의", "type" : "JKG", "position" : 65, "weight" : 0.0334541 },
		{"id" : 9, "lemma" : "하나", "type" : "NR", "position" : 69, "weight" : 1 },
		{"id" : 10, "lemma" : ".", "type" : "SF", "position" : 75, "weight" : 1 }
	],
	"morp_eval" : [
	],
	"WSD" : [
	],
	"word" : [
		{"id" : 0, "text" : "부뚜막의", "type" : "", "begin" : 0, "end" : 1},
		{"id" : 1, "text" : "신으로", "type" : "", "begin" : 2, "end" : 3},
		{"id" : 2, "text" : "오사(五祀)의", "type" : "", "begin" : 4, "end" : 8},
		{"id" : 3, "text" : "하나.", "type" : "", "begin" : 9, "end" : 10}
	],
	"NE" : [
		{"id" : 0, "text" : "오사", "type" : "CV_POSITION", "begin" : 4, "end" : 4, "weight" : 0.0858483, "common_noun" : 0},
		{"id" : 1, "text" : "五祀", "type" : "CV_POSITION", "begin" : 6, "end" : 6, "weight" : 0.0858483, "common_noun" : 0},
		{"id" : 2, "text" : "하나", "type" : "QT_COUNT", "begin" : 9, "end" : 9, "weight" : 0.330326, "common_noun" : 0}
	],
	"chunk" : [
	],
	"dependency" : [
		{"id" : 0, "text" : "부뚜막의", "head" : 1, "label" : "NP_MOD", "mod" : [], "weight" : 0.986743 },
		{"id" : 1, "text" : "신으로", "head" : 3, "label" : "NP_AJT", "mod" : [0], "weight" : 0.811864 },
		{"id" : 2, "text" : "오사(五祀)의", "head" : 3, "label" : "NP_MOD", "mod" : [], "weight" : 0.455714 },
		{"id" : 3, "text" : "하나.", "head" : -1, "label" : "NP", "mod" : [1, 2], "weight" : 0.211752 }
	],
	"SRL" : [
	],
	"relation" : [
	],
	"SA" : [
	],
	"ZA" : [
	]
	},
	{
	"id" : 2,
	"reserve_str" : "",
	"text" : "불을 신성시하고 숭배하는 신앙에서 기원함.",
	"morp" : [
		{"id" : 0, "lemma" : "불", "type" : "NNG", "position" : 77, "weight" : 0.0302592 },
		{"id" : 1, "lemma" : "을", "type" : "JKO", "position" : 80, "weight" : 0.0444379 },
		{"id" : 2, "lemma" : "신성시", "type" : "NNG", "position" : 84, "weight" : 0.0351007 },
		{"id" : 3, "lemma" : "하", "type" : "XSV", "position" : 93, "weight" : 0.0101036 },
		{"id" : 4, "lemma" : "고", "type" : "EC", "position" : 96, "weight" : 0.00922363 },
		{"id" : 5, "lemma" : "숭배", "type" : "NNG", "position" : 100, "weight" : 0.0373485 },
		{"id" : 6, "lemma" : "하", "type" : "XSV", "position" : 106, "weight" : 0.0306051 },
		{"id" : 7, "lemma" : "는", "type" : "ETM", "position" : 109, "weight" : 0.0101036 },
		{"id" : 8, "lemma" : "신앙", "type" : "NNG", "position" : 113, "weight" : 0.0373485 },
		{"id" : 9, "lemma" : "에서", "type" : "JKB", "position" : 119, "weight" : 0.0203544 },
		{"id" : 10, "lemma" : "기원", "type" : "NNG", "position" : 126, "weight" : 0.0373485 },
		{"id" : 11, "lemma" : "하", "type" : "XSV", "position" : 132, "weight" : 0.0306051 },
		{"id" : 12, "lemma" : "ㅁ", "type" : "ETN", "position" : 132, "weight" : 0.0101036 },
		{"id" : 13, "lemma" : ".", "type" : "SF", "position" : 135, "weight" : 0.00922363 }
	],
	"morp_eval" : [
	],
	"WSD" : [
	],
	"word" : [
		{"id" : 0, "text" : "불을", "type" : "", "begin" : 0, "end" : 1},
		{"id" : 1, "text" : "신성시하고", "type" : "", "begin" : 2, "end" : 4},
		{"id" : 2, "text" : "숭배하는", "type" : "", "begin" : 5, "end" : 7},
		{"id" : 3, "text" : "신앙에서", "type" : "", "begin" : 8, "end" : 9},
		{"id" : 4, "text" : "기원함.", "type" : "", "begin" : 10, "end" : 13}
	],
	"NE" : [
	],
	"chunk" : [
	],
	"dependency" : [
		{"id" : 0, "text" : "불을", "head" : 1, "label" : "NP_OBJ", "mod" : [], "weight" : 0.795158 },
		{"id" : 1, "text" : "신성시하고", "head" : 2, "label" : "VP", "mod" : [0], "weight" : 0.742492 },
		{"id" : 2, "text" : "숭배하는", "head" : 3, "label" : "VP_MOD", "mod" : [1], "weight" : 0.679711 },
		{"id" : 3, "text" : "신앙에서", "head" : 4, "label" : "NP_AJT", "mod" : [2], "weight" : 0.588899 },
		{"id" : 4, "text" : "기원함.", "head" : -1, "label" : "VP", "mod" : [3], "weight" : 0.1206 }
	],
	"SRL" : [
		{"verb" : "신성시", "sense" : 1, "word_id" : 1, "weight" : 0.219688,
			"argument" : [
				{"type" : "ARG1", "word_id" : 0, "text" : "불을", "weight" : 0.219688 }
			] },
		{"verb" : "숭배", "sense" : 1, "word_id" : 2, "weight" : 0,
			"argument" : [
				{"type" : "ARG1", "word_id" : 0, "text" : "불을", "weight" : 0 }
			] },
		{"verb" : "기원", "sense" : 1, "word_id" : 4, "weight" : 0.956236,
			"argument" : [
				{"type" : "ARG2", "word_id" : 3, "text" : "신앙에서", "weight" : 0.956236 }
			] }
	],
	"relation" : [
	],
	"SA" : [
	],
	"ZA" : [
	]
	}
 ],
 "entity" : [
 ]
}

