{"doc_id" : "E2015.943.024_A_03",
 "DCT" : "",
 "category" : "",
 "category_weight" : 0,
 "title" : {"text" : "", "NE" : ""},
 "metaInfo" : { },
 "sentence" : [
	{
	"id" : 0,
	"reserve_str" : "",
	"text" : "지중해 연안에서 재배하는 것이 가장 품질이 좋다.",
	"morp" : [
		{"id" : 0, "lemma" : "지중해", "type" : "NNP", "position" : 0, "weight" : 1 },
		{"id" : 1, "lemma" : "연안", "type" : "NNG", "position" : 10, "weight" : 1 },
		{"id" : 2, "lemma" : "에서", "type" : "JKB", "position" : 16, "weight" : 0.521577 },
		{"id" : 3, "lemma" : "재배", "type" : "NNG", "position" : 23, "weight" : 1 },
		{"id" : 4, "lemma" : "하", "type" : "XSV", "position" : 29, "weight" : 1 },
		{"id" : 5, "lemma" : "는", "type" : "ETM", "position" : 32, "weight" : 0.0431533 },
		{"id" : 6, "lemma" : "것", "type" : "NNB", "position" : 36, "weight" : 1 },
		{"id" : 7, "lemma" : "이", "type" : "JKS", "position" : 39, "weight" : 1 },
		{"id" : 8, "lemma" : "가장", "type" : "MAG", "position" : 43, "weight" : 1 },
		{"id" : 9, "lemma" : "품질", "type" : "NNG", "position" : 50, "weight" : 1 },
		{"id" : 10, "lemma" : "이", "type" : "JKS", "position" : 56, "weight" : 1 },
		{"id" : 11, "lemma" : "좋", "type" : "VA", "position" : 60, "weight" : 1 },
		{"id" : 12, "lemma" : "다", "type" : "EF", "position" : 63, "weight" : 1 },
		{"id" : 13, "lemma" : ".", "type" : "SF", "position" : 66, "weight" : 1 }
	],
	"morp_eval" : [
	],
	"WSD" : [
	],
	"word" : [
		{"id" : 0, "text" : "지중해", "type" : "", "begin" : 0, "end" : 0},
		{"id" : 1, "text" : "연안에서", "type" : "", "begin" : 1, "end" : 2},
		{"id" : 2, "text" : "재배하는", "type" : "", "begin" : 3, "end" : 5},
		{"id" : 3, "text" : "것이", "type" : "", "begin" : 6, "end" : 7},
		{"id" : 4, "text" : "가장", "type" : "", "begin" : 8, "end" : 8},
		{"id" : 5, "text" : "품질이", "type" : "", "begin" : 9, "end" : 10},
		{"id" : 6, "text" : "좋다.", "type" : "", "begin" : 11, "end" : 13}
	],
	"NE" : [
		{"id" : 0, "text" : "지중해", "type" : "LCG_OCEAN", "begin" : 0, "end" : 0, "weight" : 0.312615, "common_noun" : 0}
	],
	"chunk" : [
	],
	"dependency" : [
		{"id" : 0, "text" : "지중해", "head" : 1, "label" : "NP", "mod" : [], "weight" : 0.799704 },
		{"id" : 1, "text" : "연안에서", "head" : 2, "label" : "NP_AJT", "mod" : [0], "weight" : 0.958939 },
		{"id" : 2, "text" : "재배하는", "head" : 3, "label" : "VP_MOD", "mod" : [1], "weight" : 0.97218 },
		{"id" : 3, "text" : "것이", "head" : 6, "label" : "NP_SBJ", "mod" : [2], "weight" : 0.743668 },
		{"id" : 4, "text" : "가장", "head" : 6, "label" : "AP", "mod" : [], "weight" : 0.590983 },
		{"id" : 5, "text" : "품질이", "head" : 6, "label" : "NP_SBJ", "mod" : [], "weight" : 0.479412 },
		{"id" : 6, "text" : "좋다.", "head" : -1, "label" : "VP", "mod" : [3, 4, 5], "weight" : 0.124564 }
	],
	"SRL" : [
		{"verb" : "재배", "sense" : 1, "word_id" : 2, "weight" : 0.148713,
			"argument" : [
				{"type" : "ARGM-LOC", "word_id" : 1, "text" : "연안에서", "weight" : 0.148713 }
			] },
		{"verb" : "좋", "sense" : 1, "word_id" : 6, "weight" : 0.125808,
			"argument" : [
				{"type" : "ARGM-EXT", "word_id" : 4, "text" : "가장", "weight" : 0.114116 },
				{"type" : "ARG1", "word_id" : 5, "text" : "품질이", "weight" : 0.155102 },
				{"type" : "ARG1", "word_id" : 3, "text" : "것이", "weight" : 1 }
			] }
	],
	"relation" : [
	],
	"SA" : [
	],
	"ZA" : [
	]
	},
	{
	"id" : 1,
	"reserve_str" : "",
	"text" : "비타민C와 구연산이 많기 때문에 신맛이 강하다.",
	"morp" : [
		{"id" : 0, "lemma" : "비타민", "type" : "NNG", "position" : 68, "weight" : 1 },
		{"id" : 1, "lemma" : "C", "type" : "SL", "position" : 77, "weight" : 1 },
		{"id" : 2, "lemma" : "와", "type" : "JC", "position" : 78, "weight" : 0.0313523 },
		{"id" : 3, "lemma" : "구연산", "type" : "NNG", "position" : 82, "weight" : 1 },
		{"id" : 4, "lemma" : "이", "type" : "JKS", "position" : 91, "weight" : 1 },
		{"id" : 5, "lemma" : "많", "type" : "VA", "position" : 95, "weight" : 1 },
		{"id" : 6, "lemma" : "기", "type" : "ETN", "position" : 98, "weight" : 1 },
		{"id" : 7, "lemma" : "때문", "type" : "NNB", "position" : 102, "weight" : 1 },
		{"id" : 8, "lemma" : "에", "type" : "JKB", "position" : 108, "weight" : 1 },
		{"id" : 9, "lemma" : "신맛", "type" : "NNG", "position" : 112, "weight" : 1 },
		{"id" : 10, "lemma" : "이", "type" : "JKS", "position" : 118, "weight" : 1 },
		{"id" : 11, "lemma" : "강", "type" : "XR", "position" : 122, "weight" : 1 },
		{"id" : 12, "lemma" : "하", "type" : "XSA", "position" : 125, "weight" : 1 },
		{"id" : 13, "lemma" : "다", "type" : "EF", "position" : 128, "weight" : 1 },
		{"id" : 14, "lemma" : ".", "type" : "SF", "position" : 131, "weight" : 1 }
	],
	"morp_eval" : [
	],
	"WSD" : [
	],
	"word" : [
		{"id" : 0, "text" : "비타민C와", "type" : "", "begin" : 0, "end" : 2},
		{"id" : 1, "text" : "구연산이", "type" : "", "begin" : 3, "end" : 4},
		{"id" : 2, "text" : "많기", "type" : "", "begin" : 5, "end" : 6},
		{"id" : 3, "text" : "때문에", "type" : "", "begin" : 7, "end" : 8},
		{"id" : 4, "text" : "신맛이", "type" : "", "begin" : 9, "end" : 10},
		{"id" : 5, "text" : "강하다.", "type" : "", "begin" : 11, "end" : 14}
	],
	"NE" : [
		{"id" : 0, "text" : "비타민C", "type" : "MT_CHEMICAL", "begin" : 0, "end" : 1, "weight" : 0.823988, "common_noun" : 0},
		{"id" : 1, "text" : "구연산", "type" : "MT_CHEMICAL", "begin" : 3, "end" : 3, "weight" : 0.475428, "common_noun" : 0}
	],
	"chunk" : [
	],
	"dependency" : [
		{"id" : 0, "text" : "비타민C와", "head" : 1, "label" : "NP_CNJ", "mod" : [], "weight" : 0.626141 },
		{"id" : 1, "text" : "구연산이", "head" : 2, "label" : "NP_SBJ", "mod" : [0], "weight" : 0.984706 },
		{"id" : 2, "text" : "많기", "head" : 3, "label" : "VP", "mod" : [1], "weight" : 0.987755 },
		{"id" : 3, "text" : "때문에", "head" : 5, "label" : "NP_AJT", "mod" : [2], "weight" : 0.762718 },
		{"id" : 4, "text" : "신맛이", "head" : 5, "label" : "NP_SBJ", "mod" : [], "weight" : 0.487937 },
		{"id" : 5, "text" : "강하다.", "head" : -1, "label" : "VP", "mod" : [3, 4], "weight" : 0.152081 }
	],
	"SRL" : [
		{"verb" : "많", "sense" : 1, "word_id" : 2, "weight" : 0.17211,
			"argument" : [
				{"type" : "ARG1", "word_id" : 1, "text" : "구연산이", "weight" : 0.17211 }
			] },
		{"verb" : "강", "sense" : 1, "word_id" : 5, "weight" : 0.136183,
			"argument" : [
				{"type" : "ARGM-CAU", "word_id" : 3, "text" : "때문에", "weight" : 0.10927 },
				{"type" : "ARG1", "word_id" : 4, "text" : "신맛이", "weight" : 0.163097 }
			] }
	],
	"relation" : [
	],
	"SA" : [
	],
	"ZA" : [
	]
	}
 ],
 "entity" : [
 ]
}

