{"doc_id" : "E2015.947.021_A_02",
 "DCT" : "",
 "category" : "",
 "category_weight" : 0,
 "title" : {"text" : "", "NE" : ""},
 "metaInfo" : { },
 "sentence" : [
	{
	"id" : 0,
	"reserve_str" : "",
	"text" : "매의 주인을 밝히기 위하여 주소를 적어 매의 꽁지 속에다 매어 둔 네모꼴의 뿔.",
	"morp" : [
		{"id" : 0, "lemma" : "매", "type" : "NNG", "position" : 0, "weight" : 0.019142 },
		{"id" : 1, "lemma" : "의", "type" : "JKG", "position" : 3, "weight" : 0.0455337 },
		{"id" : 2, "lemma" : "주인", "type" : "NNG", "position" : 7, "weight" : 0.0323378 },
		{"id" : 3, "lemma" : "을", "type" : "JKO", "position" : 13, "weight" : 0.0480369 },
		{"id" : 4, "lemma" : "밝히", "type" : "VV", "position" : 17, "weight" : 0.0323378 },
		{"id" : 5, "lemma" : "기", "type" : "ETN", "position" : 23, "weight" : 0.0480369 },
		{"id" : 6, "lemma" : "위하", "type" : "VV", "position" : 27, "weight" : 0.0323378 },
		{"id" : 7, "lemma" : "아", "type" : "EC", "position" : 33, "weight" : 0.0480369 },
		{"id" : 8, "lemma" : "주소", "type" : "NNG", "position" : 37, "weight" : 0.0323378 },
		{"id" : 9, "lemma" : "를", "type" : "JKO", "position" : 43, "weight" : 0.0480369 },
		{"id" : 10, "lemma" : "적", "type" : "VV", "position" : 47, "weight" : 0.019142 },
		{"id" : 11, "lemma" : "어", "type" : "EC", "position" : 50, "weight" : 0.0455337 },
		{"id" : 12, "lemma" : "매", "type" : "NNG", "position" : 54, "weight" : 0.019142 },
		{"id" : 13, "lemma" : "의", "type" : "JKG", "position" : 57, "weight" : 0.0455337 },
		{"id" : 14, "lemma" : "꽁지", "type" : "NNG", "position" : 61, "weight" : 0.0323378 },
		{"id" : 15, "lemma" : "속", "type" : "NNG", "position" : 68, "weight" : 0.019142 },
		{"id" : 16, "lemma" : "에다", "type" : "JKB", "position" : 71, "weight" : 0.0467853 },
		{"id" : 17, "lemma" : "매", "type" : "VV", "position" : 78, "weight" : 0.019142 },
		{"id" : 18, "lemma" : "어", "type" : "EC", "position" : 81, "weight" : 0.0455337 },
		{"id" : 19, "lemma" : "두", "type" : "VX", "position" : 85, "weight" : 0.019142 },
		{"id" : 20, "lemma" : "ㄴ", "type" : "ETM", "position" : 85, "weight" : 0.0455337 },
		{"id" : 21, "lemma" : "네모", "type" : "NNG", "position" : 89, "weight" : 0.0323378 },
		{"id" : 22, "lemma" : "꼴", "type" : "NNG", "position" : 95, "weight" : 0.0480369 },
		{"id" : 23, "lemma" : "의", "type" : "JKG", "position" : 98, "weight" : 0.0468256 },
		{"id" : 24, "lemma" : "뿔", "type" : "NNG", "position" : 102, "weight" : 0.019142 },
		{"id" : 25, "lemma" : ".", "type" : "SF", "position" : 105, "weight" : 0.0455337 }
	],
	"morp_eval" : [
	],
	"WSD" : [
	],
	"word" : [
		{"id" : 0, "text" : "매의", "type" : "", "begin" : 0, "end" : 1},
		{"id" : 1, "text" : "주인을", "type" : "", "begin" : 2, "end" : 3},
		{"id" : 2, "text" : "밝히기", "type" : "", "begin" : 4, "end" : 5},
		{"id" : 3, "text" : "위하여", "type" : "", "begin" : 6, "end" : 7},
		{"id" : 4, "text" : "주소를", "type" : "", "begin" : 8, "end" : 9},
		{"id" : 5, "text" : "적어", "type" : "", "begin" : 10, "end" : 11},
		{"id" : 6, "text" : "매의", "type" : "", "begin" : 12, "end" : 13},
		{"id" : 7, "text" : "꽁지", "type" : "", "begin" : 14, "end" : 14},
		{"id" : 8, "text" : "속에다", "type" : "", "begin" : 15, "end" : 16},
		{"id" : 9, "text" : "매어", "type" : "", "begin" : 17, "end" : 18},
		{"id" : 10, "text" : "둔", "type" : "", "begin" : 19, "end" : 20},
		{"id" : 11, "text" : "네모꼴의", "type" : "", "begin" : 21, "end" : 23},
		{"id" : 12, "text" : "뿔.", "type" : "", "begin" : 24, "end" : 25}
	],
	"NE" : [
		{"id" : 0, "text" : "매", "type" : "AM_BIRD", "begin" : 0, "end" : 0, "weight" : 0.251385, "common_noun" : 0},
		{"id" : 1, "text" : "주인", "type" : "CV_POSITION", "begin" : 2, "end" : 2, "weight" : 0.251385, "common_noun" : 0},
		{"id" : 2, "text" : "매", "type" : "AM_BIRD", "begin" : 12, "end" : 12, "weight" : 0.251385, "common_noun" : 0},
		{"id" : 3, "text" : "꽁지", "type" : "AM_PART", "begin" : 14, "end" : 14, "weight" : 0.251385, "common_noun" : 0},
		{"id" : 4, "text" : "네모꼴", "type" : "TM_SHAPE", "begin" : 21, "end" : 22, "weight" : 0.234349, "common_noun" : 0}
	],
	"chunk" : [
	],
	"dependency" : [
		{"id" : 0, "text" : "매의", "head" : 1, "label" : "NP_MOD", "mod" : [], "weight" : 0.927072 },
		{"id" : 1, "text" : "주인을", "head" : 2, "label" : "NP_OBJ", "mod" : [0], "weight" : 0.91288 },
		{"id" : 2, "text" : "밝히기", "head" : 3, "label" : "VP_OBJ", "mod" : [1], "weight" : 0.864131 },
		{"id" : 3, "text" : "위하여", "head" : 5, "label" : "VP", "mod" : [2], "weight" : 0.872085 },
		{"id" : 4, "text" : "주소를", "head" : 5, "label" : "NP_OBJ", "mod" : [], "weight" : 0.829591 },
		{"id" : 5, "text" : "적어", "head" : 9, "label" : "VP", "mod" : [3, 4], "weight" : 0.68921 },
		{"id" : 6, "text" : "매의", "head" : 7, "label" : "NP_MOD", "mod" : [], "weight" : 0.722457 },
		{"id" : 7, "text" : "꽁지", "head" : 8, "label" : "NP", "mod" : [6], "weight" : 0.987964 },
		{"id" : 8, "text" : "속에다", "head" : 9, "label" : "NP_AJT", "mod" : [7], "weight" : 0.788954 },
		{"id" : 9, "text" : "매어", "head" : 10, "label" : "VP", "mod" : [5, 8], "weight" : 0.954099 },
		{"id" : 10, "text" : "둔", "head" : 12, "label" : "VP_MOD", "mod" : [9], "weight" : 0.571182 },
		{"id" : 11, "text" : "네모꼴의", "head" : 12, "label" : "NP_MOD", "mod" : [], "weight" : 0.534302 },
		{"id" : 12, "text" : "뿔.", "head" : -1, "label" : "NP", "mod" : [10, 11], "weight" : 0.323028 }
	],
	"SRL" : [
		{"verb" : "밝히", "sense" : 1, "word_id" : 2, "weight" : 0.233345,
			"argument" : [
				{"type" : "ARG1", "word_id" : 1, "text" : "주인을", "weight" : 0.233345 }
			] },
		{"verb" : "위하", "sense" : 1, "word_id" : 3, "weight" : 0.221356,
			"argument" : [
				{"type" : "ARG1", "word_id" : 2, "text" : "밝히기", "weight" : 0.221356 }
			] },
		{"verb" : "적", "sense" : 1, "word_id" : 5, "weight" : 0.200318,
			"argument" : [
				{"type" : "ARGM-PRP", "word_id" : 3, "text" : "위하여", "weight" : 0.168045 },
				{"type" : "ARG1", "word_id" : 4, "text" : "주소를", "weight" : 0.232591 }
			] },
		{"verb" : "매", "sense" : 1, "word_id" : 9, "weight" : 0.146002,
			"argument" : [
				{"type" : "ARG2", "word_id" : 8, "text" : "속에다", "weight" : 0.938454 },
				{"type" : "AUX", "word_id" : 10, "text" : "둔", "weight" : 0.198159 },
				{"type" : "ARG1", "word_id" : 12, "text" : "뿔.", "weight" : 0 }
			] }
	],
	"relation" : [
	],
	"SA" : [
	],
	"ZA" : [
	]
	},
	{
	"id" : 1,
	"reserve_str" : "",
	"text" : "자기가 하고도 아니한 체, 알고도 모르는 체하는 태도.",
	"morp" : [
		{"id" : 0, "lemma" : "자기", "type" : "NP", "position" : 107, "weight" : 0.0428786 },
		{"id" : 1, "lemma" : "가", "type" : "JKS", "position" : 113, "weight" : 0.0311008 },
		{"id" : 2, "lemma" : "하", "type" : "VV", "position" : 117, "weight" : 0.0422993 },
		{"id" : 3, "lemma" : "고", "type" : "EC", "position" : 120, "weight" : 0.043458 },
		{"id" : 4, "lemma" : "도", "type" : "JX", "position" : 123, "weight" : 0.0311008 },
		{"id" : 5, "lemma" : "아니하", "type" : "VV", "position" : 127, "weight" : 0.0428786 },
		{"id" : 6, "lemma" : "ㄴ", "type" : "ETM", "position" : 133, "weight" : 0.0333732 },
		{"id" : 7, "lemma" : "체", "type" : "NNB", "position" : 137, "weight" : 0.0422993 },
		{"id" : 8, "lemma" : ",", "type" : "SP", "position" : 140, "weight" : 0.043458 },
		{"id" : 9, "lemma" : "알", "type" : "VV", "position" : 142, "weight" : 0.0422993 },
		{"id" : 10, "lemma" : "고", "type" : "EC", "position" : 145, "weight" : 0.043458 },
		{"id" : 11, "lemma" : "도", "type" : "JX", "position" : 148, "weight" : 0.0311008 },
		{"id" : 12, "lemma" : "모르", "type" : "VV", "position" : 152, "weight" : 0.0428786 },
		{"id" : 13, "lemma" : "는", "type" : "ETM", "position" : 158, "weight" : 0.0311008 },
		{"id" : 14, "lemma" : "체하", "type" : "VX", "position" : 162, "weight" : 0.0422993 },
		{"id" : 15, "lemma" : "는", "type" : "ETM", "position" : 168, "weight" : 0.0311008 },
		{"id" : 16, "lemma" : "태도", "type" : "NNG", "position" : 172, "weight" : 0.0428786 },
		{"id" : 17, "lemma" : ".", "type" : "SF", "position" : 178, "weight" : 0.0311008 }
	],
	"morp_eval" : [
	],
	"WSD" : [
	],
	"word" : [
		{"id" : 0, "text" : "자기가", "type" : "", "begin" : 0, "end" : 1},
		{"id" : 1, "text" : "하고도", "type" : "", "begin" : 2, "end" : 4},
		{"id" : 2, "text" : "아니한", "type" : "", "begin" : 5, "end" : 6},
		{"id" : 3, "text" : "체,", "type" : "", "begin" : 7, "end" : 8},
		{"id" : 4, "text" : "알고도", "type" : "", "begin" : 9, "end" : 11},
		{"id" : 5, "text" : "모르는", "type" : "", "begin" : 12, "end" : 13},
		{"id" : 6, "text" : "체하는", "type" : "", "begin" : 14, "end" : 15},
		{"id" : 7, "text" : "태도.", "type" : "", "begin" : 16, "end" : 17}
	],
	"NE" : [
	],
	"chunk" : [
	],
	"dependency" : [
		{"id" : 0, "text" : "자기가", "head" : 1, "label" : "NP_SBJ", "mod" : [], "weight" : 0.739567 },
		{"id" : 1, "text" : "하고도", "head" : 2, "label" : "VP", "mod" : [0], "weight" : 0.933052 },
		{"id" : 2, "text" : "아니한", "head" : 3, "label" : "VP_MOD", "mod" : [1], "weight" : 0.76008 },
		{"id" : 3, "text" : "체,", "head" : 6, "label" : "NP_CNJ", "mod" : [2], "weight" : 0.526586 },
		{"id" : 4, "text" : "알고도", "head" : 5, "label" : "VP", "mod" : [], "weight" : 0.725946 },
		{"id" : 5, "text" : "모르는", "head" : 6, "label" : "VP_MOD", "mod" : [4], "weight" : 0.510046 },
		{"id" : 6, "text" : "체하는", "head" : 7, "label" : "VP_MOD", "mod" : [3, 5], "weight" : 0.582654 },
		{"id" : 7, "text" : "태도.", "head" : -1, "label" : "NP", "mod" : [6], "weight" : 0.365214 }
	],
	"SRL" : [
		{"verb" : "하", "sense" : 1, "word_id" : 1, "weight" : 0.227324,
			"argument" : [
				{"type" : "ARG0", "word_id" : 0, "text" : "자기가", "weight" : 0.227324 }
			] },
		{"verb" : "않", "sense" : 1, "word_id" : 2, "weight" : 0,
			"argument" : [
				{"type" : "ARG0", "word_id" : 0, "text" : "자기가", "weight" : 0 }
			] },
		{"verb" : "알", "sense" : 1, "word_id" : 4, "weight" : 0.687201,
			"argument" : [
				{"type" : "ARG0", "word_id" : 0, "text" : "자기가", "weight" : 0 }
			] },
		{"verb" : "모르", "sense" : 1, "word_id" : 5, "weight" : 0,
			"argument" : [
				{"type" : "ARG0", "word_id" : 0, "text" : "자기가", "weight" : 0 }
			] }
	],
	"relation" : [
	],
	"SA" : [
	],
	"ZA" : [
	]
	}
 ],
 "entity" : [
 ]
}

