{"doc_id" : "E2015.947.027_Q_01",
 "DCT" : "",
 "category" : "",
 "category_weight" : 0,
 "title" : {"text" : "", "NE" : ""},
 "metaInfo" : { },
 "sentence" : [
	{
	"id" : 0,
	"reserve_str" : "",
	"text" : "대한민국 임시정부의 마지막 청사.",
	"morp" : [
		{"id" : 0, "lemma" : "대한민국", "type" : "NNP", "position" : 0, "weight" : 1 },
		{"id" : 1, "lemma" : "임시", "type" : "NNG", "position" : 13, "weight" : 1 },
		{"id" : 2, "lemma" : "정부", "type" : "NNG", "position" : 19, "weight" : 1 },
		{"id" : 3, "lemma" : "의", "type" : "JKG", "position" : 25, "weight" : 0.0443936 },
		{"id" : 4, "lemma" : "마지막", "type" : "NNG", "position" : 29, "weight" : 1 },
		{"id" : 5, "lemma" : "청사", "type" : "NNG", "position" : 39, "weight" : 1 },
		{"id" : 6, "lemma" : ".", "type" : "SF", "position" : 45, "weight" : 1 }
	],
	"morp_eval" : [
	],
	"WSD" : [
	],
	"word" : [
		{"id" : 0, "text" : "대한민국", "type" : "", "begin" : 0, "end" : 0},
		{"id" : 1, "text" : "임시정부의", "type" : "", "begin" : 1, "end" : 3},
		{"id" : 2, "text" : "마지막", "type" : "", "begin" : 4, "end" : 4},
		{"id" : 3, "text" : "청사.", "type" : "", "begin" : 5, "end" : 6}
	],
	"NE" : [
		{"id" : 0, "text" : "대한민국 임시정부", "type" : "OGG_POLITICS", "begin" : 0, "end" : 2, "weight" : 0.372844, "common_noun" : 0}
	],
	"chunk" : [
	],
	"dependency" : [
		{"id" : 0, "text" : "대한민국", "head" : 1, "label" : "NP", "mod" : [], "weight" : 0.775494 },
		{"id" : 1, "text" : "임시정부의", "head" : 3, "label" : "NP_MOD", "mod" : [0], "weight" : 0.562 },
		{"id" : 2, "text" : "마지막", "head" : 3, "label" : "NP", "mod" : [], "weight" : 0.45838 },
		{"id" : 3, "text" : "청사.", "head" : -1, "label" : "NP", "mod" : [1, 2], "weight" : 0.111652 }
	],
	"SRL" : [
	],
	"relation" : [
	],
	"SA" : [
	],
	"ZA" : [
	]
	},
	{
	"id" : 1,
	"reserve_str" : "",
	"text" : "이전 이름은 '죽첨장'이며 육군 소위 안두희가 김구를 저격한 곳.",
	"morp" : [
		{"id" : 0, "lemma" : "이전", "type" : "NNG", "position" : 47, "weight" : 0.0264341 },
		{"id" : 1, "lemma" : "이름", "type" : "NNG", "position" : 54, "weight" : 0.0264341 },
		{"id" : 2, "lemma" : "은", "type" : "JX", "position" : 60, "weight" : 0.0230845 },
		{"id" : 3, "lemma" : "'", "type" : "SS", "position" : 64, "weight" : 0.0244124 },
		{"id" : 4, "lemma" : "죽첨", "type" : "NNP", "position" : 65, "weight" : 0.0257702 },
		{"id" : 5, "lemma" : "장", "type" : "XSN", "position" : 71, "weight" : 0.0231833 },
		{"id" : 6, "lemma" : "'", "type" : "SS", "position" : 74, "weight" : 0.0415514 },
		{"id" : 7, "lemma" : "이", "type" : "VCP", "position" : 75, "weight" : 1 },
		{"id" : 8, "lemma" : "며", "type" : "EC", "position" : 78, "weight" : 1 },
		{"id" : 9, "lemma" : "육군", "type" : "NNG", "position" : 82, "weight" : 0.0264341 },
		{"id" : 10, "lemma" : "소위", "type" : "NNG", "position" : 89, "weight" : 0.0264341 },
		{"id" : 11, "lemma" : "안두희", "type" : "NNP", "position" : 96, "weight" : 0.0253176 },
		{"id" : 12, "lemma" : "가", "type" : "JKS", "position" : 105, "weight" : 0.0231833 },
		{"id" : 13, "lemma" : "김구", "type" : "NNP", "position" : 109, "weight" : 0.0264341 },
		{"id" : 14, "lemma" : "를", "type" : "JKO", "position" : 115, "weight" : 0.0230845 },
		{"id" : 15, "lemma" : "저격", "type" : "NNG", "position" : 119, "weight" : 0.0264341 },
		{"id" : 16, "lemma" : "하", "type" : "XSV", "position" : 125, "weight" : 0.0230845 },
		{"id" : 17, "lemma" : "ㄴ", "type" : "ETM", "position" : 125, "weight" : 0.0231833 },
		{"id" : 18, "lemma" : "곳", "type" : "NNG", "position" : 129, "weight" : 0.0244124 },
		{"id" : 19, "lemma" : ".", "type" : "SF", "position" : 132, "weight" : 0.0284558 }
	],
	"morp_eval" : [
	],
	"WSD" : [
	],
	"word" : [
		{"id" : 0, "text" : "이전", "type" : "", "begin" : 0, "end" : 0},
		{"id" : 1, "text" : "이름은", "type" : "", "begin" : 1, "end" : 2},
		{"id" : 2, "text" : "'죽첨장'이며", "type" : "", "begin" : 3, "end" : 8},
		{"id" : 3, "text" : "육군", "type" : "", "begin" : 9, "end" : 9},
		{"id" : 4, "text" : "소위", "type" : "", "begin" : 10, "end" : 10},
		{"id" : 5, "text" : "안두희가", "type" : "", "begin" : 11, "end" : 12},
		{"id" : 6, "text" : "김구를", "type" : "", "begin" : 13, "end" : 14},
		{"id" : 7, "text" : "저격한", "type" : "", "begin" : 15, "end" : 17},
		{"id" : 8, "text" : "곳.", "type" : "", "begin" : 18, "end" : 19}
	],
	"NE" : [
		{"id" : 0, "text" : "죽첨장", "type" : "AF_CULTURAL_ASSET", "begin" : 4, "end" : 5, "weight" : 0.574483, "common_noun" : 0},
		{"id" : 1, "text" : "육군", "type" : "OGG_MILITARY", "begin" : 9, "end" : 9, "weight" : 0.574483, "common_noun" : 0},
		{"id" : 2, "text" : "소위", "type" : "CV_POSITION", "begin" : 10, "end" : 10, "weight" : 0.156071, "common_noun" : 0},
		{"id" : 3, "text" : "안두희", "type" : "PS_NAME", "begin" : 11, "end" : 11, "weight" : 0.518751, "common_noun" : 0},
		{"id" : 4, "text" : "김구", "type" : "PS_NAME", "begin" : 13, "end" : 13, "weight" : 0.278555, "common_noun" : 0}
	],
	"chunk" : [
	],
	"dependency" : [
		{"id" : 0, "text" : "이전", "head" : 1, "label" : "NP", "mod" : [], "weight" : 0.777281 },
		{"id" : 1, "text" : "이름은", "head" : 2, "label" : "NP_SBJ", "mod" : [0], "weight" : 0.597225 },
		{"id" : 2, "text" : "'죽첨장'이며", "head" : 8, "label" : "VNP", "mod" : [1], "weight" : 0.711193 },
		{"id" : 3, "text" : "육군", "head" : 4, "label" : "NP", "mod" : [], "weight" : 0.587929 },
		{"id" : 4, "text" : "소위", "head" : 5, "label" : "NP", "mod" : [3], "weight" : 0.656309 },
		{"id" : 5, "text" : "안두희가", "head" : 7, "label" : "NP_SBJ", "mod" : [4], "weight" : 0.637384 },
		{"id" : 6, "text" : "김구를", "head" : 7, "label" : "NP_OBJ", "mod" : [], "weight" : 0.886441 },
		{"id" : 7, "text" : "저격한", "head" : 8, "label" : "VP_MOD", "mod" : [5, 6], "weight" : 0.541759 },
		{"id" : 8, "text" : "곳.", "head" : -1, "label" : "NP", "mod" : [2, 7], "weight" : 0.24436 }
	],
	"SRL" : [
		{"verb" : "저격", "sense" : 1, "word_id" : 7, "weight" : 0.234219,
			"argument" : [
				{"type" : "ARG0", "word_id" : 5, "text" : "안두희가", "weight" : 0.265944 },
				{"type" : "ARG1", "word_id" : 6, "text" : "김구를", "weight" : 0.202495 }
			] }
	],
	"relation" : [
	],
	"SA" : [
	],
	"ZA" : [
	]
	}
 ],
 "entity" : [
 ]
}

