{"doc_id" : "E2014.221_A_01",
 "DCT" : "",
 "category" : "",
 "category_weight" : 0,
 "title" : {"text" : "", "NE" : ""},
 "metaInfo" : { },
 "sentence" : [
	{
	"id" : 0,
	"reserve_str" : "",
	"text" : " QR코드(QR code)는 흑백 격자 무늬 패턴으로 정보를 나타내는 매트릭스 형식의 이차원 바코드이다.",
	"morp" : [
		{"id" : 0, "lemma" : "QR", "type" : "SL", "position" : 1, "weight" : 1 },
		{"id" : 1, "lemma" : "코드", "type" : "NNG", "position" : 3, "weight" : 0.0164932 },
		{"id" : 2, "lemma" : "(", "type" : "SS", "position" : 9, "weight" : 1 },
		{"id" : 3, "lemma" : "QR", "type" : "SL", "position" : 10, "weight" : 1 },
		{"id" : 4, "lemma" : "code", "type" : "SL", "position" : 13, "weight" : 0.508247 },
		{"id" : 5, "lemma" : ")", "type" : "SS", "position" : 17, "weight" : 1 },
		{"id" : 6, "lemma" : "는", "type" : "JX", "position" : 18, "weight" : 1 },
		{"id" : 7, "lemma" : "흑백", "type" : "NNG", "position" : 22, "weight" : 1 },
		{"id" : 8, "lemma" : "격자", "type" : "NNG", "position" : 29, "weight" : 1 },
		{"id" : 9, "lemma" : "무늬", "type" : "NNG", "position" : 36, "weight" : 1 },
		{"id" : 10, "lemma" : "패턴", "type" : "NNG", "position" : 43, "weight" : 1 },
		{"id" : 11, "lemma" : "으로", "type" : "JKB", "position" : 49, "weight" : 0.0164932 },
		{"id" : 12, "lemma" : "정보", "type" : "NNG", "position" : 56, "weight" : 1 },
		{"id" : 13, "lemma" : "를", "type" : "JKO", "position" : 62, "weight" : 0.0116679 },
		{"id" : 14, "lemma" : "나타내", "type" : "VV", "position" : 66, "weight" : 0.670556 },
		{"id" : 15, "lemma" : "는", "type" : "ETM", "position" : 75, "weight" : 0.0213185 },
		{"id" : 16, "lemma" : "매트릭스", "type" : "NNG", "position" : 79, "weight" : 0.508247 },
		{"id" : 17, "lemma" : "형식", "type" : "NNG", "position" : 92, "weight" : 1 },
		{"id" : 18, "lemma" : "의", "type" : "JKG", "position" : 98, "weight" : 0.0116679 },
		{"id" : 19, "lemma" : "이차원", "type" : "NNG", "position" : 102, "weight" : 0.670556 },
		{"id" : 20, "lemma" : "바코드", "type" : "NNG", "position" : 112, "weight" : 1 },
		{"id" : 21, "lemma" : "이", "type" : "VCP", "position" : 121, "weight" : 0.0213185 },
		{"id" : 22, "lemma" : "다", "type" : "EF", "position" : 124, "weight" : 1 },
		{"id" : 23, "lemma" : ".", "type" : "SF", "position" : 127, "weight" : 1 }
	],
	"morp_eval" : [
	],
	"WSD" : [
	],
	"word" : [
		{"id" : 0, "text" : "QR코드(QR", "type" : "", "begin" : 0, "end" : 3},
		{"id" : 1, "text" : "code)는", "type" : "", "begin" : 4, "end" : 6},
		{"id" : 2, "text" : "흑백", "type" : "", "begin" : 7, "end" : 7},
		{"id" : 3, "text" : "격자", "type" : "", "begin" : 8, "end" : 8},
		{"id" : 4, "text" : "무늬", "type" : "", "begin" : 9, "end" : 9},
		{"id" : 5, "text" : "패턴으로", "type" : "", "begin" : 10, "end" : 11},
		{"id" : 6, "text" : "정보를", "type" : "", "begin" : 12, "end" : 13},
		{"id" : 7, "text" : "나타내는", "type" : "", "begin" : 14, "end" : 15},
		{"id" : 8, "text" : "매트릭스", "type" : "", "begin" : 16, "end" : 16},
		{"id" : 9, "text" : "형식의", "type" : "", "begin" : 17, "end" : 18},
		{"id" : 10, "text" : "이차원", "type" : "", "begin" : 19, "end" : 19},
		{"id" : 11, "text" : "바코드이다.", "type" : "", "begin" : 20, "end" : 23}
	],
	"NE" : [
		{"id" : 0, "text" : "QR코드", "type" : "TMI_HW", "begin" : 0, "end" : 1, "weight" : 0.332279, "common_noun" : 0},
		{"id" : 1, "text" : "QR code", "type" : "TMI_SERVICE", "begin" : 3, "end" : 4, "weight" : 0.332279, "common_noun" : 0},
		{"id" : 2, "text" : "흑백", "type" : "TM_COLOR", "begin" : 7, "end" : 7, "weight" : 0.305366, "common_noun" : 0},
		{"id" : 3, "text" : "격자 무늬", "type" : "TM_SHAPE", "begin" : 8, "end" : 9, "weight" : 0.305366, "common_noun" : 0},
		{"id" : 4, "text" : "이차원", "type" : "QT_OTHERS", "begin" : 19, "end" : 19, "weight" : 0.305366, "common_noun" : 0}
	],
	"chunk" : [
	],
	"dependency" : [
		{"id" : 0, "text" : "QR코드(QR", "head" : 1, "label" : "NP", "mod" : [], "weight" : 0.926757 },
		{"id" : 1, "text" : "code)는", "head" : 11, "label" : "NP_SBJ", "mod" : [0], "weight" : 0.652118 },
		{"id" : 2, "text" : "흑백", "head" : 3, "label" : "NP", "mod" : [], "weight" : 0.53018 },
		{"id" : 3, "text" : "격자", "head" : 4, "label" : "NP", "mod" : [2], "weight" : 0.619959 },
		{"id" : 4, "text" : "무늬", "head" : 5, "label" : "NP", "mod" : [3], "weight" : 0.800877 },
		{"id" : 5, "text" : "패턴으로", "head" : 7, "label" : "NP_AJT", "mod" : [4], "weight" : 0.732083 },
		{"id" : 6, "text" : "정보를", "head" : 7, "label" : "NP_OBJ", "mod" : [], "weight" : 0.957018 },
		{"id" : 7, "text" : "나타내는", "head" : 9, "label" : "VP_MOD", "mod" : [5, 6], "weight" : 0.529387 },
		{"id" : 8, "text" : "매트릭스", "head" : 9, "label" : "NP", "mod" : [], "weight" : 0.726636 },
		{"id" : 9, "text" : "형식의", "head" : 11, "label" : "NP_MOD", "mod" : [7, 8], "weight" : 0.47039 },
		{"id" : 10, "text" : "이차원", "head" : 11, "label" : "NP", "mod" : [], "weight" : 0.348806 },
		{"id" : 11, "text" : "바코드이다.", "head" : -1, "label" : "VNP", "mod" : [1, 9, 10], "weight" : 0.433765 }
	],
	"SRL" : [
		{"verb" : "나타내", "sense" : 1, "word_id" : 7, "weight" : 0.228152,
			"argument" : [
				{"type" : "ARG0", "word_id" : 1, "text" : "code)는", "weight" : 0.166329 },
				{"type" : "ARGM-INS", "word_id" : 5, "text" : "패턴으로", "weight" : 0.18537 },
				{"type" : "ARG1", "word_id" : 6, "text" : "정보를", "weight" : 0.332756 }
			] }
	],
	"relation" : [
	],
	"SA" : [
	],
	"ZA" : [
	]
	},
	{
	"id" : 1,
	"reserve_str" : "",
	"text" : " 일반 바코드는 단방향 즉, 1차원적으로 숫자 또는 문자 정보가 저장 가능한 반면, QR코드는 종횡으로 2차원 형태를 가져서 더 많은 정보를 가질 수 있으며, 숫자 외에 알파벳과 한자등 문자 데이터를 저장할 수 있다.  ",
	"morp" : [
		{"id" : 0, "lemma" : "일반", "type" : "NNG", "position" : 129, "weight" : 0.0391643 },
		{"id" : 1, "lemma" : "바코드", "type" : "NNG", "position" : 136, "weight" : 0.0627429 },
		{"id" : 2, "lemma" : "는", "type" : "JX", "position" : 145, "weight" : 1 },
		{"id" : 3, "lemma" : "단", "type" : "XPN", "position" : 149, "weight" : 0.0627429 },
		{"id" : 4, "lemma" : "방향", "type" : "NNG", "position" : 152, "weight" : 0.507793 },
		{"id" : 5, "lemma" : "즉", "type" : "MAG", "position" : 159, "weight" : 0.0627429 },
		{"id" : 6, "lemma" : ",", "type" : "SP", "position" : 162, "weight" : 0.0155856 },
		{"id" : 7, "lemma" : "1", "type" : "SN", "position" : 164, "weight" : 0.0627429 },
		{"id" : 8, "lemma" : "차원", "type" : "NNG", "position" : 165, "weight" : 0.507793 },
		{"id" : 9, "lemma" : "적", "type" : "XSN", "position" : 172, "weight" : 0.0627429 },
		{"id" : 10, "lemma" : "으로", "type" : "JKB", "position" : 175, "weight" : 0.507793 },
		{"id" : 11, "lemma" : "숫자", "type" : "NNG", "position" : 182, "weight" : 0.0391643 },
		{"id" : 12, "lemma" : "또는", "type" : "MAJ", "position" : 189, "weight" : 0.0391643 },
		{"id" : 13, "lemma" : "문자", "type" : "NNG", "position" : 196, "weight" : 0.0391643 },
		{"id" : 14, "lemma" : "정보", "type" : "NNG", "position" : 203, "weight" : 0.0391643 },
		{"id" : 15, "lemma" : "가", "type" : "JKS", "position" : 209, "weight" : 1 },
		{"id" : 16, "lemma" : "저장", "type" : "NNG", "position" : 213, "weight" : 0.0391643 },
		{"id" : 17, "lemma" : "가능", "type" : "NNG", "position" : 220, "weight" : 0.0391643 },
		{"id" : 18, "lemma" : "하", "type" : "XSA", "position" : 226, "weight" : 1 },
		{"id" : 19, "lemma" : "ㄴ", "type" : "ETM", "position" : 226, "weight" : 1 },
		{"id" : 20, "lemma" : "반면", "type" : "NNG", "position" : 230, "weight" : 0.0391643 },
		{"id" : 21, "lemma" : ",", "type" : "SP", "position" : 236, "weight" : 1 },
		{"id" : 22, "lemma" : "QR", "type" : "SL", "position" : 238, "weight" : 0.0391643 },
		{"id" : 23, "lemma" : "코드", "type" : "NNG", "position" : 240, "weight" : 1 },
		{"id" : 24, "lemma" : "는", "type" : "JX", "position" : 246, "weight" : 1 },
		{"id" : 25, "lemma" : "종횡", "type" : "NNG", "position" : 250, "weight" : 0.0391643 },
		{"id" : 26, "lemma" : "으로", "type" : "JKB", "position" : 256, "weight" : 1 },
		{"id" : 27, "lemma" : "2", "type" : "SN", "position" : 263, "weight" : 0.0627429 },
		{"id" : 28, "lemma" : "차원", "type" : "NNG", "position" : 264, "weight" : 0.507793 },
		{"id" : 29, "lemma" : "형태", "type" : "NNG", "position" : 271, "weight" : 0.0391643 },
		{"id" : 30, "lemma" : "를", "type" : "JKO", "position" : 277, "weight" : 1 },
		{"id" : 31, "lemma" : "가지", "type" : "VV", "position" : 281, "weight" : 0.0391643 },
		{"id" : 32, "lemma" : "어서", "type" : "EC", "position" : 284, "weight" : 1 },
		{"id" : 33, "lemma" : "더", "type" : "MAG", "position" : 291, "weight" : 0.0627429 },
		{"id" : 34, "lemma" : "많", "type" : "VA", "position" : 295, "weight" : 0.0627429 },
		{"id" : 35, "lemma" : "은", "type" : "ETM", "position" : 298, "weight" : 0.0155856 },
		{"id" : 36, "lemma" : "정보", "type" : "NNG", "position" : 302, "weight" : 0.0391643 },
		{"id" : 37, "lemma" : "를", "type" : "JKO", "position" : 308, "weight" : 1 },
		{"id" : 38, "lemma" : "가지", "type" : "VV", "position" : 312, "weight" : 0.0391643 },
		{"id" : 39, "lemma" : "ㄹ", "type" : "ETM", "position" : 315, "weight" : 1 },
		{"id" : 40, "lemma" : "수", "type" : "NNB", "position" : 319, "weight" : 0.0627429 },
		{"id" : 41, "lemma" : "있", "type" : "VA", "position" : 323, "weight" : 0.0627429 },
		{"id" : 42, "lemma" : "으며", "type" : "EC", "position" : 326, "weight" : 0.507793 },
		{"id" : 43, "lemma" : ",", "type" : "SP", "position" : 332, "weight" : 1 },
		{"id" : 44, "lemma" : "숫자", "type" : "NNG", "position" : 334, "weight" : 0.0391643 },
		{"id" : 45, "lemma" : "외", "type" : "NNB", "position" : 341, "weight" : 0.0627429 },
		{"id" : 46, "lemma" : "에", "type" : "JKB", "position" : 344, "weight" : 0.0155856 },
		{"id" : 47, "lemma" : "알파벳", "type" : "NNG", "position" : 348, "weight" : 0.359443 },
		{"id" : 48, "lemma" : "과", "type" : "JC", "position" : 357, "weight" : 1 },
		{"id" : 49, "lemma" : "한자", "type" : "NNG", "position" : 361, "weight" : 0.0391643 },
		{"id" : 50, "lemma" : "등", "type" : "NNB", "position" : 367, "weight" : 1 },
		{"id" : 51, "lemma" : "문자", "type" : "NNG", "position" : 371, "weight" : 0.0391643 },
		{"id" : 52, "lemma" : "데이터", "type" : "NNG", "position" : 378, "weight" : 0.359443 },
		{"id" : 53, "lemma" : "를", "type" : "JKO", "position" : 387, "weight" : 1 },
		{"id" : 54, "lemma" : "저장", "type" : "NNG", "position" : 391, "weight" : 0.0391643 },
		{"id" : 55, "lemma" : "하", "type" : "XSV", "position" : 397, "weight" : 1 },
		{"id" : 56, "lemma" : "ㄹ", "type" : "ETM", "position" : 397, "weight" : 1 },
		{"id" : 57, "lemma" : "수", "type" : "NNB", "position" : 401, "weight" : 0.0627429 },
		{"id" : 58, "lemma" : "있", "type" : "VA", "position" : 405, "weight" : 0.0627429 },
		{"id" : 59, "lemma" : "다", "type" : "EF", "position" : 408, "weight" : 0.0155856 },
		{"id" : 60, "lemma" : ".", "type" : "SF", "position" : 411, "weight" : 1 }
	],
	"morp_eval" : [
	],
	"WSD" : [
	],
	"word" : [
		{"id" : 0, "text" : "일반", "type" : "", "begin" : 0, "end" : 0},
		{"id" : 1, "text" : "바코드는", "type" : "", "begin" : 1, "end" : 2},
		{"id" : 2, "text" : "단방향", "type" : "", "begin" : 3, "end" : 4},
		{"id" : 3, "text" : "즉,", "type" : "", "begin" : 5, "end" : 6},
		{"id" : 4, "text" : "1차원적으로", "type" : "", "begin" : 7, "end" : 10},
		{"id" : 5, "text" : "숫자", "type" : "", "begin" : 11, "end" : 11},
		{"id" : 6, "text" : "또는", "type" : "", "begin" : 12, "end" : 12},
		{"id" : 7, "text" : "문자", "type" : "", "begin" : 13, "end" : 13},
		{"id" : 8, "text" : "정보가", "type" : "", "begin" : 14, "end" : 15},
		{"id" : 9, "text" : "저장", "type" : "", "begin" : 16, "end" : 16},
		{"id" : 10, "text" : "가능한", "type" : "", "begin" : 17, "end" : 19},
		{"id" : 11, "text" : "반면,", "type" : "", "begin" : 20, "end" : 21},
		{"id" : 12, "text" : "QR코드는", "type" : "", "begin" : 22, "end" : 24},
		{"id" : 13, "text" : "종횡으로", "type" : "", "begin" : 25, "end" : 26},
		{"id" : 14, "text" : "2차원", "type" : "", "begin" : 27, "end" : 28},
		{"id" : 15, "text" : "형태를", "type" : "", "begin" : 29, "end" : 30},
		{"id" : 16, "text" : "가져서", "type" : "", "begin" : 31, "end" : 32},
		{"id" : 17, "text" : "더", "type" : "", "begin" : 33, "end" : 33},
		{"id" : 18, "text" : "많은", "type" : "", "begin" : 34, "end" : 35},
		{"id" : 19, "text" : "정보를", "type" : "", "begin" : 36, "end" : 37},
		{"id" : 20, "text" : "가질", "type" : "", "begin" : 38, "end" : 39},
		{"id" : 21, "text" : "수", "type" : "", "begin" : 40, "end" : 40},
		{"id" : 22, "text" : "있으며,", "type" : "", "begin" : 41, "end" : 43},
		{"id" : 23, "text" : "숫자", "type" : "", "begin" : 44, "end" : 44},
		{"id" : 24, "text" : "외에", "type" : "", "begin" : 45, "end" : 46},
		{"id" : 25, "text" : "알파벳과", "type" : "", "begin" : 47, "end" : 48},
		{"id" : 26, "text" : "한자등", "type" : "", "begin" : 49, "end" : 50},
		{"id" : 27, "text" : "문자", "type" : "", "begin" : 51, "end" : 51},
		{"id" : 28, "text" : "데이터를", "type" : "", "begin" : 52, "end" : 53},
		{"id" : 29, "text" : "저장할", "type" : "", "begin" : 54, "end" : 56},
		{"id" : 30, "text" : "수", "type" : "", "begin" : 57, "end" : 57},
		{"id" : 31, "text" : "있다.", "type" : "", "begin" : 58, "end" : 60}
	],
	"NE" : [
		{"id" : 0, "text" : "1차원", "type" : "QT_OTHERS", "begin" : 7, "end" : 8, "weight" : 0.403112, "common_noun" : 0},
		{"id" : 1, "text" : "QR코드", "type" : "TMI_HW", "begin" : 22, "end" : 23, "weight" : 0.283448, "common_noun" : 0},
		{"id" : 2, "text" : "2차원", "type" : "QT_OTHERS", "begin" : 27, "end" : 28, "weight" : 0.321108, "common_noun" : 0},
		{"id" : 3, "text" : "알파벳", "type" : "CV_LANGUAGE", "begin" : 47, "end" : 47, "weight" : 0.492679, "common_noun" : 0},
		{"id" : 4, "text" : "한자", "type" : "CV_LANGUAGE", "begin" : 49, "end" : 49, "weight" : 0.492679, "common_noun" : 0}
	],
	"chunk" : [
	],
	"dependency" : [
		{"id" : 0, "text" : "일반", "head" : 1, "label" : "NP", "mod" : [], "weight" : 0.752913 },
		{"id" : 1, "text" : "바코드는", "head" : 10, "label" : "NP_SBJ", "mod" : [0], "weight" : 0.566323 },
		{"id" : 2, "text" : "단방향", "head" : 4, "label" : "NP", "mod" : [], "weight" : 0.644404 },
		{"id" : 3, "text" : "즉,", "head" : 4, "label" : "AP", "mod" : [], "weight" : 0.551501 },
		{"id" : 4, "text" : "1차원적으로", "head" : 10, "label" : "NP_AJT", "mod" : [2, 3], "weight" : 0.577841 },
		{"id" : 5, "text" : "숫자", "head" : 8, "label" : "NP_CNJ", "mod" : [], "weight" : 0.662676 },
		{"id" : 6, "text" : "또는", "head" : 8, "label" : "AP", "mod" : [], "weight" : 0.633283 },
		{"id" : 7, "text" : "문자", "head" : 8, "label" : "NP", "mod" : [], "weight" : 0.765014 },
		{"id" : 8, "text" : "정보가", "head" : 10, "label" : "NP_SBJ", "mod" : [5, 6, 7], "weight" : 0.684704 },
		{"id" : 9, "text" : "저장", "head" : 10, "label" : "NP", "mod" : [], "weight" : 0.79421 },
		{"id" : 10, "text" : "가능한", "head" : 11, "label" : "VP_MOD", "mod" : [1, 4, 8, 9], "weight" : 0.866861 },
		{"id" : 11, "text" : "반면,", "head" : 20, "label" : "NP_AJT", "mod" : [10], "weight" : 0.569559 },
		{"id" : 12, "text" : "QR코드는", "head" : 13, "label" : "NP_SBJ", "mod" : [], "weight" : 0.923035 },
		{"id" : 13, "text" : "종횡으로", "head" : 16, "label" : "NP_AJT", "mod" : [12], "weight" : 0.637833 },
		{"id" : 14, "text" : "2차원", "head" : 15, "label" : "NP", "mod" : [], "weight" : 0.967102 },
		{"id" : 15, "text" : "형태를", "head" : 16, "label" : "NP_OBJ", "mod" : [14], "weight" : 0.969317 },
		{"id" : 16, "text" : "가져서", "head" : 20, "label" : "VP", "mod" : [13, 15], "weight" : 0.826593 },
		{"id" : 17, "text" : "더", "head" : 18, "label" : "AP", "mod" : [], "weight" : 0.736896 },
		{"id" : 18, "text" : "많은", "head" : 19, "label" : "VP_MOD", "mod" : [17], "weight" : 0.77121 },
		{"id" : 19, "text" : "정보를", "head" : 20, "label" : "NP_OBJ", "mod" : [18], "weight" : 0.881824 },
		{"id" : 20, "text" : "가질", "head" : 21, "label" : "VP_MOD", "mod" : [11, 16, 19], "weight" : 0.922213 },
		{"id" : 21, "text" : "수", "head" : 22, "label" : "NP_SBJ", "mod" : [20], "weight" : 0.8185 },
		{"id" : 22, "text" : "있으며,", "head" : 29, "label" : "VP", "mod" : [21], "weight" : 0.752916 },
		{"id" : 23, "text" : "숫자", "head" : 24, "label" : "NP", "mod" : [], "weight" : 0.960486 },
		{"id" : 24, "text" : "외에", "head" : 29, "label" : "NP_AJT", "mod" : [23], "weight" : 0.856225 },
		{"id" : 25, "text" : "알파벳과", "head" : 26, "label" : "NP_CNJ", "mod" : [], "weight" : 0.801909 },
		{"id" : 26, "text" : "한자등", "head" : 28, "label" : "NP", "mod" : [25], "weight" : 0.631862 },
		{"id" : 27, "text" : "문자", "head" : 28, "label" : "NP", "mod" : [], "weight" : 0.746398 },
		{"id" : 28, "text" : "데이터를", "head" : 29, "label" : "NP_OBJ", "mod" : [26, 27], "weight" : 0.892433 },
		{"id" : 29, "text" : "저장할", "head" : 30, "label" : "VP_MOD", "mod" : [22, 24, 28], "weight" : 0.905599 },
		{"id" : 30, "text" : "수", "head" : 31, "label" : "NP_SBJ", "mod" : [29], "weight" : 0.478353 },
		{"id" : 31, "text" : "있다.", "head" : -1, "label" : "VP", "mod" : [30], "weight" : 0.919102 }
	],
	"SRL" : [
		{"verb" : "가능", "sense" : 1, "word_id" : 10, "weight" : 0,
			"argument" : [
				{"type" : "ARG1", "word_id" : 9, "text" : "저장", "weight" : 1 },
				{"type" : "ARGM-MNR", "word_id" : 4, "text" : "1차원적으로", "weight" : 1 },
				{"type" : "ARG2", "word_id" : 1, "text" : "바코드는", "weight" : 1 }
			] },
		{"verb" : "가지", "sense" : 1, "word_id" : 16, "weight" : 0.195822,
			"argument" : [
				{"type" : "ARG0", "word_id" : 12, "text" : "QR코드는", "weight" : 0.320295 },
				{"type" : "ARGM-MNR", "word_id" : 13, "text" : "종횡으로", "weight" : 0.115387 },
				{"type" : "ARG1", "word_id" : 15, "text" : "형태를", "weight" : 0.151782 }
			] },
		{"verb" : "많", "sense" : 1, "word_id" : 18, "weight" : 0.27884,
			"argument" : [
				{"type" : "ARGM-EXT", "word_id" : 17, "text" : "더", "weight" : 0.228072 },
				{"type" : "ARG1", "word_id" : 19, "text" : "정보를", "weight" : 0.329608 }
			] },
		{"verb" : "가지", "sense" : 1, "word_id" : 20, "weight" : 0.307271,
			"argument" : [
				{"type" : "ARGM-DIS", "word_id" : 11, "text" : "반면,", "weight" : 0.252672 },
				{"type" : "ARG0", "word_id" : 12, "text" : "QR코드는", "weight" : 0.274399 },
				{"type" : "ARGM-CAU", "word_id" : 16, "text" : "가져서", "weight" : 0.121948 },
				{"type" : "ARG1", "word_id" : 19, "text" : "정보를", "weight" : 0.329559 },
				{"type" : "AUX", "word_id" : 22, "text" : "있으며,", "weight" : 0.557779 }
			] },
		{"verb" : "저장", "sense" : 1, "word_id" : 29, "weight" : 0.311237,
			"argument" : [
				{"type" : "ARG0", "word_id" : 12, "text" : "QR코드는", "weight" : 0.308859 },
				{"type" : "ARG1", "word_id" : 28, "text" : "데이터를", "weight" : 0.246703 },
				{"type" : "AUX", "word_id" : 31, "text" : "있다.", "weight" : 0.378148 }
			] }
	],
	"relation" : [
	],
	"SA" : [
	],
	"ZA" : [
	]
	}
 ],
 "entity" : [
 ]
}

