{"doc_id" : "E2015.947.016_A_02",
 "DCT" : "",
 "category" : "",
 "category_weight" : 0,
 "title" : {"text" : "", "NE" : ""},
 "metaInfo" : { },
 "sentence" : [
	{
	"id" : 0,
	"reserve_str" : "",
	"text" : "감초는 생강, 대추와 함께 갖가지 독을 푸는 데 그 뛰어난 효과가 있습니다.",
	"morp" : [
		{"id" : 0, "lemma" : "감초", "type" : "NNG", "position" : 0, "weight" : 0.0230975 },
		{"id" : 1, "lemma" : "는", "type" : "JX", "position" : 6, "weight" : 0.0320774 },
		{"id" : 2, "lemma" : "생강", "type" : "NNG", "position" : 10, "weight" : 0.0230975 },
		{"id" : 3, "lemma" : ",", "type" : "SP", "position" : 16, "weight" : 0.0320774 },
		{"id" : 4, "lemma" : "대추", "type" : "NNG", "position" : 18, "weight" : 0.0230975 },
		{"id" : 5, "lemma" : "와", "type" : "JKB", "position" : 24, "weight" : 0.0320774 },
		{"id" : 6, "lemma" : "함께", "type" : "MAG", "position" : 28, "weight" : 0.0230975 },
		{"id" : 7, "lemma" : "갖가지", "type" : "NNG", "position" : 35, "weight" : 0.0260908 },
		{"id" : 8, "lemma" : "독", "type" : "NNG", "position" : 45, "weight" : 0.0315558 },
		{"id" : 9, "lemma" : "을", "type" : "JKO", "position" : 48, "weight" : 0.0146392 },
		{"id" : 10, "lemma" : "풀", "type" : "VV", "position" : 52, "weight" : 0.0315558 },
		{"id" : 11, "lemma" : "는", "type" : "ETM", "position" : 55, "weight" : 0.0146392 },
		{"id" : 12, "lemma" : "데", "type" : "NNB", "position" : 59, "weight" : 0.0315558 },
		{"id" : 13, "lemma" : "그", "type" : "MM", "position" : 63, "weight" : 0.0315558 },
		{"id" : 14, "lemma" : "뛰어나", "type" : "VA", "position" : 67, "weight" : 0.0260908 },
		{"id" : 15, "lemma" : "ㄴ", "type" : "ETM", "position" : 73, "weight" : 0.0351674 },
		{"id" : 16, "lemma" : "효과", "type" : "NNG", "position" : 77, "weight" : 0.0230975 },
		{"id" : 17, "lemma" : "가", "type" : "JKS", "position" : 83, "weight" : 0.0320774 },
		{"id" : 18, "lemma" : "있", "type" : "VA", "position" : 87, "weight" : 0.0315558 },
		{"id" : 19, "lemma" : "습니다", "type" : "EF", "position" : 90, "weight" : 0.0272947 },
		{"id" : 20, "lemma" : ".", "type" : "SF", "position" : 99, "weight" : 0.0147096 }
	],
	"morp_eval" : [
	],
	"WSD" : [
	],
	"word" : [
		{"id" : 0, "text" : "감초는", "type" : "", "begin" : 0, "end" : 1},
		{"id" : 1, "text" : "생강,", "type" : "", "begin" : 2, "end" : 3},
		{"id" : 2, "text" : "대추와", "type" : "", "begin" : 4, "end" : 5},
		{"id" : 3, "text" : "함께", "type" : "", "begin" : 6, "end" : 6},
		{"id" : 4, "text" : "갖가지", "type" : "", "begin" : 7, "end" : 7},
		{"id" : 5, "text" : "독을", "type" : "", "begin" : 8, "end" : 9},
		{"id" : 6, "text" : "푸는", "type" : "", "begin" : 10, "end" : 11},
		{"id" : 7, "text" : "데", "type" : "", "begin" : 12, "end" : 12},
		{"id" : 8, "text" : "그", "type" : "", "begin" : 13, "end" : 13},
		{"id" : 9, "text" : "뛰어난", "type" : "", "begin" : 14, "end" : 15},
		{"id" : 10, "text" : "효과가", "type" : "", "begin" : 16, "end" : 17},
		{"id" : 11, "text" : "있습니다.", "type" : "", "begin" : 18, "end" : 20}
	],
	"NE" : [
		{"id" : 0, "text" : "감초", "type" : "PT_GRASS", "begin" : 0, "end" : 0, "weight" : 0.310771, "common_noun" : 0},
		{"id" : 1, "text" : "생강", "type" : "PT_GRASS", "begin" : 2, "end" : 2, "weight" : 0.550655, "common_noun" : 0},
		{"id" : 2, "text" : "대추", "type" : "PT_FRUIT", "begin" : 4, "end" : 4, "weight" : 0.348134, "common_noun" : 0}
	],
	"chunk" : [
	],
	"dependency" : [
		{"id" : 0, "text" : "감초는", "head" : 11, "label" : "NP_SBJ", "mod" : [], "weight" : 0.712369 },
		{"id" : 1, "text" : "생강,", "head" : 2, "label" : "NP_CNJ", "mod" : [], "weight" : 0.506824 },
		{"id" : 2, "text" : "대추와", "head" : 3, "label" : "NP_AJT", "mod" : [1], "weight" : 0.722018 },
		{"id" : 3, "text" : "함께", "head" : 11, "label" : "AP", "mod" : [2], "weight" : 0.528879 },
		{"id" : 4, "text" : "갖가지", "head" : 5, "label" : "NP", "mod" : [], "weight" : 0.712077 },
		{"id" : 5, "text" : "독을", "head" : 6, "label" : "NP_OBJ", "mod" : [4], "weight" : 0.767547 },
		{"id" : 6, "text" : "푸는", "head" : 7, "label" : "VP_MOD", "mod" : [5], "weight" : 0.918366 },
		{"id" : 7, "text" : "데", "head" : 11, "label" : "NP_AJT", "mod" : [6], "weight" : 0.706881 },
		{"id" : 8, "text" : "그", "head" : 10, "label" : "DP", "mod" : [], "weight" : 0.862446 },
		{"id" : 9, "text" : "뛰어난", "head" : 10, "label" : "VP_MOD", "mod" : [], "weight" : 0.909058 },
		{"id" : 10, "text" : "효과가", "head" : 11, "label" : "NP_SBJ", "mod" : [8, 9], "weight" : 0.602885 },
		{"id" : 11, "text" : "있습니다.", "head" : -1, "label" : "VP", "mod" : [0, 3, 7, 10], "weight" : 0.164404 }
	],
	"SRL" : [
		{"verb" : "풀", "sense" : 1, "word_id" : 6, "weight" : 0.158674,
			"argument" : [
				{"type" : "ARG1", "word_id" : 5, "text" : "독을", "weight" : 0.21596 },
				{"type" : "ARG0", "word_id" : 0, "text" : "감초는", "weight" : 0 }
			] },
		{"verb" : "뛰어나", "sense" : 1, "word_id" : 9, "weight" : 0.228324,
			"argument" : [
				{"type" : "ARG1", "word_id" : 10, "text" : "효과가", "weight" : 0.228324 },
				{"type" : "ARG2", "word_id" : 7, "text" : "데", "weight" : 0 }
			] },
		{"verb" : "있", "sense" : 1, "word_id" : 11, "weight" : 0.162438,
			"argument" : [
				{"type" : "ARG2", "word_id" : 0, "text" : "감초는", "weight" : 0.122445 },
				{"type" : "ARG1", "word_id" : 10, "text" : "효과가", "weight" : 0.202432 }
			] }
	],
	"relation" : [
	],
	"SA" : [
	],
	"ZA" : [
	]
	},
	{
	"id" : 1,
	"reserve_str" : "",
	"text" : "‘약방의 감초’란 말에서 알 수 있듯이 비중은 크지 않으나 절대 빠져서는 안 되는 것이 감초의 특징이랍니다.",
	"morp" : [
		{"id" : 0, "lemma" : "‘", "type" : "SS", "position" : 101, "weight" : 1 },
		{"id" : 1, "lemma" : "약방", "type" : "NNG", "position" : 104, "weight" : 0.0202329 },
		{"id" : 2, "lemma" : "의", "type" : "JKG", "position" : 110, "weight" : 0.0437298 },
		{"id" : 3, "lemma" : "감초", "type" : "NNG", "position" : 114, "weight" : 0.510607 },
		{"id" : 4, "lemma" : "’", "type" : "SS", "position" : 120, "weight" : 0.0192511 },
		{"id" : 5, "lemma" : "란", "type" : "ETM", "position" : 123, "weight" : 0.0437298 },
		{"id" : 6, "lemma" : "말", "type" : "NNG", "position" : 127, "weight" : 1 },
		{"id" : 7, "lemma" : "에서", "type" : "JKB", "position" : 130, "weight" : 0.0202329 },
		{"id" : 8, "lemma" : "알", "type" : "VV", "position" : 137, "weight" : 1 },
		{"id" : 9, "lemma" : "ㄹ", "type" : "ETM", "position" : 137, "weight" : 0.0212147 },
		{"id" : 10, "lemma" : "수", "type" : "NNB", "position" : 141, "weight" : 1 },
		{"id" : 11, "lemma" : "있", "type" : "VA", "position" : 145, "weight" : 1 },
		{"id" : 12, "lemma" : "듯이", "type" : "EC", "position" : 148, "weight" : 0.0202329 },
		{"id" : 13, "lemma" : "비중", "type" : "NNG", "position" : 155, "weight" : 0.510607 },
		{"id" : 14, "lemma" : "은", "type" : "JX", "position" : 161, "weight" : 0.0192511 },
		{"id" : 15, "lemma" : "크", "type" : "VA", "position" : 165, "weight" : 1 },
		{"id" : 16, "lemma" : "지", "type" : "EC", "position" : 168, "weight" : 0.0212147 },
		{"id" : 17, "lemma" : "않", "type" : "VX", "position" : 172, "weight" : 1 },
		{"id" : 18, "lemma" : "으나", "type" : "EC", "position" : 175, "weight" : 0.0202329 },
		{"id" : 19, "lemma" : "절대", "type" : "MAG", "position" : 182, "weight" : 0.510607 },
		{"id" : 20, "lemma" : "빠지", "type" : "VV", "position" : 189, "weight" : 0.510607 },
		{"id" : 21, "lemma" : "어서", "type" : "EC", "position" : 192, "weight" : 0.0314905 },
		{"id" : 22, "lemma" : "는", "type" : "JX", "position" : 198, "weight" : 0.0448535 },
		{"id" : 23, "lemma" : "안", "type" : "MAG", "position" : 202, "weight" : 1 },
		{"id" : 24, "lemma" : "되", "type" : "VV", "position" : 206, "weight" : 1 },
		{"id" : 25, "lemma" : "는", "type" : "ETM", "position" : 209, "weight" : 0.0212147 },
		{"id" : 26, "lemma" : "것", "type" : "NNB", "position" : 213, "weight" : 1 },
		{"id" : 27, "lemma" : "이", "type" : "JKS", "position" : 216, "weight" : 0.0212147 },
		{"id" : 28, "lemma" : "감초", "type" : "NNG", "position" : 220, "weight" : 0.510607 },
		{"id" : 29, "lemma" : "의", "type" : "JKG", "position" : 226, "weight" : 0.0192511 },
		{"id" : 30, "lemma" : "특징", "type" : "NNG", "position" : 230, "weight" : 0.510607 },
		{"id" : 31, "lemma" : "이", "type" : "VCP", "position" : 236, "weight" : 0.0192511 },
		{"id" : 32, "lemma" : "랍니다", "type" : "EF", "position" : 239, "weight" : 0.0349759 },
		{"id" : 33, "lemma" : ".", "type" : "SF", "position" : 248, "weight" : 1 }
	],
	"morp_eval" : [
	],
	"WSD" : [
	],
	"word" : [
		{"id" : 0, "text" : "‘약방의", "type" : "", "begin" : 0, "end" : 2},
		{"id" : 1, "text" : "감초’란", "type" : "", "begin" : 3, "end" : 5},
		{"id" : 2, "text" : "말에서", "type" : "", "begin" : 6, "end" : 7},
		{"id" : 3, "text" : "알", "type" : "", "begin" : 8, "end" : 9},
		{"id" : 4, "text" : "수", "type" : "", "begin" : 10, "end" : 10},
		{"id" : 5, "text" : "있듯이", "type" : "", "begin" : 11, "end" : 12},
		{"id" : 6, "text" : "비중은", "type" : "", "begin" : 13, "end" : 14},
		{"id" : 7, "text" : "크지", "type" : "", "begin" : 15, "end" : 16},
		{"id" : 8, "text" : "않으나", "type" : "", "begin" : 17, "end" : 18},
		{"id" : 9, "text" : "절대", "type" : "", "begin" : 19, "end" : 19},
		{"id" : 10, "text" : "빠져서는", "type" : "", "begin" : 20, "end" : 22},
		{"id" : 11, "text" : "안", "type" : "", "begin" : 23, "end" : 23},
		{"id" : 12, "text" : "되는", "type" : "", "begin" : 24, "end" : 25},
		{"id" : 13, "text" : "것이", "type" : "", "begin" : 26, "end" : 27},
		{"id" : 14, "text" : "감초의", "type" : "", "begin" : 28, "end" : 29},
		{"id" : 15, "text" : "특징이랍니다.", "type" : "", "begin" : 30, "end" : 33}
	],
	"NE" : [
		{"id" : 0, "text" : "감초", "type" : "PT_GRASS", "begin" : 3, "end" : 3, "weight" : 0.202402, "common_noun" : 0},
		{"id" : 1, "text" : "감초", "type" : "PT_GRASS", "begin" : 28, "end" : 28, "weight" : 0.246776, "common_noun" : 0}
	],
	"chunk" : [
	],
	"dependency" : [
		{"id" : 0, "text" : "‘약방의", "head" : 1, "label" : "NP_MOD", "mod" : [], "weight" : 0.87042 },
		{"id" : 1, "text" : "감초’란", "head" : 2, "label" : "NP_MOD", "mod" : [0], "weight" : 0.596794 },
		{"id" : 2, "text" : "말에서", "head" : 3, "label" : "NP_AJT", "mod" : [1], "weight" : 0.856667 },
		{"id" : 3, "text" : "알", "head" : 4, "label" : "VP_MOD", "mod" : [2], "weight" : 0.980107 },
		{"id" : 4, "text" : "수", "head" : 5, "label" : "NP_SBJ", "mod" : [3], "weight" : 0.805658 },
		{"id" : 5, "text" : "있듯이", "head" : 7, "label" : "VP", "mod" : [4], "weight" : 0.714342 },
		{"id" : 6, "text" : "비중은", "head" : 7, "label" : "NP_SBJ", "mod" : [], "weight" : 0.819411 },
		{"id" : 7, "text" : "크지", "head" : 8, "label" : "VP", "mod" : [5, 6], "weight" : 0.837272 },
		{"id" : 8, "text" : "않으나", "head" : 12, "label" : "VP", "mod" : [7], "weight" : 0.717322 },
		{"id" : 9, "text" : "절대", "head" : 10, "label" : "AP", "mod" : [], "weight" : 0.843316 },
		{"id" : 10, "text" : "빠져서는", "head" : 12, "label" : "VP", "mod" : [9], "weight" : 0.7723 },
		{"id" : 11, "text" : "안", "head" : 12, "label" : "AP", "mod" : [], "weight" : 0.894469 },
		{"id" : 12, "text" : "되는", "head" : 13, "label" : "VP_MOD", "mod" : [8, 10, 11], "weight" : 0.996594 },
		{"id" : 13, "text" : "것이", "head" : 15, "label" : "NP_SBJ", "mod" : [12], "weight" : 0.784376 },
		{"id" : 14, "text" : "감초의", "head" : 15, "label" : "NP_MOD", "mod" : [], "weight" : 0.581377 },
		{"id" : 15, "text" : "특징이랍니다.", "head" : -1, "label" : "VNP", "mod" : [13, 14], "weight" : 0.231371 }
	],
	"SRL" : [
		{"verb" : "알", "sense" : 1, "word_id" : 3, "weight" : 0.168166,
			"argument" : [
				{"type" : "ARG2", "word_id" : 2, "text" : "말에서", "weight" : 0.840185 },
				{"type" : "AUX", "word_id" : 5, "text" : "있듯이", "weight" : 0.252314 }
			] },
		{"verb" : "크", "sense" : 1, "word_id" : 7, "weight" : 0.207944,
			"argument" : [
				{"type" : "ARG1", "word_id" : 6, "text" : "비중은", "weight" : 0.157104 },
				{"type" : "ARGM-NEG", "word_id" : 8, "text" : "않으나", "weight" : 0.258783 }
			] },
		{"verb" : "빠지", "sense" : 2, "word_id" : 10, "weight" : 0.83464,
			"argument" : [
				{"type" : "ARGM-ADV", "word_id" : 9, "text" : "절대", "weight" : 0.794775 },
				{"type" : "ARG1", "word_id" : 13, "text" : "것이", "weight" : 1 }
			] },
		{"verb" : "되", "sense" : 1, "word_id" : 12, "weight" : 0.838267,
			"argument" : [
				{"type" : "ARGM-NEG", "word_id" : 11, "text" : "안", "weight" : 0.838267 },
				{"type" : "ARG1", "word_id" : 10, "text" : "빠져서는", "weight" : 0 }
			] }
	],
	"relation" : [
	],
	"SA" : [
	],
	"ZA" : [
	]
	}
 ],
 "entity" : [
 ]
}

