{"doc_id" : "E2015.943.036_A_05",
 "DCT" : "",
 "category" : "",
 "category_weight" : 0,
 "title" : {"text" : "", "NE" : ""},
 "metaInfo" : { },
 "sentence" : [
	{
	"id" : 0,
	"reserve_str" : "",
	"text" : "산스크리트어 kṣaṇa의 음사.",
	"morp" : [
		{"id" : 0, "lemma" : "산스크리트", "type" : "NNG", "position" : 0, "weight" : 1 },
		{"id" : 1, "lemma" : "어", "type" : "XSN", "position" : 15, "weight" : 1 },
		{"id" : 2, "lemma" : "kṣaṇa", "type" : "SL", "position" : 19, "weight" : 1 },
		{"id" : 3, "lemma" : "의", "type" : "JKG", "position" : 28, "weight" : 1 },
		{"id" : 4, "lemma" : "음사", "type" : "NNG", "position" : 32, "weight" : 1 },
		{"id" : 5, "lemma" : ".", "type" : "SF", "position" : 38, "weight" : 1 }
	],
	"morp_eval" : [
	],
	"WSD" : [
	],
	"word" : [
		{"id" : 0, "text" : "산스크리트어", "type" : "", "begin" : 0, "end" : 1},
		{"id" : 1, "text" : "kṣaṇa의", "type" : "", "begin" : 2, "end" : 3},
		{"id" : 2, "text" : "음사.", "type" : "", "begin" : 4, "end" : 5}
	],
	"NE" : [
		{"id" : 0, "text" : "산스크리트어", "type" : "CV_LANGUAGE", "begin" : 0, "end" : 1, "weight" : 0.328973, "common_noun" : 0}
	],
	"chunk" : [
	],
	"dependency" : [
		{"id" : 0, "text" : "산스크리트어", "head" : 1, "label" : "NP", "mod" : [], "weight" : 0.62379 },
		{"id" : 1, "text" : "kṣaṇa의", "head" : 2, "label" : "NP_MOD", "mod" : [0], "weight" : 0.451333 },
		{"id" : 2, "text" : "음사.", "head" : -1, "label" : "NP", "mod" : [1], "weight" : 0.15292 }
	],
	"SRL" : [
	],
	"relation" : [
	],
	"SA" : [
	],
	"ZA" : [
	]
	},
	{
	"id" : 1,
	"reserve_str" : "",
	"text" : "염경(念頃)이라 번역.",
	"morp" : [
		{"id" : 0, "lemma" : "염경", "type" : "NNG", "position" : 40, "weight" : 0.0223428 },
		{"id" : 1, "lemma" : "(", "type" : "SS", "position" : 46, "weight" : 1 },
		{"id" : 2, "lemma" : "念頃", "type" : "SH", "position" : 47, "weight" : 1 },
		{"id" : 3, "lemma" : ")", "type" : "SS", "position" : 53, "weight" : 1 },
		{"id" : 4, "lemma" : "이", "type" : "VCP", "position" : 54, "weight" : 0.0544664 },
		{"id" : 5, "lemma" : "라", "type" : "EC", "position" : 57, "weight" : 0.034777 },
		{"id" : 6, "lemma" : "번역", "type" : "NNG", "position" : 61, "weight" : 0.0223428 },
		{"id" : 7, "lemma" : ".", "type" : "SF", "position" : 67, "weight" : 1 }
	],
	"morp_eval" : [
	],
	"WSD" : [
	],
	"word" : [
		{"id" : 0, "text" : "염경(念頃)이라", "type" : "", "begin" : 0, "end" : 5},
		{"id" : 1, "text" : "번역.", "type" : "", "begin" : 6, "end" : 7}
	],
	"NE" : [
	],
	"chunk" : [
	],
	"dependency" : [
		{"id" : 0, "text" : "염경(念頃)이라", "head" : 1, "label" : "VNP_CMP", "mod" : [], "weight" : 0.467327 },
		{"id" : 1, "text" : "번역.", "head" : -1, "label" : "NP", "mod" : [0], "weight" : 0.223433 }
	],
	"SRL" : [
	],
	"relation" : [
	],
	"SA" : [
	],
	"ZA" : [
	]
	},
	{
	"id" : 2,
	"reserve_str" : "",
	"text" : "시간의 최소 단위.",
	"morp" : [
		{"id" : 0, "lemma" : "시간", "type" : "NNG", "position" : 69, "weight" : 0.0435559 },
		{"id" : 1, "lemma" : "의", "type" : "JKG", "position" : 75, "weight" : 0.0472331 },
		{"id" : 2, "lemma" : "최소", "type" : "NNG", "position" : 79, "weight" : 0.0435559 },
		{"id" : 3, "lemma" : "단위", "type" : "NNG", "position" : 86, "weight" : 0.0435559 },
		{"id" : 4, "lemma" : ".", "type" : "SF", "position" : 92, "weight" : 0.0472331 }
	],
	"morp_eval" : [
	],
	"WSD" : [
	],
	"word" : [
		{"id" : 0, "text" : "시간의", "type" : "", "begin" : 0, "end" : 1},
		{"id" : 1, "text" : "최소", "type" : "", "begin" : 2, "end" : 2},
		{"id" : 2, "text" : "단위.", "type" : "", "begin" : 3, "end" : 4}
	],
	"NE" : [
	],
	"chunk" : [
	],
	"dependency" : [
		{"id" : 0, "text" : "시간의", "head" : 2, "label" : "NP_MOD", "mod" : [], "weight" : 0.533323 },
		{"id" : 1, "text" : "최소", "head" : 2, "label" : "NP", "mod" : [], "weight" : 0.401844 },
		{"id" : 2, "text" : "단위.", "head" : -1, "label" : "NP", "mod" : [0, 1], "weight" : 0.110678 }
	],
	"SRL" : [
	],
	"relation" : [
	],
	"SA" : [
	],
	"ZA" : [
	]
	},
	{
	"id" : 3,
	"reserve_str" : "",
	"text" : "1주야(晝夜)는 30모호율다(牟呼栗多), 1모호율다는 30납박(臘縛), 1납박은 60달찰나(怛刹那), 1달찰나는 120찰나이므로 1찰나는 0.013초가 됨.",
	"morp" : [
		{"id" : 0, "lemma" : "1", "type" : "SN", "position" : 94, "weight" : 1 },
		{"id" : 1, "lemma" : "주야", "type" : "NNG", "position" : 95, "weight" : 0.0200597 },
		{"id" : 2, "lemma" : "(", "type" : "SS", "position" : 101, "weight" : 1 },
		{"id" : 3, "lemma" : "晝夜", "type" : "SH", "position" : 102, "weight" : 1 },
		{"id" : 4, "lemma" : ")", "type" : "SS", "position" : 108, "weight" : 1 },
		{"id" : 5, "lemma" : "는", "type" : "JX", "position" : 109, "weight" : 0.0443504 },
		{"id" : 6, "lemma" : "30", "type" : "SN", "position" : 113, "weight" : 0.513994 },
		{"id" : 7, "lemma" : "모호율다", "type" : "NNB", "position" : 115, "weight" : 0.506066 },
		{"id" : 8, "lemma" : "(", "type" : "SS", "position" : 127, "weight" : 1 },
		{"id" : 9, "lemma" : "牟呼栗多", "type" : "SH", "position" : 128, "weight" : 0.513484 },
		{"id" : 10, "lemma" : ")", "type" : "SS", "position" : 140, "weight" : 0.008617 },
		{"id" : 11, "lemma" : ",", "type" : "SP", "position" : 141, "weight" : 0.0107065 },
		{"id" : 12, "lemma" : "1", "type" : "SN", "position" : 143, "weight" : 1 },
		{"id" : 13, "lemma" : "모호율다", "type" : "NNB", "position" : 144, "weight" : 0.0200597 },
		{"id" : 14, "lemma" : "는", "type" : "JX", "position" : 153, "weight" : 1 },
		{"id" : 15, "lemma" : "30", "type" : "SN", "position" : 160, "weight" : 0.513994 },
		{"id" : 16, "lemma" : "납박", "type" : "NNB", "position" : 162, "weight" : 0.506066 },
		{"id" : 17, "lemma" : "(", "type" : "SS", "position" : 168, "weight" : 1 },
		{"id" : 18, "lemma" : "臘縛", "type" : "SH", "position" : 169, "weight" : 1 },
		{"id" : 19, "lemma" : ")", "type" : "SS", "position" : 175, "weight" : 0.0443504 },
		{"id" : 20, "lemma" : ",", "type" : "SP", "position" : 176, "weight" : 1 },
		{"id" : 21, "lemma" : "1", "type" : "SN", "position" : 178, "weight" : 1 },
		{"id" : 22, "lemma" : "납박", "type" : "NNB", "position" : 179, "weight" : 0.0200597 },
		{"id" : 23, "lemma" : "은", "type" : "JX", "position" : 185, "weight" : 1 },
		{"id" : 24, "lemma" : "60", "type" : "SN", "position" : 189, "weight" : 0.513994 },
		{"id" : 25, "lemma" : "달찰나", "type" : "NNB", "position" : 191, "weight" : 0.0121316 },
		{"id" : 26, "lemma" : "(", "type" : "SS", "position" : 200, "weight" : 1 },
		{"id" : 27, "lemma" : "怛刹那", "type" : "SH", "position" : 201, "weight" : 0.68145 },
		{"id" : 28, "lemma" : ")", "type" : "SS", "position" : 210, "weight" : 1 },
		{"id" : 29, "lemma" : ",", "type" : "SP", "position" : 211, "weight" : 0.00958642 },
		{"id" : 30, "lemma" : "1", "type" : "SN", "position" : 213, "weight" : 1 },
		{"id" : 31, "lemma" : "달찰나", "type" : "NNB", "position" : 214, "weight" : 0.0200597 },
		{"id" : 32, "lemma" : "는", "type" : "JX", "position" : 223, "weight" : 1 },
		{"id" : 33, "lemma" : "120", "type" : "SN", "position" : 227, "weight" : 0.346706 },
		{"id" : 34, "lemma" : "찰나", "type" : "NR", "position" : 230, "weight" : 1 },
		{"id" : 35, "lemma" : "이", "type" : "VCP", "position" : 236, "weight" : 1 },
		{"id" : 36, "lemma" : "므로", "type" : "EC", "position" : 239, "weight" : 0.522175 },
		{"id" : 37, "lemma" : "1", "type" : "SN", "position" : 246, "weight" : 1 },
		{"id" : 38, "lemma" : "찰나", "type" : "NR", "position" : 247, "weight" : 0.0200597 },
		{"id" : 39, "lemma" : "는", "type" : "JX", "position" : 253, "weight" : 1 },
		{"id" : 40, "lemma" : "0.013", "type" : "SN", "position" : 257, "weight" : 1 },
		{"id" : 41, "lemma" : "초", "type" : "NNB", "position" : 262, "weight" : 1 },
		{"id" : 42, "lemma" : "가", "type" : "JKC", "position" : 265, "weight" : 1 },
		{"id" : 43, "lemma" : "되", "type" : "VV", "position" : 269, "weight" : 1 },
		{"id" : 44, "lemma" : "ㅁ", "type" : "ETN", "position" : 269, "weight" : 0.0279878 },
		{"id" : 45, "lemma" : ".", "type" : "SF", "position" : 272, "weight" : 0.0121316 }
	],
	"morp_eval" : [
	],
	"WSD" : [
	],
	"word" : [
		{"id" : 0, "text" : "1주야(晝夜)는", "type" : "", "begin" : 0, "end" : 5},
		{"id" : 1, "text" : "30모호율다(牟呼栗多),", "type" : "", "begin" : 6, "end" : 11},
		{"id" : 2, "text" : "1모호율다는", "type" : "", "begin" : 12, "end" : 14},
		{"id" : 3, "text" : "30납박(臘縛),", "type" : "", "begin" : 15, "end" : 20},
		{"id" : 4, "text" : "1납박은", "type" : "", "begin" : 21, "end" : 23},
		{"id" : 5, "text" : "60달찰나(怛刹那),", "type" : "", "begin" : 24, "end" : 29},
		{"id" : 6, "text" : "1달찰나는", "type" : "", "begin" : 30, "end" : 32},
		{"id" : 7, "text" : "120찰나이므로", "type" : "", "begin" : 33, "end" : 36},
		{"id" : 8, "text" : "1찰나는", "type" : "", "begin" : 37, "end" : 39},
		{"id" : 9, "text" : "0.013초가", "type" : "", "begin" : 40, "end" : 42},
		{"id" : 10, "text" : "됨.", "type" : "", "begin" : 43, "end" : 45}
	],
	"NE" : [
		{"id" : 0, "text" : "1주야", "type" : "TI_OTHERS", "begin" : 0, "end" : 1, "weight" : 0.181109, "common_noun" : 0},
		{"id" : 1, "text" : "30모호율다", "type" : "TI_OTHERS", "begin" : 6, "end" : 7, "weight" : 0.259756, "common_noun" : 0},
		{"id" : 2, "text" : "1모호율다", "type" : "TI_OTHERS", "begin" : 12, "end" : 13, "weight" : 0.233886, "common_noun" : 0},
		{"id" : 3, "text" : "30납박", "type" : "TI_OTHERS", "begin" : 15, "end" : 16, "weight" : 0.274802, "common_noun" : 0},
		{"id" : 4, "text" : "1납박", "type" : "TI_OTHERS", "begin" : 21, "end" : 22, "weight" : 0.241321, "common_noun" : 0},
		{"id" : 5, "text" : "60달찰나", "type" : "TI_OTHERS", "begin" : 24, "end" : 25, "weight" : 0.215683, "common_noun" : 0},
		{"id" : 6, "text" : "1달찰나", "type" : "TI_OTHERS", "begin" : 30, "end" : 31, "weight" : 0.152635, "common_noun" : 0},
		{"id" : 7, "text" : "120찰나", "type" : "TI_OTHERS", "begin" : 33, "end" : 34, "weight" : 0.284573, "common_noun" : 0},
		{"id" : 8, "text" : "1찰나", "type" : "TI_OTHERS", "begin" : 37, "end" : 38, "weight" : 0.261609, "common_noun" : 0},
		{"id" : 9, "text" : "0.013초", "type" : "TI_SECOND", "begin" : 40, "end" : 41, "weight" : 0.285878, "common_noun" : 0}
	],
	"chunk" : [
	],
	"dependency" : [
		{"id" : 0, "text" : "1주야(晝夜)는", "head" : 1, "label" : "NP_SBJ", "mod" : [], "weight" : 0.720808 },
		{"id" : 1, "text" : "30모호율다(牟呼栗多),", "head" : 7, "label" : "NP_CNJ", "mod" : [0], "weight" : 0.290777 },
		{"id" : 2, "text" : "1모호율다는", "head" : 3, "label" : "NP_SBJ", "mod" : [], "weight" : 0.249244 },
		{"id" : 3, "text" : "30납박(臘縛),", "head" : 7, "label" : "NP_CNJ", "mod" : [2], "weight" : 0.969935 },
		{"id" : 4, "text" : "1납박은", "head" : 5, "label" : "NP_SBJ", "mod" : [], "weight" : 0.56245 },
		{"id" : 5, "text" : "60달찰나(怛刹那),", "head" : 7, "label" : "NP_CNJ", "mod" : [4], "weight" : 0.693818 },
		{"id" : 6, "text" : "1달찰나는", "head" : 7, "label" : "NP_SBJ", "mod" : [], "weight" : 0.551745 },
		{"id" : 7, "text" : "120찰나이므로", "head" : 10, "label" : "VNP", "mod" : [1, 3, 5, 6], "weight" : 0.593563 },
		{"id" : 8, "text" : "1찰나는", "head" : 10, "label" : "NP_SBJ", "mod" : [], "weight" : 0.484296 },
		{"id" : 9, "text" : "0.013초가", "head" : 10, "label" : "NP_CMP", "mod" : [], "weight" : 0.460233 },
		{"id" : 10, "text" : "됨.", "head" : -1, "label" : "VP", "mod" : [7, 8, 9], "weight" : 0.843278 }
	],
	"SRL" : [
		{"verb" : "되", "sense" : 1, "word_id" : 10, "weight" : 0.110433,
			"argument" : [
				{"type" : "ARG1", "word_id" : 8, "text" : "1찰나는", "weight" : 0.127628 },
				{"type" : "ARG2", "word_id" : 9, "text" : "0.013초가", "weight" : 0.932375 },
				{"type" : "ARGM-CAU", "word_id" : 7, "text" : "120찰나이므로", "weight" : 0 }
			] }
	],
	"relation" : [
	],
	"SA" : [
	],
	"ZA" : [
	]
	}
 ],
 "entity" : [
 ]
}

