{"doc_id" : "E2015.947.006_A_03",
 "DCT" : "",
 "category" : "",
 "category_weight" : 0,
 "title" : {"text" : "", "NE" : ""},
 "metaInfo" : { },
 "sentence" : [
	{
	"id" : 0,
	"reserve_str" : "",
	"text" : "1918년 체코슬로바키아로 독립한 이래 수도가 되어왔다.",
	"morp" : [
		{"id" : 0, "lemma" : "1918", "type" : "SN", "position" : 0, "weight" : 1 },
		{"id" : 1, "lemma" : "년", "type" : "NNB", "position" : 4, "weight" : 0.0395521 },
		{"id" : 2, "lemma" : "체코슬로바키아", "type" : "NNP", "position" : 8, "weight" : 0.862793 },
		{"id" : 3, "lemma" : "로", "type" : "JKB", "position" : 29, "weight" : 1 },
		{"id" : 4, "lemma" : "독립", "type" : "NNG", "position" : 33, "weight" : 1 },
		{"id" : 5, "lemma" : "하", "type" : "XSV", "position" : 39, "weight" : 1 },
		{"id" : 6, "lemma" : "ㄴ", "type" : "ETM", "position" : 39, "weight" : 1 },
		{"id" : 7, "lemma" : "이래", "type" : "NNB", "position" : 43, "weight" : 1 },
		{"id" : 8, "lemma" : "수도", "type" : "NNG", "position" : 50, "weight" : 1 },
		{"id" : 9, "lemma" : "가", "type" : "JKC", "position" : 56, "weight" : 1 },
		{"id" : 10, "lemma" : "되", "type" : "VV", "position" : 60, "weight" : 1 },
		{"id" : 11, "lemma" : "어", "type" : "EC", "position" : 63, "weight" : 1 },
		{"id" : 12, "lemma" : "오", "type" : "VX", "position" : 66, "weight" : 1 },
		{"id" : 13, "lemma" : "았", "type" : "EP", "position" : 66, "weight" : 1 },
		{"id" : 14, "lemma" : "다", "type" : "EF", "position" : 69, "weight" : 0.0395521 },
		{"id" : 15, "lemma" : ".", "type" : "SF", "position" : 72, "weight" : 1 }
	],
	"morp_eval" : [
	],
	"WSD" : [
	],
	"word" : [
		{"id" : 0, "text" : "1918년", "type" : "", "begin" : 0, "end" : 1},
		{"id" : 1, "text" : "체코슬로바키아로", "type" : "", "begin" : 2, "end" : 3},
		{"id" : 2, "text" : "독립한", "type" : "", "begin" : 4, "end" : 6},
		{"id" : 3, "text" : "이래", "type" : "", "begin" : 7, "end" : 7},
		{"id" : 4, "text" : "수도가", "type" : "", "begin" : 8, "end" : 9},
		{"id" : 5, "text" : "되어왔다.", "type" : "", "begin" : 10, "end" : 15}
	],
	"NE" : [
		{"id" : 0, "text" : "1918년", "type" : "DT_YEAR", "begin" : 0, "end" : 1, "weight" : 0.478105, "common_noun" : 0},
		{"id" : 1, "text" : "체코슬로바키아", "type" : "LCP_COUNTRY", "begin" : 2, "end" : 2, "weight" : 0.542098, "common_noun" : 0}
	],
	"chunk" : [
	],
	"dependency" : [
		{"id" : 0, "text" : "1918년", "head" : 2, "label" : "NP_AJT", "mod" : [], "weight" : 0.795023 },
		{"id" : 1, "text" : "체코슬로바키아로", "head" : 2, "label" : "NP_AJT", "mod" : [], "weight" : 0.70719 },
		{"id" : 2, "text" : "독립한", "head" : 3, "label" : "VP_MOD", "mod" : [0, 1], "weight" : 0.905438 },
		{"id" : 3, "text" : "이래", "head" : 5, "label" : "NP_AJT", "mod" : [2], "weight" : 0.472356 },
		{"id" : 4, "text" : "수도가", "head" : 5, "label" : "NP_CMP", "mod" : [], "weight" : 0.454073 },
		{"id" : 5, "text" : "되어왔다.", "head" : -1, "label" : "VP", "mod" : [3, 4], "weight" : 0.84258 }
	],
	"SRL" : [
		{"verb" : "독립", "sense" : 1, "word_id" : 2, "weight" : 0.161359,
			"argument" : [
				{"type" : "ARGM-TMP", "word_id" : 0, "text" : "1918년", "weight" : 0.230625 },
				{"type" : "ARG0", "word_id" : 1, "text" : "체코슬로바키아로", "weight" : 0.920931 }
			] },
		{"verb" : "되", "sense" : 1, "word_id" : 5, "weight" : 0.126835,
			"argument" : [
				{"type" : "ARGM-TMP", "word_id" : 3, "text" : "이래", "weight" : 0.862926 },
				{"type" : "ARG2", "word_id" : 4, "text" : "수도가", "weight" : 0.167378 }
			] }
	],
	"relation" : [
	],
	"SA" : [
	],
	"ZA" : [
	]
	}
 ],
 "entity" : [
 ]
}

