{"doc_id" : "E2014.258_A_01",
 "DCT" : "",
 "category" : "",
 "category_weight" : 0,
 "title" : {"text" : "", "NE" : ""},
 "metaInfo" : { },
 "sentence" : [
	{
	"id" : 0,
	"reserve_str" : "",
	"text" : " 군사분계선을 기준으로 남북 2km 범위에는 비무장지대(DMZ)가 설정되어 있다.  ",
	"morp" : [
		{"id" : 0, "lemma" : "군사", "type" : "NNG", "position" : 1, "weight" : 1 },
		{"id" : 1, "lemma" : "분계선", "type" : "NNG", "position" : 7, "weight" : 1 },
		{"id" : 2, "lemma" : "을", "type" : "JKO", "position" : 16, "weight" : 0.0524754 },
		{"id" : 3, "lemma" : "기준", "type" : "NNG", "position" : 20, "weight" : 1 },
		{"id" : 4, "lemma" : "으로", "type" : "JKB", "position" : 26, "weight" : 1 },
		{"id" : 5, "lemma" : "남북", "type" : "NNG", "position" : 33, "weight" : 1 },
		{"id" : 6, "lemma" : "2", "type" : "SN", "position" : 40, "weight" : 1 },
		{"id" : 7, "lemma" : "km", "type" : "SL", "position" : 42, "weight" : 1 },
		{"id" : 8, "lemma" : "범위", "type" : "NNG", "position" : 45, "weight" : 1 },
		{"id" : 9, "lemma" : "에", "type" : "JKB", "position" : 51, "weight" : 1 },
		{"id" : 10, "lemma" : "는", "type" : "JX", "position" : 54, "weight" : 1 },
		{"id" : 11, "lemma" : "비", "type" : "XPN", "position" : 58, "weight" : 1 },
		{"id" : 12, "lemma" : "무장", "type" : "NNG", "position" : 61, "weight" : 1 },
		{"id" : 13, "lemma" : "지대", "type" : "NNG", "position" : 67, "weight" : 1 },
		{"id" : 14, "lemma" : "(", "type" : "SS", "position" : 73, "weight" : 0.0524754 },
		{"id" : 15, "lemma" : "DMZ", "type" : "SL", "position" : 74, "weight" : 0.0340168 },
		{"id" : 16, "lemma" : ")", "type" : "SS", "position" : 77, "weight" : 0.0329894 },
		{"id" : 17, "lemma" : "가", "type" : "JKS", "position" : 78, "weight" : 0.0551488 },
		{"id" : 18, "lemma" : "설정", "type" : "NNG", "position" : 82, "weight" : 1 },
		{"id" : 19, "lemma" : "되", "type" : "XSV", "position" : 88, "weight" : 1 },
		{"id" : 20, "lemma" : "어", "type" : "EC", "position" : 91, "weight" : 1 },
		{"id" : 21, "lemma" : "있", "type" : "VX", "position" : 95, "weight" : 1 },
		{"id" : 22, "lemma" : "다", "type" : "EF", "position" : 98, "weight" : 1 },
		{"id" : 23, "lemma" : ".", "type" : "SF", "position" : 101, "weight" : 1 }
	],
	"morp_eval" : [
	],
	"WSD" : [
	],
	"word" : [
		{"id" : 0, "text" : "군사분계선을", "type" : "", "begin" : 0, "end" : 2},
		{"id" : 1, "text" : "기준으로", "type" : "", "begin" : 3, "end" : 4},
		{"id" : 2, "text" : "남북", "type" : "", "begin" : 5, "end" : 5},
		{"id" : 3, "text" : "2km", "type" : "", "begin" : 6, "end" : 7},
		{"id" : 4, "text" : "범위에는", "type" : "", "begin" : 8, "end" : 10},
		{"id" : 5, "text" : "비무장지대(DMZ)가", "type" : "", "begin" : 11, "end" : 17},
		{"id" : 6, "text" : "설정되어", "type" : "", "begin" : 18, "end" : 20},
		{"id" : 7, "text" : "있다.", "type" : "", "begin" : 21, "end" : 23}
	],
	"NE" : [
		{"id" : 0, "text" : "남북", "type" : "TM_DIRECTION", "begin" : 5, "end" : 5, "weight" : 0.278214, "common_noun" : 0},
		{"id" : 1, "text" : "2km", "type" : "QT_LENGTH", "begin" : 6, "end" : 7, "weight" : 0.48187, "common_noun" : 0},
		{"id" : 2, "text" : "비무장지대", "type" : "LC_OTHERS", "begin" : 11, "end" : 13, "weight" : 0.299942, "common_noun" : 0},
		{"id" : 3, "text" : "DMZ", "type" : "LC_OTHERS", "begin" : 15, "end" : 15, "weight" : 0.210371, "common_noun" : 0}
	],
	"chunk" : [
	],
	"dependency" : [
		{"id" : 0, "text" : "군사분계선을", "head" : 1, "label" : "NP_OBJ", "mod" : [], "weight" : 0.736373 },
		{"id" : 1, "text" : "기준으로", "head" : 6, "label" : "NP_AJT", "mod" : [0], "weight" : 0.854148 },
		{"id" : 2, "text" : "남북", "head" : 3, "label" : "NP", "mod" : [], "weight" : 0.519371 },
		{"id" : 3, "text" : "2km", "head" : 4, "label" : "NP", "mod" : [2], "weight" : 0.930937 },
		{"id" : 4, "text" : "범위에는", "head" : 6, "label" : "NP_AJT", "mod" : [3], "weight" : 0.707858 },
		{"id" : 5, "text" : "비무장지대(DMZ)가", "head" : 6, "label" : "NP_SBJ", "mod" : [], "weight" : 0.534719 },
		{"id" : 6, "text" : "설정되어", "head" : 7, "label" : "VP", "mod" : [1, 4, 5], "weight" : 0.612401 },
		{"id" : 7, "text" : "있다.", "head" : -1, "label" : "VP", "mod" : [6], "weight" : 0.604673 }
	],
	"SRL" : [
		{"verb" : "설정", "sense" : 1, "word_id" : 6, "weight" : 0.131707,
			"argument" : [
				{"type" : "ARGM-PRD", "word_id" : 1, "text" : "기준으로", "weight" : 0.580427 },
				{"type" : "ARG2", "word_id" : 4, "text" : "범위에는", "weight" : 0.116108 },
				{"type" : "ARG1", "word_id" : 5, "text" : "비무장지대(DMZ)가", "weight" : 0.119371 },
				{"type" : "AUX", "word_id" : 7, "text" : "있다.", "weight" : 0.233307 },
				{"type" : "ARGM-EXT", "word_id" : 3, "text" : "2km", "weight" : 0 }
			] }
	],
	"relation" : [
	],
	"SA" : [
	],
	"ZA" : [
	]
	}
 ],
 "entity" : [
 ]
}

