{"doc_id" : "E2015.947.018_A_04",
 "DCT" : "",
 "category" : "",
 "category_weight" : 0,
 "title" : {"text" : "", "NE" : ""},
 "metaInfo" : { },
 "sentence" : [
	{
	"id" : 0,
	"reserve_str" : "",
	"text" : "병을 야기하는 원인이 되는 미생물 등의 발병력을 인공적으로 약화시키는 물질.",
	"morp" : [
		{"id" : 0, "lemma" : "병", "type" : "NNG", "position" : 0, "weight" : 0.0326516 },
		{"id" : 1, "lemma" : "을", "type" : "JKO", "position" : 3, "weight" : 0.0477817 },
		{"id" : 2, "lemma" : "야기하", "type" : "VV", "position" : 7, "weight" : 0.360144 },
		{"id" : 3, "lemma" : "는", "type" : "ETM", "position" : 16, "weight" : 1 },
		{"id" : 4, "lemma" : "원인", "type" : "NNG", "position" : 20, "weight" : 0.0402166 },
		{"id" : 5, "lemma" : "이", "type" : "JKC", "position" : 26, "weight" : 1 },
		{"id" : 6, "lemma" : "되", "type" : "VV", "position" : 30, "weight" : 0.0326516 },
		{"id" : 7, "lemma" : "는", "type" : "ETM", "position" : 33, "weight" : 0.0477817 },
		{"id" : 8, "lemma" : "미", "type" : "XPN", "position" : 37, "weight" : 0.0326516 },
		{"id" : 9, "lemma" : "생물", "type" : "NNG", "position" : 40, "weight" : 0.523891 },
		{"id" : 10, "lemma" : "등", "type" : "NNB", "position" : 47, "weight" : 0.0326516 },
		{"id" : 11, "lemma" : "의", "type" : "JKG", "position" : 50, "weight" : 0.0477817 },
		{"id" : 12, "lemma" : "발병", "type" : "NNG", "position" : 54, "weight" : 0.360144 },
		{"id" : 13, "lemma" : "력", "type" : "XSN", "position" : 54, "weight" : 0.360144 },
		{"id" : 14, "lemma" : "을", "type" : "JKO", "position" : 63, "weight" : 1 },
		{"id" : 15, "lemma" : "인공", "type" : "NNG", "position" : 67, "weight" : 0.0402166 },
		{"id" : 16, "lemma" : "적", "type" : "XSN", "position" : 73, "weight" : 1 },
		{"id" : 17, "lemma" : "으로", "type" : "JKB", "position" : 76, "weight" : 1 },
		{"id" : 18, "lemma" : "약화", "type" : "NNG", "position" : 83, "weight" : 0.0402166 },
		{"id" : 19, "lemma" : "시키", "type" : "XSV", "position" : 89, "weight" : 1 },
		{"id" : 20, "lemma" : "는", "type" : "ETM", "position" : 95, "weight" : 1 },
		{"id" : 21, "lemma" : "물질", "type" : "NNG", "position" : 99, "weight" : 0.0402166 },
		{"id" : 22, "lemma" : ".", "type" : "SF", "position" : 105, "weight" : 1 }
	],
	"morp_eval" : [
	],
	"WSD" : [
	],
	"word" : [
		{"id" : 0, "text" : "병을", "type" : "", "begin" : 0, "end" : 1},
		{"id" : 1, "text" : "야기하는", "type" : "", "begin" : 2, "end" : 3},
		{"id" : 2, "text" : "원인이", "type" : "", "begin" : 4, "end" : 5},
		{"id" : 3, "text" : "되는", "type" : "", "begin" : 6, "end" : 7},
		{"id" : 4, "text" : "미생물", "type" : "", "begin" : 8, "end" : 9},
		{"id" : 5, "text" : "등의", "type" : "", "begin" : 10, "end" : 11},
		{"id" : 6, "text" : "발병력을", "type" : "", "begin" : 12, "end" : 14},
		{"id" : 7, "text" : "인공적으로", "type" : "", "begin" : 15, "end" : 17},
		{"id" : 8, "text" : "약화시키는", "type" : "", "begin" : 18, "end" : 20},
		{"id" : 9, "text" : "물질.", "type" : "", "begin" : 21, "end" : 22}
	],
	"NE" : [
	],
	"chunk" : [
	],
	"dependency" : [
		{"id" : 0, "text" : "병을", "head" : 1, "label" : "NP_OBJ", "mod" : [], "weight" : 0.783867 },
		{"id" : 1, "text" : "야기하는", "head" : 2, "label" : "VP_MOD", "mod" : [0], "weight" : 0.639139 },
		{"id" : 2, "text" : "원인이", "head" : 3, "label" : "NP_CMP", "mod" : [1], "weight" : 0.690813 },
		{"id" : 3, "text" : "되는", "head" : 4, "label" : "VP_MOD", "mod" : [2], "weight" : 0.666426 },
		{"id" : 4, "text" : "미생물", "head" : 5, "label" : "NP", "mod" : [3], "weight" : 0.892454 },
		{"id" : 5, "text" : "등의", "head" : 6, "label" : "NP_MOD", "mod" : [4], "weight" : 0.831761 },
		{"id" : 6, "text" : "발병력을", "head" : 8, "label" : "NP_OBJ", "mod" : [5], "weight" : 0.841487 },
		{"id" : 7, "text" : "인공적으로", "head" : 8, "label" : "NP_AJT", "mod" : [], "weight" : 0.837767 },
		{"id" : 8, "text" : "약화시키는", "head" : 9, "label" : "VP_MOD", "mod" : [6, 7], "weight" : 0.616774 },
		{"id" : 9, "text" : "물질.", "head" : -1, "label" : "NP", "mod" : [8], "weight" : 0.450266 }
	],
	"SRL" : [
		{"verb" : "야기하", "sense" : 1, "word_id" : 1, "weight" : 0.184223,
			"argument" : [
				{"type" : "ARG1", "word_id" : 0, "text" : "병을", "weight" : 0.184223 },
				{"type" : "ARG0", "word_id" : 4, "text" : "미생물", "weight" : 0 }
			] },
		{"verb" : "되", "sense" : 1, "word_id" : 3, "weight" : 0.172916,
			"argument" : [
				{"type" : "ARG2", "word_id" : 2, "text" : "원인이", "weight" : 0.182548 },
				{"type" : "ARG1", "word_id" : 4, "text" : "미생물", "weight" : 0 }
			] },
		{"verb" : "약화", "sense" : 1, "word_id" : 8, "weight" : 0.194474,
			"argument" : [
				{"type" : "ARG1", "word_id" : 6, "text" : "발병력을", "weight" : 0.228075 },
				{"type" : "ARGM-MNR", "word_id" : 7, "text" : "인공적으로", "weight" : 0.160874 },
				{"type" : "ARG0", "word_id" : 9, "text" : "물질.", "weight" : 0 }
			] }
	],
	"relation" : [
	],
	"SA" : [
	],
	"ZA" : [
	]
	},
	{
	"id" : 1,
	"reserve_str" : "",
	"text" : "이것을 사람이나 동물에 접종함으로써 병에 대한 저항을 제공할 목적으로 사용하였다.",
	"morp" : [
		{"id" : 0, "lemma" : "이것", "type" : "NP", "position" : 107, "weight" : 0.0344849 },
		{"id" : 1, "lemma" : "을", "type" : "JKO", "position" : 113, "weight" : 0.0419103 },
		{"id" : 2, "lemma" : "사람", "type" : "NNG", "position" : 117, "weight" : 0.0344849 },
		{"id" : 3, "lemma" : "이나", "type" : "JC", "position" : 123, "weight" : 0.0384771 },
		{"id" : 4, "lemma" : "동물", "type" : "NNG", "position" : 130, "weight" : 0.0344849 },
		{"id" : 5, "lemma" : "에", "type" : "JKB", "position" : 136, "weight" : 0.0419103 },
		{"id" : 6, "lemma" : "접종", "type" : "NNG", "position" : 140, "weight" : 0.0344849 },
		{"id" : 7, "lemma" : "하", "type" : "XSV", "position" : 146, "weight" : 0.0419103 },
		{"id" : 8, "lemma" : "ㅁ", "type" : "ETN", "position" : 146, "weight" : 0.0350439 },
		{"id" : 9, "lemma" : "으로써", "type" : "JKB", "position" : 149, "weight" : 0.0309466 },
		{"id" : 10, "lemma" : "병", "type" : "NNG", "position" : 159, "weight" : 0.0436971 },
		{"id" : 11, "lemma" : "에", "type" : "JKB", "position" : 162, "weight" : 0.0252726 },
		{"id" : 12, "lemma" : "대하", "type" : "VV", "position" : 166, "weight" : 0.0344849 },
		{"id" : 13, "lemma" : "ㄴ", "type" : "ETM", "position" : 169, "weight" : 0.0419103 },
		{"id" : 14, "lemma" : "저항", "type" : "NNG", "position" : 173, "weight" : 0.0344849 },
		{"id" : 15, "lemma" : "을", "type" : "JKO", "position" : 179, "weight" : 0.0419103 },
		{"id" : 16, "lemma" : "제공", "type" : "NNG", "position" : 183, "weight" : 0.0344849 },
		{"id" : 17, "lemma" : "하", "type" : "XSV", "position" : 189, "weight" : 0.0419103 },
		{"id" : 18, "lemma" : "ㄹ", "type" : "ETM", "position" : 189, "weight" : 0.0350439 },
		{"id" : 19, "lemma" : "목적", "type" : "NNG", "position" : 193, "weight" : 0.0344849 },
		{"id" : 20, "lemma" : "으로", "type" : "JKB", "position" : 199, "weight" : 0.0384771 },
		{"id" : 21, "lemma" : "사용", "type" : "NNG", "position" : 206, "weight" : 0.0344849 },
		{"id" : 22, "lemma" : "하", "type" : "XSV", "position" : 212, "weight" : 0.0419103 },
		{"id" : 23, "lemma" : "였", "type" : "EP", "position" : 215, "weight" : 0.0350439 },
		{"id" : 24, "lemma" : "다", "type" : "EF", "position" : 218, "weight" : 0.0392456 },
		{"id" : 25, "lemma" : ".", "type" : "SF", "position" : 221, "weight" : 0.0301906 }
	],
	"morp_eval" : [
	],
	"WSD" : [
	],
	"word" : [
		{"id" : 0, "text" : "이것을", "type" : "", "begin" : 0, "end" : 1},
		{"id" : 1, "text" : "사람이나", "type" : "", "begin" : 2, "end" : 3},
		{"id" : 2, "text" : "동물에", "type" : "", "begin" : 4, "end" : 5},
		{"id" : 3, "text" : "접종함으로써", "type" : "", "begin" : 6, "end" : 9},
		{"id" : 4, "text" : "병에", "type" : "", "begin" : 10, "end" : 11},
		{"id" : 5, "text" : "대한", "type" : "", "begin" : 12, "end" : 13},
		{"id" : 6, "text" : "저항을", "type" : "", "begin" : 14, "end" : 15},
		{"id" : 7, "text" : "제공할", "type" : "", "begin" : 16, "end" : 18},
		{"id" : 8, "text" : "목적으로", "type" : "", "begin" : 19, "end" : 20},
		{"id" : 9, "text" : "사용하였다.", "type" : "", "begin" : 21, "end" : 25}
	],
	"NE" : [
	],
	"chunk" : [
	],
	"dependency" : [
		{"id" : 0, "text" : "이것을", "head" : 3, "label" : "NP_OBJ", "mod" : [], "weight" : 0.728584 },
		{"id" : 1, "text" : "사람이나", "head" : 2, "label" : "NP_CNJ", "mod" : [], "weight" : 0.914475 },
		{"id" : 2, "text" : "동물에", "head" : 3, "label" : "NP_AJT", "mod" : [1], "weight" : 0.963529 },
		{"id" : 3, "text" : "접종함으로써", "head" : 7, "label" : "VP_AJT", "mod" : [0, 2], "weight" : 0.543125 },
		{"id" : 4, "text" : "병에", "head" : 5, "label" : "NP_AJT", "mod" : [], "weight" : 0.957078 },
		{"id" : 5, "text" : "대한", "head" : 6, "label" : "VP_MOD", "mod" : [4], "weight" : 0.878169 },
		{"id" : 6, "text" : "저항을", "head" : 7, "label" : "NP_OBJ", "mod" : [5], "weight" : 0.674321 },
		{"id" : 7, "text" : "제공할", "head" : 8, "label" : "VP_MOD", "mod" : [3, 6], "weight" : 0.866702 },
		{"id" : 8, "text" : "목적으로", "head" : 9, "label" : "NP_AJT", "mod" : [7], "weight" : 0.599322 },
		{"id" : 9, "text" : "사용하였다.", "head" : -1, "label" : "VP", "mod" : [8], "weight" : 0.763256 }
	],
	"SRL" : [
		{"verb" : "접종", "sense" : 1, "word_id" : 3, "weight" : 0.153534,
			"argument" : [
				{"type" : "ARG1", "word_id" : 0, "text" : "이것을", "weight" : 0.203439 },
				{"type" : "ARG2", "word_id" : 2, "text" : "동물에", "weight" : 0.103629 }
			] },
		{"verb" : "대하", "sense" : 1, "word_id" : 5, "weight" : 0.237394,
			"argument" : [
				{"type" : "ARG2", "word_id" : 4, "text" : "병에", "weight" : 0.203717 },
				{"type" : "ARG1", "word_id" : 6, "text" : "저항을", "weight" : 0.27107 }
			] },
		{"verb" : "제공", "sense" : 1, "word_id" : 7, "weight" : 0.20805,
			"argument" : [
				{"type" : "ARG1", "word_id" : 6, "text" : "저항을", "weight" : 0.20805 }
			] },
		{"verb" : "사용", "sense" : 1, "word_id" : 9, "weight" : 0.812254,
			"argument" : [
				{"type" : "ARG2", "word_id" : 8, "text" : "목적으로", "weight" : 0.812254 }
			] }
	],
	"relation" : [
	],
	"SA" : [
	],
	"ZA" : [
	]
	}
 ],
 "entity" : [
 ]
}

