{"doc_id" : "E2014.131_A_02",
 "DCT" : "",
 "category" : "",
 "category_weight" : 0,
 "title" : {"text" : "", "NE" : ""},
 "metaInfo" : { },
 "sentence" : [
	{
	"id" : 3,
	"reserve_str" : "",
	"text" : "  조선 중기 이후 백성들 속에 유포된, 나라의 운명과 백성의 앞날에 대한 예언서.",
	"morp" : [
		{"id" : 0, "lemma" : "조선", "type" : "NNP", "position" : 1039, "weight" : 0.0354756 },
		{"id" : 1, "lemma" : "중기", "type" : "NNG", "position" : 1046, "weight" : 0.0354756 },
		{"id" : 2, "lemma" : "이후", "type" : "NNG", "position" : 1053, "weight" : 0.0354756 },
		{"id" : 3, "lemma" : "백성", "type" : "NNG", "position" : 1060, "weight" : 0.0354756 },
		{"id" : 4, "lemma" : "들", "type" : "XSN", "position" : 1066, "weight" : 0.0277844 },
		{"id" : 5, "lemma" : "속", "type" : "NNG", "position" : 1070, "weight" : 0.0475437 },
		{"id" : 6, "lemma" : "에", "type" : "JKB", "position" : 1073, "weight" : 0.0234075 },
		{"id" : 7, "lemma" : "유포", "type" : "NNG", "position" : 1077, "weight" : 0.0354756 },
		{"id" : 8, "lemma" : "되", "type" : "XSV", "position" : 1083, "weight" : 0.0277844 },
		{"id" : 9, "lemma" : "ㄴ", "type" : "ETM", "position" : 1083, "weight" : 0.0237097 },
		{"id" : 10, "lemma" : ",", "type" : "SP", "position" : 1086, "weight" : 0.0465698 },
		{"id" : 11, "lemma" : "나라", "type" : "NNG", "position" : 1088, "weight" : 0.0354756 },
		{"id" : 12, "lemma" : "의", "type" : "JKG", "position" : 1094, "weight" : 0.0277844 },
		{"id" : 13, "lemma" : "운명", "type" : "NNG", "position" : 1098, "weight" : 0.0354756 },
		{"id" : 14, "lemma" : "과", "type" : "JC", "position" : 1104, "weight" : 0.0277844 },
		{"id" : 15, "lemma" : "백성", "type" : "NNG", "position" : 1108, "weight" : 0.0354756 },
		{"id" : 16, "lemma" : "의", "type" : "JKG", "position" : 1114, "weight" : 0.0277844 },
		{"id" : 17, "lemma" : "앞날", "type" : "NNG", "position" : 1118, "weight" : 0.0354756 },
		{"id" : 18, "lemma" : "에", "type" : "JKB", "position" : 1124, "weight" : 0.0277844 },
		{"id" : 19, "lemma" : "대하", "type" : "VV", "position" : 1128, "weight" : 0.0354756 },
		{"id" : 20, "lemma" : "ㄴ", "type" : "ETM", "position" : 1131, "weight" : 0.0277844 },
		{"id" : 21, "lemma" : "예언서", "type" : "NNG", "position" : 1135, "weight" : 0.0329119 },
		{"id" : 22, "lemma" : ".", "type" : "SF", "position" : 1144, "weight" : 0.0237097 }
	],
	"morp_eval" : [
	],
	"WSD" : [
	],
	"word" : [
		{"id" : 0, "text" : "조선", "type" : "", "begin" : 0, "end" : 0},
		{"id" : 1, "text" : "중기", "type" : "", "begin" : 1, "end" : 1},
		{"id" : 2, "text" : "이후", "type" : "", "begin" : 2, "end" : 2},
		{"id" : 3, "text" : "백성들", "type" : "", "begin" : 3, "end" : 4},
		{"id" : 4, "text" : "속에", "type" : "", "begin" : 5, "end" : 6},
		{"id" : 5, "text" : "유포된,", "type" : "", "begin" : 7, "end" : 10},
		{"id" : 6, "text" : "나라의", "type" : "", "begin" : 11, "end" : 12},
		{"id" : 7, "text" : "운명과", "type" : "", "begin" : 13, "end" : 14},
		{"id" : 8, "text" : "백성의", "type" : "", "begin" : 15, "end" : 16},
		{"id" : 9, "text" : "앞날에", "type" : "", "begin" : 17, "end" : 18},
		{"id" : 10, "text" : "대한", "type" : "", "begin" : 19, "end" : 20},
		{"id" : 11, "text" : "예언서.", "type" : "", "begin" : 21, "end" : 22}
	],
	"NE" : [
		{"id" : 0, "text" : "조선 중기", "type" : "DT_DYNASTY", "begin" : 0, "end" : 1, "weight" : 0.818506, "common_noun" : 0}
	],
	"chunk" : [
	],
	"dependency" : [
		{"id" : 0, "text" : "조선", "head" : 1, "label" : "NP", "mod" : [], "weight" : 0.767684 },
		{"id" : 1, "text" : "중기", "head" : 2, "label" : "NP", "mod" : [0], "weight" : 0.784914 },
		{"id" : 2, "text" : "이후", "head" : 5, "label" : "NP_AJT", "mod" : [1], "weight" : 0.531317 },
		{"id" : 3, "text" : "백성들", "head" : 4, "label" : "NP", "mod" : [], "weight" : 0.755528 },
		{"id" : 4, "text" : "속에", "head" : 5, "label" : "NP_AJT", "mod" : [3], "weight" : 0.631388 },
		{"id" : 5, "text" : "유포된,", "head" : 11, "label" : "VP_MOD", "mod" : [2, 4], "weight" : 0.515616 },
		{"id" : 6, "text" : "나라의", "head" : 7, "label" : "NP_MOD", "mod" : [], "weight" : 0.623563 },
		{"id" : 7, "text" : "운명과", "head" : 9, "label" : "NP_CNJ", "mod" : [6], "weight" : 0.593255 },
		{"id" : 8, "text" : "백성의", "head" : 9, "label" : "NP_MOD", "mod" : [], "weight" : 0.748669 },
		{"id" : 9, "text" : "앞날에", "head" : 10, "label" : "NP_AJT", "mod" : [7, 8], "weight" : 0.884003 },
		{"id" : 10, "text" : "대한", "head" : 11, "label" : "VP_MOD", "mod" : [9], "weight" : 0.618136 },
		{"id" : 11, "text" : "예언서.", "head" : -1, "label" : "NP", "mod" : [5, 10], "weight" : 0.620982 }
	],
	"SRL" : [
		{"verb" : "유포", "sense" : 1, "word_id" : 5, "weight" : 0,
			"argument" : [
				{"type" : "ARG1", "word_id" : 11, "text" : "예언서.", "weight" : 0 },
				{"type" : "ARGM-TMP", "word_id" : 2, "text" : "이후", "weight" : 0 },
				{"type" : "ARG2", "word_id" : 4, "text" : "속에", "weight" : 0 }
			] },
		{"verb" : "대하", "sense" : 1, "word_id" : 10, "weight" : 0.161596,
			"argument" : [
				{"type" : "ARG2", "word_id" : 9, "text" : "앞날에", "weight" : 0.178216 },
				{"type" : "ARG1", "word_id" : 11, "text" : "예언서.", "weight" : 0.144975 }
			] }
	],
	"relation" : [
	],
	"SA" : [
	],
	"ZA" : [
	]
	},
	{
	"id" : 4,
	"reserve_str" : "",
	"text" : " 풍수지리상으로 본 조선 왕조 후 역대의 변천 따위를 예언한 것으로, 이심(李沁)과 정감(鄭鑑)의 문답을 기록한 책이라 하나 이본이 많아 확실한 것은 알 수 없다. ",
	"morp" : [
		{"id" : 0, "lemma" : "풍수지리", "type" : "NNG", "position" : 1146, "weight" : 1 },
		{"id" : 1, "lemma" : "상", "type" : "XSN", "position" : 1158, "weight" : 1 },
		{"id" : 2, "lemma" : "으로", "type" : "JKB", "position" : 1161, "weight" : 0.0381993 },
		{"id" : 3, "lemma" : "보", "type" : "VV", "position" : 1168, "weight" : 1 },
		{"id" : 4, "lemma" : "ㄴ", "type" : "ETM", "position" : 1168, "weight" : 1 },
		{"id" : 5, "lemma" : "조선", "type" : "NNP", "position" : 1172, "weight" : 1 },
		{"id" : 6, "lemma" : "왕조", "type" : "NNG", "position" : 1179, "weight" : 1 },
		{"id" : 7, "lemma" : "후", "type" : "NNG", "position" : 1186, "weight" : 1 },
		{"id" : 8, "lemma" : "역대", "type" : "NNG", "position" : 1190, "weight" : 1 },
		{"id" : 9, "lemma" : "의", "type" : "JKG", "position" : 1196, "weight" : 1 },
		{"id" : 10, "lemma" : "변천", "type" : "NNG", "position" : 1200, "weight" : 1 },
		{"id" : 11, "lemma" : "따위", "type" : "NNB", "position" : 1207, "weight" : 1 },
		{"id" : 12, "lemma" : "를", "type" : "JKO", "position" : 1213, "weight" : 1 },
		{"id" : 13, "lemma" : "예언", "type" : "NNG", "position" : 1217, "weight" : 1 },
		{"id" : 14, "lemma" : "하", "type" : "XSV", "position" : 1223, "weight" : 1 },
		{"id" : 15, "lemma" : "ㄴ", "type" : "ETM", "position" : 1223, "weight" : 1 },
		{"id" : 16, "lemma" : "것", "type" : "NNB", "position" : 1227, "weight" : 1 },
		{"id" : 17, "lemma" : "으로", "type" : "JKB", "position" : 1230, "weight" : 1 },
		{"id" : 18, "lemma" : ",", "type" : "SP", "position" : 1236, "weight" : 1 },
		{"id" : 19, "lemma" : "이심", "type" : "NNP", "position" : 1238, "weight" : 1 },
		{"id" : 20, "lemma" : "(", "type" : "SS", "position" : 1244, "weight" : 1 },
		{"id" : 21, "lemma" : "李沁", "type" : "SH", "position" : 1245, "weight" : 1 },
		{"id" : 22, "lemma" : ")", "type" : "SS", "position" : 1251, "weight" : 0.0426594 },
		{"id" : 23, "lemma" : "과", "type" : "JC", "position" : 1252, "weight" : 0.0337392 },
		{"id" : 24, "lemma" : "정감", "type" : "NNP", "position" : 1256, "weight" : 1 },
		{"id" : 25, "lemma" : "(", "type" : "SS", "position" : 1262, "weight" : 1 },
		{"id" : 26, "lemma" : "鄭鑑", "type" : "SH", "position" : 1263, "weight" : 1 },
		{"id" : 27, "lemma" : ")", "type" : "SS", "position" : 1269, "weight" : 0.0426594 },
		{"id" : 28, "lemma" : "의", "type" : "JKG", "position" : 1270, "weight" : 0.0337392 },
		{"id" : 29, "lemma" : "문답", "type" : "NNG", "position" : 1274, "weight" : 1 },
		{"id" : 30, "lemma" : "을", "type" : "JKO", "position" : 1280, "weight" : 1 },
		{"id" : 31, "lemma" : "기록", "type" : "NNG", "position" : 1284, "weight" : 1 },
		{"id" : 32, "lemma" : "하", "type" : "XSV", "position" : 1290, "weight" : 1 },
		{"id" : 33, "lemma" : "ㄴ", "type" : "ETM", "position" : 1290, "weight" : 1 },
		{"id" : 34, "lemma" : "책", "type" : "NNG", "position" : 1294, "weight" : 1 },
		{"id" : 35, "lemma" : "이", "type" : "VCP", "position" : 1297, "weight" : 1 },
		{"id" : 36, "lemma" : "라", "type" : "EC", "position" : 1300, "weight" : 1 },
		{"id" : 37, "lemma" : "하", "type" : "VV", "position" : 1304, "weight" : 1 },
		{"id" : 38, "lemma" : "나", "type" : "EC", "position" : 1304, "weight" : 1 },
		{"id" : 39, "lemma" : "이본", "type" : "NNG", "position" : 1311, "weight" : 1 },
		{"id" : 40, "lemma" : "이", "type" : "JKS", "position" : 1317, "weight" : 1 },
		{"id" : 41, "lemma" : "많", "type" : "VA", "position" : 1321, "weight" : 1 },
		{"id" : 42, "lemma" : "아", "type" : "EC", "position" : 1324, "weight" : 1 },
		{"id" : 43, "lemma" : "확실", "type" : "XR", "position" : 1328, "weight" : 1 },
		{"id" : 44, "lemma" : "하", "type" : "XSA", "position" : 1334, "weight" : 1 },
		{"id" : 45, "lemma" : "ㄴ", "type" : "ETM", "position" : 1334, "weight" : 1 },
		{"id" : 46, "lemma" : "것", "type" : "NNB", "position" : 1338, "weight" : 1 },
		{"id" : 47, "lemma" : "은", "type" : "JX", "position" : 1341, "weight" : 1 },
		{"id" : 48, "lemma" : "알", "type" : "VV", "position" : 1345, "weight" : 1 },
		{"id" : 49, "lemma" : "ㄹ", "type" : "ETM", "position" : 1345, "weight" : 1 },
		{"id" : 50, "lemma" : "수", "type" : "NNB", "position" : 1349, "weight" : 1 },
		{"id" : 51, "lemma" : "없", "type" : "VA", "position" : 1353, "weight" : 1 },
		{"id" : 52, "lemma" : "다", "type" : "EF", "position" : 1356, "weight" : 1 },
		{"id" : 53, "lemma" : ".", "type" : "SF", "position" : 1359, "weight" : 1 }
	],
	"morp_eval" : [
	],
	"WSD" : [
	],
	"word" : [
		{"id" : 0, "text" : "풍수지리상으로", "type" : "", "begin" : 0, "end" : 2},
		{"id" : 1, "text" : "본", "type" : "", "begin" : 3, "end" : 4},
		{"id" : 2, "text" : "조선", "type" : "", "begin" : 5, "end" : 5},
		{"id" : 3, "text" : "왕조", "type" : "", "begin" : 6, "end" : 6},
		{"id" : 4, "text" : "후", "type" : "", "begin" : 7, "end" : 7},
		{"id" : 5, "text" : "역대의", "type" : "", "begin" : 8, "end" : 9},
		{"id" : 6, "text" : "변천", "type" : "", "begin" : 10, "end" : 10},
		{"id" : 7, "text" : "따위를", "type" : "", "begin" : 11, "end" : 12},
		{"id" : 8, "text" : "예언한", "type" : "", "begin" : 13, "end" : 15},
		{"id" : 9, "text" : "것으로,", "type" : "", "begin" : 16, "end" : 18},
		{"id" : 10, "text" : "이심(李沁)과", "type" : "", "begin" : 19, "end" : 23},
		{"id" : 11, "text" : "정감(鄭鑑)의", "type" : "", "begin" : 24, "end" : 28},
		{"id" : 12, "text" : "문답을", "type" : "", "begin" : 29, "end" : 30},
		{"id" : 13, "text" : "기록한", "type" : "", "begin" : 31, "end" : 33},
		{"id" : 14, "text" : "책이라", "type" : "", "begin" : 34, "end" : 36},
		{"id" : 15, "text" : "하나", "type" : "", "begin" : 37, "end" : 38},
		{"id" : 16, "text" : "이본이", "type" : "", "begin" : 39, "end" : 40},
		{"id" : 17, "text" : "많아", "type" : "", "begin" : 41, "end" : 42},
		{"id" : 18, "text" : "확실한", "type" : "", "begin" : 43, "end" : 45},
		{"id" : 19, "text" : "것은", "type" : "", "begin" : 46, "end" : 47},
		{"id" : 20, "text" : "알", "type" : "", "begin" : 48, "end" : 49},
		{"id" : 21, "text" : "수", "type" : "", "begin" : 50, "end" : 50},
		{"id" : 22, "text" : "없다.", "type" : "", "begin" : 51, "end" : 53}
	],
	"NE" : [
		{"id" : 0, "text" : "풍수지리", "type" : "TR_PHILOSOPHY", "begin" : 0, "end" : 0, "weight" : 0.441062, "common_noun" : 0},
		{"id" : 1, "text" : "조선 왕조", "type" : "DT_DYNASTY", "begin" : 5, "end" : 6, "weight" : 0.441062, "common_noun" : 0},
		{"id" : 2, "text" : "이심", "type" : "PS_NAME", "begin" : 19, "end" : 19, "weight" : 0.198877, "common_noun" : 0},
		{"id" : 3, "text" : "李沁", "type" : "PS_NAME", "begin" : 21, "end" : 21, "weight" : 0.198877, "common_noun" : 0},
		{"id" : 4, "text" : "정감", "type" : "PS_NAME", "begin" : 24, "end" : 24, "weight" : 0.198877, "common_noun" : 0},
		{"id" : 5, "text" : "鄭鑑", "type" : "PS_NAME", "begin" : 26, "end" : 26, "weight" : 0.198877, "common_noun" : 0}
	],
	"chunk" : [
	],
	"dependency" : [
		{"id" : 0, "text" : "풍수지리상으로", "head" : 1, "label" : "NP_AJT", "mod" : [], "weight" : 0.739397 },
		{"id" : 1, "text" : "본", "head" : 6, "label" : "VP_MOD", "mod" : [0], "weight" : 0.649548 },
		{"id" : 2, "text" : "조선", "head" : 3, "label" : "NP", "mod" : [], "weight" : 0.705549 },
		{"id" : 3, "text" : "왕조", "head" : 4, "label" : "NP", "mod" : [2], "weight" : 0.894268 },
		{"id" : 4, "text" : "후", "head" : 5, "label" : "NP_MOD", "mod" : [3], "weight" : 0.590836 },
		{"id" : 5, "text" : "역대의", "head" : 6, "label" : "NP_MOD", "mod" : [4], "weight" : 0.641564 },
		{"id" : 6, "text" : "변천", "head" : 7, "label" : "NP", "mod" : [1, 5], "weight" : 0.943501 },
		{"id" : 7, "text" : "따위를", "head" : 8, "label" : "NP_OBJ", "mod" : [6], "weight" : 0.724862 },
		{"id" : 8, "text" : "예언한", "head" : 9, "label" : "VP_MOD", "mod" : [7], "weight" : 0.678033 },
		{"id" : 9, "text" : "것으로,", "head" : 14, "label" : "NP_AJT", "mod" : [8], "weight" : 0.647103 },
		{"id" : 10, "text" : "이심(李沁)과", "head" : 11, "label" : "NP_CNJ", "mod" : [], "weight" : 0.866456 },
		{"id" : 11, "text" : "정감(鄭鑑)의", "head" : 12, "label" : "NP_MOD", "mod" : [10], "weight" : 0.940759 },
		{"id" : 12, "text" : "문답을", "head" : 13, "label" : "NP_OBJ", "mod" : [11], "weight" : 0.66009 },
		{"id" : 13, "text" : "기록한", "head" : 14, "label" : "VP_MOD", "mod" : [12], "weight" : 0.958425 },
		{"id" : 14, "text" : "책이라", "head" : 15, "label" : "VNP_CMP", "mod" : [9, 13], "weight" : 0.60164 },
		{"id" : 15, "text" : "하나", "head" : 17, "label" : "VP", "mod" : [14], "weight" : 0.614267 },
		{"id" : 16, "text" : "이본이", "head" : 17, "label" : "NP_SBJ", "mod" : [], "weight" : 0.712721 },
		{"id" : 17, "text" : "많아", "head" : 20, "label" : "VP", "mod" : [15, 16], "weight" : 0.736913 },
		{"id" : 18, "text" : "확실한", "head" : 19, "label" : "VP_MOD", "mod" : [], "weight" : 0.877171 },
		{"id" : 19, "text" : "것은", "head" : 20, "label" : "NP_OBJ", "mod" : [18], "weight" : 0.969902 },
		{"id" : 20, "text" : "알", "head" : 21, "label" : "VP_MOD", "mod" : [17, 19], "weight" : 0.754117 },
		{"id" : 21, "text" : "수", "head" : 22, "label" : "NP_SBJ", "mod" : [20], "weight" : 0.489567 },
		{"id" : 22, "text" : "없다.", "head" : -1, "label" : "VP", "mod" : [21], "weight" : 0.957 }
	],
	"SRL" : [
		{"verb" : "보", "sense" : 3, "word_id" : 1, "weight" : 0,
			"argument" : [
				{"type" : "ARG1", "word_id" : 0, "text" : "풍수지리상으로", "weight" : 0 }
			] },
		{"verb" : "예언", "sense" : 1, "word_id" : 8, "weight" : 0.204592,
			"argument" : [
				{"type" : "ARGM-TMP", "word_id" : 4, "text" : "후", "weight" : 0.167655 },
				{"type" : "ARG1", "word_id" : 7, "text" : "따위를", "weight" : 0.24153 }
			] },
		{"verb" : "기록", "sense" : 1, "word_id" : 13, "weight" : 0.160869,
			"argument" : [
				{"type" : "ARG1", "word_id" : 12, "text" : "문답을", "weight" : 0.247653 },
				{"type" : "ARG2", "word_id" : 14, "text" : "책이라", "weight" : 0.740847 }
			] },
		{"verb" : "하", "sense" : 2, "word_id" : 15, "weight" : 0,
			"argument" : [
				{"type" : "ARG1", "word_id" : 14, "text" : "책이라", "weight" : 1 }
			] },
		{"verb" : "많", "sense" : 1, "word_id" : 17, "weight" : 0.111634,
			"argument" : [
				{"type" : "ARG1", "word_id" : 16, "text" : "이본이", "weight" : 0.111634 }
			] },
		{"verb" : "알", "sense" : 1, "word_id" : 20, "weight" : 0.284146,
			"argument" : [
				{"type" : "ARG1", "word_id" : 19, "text" : "것은", "weight" : 0.21897 },
				{"type" : "ARGM-NEG", "word_id" : 22, "text" : "없다.", "weight" : 0.349323 },
				{"type" : "ARGM-CAU", "word_id" : 17, "text" : "많아", "weight" : 1 }
			] }
	],
	"relation" : [
	],
	"SA" : [
	],
	"ZA" : [
	]
	}
 ],
 "entity" : [
 ]
}

