{"doc_id" : "E2015.947.024_A_01",
 "DCT" : "",
 "category" : "",
 "category_weight" : 0,
 "title" : {"text" : "", "NE" : ""},
 "metaInfo" : { },
 "sentence" : [
	{
	"id" : 0,
	"reserve_str" : "",
	"text" : "파피루스(papyrus, 아랍어: ورق البردي)는 종이가 발명되기 이전의 종이와 비슷한 매체로, 같은 이름의 갈대과의 식물 잎으로 만든다.",
	"morp" : [
		{"id" : 0, "lemma" : "파피루스", "type" : "NNG", "position" : 0, "weight" : 1 },
		{"id" : 1, "lemma" : "(", "type" : "SS", "position" : 12, "weight" : 1 },
		{"id" : 2, "lemma" : "papyrus", "type" : "SL", "position" : 13, "weight" : 1 },
		{"id" : 3, "lemma" : ",", "type" : "SP", "position" : 20, "weight" : 1 },
		{"id" : 4, "lemma" : "아랍", "type" : "NNG", "position" : 22, "weight" : 1 },
		{"id" : 5, "lemma" : "어", "type" : "XSN", "position" : 28, "weight" : 1 },
		{"id" : 6, "lemma" : ":", "type" : "SP", "position" : 31, "weight" : 1 },
		{"id" : 7, "lemma" : "ورق", "type" : "SL", "position" : 33, "weight" : 1 },
		{"id" : 8, "lemma" : "البردي", "type" : "SL", "position" : 40, "weight" : 1 },
		{"id" : 9, "lemma" : ")", "type" : "SS", "position" : 52, "weight" : 1 },
		{"id" : 10, "lemma" : "는", "type" : "JX", "position" : 53, "weight" : 1 },
		{"id" : 11, "lemma" : "종이", "type" : "NNG", "position" : 57, "weight" : 1 },
		{"id" : 12, "lemma" : "가", "type" : "JKS", "position" : 63, "weight" : 1 },
		{"id" : 13, "lemma" : "발명", "type" : "NNG", "position" : 67, "weight" : 1 },
		{"id" : 14, "lemma" : "되", "type" : "XSV", "position" : 73, "weight" : 1 },
		{"id" : 15, "lemma" : "기", "type" : "ETN", "position" : 76, "weight" : 1 },
		{"id" : 16, "lemma" : "이전", "type" : "NNG", "position" : 80, "weight" : 1 },
		{"id" : 17, "lemma" : "의", "type" : "JKG", "position" : 86, "weight" : 1 },
		{"id" : 18, "lemma" : "종이", "type" : "NNG", "position" : 90, "weight" : 1 },
		{"id" : 19, "lemma" : "와", "type" : "JKB", "position" : 96, "weight" : 1 },
		{"id" : 20, "lemma" : "비슷하", "type" : "VA", "position" : 100, "weight" : 1 },
		{"id" : 21, "lemma" : "ㄴ", "type" : "ETM", "position" : 106, "weight" : 1 },
		{"id" : 22, "lemma" : "매체", "type" : "NNG", "position" : 110, "weight" : 1 },
		{"id" : 23, "lemma" : "로", "type" : "JKB", "position" : 116, "weight" : 1 },
		{"id" : 24, "lemma" : ",", "type" : "SP", "position" : 119, "weight" : 1 },
		{"id" : 25, "lemma" : "같", "type" : "VA", "position" : 121, "weight" : 1 },
		{"id" : 26, "lemma" : "은", "type" : "ETM", "position" : 124, "weight" : 1 },
		{"id" : 27, "lemma" : "이름", "type" : "NNG", "position" : 128, "weight" : 1 },
		{"id" : 28, "lemma" : "의", "type" : "JKG", "position" : 134, "weight" : 1 },
		{"id" : 29, "lemma" : "갈대", "type" : "NNG", "position" : 138, "weight" : 1 },
		{"id" : 30, "lemma" : "과", "type" : "NNG", "position" : 144, "weight" : 1 },
		{"id" : 31, "lemma" : "의", "type" : "JKG", "position" : 147, "weight" : 1 },
		{"id" : 32, "lemma" : "식물", "type" : "NNG", "position" : 151, "weight" : 1 },
		{"id" : 33, "lemma" : "잎", "type" : "NNG", "position" : 158, "weight" : 1 },
		{"id" : 34, "lemma" : "으로", "type" : "JKB", "position" : 161, "weight" : 1 },
		{"id" : 35, "lemma" : "만들", "type" : "VV", "position" : 168, "weight" : 1 },
		{"id" : 36, "lemma" : "ㄴ다", "type" : "EF", "position" : 171, "weight" : 1 },
		{"id" : 37, "lemma" : ".", "type" : "SF", "position" : 177, "weight" : 1 }
	],
	"morp_eval" : [
	],
	"WSD" : [
	],
	"word" : [
		{"id" : 0, "text" : "파피루스(papyrus,", "type" : "", "begin" : 0, "end" : 3},
		{"id" : 1, "text" : "아랍어:", "type" : "", "begin" : 4, "end" : 6},
		{"id" : 2, "text" : "ورق", "type" : "", "begin" : 7, "end" : 7},
		{"id" : 3, "text" : "البردي)는", "type" : "", "begin" : 8, "end" : 10},
		{"id" : 4, "text" : "종이가", "type" : "", "begin" : 11, "end" : 12},
		{"id" : 5, "text" : "발명되기", "type" : "", "begin" : 13, "end" : 15},
		{"id" : 6, "text" : "이전의", "type" : "", "begin" : 16, "end" : 17},
		{"id" : 7, "text" : "종이와", "type" : "", "begin" : 18, "end" : 19},
		{"id" : 8, "text" : "비슷한", "type" : "", "begin" : 20, "end" : 21},
		{"id" : 9, "text" : "매체로,", "type" : "", "begin" : 22, "end" : 24},
		{"id" : 10, "text" : "같은", "type" : "", "begin" : 25, "end" : 26},
		{"id" : 11, "text" : "이름의", "type" : "", "begin" : 27, "end" : 28},
		{"id" : 12, "text" : "갈대과의", "type" : "", "begin" : 29, "end" : 31},
		{"id" : 13, "text" : "식물", "type" : "", "begin" : 32, "end" : 32},
		{"id" : 14, "text" : "잎으로", "type" : "", "begin" : 33, "end" : 34},
		{"id" : 15, "text" : "만든다.", "type" : "", "begin" : 35, "end" : 37}
	],
	"NE" : [
		{"id" : 0, "text" : "아랍어", "type" : "CV_LANGUAGE", "begin" : 4, "end" : 5, "weight" : 0.274926, "common_noun" : 0},
		{"id" : 1, "text" : "갈대과", "type" : "PT_TYPE", "begin" : 29, "end" : 30, "weight" : 0.348248, "common_noun" : 0},
		{"id" : 2, "text" : "잎", "type" : "PT_PART", "begin" : 33, "end" : 33, "weight" : 0.421335, "common_noun" : 0}
	],
	"chunk" : [
	],
	"dependency" : [
		{"id" : 0, "text" : "파피루스(papyrus,", "head" : 3, "label" : "NP_CNJ", "mod" : [], "weight" : 0.653328 },
		{"id" : 1, "text" : "아랍어:", "head" : 3, "label" : "NP", "mod" : [], "weight" : 0.72383 },
		{"id" : 2, "text" : "ورق", "head" : 3, "label" : "NP", "mod" : [], "weight" : 0.662456 },
		{"id" : 3, "text" : "البردي)는", "head" : 9, "label" : "NP_SBJ", "mod" : [0, 1, 2], "weight" : 0.720746 },
		{"id" : 4, "text" : "종이가", "head" : 5, "label" : "NP_SBJ", "mod" : [], "weight" : 0.833779 },
		{"id" : 5, "text" : "발명되기", "head" : 6, "label" : "VP", "mod" : [4], "weight" : 0.807615 },
		{"id" : 6, "text" : "이전의", "head" : 7, "label" : "NP_MOD", "mod" : [5], "weight" : 0.761247 },
		{"id" : 7, "text" : "종이와", "head" : 8, "label" : "NP_AJT", "mod" : [6], "weight" : 0.519357 },
		{"id" : 8, "text" : "비슷한", "head" : 9, "label" : "VP_MOD", "mod" : [7], "weight" : 0.868796 },
		{"id" : 9, "text" : "매체로,", "head" : 15, "label" : "NP_AJT", "mod" : [3, 8], "weight" : 0.628787 },
		{"id" : 10, "text" : "같은", "head" : 11, "label" : "VP_MOD", "mod" : [], "weight" : 0.529908 },
		{"id" : 11, "text" : "이름의", "head" : 12, "label" : "NP_MOD", "mod" : [10], "weight" : 0.634114 },
		{"id" : 12, "text" : "갈대과의", "head" : 13, "label" : "NP_MOD", "mod" : [11], "weight" : 0.832152 },
		{"id" : 13, "text" : "식물", "head" : 14, "label" : "NP", "mod" : [12], "weight" : 0.74169 },
		{"id" : 14, "text" : "잎으로", "head" : 15, "label" : "NP_AJT", "mod" : [13], "weight" : 0.616423 },
		{"id" : 15, "text" : "만든다.", "head" : -1, "label" : "VP", "mod" : [9, 14], "weight" : 0.325958 }
	],
	"SRL" : [
		{"verb" : "발명", "sense" : 1, "word_id" : 5, "weight" : 0.131367,
			"argument" : [
				{"type" : "ARG1", "word_id" : 4, "text" : "종이가", "weight" : 0.131367 }
			] },
		{"verb" : "비슷하", "sense" : 1, "word_id" : 8, "weight" : 0.128918,
			"argument" : [
				{"type" : "ARG2", "word_id" : 7, "text" : "종이와", "weight" : 0.16513 },
				{"type" : "ARG1", "word_id" : 9, "text" : "매체로,", "weight" : 0.927053 }
			] },
		{"verb" : "같", "sense" : 1, "word_id" : 10, "weight" : 0.211627,
			"argument" : [
				{"type" : "ARG1", "word_id" : 11, "text" : "이름의", "weight" : 0.211627 }
			] },
		{"verb" : "만들", "sense" : 1, "word_id" : 15, "weight" : 0.168943,
			"argument" : [
				{"type" : "ARG1", "word_id" : 3, "text" : "البردي)는", "weight" : 0.233928 },
				{"type" : "ARGM-INS", "word_id" : 14, "text" : "잎으로", "weight" : 0.103959 }
			] }
	],
	"relation" : [
	],
	"SA" : [
	],
	"ZA" : [
	]
	},
	{
	"id" : 1,
	"reserve_str" : "",
	"text" : "파피루스 식물의 학명은 Cyperus papyrus으로서 보통 2~3m의 크기로 자란다.",
	"morp" : [
		{"id" : 0, "lemma" : "파피루스", "type" : "NNG", "position" : 179, "weight" : 1 },
		{"id" : 1, "lemma" : "식물", "type" : "NNG", "position" : 192, "weight" : 1 },
		{"id" : 2, "lemma" : "의", "type" : "JKG", "position" : 198, "weight" : 1 },
		{"id" : 3, "lemma" : "학명", "type" : "NNG", "position" : 202, "weight" : 1 },
		{"id" : 4, "lemma" : "은", "type" : "JX", "position" : 208, "weight" : 1 },
		{"id" : 5, "lemma" : "Cyperus", "type" : "SL", "position" : 212, "weight" : 0.588209 },
		{"id" : 6, "lemma" : "papyrus", "type" : "SL", "position" : 220, "weight" : 0.588209 },
		{"id" : 7, "lemma" : "으로서", "type" : "JKB", "position" : 227, "weight" : 0.0353235 },
		{"id" : 8, "lemma" : "보통", "type" : "NNG", "position" : 237, "weight" : 1 },
		{"id" : 9, "lemma" : "2", "type" : "SN", "position" : 244, "weight" : 1 },
		{"id" : 10, "lemma" : "~", "type" : "SO", "position" : 245, "weight" : 1 },
		{"id" : 11, "lemma" : "3", "type" : "SN", "position" : 246, "weight" : 1 },
		{"id" : 12, "lemma" : "m", "type" : "SL", "position" : 247, "weight" : 1 },
		{"id" : 13, "lemma" : "의", "type" : "JKG", "position" : 248, "weight" : 0.0346033 },
		{"id" : 14, "lemma" : "크기", "type" : "NNG", "position" : 252, "weight" : 1 },
		{"id" : 15, "lemma" : "로", "type" : "JKB", "position" : 258, "weight" : 1 },
		{"id" : 16, "lemma" : "자라", "type" : "VV", "position" : 262, "weight" : 1 },
		{"id" : 17, "lemma" : "ㄴ다", "type" : "EF", "position" : 265, "weight" : 1 },
		{"id" : 18, "lemma" : ".", "type" : "SF", "position" : 271, "weight" : 0.0346033 }
	],
	"morp_eval" : [
	],
	"WSD" : [
	],
	"word" : [
		{"id" : 0, "text" : "파피루스", "type" : "", "begin" : 0, "end" : 0},
		{"id" : 1, "text" : "식물의", "type" : "", "begin" : 1, "end" : 2},
		{"id" : 2, "text" : "학명은", "type" : "", "begin" : 3, "end" : 4},
		{"id" : 3, "text" : "Cyperus", "type" : "", "begin" : 5, "end" : 5},
		{"id" : 4, "text" : "papyrus으로서", "type" : "", "begin" : 6, "end" : 7},
		{"id" : 5, "text" : "보통", "type" : "", "begin" : 8, "end" : 8},
		{"id" : 6, "text" : "2~3m의", "type" : "", "begin" : 9, "end" : 13},
		{"id" : 7, "text" : "크기로", "type" : "", "begin" : 14, "end" : 15},
		{"id" : 8, "text" : "자란다.", "type" : "", "begin" : 16, "end" : 18}
	],
	"NE" : [
		{"id" : 0, "text" : "파피루스", "type" : "PT_GRASS", "begin" : 0, "end" : 0, "weight" : 0.112213, "common_noun" : 0},
		{"id" : 1, "text" : "Cyperus papyrus", "type" : "PT_GRASS", "begin" : 5, "end" : 6, "weight" : 0.112213, "common_noun" : 0},
		{"id" : 2, "text" : "2~3m", "type" : "QT_LENGTH", "begin" : 9, "end" : 12, "weight" : 0.679944, "common_noun" : 0}
	],
	"chunk" : [
	],
	"dependency" : [
		{"id" : 0, "text" : "파피루스", "head" : 1, "label" : "NP", "mod" : [], "weight" : 0.701093 },
		{"id" : 1, "text" : "식물의", "head" : 2, "label" : "NP_MOD", "mod" : [0], "weight" : 0.853847 },
		{"id" : 2, "text" : "학명은", "head" : 4, "label" : "NP_SBJ", "mod" : [1], "weight" : 0.72522 },
		{"id" : 3, "text" : "Cyperus", "head" : 4, "label" : "NP", "mod" : [], "weight" : 0.98093 },
		{"id" : 4, "text" : "papyrus으로서", "head" : 8, "label" : "NP_AJT", "mod" : [2, 3], "weight" : 0.445011 },
		{"id" : 5, "text" : "보통", "head" : 6, "label" : "AP", "mod" : [], "weight" : 0.636075 },
		{"id" : 6, "text" : "2~3m의", "head" : 7, "label" : "NP_MOD", "mod" : [5], "weight" : 0.76813 },
		{"id" : 7, "text" : "크기로", "head" : 8, "label" : "NP_AJT", "mod" : [6], "weight" : 0.532008 },
		{"id" : 8, "text" : "자란다.", "head" : -1, "label" : "VP", "mod" : [4, 7], "weight" : 0.362775 }
	],
	"SRL" : [
		{"verb" : "자라", "sense" : 1, "word_id" : 8, "weight" : 0.946706,
			"argument" : [
				{"type" : "ARG2", "word_id" : 7, "text" : "크기로", "weight" : 0.600497 }
			] }
	],
	"relation" : [
	],
	"SA" : [
	],
	"ZA" : [
	]
	},
	{
	"id" : 2,
	"reserve_str" : "",
	"text" : "나일강 삼각주에는 이 식물이 풍성하기 때문에 고대 이집트인들이 최소한 초대 왕조 이전에 발명했다.",
	"morp" : [
		{"id" : 0, "lemma" : "나일강", "type" : "NNP", "position" : 273, "weight" : 1 },
		{"id" : 1, "lemma" : "삼각", "type" : "NNG", "position" : 283, "weight" : 1 },
		{"id" : 2, "lemma" : "주", "type" : "NNG", "position" : 289, "weight" : 1 },
		{"id" : 3, "lemma" : "에", "type" : "JKB", "position" : 292, "weight" : 1 },
		{"id" : 4, "lemma" : "는", "type" : "JX", "position" : 295, "weight" : 1 },
		{"id" : 5, "lemma" : "이", "type" : "MM", "position" : 299, "weight" : 1 },
		{"id" : 6, "lemma" : "식물", "type" : "NNG", "position" : 303, "weight" : 1 },
		{"id" : 7, "lemma" : "이", "type" : "JKS", "position" : 309, "weight" : 1 },
		{"id" : 8, "lemma" : "풍성", "type" : "NNG", "position" : 313, "weight" : 1 },
		{"id" : 9, "lemma" : "하", "type" : "XSA", "position" : 319, "weight" : 1 },
		{"id" : 10, "lemma" : "기", "type" : "ETN", "position" : 322, "weight" : 1 },
		{"id" : 11, "lemma" : "때문", "type" : "NNB", "position" : 326, "weight" : 1 },
		{"id" : 12, "lemma" : "에", "type" : "JKB", "position" : 332, "weight" : 1 },
		{"id" : 13, "lemma" : "고대", "type" : "NNG", "position" : 336, "weight" : 1 },
		{"id" : 14, "lemma" : "이집트", "type" : "NNG", "position" : 343, "weight" : 1 },
		{"id" : 15, "lemma" : "인", "type" : "XSN", "position" : 343, "weight" : 1 },
		{"id" : 16, "lemma" : "들", "type" : "XSN", "position" : 355, "weight" : 1 },
		{"id" : 17, "lemma" : "이", "type" : "JKS", "position" : 358, "weight" : 1 },
		{"id" : 18, "lemma" : "최소한", "type" : "MAG", "position" : 362, "weight" : 1 },
		{"id" : 19, "lemma" : "초대", "type" : "NNG", "position" : 372, "weight" : 1 },
		{"id" : 20, "lemma" : "왕조", "type" : "NNG", "position" : 379, "weight" : 1 },
		{"id" : 21, "lemma" : "이전", "type" : "NNG", "position" : 386, "weight" : 1 },
		{"id" : 22, "lemma" : "에", "type" : "JKB", "position" : 392, "weight" : 1 },
		{"id" : 23, "lemma" : "발명", "type" : "NNG", "position" : 396, "weight" : 1 },
		{"id" : 24, "lemma" : "하", "type" : "XSV", "position" : 402, "weight" : 1 },
		{"id" : 25, "lemma" : "았", "type" : "EP", "position" : 402, "weight" : 1 },
		{"id" : 26, "lemma" : "다", "type" : "EF", "position" : 405, "weight" : 1 },
		{"id" : 27, "lemma" : ".", "type" : "SF", "position" : 408, "weight" : 1 }
	],
	"morp_eval" : [
	],
	"WSD" : [
	],
	"word" : [
		{"id" : 0, "text" : "나일강", "type" : "", "begin" : 0, "end" : 0},
		{"id" : 1, "text" : "삼각주에는", "type" : "", "begin" : 1, "end" : 4},
		{"id" : 2, "text" : "이", "type" : "", "begin" : 5, "end" : 5},
		{"id" : 3, "text" : "식물이", "type" : "", "begin" : 6, "end" : 7},
		{"id" : 4, "text" : "풍성하기", "type" : "", "begin" : 8, "end" : 10},
		{"id" : 5, "text" : "때문에", "type" : "", "begin" : 11, "end" : 12},
		{"id" : 6, "text" : "고대", "type" : "", "begin" : 13, "end" : 13},
		{"id" : 7, "text" : "이집트인들이", "type" : "", "begin" : 14, "end" : 17},
		{"id" : 8, "text" : "최소한", "type" : "", "begin" : 18, "end" : 18},
		{"id" : 9, "text" : "초대", "type" : "", "begin" : 19, "end" : 19},
		{"id" : 10, "text" : "왕조", "type" : "", "begin" : 20, "end" : 20},
		{"id" : 11, "text" : "이전에", "type" : "", "begin" : 21, "end" : 22},
		{"id" : 12, "text" : "발명했다.", "type" : "", "begin" : 23, "end" : 27}
	],
	"NE" : [
		{"id" : 0, "text" : "나일강 삼각주", "type" : "LC_OTHERS", "begin" : 0, "end" : 2, "weight" : 0.208983, "common_noun" : 0},
		{"id" : 1, "text" : "고대", "type" : "DT_OTHERS", "begin" : 13, "end" : 13, "weight" : 0.415014, "common_noun" : 0},
		{"id" : 2, "text" : "이집트인", "type" : "CV_TRIBE", "begin" : 14, "end" : 15, "weight" : 0.121936, "common_noun" : 0}
	],
	"chunk" : [
	],
	"dependency" : [
		{"id" : 0, "text" : "나일강", "head" : 1, "label" : "NP", "mod" : [], "weight" : 0.801187 },
		{"id" : 1, "text" : "삼각주에는", "head" : 4, "label" : "NP_AJT", "mod" : [0], "weight" : 0.618224 },
		{"id" : 2, "text" : "이", "head" : 3, "label" : "DP", "mod" : [], "weight" : 0.726567 },
		{"id" : 3, "text" : "식물이", "head" : 4, "label" : "NP_SBJ", "mod" : [2], "weight" : 0.94858 },
		{"id" : 4, "text" : "풍성하기", "head" : 5, "label" : "VP", "mod" : [1, 3], "weight" : 0.781051 },
		{"id" : 5, "text" : "때문에", "head" : 12, "label" : "NP_AJT", "mod" : [4], "weight" : 0.771822 },
		{"id" : 6, "text" : "고대", "head" : 7, "label" : "NP", "mod" : [], "weight" : 0.776425 },
		{"id" : 7, "text" : "이집트인들이", "head" : 12, "label" : "NP_SBJ", "mod" : [6], "weight" : 0.673491 },
		{"id" : 8, "text" : "최소한", "head" : 11, "label" : "AP", "mod" : [], "weight" : 0.57924 },
		{"id" : 9, "text" : "초대", "head" : 10, "label" : "NP", "mod" : [], "weight" : 0.618236 },
		{"id" : 10, "text" : "왕조", "head" : 11, "label" : "NP", "mod" : [9], "weight" : 0.936516 },
		{"id" : 11, "text" : "이전에", "head" : 12, "label" : "NP_AJT", "mod" : [8, 10], "weight" : 0.580637 },
		{"id" : 12, "text" : "발명했다.", "head" : -1, "label" : "VP", "mod" : [5, 7, 11], "weight" : 0.149275 }
	],
	"SRL" : [
		{"verb" : "풍성", "sense" : 1, "word_id" : 4, "weight" : 0.119018,
			"argument" : [
				{"type" : "ARG1", "word_id" : 3, "text" : "식물이", "weight" : 0.119018 },
				{"type" : "ARGM-LOC", "word_id" : 1, "text" : "삼각주에는", "weight" : 0 }
			] },
		{"verb" : "발명", "sense" : 1, "word_id" : 12, "weight" : 0.975938,
			"argument" : [
				{"type" : "ARGM-CAU", "word_id" : 5, "text" : "때문에", "weight" : 0.116107 },
				{"type" : "ARG0", "word_id" : 7, "text" : "이집트인들이", "weight" : 0.110336 },
				{"type" : "ARGM-TMP", "word_id" : 11, "text" : "이전에", "weight" : 0.66338 }
			] }
	],
	"relation" : [
	],
	"SA" : [
	],
	"ZA" : [
	]
	},
	{
	"id" : 3,
	"reserve_str" : "",
	"text" : "이 파피루스를 매개로 한 고대의 문서로 책의 이전 형태인 코덱스를 만들었기 때문에, 이러한 고대의 문서들도 파피루스라 부른다.",
	"morp" : [
		{"id" : 0, "lemma" : "이", "type" : "MM", "position" : 410, "weight" : 0.0585472 },
		{"id" : 1, "lemma" : "파피루스", "type" : "NNG", "position" : 414, "weight" : 0.764637 },
		{"id" : 2, "lemma" : "를", "type" : "JKO", "position" : 426, "weight" : 1 },
		{"id" : 3, "lemma" : "매개", "type" : "NNG", "position" : 430, "weight" : 0.529274 },
		{"id" : 4, "lemma" : "로", "type" : "JKB", "position" : 436, "weight" : 1 },
		{"id" : 5, "lemma" : "하", "type" : "VV", "position" : 440, "weight" : 0.0585472 },
		{"id" : 6, "lemma" : "ㄴ", "type" : "ETM", "position" : 440, "weight" : 1 },
		{"id" : 7, "lemma" : "고대", "type" : "NNG", "position" : 444, "weight" : 0.529274 },
		{"id" : 8, "lemma" : "의", "type" : "JKG", "position" : 450, "weight" : 1 },
		{"id" : 9, "lemma" : "문서", "type" : "NNG", "position" : 454, "weight" : 0.529274 },
		{"id" : 10, "lemma" : "로", "type" : "JKB", "position" : 460, "weight" : 1 },
		{"id" : 11, "lemma" : "책", "type" : "NNG", "position" : 464, "weight" : 0.0585472 },
		{"id" : 12, "lemma" : "의", "type" : "JKG", "position" : 467, "weight" : 1 },
		{"id" : 13, "lemma" : "이전", "type" : "NNG", "position" : 471, "weight" : 0.529274 },
		{"id" : 14, "lemma" : "형태", "type" : "NNG", "position" : 478, "weight" : 0.529274 },
		{"id" : 15, "lemma" : "이", "type" : "VCP", "position" : 484, "weight" : 1 },
		{"id" : 16, "lemma" : "ㄴ", "type" : "ETM", "position" : 484, "weight" : 1 },
		{"id" : 17, "lemma" : "코덱스", "type" : "NNG", "position" : 488, "weight" : 0.686182 },
		{"id" : 18, "lemma" : "를", "type" : "JKO", "position" : 497, "weight" : 1 },
		{"id" : 19, "lemma" : "만들", "type" : "VV", "position" : 501, "weight" : 0.529274 },
		{"id" : 20, "lemma" : "었", "type" : "EP", "position" : 507, "weight" : 1 },
		{"id" : 21, "lemma" : "기", "type" : "ETN", "position" : 510, "weight" : 1 },
		{"id" : 22, "lemma" : "때문", "type" : "NNB", "position" : 514, "weight" : 0.529274 },
		{"id" : 23, "lemma" : "에", "type" : "JKB", "position" : 520, "weight" : 1 },
		{"id" : 24, "lemma" : ",", "type" : "SP", "position" : 523, "weight" : 1 },
		{"id" : 25, "lemma" : "이러", "type" : "XR", "position" : 525, "weight" : 0.529274 },
		{"id" : 26, "lemma" : "하", "type" : "XSA", "position" : 531, "weight" : 1 },
		{"id" : 27, "lemma" : "ㄴ", "type" : "ETM", "position" : 531, "weight" : 1 },
		{"id" : 28, "lemma" : "고대", "type" : "NNG", "position" : 535, "weight" : 0.529274 },
		{"id" : 29, "lemma" : "의", "type" : "JKG", "position" : 541, "weight" : 1 },
		{"id" : 30, "lemma" : "문서", "type" : "NNG", "position" : 545, "weight" : 0.529274 },
		{"id" : 31, "lemma" : "들", "type" : "XSN", "position" : 551, "weight" : 1 },
		{"id" : 32, "lemma" : "도", "type" : "JX", "position" : 554, "weight" : 1 },
		{"id" : 33, "lemma" : "파피루스", "type" : "NNG", "position" : 558, "weight" : 0.811709 },
		{"id" : 34, "lemma" : "라", "type" : "JKQ", "position" : 558, "weight" : 0.811709 },
		{"id" : 35, "lemma" : "부르", "type" : "VV", "position" : 574, "weight" : 0.529274 },
		{"id" : 36, "lemma" : "ㄴ다", "type" : "EF", "position" : 577, "weight" : 1 },
		{"id" : 37, "lemma" : ".", "type" : "SF", "position" : 583, "weight" : 1 }
	],
	"morp_eval" : [
	],
	"WSD" : [
	],
	"word" : [
		{"id" : 0, "text" : "이", "type" : "", "begin" : 0, "end" : 0},
		{"id" : 1, "text" : "파피루스를", "type" : "", "begin" : 1, "end" : 2},
		{"id" : 2, "text" : "매개로", "type" : "", "begin" : 3, "end" : 4},
		{"id" : 3, "text" : "한", "type" : "", "begin" : 5, "end" : 6},
		{"id" : 4, "text" : "고대의", "type" : "", "begin" : 7, "end" : 8},
		{"id" : 5, "text" : "문서로", "type" : "", "begin" : 9, "end" : 10},
		{"id" : 6, "text" : "책의", "type" : "", "begin" : 11, "end" : 12},
		{"id" : 7, "text" : "이전", "type" : "", "begin" : 13, "end" : 13},
		{"id" : 8, "text" : "형태인", "type" : "", "begin" : 14, "end" : 16},
		{"id" : 9, "text" : "코덱스를", "type" : "", "begin" : 17, "end" : 18},
		{"id" : 10, "text" : "만들었기", "type" : "", "begin" : 19, "end" : 21},
		{"id" : 11, "text" : "때문에,", "type" : "", "begin" : 22, "end" : 24},
		{"id" : 12, "text" : "이러한", "type" : "", "begin" : 25, "end" : 27},
		{"id" : 13, "text" : "고대의", "type" : "", "begin" : 28, "end" : 29},
		{"id" : 14, "text" : "문서들도", "type" : "", "begin" : 30, "end" : 32},
		{"id" : 15, "text" : "파피루스라", "type" : "", "begin" : 33, "end" : 34},
		{"id" : 16, "text" : "부른다.", "type" : "", "begin" : 35, "end" : 37}
	],
	"NE" : [
		{"id" : 0, "text" : "고대", "type" : "DT_OTHERS", "begin" : 7, "end" : 7, "weight" : 0.231638, "common_noun" : 0},
		{"id" : 1, "text" : "고대", "type" : "DT_OTHERS", "begin" : 28, "end" : 28, "weight" : 0.304455, "common_noun" : 0}
	],
	"chunk" : [
	],
	"dependency" : [
		{"id" : 0, "text" : "이", "head" : 1, "label" : "DP", "mod" : [], "weight" : 0.690218 },
		{"id" : 1, "text" : "파피루스를", "head" : 3, "label" : "NP_OBJ", "mod" : [0], "weight" : 0.679776 },
		{"id" : 2, "text" : "매개로", "head" : 3, "label" : "NP_AJT", "mod" : [], "weight" : 0.896521 },
		{"id" : 3, "text" : "한", "head" : 5, "label" : "VP_MOD", "mod" : [1, 2], "weight" : 0.799529 },
		{"id" : 4, "text" : "고대의", "head" : 5, "label" : "NP_MOD", "mod" : [], "weight" : 0.896713 },
		{"id" : 5, "text" : "문서로", "head" : 10, "label" : "NP_AJT", "mod" : [3, 4], "weight" : 0.635771 },
		{"id" : 6, "text" : "책의", "head" : 8, "label" : "NP_MOD", "mod" : [], "weight" : 0.648969 },
		{"id" : 7, "text" : "이전", "head" : 8, "label" : "NP", "mod" : [], "weight" : 0.710274 },
		{"id" : 8, "text" : "형태인", "head" : 9, "label" : "VNP_MOD", "mod" : [6, 7], "weight" : 0.675819 },
		{"id" : 9, "text" : "코덱스를", "head" : 10, "label" : "NP_OBJ", "mod" : [8], "weight" : 0.955706 },
		{"id" : 10, "text" : "만들었기", "head" : 11, "label" : "VP", "mod" : [5, 9], "weight" : 0.774512 },
		{"id" : 11, "text" : "때문에,", "head" : 16, "label" : "NP_AJT", "mod" : [10], "weight" : 0.743513 },
		{"id" : 12, "text" : "이러한", "head" : 14, "label" : "VP_MOD", "mod" : [], "weight" : 0.847866 },
		{"id" : 13, "text" : "고대의", "head" : 14, "label" : "NP_MOD", "mod" : [], "weight" : 0.988444 },
		{"id" : 14, "text" : "문서들도", "head" : 16, "label" : "NP_OBJ", "mod" : [12, 13], "weight" : 0.634614 },
		{"id" : 15, "text" : "파피루스라", "head" : 16, "label" : "NP_CMP", "mod" : [], "weight" : 0.291321 },
		{"id" : 16, "text" : "부른다.", "head" : -1, "label" : "VP", "mod" : [11, 14, 15], "weight" : 0.390668 }
	],
	"SRL" : [
		{"verb" : "하", "sense" : 3, "word_id" : 3, "weight" : 0.168154,
			"argument" : [
				{"type" : "ARG1", "word_id" : 1, "text" : "파피루스를", "weight" : 0.179428 },
				{"type" : "ARG2", "word_id" : 2, "text" : "매개로", "weight" : 0.133259 },
				{"type" : "ARG0", "word_id" : 5, "text" : "문서로", "weight" : 0.191776 }
			] },
		{"verb" : "만들", "sense" : 1, "word_id" : 10, "weight" : 0.138225,
			"argument" : [
				{"type" : "ARGM-INS", "word_id" : 5, "text" : "문서로", "weight" : 0.821289 },
				{"type" : "ARG1", "word_id" : 9, "text" : "코덱스를", "weight" : 0.194322 }
			] },
		{"verb" : "이러", "sense" : 1, "word_id" : 12, "weight" : 0.199678,
			"argument" : [
				{"type" : "ARG1", "word_id" : 14, "text" : "문서들도", "weight" : 0.199678 }
			] },
		{"verb" : "부르", "sense" : 1, "word_id" : 16, "weight" : 0.113764,
			"argument" : [
				{"type" : "ARG1", "word_id" : 14, "text" : "문서들도", "weight" : 0.113607 },
				{"type" : "ARG2", "word_id" : 15, "text" : "파피루스라", "weight" : 0.113921 },
				{"type" : "ARGM-CAU", "word_id" : 11, "text" : "때문에,", "weight" : 0 }
			] }
	],
	"relation" : [
	],
	"SA" : [
	],
	"ZA" : [
	]
	},
	{
	"id" : 4,
	"reserve_str" : "",
	"text" : "Papyrus라는 단어는 영어 단어 paper의 어원이 되었다.",
	"morp" : [
		{"id" : 0, "lemma" : "Papyrus", "type" : "SL", "position" : 585, "weight" : 1 },
		{"id" : 1, "lemma" : "이", "type" : "VCP", "position" : 585, "weight" : 1 },
		{"id" : 2, "lemma" : "라는", "type" : "ETM", "position" : 593, "weight" : 1 },
		{"id" : 3, "lemma" : "단어", "type" : "NNG", "position" : 600, "weight" : 1 },
		{"id" : 4, "lemma" : "는", "type" : "JX", "position" : 606, "weight" : 1 },
		{"id" : 5, "lemma" : "영어", "type" : "NNP", "position" : 610, "weight" : 1 },
		{"id" : 6, "lemma" : "단어", "type" : "NNG", "position" : 617, "weight" : 1 },
		{"id" : 7, "lemma" : "paper", "type" : "SL", "position" : 624, "weight" : 1 },
		{"id" : 8, "lemma" : "의", "type" : "JKG", "position" : 629, "weight" : 1 },
		{"id" : 9, "lemma" : "어원", "type" : "NNG", "position" : 633, "weight" : 1 },
		{"id" : 10, "lemma" : "이", "type" : "JKC", "position" : 639, "weight" : 1 },
		{"id" : 11, "lemma" : "되", "type" : "VV", "position" : 643, "weight" : 1 },
		{"id" : 12, "lemma" : "었", "type" : "EP", "position" : 646, "weight" : 1 },
		{"id" : 13, "lemma" : "다", "type" : "EF", "position" : 649, "weight" : 1 },
		{"id" : 14, "lemma" : ".", "type" : "SF", "position" : 652, "weight" : 1 }
	],
	"morp_eval" : [
	],
	"WSD" : [
	],
	"word" : [
		{"id" : 0, "text" : "Papyrus라는", "type" : "", "begin" : 0, "end" : 2},
		{"id" : 1, "text" : "단어는", "type" : "", "begin" : 3, "end" : 4},
		{"id" : 2, "text" : "영어", "type" : "", "begin" : 5, "end" : 5},
		{"id" : 3, "text" : "단어", "type" : "", "begin" : 6, "end" : 6},
		{"id" : 4, "text" : "paper의", "type" : "", "begin" : 7, "end" : 8},
		{"id" : 5, "text" : "어원이", "type" : "", "begin" : 9, "end" : 10},
		{"id" : 6, "text" : "되었다.", "type" : "", "begin" : 11, "end" : 14}
	],
	"NE" : [
		{"id" : 0, "text" : "영어", "type" : "CV_LANGUAGE", "begin" : 5, "end" : 5, "weight" : 0.101119, "common_noun" : 0}
	],
	"chunk" : [
	],
	"dependency" : [
		{"id" : 0, "text" : "Papyrus라는", "head" : 1, "label" : "VNP_MOD", "mod" : [], "weight" : 0.81019 },
		{"id" : 1, "text" : "단어는", "head" : 6, "label" : "NP_SBJ", "mod" : [0], "weight" : 0.603607 },
		{"id" : 2, "text" : "영어", "head" : 3, "label" : "NP", "mod" : [], "weight" : 0.697871 },
		{"id" : 3, "text" : "단어", "head" : 4, "label" : "NP", "mod" : [2], "weight" : 0.683818 },
		{"id" : 4, "text" : "paper의", "head" : 5, "label" : "NP_MOD", "mod" : [3], "weight" : 0.722514 },
		{"id" : 5, "text" : "어원이", "head" : 6, "label" : "NP_CMP", "mod" : [4], "weight" : 0.476753 },
		{"id" : 6, "text" : "되었다.", "head" : -1, "label" : "VP", "mod" : [1, 5], "weight" : 0.620215 }
	],
	"SRL" : [
		{"verb" : "되", "sense" : 1, "word_id" : 6, "weight" : 0.178387,
			"argument" : [
				{"type" : "ARG1", "word_id" : 1, "text" : "단어는", "weight" : 0.166774 },
				{"type" : "ARG2", "word_id" : 5, "text" : "어원이", "weight" : 0.190001 }
			] }
	],
	"relation" : [
	],
	"SA" : [
	],
	"ZA" : [
	]
	}
 ],
 "entity" : [
 ]
}

