{"doc_id" : "E2014.206_A_01",
 "DCT" : "",
 "category" : "",
 "category_weight" : 0,
 "title" : {"text" : "", "NE" : ""},
 "metaInfo" : { },
 "sentence" : [
	{
	"id" : 0,
	"reserve_str" : "",
	"text" : " 갈릴레오 호(Galileo)는 미국 항공우주국의 목성 탐사선이다.",
	"morp" : [
		{"id" : 0, "lemma" : "갈릴레오", "type" : "NNP", "position" : 1, "weight" : 1 },
		{"id" : 1, "lemma" : "호", "type" : "XSN", "position" : 14, "weight" : 1 },
		{"id" : 2, "lemma" : "(", "type" : "SS", "position" : 17, "weight" : 1 },
		{"id" : 3, "lemma" : "Galileo", "type" : "SL", "position" : 18, "weight" : 0.861269 },
		{"id" : 4, "lemma" : ")", "type" : "SS", "position" : 25, "weight" : 1 },
		{"id" : 5, "lemma" : "는", "type" : "JX", "position" : 26, "weight" : 1 },
		{"id" : 6, "lemma" : "미국", "type" : "NNP", "position" : 30, "weight" : 1 },
		{"id" : 7, "lemma" : "항공", "type" : "NNG", "position" : 37, "weight" : 1 },
		{"id" : 8, "lemma" : "우주", "type" : "NNG", "position" : 43, "weight" : 0.676295 },
		{"id" : 9, "lemma" : "국", "type" : "XSN", "position" : 43, "weight" : 0.676295 },
		{"id" : 10, "lemma" : "의", "type" : "JKG", "position" : 52, "weight" : 1 },
		{"id" : 11, "lemma" : "목성", "type" : "NNP", "position" : 56, "weight" : 1 },
		{"id" : 12, "lemma" : "탐사", "type" : "NNG", "position" : 63, "weight" : 1 },
		{"id" : 13, "lemma" : "선", "type" : "XSN", "position" : 69, "weight" : 1 },
		{"id" : 14, "lemma" : "이", "type" : "VCP", "position" : 72, "weight" : 1 },
		{"id" : 15, "lemma" : "다", "type" : "EF", "position" : 75, "weight" : 0.0288863 },
		{"id" : 16, "lemma" : ".", "type" : "SF", "position" : 78, "weight" : 1 }
	],
	"morp_eval" : [
	],
	"WSD" : [
	],
	"word" : [
		{"id" : 0, "text" : "갈릴레오", "type" : "", "begin" : 0, "end" : 0},
		{"id" : 1, "text" : "호(Galileo)는", "type" : "", "begin" : 1, "end" : 5},
		{"id" : 2, "text" : "미국", "type" : "", "begin" : 6, "end" : 6},
		{"id" : 3, "text" : "항공우주국의", "type" : "", "begin" : 7, "end" : 10},
		{"id" : 4, "text" : "목성", "type" : "", "begin" : 11, "end" : 11},
		{"id" : 5, "text" : "탐사선이다.", "type" : "", "begin" : 12, "end" : 16}
	],
	"NE" : [
		{"id" : 0, "text" : "갈릴레오 호", "type" : "AF_TRANSPORT", "begin" : 0, "end" : 1, "weight" : 0.0902559, "common_noun" : 0},
		{"id" : 1, "text" : "Galileo", "type" : "PS_NAME", "begin" : 3, "end" : 3, "weight" : 0.13504, "common_noun" : 0},
		{"id" : 2, "text" : "미국 항공우주국", "type" : "OGG_SCIENCE", "begin" : 6, "end" : 9, "weight" : 0.398766, "common_noun" : 0},
		{"id" : 4, "text" : "목성", "type" : "LC_SPACE", "begin" : 11, "end" : 11, "weight" : 0.24577, "common_noun" : 0},
		{"id" : 5, "text" : "탐사선", "type" : "AF_TRANSPORT", "begin" : 12, "end" : 13, "weight" : 0.24577, "common_noun" : 0}
	],
	"chunk" : [
	],
	"dependency" : [
		{"id" : 0, "text" : "갈릴레오", "head" : 1, "label" : "NP", "mod" : [], "weight" : 0.875728 },
		{"id" : 1, "text" : "호(Galileo)는", "head" : 5, "label" : "NP_SBJ", "mod" : [0], "weight" : 0.771521 },
		{"id" : 2, "text" : "미국", "head" : 3, "label" : "NP", "mod" : [], "weight" : 0.989011 },
		{"id" : 3, "text" : "항공우주국의", "head" : 5, "label" : "NP_MOD", "mod" : [2], "weight" : 0.491347 },
		{"id" : 4, "text" : "목성", "head" : 5, "label" : "NP", "mod" : [], "weight" : 0.387239 },
		{"id" : 5, "text" : "탐사선이다.", "head" : -1, "label" : "VNP", "mod" : [1, 3, 4], "weight" : 0.944658 }
	],
	"SRL" : [
	],
	"relation" : [
	],
	"SA" : [
	],
	"ZA" : [
	]
	},
	{
	"id" : 1,
	"reserve_str" : "",
	"text" : " 르네상스 시대의 과학자 갈릴레오 갈릴레이의 이름을 땄다.",
	"morp" : [
		{"id" : 0, "lemma" : "르네상스", "type" : "NNG", "position" : 80, "weight" : 1 },
		{"id" : 1, "lemma" : "시대", "type" : "NNG", "position" : 93, "weight" : 1 },
		{"id" : 2, "lemma" : "의", "type" : "JKG", "position" : 99, "weight" : 1 },
		{"id" : 3, "lemma" : "과학", "type" : "NNG", "position" : 103, "weight" : 1 },
		{"id" : 4, "lemma" : "자", "type" : "XSN", "position" : 109, "weight" : 1 },
		{"id" : 5, "lemma" : "갈릴레오", "type" : "NNP", "position" : 113, "weight" : 1 },
		{"id" : 6, "lemma" : "갈릴레이", "type" : "NNP", "position" : 126, "weight" : 1 },
		{"id" : 7, "lemma" : "의", "type" : "JKG", "position" : 138, "weight" : 0.0725206 },
		{"id" : 8, "lemma" : "이름", "type" : "NNG", "position" : 142, "weight" : 1 },
		{"id" : 9, "lemma" : "을", "type" : "JKO", "position" : 148, "weight" : 1 },
		{"id" : 10, "lemma" : "따", "type" : "VV", "position" : 152, "weight" : 1 },
		{"id" : 11, "lemma" : "았", "type" : "EP", "position" : 152, "weight" : 1 },
		{"id" : 12, "lemma" : "다", "type" : "EF", "position" : 155, "weight" : 1 },
		{"id" : 13, "lemma" : ".", "type" : "SF", "position" : 158, "weight" : 1 }
	],
	"morp_eval" : [
	],
	"WSD" : [
	],
	"word" : [
		{"id" : 0, "text" : "르네상스", "type" : "", "begin" : 0, "end" : 0},
		{"id" : 1, "text" : "시대의", "type" : "", "begin" : 1, "end" : 2},
		{"id" : 2, "text" : "과학자", "type" : "", "begin" : 3, "end" : 4},
		{"id" : 3, "text" : "갈릴레오", "type" : "", "begin" : 5, "end" : 5},
		{"id" : 4, "text" : "갈릴레이의", "type" : "", "begin" : 6, "end" : 7},
		{"id" : 5, "text" : "이름을", "type" : "", "begin" : 8, "end" : 9},
		{"id" : 6, "text" : "땄다.", "type" : "", "begin" : 10, "end" : 13}
	],
	"NE" : [
		{"id" : 0, "text" : "르네상스 시대", "type" : "DT_DYNASTY", "begin" : 0, "end" : 1, "weight" : 0.49277, "common_noun" : 0},
		{"id" : 1, "text" : "과학자", "type" : "CV_OCCUPATION", "begin" : 3, "end" : 4, "weight" : 0.472042, "common_noun" : 0},
		{"id" : 2, "text" : "갈릴레오 갈릴레이", "type" : "PS_NAME", "begin" : 5, "end" : 6, "weight" : 0.153176, "common_noun" : 0}
	],
	"chunk" : [
	],
	"dependency" : [
		{"id" : 0, "text" : "르네상스", "head" : 1, "label" : "NP", "mod" : [], "weight" : 0.78234 },
		{"id" : 1, "text" : "시대의", "head" : 2, "label" : "NP_MOD", "mod" : [0], "weight" : 0.517476 },
		{"id" : 2, "text" : "과학자", "head" : 4, "label" : "NP", "mod" : [1], "weight" : 0.712664 },
		{"id" : 3, "text" : "갈릴레오", "head" : 4, "label" : "NP", "mod" : [], "weight" : 0.73324 },
		{"id" : 4, "text" : "갈릴레이의", "head" : 5, "label" : "NP_MOD", "mod" : [2, 3], "weight" : 0.819116 },
		{"id" : 5, "text" : "이름을", "head" : 6, "label" : "NP_OBJ", "mod" : [4], "weight" : 0.577855 },
		{"id" : 6, "text" : "땄다.", "head" : -1, "label" : "VP", "mod" : [5], "weight" : 0.793925 }
	],
	"SRL" : [
		{"verb" : "따", "sense" : 2, "word_id" : 6, "weight" : 0.15269,
			"argument" : [
				{"type" : "ARG2", "word_id" : 5, "text" : "이름을", "weight" : 0.15269 }
			] }
	],
	"relation" : [
	],
	"SA" : [
	],
	"ZA" : [
	]
	},
	{
	"id" : 2,
	"reserve_str" : "",
	"text" : " 1989년 10월 18일 아틀란티스 우주왕복선의 STS-34 비행에서 발사되어, 1995년 12월 7일 목성에 도착했다.  ",
	"morp" : [
		{"id" : 0, "lemma" : "1989", "type" : "SN", "position" : 160, "weight" : 1 },
		{"id" : 1, "lemma" : "년", "type" : "NNB", "position" : 164, "weight" : 0.0456266 },
		{"id" : 2, "lemma" : "10", "type" : "SN", "position" : 168, "weight" : 1 },
		{"id" : 3, "lemma" : "월", "type" : "NNB", "position" : 170, "weight" : 1 },
		{"id" : 4, "lemma" : "18", "type" : "SN", "position" : 174, "weight" : 1 },
		{"id" : 5, "lemma" : "일", "type" : "NNB", "position" : 176, "weight" : 1 },
		{"id" : 6, "lemma" : "아틀란티스", "type" : "NNP", "position" : 180, "weight" : 0.809125 },
		{"id" : 7, "lemma" : "우주", "type" : "NNG", "position" : 196, "weight" : 1 },
		{"id" : 8, "lemma" : "왕복", "type" : "NNG", "position" : 202, "weight" : 1 },
		{"id" : 9, "lemma" : "선", "type" : "XSN", "position" : 208, "weight" : 0.0456266 },
		{"id" : 10, "lemma" : "의", "type" : "JKG", "position" : 211, "weight" : 1 },
		{"id" : 11, "lemma" : "STS", "type" : "SL", "position" : 215, "weight" : 1 },
		{"id" : 12, "lemma" : "-", "type" : "SS", "position" : 218, "weight" : 1 },
		{"id" : 13, "lemma" : "34", "type" : "SN", "position" : 219, "weight" : 0.522813 },
		{"id" : 14, "lemma" : "비행", "type" : "NNG", "position" : 222, "weight" : 1 },
		{"id" : 15, "lemma" : "에서", "type" : "JKB", "position" : 228, "weight" : 1 },
		{"id" : 16, "lemma" : "발사", "type" : "NNG", "position" : 235, "weight" : 1 },
		{"id" : 17, "lemma" : "되", "type" : "XSV", "position" : 241, "weight" : 1 },
		{"id" : 18, "lemma" : "어", "type" : "EC", "position" : 244, "weight" : 1 },
		{"id" : 19, "lemma" : ",", "type" : "SP", "position" : 247, "weight" : 0.0456266 },
		{"id" : 20, "lemma" : "1995", "type" : "SN", "position" : 249, "weight" : 1 },
		{"id" : 21, "lemma" : "년", "type" : "NNB", "position" : 253, "weight" : 0.0456266 },
		{"id" : 22, "lemma" : "12", "type" : "SN", "position" : 257, "weight" : 1 },
		{"id" : 23, "lemma" : "월", "type" : "NNB", "position" : 259, "weight" : 1 },
		{"id" : 24, "lemma" : "7", "type" : "SN", "position" : 263, "weight" : 1 },
		{"id" : 25, "lemma" : "일", "type" : "NNB", "position" : 264, "weight" : 1 },
		{"id" : 26, "lemma" : "목성", "type" : "NNP", "position" : 268, "weight" : 1 },
		{"id" : 27, "lemma" : "에", "type" : "JKB", "position" : 274, "weight" : 1 },
		{"id" : 28, "lemma" : "도착", "type" : "NNG", "position" : 278, "weight" : 1 },
		{"id" : 29, "lemma" : "하", "type" : "XSV", "position" : 284, "weight" : 1 },
		{"id" : 30, "lemma" : "았", "type" : "EP", "position" : 284, "weight" : 1 },
		{"id" : 31, "lemma" : "다", "type" : "EF", "position" : 287, "weight" : 0.0456266 },
		{"id" : 32, "lemma" : ".", "type" : "SF", "position" : 290, "weight" : 1 }
	],
	"morp_eval" : [
	],
	"WSD" : [
	],
	"word" : [
		{"id" : 0, "text" : "1989년", "type" : "", "begin" : 0, "end" : 1},
		{"id" : 1, "text" : "10월", "type" : "", "begin" : 2, "end" : 3},
		{"id" : 2, "text" : "18일", "type" : "", "begin" : 4, "end" : 5},
		{"id" : 3, "text" : "아틀란티스", "type" : "", "begin" : 6, "end" : 6},
		{"id" : 4, "text" : "우주왕복선의", "type" : "", "begin" : 7, "end" : 10},
		{"id" : 5, "text" : "STS-34", "type" : "", "begin" : 11, "end" : 13},
		{"id" : 6, "text" : "비행에서", "type" : "", "begin" : 14, "end" : 15},
		{"id" : 7, "text" : "발사되어,", "type" : "", "begin" : 16, "end" : 19},
		{"id" : 8, "text" : "1995년", "type" : "", "begin" : 20, "end" : 21},
		{"id" : 9, "text" : "12월", "type" : "", "begin" : 22, "end" : 23},
		{"id" : 10, "text" : "7일", "type" : "", "begin" : 24, "end" : 25},
		{"id" : 11, "text" : "목성에", "type" : "", "begin" : 26, "end" : 27},
		{"id" : 12, "text" : "도착했다.", "type" : "", "begin" : 28, "end" : 32}
	],
	"NE" : [
		{"id" : 0, "text" : "1989년 10월 18일", "type" : "DT_OTHERS", "begin" : 0, "end" : 5, "weight" : 0.606898, "common_noun" : 0},
		{"id" : 1, "text" : "아틀란티스 우주왕복선", "type" : "AF_TRANSPORT", "begin" : 6, "end" : 9, "weight" : 0.626256, "common_noun" : 0},
		{"id" : 2, "text" : "STS-34", "type" : "TMI_PROJECT", "begin" : 11, "end" : 13, "weight" : 0.0695684, "common_noun" : 0},
		{"id" : 3, "text" : "1995년 12월 7일", "type" : "DT_OTHERS", "begin" : 20, "end" : 25, "weight" : 0.581571, "common_noun" : 0},
		{"id" : 4, "text" : "목성", "type" : "LC_SPACE", "begin" : 26, "end" : 26, "weight" : 0.398512, "common_noun" : 0}
	],
	"chunk" : [
	],
	"dependency" : [
		{"id" : 0, "text" : "1989년", "head" : 1, "label" : "NP", "mod" : [], "weight" : 0.689191 },
		{"id" : 1, "text" : "10월", "head" : 2, "label" : "NP", "mod" : [0], "weight" : 0.912475 },
		{"id" : 2, "text" : "18일", "head" : 7, "label" : "NP_AJT", "mod" : [1], "weight" : 0.852772 },
		{"id" : 3, "text" : "아틀란티스", "head" : 4, "label" : "NP", "mod" : [], "weight" : 0.677218 },
		{"id" : 4, "text" : "우주왕복선의", "head" : 6, "label" : "NP_MOD", "mod" : [3], "weight" : 0.690282 },
		{"id" : 5, "text" : "STS-34", "head" : 6, "label" : "NP", "mod" : [], "weight" : 0.628153 },
		{"id" : 6, "text" : "비행에서", "head" : 7, "label" : "NP_AJT", "mod" : [4, 5], "weight" : 0.665159 },
		{"id" : 7, "text" : "발사되어,", "head" : 12, "label" : "VP", "mod" : [2, 6], "weight" : 0.680331 },
		{"id" : 8, "text" : "1995년", "head" : 9, "label" : "NP", "mod" : [], "weight" : 0.688379 },
		{"id" : 9, "text" : "12월", "head" : 10, "label" : "NP", "mod" : [8], "weight" : 0.955388 },
		{"id" : 10, "text" : "7일", "head" : 12, "label" : "NP_AJT", "mod" : [9], "weight" : 0.506807 },
		{"id" : 11, "text" : "목성에", "head" : 12, "label" : "NP_AJT", "mod" : [], "weight" : 0.528328 },
		{"id" : 12, "text" : "도착했다.", "head" : -1, "label" : "VP", "mod" : [7, 10, 11], "weight" : 0.856131 }
	],
	"SRL" : [
		{"verb" : "발사", "sense" : 1, "word_id" : 7, "weight" : 0.922464,
			"argument" : [
				{"type" : "ARGM-TMP", "word_id" : 2, "text" : "18일", "weight" : 0.111113 },
				{"type" : "ARGM-PRD", "word_id" : 6, "text" : "비행에서", "weight" : 0.733793 }
			] },
		{"verb" : "도착", "sense" : 1, "word_id" : 12, "weight" : 0.104971,
			"argument" : [
				{"type" : "ARGM-TMP", "word_id" : 10, "text" : "7일", "weight" : 0.140477 },
				{"type" : "ARG3", "word_id" : 11, "text" : "목성에", "weight" : 0.914847 }
			] }
	],
	"relation" : [
	],
	"SA" : [
	],
	"ZA" : [
	]
	}
 ],
 "entity" : [
 ]
}

