{"doc_id" : "E2015.943.017_A_04",
 "DCT" : "",
 "category" : "",
 "category_weight" : 0,
 "title" : {"text" : "", "NE" : ""},
 "metaInfo" : { },
 "sentence" : [
	{
	"id" : 0,
	"reserve_str" : "",
	"text" : "그리스 신화에서는 미의 여신 아프로디테와 그 아들 에로스의 변신으로 되어 있다.",
	"morp" : [
		{"id" : 0, "lemma" : "그리스", "type" : "NNP", "position" : 0, "weight" : 0.0230406 },
		{"id" : 1, "lemma" : "신화", "type" : "NNG", "position" : 10, "weight" : 0.0194945 },
		{"id" : 2, "lemma" : "에서", "type" : "JKB", "position" : 16, "weight" : 0.041937 },
		{"id" : 3, "lemma" : "는", "type" : "JX", "position" : 22, "weight" : 0.0198144 },
		{"id" : 4, "lemma" : "미", "type" : "NNG", "position" : 26, "weight" : 0.0135447 },
		{"id" : 5, "lemma" : "의", "type" : "JKG", "position" : 29, "weight" : 0.0254443 },
		{"id" : 6, "lemma" : "여신", "type" : "NNG", "position" : 33, "weight" : 0.0194945 },
		{"id" : 7, "lemma" : "아프로디테", "type" : "NNP", "position" : 40, "weight" : 0.0285355 },
		{"id" : 8, "lemma" : "와", "type" : "JC", "position" : 55, "weight" : 0.0432894 },
		{"id" : 9, "lemma" : "그", "type" : "MM", "position" : 59, "weight" : 0.0135447 },
		{"id" : 10, "lemma" : "아들", "type" : "NNG", "position" : 63, "weight" : 0.0194945 },
		{"id" : 11, "lemma" : "에로스", "type" : "NNP", "position" : 70, "weight" : 0.0230406 },
		{"id" : 12, "lemma" : "의", "type" : "JKG", "position" : 79, "weight" : 0.0537411 },
		{"id" : 13, "lemma" : "변신", "type" : "NNG", "position" : 83, "weight" : 0.0194945 },
		{"id" : 14, "lemma" : "으로", "type" : "JKB", "position" : 89, "weight" : 0.041937 },
		{"id" : 15, "lemma" : "되", "type" : "VV", "position" : 96, "weight" : 0.0135447 },
		{"id" : 16, "lemma" : "어", "type" : "EC", "position" : 99, "weight" : 0.0254443 },
		{"id" : 17, "lemma" : "있", "type" : "VX", "position" : 103, "weight" : 0.0135447 },
		{"id" : 18, "lemma" : "다", "type" : "EF", "position" : 106, "weight" : 0.0254443 },
		{"id" : 19, "lemma" : ".", "type" : "SF", "position" : 109, "weight" : 0.0301328 }
	],
	"morp_eval" : [
	],
	"WSD" : [
	],
	"word" : [
		{"id" : 0, "text" : "그리스", "type" : "", "begin" : 0, "end" : 0},
		{"id" : 1, "text" : "신화에서는", "type" : "", "begin" : 1, "end" : 3},
		{"id" : 2, "text" : "미의", "type" : "", "begin" : 4, "end" : 5},
		{"id" : 3, "text" : "여신", "type" : "", "begin" : 6, "end" : 6},
		{"id" : 4, "text" : "아프로디테와", "type" : "", "begin" : 7, "end" : 8},
		{"id" : 5, "text" : "그", "type" : "", "begin" : 9, "end" : 9},
		{"id" : 6, "text" : "아들", "type" : "", "begin" : 10, "end" : 10},
		{"id" : 7, "text" : "에로스의", "type" : "", "begin" : 11, "end" : 12},
		{"id" : 8, "text" : "변신으로", "type" : "", "begin" : 13, "end" : 14},
		{"id" : 9, "text" : "되어", "type" : "", "begin" : 15, "end" : 16},
		{"id" : 10, "text" : "있다.", "type" : "", "begin" : 17, "end" : 19}
	],
	"NE" : [
		{"id" : 0, "text" : "그리스", "type" : "LCP_COUNTRY", "begin" : 0, "end" : 0, "weight" : 0.426449, "common_noun" : 0},
		{"id" : 1, "text" : "여신", "type" : "CV_POSITION", "begin" : 6, "end" : 6, "weight" : 0.327727, "common_noun" : 0},
		{"id" : 2, "text" : "아프로디테", "type" : "PS_NAME", "begin" : 7, "end" : 7, "weight" : 0.435495, "common_noun" : 0},
		{"id" : 3, "text" : "아들", "type" : "CV_RELATION", "begin" : 10, "end" : 10, "weight" : 0.374964, "common_noun" : 0},
		{"id" : 4, "text" : "에로스", "type" : "PS_NAME", "begin" : 11, "end" : 11, "weight" : 0.40275, "common_noun" : 0}
	],
	"chunk" : [
	],
	"dependency" : [
		{"id" : 0, "text" : "그리스", "head" : 1, "label" : "NP", "mod" : [], "weight" : 0.933102 },
		{"id" : 1, "text" : "신화에서는", "head" : 9, "label" : "NP_AJT", "mod" : [0], "weight" : 0.888119 },
		{"id" : 2, "text" : "미의", "head" : 3, "label" : "NP_MOD", "mod" : [], "weight" : 0.501808 },
		{"id" : 3, "text" : "여신", "head" : 4, "label" : "NP", "mod" : [2], "weight" : 0.686143 },
		{"id" : 4, "text" : "아프로디테와", "head" : 7, "label" : "NP_CNJ", "mod" : [3], "weight" : 0.58767 },
		{"id" : 5, "text" : "그", "head" : 6, "label" : "DP", "mod" : [], "weight" : 0.591278 },
		{"id" : 6, "text" : "아들", "head" : 7, "label" : "NP", "mod" : [5], "weight" : 0.624909 },
		{"id" : 7, "text" : "에로스의", "head" : 8, "label" : "NP_MOD", "mod" : [4, 6], "weight" : 0.734611 },
		{"id" : 8, "text" : "변신으로", "head" : 9, "label" : "NP_AJT", "mod" : [7], "weight" : 0.627056 },
		{"id" : 9, "text" : "되어", "head" : 10, "label" : "VP", "mod" : [1, 8], "weight" : 0.563336 },
		{"id" : 10, "text" : "있다.", "head" : -1, "label" : "VP", "mod" : [9], "weight" : 0.146245 }
	],
	"SRL" : [
		{"verb" : "되", "sense" : 2, "word_id" : 9, "weight" : 0.185729,
			"argument" : [
				{"type" : "ARG2", "word_id" : 8, "text" : "변신으로", "weight" : 0.128499 },
				{"type" : "AUX", "word_id" : 10, "text" : "있다.", "weight" : 0.242958 },
				{"type" : "ARGM-LOC", "word_id" : 1, "text" : "신화에서는", "weight" : 0 }
			] }
	],
	"relation" : [
	],
	"SA" : [
	],
	"ZA" : [
	]
	}
 ],
 "entity" : [
 ]
}

