{"doc_id" : "E2015.947.004_A_01",
 "DCT" : "",
 "category" : "",
 "category_weight" : 0,
 "title" : {"text" : "", "NE" : ""},
 "metaInfo" : { },
 "sentence" : [
	{
	"id" : 0,
	"reserve_str" : "",
	"text" : "1921년 9월 12일 건물수리공을 가장하여 조선총독부 청사에 들어가 비서실에 폭탄을 던진 후 다시 베이징으로 망명하였다.",
	"morp" : [
		{"id" : 0, "lemma" : "1921", "type" : "SN", "position" : 0, "weight" : 1 },
		{"id" : 1, "lemma" : "년", "type" : "NNB", "position" : 4, "weight" : 0.046094 },
		{"id" : 2, "lemma" : "9", "type" : "SN", "position" : 8, "weight" : 1 },
		{"id" : 3, "lemma" : "월", "type" : "NNB", "position" : 9, "weight" : 1 },
		{"id" : 4, "lemma" : "12", "type" : "SN", "position" : 13, "weight" : 1 },
		{"id" : 5, "lemma" : "일", "type" : "NNB", "position" : 15, "weight" : 1 },
		{"id" : 6, "lemma" : "건물", "type" : "NNG", "position" : 19, "weight" : 1 },
		{"id" : 7, "lemma" : "수리공", "type" : "NNG", "position" : 25, "weight" : 0.682031 },
		{"id" : 8, "lemma" : "을", "type" : "JKO", "position" : 34, "weight" : 1 },
		{"id" : 9, "lemma" : "가장", "type" : "NNG", "position" : 38, "weight" : 1 },
		{"id" : 10, "lemma" : "하", "type" : "XSV", "position" : 44, "weight" : 1 },
		{"id" : 11, "lemma" : "여", "type" : "EC", "position" : 47, "weight" : 1 },
		{"id" : 12, "lemma" : "조선", "type" : "NNP", "position" : 51, "weight" : 1 },
		{"id" : 13, "lemma" : "총독부", "type" : "NNG", "position" : 57, "weight" : 0.682031 },
		{"id" : 14, "lemma" : "청사", "type" : "NNG", "position" : 67, "weight" : 1 },
		{"id" : 15, "lemma" : "에", "type" : "JKB", "position" : 73, "weight" : 1 },
		{"id" : 16, "lemma" : "들어가", "type" : "VV", "position" : 77, "weight" : 1 },
		{"id" : 17, "lemma" : "아", "type" : "EC", "position" : 83, "weight" : 1 },
		{"id" : 18, "lemma" : "비서", "type" : "NNG", "position" : 87, "weight" : 1 },
		{"id" : 19, "lemma" : "실", "type" : "XSN", "position" : 93, "weight" : 1 },
		{"id" : 20, "lemma" : "에", "type" : "JKB", "position" : 96, "weight" : 1 },
		{"id" : 21, "lemma" : "폭탄", "type" : "NNG", "position" : 100, "weight" : 1 },
		{"id" : 22, "lemma" : "을", "type" : "JKO", "position" : 106, "weight" : 1 },
		{"id" : 23, "lemma" : "던지", "type" : "VV", "position" : 110, "weight" : 1 },
		{"id" : 24, "lemma" : "ㄴ", "type" : "ETM", "position" : 113, "weight" : 1 },
		{"id" : 25, "lemma" : "후", "type" : "NNG", "position" : 117, "weight" : 1 },
		{"id" : 26, "lemma" : "다시", "type" : "MAG", "position" : 121, "weight" : 1 },
		{"id" : 27, "lemma" : "베이징", "type" : "NNP", "position" : 128, "weight" : 1 },
		{"id" : 28, "lemma" : "으로", "type" : "JKB", "position" : 137, "weight" : 0.523047 },
		{"id" : 29, "lemma" : "망명", "type" : "NNG", "position" : 144, "weight" : 1 },
		{"id" : 30, "lemma" : "하", "type" : "XSV", "position" : 150, "weight" : 1 },
		{"id" : 31, "lemma" : "였", "type" : "EP", "position" : 153, "weight" : 1 },
		{"id" : 32, "lemma" : "다", "type" : "EF", "position" : 156, "weight" : 0.046094 },
		{"id" : 33, "lemma" : ".", "type" : "SF", "position" : 159, "weight" : 1 }
	],
	"morp_eval" : [
	],
	"WSD" : [
	],
	"word" : [
		{"id" : 0, "text" : "1921년", "type" : "", "begin" : 0, "end" : 1},
		{"id" : 1, "text" : "9월", "type" : "", "begin" : 2, "end" : 3},
		{"id" : 2, "text" : "12일", "type" : "", "begin" : 4, "end" : 5},
		{"id" : 3, "text" : "건물수리공을", "type" : "", "begin" : 6, "end" : 8},
		{"id" : 4, "text" : "가장하여", "type" : "", "begin" : 9, "end" : 11},
		{"id" : 5, "text" : "조선총독부", "type" : "", "begin" : 12, "end" : 13},
		{"id" : 6, "text" : "청사에", "type" : "", "begin" : 14, "end" : 15},
		{"id" : 7, "text" : "들어가", "type" : "", "begin" : 16, "end" : 17},
		{"id" : 8, "text" : "비서실에", "type" : "", "begin" : 18, "end" : 20},
		{"id" : 9, "text" : "폭탄을", "type" : "", "begin" : 21, "end" : 22},
		{"id" : 10, "text" : "던진", "type" : "", "begin" : 23, "end" : 24},
		{"id" : 11, "text" : "후", "type" : "", "begin" : 25, "end" : 25},
		{"id" : 12, "text" : "다시", "type" : "", "begin" : 26, "end" : 26},
		{"id" : 13, "text" : "베이징으로", "type" : "", "begin" : 27, "end" : 28},
		{"id" : 14, "text" : "망명하였다.", "type" : "", "begin" : 29, "end" : 33}
	],
	"NE" : [
		{"id" : 0, "text" : "1921년 9월 12일", "type" : "DT_OTHERS", "begin" : 0, "end" : 5, "weight" : 0.248676, "common_noun" : 0},
		{"id" : 1, "text" : "건물수리공", "type" : "CV_OCCUPATION", "begin" : 6, "end" : 7, "weight" : 0.248676, "common_noun" : 0},
		{"id" : 2, "text" : "조선총독부", "type" : "OGG_POLITICS", "begin" : 12, "end" : 13, "weight" : 0.424548, "common_noun" : 0},
		{"id" : 3, "text" : "청사", "type" : "OGG_POLITICS", "begin" : 14, "end" : 14, "weight" : 0.424548, "common_noun" : 0},
		{"id" : 4, "text" : "비서실", "type" : "OGG_POLITICS", "begin" : 18, "end" : 19, "weight" : 0.424548, "common_noun" : 0},
		{"id" : 5, "text" : "폭탄", "type" : "AF_WEAPON", "begin" : 21, "end" : 21, "weight" : 0.142081, "common_noun" : 0},
		{"id" : 6, "text" : "베이징", "type" : "LCP_CAPITALCITY", "begin" : 27, "end" : 27, "weight" : 0.42868, "common_noun" : 0}
	],
	"chunk" : [
	],
	"dependency" : [
		{"id" : 0, "text" : "1921년", "head" : 1, "label" : "NP", "mod" : [], "weight" : 0.706649 },
		{"id" : 1, "text" : "9월", "head" : 2, "label" : "NP", "mod" : [0], "weight" : 0.763758 },
		{"id" : 2, "text" : "12일", "head" : 4, "label" : "NP_AJT", "mod" : [1], "weight" : 0.848461 },
		{"id" : 3, "text" : "건물수리공을", "head" : 4, "label" : "NP_OBJ", "mod" : [], "weight" : 0.904695 },
		{"id" : 4, "text" : "가장하여", "head" : 7, "label" : "VP", "mod" : [2, 3], "weight" : 0.636558 },
		{"id" : 5, "text" : "조선총독부", "head" : 6, "label" : "NP", "mod" : [], "weight" : 0.740423 },
		{"id" : 6, "text" : "청사에", "head" : 7, "label" : "NP_AJT", "mod" : [5], "weight" : 0.987886 },
		{"id" : 7, "text" : "들어가", "head" : 10, "label" : "VP", "mod" : [4, 6], "weight" : 0.695729 },
		{"id" : 8, "text" : "비서실에", "head" : 10, "label" : "NP_AJT", "mod" : [], "weight" : 0.786489 },
		{"id" : 9, "text" : "폭탄을", "head" : 10, "label" : "NP_OBJ", "mod" : [], "weight" : 0.946823 },
		{"id" : 10, "text" : "던진", "head" : 11, "label" : "VP_MOD", "mod" : [7, 8, 9], "weight" : 0.906134 },
		{"id" : 11, "text" : "후", "head" : 14, "label" : "NP_AJT", "mod" : [10], "weight" : 0.53072 },
		{"id" : 12, "text" : "다시", "head" : 14, "label" : "AP", "mod" : [], "weight" : 0.586083 },
		{"id" : 13, "text" : "베이징으로", "head" : 14, "label" : "NP_AJT", "mod" : [], "weight" : 0.554515 },
		{"id" : 14, "text" : "망명하였다.", "head" : -1, "label" : "VP", "mod" : [11, 12, 13], "weight" : 0.111271 }
	],
	"SRL" : [
		{"verb" : "가장", "sense" : 1, "word_id" : 4, "weight" : 0.202272,
			"argument" : [
				{"type" : "ARG2", "word_id" : 3, "text" : "건물수리공을", "weight" : 0.213925 },
				{"type" : "ARGM-TMP", "word_id" : 2, "text" : "12일", "weight" : 1 }
			] },
		{"verb" : "들어가", "sense" : 2, "word_id" : 7, "weight" : 0.953143,
			"argument" : [
				{"type" : "ARG2", "word_id" : 6, "text" : "청사에", "weight" : 0.953143 },
				{"type" : "ARGM-TMP", "word_id" : 2, "text" : "12일", "weight" : 0 },
				{"type" : "ARGM-MNR", "word_id" : 4, "text" : "가장하여", "weight" : 0 }
			] },
		{"verb" : "던지", "sense" : 1, "word_id" : 10, "weight" : 0.122095,
			"argument" : [
				{"type" : "ARG2", "word_id" : 8, "text" : "비서실에", "weight" : 0.893101 },
				{"type" : "ARG1", "word_id" : 9, "text" : "폭탄을", "weight" : 0.154881 }
			] },
		{"verb" : "망명", "sense" : 1, "word_id" : 14, "weight" : 0.105952,
			"argument" : [
				{"type" : "ARGM-TMP", "word_id" : 11, "text" : "후", "weight" : 0.141288 },
				{"type" : "ARGM-ADV", "word_id" : 12, "text" : "다시", "weight" : 0.965485 },
				{"type" : "ARG3", "word_id" : 13, "text" : "베이징으로", "weight" : 0.800213 }
			] }
	],
	"relation" : [
	],
	"SA" : [
	],
	"ZA" : [
	]
	}
 ],
 "entity" : [
 ]
}

