{"doc_id" : "E2015.947.028_A_04",
 "DCT" : "",
 "category" : "",
 "category_weight" : 0,
 "title" : {"text" : "", "NE" : ""},
 "metaInfo" : { },
 "sentence" : [
	{
	"id" : 0,
	"reserve_str" : "",
	"text" : "조선 중기 때 김시습(金時習)이 지은 한문소설.",
	"morp" : [
		{"id" : 0, "lemma" : "조선", "type" : "NNP", "position" : 0, "weight" : 0.0279261 },
		{"id" : 1, "lemma" : "중기", "type" : "NNG", "position" : 7, "weight" : 0.0279261 },
		{"id" : 2, "lemma" : "때", "type" : "NNG", "position" : 14, "weight" : 0.0371064 },
		{"id" : 3, "lemma" : "김시습", "type" : "NNP", "position" : 18, "weight" : 0.0277392 },
		{"id" : 4, "lemma" : "(", "type" : "SS", "position" : 27, "weight" : 0.017926 },
		{"id" : 5, "lemma" : "金時習", "type" : "SH", "position" : 28, "weight" : 0.686512 },
		{"id" : 6, "lemma" : ")", "type" : "SS", "position" : 37, "weight" : 1 },
		{"id" : 7, "lemma" : "이", "type" : "JKS", "position" : 38, "weight" : 1 },
		{"id" : 8, "lemma" : "짓", "type" : "VV", "position" : 42, "weight" : 0.0371064 },
		{"id" : 9, "lemma" : "은", "type" : "ETM", "position" : 45, "weight" : 0.0187459 },
		{"id" : 10, "lemma" : "한문", "type" : "NNG", "position" : 49, "weight" : 0.0279261 },
		{"id" : 11, "lemma" : "소설", "type" : "NNG", "position" : 55, "weight" : 0.0226457 },
		{"id" : 12, "lemma" : ".", "type" : "SF", "position" : 61, "weight" : 0.0595367 }
	],
	"morp_eval" : [
	],
	"WSD" : [
	],
	"word" : [
		{"id" : 0, "text" : "조선", "type" : "", "begin" : 0, "end" : 0},
		{"id" : 1, "text" : "중기", "type" : "", "begin" : 1, "end" : 1},
		{"id" : 2, "text" : "때", "type" : "", "begin" : 2, "end" : 2},
		{"id" : 3, "text" : "김시습(金時習)이", "type" : "", "begin" : 3, "end" : 7},
		{"id" : 4, "text" : "지은", "type" : "", "begin" : 8, "end" : 9},
		{"id" : 5, "text" : "한문소설.", "type" : "", "begin" : 10, "end" : 12}
	],
	"NE" : [
		{"id" : 0, "text" : "조선 중기", "type" : "DT_DYNASTY", "begin" : 0, "end" : 1, "weight" : 0.855421, "common_noun" : 0},
		{"id" : 1, "text" : "김시습", "type" : "PS_NAME", "begin" : 3, "end" : 3, "weight" : 0.432911, "common_noun" : 0},
		{"id" : 2, "text" : "金時習", "type" : "PS_NAME", "begin" : 5, "end" : 5, "weight" : 0.125128, "common_noun" : 0},
		{"id" : 3, "text" : "한문소설", "type" : "FD_ART", "begin" : 10, "end" : 11, "weight" : 0.151537, "common_noun" : 0}
	],
	"chunk" : [
	],
	"dependency" : [
		{"id" : 0, "text" : "조선", "head" : 1, "label" : "NP", "mod" : [], "weight" : 0.75347 },
		{"id" : 1, "text" : "중기", "head" : 2, "label" : "NP", "mod" : [0], "weight" : 0.801674 },
		{"id" : 2, "text" : "때", "head" : 4, "label" : "NP_AJT", "mod" : [1], "weight" : 0.625638 },
		{"id" : 3, "text" : "김시습(金時習)이", "head" : 4, "label" : "NP_SBJ", "mod" : [], "weight" : 0.813443 },
		{"id" : 4, "text" : "지은", "head" : 5, "label" : "VP_MOD", "mod" : [2, 3], "weight" : 0.467592 },
		{"id" : 5, "text" : "한문소설.", "head" : -1, "label" : "NP", "mod" : [4], "weight" : 0.674154 }
	],
	"SRL" : [
		{"verb" : "짓", "sense" : 1, "word_id" : 4, "weight" : 0.214962,
			"argument" : [
				{"type" : "ARGM-TMP", "word_id" : 2, "text" : "때", "weight" : 0.187129 },
				{"type" : "ARG0", "word_id" : 3, "text" : "김시습(金時習)이", "weight" : 0.279669 },
				{"type" : "ARG1", "word_id" : 5, "text" : "한문소설.", "weight" : 0.178087 }
			] }
	],
	"relation" : [
	],
	"SA" : [
	],
	"ZA" : [
	]
	},
	{
	"id" : 1,
	"reserve_str" : "",
	"text" : "원본은 전하지 않고 일본 동경(東京)에서 목판본으로 간행된 그의 소설집 ≪금오신화(金鰲新話)≫에 수록되어 있다.",
	"morp" : [
		{"id" : 0, "lemma" : "원본", "type" : "NNG", "position" : 63, "weight" : 0.0221064 },
		{"id" : 1, "lemma" : "은", "type" : "JX", "position" : 69, "weight" : 0.0396107 },
		{"id" : 2, "lemma" : "전하", "type" : "VV", "position" : 73, "weight" : 0.0221064 },
		{"id" : 3, "lemma" : "지", "type" : "EC", "position" : 79, "weight" : 0.0396107 },
		{"id" : 4, "lemma" : "않", "type" : "VX", "position" : 83, "weight" : 0.0270739 },
		{"id" : 5, "lemma" : "고", "type" : "EC", "position" : 86, "weight" : 0.017139 },
		{"id" : 6, "lemma" : "일본", "type" : "NNP", "position" : 90, "weight" : 0.0221064 },
		{"id" : 7, "lemma" : "동경", "type" : "NNP", "position" : 97, "weight" : 0.0221064 },
		{"id" : 8, "lemma" : "(", "type" : "SS", "position" : 103, "weight" : 0.0396107 },
		{"id" : 9, "lemma" : "東京", "type" : "SH", "position" : 104, "weight" : 0.0210475 },
		{"id" : 10, "lemma" : ")", "type" : "SS", "position" : 110, "weight" : 0.0797004 },
		{"id" : 11, "lemma" : "에서", "type" : "JKB", "position" : 111, "weight" : 0.052389 },
		{"id" : 12, "lemma" : "목판", "type" : "NNG", "position" : 118, "weight" : 0.0221064 },
		{"id" : 13, "lemma" : "본", "type" : "XSN", "position" : 124, "weight" : 0.0396107 },
		{"id" : 14, "lemma" : "으로", "type" : "JKB", "position" : 127, "weight" : 0.0210475 },
		{"id" : 15, "lemma" : "간행", "type" : "NNG", "position" : 134, "weight" : 0.0221064 },
		{"id" : 16, "lemma" : "되", "type" : "XSV", "position" : 140, "weight" : 0.0396107 },
		{"id" : 17, "lemma" : "ㄴ", "type" : "ETM", "position" : 140, "weight" : 0.0232477 },
		{"id" : 18, "lemma" : "그", "type" : "NP", "position" : 144, "weight" : 0.0270739 },
		{"id" : 19, "lemma" : "의", "type" : "JKG", "position" : 147, "weight" : 0.017139 },
		{"id" : 20, "lemma" : "소설", "type" : "NNG", "position" : 151, "weight" : 0.0221064 },
		{"id" : 21, "lemma" : "집", "type" : "XSN", "position" : 157, "weight" : 0.0396107 },
		{"id" : 22, "lemma" : "≪", "type" : "SW", "position" : 161, "weight" : 0.0270739 },
		{"id" : 23, "lemma" : "금오신화", "type" : "NNP", "position" : 164, "weight" : 0.0283749 },
		{"id" : 24, "lemma" : "(", "type" : "SS", "position" : 176, "weight" : 0.0797004 },
		{"id" : 25, "lemma" : "金鰲新話", "type" : "SH", "position" : 177, "weight" : 0.047736 },
		{"id" : 26, "lemma" : ")", "type" : "SS", "position" : 189, "weight" : 0.0421267 },
		{"id" : 27, "lemma" : "≫", "type" : "SW", "position" : 190, "weight" : 0.0482351 },
		{"id" : 28, "lemma" : "에", "type" : "JKB", "position" : 193, "weight" : 1 },
		{"id" : 29, "lemma" : "수록", "type" : "NNG", "position" : 197, "weight" : 0.0221064 },
		{"id" : 30, "lemma" : "되", "type" : "XSV", "position" : 203, "weight" : 0.0396107 },
		{"id" : 31, "lemma" : "어", "type" : "EC", "position" : 206, "weight" : 0.0232477 },
		{"id" : 32, "lemma" : "있", "type" : "VX", "position" : 210, "weight" : 0.0270739 },
		{"id" : 33, "lemma" : "다", "type" : "EF", "position" : 213, "weight" : 0.017139 },
		{"id" : 34, "lemma" : ".", "type" : "SF", "position" : 216, "weight" : 0.0396107 }
	],
	"morp_eval" : [
	],
	"WSD" : [
	],
	"word" : [
		{"id" : 0, "text" : "원본은", "type" : "", "begin" : 0, "end" : 1},
		{"id" : 1, "text" : "전하지", "type" : "", "begin" : 2, "end" : 3},
		{"id" : 2, "text" : "않고", "type" : "", "begin" : 4, "end" : 5},
		{"id" : 3, "text" : "일본", "type" : "", "begin" : 6, "end" : 6},
		{"id" : 4, "text" : "동경(東京)에서", "type" : "", "begin" : 7, "end" : 11},
		{"id" : 5, "text" : "목판본으로", "type" : "", "begin" : 12, "end" : 14},
		{"id" : 6, "text" : "간행된", "type" : "", "begin" : 15, "end" : 17},
		{"id" : 7, "text" : "그의", "type" : "", "begin" : 18, "end" : 19},
		{"id" : 8, "text" : "소설집", "type" : "", "begin" : 20, "end" : 21},
		{"id" : 9, "text" : "≪금오신화(金鰲新話)≫에", "type" : "", "begin" : 22, "end" : 28},
		{"id" : 10, "text" : "수록되어", "type" : "", "begin" : 29, "end" : 31},
		{"id" : 11, "text" : "있다.", "type" : "", "begin" : 32, "end" : 34}
	],
	"NE" : [
		{"id" : 0, "text" : "일본", "type" : "LCP_COUNTRY", "begin" : 6, "end" : 6, "weight" : 0.509492, "common_noun" : 0},
		{"id" : 1, "text" : "동경", "type" : "LCP_CAPITALCITY", "begin" : 7, "end" : 7, "weight" : 0.147534, "common_noun" : 0},
		{"id" : 2, "text" : "東京", "type" : "LCP_CAPITALCITY", "begin" : 9, "end" : 9, "weight" : 0.147703, "common_noun" : 0},
		{"id" : 3, "text" : "소설", "type" : "FD_ART", "begin" : 20, "end" : 20, "weight" : 0.311511, "common_noun" : 0},
		{"id" : 4, "text" : "금오신화", "type" : "AFW_DOCUMENT", "begin" : 23, "end" : 23, "weight" : 0.205032, "common_noun" : 0},
		{"id" : 5, "text" : "金鰲新話", "type" : "AFW_DOCUMENT", "begin" : 25, "end" : 25, "weight" : 0.0748328, "common_noun" : 0}
	],
	"chunk" : [
	],
	"dependency" : [
		{"id" : 0, "text" : "원본은", "head" : 1, "label" : "NP_SBJ", "mod" : [], "weight" : 0.88455 },
		{"id" : 1, "text" : "전하지", "head" : 2, "label" : "VP", "mod" : [0], "weight" : 0.7773 },
		{"id" : 2, "text" : "않고", "head" : 10, "label" : "VP", "mod" : [1], "weight" : 0.775119 },
		{"id" : 3, "text" : "일본", "head" : 4, "label" : "NP", "mod" : [], "weight" : 0.775225 },
		{"id" : 4, "text" : "동경(東京)에서", "head" : 6, "label" : "NP_AJT", "mod" : [3], "weight" : 0.708271 },
		{"id" : 5, "text" : "목판본으로", "head" : 6, "label" : "NP_AJT", "mod" : [], "weight" : 0.811097 },
		{"id" : 6, "text" : "간행된", "head" : 8, "label" : "VP_MOD", "mod" : [4, 5], "weight" : 0.523473 },
		{"id" : 7, "text" : "그의", "head" : 8, "label" : "NP_MOD", "mod" : [], "weight" : 0.632386 },
		{"id" : 8, "text" : "소설집", "head" : 9, "label" : "NP", "mod" : [6, 7], "weight" : 0.754833 },
		{"id" : 9, "text" : "≪금오신화(金鰲新話)≫에", "head" : 10, "label" : "NP_AJT", "mod" : [8], "weight" : 0.627102 },
		{"id" : 10, "text" : "수록되어", "head" : 11, "label" : "VP", "mod" : [2, 9], "weight" : 0.566 },
		{"id" : 11, "text" : "있다.", "head" : -1, "label" : "VP", "mod" : [10], "weight" : 0.186287 }
	],
	"SRL" : [
		{"verb" : "전하", "sense" : 1, "word_id" : 1, "weight" : 0.178242,
			"argument" : [
				{"type" : "ARG1", "word_id" : 0, "text" : "원본은", "weight" : 0.121924 },
				{"type" : "AUX", "word_id" : 2, "text" : "않고", "weight" : 0.23456 }
			] },
		{"verb" : "간행", "sense" : 1, "word_id" : 6, "weight" : 0.80592,
			"argument" : [
				{"type" : "ARGM-LOC", "word_id" : 4, "text" : "동경(東京)에서", "weight" : 0.102239 },
				{"type" : "ARGM-PRD", "word_id" : 5, "text" : "목판본으로", "weight" : 0.589446 },
				{"type" : "ARG1", "word_id" : 9, "text" : "≪금오신화(金鰲新話)≫에", "weight" : 0 }
			] },
		{"verb" : "수록", "sense" : 1, "word_id" : 10, "weight" : 0.189364,
			"argument" : [
				{"type" : "ARG2", "word_id" : 9, "text" : "≪금오신화(金鰲新話)≫에", "weight" : 0.136321 },
				{"type" : "AUX", "word_id" : 11, "text" : "있다.", "weight" : 0.242406 }
			] }
	],
	"relation" : [
	],
	"SA" : [
	],
	"ZA" : [
	]
	},
	{
	"id" : 2,
	"reserve_str" : "",
	"text" : "산 남자와 죽은 여자의 사랑을 그린 애정소설이며, 구조유형상 명혼소설(冥婚小說) 또는 시애소설(屍愛小說)이라고도 한다.",
	"morp" : [
		{"id" : 0, "lemma" : "살", "type" : "VV", "position" : 218, "weight" : 0.0243517 },
		{"id" : 1, "lemma" : "ㄴ", "type" : "ETM", "position" : 218, "weight" : 0.0243517 },
		{"id" : 2, "lemma" : "남자", "type" : "NNG", "position" : 222, "weight" : 0.0318351 },
		{"id" : 3, "lemma" : "와", "type" : "JC", "position" : 228, "weight" : 0.0296442 },
		{"id" : 4, "lemma" : "죽", "type" : "VV", "position" : 232, "weight" : 0.0243517 },
		{"id" : 5, "lemma" : "은", "type" : "ETM", "position" : 235, "weight" : 0.0393185 },
		{"id" : 6, "lemma" : "여자", "type" : "NNG", "position" : 239, "weight" : 0.0318351 },
		{"id" : 7, "lemma" : "의", "type" : "JKG", "position" : 245, "weight" : 0.0296442 },
		{"id" : 8, "lemma" : "사랑", "type" : "NNG", "position" : 249, "weight" : 0.0318351 },
		{"id" : 9, "lemma" : "을", "type" : "JKO", "position" : 255, "weight" : 0.0296442 },
		{"id" : 10, "lemma" : "그리", "type" : "VV", "position" : 259, "weight" : 0.0318351 },
		{"id" : 11, "lemma" : "ㄴ", "type" : "ETM", "position" : 262, "weight" : 0.0296442 },
		{"id" : 12, "lemma" : "애정", "type" : "NNG", "position" : 266, "weight" : 0.0318351 },
		{"id" : 13, "lemma" : "소설", "type" : "NNG", "position" : 272, "weight" : 0.0267283 },
		{"id" : 14, "lemma" : "이", "type" : "VCP", "position" : 278, "weight" : 0.0425594 },
		{"id" : 15, "lemma" : "며", "type" : "EC", "position" : 281, "weight" : 0.0299742 },
		{"id" : 16, "lemma" : ",", "type" : "SP", "position" : 284, "weight" : 0.0365845 },
		{"id" : 17, "lemma" : "구조", "type" : "NNG", "position" : 286, "weight" : 0.0318351 },
		{"id" : 18, "lemma" : "유형", "type" : "NNG", "position" : 292, "weight" : 0.0267283 },
		{"id" : 19, "lemma" : "상", "type" : "XSN", "position" : 298, "weight" : 0.0425594 },
		{"id" : 20, "lemma" : "명혼", "type" : "NNG", "position" : 302, "weight" : 0.0318351 },
		{"id" : 21, "lemma" : "소설", "type" : "NNG", "position" : 308, "weight" : 0.0267283 },
		{"id" : 22, "lemma" : "(", "type" : "SS", "position" : 314, "weight" : 0.0425594 },
		{"id" : 23, "lemma" : "冥婚小說", "type" : "SH", "position" : 315, "weight" : 0.0371632 },
		{"id" : 24, "lemma" : ")", "type" : "SS", "position" : 327, "weight" : 0.0443345 },
		{"id" : 25, "lemma" : "또는", "type" : "MAJ", "position" : 329, "weight" : 0.0318351 },
		{"id" : 26, "lemma" : "시애", "type" : "NNG", "position" : 336, "weight" : 0.0318351 },
		{"id" : 27, "lemma" : "소설", "type" : "NNG", "position" : 342, "weight" : 0.0267283 },
		{"id" : 28, "lemma" : "(", "type" : "SS", "position" : 348, "weight" : 0.0425594 },
		{"id" : 29, "lemma" : "屍愛小說", "type" : "SH", "position" : 349, "weight" : 0.0371632 },
		{"id" : 30, "lemma" : ")", "type" : "SS", "position" : 361, "weight" : 0.0443345 },
		{"id" : 31, "lemma" : "이", "type" : "VCP", "position" : 362, "weight" : 0.0330653 },
		{"id" : 32, "lemma" : "라고", "type" : "EC", "position" : 365, "weight" : 0.0321459 },
		{"id" : 33, "lemma" : "도", "type" : "JX", "position" : 371, "weight" : 0.0155644 },
		{"id" : 34, "lemma" : "하", "type" : "VV", "position" : 375, "weight" : 0.0243517 },
		{"id" : 35, "lemma" : "ㄴ다", "type" : "EF", "position" : 375, "weight" : 0.0344814 },
		{"id" : 36, "lemma" : ".", "type" : "SF", "position" : 381, "weight" : 0.0238125 }
	],
	"morp_eval" : [
	],
	"WSD" : [
	],
	"word" : [
		{"id" : 0, "text" : "산", "type" : "", "begin" : 0, "end" : 1},
		{"id" : 1, "text" : "남자와", "type" : "", "begin" : 2, "end" : 3},
		{"id" : 2, "text" : "죽은", "type" : "", "begin" : 4, "end" : 5},
		{"id" : 3, "text" : "여자의", "type" : "", "begin" : 6, "end" : 7},
		{"id" : 4, "text" : "사랑을", "type" : "", "begin" : 8, "end" : 9},
		{"id" : 5, "text" : "그린", "type" : "", "begin" : 10, "end" : 11},
		{"id" : 6, "text" : "애정소설이며,", "type" : "", "begin" : 12, "end" : 16},
		{"id" : 7, "text" : "구조유형상", "type" : "", "begin" : 17, "end" : 19},
		{"id" : 8, "text" : "명혼소설(冥婚小說)", "type" : "", "begin" : 20, "end" : 24},
		{"id" : 9, "text" : "또는", "type" : "", "begin" : 25, "end" : 25},
		{"id" : 10, "text" : "시애소설(屍愛小說)이라고도", "type" : "", "begin" : 26, "end" : 33},
		{"id" : 11, "text" : "한다.", "type" : "", "begin" : 34, "end" : 36}
	],
	"NE" : [
		{"id" : 0, "text" : "애정소설", "type" : "FD_ART", "begin" : 12, "end" : 13, "weight" : 0.116596, "common_noun" : 0},
		{"id" : 1, "text" : "명혼소설", "type" : "FD_ART", "begin" : 20, "end" : 21, "weight" : 0.116596, "common_noun" : 0},
		{"id" : 2, "text" : "冥婚小說", "type" : "FD_ART", "begin" : 23, "end" : 23, "weight" : 0.116596, "common_noun" : 0},
		{"id" : 3, "text" : "시애소설", "type" : "FD_ART", "begin" : 26, "end" : 27, "weight" : 0.160535, "common_noun" : 0},
		{"id" : 4, "text" : "屍愛小說", "type" : "FD_ART", "begin" : 29, "end" : 29, "weight" : 0.160535, "common_noun" : 0}
	],
	"chunk" : [
	],
	"dependency" : [
		{"id" : 0, "text" : "산", "head" : 1, "label" : "VP_MOD", "mod" : [], "weight" : 0.56149 },
		{"id" : 1, "text" : "남자와", "head" : 3, "label" : "NP_CNJ", "mod" : [0], "weight" : 0.550364 },
		{"id" : 2, "text" : "죽은", "head" : 3, "label" : "VP_MOD", "mod" : [], "weight" : 0.697514 },
		{"id" : 3, "text" : "여자의", "head" : 4, "label" : "NP_MOD", "mod" : [1, 2], "weight" : 0.753571 },
		{"id" : 4, "text" : "사랑을", "head" : 5, "label" : "NP_OBJ", "mod" : [3], "weight" : 0.781277 },
		{"id" : 5, "text" : "그린", "head" : 6, "label" : "VP_MOD", "mod" : [4], "weight" : 0.959869 },
		{"id" : 6, "text" : "애정소설이며,", "head" : 10, "label" : "VNP", "mod" : [5], "weight" : 0.671858 },
		{"id" : 7, "text" : "구조유형상", "head" : 10, "label" : "NP", "mod" : [], "weight" : 0.513143 },
		{"id" : 8, "text" : "명혼소설(冥婚小說)", "head" : 10, "label" : "NP_CNJ", "mod" : [], "weight" : 0.336722 },
		{"id" : 9, "text" : "또는", "head" : 10, "label" : "AP", "mod" : [], "weight" : 0.775868 },
		{"id" : 10, "text" : "시애소설(屍愛小說)이라고도", "head" : 11, "label" : "VNP_CMP", "mod" : [6, 7, 8, 9], "weight" : 0.410402 },
		{"id" : 11, "text" : "한다.", "head" : -1, "label" : "VP", "mod" : [10], "weight" : 0.337678 }
	],
	"SRL" : [
		{"verb" : "살", "sense" : 2, "word_id" : 0, "weight" : 0,
			"argument" : [
				{"type" : "ARG1", "word_id" : 1, "text" : "남자와", "weight" : 0 }
			] },
		{"verb" : "죽", "sense" : 1, "word_id" : 2, "weight" : 0.115725,
			"argument" : [
				{"type" : "ARG1", "word_id" : 3, "text" : "여자의", "weight" : 0.139165 }
			] },
		{"verb" : "그리", "sense" : 3, "word_id" : 5, "weight" : 0.14282,
			"argument" : [
				{"type" : "ARG1", "word_id" : 4, "text" : "사랑을", "weight" : 0.187754 },
				{"type" : "ARG2", "word_id" : 6, "text" : "애정소설이며,", "weight" : 0.978869 }
			] }
	],
	"relation" : [
	],
	"SA" : [
	],
	"ZA" : [
	]
	}
 ],
 "entity" : [
 ]
}

