{"doc_id" : "E2014.119_A_01",
 "DCT" : "",
 "category" : "",
 "category_weight" : 0,
 "title" : {"text" : "", "NE" : ""},
 "metaInfo" : { },
 "sentence" : [
	{
	"id" : 0,
	"reserve_str" : "",
	"text" : "하여가는 고려 말과 조선 초기의 시조 1수로 『해동악부』에 전해지고 있다.",
	"morp" : [
		{"id" : 0, "lemma" : "하여가", "type" : "NNP", "position" : 0, "weight" : 0.0142891 },
		{"id" : 1, "lemma" : "는", "type" : "JX", "position" : 9, "weight" : 0.0227185 },
		{"id" : 2, "lemma" : "고려", "type" : "NNP", "position" : 13, "weight" : 0.0179331 },
		{"id" : 3, "lemma" : "말", "type" : "NNB", "position" : 20, "weight" : 0.0142891 },
		{"id" : 4, "lemma" : "과", "type" : "JC", "position" : 23, "weight" : 0.021577 },
		{"id" : 5, "lemma" : "조선", "type" : "NNP", "position" : 27, "weight" : 0.0179331 },
		{"id" : 6, "lemma" : "초기", "type" : "NNG", "position" : 34, "weight" : 0.0179331 },
		{"id" : 7, "lemma" : "의", "type" : "JKG", "position" : 40, "weight" : 0.0174168 },
		{"id" : 8, "lemma" : "시조", "type" : "NNG", "position" : 44, "weight" : 0.0179331 },
		{"id" : 9, "lemma" : "1", "type" : "SN", "position" : 51, "weight" : 0.0142891 },
		{"id" : 10, "lemma" : "수", "type" : "NNB", "position" : 52, "weight" : 0.021577 },
		{"id" : 11, "lemma" : "로", "type" : "JKB", "position" : 55, "weight" : 0.0174168 },
		{"id" : 12, "lemma" : "『", "type" : "SS", "position" : 59, "weight" : 0.0179331 },
		{"id" : 13, "lemma" : "해동악부", "type" : "NNP", "position" : 65, "weight" : 0.0200677 },
		{"id" : 14, "lemma" : "』", "type" : "SS", "position" : 71, "weight" : 0.0211204 },
		{"id" : 15, "lemma" : "에", "type" : "JKB", "position" : 77, "weight" : 0.0390501 },
		{"id" : 16, "lemma" : "전하", "type" : "VV", "position" : 81, "weight" : 0.0179331 },
		{"id" : 17, "lemma" : "아", "type" : "EC", "position" : 84, "weight" : 0.0174168 },
		{"id" : 18, "lemma" : "지", "type" : "VX", "position" : 87, "weight" : 0.0227185 },
		{"id" : 19, "lemma" : "고", "type" : "EC", "position" : 90, "weight" : 0.0298244 },
		{"id" : 20, "lemma" : "있", "type" : "VX", "position" : 94, "weight" : 0.0142891 },
		{"id" : 21, "lemma" : "다", "type" : "EF", "position" : 97, "weight" : 0.021577 },
		{"id" : 22, "lemma" : ".", "type" : "SF", "position" : 100, "weight" : 0.0174168 }
	],
	"morp_eval" : [
	],
	"WSD" : [
	],
	"word" : [
		{"id" : 0, "text" : "하여가는", "type" : "", "begin" : 0, "end" : 1},
		{"id" : 1, "text" : "고려", "type" : "", "begin" : 2, "end" : 2},
		{"id" : 2, "text" : "말과", "type" : "", "begin" : 3, "end" : 4},
		{"id" : 3, "text" : "조선", "type" : "", "begin" : 5, "end" : 5},
		{"id" : 4, "text" : "초기의", "type" : "", "begin" : 6, "end" : 7},
		{"id" : 5, "text" : "시조", "type" : "", "begin" : 8, "end" : 8},
		{"id" : 6, "text" : "1수로", "type" : "", "begin" : 9, "end" : 11},
		{"id" : 7, "text" : "『해동악부』에", "type" : "", "begin" : 12, "end" : 15},
		{"id" : 8, "text" : "전해지고", "type" : "", "begin" : 16, "end" : 19},
		{"id" : 9, "text" : "있다.", "type" : "", "begin" : 20, "end" : 22}
	],
	"NE" : [
		{"id" : 0, "text" : "하여가", "type" : "AFW_DOCUMENT", "begin" : 0, "end" : 0, "weight" : 0.272894, "common_noun" : 0},
		{"id" : 1, "text" : "고려 말", "type" : "DT_DYNASTY", "begin" : 2, "end" : 3, "weight" : 0.725603, "common_noun" : 0},
		{"id" : 2, "text" : "조선 초기", "type" : "DT_DYNASTY", "begin" : 5, "end" : 6, "weight" : 0.594935, "common_noun" : 0},
		{"id" : 3, "text" : "시조", "type" : "FD_ART", "begin" : 8, "end" : 8, "weight" : 0.271879, "common_noun" : 0},
		{"id" : 4, "text" : "1수", "type" : "QT_COUNT", "begin" : 9, "end" : 10, "weight" : 0.330498, "common_noun" : 0},
		{"id" : 5, "text" : "해동악부", "type" : "AFW_DOCUMENT", "begin" : 13, "end" : 13, "weight" : 0.272894, "common_noun" : 0}
	],
	"chunk" : [
	],
	"dependency" : [
		{"id" : 0, "text" : "하여가는", "head" : 6, "label" : "NP_SBJ", "mod" : [], "weight" : 0.988128 },
		{"id" : 1, "text" : "고려", "head" : 2, "label" : "NP", "mod" : [], "weight" : 0.820776 },
		{"id" : 2, "text" : "말과", "head" : 4, "label" : "NP_CNJ", "mod" : [1], "weight" : 0.503788 },
		{"id" : 3, "text" : "조선", "head" : 4, "label" : "NP", "mod" : [], "weight" : 0.742317 },
		{"id" : 4, "text" : "초기의", "head" : 5, "label" : "NP_MOD", "mod" : [2, 3], "weight" : 0.64468 },
		{"id" : 5, "text" : "시조", "head" : 6, "label" : "NP", "mod" : [4], "weight" : 0.955367 },
		{"id" : 6, "text" : "1수로", "head" : 8, "label" : "NP_AJT", "mod" : [0, 5], "weight" : 0.68442 },
		{"id" : 7, "text" : "『해동악부』에", "head" : 8, "label" : "NP_AJT", "mod" : [], "weight" : 0.544303 },
		{"id" : 8, "text" : "전해지고", "head" : 9, "label" : "VP", "mod" : [6, 7], "weight" : 0.579685 },
		{"id" : 9, "text" : "있다.", "head" : -1, "label" : "VP", "mod" : [8], "weight" : 0.326569 }
	],
	"SRL" : [
		{"verb" : "전하", "sense" : 1, "word_id" : 8, "weight" : 0.120157,
			"argument" : [
				{"type" : "ARG0", "word_id" : 0, "text" : "하여가는", "weight" : 0.897502 },
				{"type" : "ARG2", "word_id" : 7, "text" : "『해동악부』에", "weight" : 0.761055 },
				{"type" : "AUX", "word_id" : 9, "text" : "있다.", "weight" : 0.253367 }
			] }
	],
	"relation" : [
	],
	"SA" : [
	],
	"ZA" : [
	]
	},
	{
	"id" : 1,
	"reserve_str" : "",
	"text" : " 지은이는 조선 태조 이성계를 도와 조선 건국과 창업에 공이 큰 조선 제3대의 임금, 태종으로 이 작품은 반대당인 정몽주(鄭夢周)의 진심을 떠보고 회유하기 위하여 마련된 자리에서 지어 부른 작품이다.",
	"morp" : [
		{"id" : 0, "lemma" : "지은이", "type" : "NNG", "position" : 102, "weight" : 1 },
		{"id" : 1, "lemma" : "는", "type" : "JX", "position" : 111, "weight" : 0.0437368 },
		{"id" : 2, "lemma" : "조선", "type" : "NNP", "position" : 115, "weight" : 1 },
		{"id" : 3, "lemma" : "태조", "type" : "NNP", "position" : 122, "weight" : 1 },
		{"id" : 4, "lemma" : "이성계", "type" : "NNP", "position" : 129, "weight" : 1 },
		{"id" : 5, "lemma" : "를", "type" : "JKO", "position" : 138, "weight" : 0.0437368 },
		{"id" : 6, "lemma" : "돕", "type" : "VV", "position" : 142, "weight" : 1 },
		{"id" : 7, "lemma" : "아", "type" : "EC", "position" : 145, "weight" : 1 },
		{"id" : 8, "lemma" : "조선", "type" : "NNP", "position" : 149, "weight" : 1 },
		{"id" : 9, "lemma" : "건국", "type" : "NNG", "position" : 156, "weight" : 1 },
		{"id" : 10, "lemma" : "과", "type" : "JC", "position" : 162, "weight" : 1 },
		{"id" : 11, "lemma" : "창업", "type" : "NNG", "position" : 166, "weight" : 1 },
		{"id" : 12, "lemma" : "에", "type" : "JKB", "position" : 172, "weight" : 1 },
		{"id" : 13, "lemma" : "공", "type" : "NNG", "position" : 176, "weight" : 1 },
		{"id" : 14, "lemma" : "이", "type" : "JKS", "position" : 179, "weight" : 1 },
		{"id" : 15, "lemma" : "크", "type" : "VA", "position" : 183, "weight" : 1 },
		{"id" : 16, "lemma" : "ㄴ", "type" : "ETM", "position" : 183, "weight" : 1 },
		{"id" : 17, "lemma" : "조선", "type" : "NNP", "position" : 187, "weight" : 1 },
		{"id" : 18, "lemma" : "제", "type" : "XPN", "position" : 194, "weight" : 1 },
		{"id" : 19, "lemma" : "3", "type" : "SN", "position" : 197, "weight" : 1 },
		{"id" : 20, "lemma" : "대", "type" : "NNB", "position" : 198, "weight" : 1 },
		{"id" : 21, "lemma" : "의", "type" : "JKG", "position" : 201, "weight" : 0.0437368 },
		{"id" : 22, "lemma" : "임금", "type" : "NNG", "position" : 205, "weight" : 1 },
		{"id" : 23, "lemma" : ",", "type" : "SP", "position" : 211, "weight" : 1 },
		{"id" : 24, "lemma" : "태종", "type" : "NNP", "position" : 213, "weight" : 1 },
		{"id" : 25, "lemma" : "으로", "type" : "JKB", "position" : 219, "weight" : 0.521868 },
		{"id" : 26, "lemma" : "이", "type" : "MM", "position" : 226, "weight" : 1 },
		{"id" : 27, "lemma" : "작품", "type" : "NNG", "position" : 230, "weight" : 1 },
		{"id" : 28, "lemma" : "은", "type" : "JX", "position" : 236, "weight" : 1 },
		{"id" : 29, "lemma" : "반대", "type" : "NNG", "position" : 240, "weight" : 1 },
		{"id" : 30, "lemma" : "당", "type" : "NNG", "position" : 246, "weight" : 1 },
		{"id" : 31, "lemma" : "이", "type" : "VCP", "position" : 249, "weight" : 0.0437368 },
		{"id" : 32, "lemma" : "ㄴ", "type" : "ETM", "position" : 249, "weight" : 0.047648 },
		{"id" : 33, "lemma" : "정몽주", "type" : "NNP", "position" : 253, "weight" : 1 },
		{"id" : 34, "lemma" : "(", "type" : "SS", "position" : 262, "weight" : 0.0437368 },
		{"id" : 35, "lemma" : "鄭夢周", "type" : "SH", "position" : 263, "weight" : 0.0354036 },
		{"id" : 36, "lemma" : ")", "type" : "SS", "position" : 272, "weight" : 0.00714165 },
		{"id" : 37, "lemma" : "의", "type" : "JKG", "position" : 273, "weight" : 1 },
		{"id" : 38, "lemma" : "진심", "type" : "NNG", "position" : 277, "weight" : 1 },
		{"id" : 39, "lemma" : "을", "type" : "JKO", "position" : 283, "weight" : 1 },
		{"id" : 40, "lemma" : "떠보", "type" : "VV", "position" : 287, "weight" : 1 },
		{"id" : 41, "lemma" : "고", "type" : "EC", "position" : 293, "weight" : 1 },
		{"id" : 42, "lemma" : "회유", "type" : "NNG", "position" : 297, "weight" : 1 },
		{"id" : 43, "lemma" : "하", "type" : "XSV", "position" : 303, "weight" : 1 },
		{"id" : 44, "lemma" : "기", "type" : "ETN", "position" : 306, "weight" : 0.0437368 },
		{"id" : 45, "lemma" : "위하", "type" : "VV", "position" : 310, "weight" : 1 },
		{"id" : 46, "lemma" : "아", "type" : "EC", "position" : 316, "weight" : 1 },
		{"id" : 47, "lemma" : "마련", "type" : "NNG", "position" : 320, "weight" : 1 },
		{"id" : 48, "lemma" : "되", "type" : "XSV", "position" : 326, "weight" : 1 },
		{"id" : 49, "lemma" : "ㄴ", "type" : "ETM", "position" : 326, "weight" : 0.0437368 },
		{"id" : 50, "lemma" : "자리", "type" : "NNG", "position" : 330, "weight" : 1 },
		{"id" : 51, "lemma" : "에서", "type" : "JKB", "position" : 336, "weight" : 0.521868 },
		{"id" : 52, "lemma" : "짓", "type" : "VV", "position" : 343, "weight" : 1 },
		{"id" : 53, "lemma" : "어", "type" : "EC", "position" : 346, "weight" : 1 },
		{"id" : 54, "lemma" : "부르", "type" : "VV", "position" : 350, "weight" : 1 },
		{"id" : 55, "lemma" : "ㄴ", "type" : "ETM", "position" : 353, "weight" : 1 },
		{"id" : 56, "lemma" : "작품", "type" : "NNG", "position" : 357, "weight" : 1 },
		{"id" : 57, "lemma" : "이", "type" : "VCP", "position" : 363, "weight" : 1 },
		{"id" : 58, "lemma" : "다", "type" : "EF", "position" : 366, "weight" : 0.0437368 },
		{"id" : 59, "lemma" : ".", "type" : "SF", "position" : 369, "weight" : 0.047648 }
	],
	"morp_eval" : [
	],
	"WSD" : [
	],
	"word" : [
		{"id" : 0, "text" : "지은이는", "type" : "", "begin" : 0, "end" : 1},
		{"id" : 1, "text" : "조선", "type" : "", "begin" : 2, "end" : 2},
		{"id" : 2, "text" : "태조", "type" : "", "begin" : 3, "end" : 3},
		{"id" : 3, "text" : "이성계를", "type" : "", "begin" : 4, "end" : 5},
		{"id" : 4, "text" : "도와", "type" : "", "begin" : 6, "end" : 7},
		{"id" : 5, "text" : "조선", "type" : "", "begin" : 8, "end" : 8},
		{"id" : 6, "text" : "건국과", "type" : "", "begin" : 9, "end" : 10},
		{"id" : 7, "text" : "창업에", "type" : "", "begin" : 11, "end" : 12},
		{"id" : 8, "text" : "공이", "type" : "", "begin" : 13, "end" : 14},
		{"id" : 9, "text" : "큰", "type" : "", "begin" : 15, "end" : 16},
		{"id" : 10, "text" : "조선", "type" : "", "begin" : 17, "end" : 17},
		{"id" : 11, "text" : "제3대의", "type" : "", "begin" : 18, "end" : 21},
		{"id" : 12, "text" : "임금,", "type" : "", "begin" : 22, "end" : 23},
		{"id" : 13, "text" : "태종으로", "type" : "", "begin" : 24, "end" : 25},
		{"id" : 14, "text" : "이", "type" : "", "begin" : 26, "end" : 26},
		{"id" : 15, "text" : "작품은", "type" : "", "begin" : 27, "end" : 28},
		{"id" : 16, "text" : "반대당인", "type" : "", "begin" : 29, "end" : 32},
		{"id" : 17, "text" : "정몽주(鄭夢周)의", "type" : "", "begin" : 33, "end" : 37},
		{"id" : 18, "text" : "진심을", "type" : "", "begin" : 38, "end" : 39},
		{"id" : 19, "text" : "떠보고", "type" : "", "begin" : 40, "end" : 41},
		{"id" : 20, "text" : "회유하기", "type" : "", "begin" : 42, "end" : 44},
		{"id" : 21, "text" : "위하여", "type" : "", "begin" : 45, "end" : 46},
		{"id" : 22, "text" : "마련된", "type" : "", "begin" : 47, "end" : 49},
		{"id" : 23, "text" : "자리에서", "type" : "", "begin" : 50, "end" : 51},
		{"id" : 24, "text" : "지어", "type" : "", "begin" : 52, "end" : 53},
		{"id" : 25, "text" : "부른", "type" : "", "begin" : 54, "end" : 55},
		{"id" : 26, "text" : "작품이다.", "type" : "", "begin" : 56, "end" : 59}
	],
	"NE" : [
		{"id" : 0, "text" : "지은이", "type" : "CV_POSITION", "begin" : 0, "end" : 0, "weight" : 0.38301, "common_noun" : 0},
		{"id" : 1, "text" : "조선", "type" : "LCP_COUNTRY", "begin" : 2, "end" : 2, "weight" : 0.38301, "common_noun" : 0},
		{"id" : 2, "text" : "태조", "type" : "PS_NAME", "begin" : 3, "end" : 3, "weight" : 0.197205, "common_noun" : 0},
		{"id" : 3, "text" : "이성계", "type" : "PS_NAME", "begin" : 4, "end" : 4, "weight" : 0.296674, "common_noun" : 0},
		{"id" : 4, "text" : "조선", "type" : "LCP_COUNTRY", "begin" : 8, "end" : 8, "weight" : 0.490002, "common_noun" : 0},
		{"id" : 5, "text" : "조선", "type" : "LCP_COUNTRY", "begin" : 17, "end" : 17, "weight" : 0.15884, "common_noun" : 0},
		{"id" : 6, "text" : "제3대", "type" : "QT_ORDER", "begin" : 18, "end" : 20, "weight" : 0.594015, "common_noun" : 0},
		{"id" : 7, "text" : "임금", "type" : "CV_POSITION", "begin" : 22, "end" : 22, "weight" : 0.169753, "common_noun" : 0},
		{"id" : 8, "text" : "태종", "type" : "PS_NAME", "begin" : 24, "end" : 24, "weight" : 0.169753, "common_noun" : 0},
		{"id" : 9, "text" : "정몽주", "type" : "PS_NAME", "begin" : 33, "end" : 33, "weight" : 0.303533, "common_noun" : 0},
		{"id" : 10, "text" : "鄭夢周", "type" : "PS_NAME", "begin" : 35, "end" : 35, "weight" : 0.125641, "common_noun" : 0}
	],
	"chunk" : [
	],
	"dependency" : [
		{"id" : 0, "text" : "지은이는", "head" : 13, "label" : "NP_SBJ", "mod" : [], "weight" : 0.513081 },
		{"id" : 1, "text" : "조선", "head" : 2, "label" : "NP", "mod" : [], "weight" : 0.668655 },
		{"id" : 2, "text" : "태조", "head" : 3, "label" : "NP", "mod" : [1], "weight" : 0.670968 },
		{"id" : 3, "text" : "이성계를", "head" : 4, "label" : "NP_OBJ", "mod" : [2], "weight" : 0.892918 },
		{"id" : 4, "text" : "도와", "head" : 9, "label" : "VP", "mod" : [3], "weight" : 0.521918 },
		{"id" : 5, "text" : "조선", "head" : 6, "label" : "NP", "mod" : [], "weight" : 0.623206 },
		{"id" : 6, "text" : "건국과", "head" : 7, "label" : "NP_CNJ", "mod" : [5], "weight" : 0.534269 },
		{"id" : 7, "text" : "창업에", "head" : 9, "label" : "NP_AJT", "mod" : [6], "weight" : 0.648767 },
		{"id" : 8, "text" : "공이", "head" : 9, "label" : "NP_SBJ", "mod" : [], "weight" : 0.823406 },
		{"id" : 9, "text" : "큰", "head" : 12, "label" : "VP_MOD", "mod" : [4, 7, 8], "weight" : 0.804048 },
		{"id" : 10, "text" : "조선", "head" : 11, "label" : "NP", "mod" : [], "weight" : 0.725668 },
		{"id" : 11, "text" : "제3대의", "head" : 12, "label" : "NP_MOD", "mod" : [10], "weight" : 0.888018 },
		{"id" : 12, "text" : "임금,", "head" : 13, "label" : "NP", "mod" : [9, 11], "weight" : 0.574512 },
		{"id" : 13, "text" : "태종으로", "head" : 26, "label" : "NP_AJT", "mod" : [0, 12], "weight" : 0.758123 },
		{"id" : 14, "text" : "이", "head" : 15, "label" : "DP", "mod" : [], "weight" : 0.966641 },
		{"id" : 15, "text" : "작품은", "head" : 24, "label" : "NP_SBJ", "mod" : [14], "weight" : 0.599518 },
		{"id" : 16, "text" : "반대당인", "head" : 17, "label" : "VNP_MOD", "mod" : [], "weight" : 0.730848 },
		{"id" : 17, "text" : "정몽주(鄭夢周)의", "head" : 18, "label" : "NP_MOD", "mod" : [16], "weight" : 0.677635 },
		{"id" : 18, "text" : "진심을", "head" : 19, "label" : "NP_OBJ", "mod" : [17], "weight" : 0.981903 },
		{"id" : 19, "text" : "떠보고", "head" : 20, "label" : "VP", "mod" : [18], "weight" : 0.814456 },
		{"id" : 20, "text" : "회유하기", "head" : 21, "label" : "VP_OBJ", "mod" : [19], "weight" : 0.815131 },
		{"id" : 21, "text" : "위하여", "head" : 22, "label" : "VP", "mod" : [20], "weight" : 0.572384 },
		{"id" : 22, "text" : "마련된", "head" : 23, "label" : "VP_MOD", "mod" : [21], "weight" : 0.702141 },
		{"id" : 23, "text" : "자리에서", "head" : 24, "label" : "NP_AJT", "mod" : [22], "weight" : 0.92101 },
		{"id" : 24, "text" : "지어", "head" : 25, "label" : "VP", "mod" : [15, 23], "weight" : 0.568289 },
		{"id" : 25, "text" : "부른", "head" : 26, "label" : "VP_MOD", "mod" : [24], "weight" : 0.472314 },
		{"id" : 26, "text" : "작품이다.", "head" : -1, "label" : "VNP", "mod" : [13, 25], "weight" : 5.52535e-05 }
	],
	"SRL" : [
		{"verb" : "돕", "sense" : 1, "word_id" : 4, "weight" : 0.148437,
			"argument" : [
				{"type" : "ARG1", "word_id" : 3, "text" : "이성계를", "weight" : 0.148437 },
				{"type" : "ARG0", "word_id" : 0, "text" : "지은이는", "weight" : 0 }
			] },
		{"verb" : "크", "sense" : 1, "word_id" : 9, "weight" : 0.125175,
			"argument" : [
				{"type" : "ARG2", "word_id" : 7, "text" : "창업에", "weight" : 0.649818 },
				{"type" : "ARG1", "word_id" : 8, "text" : "공이", "weight" : 0.187803 }
			] },
		{"verb" : "떠보", "sense" : 1, "word_id" : 19, "weight" : 0.134173,
			"argument" : [
				{"type" : "ARG1", "word_id" : 18, "text" : "진심을", "weight" : 0.182622 }
			] },
		{"verb" : "위하", "sense" : 1, "word_id" : 21, "weight" : 0.219223,
			"argument" : [
				{"type" : "ARG1", "word_id" : 20, "text" : "회유하기", "weight" : 0.219223 }
			] },
		{"verb" : "마련", "sense" : 1, "word_id" : 22, "weight" : 0.185496,
			"argument" : [
				{"type" : "ARGM-PRP", "word_id" : 21, "text" : "위하여", "weight" : 0.185496 },
				{"type" : "ARG1", "word_id" : 23, "text" : "자리에서", "weight" : 0 }
			] },
		{"verb" : "짓", "sense" : 1, "word_id" : 24, "weight" : 0.961185,
			"argument" : [
				{"type" : "ARGM-LOC", "word_id" : 23, "text" : "자리에서", "weight" : 0.676743 },
				{"type" : "ARG0", "word_id" : 13, "text" : "태종으로", "weight" : 0 },
				{"type" : "ARG1", "word_id" : 15, "text" : "작품은", "weight" : 0 }
			] },
		{"verb" : "부르", "sense" : 1, "word_id" : 25, "weight" : 0.532431,
			"argument" : [
				{"type" : "ARGM-MNR", "word_id" : 24, "text" : "지어", "weight" : 0.532431 },
				{"type" : "ARG0", "word_id" : 13, "text" : "태종으로", "weight" : 0 },
				{"type" : "ARGM-LOC", "word_id" : 23, "text" : "자리에서", "weight" : 0 }
			] }
	],
	"relation" : [
	],
	"SA" : [
	],
	"ZA" : [
	]
	}
 ],
 "entity" : [
 ]
}

