{"doc_id" : "E2014.206_Q_01",
 "DCT" : "",
 "category" : "",
 "category_weight" : 0,
 "title" : {"text" : "", "NE" : ""},
 "metaInfo" : { },
 "sentence" : [
	{
	"id" : 0,
	"reserve_str" : "",
	"text" : "이것은 1989년에 미국에서 발사한 목성 탐사선이다.",
	"morp" : [
		{"id" : 0, "lemma" : "이것", "type" : "NP", "position" : 0, "weight" : 0.0319339 },
		{"id" : 1, "lemma" : "은", "type" : "JX", "position" : 6, "weight" : 0.0483897 },
		{"id" : 2, "lemma" : "1989", "type" : "SN", "position" : 10, "weight" : 0.278064 },
		{"id" : 3, "lemma" : "년", "type" : "NNB", "position" : 14, "weight" : 1 },
		{"id" : 4, "lemma" : "에", "type" : "JKB", "position" : 17, "weight" : 1 },
		{"id" : 5, "lemma" : "미국", "type" : "NNP", "position" : 21, "weight" : 0.0319339 },
		{"id" : 6, "lemma" : "에서", "type" : "JKB", "position" : 27, "weight" : 0.524195 },
		{"id" : 7, "lemma" : "발사", "type" : "NNG", "position" : 34, "weight" : 0.0319339 },
		{"id" : 8, "lemma" : "하", "type" : "XSV", "position" : 40, "weight" : 0.0483897 },
		{"id" : 9, "lemma" : "ㄴ", "type" : "ETM", "position" : 40, "weight" : 1 },
		{"id" : 10, "lemma" : "목성", "type" : "NNP", "position" : 44, "weight" : 0.0319339 },
		{"id" : 11, "lemma" : "탐사", "type" : "NNG", "position" : 51, "weight" : 0.0319339 },
		{"id" : 12, "lemma" : "선", "type" : "XSN", "position" : 57, "weight" : 0.0483897 },
		{"id" : 13, "lemma" : "이", "type" : "VCP", "position" : 60, "weight" : 1 },
		{"id" : 14, "lemma" : "다", "type" : "EF", "position" : 63, "weight" : 1 },
		{"id" : 15, "lemma" : ".", "type" : "SF", "position" : 66, "weight" : 1 }
	],
	"morp_eval" : [
	],
	"WSD" : [
	],
	"word" : [
		{"id" : 0, "text" : "이것은", "type" : "", "begin" : 0, "end" : 1},
		{"id" : 1, "text" : "1989년에", "type" : "", "begin" : 2, "end" : 4},
		{"id" : 2, "text" : "미국에서", "type" : "", "begin" : 5, "end" : 6},
		{"id" : 3, "text" : "발사한", "type" : "", "begin" : 7, "end" : 9},
		{"id" : 4, "text" : "목성", "type" : "", "begin" : 10, "end" : 10},
		{"id" : 5, "text" : "탐사선이다.", "type" : "", "begin" : 11, "end" : 15}
	],
	"NE" : [
		{"id" : 0, "text" : "1989년", "type" : "DT_YEAR", "begin" : 2, "end" : 3, "weight" : 0.698067, "common_noun" : 0},
		{"id" : 1, "text" : "미국", "type" : "LCP_COUNTRY", "begin" : 5, "end" : 5, "weight" : 0.667827, "common_noun" : 0},
		{"id" : 2, "text" : "목성", "type" : "LC_SPACE", "begin" : 10, "end" : 10, "weight" : 0.260274, "common_noun" : 0},
		{"id" : 3, "text" : "탐사선", "type" : "AF_TRANSPORT", "begin" : 11, "end" : 12, "weight" : 0.260274, "common_noun" : 0}
	],
	"chunk" : [
	],
	"dependency" : [
		{"id" : 0, "text" : "이것은", "head" : 5, "label" : "NP_SBJ", "mod" : [], "weight" : 0.642566 },
		{"id" : 1, "text" : "1989년에", "head" : 3, "label" : "NP_AJT", "mod" : [], "weight" : 0.824875 },
		{"id" : 2, "text" : "미국에서", "head" : 3, "label" : "NP_AJT", "mod" : [], "weight" : 0.644046 },
		{"id" : 3, "text" : "발사한", "head" : 5, "label" : "VP_MOD", "mod" : [1, 2], "weight" : 0.568158 },
		{"id" : 4, "text" : "목성", "head" : 5, "label" : "NP", "mod" : [], "weight" : 0.393841 },
		{"id" : 5, "text" : "탐사선이다.", "head" : -1, "label" : "VNP", "mod" : [0, 3, 4], "weight" : 0.54935 }
	],
	"SRL" : [
		{"verb" : "발사", "sense" : 1, "word_id" : 3, "weight" : 0.136282,
			"argument" : [
				{"type" : "ARGM-TMP", "word_id" : 1, "text" : "1989년에", "weight" : 0.178579 },
				{"type" : "ARGM-LOC", "word_id" : 2, "text" : "미국에서", "weight" : 0.116738 },
				{"type" : "ARG1", "word_id" : 0, "text" : "이것은", "weight" : 0 },
				{"type" : "ARG1", "word_id" : 5, "text" : "탐사선이다.", "weight" : 1 }
			] }
	],
	"relation" : [
	],
	"SA" : [
	],
	"ZA" : [
	]
	},
	{
	"id" : 1,
	"reserve_str" : "",
	"text" : " 목성의 위성을 가장 먼저 발견한 사람의 이름을 딴 이 탐사선은 무엇일까?",
	"morp" : [
		{"id" : 0, "lemma" : "목성", "type" : "NNP", "position" : 68, "weight" : 0.0317247 },
		{"id" : 1, "lemma" : "의", "type" : "JKG", "position" : 74, "weight" : 0.043244 },
		{"id" : 2, "lemma" : "위성", "type" : "NNG", "position" : 78, "weight" : 0.0317247 },
		{"id" : 3, "lemma" : "을", "type" : "JKO", "position" : 84, "weight" : 0.043244 },
		{"id" : 4, "lemma" : "가장", "type" : "MAG", "position" : 88, "weight" : 0.0317247 },
		{"id" : 5, "lemma" : "먼저", "type" : "MAG", "position" : 95, "weight" : 0.0317247 },
		{"id" : 6, "lemma" : "발견", "type" : "NNG", "position" : 102, "weight" : 0.0317247 },
		{"id" : 7, "lemma" : "하", "type" : "XSV", "position" : 108, "weight" : 0.043244 },
		{"id" : 8, "lemma" : "ㄴ", "type" : "ETM", "position" : 108, "weight" : 0.0680971 },
		{"id" : 9, "lemma" : "사람", "type" : "NNG", "position" : 112, "weight" : 0.0317247 },
		{"id" : 10, "lemma" : "의", "type" : "JKG", "position" : 118, "weight" : 0.043244 },
		{"id" : 11, "lemma" : "이름", "type" : "NNG", "position" : 122, "weight" : 0.0317247 },
		{"id" : 12, "lemma" : "을", "type" : "JKO", "position" : 128, "weight" : 0.043244 },
		{"id" : 13, "lemma" : "따", "type" : "VV", "position" : 132, "weight" : 0.0496502 },
		{"id" : 14, "lemma" : "ㄴ", "type" : "ETM", "position" : 132, "weight" : 0.0137991 },
		{"id" : 15, "lemma" : "이", "type" : "MM", "position" : 136, "weight" : 0.0496502 },
		{"id" : 16, "lemma" : "탐사", "type" : "NNG", "position" : 140, "weight" : 0.0317247 },
		{"id" : 17, "lemma" : "선", "type" : "XSN", "position" : 146, "weight" : 0.043244 },
		{"id" : 18, "lemma" : "은", "type" : "JX", "position" : 149, "weight" : 0.0680971 },
		{"id" : 19, "lemma" : "무엇", "type" : "NP", "position" : 153, "weight" : 0.0317247 },
		{"id" : 20, "lemma" : "이", "type" : "VCP", "position" : 159, "weight" : 0.043244 },
		{"id" : 21, "lemma" : "ㄹ까", "type" : "EF", "position" : 159, "weight" : 0.0430715 },
		{"id" : 22, "lemma" : "?", "type" : "SF", "position" : 165, "weight" : 0.0355364 }
	],
	"morp_eval" : [
	],
	"WSD" : [
	],
	"word" : [
		{"id" : 0, "text" : "목성의", "type" : "", "begin" : 0, "end" : 1},
		{"id" : 1, "text" : "위성을", "type" : "", "begin" : 2, "end" : 3},
		{"id" : 2, "text" : "가장", "type" : "", "begin" : 4, "end" : 4},
		{"id" : 3, "text" : "먼저", "type" : "", "begin" : 5, "end" : 5},
		{"id" : 4, "text" : "발견한", "type" : "", "begin" : 6, "end" : 8},
		{"id" : 5, "text" : "사람의", "type" : "", "begin" : 9, "end" : 10},
		{"id" : 6, "text" : "이름을", "type" : "", "begin" : 11, "end" : 12},
		{"id" : 7, "text" : "딴", "type" : "", "begin" : 13, "end" : 14},
		{"id" : 8, "text" : "이", "type" : "", "begin" : 15, "end" : 15},
		{"id" : 9, "text" : "탐사선은", "type" : "", "begin" : 16, "end" : 18},
		{"id" : 10, "text" : "무엇일까?", "type" : "", "begin" : 19, "end" : 22}
	],
	"NE" : [
		{"id" : 0, "text" : "목성", "type" : "LC_SPACE", "begin" : 0, "end" : 0, "weight" : 0.289919, "common_noun" : 0},
		{"id" : 1, "text" : "탐사선", "type" : "AF_TRANSPORT", "begin" : 16, "end" : 17, "weight" : 0.289919, "common_noun" : 0}
	],
	"chunk" : [
	],
	"dependency" : [
		{"id" : 0, "text" : "목성의", "head" : 1, "label" : "NP_MOD", "mod" : [], "weight" : 0.769096 },
		{"id" : 1, "text" : "위성을", "head" : 4, "label" : "NP_OBJ", "mod" : [0], "weight" : 0.614258 },
		{"id" : 2, "text" : "가장", "head" : 3, "label" : "AP", "mod" : [], "weight" : 0.667795 },
		{"id" : 3, "text" : "먼저", "head" : 4, "label" : "AP", "mod" : [2], "weight" : 0.722784 },
		{"id" : 4, "text" : "발견한", "head" : 5, "label" : "VP_MOD", "mod" : [1, 3], "weight" : 0.681146 },
		{"id" : 5, "text" : "사람의", "head" : 6, "label" : "NP_MOD", "mod" : [4], "weight" : 0.76026 },
		{"id" : 6, "text" : "이름을", "head" : 7, "label" : "NP_OBJ", "mod" : [5], "weight" : 0.984349 },
		{"id" : 7, "text" : "딴", "head" : 9, "label" : "VP_MOD", "mod" : [6], "weight" : 0.714211 },
		{"id" : 8, "text" : "이", "head" : 9, "label" : "DP", "mod" : [], "weight" : 0.730683 },
		{"id" : 9, "text" : "탐사선은", "head" : 10, "label" : "NP_SBJ", "mod" : [7, 8], "weight" : 0.758612 },
		{"id" : 10, "text" : "무엇일까?", "head" : -1, "label" : "VNP", "mod" : [9], "weight" : 0.340447 }
	],
	"SRL" : [
		{"verb" : "발견", "sense" : 1, "word_id" : 4, "weight" : 0.118044,
			"argument" : [
				{"type" : "ARG1", "word_id" : 1, "text" : "위성을", "weight" : 0.141793 },
				{"type" : "ARGM-PRD", "word_id" : 3, "text" : "먼저", "weight" : 0.950511 },
				{"type" : "ARG0", "word_id" : 5, "text" : "사람의", "weight" : 0.117289 },
				{"type" : "ARGM-EXT", "word_id" : 2, "text" : "가장", "weight" : 0 }
			] },
		{"verb" : "따", "sense" : 2, "word_id" : 7, "weight" : 0.183205,
			"argument" : [
				{"type" : "ARG2", "word_id" : 6, "text" : "이름을", "weight" : 0.145981 },
				{"type" : "ARG1", "word_id" : 9, "text" : "탐사선은", "weight" : 1 }
			] }
	],
	"relation" : [
	],
	"SA" : [
	],
	"ZA" : [
	]
	}
 ],
 "entity" : [
 ]
}

