{"doc_id" : "E2015.943.025_A_03",
 "DCT" : "",
 "category" : "",
 "category_weight" : 0,
 "title" : {"text" : "", "NE" : ""},
 "metaInfo" : { },
 "sentence" : [
	{
	"id" : 0,
	"reserve_str" : "",
	"text" : "여성이 대중 앞에서 노래를 부를 수 없었던 16∼18세기 유럽에서 교회음악이나 오페라에서 여성의 역할을 소화하기 위해 이 같은 카스트라토들의 활약이 두드러졌고 큰 인기를 누리기도 했다．",
	"morp" : [
		{"id" : 0, "lemma" : "여성", "type" : "NNG", "position" : 0, "weight" : 0.0332527 },
		{"id" : 1, "lemma" : "이", "type" : "JKS", "position" : 6, "weight" : 0.03722 },
		{"id" : 2, "lemma" : "대중", "type" : "NNG", "position" : 10, "weight" : 0.0332527 },
		{"id" : 3, "lemma" : "앞", "type" : "NNG", "position" : 17, "weight" : 0.0468664 },
		{"id" : 4, "lemma" : "에서", "type" : "JKB", "position" : 20, "weight" : 0.0284295 },
		{"id" : 5, "lemma" : "노래", "type" : "NNG", "position" : 27, "weight" : 0.0332527 },
		{"id" : 6, "lemma" : "를", "type" : "JKO", "position" : 33, "weight" : 0.03722 },
		{"id" : 7, "lemma" : "부르", "type" : "VV", "position" : 37, "weight" : 0.0332527 },
		{"id" : 8, "lemma" : "ㄹ", "type" : "ETM", "position" : 40, "weight" : 0.03722 },
		{"id" : 9, "lemma" : "수", "type" : "NNB", "position" : 44, "weight" : 0.0468664 },
		{"id" : 10, "lemma" : "없", "type" : "VA", "position" : 48, "weight" : 0.0468664 },
		{"id" : 11, "lemma" : "었", "type" : "EP", "position" : 51, "weight" : 0.019639 },
		{"id" : 12, "lemma" : "던", "type" : "ETM", "position" : 54, "weight" : 0.03722 },
		{"id" : 13, "lemma" : "16", "type" : "SN", "position" : 58, "weight" : 0.0332527 },
		{"id" : 14, "lemma" : "∼", "type" : "SO", "position" : 60, "weight" : 0.03722 },
		{"id" : 15, "lemma" : "18", "type" : "SN", "position" : 63, "weight" : 0.0302655 },
		{"id" : 16, "lemma" : "세기", "type" : "NNG", "position" : 65, "weight" : 0.0445751 },
		{"id" : 17, "lemma" : "유럽", "type" : "NNP", "position" : 72, "weight" : 0.0332527 },
		{"id" : 18, "lemma" : "에서", "type" : "JKB", "position" : 78, "weight" : 0.0426768 },
		{"id" : 19, "lemma" : "교회", "type" : "NNG", "position" : 85, "weight" : 0.0332527 },
		{"id" : 20, "lemma" : "음악", "type" : "NNG", "position" : 91, "weight" : 0.0426768 },
		{"id" : 21, "lemma" : "이나", "type" : "JC", "position" : 97, "weight" : 0.0279503 },
		{"id" : 22, "lemma" : "오페라", "type" : "NNG", "position" : 104, "weight" : 0.0345752 },
		{"id" : 23, "lemma" : "에서", "type" : "JKB", "position" : 113, "weight" : 0.0302655 },
		{"id" : 24, "lemma" : "여성", "type" : "NNG", "position" : 120, "weight" : 0.0332527 },
		{"id" : 25, "lemma" : "의", "type" : "JKG", "position" : 126, "weight" : 0.03722 },
		{"id" : 26, "lemma" : "역할", "type" : "NNG", "position" : 130, "weight" : 0.0332527 },
		{"id" : 27, "lemma" : "을", "type" : "JKO", "position" : 136, "weight" : 0.03722 },
		{"id" : 28, "lemma" : "소화", "type" : "NNG", "position" : 140, "weight" : 0.0332527 },
		{"id" : 29, "lemma" : "하", "type" : "XSV", "position" : 146, "weight" : 0.03722 },
		{"id" : 30, "lemma" : "기", "type" : "ETN", "position" : 149, "weight" : 0.0481335 },
		{"id" : 31, "lemma" : "위하", "type" : "VV", "position" : 153, "weight" : 0.0332527 },
		{"id" : 32, "lemma" : "아", "type" : "EC", "position" : 156, "weight" : 0.03722 },
		{"id" : 33, "lemma" : "이", "type" : "NP", "position" : 160, "weight" : 0.0468664 },
		{"id" : 34, "lemma" : "같", "type" : "VA", "position" : 164, "weight" : 0.0468664 },
		{"id" : 35, "lemma" : "은", "type" : "ETM", "position" : 167, "weight" : 0.019639 },
		{"id" : 36, "lemma" : "카스트라토", "type" : "NNG", "position" : 171, "weight" : 0.0328513 },
		{"id" : 37, "lemma" : "들", "type" : "XSN", "position" : 186, "weight" : 0.0435031 },
		{"id" : 38, "lemma" : "의", "type" : "JKG", "position" : 189, "weight" : 0.045647 },
		{"id" : 39, "lemma" : "활약", "type" : "NNG", "position" : 193, "weight" : 0.0332527 },
		{"id" : 40, "lemma" : "이", "type" : "JKS", "position" : 199, "weight" : 0.03722 },
		{"id" : 41, "lemma" : "두드러지", "type" : "VA", "position" : 203, "weight" : 0.0379647 },
		{"id" : 42, "lemma" : "었", "type" : "EP", "position" : 212, "weight" : 0.0123975 },
		{"id" : 43, "lemma" : "고", "type" : "EC", "position" : 215, "weight" : 0.0435031 },
		{"id" : 44, "lemma" : "크", "type" : "VA", "position" : 219, "weight" : 0.0468664 },
		{"id" : 45, "lemma" : "ㄴ", "type" : "ETM", "position" : 219, "weight" : 0.019639 },
		{"id" : 46, "lemma" : "인기", "type" : "NNG", "position" : 223, "weight" : 0.0332527 },
		{"id" : 47, "lemma" : "를", "type" : "JKO", "position" : 229, "weight" : 0.03722 },
		{"id" : 48, "lemma" : "누리", "type" : "VV", "position" : 233, "weight" : 0.0332527 },
		{"id" : 49, "lemma" : "기", "type" : "ETN", "position" : 239, "weight" : 0.03722 },
		{"id" : 50, "lemma" : "도", "type" : "JX", "position" : 242, "weight" : 0.0481335 },
		{"id" : 51, "lemma" : "하", "type" : "VX", "position" : 246, "weight" : 0.0468664 },
		{"id" : 52, "lemma" : "았", "type" : "EP", "position" : 246, "weight" : 0.019639 },
		{"id" : 53, "lemma" : "다", "type" : "EF", "position" : 249, "weight" : 0.03722 },
		{"id" : 54, "lemma" : "．", "type" : "SF", "position" : 252, "weight" : 0.0481335 }
	],
	"morp_eval" : [
	],
	"WSD" : [
	],
	"word" : [
		{"id" : 0, "text" : "여성이", "type" : "", "begin" : 0, "end" : 1},
		{"id" : 1, "text" : "대중", "type" : "", "begin" : 2, "end" : 2},
		{"id" : 2, "text" : "앞에서", "type" : "", "begin" : 3, "end" : 4},
		{"id" : 3, "text" : "노래를", "type" : "", "begin" : 5, "end" : 6},
		{"id" : 4, "text" : "부를", "type" : "", "begin" : 7, "end" : 8},
		{"id" : 5, "text" : "수", "type" : "", "begin" : 9, "end" : 9},
		{"id" : 6, "text" : "없었던", "type" : "", "begin" : 10, "end" : 12},
		{"id" : 7, "text" : "16∼18세기", "type" : "", "begin" : 13, "end" : 16},
		{"id" : 8, "text" : "유럽에서", "type" : "", "begin" : 17, "end" : 18},
		{"id" : 9, "text" : "교회음악이나", "type" : "", "begin" : 19, "end" : 21},
		{"id" : 10, "text" : "오페라에서", "type" : "", "begin" : 22, "end" : 23},
		{"id" : 11, "text" : "여성의", "type" : "", "begin" : 24, "end" : 25},
		{"id" : 12, "text" : "역할을", "type" : "", "begin" : 26, "end" : 27},
		{"id" : 13, "text" : "소화하기", "type" : "", "begin" : 28, "end" : 30},
		{"id" : 14, "text" : "위해", "type" : "", "begin" : 31, "end" : 32},
		{"id" : 15, "text" : "이", "type" : "", "begin" : 33, "end" : 33},
		{"id" : 16, "text" : "같은", "type" : "", "begin" : 34, "end" : 35},
		{"id" : 17, "text" : "카스트라토들의", "type" : "", "begin" : 36, "end" : 38},
		{"id" : 18, "text" : "활약이", "type" : "", "begin" : 39, "end" : 40},
		{"id" : 19, "text" : "두드러졌고", "type" : "", "begin" : 41, "end" : 43},
		{"id" : 20, "text" : "큰", "type" : "", "begin" : 44, "end" : 45},
		{"id" : 21, "text" : "인기를", "type" : "", "begin" : 46, "end" : 47},
		{"id" : 22, "text" : "누리기도", "type" : "", "begin" : 48, "end" : 50},
		{"id" : 23, "text" : "했다．", "type" : "", "begin" : 51, "end" : 54}
	],
	"NE" : [
		{"id" : 0, "text" : "16∼18세기", "type" : "DT_DURATION", "begin" : 13, "end" : 16, "weight" : 0.623667, "common_noun" : 0},
		{"id" : 1, "text" : "유럽", "type" : "LCG_CONTINENT", "begin" : 17, "end" : 17, "weight" : 0.547213, "common_noun" : 0},
		{"id" : 2, "text" : "교회음악", "type" : "FD_ART", "begin" : 19, "end" : 20, "weight" : 0.460105, "common_noun" : 0},
		{"id" : 3, "text" : "오페라", "type" : "FD_ART", "begin" : 22, "end" : 22, "weight" : 0.275638, "common_noun" : 0},
		{"id" : 4, "text" : "카스트라토", "type" : "CV_OCCUPATION", "begin" : 36, "end" : 36, "weight" : 0.282517, "common_noun" : 0}
	],
	"chunk" : [
	],
	"dependency" : [
		{"id" : 0, "text" : "여성이", "head" : 4, "label" : "NP_SBJ", "mod" : [], "weight" : 0.704742 },
		{"id" : 1, "text" : "대중", "head" : 2, "label" : "NP", "mod" : [], "weight" : 0.937527 },
		{"id" : 2, "text" : "앞에서", "head" : 4, "label" : "NP_AJT", "mod" : [1], "weight" : 0.794354 },
		{"id" : 3, "text" : "노래를", "head" : 4, "label" : "NP_OBJ", "mod" : [], "weight" : 0.968931 },
		{"id" : 4, "text" : "부를", "head" : 5, "label" : "VP_MOD", "mod" : [0, 2, 3], "weight" : 0.833042 },
		{"id" : 5, "text" : "수", "head" : 6, "label" : "NP_SBJ", "mod" : [4], "weight" : 0.868794 },
		{"id" : 6, "text" : "없었던", "head" : 8, "label" : "VP_MOD", "mod" : [5], "weight" : 0.707698 },
		{"id" : 7, "text" : "16∼18세기", "head" : 8, "label" : "NP", "mod" : [], "weight" : 0.655279 },
		{"id" : 8, "text" : "유럽에서", "head" : 13, "label" : "NP_AJT", "mod" : [6, 7], "weight" : 0.927254 },
		{"id" : 9, "text" : "교회음악이나", "head" : 10, "label" : "NP_CNJ", "mod" : [], "weight" : 0.814383 },
		{"id" : 10, "text" : "오페라에서", "head" : 13, "label" : "NP_AJT", "mod" : [9], "weight" : 0.940934 },
		{"id" : 11, "text" : "여성의", "head" : 12, "label" : "NP_MOD", "mod" : [], "weight" : 0.902461 },
		{"id" : 12, "text" : "역할을", "head" : 13, "label" : "NP_OBJ", "mod" : [11], "weight" : 0.876721 },
		{"id" : 13, "text" : "소화하기", "head" : 14, "label" : "VP_OBJ", "mod" : [8, 10, 12], "weight" : 0.816828 },
		{"id" : 14, "text" : "위해", "head" : 19, "label" : "VP", "mod" : [13], "weight" : 0.864486 },
		{"id" : 15, "text" : "이", "head" : 16, "label" : "NP_AJT", "mod" : [], "weight" : 0.752193 },
		{"id" : 16, "text" : "같은", "head" : 17, "label" : "VP_MOD", "mod" : [15], "weight" : 0.618591 },
		{"id" : 17, "text" : "카스트라토들의", "head" : 18, "label" : "NP_MOD", "mod" : [16], "weight" : 0.794557 },
		{"id" : 18, "text" : "활약이", "head" : 19, "label" : "NP_SBJ", "mod" : [17], "weight" : 0.848115 },
		{"id" : 19, "text" : "두드러졌고", "head" : 22, "label" : "VP", "mod" : [14, 18], "weight" : 0.767888 },
		{"id" : 20, "text" : "큰", "head" : 21, "label" : "VP_MOD", "mod" : [], "weight" : 0.903455 },
		{"id" : 21, "text" : "인기를", "head" : 22, "label" : "NP_OBJ", "mod" : [20], "weight" : 0.585173 },
		{"id" : 22, "text" : "누리기도", "head" : 23, "label" : "VP", "mod" : [19, 21], "weight" : 0.533905 },
		{"id" : 23, "text" : "했다．", "head" : -1, "label" : "VP", "mod" : [22], "weight" : 0.375471 }
	],
	"SRL" : [
		{"verb" : "부르", "sense" : 1, "word_id" : 4, "weight" : 0.169708,
			"argument" : [
				{"type" : "ARG0", "word_id" : 0, "text" : "여성이", "weight" : 0.144949 },
				{"type" : "ARGM-LOC", "word_id" : 2, "text" : "앞에서", "weight" : 0.11514 },
				{"type" : "ARG1", "word_id" : 3, "text" : "노래를", "weight" : 0.193025 },
				{"type" : "ARGM-NEG", "word_id" : 6, "text" : "없었던", "weight" : 0.225717 }
			] },
		{"verb" : "소화", "sense" : 1, "word_id" : 13, "weight" : 0.168118,
			"argument" : [
				{"type" : "ARGM-LOC", "word_id" : 8, "text" : "유럽에서", "weight" : 0.113979 },
				{"type" : "ARG1", "word_id" : 12, "text" : "역할을", "weight" : 0.222257 }
			] },
		{"verb" : "위하", "sense" : 1, "word_id" : 14, "weight" : 0.186662,
			"argument" : [
				{"type" : "ARG1", "word_id" : 13, "text" : "소화하기", "weight" : 0.186662 }
			] },
		{"verb" : "같", "sense" : 1, "word_id" : 16, "weight" : 0.158201,
			"argument" : [
				{"type" : "ARG2", "word_id" : 15, "text" : "이", "weight" : 0.138801 },
				{"type" : "ARG1", "word_id" : 17, "text" : "카스트라토들의", "weight" : 0.177601 }
			] },
		{"verb" : "두드러지", "sense" : 2, "word_id" : 19, "weight" : 0.178963,
			"argument" : [
				{"type" : "ARGM-PRP", "word_id" : 14, "text" : "위해", "weight" : 0.179248 },
				{"type" : "ARG1", "word_id" : 18, "text" : "활약이", "weight" : 0.178679 }
			] },
		{"verb" : "크", "sense" : 1, "word_id" : 20, "weight" : 0.213718,
			"argument" : [
				{"type" : "ARG1", "word_id" : 21, "text" : "인기를", "weight" : 0.213718 }
			] },
		{"verb" : "누리", "sense" : 1, "word_id" : 22, "weight" : 0.214058,
			"argument" : [
				{"type" : "ARG1", "word_id" : 21, "text" : "인기를", "weight" : 0.149081 },
				{"type" : "AUX", "word_id" : 23, "text" : "했다．", "weight" : 0.279034 }
			] }
	],
	"relation" : [
	],
	"SA" : [
	],
	"ZA" : [
	]
	}
 ],
 "entity" : [
 ]
}

