{"doc_id" : "E2014.243_A_01",
 "DCT" : "",
 "category" : "",
 "category_weight" : 0,
 "title" : {"text" : "", "NE" : ""},
 "metaInfo" : { },
 "sentence" : [
	{
	"id" : 0,
	"reserve_str" : "",
	"text" : " 늙은이는 깊은 물속으로 휩쓸려 들어가 기어코 물에 빠져 죽고 말았다.",
	"morp" : [
		{"id" : 0, "lemma" : "늙은이", "type" : "NNG", "position" : 1, "weight" : 1 },
		{"id" : 1, "lemma" : "는", "type" : "JX", "position" : 10, "weight" : 0.0459103 },
		{"id" : 2, "lemma" : "깊", "type" : "VA", "position" : 14, "weight" : 1 },
		{"id" : 3, "lemma" : "은", "type" : "ETM", "position" : 17, "weight" : 1 },
		{"id" : 4, "lemma" : "물속", "type" : "NNG", "position" : 21, "weight" : 1 },
		{"id" : 5, "lemma" : "으로", "type" : "JKB", "position" : 27, "weight" : 0.522955 },
		{"id" : 6, "lemma" : "휩쓸리", "type" : "VV", "position" : 34, "weight" : 1 },
		{"id" : 7, "lemma" : "어", "type" : "EC", "position" : 40, "weight" : 0.0459103 },
		{"id" : 8, "lemma" : "들어가", "type" : "VV", "position" : 44, "weight" : 1 },
		{"id" : 9, "lemma" : "아", "type" : "EC", "position" : 50, "weight" : 0.0459103 },
		{"id" : 10, "lemma" : "기어코", "type" : "MAG", "position" : 54, "weight" : 1 },
		{"id" : 11, "lemma" : "물", "type" : "NNG", "position" : 64, "weight" : 1 },
		{"id" : 12, "lemma" : "에", "type" : "JKB", "position" : 67, "weight" : 1 },
		{"id" : 13, "lemma" : "빠지", "type" : "VV", "position" : 71, "weight" : 1 },
		{"id" : 14, "lemma" : "어", "type" : "EC", "position" : 74, "weight" : 1 },
		{"id" : 15, "lemma" : "죽", "type" : "VV", "position" : 78, "weight" : 1 },
		{"id" : 16, "lemma" : "고", "type" : "EC", "position" : 81, "weight" : 1 },
		{"id" : 17, "lemma" : "말", "type" : "VX", "position" : 85, "weight" : 1 },
		{"id" : 18, "lemma" : "았", "type" : "EP", "position" : 88, "weight" : 1 },
		{"id" : 19, "lemma" : "다", "type" : "EF", "position" : 91, "weight" : 1 },
		{"id" : 20, "lemma" : ".", "type" : "SF", "position" : 94, "weight" : 0.0459103 }
	],
	"morp_eval" : [
	],
	"WSD" : [
	],
	"word" : [
		{"id" : 0, "text" : "늙은이는", "type" : "", "begin" : 0, "end" : 1},
		{"id" : 1, "text" : "깊은", "type" : "", "begin" : 2, "end" : 3},
		{"id" : 2, "text" : "물속으로", "type" : "", "begin" : 4, "end" : 5},
		{"id" : 3, "text" : "휩쓸려", "type" : "", "begin" : 6, "end" : 7},
		{"id" : 4, "text" : "들어가", "type" : "", "begin" : 8, "end" : 9},
		{"id" : 5, "text" : "기어코", "type" : "", "begin" : 10, "end" : 10},
		{"id" : 6, "text" : "물에", "type" : "", "begin" : 11, "end" : 12},
		{"id" : 7, "text" : "빠져", "type" : "", "begin" : 13, "end" : 14},
		{"id" : 8, "text" : "죽고", "type" : "", "begin" : 15, "end" : 16},
		{"id" : 9, "text" : "말았다.", "type" : "", "begin" : 17, "end" : 20}
	],
	"NE" : [
	],
	"chunk" : [
	],
	"dependency" : [
		{"id" : 0, "text" : "늙은이는", "head" : 3, "label" : "NP_SBJ", "mod" : [], "weight" : 0.67626 },
		{"id" : 1, "text" : "깊은", "head" : 2, "label" : "VP_MOD", "mod" : [], "weight" : 0.706297 },
		{"id" : 2, "text" : "물속으로", "head" : 3, "label" : "NP_AJT", "mod" : [1], "weight" : 0.953491 },
		{"id" : 3, "text" : "휩쓸려", "head" : 4, "label" : "VP", "mod" : [0, 2], "weight" : 0.910769 },
		{"id" : 4, "text" : "들어가", "head" : 7, "label" : "VP", "mod" : [3], "weight" : 0.876599 },
		{"id" : 5, "text" : "기어코", "head" : 7, "label" : "AP", "mod" : [], "weight" : 0.801931 },
		{"id" : 6, "text" : "물에", "head" : 7, "label" : "NP_AJT", "mod" : [], "weight" : 0.622512 },
		{"id" : 7, "text" : "빠져", "head" : 8, "label" : "VP", "mod" : [4, 5, 6], "weight" : 0.663088 },
		{"id" : 8, "text" : "죽고", "head" : 9, "label" : "VP", "mod" : [7], "weight" : 0.53497 },
		{"id" : 9, "text" : "말았다.", "head" : -1, "label" : "VP", "mod" : [8], "weight" : 0.452374 }
	],
	"SRL" : [
		{"verb" : "깊", "sense" : 1, "word_id" : 1, "weight" : 0.19237,
			"argument" : [
				{"type" : "ARG1", "word_id" : 2, "text" : "물속으로", "weight" : 0.19237 }
			] },
		{"verb" : "휩쓸", "sense" : 1, "word_id" : 3, "weight" : 0.752702,
			"argument" : [
				{"type" : "ARG1", "word_id" : 0, "text" : "늙은이는", "weight" : 0.102114 },
				{"type" : "ARGM-DIR", "word_id" : 2, "text" : "물속으로", "weight" : 0.484262 }
			] },
		{"verb" : "들어가", "sense" : 1, "word_id" : 4, "weight" : 0,
			"argument" : [
				{"type" : "ARG0", "word_id" : 0, "text" : "늙은이는", "weight" : 0 },
				{"type" : "ARG3", "word_id" : 2, "text" : "물속으로", "weight" : 0 },
				{"type" : "ARGM-MNR", "word_id" : 3, "text" : "휩쓸려", "weight" : 0 }
			] },
		{"verb" : "빠지", "sense" : 1, "word_id" : 7, "weight" : 0.975179,
			"argument" : [
				{"type" : "ARGM-ADV", "word_id" : 5, "text" : "기어코", "weight" : 0.69991 },
				{"type" : "ARG2", "word_id" : 6, "text" : "물에", "weight" : 0.125045 },
				{"type" : "ARG1", "word_id" : 0, "text" : "늙은이는", "weight" : 0 }
			] },
		{"verb" : "죽", "sense" : 1, "word_id" : 8, "weight" : 0.11309,
			"argument" : [
				{"type" : "ARGM-MNR", "word_id" : 7, "text" : "빠져", "weight" : 0.791388 },
				{"type" : "AUX", "word_id" : 9, "text" : "말았다.", "weight" : 0.14704 },
				{"type" : "ARG1", "word_id" : 0, "text" : "늙은이는", "weight" : 0 }
			] }
	],
	"relation" : [
	],
	"SA" : [
	],
	"ZA" : [
	]
	},
	{
	"id" : 1,
	"reserve_str" : "",
	"text" : " 이때 그 아내는 들고 오던 공후를 끌어 잡아 타면서 ‘공무도하’의 노래를 지어 불렀다.  ",
	"morp" : [
		{"id" : 0, "lemma" : "이때", "type" : "NNG", "position" : 96, "weight" : 0.0192962 },
		{"id" : 1, "lemma" : "그", "type" : "MM", "position" : 103, "weight" : 0.0283748 },
		{"id" : 2, "lemma" : "아내", "type" : "NNG", "position" : 107, "weight" : 0.0192962 },
		{"id" : 3, "lemma" : "는", "type" : "JX", "position" : 113, "weight" : 0.04526 },
		{"id" : 4, "lemma" : "들", "type" : "VV", "position" : 117, "weight" : 0.0283748 },
		{"id" : 5, "lemma" : "고", "type" : "EC", "position" : 120, "weight" : 0.0102177 },
		{"id" : 6, "lemma" : "오", "type" : "VV", "position" : 124, "weight" : 0.0283748 },
		{"id" : 7, "lemma" : "던", "type" : "ETM", "position" : 127, "weight" : 0.0102177 },
		{"id" : 8, "lemma" : "공후", "type" : "NNG", "position" : 131, "weight" : 0.0192962 },
		{"id" : 9, "lemma" : "를", "type" : "JKO", "position" : 137, "weight" : 0.04526 },
		{"id" : 10, "lemma" : "끌", "type" : "VV", "position" : 141, "weight" : 0.0283748 },
		{"id" : 11, "lemma" : "어", "type" : "EC", "position" : 144, "weight" : 0.0102177 },
		{"id" : 12, "lemma" : "잡", "type" : "VV", "position" : 148, "weight" : 0.0283748 },
		{"id" : 13, "lemma" : "아", "type" : "EC", "position" : 151, "weight" : 0.0102177 },
		{"id" : 14, "lemma" : "타", "type" : "VV", "position" : 155, "weight" : 0.0283748 },
		{"id" : 15, "lemma" : "면서", "type" : "EC", "position" : 158, "weight" : 0.0277388 },
		{"id" : 16, "lemma" : "‘", "type" : "SS", "position" : 165, "weight" : 0.0283748 },
		{"id" : 17, "lemma" : "공무도하", "type" : "NNP", "position" : 168, "weight" : 0.0326802 },
		{"id" : 18, "lemma" : "’", "type" : "SS", "position" : 180, "weight" : 0.0231379 },
		{"id" : 19, "lemma" : "의", "type" : "JKG", "position" : 183, "weight" : 0.0337336 },
		{"id" : 20, "lemma" : "노래", "type" : "NNG", "position" : 187, "weight" : 0.0192962 },
		{"id" : 21, "lemma" : "를", "type" : "JKO", "position" : 193, "weight" : 0.04526 },
		{"id" : 22, "lemma" : "짓", "type" : "VV", "position" : 197, "weight" : 0.0283748 },
		{"id" : 23, "lemma" : "어", "type" : "EC", "position" : 200, "weight" : 0.0102177 },
		{"id" : 24, "lemma" : "부르", "type" : "VV", "position" : 204, "weight" : 0.0283748 },
		{"id" : 25, "lemma" : "었", "type" : "EP", "position" : 204, "weight" : 0.0102177 },
		{"id" : 26, "lemma" : "다", "type" : "EF", "position" : 210, "weight" : 0.04526 },
		{"id" : 27, "lemma" : ".", "type" : "SF", "position" : 213, "weight" : 0.042563 }
	],
	"morp_eval" : [
	],
	"WSD" : [
	],
	"word" : [
		{"id" : 0, "text" : "이때", "type" : "", "begin" : 0, "end" : 0},
		{"id" : 1, "text" : "그", "type" : "", "begin" : 1, "end" : 1},
		{"id" : 2, "text" : "아내는", "type" : "", "begin" : 2, "end" : 3},
		{"id" : 3, "text" : "들고", "type" : "", "begin" : 4, "end" : 5},
		{"id" : 4, "text" : "오던", "type" : "", "begin" : 6, "end" : 7},
		{"id" : 5, "text" : "공후를", "type" : "", "begin" : 8, "end" : 9},
		{"id" : 6, "text" : "끌어", "type" : "", "begin" : 10, "end" : 11},
		{"id" : 7, "text" : "잡아", "type" : "", "begin" : 12, "end" : 13},
		{"id" : 8, "text" : "타면서", "type" : "", "begin" : 14, "end" : 15},
		{"id" : 9, "text" : "‘공무도하’의", "type" : "", "begin" : 16, "end" : 19},
		{"id" : 10, "text" : "노래를", "type" : "", "begin" : 20, "end" : 21},
		{"id" : 11, "text" : "지어", "type" : "", "begin" : 22, "end" : 23},
		{"id" : 12, "text" : "불렀다.", "type" : "", "begin" : 24, "end" : 27}
	],
	"NE" : [
		{"id" : 0, "text" : "아내", "type" : "CV_RELATION", "begin" : 2, "end" : 2, "weight" : 0.365999, "common_noun" : 0},
		{"id" : 1, "text" : "공후", "type" : "AF_MUSICAL_INSTRUMENT", "begin" : 8, "end" : 8, "weight" : 0.365999, "common_noun" : 0},
		{"id" : 2, "text" : "공무도하", "type" : "AFW_MUSIC", "begin" : 17, "end" : 17, "weight" : 0.365999, "common_noun" : 0}
	],
	"chunk" : [
	],
	"dependency" : [
		{"id" : 0, "text" : "이때", "head" : 6, "label" : "NP_AJT", "mod" : [], "weight" : 0.623944 },
		{"id" : 1, "text" : "그", "head" : 2, "label" : "DP", "mod" : [], "weight" : 0.768692 },
		{"id" : 2, "text" : "아내는", "head" : 6, "label" : "NP_SBJ", "mod" : [1], "weight" : 0.725622 },
		{"id" : 3, "text" : "들고", "head" : 4, "label" : "VP", "mod" : [], "weight" : 0.975335 },
		{"id" : 4, "text" : "오던", "head" : 5, "label" : "VP_MOD", "mod" : [3], "weight" : 0.702443 },
		{"id" : 5, "text" : "공후를", "head" : 6, "label" : "NP_OBJ", "mod" : [4], "weight" : 0.97869 },
		{"id" : 6, "text" : "끌어", "head" : 7, "label" : "VP", "mod" : [0, 2, 5], "weight" : 0.91229 },
		{"id" : 7, "text" : "잡아", "head" : 8, "label" : "VP", "mod" : [6], "weight" : 0.702407 },
		{"id" : 8, "text" : "타면서", "head" : 11, "label" : "VP", "mod" : [7], "weight" : 0.731662 },
		{"id" : 9, "text" : "‘공무도하’의", "head" : 10, "label" : "NP_MOD", "mod" : [], "weight" : 0.963286 },
		{"id" : 10, "text" : "노래를", "head" : 11, "label" : "NP_OBJ", "mod" : [9], "weight" : 0.720054 },
		{"id" : 11, "text" : "지어", "head" : 12, "label" : "VP", "mod" : [8, 10], "weight" : 0.532969 },
		{"id" : 12, "text" : "불렀다.", "head" : -1, "label" : "VP", "mod" : [11], "weight" : 0.338374 }
	],
	"SRL" : [
		{"verb" : "들", "sense" : 1, "word_id" : 3, "weight" : 0.125708,
			"argument" : [
				{"type" : "ARG0", "word_id" : 2, "text" : "아내는", "weight" : 0.89752 },
				{"type" : "ARG1", "word_id" : 5, "text" : "공후를", "weight" : 0.986378 }
			] },
		{"verb" : "오", "sense" : 1, "word_id" : 4, "weight" : 0,
			"argument" : [
				{"type" : "ARG0", "word_id" : 2, "text" : "아내는", "weight" : 0 }
			] },
		{"verb" : "끌", "sense" : 1, "word_id" : 6, "weight" : 0.186152,
			"argument" : [
				{"type" : "ARG0", "word_id" : 2, "text" : "아내는", "weight" : 0.145942 },
				{"type" : "ARG1", "word_id" : 5, "text" : "공후를", "weight" : 0.226362 },
				{"type" : "ARGM-TMP", "word_id" : 0, "text" : "이때", "weight" : 0 }
			] },
		{"verb" : "잡", "sense" : 1, "word_id" : 7, "weight" : 0,
			"argument" : [
				{"type" : "ARG1", "word_id" : 5, "text" : "공후를", "weight" : 0 },
				{"type" : "ARG0", "word_id" : 2, "text" : "아내는", "weight" : 0 },
				{"type" : "ARGM-TMP", "word_id" : 0, "text" : "이때", "weight" : 0 },
				{"type" : "ARGM-MNR", "word_id" : 6, "text" : "끌어", "weight" : 0 }
			] },
		{"verb" : "타", "sense" : 4, "word_id" : 8, "weight" : 0,
			"argument" : [
				{"type" : "ARG0", "word_id" : 2, "text" : "아내는", "weight" : 0 },
				{"type" : "ARG1", "word_id" : 5, "text" : "공후를", "weight" : 0 },
				{"type" : "ARGM-MNR", "word_id" : 7, "text" : "잡아", "weight" : 0 },
				{"type" : "ARGM-TMP", "word_id" : 0, "text" : "이때", "weight" : 0 }
			] },
		{"verb" : "짓", "sense" : 1, "word_id" : 11, "weight" : 0.143099,
			"argument" : [
				{"type" : "ARG1", "word_id" : 10, "text" : "노래를", "weight" : 0.224594 },
				{"type" : "ARG0", "word_id" : 2, "text" : "아내는", "weight" : 0 },
				{"type" : "ARGM-TMP", "word_id" : 0, "text" : "이때", "weight" : 0 }
			] },
		{"verb" : "부르", "sense" : 1, "word_id" : 12, "weight" : 0,
			"argument" : [
				{"type" : "ARG0", "word_id" : 2, "text" : "아내는", "weight" : 0 },
				{"type" : "ARG1", "word_id" : 10, "text" : "노래를", "weight" : 0 },
				{"type" : "ARGM-TMP", "word_id" : 0, "text" : "이때", "weight" : 0 }
			] }
	],
	"relation" : [
	],
	"SA" : [
	],
	"ZA" : [
	]
	}
 ],
 "entity" : [
 ]
}

