{"doc_id" : "E2015.943.008_A_02",
 "DCT" : "",
 "category" : "",
 "category_weight" : 0,
 "title" : {"text" : "", "NE" : ""},
 "metaInfo" : { },
 "sentence" : [
	{
	"id" : 0,
	"reserve_str" : "",
	"text" : "1926년 6월 10일 조선의 마지막 국왕인 융희(隆熙) 순종 황제의 인산일(因山日 출상일)을 기하여 일어난 독립운동.",
	"morp" : [
		{"id" : 0, "lemma" : "1926", "type" : "SN", "position" : 0, "weight" : 1 },
		{"id" : 1, "lemma" : "년", "type" : "NNB", "position" : 4, "weight" : 0.0455751 },
		{"id" : 2, "lemma" : "6", "type" : "SN", "position" : 8, "weight" : 1 },
		{"id" : 3, "lemma" : "월", "type" : "NNB", "position" : 9, "weight" : 1 },
		{"id" : 4, "lemma" : "10", "type" : "SN", "position" : 13, "weight" : 1 },
		{"id" : 5, "lemma" : "일", "type" : "NNB", "position" : 15, "weight" : 1 },
		{"id" : 6, "lemma" : "조선", "type" : "NNP", "position" : 19, "weight" : 1 },
		{"id" : 7, "lemma" : "의", "type" : "JKG", "position" : 25, "weight" : 1 },
		{"id" : 8, "lemma" : "마지막", "type" : "NNG", "position" : 29, "weight" : 1 },
		{"id" : 9, "lemma" : "국왕", "type" : "NNG", "position" : 39, "weight" : 1 },
		{"id" : 10, "lemma" : "이", "type" : "VCP", "position" : 45, "weight" : 1 },
		{"id" : 11, "lemma" : "ㄴ", "type" : "ETM", "position" : 45, "weight" : 1 },
		{"id" : 12, "lemma" : "융희", "type" : "NNP", "position" : 49, "weight" : 1 },
		{"id" : 13, "lemma" : "(", "type" : "SS", "position" : 55, "weight" : 1 },
		{"id" : 14, "lemma" : "隆熙", "type" : "SH", "position" : 56, "weight" : 0.522788 },
		{"id" : 15, "lemma" : ")", "type" : "SS", "position" : 62, "weight" : 1 },
		{"id" : 16, "lemma" : "순종", "type" : "NNP", "position" : 64, "weight" : 1 },
		{"id" : 17, "lemma" : "황제", "type" : "NNG", "position" : 71, "weight" : 1 },
		{"id" : 18, "lemma" : "의", "type" : "JKG", "position" : 77, "weight" : 1 },
		{"id" : 19, "lemma" : "인산", "type" : "NNG", "position" : 81, "weight" : 1 },
		{"id" : 20, "lemma" : "일", "type" : "XSN", "position" : 87, "weight" : 1 },
		{"id" : 21, "lemma" : "(", "type" : "SS", "position" : 90, "weight" : 1 },
		{"id" : 22, "lemma" : "因山日", "type" : "SH", "position" : 91, "weight" : 0.365118 },
		{"id" : 23, "lemma" : "출상", "type" : "NNG", "position" : 101, "weight" : 1 },
		{"id" : 24, "lemma" : "일", "type" : "XSN", "position" : 101, "weight" : 1 },
		{"id" : 25, "lemma" : ")", "type" : "SS", "position" : 110, "weight" : 1 },
		{"id" : 26, "lemma" : "을", "type" : "JKO", "position" : 111, "weight" : 0.0455751 },
		{"id" : 27, "lemma" : "기하", "type" : "VV", "position" : 115, "weight" : 1 },
		{"id" : 28, "lemma" : "아", "type" : "EC", "position" : 121, "weight" : 1 },
		{"id" : 29, "lemma" : "일어나", "type" : "VV", "position" : 125, "weight" : 1 },
		{"id" : 30, "lemma" : "ㄴ", "type" : "ETM", "position" : 131, "weight" : 1 },
		{"id" : 31, "lemma" : "독립", "type" : "NNG", "position" : 135, "weight" : 1 },
		{"id" : 32, "lemma" : "운동", "type" : "NNG", "position" : 141, "weight" : 1 },
		{"id" : 33, "lemma" : ".", "type" : "SF", "position" : 147, "weight" : 0.0455751 }
	],
	"morp_eval" : [
	],
	"WSD" : [
	],
	"word" : [
		{"id" : 0, "text" : "1926년", "type" : "", "begin" : 0, "end" : 1},
		{"id" : 1, "text" : "6월", "type" : "", "begin" : 2, "end" : 3},
		{"id" : 2, "text" : "10일", "type" : "", "begin" : 4, "end" : 5},
		{"id" : 3, "text" : "조선의", "type" : "", "begin" : 6, "end" : 7},
		{"id" : 4, "text" : "마지막", "type" : "", "begin" : 8, "end" : 8},
		{"id" : 5, "text" : "국왕인", "type" : "", "begin" : 9, "end" : 11},
		{"id" : 6, "text" : "융희(隆熙)", "type" : "", "begin" : 12, "end" : 15},
		{"id" : 7, "text" : "순종", "type" : "", "begin" : 16, "end" : 16},
		{"id" : 8, "text" : "황제의", "type" : "", "begin" : 17, "end" : 18},
		{"id" : 9, "text" : "인산일(因山日", "type" : "", "begin" : 19, "end" : 22},
		{"id" : 10, "text" : "출상일)을", "type" : "", "begin" : 23, "end" : 26},
		{"id" : 11, "text" : "기하여", "type" : "", "begin" : 27, "end" : 28},
		{"id" : 12, "text" : "일어난", "type" : "", "begin" : 29, "end" : 30},
		{"id" : 13, "text" : "독립운동.", "type" : "", "begin" : 31, "end" : 33}
	],
	"NE" : [
		{"id" : 0, "text" : "1926년 6월 10일", "type" : "DT_OTHERS", "begin" : 0, "end" : 5, "weight" : 0.401108, "common_noun" : 0},
		{"id" : 1, "text" : "조선", "type" : "LCP_COUNTRY", "begin" : 6, "end" : 6, "weight" : 0.199785, "common_noun" : 0},
		{"id" : 2, "text" : "국왕", "type" : "CV_POSITION", "begin" : 9, "end" : 9, "weight" : 0.425964, "common_noun" : 0},
		{"id" : 3, "text" : "융희", "type" : "CV_POSITION", "begin" : 12, "end" : 12, "weight" : 0.124574, "common_noun" : 0},
		{"id" : 4, "text" : "隆熙", "type" : "CV_POSITION", "begin" : 14, "end" : 14, "weight" : 0.124574, "common_noun" : 0},
		{"id" : 5, "text" : "순종", "type" : "PS_NAME", "begin" : 16, "end" : 16, "weight" : 0.418888, "common_noun" : 0},
		{"id" : 6, "text" : "황제", "type" : "CV_POSITION", "begin" : 17, "end" : 17, "weight" : 0.352983, "common_noun" : 0}
	],
	"chunk" : [
	],
	"dependency" : [
		{"id" : 0, "text" : "1926년", "head" : 1, "label" : "NP", "mod" : [], "weight" : 0.704401 },
		{"id" : 1, "text" : "6월", "head" : 2, "label" : "NP", "mod" : [0], "weight" : 0.840867 },
		{"id" : 2, "text" : "10일", "head" : 12, "label" : "NP_AJT", "mod" : [1], "weight" : 0.588443 },
		{"id" : 3, "text" : "조선의", "head" : 5, "label" : "NP_MOD", "mod" : [], "weight" : 0.699706 },
		{"id" : 4, "text" : "마지막", "head" : 5, "label" : "NP", "mod" : [], "weight" : 0.739992 },
		{"id" : 5, "text" : "국왕인", "head" : 8, "label" : "VNP_MOD", "mod" : [3, 4], "weight" : 0.856069 },
		{"id" : 6, "text" : "융희(隆熙)", "head" : 7, "label" : "NP", "mod" : [], "weight" : 0.549615 },
		{"id" : 7, "text" : "순종", "head" : 8, "label" : "NP", "mod" : [6], "weight" : 0.639284 },
		{"id" : 8, "text" : "황제의", "head" : 9, "label" : "NP_MOD", "mod" : [5, 7], "weight" : 0.50189 },
		{"id" : 9, "text" : "인산일(因山日", "head" : 10, "label" : "NP", "mod" : [8], "weight" : 0.750905 },
		{"id" : 10, "text" : "출상일)을", "head" : 11, "label" : "NP_OBJ", "mod" : [9], "weight" : 0.947254 },
		{"id" : 11, "text" : "기하여", "head" : 12, "label" : "VP", "mod" : [10], "weight" : 0.720203 },
		{"id" : 12, "text" : "일어난", "head" : 13, "label" : "VP_MOD", "mod" : [2, 11], "weight" : 0.520553 },
		{"id" : 13, "text" : "독립운동.", "head" : -1, "label" : "NP", "mod" : [12], "weight" : 0.380875 }
	],
	"SRL" : [
		{"verb" : "기하", "sense" : 1, "word_id" : 11, "weight" : 0.203319,
			"argument" : [
				{"type" : "ARG1", "word_id" : 10, "text" : "출상일)을", "weight" : 0.199901 }
			] },
		{"verb" : "일어나", "sense" : 1, "word_id" : 12, "weight" : 0.103966,
			"argument" : [
				{"type" : "ARGM-CAU", "word_id" : 11, "text" : "기하여", "weight" : 0.725423 },
				{"type" : "ARG1", "word_id" : 13, "text" : "독립운동.", "weight" : 0.135389 },
				{"type" : "ARGM-TMP", "word_id" : 2, "text" : "10일", "weight" : 0 }
			] }
	],
	"relation" : [
	],
	"SA" : [
	],
	"ZA" : [
	]
	}
 ],
 "entity" : [
 ]
}

