{"doc_id" : "E2015.943.022_A_05",
 "DCT" : "",
 "category" : "",
 "category_weight" : 0,
 "title" : {"text" : "", "NE" : ""},
 "metaInfo" : { },
 "sentence" : [
	{
	"id" : 0,
	"reserve_str" : "",
	"text" : "조선 후기의 중앙군영.",
	"morp" : [
		{"id" : 0, "lemma" : "조선", "type" : "NNP", "position" : 0, "weight" : 0.0301544 },
		{"id" : 1, "lemma" : "후기", "type" : "NNG", "position" : 7, "weight" : 0.0301544 },
		{"id" : 2, "lemma" : "의", "type" : "JKG", "position" : 13, "weight" : 0.0434296 },
		{"id" : 3, "lemma" : "중앙", "type" : "NNG", "position" : 17, "weight" : 0.0301544 },
		{"id" : 4, "lemma" : "군영", "type" : "NNG", "position" : 23, "weight" : 0.0345673 },
		{"id" : 5, "lemma" : ".", "type" : "SF", "position" : 29, "weight" : 0.0551702 }
	],
	"morp_eval" : [
	],
	"WSD" : [
	],
	"word" : [
		{"id" : 0, "text" : "조선", "type" : "", "begin" : 0, "end" : 0},
		{"id" : 1, "text" : "후기의", "type" : "", "begin" : 1, "end" : 2},
		{"id" : 2, "text" : "중앙군영.", "type" : "", "begin" : 3, "end" : 5}
	],
	"NE" : [
		{"id" : 0, "text" : "조선 후기", "type" : "DT_DYNASTY", "begin" : 0, "end" : 1, "weight" : 0.759171, "common_noun" : 0}
	],
	"chunk" : [
	],
	"dependency" : [
		{"id" : 0, "text" : "조선", "head" : 1, "label" : "NP", "mod" : [], "weight" : 0.67847 },
		{"id" : 1, "text" : "후기의", "head" : 2, "label" : "NP_MOD", "mod" : [0], "weight" : 0.560006 },
		{"id" : 2, "text" : "중앙군영.", "head" : -1, "label" : "NP", "mod" : [1], "weight" : 0.198105 }
	],
	"SRL" : [
	],
	"relation" : [
	],
	"SA" : [
	],
	"ZA" : [
	]
	},
	{
	"id" : 1,
	"reserve_str" : "",
	"text" : "1785년(정조 9) 국왕의 호위를 전담하는 장용위를 창설했다가 93년 왕권의 강화를 위해 이를 확대 개편해 하나의 군영으로 만들고 장용영이라고 했다.",
	"morp" : [
		{"id" : 0, "lemma" : "1785", "type" : "SN", "position" : 31, "weight" : 1 },
		{"id" : 1, "lemma" : "년", "type" : "NNB", "position" : 35, "weight" : 0.045702 },
		{"id" : 2, "lemma" : "(", "type" : "SS", "position" : 38, "weight" : 1 },
		{"id" : 3, "lemma" : "정조", "type" : "NNP", "position" : 39, "weight" : 0.0172558 },
		{"id" : 4, "lemma" : "9", "type" : "SN", "position" : 46, "weight" : 1 },
		{"id" : 5, "lemma" : ")", "type" : "SS", "position" : 47, "weight" : 1 },
		{"id" : 6, "lemma" : "국왕", "type" : "NNG", "position" : 49, "weight" : 1 },
		{"id" : 7, "lemma" : "의", "type" : "JKG", "position" : 55, "weight" : 1 },
		{"id" : 8, "lemma" : "호위", "type" : "NNG", "position" : 59, "weight" : 1 },
		{"id" : 9, "lemma" : "를", "type" : "JKO", "position" : 65, "weight" : 1 },
		{"id" : 10, "lemma" : "전담", "type" : "NNG", "position" : 69, "weight" : 1 },
		{"id" : 11, "lemma" : "하", "type" : "XSV", "position" : 75, "weight" : 1 },
		{"id" : 12, "lemma" : "는", "type" : "ETM", "position" : 78, "weight" : 1 },
		{"id" : 13, "lemma" : "장용위", "type" : "NNG", "position" : 82, "weight" : 1 },
		{"id" : 14, "lemma" : "를", "type" : "JKO", "position" : 91, "weight" : 1 },
		{"id" : 15, "lemma" : "창설", "type" : "NNG", "position" : 95, "weight" : 1 },
		{"id" : 16, "lemma" : "하", "type" : "XSV", "position" : 101, "weight" : 1 },
		{"id" : 17, "lemma" : "았", "type" : "EP", "position" : 101, "weight" : 1 },
		{"id" : 18, "lemma" : "다가", "type" : "EC", "position" : 104, "weight" : 0.522851 },
		{"id" : 19, "lemma" : "93", "type" : "SN", "position" : 111, "weight" : 1 },
		{"id" : 20, "lemma" : "년", "type" : "NNB", "position" : 113, "weight" : 1 },
		{"id" : 21, "lemma" : "왕권", "type" : "NNG", "position" : 117, "weight" : 1 },
		{"id" : 22, "lemma" : "의", "type" : "JKG", "position" : 123, "weight" : 1 },
		{"id" : 23, "lemma" : "강화", "type" : "NNG", "position" : 127, "weight" : 1 },
		{"id" : 24, "lemma" : "를", "type" : "JKO", "position" : 133, "weight" : 1 },
		{"id" : 25, "lemma" : "위하", "type" : "VV", "position" : 137, "weight" : 1 },
		{"id" : 26, "lemma" : "아", "type" : "EC", "position" : 140, "weight" : 1 },
		{"id" : 27, "lemma" : "이", "type" : "NP", "position" : 144, "weight" : 1 },
		{"id" : 28, "lemma" : "를", "type" : "JKO", "position" : 147, "weight" : 1 },
		{"id" : 29, "lemma" : "확대", "type" : "NNG", "position" : 151, "weight" : 1 },
		{"id" : 30, "lemma" : "개편", "type" : "NNG", "position" : 158, "weight" : 1 },
		{"id" : 31, "lemma" : "하", "type" : "XSV", "position" : 164, "weight" : 1 },
		{"id" : 32, "lemma" : "아", "type" : "EC", "position" : 164, "weight" : 1 },
		{"id" : 33, "lemma" : "하나", "type" : "NR", "position" : 168, "weight" : 1 },
		{"id" : 34, "lemma" : "의", "type" : "JKG", "position" : 174, "weight" : 1 },
		{"id" : 35, "lemma" : "군영", "type" : "NNG", "position" : 178, "weight" : 1 },
		{"id" : 36, "lemma" : "으로", "type" : "JKB", "position" : 184, "weight" : 1 },
		{"id" : 37, "lemma" : "만들", "type" : "VV", "position" : 191, "weight" : 1 },
		{"id" : 38, "lemma" : "고", "type" : "EC", "position" : 197, "weight" : 1 },
		{"id" : 39, "lemma" : "장용영", "type" : "NNG", "position" : 201, "weight" : 1 },
		{"id" : 40, "lemma" : "이", "type" : "VCP", "position" : 210, "weight" : 1 },
		{"id" : 41, "lemma" : "라고", "type" : "EC", "position" : 213, "weight" : 0.522851 },
		{"id" : 42, "lemma" : "하", "type" : "VV", "position" : 220, "weight" : 1 },
		{"id" : 43, "lemma" : "았", "type" : "EP", "position" : 220, "weight" : 1 },
		{"id" : 44, "lemma" : "다", "type" : "EF", "position" : 223, "weight" : 1 },
		{"id" : 45, "lemma" : ".", "type" : "SF", "position" : 226, "weight" : 1 }
	],
	"morp_eval" : [
	],
	"WSD" : [
	],
	"word" : [
		{"id" : 0, "text" : "1785년(정조", "type" : "", "begin" : 0, "end" : 3},
		{"id" : 1, "text" : "9)", "type" : "", "begin" : 4, "end" : 5},
		{"id" : 2, "text" : "국왕의", "type" : "", "begin" : 6, "end" : 7},
		{"id" : 3, "text" : "호위를", "type" : "", "begin" : 8, "end" : 9},
		{"id" : 4, "text" : "전담하는", "type" : "", "begin" : 10, "end" : 12},
		{"id" : 5, "text" : "장용위를", "type" : "", "begin" : 13, "end" : 14},
		{"id" : 6, "text" : "창설했다가", "type" : "", "begin" : 15, "end" : 18},
		{"id" : 7, "text" : "93년", "type" : "", "begin" : 19, "end" : 20},
		{"id" : 8, "text" : "왕권의", "type" : "", "begin" : 21, "end" : 22},
		{"id" : 9, "text" : "강화를", "type" : "", "begin" : 23, "end" : 24},
		{"id" : 10, "text" : "위해", "type" : "", "begin" : 25, "end" : 26},
		{"id" : 11, "text" : "이를", "type" : "", "begin" : 27, "end" : 28},
		{"id" : 12, "text" : "확대", "type" : "", "begin" : 29, "end" : 29},
		{"id" : 13, "text" : "개편해", "type" : "", "begin" : 30, "end" : 32},
		{"id" : 14, "text" : "하나의", "type" : "", "begin" : 33, "end" : 34},
		{"id" : 15, "text" : "군영으로", "type" : "", "begin" : 35, "end" : 36},
		{"id" : 16, "text" : "만들고", "type" : "", "begin" : 37, "end" : 38},
		{"id" : 17, "text" : "장용영이라고", "type" : "", "begin" : 39, "end" : 41},
		{"id" : 18, "text" : "했다.", "type" : "", "begin" : 42, "end" : 45}
	],
	"NE" : [
		{"id" : 0, "text" : "1785년", "type" : "DT_YEAR", "begin" : 0, "end" : 1, "weight" : 0.606371, "common_noun" : 0},
		{"id" : 1, "text" : "정조 9", "type" : "DT_DYNASTY", "begin" : 3, "end" : 4, "weight" : 0.453909, "common_noun" : 0},
		{"id" : 2, "text" : "국왕", "type" : "CV_POSITION", "begin" : 6, "end" : 6, "weight" : 0.399134, "common_noun" : 0},
		{"id" : 3, "text" : "장용위", "type" : "OGG_MILITARY", "begin" : 13, "end" : 13, "weight" : 0.167937, "common_noun" : 0},
		{"id" : 4, "text" : "93년", "type" : "DT_YEAR", "begin" : 19, "end" : 20, "weight" : 0.526646, "common_noun" : 0},
		{"id" : 5, "text" : "하나", "type" : "QT_COUNT", "begin" : 33, "end" : 33, "weight" : 0.376971, "common_noun" : 0},
		{"id" : 6, "text" : "장용영", "type" : "OGG_MILITARY", "begin" : 39, "end" : 39, "weight" : 0.376971, "common_noun" : 0}
	],
	"chunk" : [
	],
	"dependency" : [
		{"id" : 0, "text" : "1785년(정조", "head" : 1, "label" : "NP", "mod" : [], "weight" : 0.85722 },
		{"id" : 1, "text" : "9)", "head" : 6, "label" : "NP_AJT", "mod" : [0], "weight" : 0.751718 },
		{"id" : 2, "text" : "국왕의", "head" : 3, "label" : "NP_MOD", "mod" : [], "weight" : 0.841624 },
		{"id" : 3, "text" : "호위를", "head" : 4, "label" : "NP_OBJ", "mod" : [2], "weight" : 0.853734 },
		{"id" : 4, "text" : "전담하는", "head" : 5, "label" : "VP_MOD", "mod" : [3], "weight" : 0.779071 },
		{"id" : 5, "text" : "장용위를", "head" : 6, "label" : "NP_OBJ", "mod" : [4], "weight" : 0.870492 },
		{"id" : 6, "text" : "창설했다가", "head" : 13, "label" : "VP", "mod" : [1, 5], "weight" : 0.783061 },
		{"id" : 7, "text" : "93년", "head" : 10, "label" : "NP_AJT", "mod" : [], "weight" : 0.879023 },
		{"id" : 8, "text" : "왕권의", "head" : 9, "label" : "NP_MOD", "mod" : [], "weight" : 0.999689 },
		{"id" : 9, "text" : "강화를", "head" : 10, "label" : "NP_OBJ", "mod" : [8], "weight" : 0.833082 },
		{"id" : 10, "text" : "위해", "head" : 13, "label" : "VP", "mod" : [7, 9], "weight" : 0.952539 },
		{"id" : 11, "text" : "이를", "head" : 13, "label" : "NP_OBJ", "mod" : [], "weight" : 0.854036 },
		{"id" : 12, "text" : "확대", "head" : 13, "label" : "NP_CNJ", "mod" : [], "weight" : 0.374961 },
		{"id" : 13, "text" : "개편해", "head" : 16, "label" : "VP", "mod" : [6, 10, 11, 12], "weight" : 0.927637 },
		{"id" : 14, "text" : "하나의", "head" : 15, "label" : "NP_MOD", "mod" : [], "weight" : 0.766184 },
		{"id" : 15, "text" : "군영으로", "head" : 16, "label" : "NP_AJT", "mod" : [14], "weight" : 0.93135 },
		{"id" : 16, "text" : "만들고", "head" : 17, "label" : "VP", "mod" : [13, 15], "weight" : 0.79809 },
		{"id" : 17, "text" : "장용영이라고", "head" : 18, "label" : "VNP_CMP", "mod" : [16], "weight" : 0.474259 },
		{"id" : 18, "text" : "했다.", "head" : -1, "label" : "VP", "mod" : [17], "weight" : 0.10745 }
	],
	"SRL" : [
		{"verb" : "전담", "sense" : 1, "word_id" : 4, "weight" : 0.160901,
			"argument" : [
				{"type" : "ARG1", "word_id" : 3, "text" : "호위를", "weight" : 0.160901 }
			] },
		{"verb" : "창설", "sense" : 1, "word_id" : 6, "weight" : 0.215686,
			"argument" : [
				{"type" : "ARGM-TMP", "word_id" : 1, "text" : "9)", "weight" : 0.117772 },
				{"type" : "ARG1", "word_id" : 5, "text" : "장용위를", "weight" : 0.313599 }
			] },
		{"verb" : "위하", "sense" : 1, "word_id" : 10, "weight" : 0.259435,
			"argument" : [
				{"type" : "ARG1", "word_id" : 9, "text" : "강화를", "weight" : 0.259435 }
			] },
		{"verb" : "개편", "sense" : 1, "word_id" : 13, "weight" : 0.138999,
			"argument" : [
				{"type" : "ARGM-TMP", "word_id" : 7, "text" : "93년", "weight" : 0.127063 },
				{"type" : "ARGM-PRP", "word_id" : 10, "text" : "위해", "weight" : 0.113688 },
				{"type" : "ARG1", "word_id" : 11, "text" : "이를", "weight" : 0.176246 }
			] },
		{"verb" : "만들", "sense" : 2, "word_id" : 16, "weight" : 0.908428,
			"argument" : [
				{"type" : "ARGM-MNR", "word_id" : 13, "text" : "개편해", "weight" : 0.111116 },
				{"type" : "ARG2", "word_id" : 15, "text" : "군영으로", "weight" : 0.705698 }
			] },
		{"verb" : "하", "sense" : 2, "word_id" : 18, "weight" : 0.212569,
			"argument" : [
				{"type" : "ARG2", "word_id" : 17, "text" : "장용영이라고", "weight" : 0.212569 }
			] }
	],
	"relation" : [
	],
	"SA" : [
	],
	"ZA" : [
	]
	},
	{
	"id" : 2,
	"reserve_str" : "",
	"text" : "장용영은 서울 중심의 내영(內營)과 수원 중심의 외영(外營)으로 구성되었는데 외영의 장은 수원유수가 겸임했다.",
	"morp" : [
		{"id" : 0, "lemma" : "장용영", "type" : "NNG", "position" : 228, "weight" : 1 },
		{"id" : 1, "lemma" : "은", "type" : "JX", "position" : 237, "weight" : 0.0470088 },
		{"id" : 2, "lemma" : "서울", "type" : "NNP", "position" : 241, "weight" : 1 },
		{"id" : 3, "lemma" : "중심", "type" : "NNG", "position" : 248, "weight" : 1 },
		{"id" : 4, "lemma" : "의", "type" : "JKG", "position" : 254, "weight" : 1 },
		{"id" : 5, "lemma" : "내영", "type" : "NNG", "position" : 258, "weight" : 1 },
		{"id" : 6, "lemma" : "(", "type" : "SS", "position" : 264, "weight" : 1 },
		{"id" : 7, "lemma" : "內營", "type" : "SH", "position" : 265, "weight" : 0.0523106 },
		{"id" : 8, "lemma" : ")", "type" : "SS", "position" : 271, "weight" : 0.0278143 },
		{"id" : 9, "lemma" : "과", "type" : "JC", "position" : 272, "weight" : 0.0299145 },
		{"id" : 10, "lemma" : "수원", "type" : "NNP", "position" : 276, "weight" : 1 },
		{"id" : 11, "lemma" : "중심", "type" : "NNG", "position" : 283, "weight" : 1 },
		{"id" : 12, "lemma" : "의", "type" : "JKG", "position" : 289, "weight" : 1 },
		{"id" : 13, "lemma" : "외영", "type" : "NNG", "position" : 293, "weight" : 1 },
		{"id" : 14, "lemma" : "(", "type" : "SS", "position" : 299, "weight" : 1 },
		{"id" : 15, "lemma" : "外營", "type" : "SH", "position" : 300, "weight" : 0.0523106 },
		{"id" : 16, "lemma" : ")", "type" : "SS", "position" : 306, "weight" : 0.0278143 },
		{"id" : 17, "lemma" : "으로", "type" : "JKB", "position" : 307, "weight" : 0.0319037 },
		{"id" : 18, "lemma" : "구성", "type" : "NNG", "position" : 314, "weight" : 1 },
		{"id" : 19, "lemma" : "되", "type" : "XSV", "position" : 320, "weight" : 1 },
		{"id" : 20, "lemma" : "었", "type" : "EP", "position" : 323, "weight" : 0.0470088 },
		{"id" : 21, "lemma" : "는데", "type" : "EC", "position" : 326, "weight" : 0.0427134 },
		{"id" : 22, "lemma" : "외영", "type" : "NNG", "position" : 333, "weight" : 1 },
		{"id" : 23, "lemma" : "의", "type" : "JKG", "position" : 339, "weight" : 1 },
		{"id" : 24, "lemma" : "장", "type" : "NNG", "position" : 343, "weight" : 1 },
		{"id" : 25, "lemma" : "은", "type" : "JX", "position" : 346, "weight" : 1 },
		{"id" : 26, "lemma" : "수원", "type" : "NNP", "position" : 350, "weight" : 1 },
		{"id" : 27, "lemma" : "유수", "type" : "NNG", "position" : 356, "weight" : 0.523504 },
		{"id" : 28, "lemma" : "가", "type" : "JKS", "position" : 362, "weight" : 0.0576125 },
		{"id" : 29, "lemma" : "겸임", "type" : "NNG", "position" : 366, "weight" : 1 },
		{"id" : 30, "lemma" : "하", "type" : "XSV", "position" : 372, "weight" : 1 },
		{"id" : 31, "lemma" : "았", "type" : "EP", "position" : 372, "weight" : 0.0470088 },
		{"id" : 32, "lemma" : "다", "type" : "EF", "position" : 375, "weight" : 0.0576125 },
		{"id" : 33, "lemma" : ".", "type" : "SF", "position" : 378, "weight" : 0.0278143 }
	],
	"morp_eval" : [
	],
	"WSD" : [
	],
	"word" : [
		{"id" : 0, "text" : "장용영은", "type" : "", "begin" : 0, "end" : 1},
		{"id" : 1, "text" : "서울", "type" : "", "begin" : 2, "end" : 2},
		{"id" : 2, "text" : "중심의", "type" : "", "begin" : 3, "end" : 4},
		{"id" : 3, "text" : "내영(內營)과", "type" : "", "begin" : 5, "end" : 9},
		{"id" : 4, "text" : "수원", "type" : "", "begin" : 10, "end" : 10},
		{"id" : 5, "text" : "중심의", "type" : "", "begin" : 11, "end" : 12},
		{"id" : 6, "text" : "외영(外營)으로", "type" : "", "begin" : 13, "end" : 17},
		{"id" : 7, "text" : "구성되었는데", "type" : "", "begin" : 18, "end" : 21},
		{"id" : 8, "text" : "외영의", "type" : "", "begin" : 22, "end" : 23},
		{"id" : 9, "text" : "장은", "type" : "", "begin" : 24, "end" : 25},
		{"id" : 10, "text" : "수원유수가", "type" : "", "begin" : 26, "end" : 28},
		{"id" : 11, "text" : "겸임했다.", "type" : "", "begin" : 29, "end" : 33}
	],
	"NE" : [
		{"id" : 0, "text" : "장용영", "type" : "OGG_MILITARY", "begin" : 0, "end" : 0, "weight" : 0.142654, "common_noun" : 0},
		{"id" : 1, "text" : "서울", "type" : "LCP_CAPITALCITY", "begin" : 2, "end" : 2, "weight" : 0.329427, "common_noun" : 0},
		{"id" : 2, "text" : "내영", "type" : "OGG_MILITARY", "begin" : 5, "end" : 5, "weight" : 0.648459, "common_noun" : 0},
		{"id" : 3, "text" : "內營", "type" : "OGG_MILITARY", "begin" : 7, "end" : 7, "weight" : 0.648459, "common_noun" : 0},
		{"id" : 4, "text" : "수원", "type" : "LCP_CITY", "begin" : 10, "end" : 10, "weight" : 0.214345, "common_noun" : 0},
		{"id" : 5, "text" : "외영", "type" : "OGG_MILITARY", "begin" : 13, "end" : 13, "weight" : 0.128793, "common_noun" : 0},
		{"id" : 6, "text" : "外營", "type" : "OGG_MILITARY", "begin" : 15, "end" : 15, "weight" : 0.128793, "common_noun" : 0},
		{"id" : 7, "text" : "수원유수", "type" : "CV_POSITION", "begin" : 26, "end" : 27, "weight" : 0.266674, "common_noun" : 0}
	],
	"chunk" : [
	],
	"dependency" : [
		{"id" : 0, "text" : "장용영은", "head" : 7, "label" : "NP_SBJ", "mod" : [], "weight" : 0.987661 },
		{"id" : 1, "text" : "서울", "head" : 2, "label" : "NP", "mod" : [], "weight" : 0.732271 },
		{"id" : 2, "text" : "중심의", "head" : 3, "label" : "NP_MOD", "mod" : [1], "weight" : 0.693325 },
		{"id" : 3, "text" : "내영(內營)과", "head" : 6, "label" : "NP_CNJ", "mod" : [2], "weight" : 0.742539 },
		{"id" : 4, "text" : "수원", "head" : 5, "label" : "NP", "mod" : [], "weight" : 0.836002 },
		{"id" : 5, "text" : "중심의", "head" : 6, "label" : "NP_MOD", "mod" : [4], "weight" : 0.861283 },
		{"id" : 6, "text" : "외영(外營)으로", "head" : 7, "label" : "NP_AJT", "mod" : [3, 5], "weight" : 0.716668 },
		{"id" : 7, "text" : "구성되었는데", "head" : 11, "label" : "VP", "mod" : [0, 6], "weight" : 0.723893 },
		{"id" : 8, "text" : "외영의", "head" : 9, "label" : "NP_MOD", "mod" : [], "weight" : 0.990568 },
		{"id" : 9, "text" : "장은", "head" : 11, "label" : "NP_SBJ", "mod" : [8], "weight" : 0.659145 },
		{"id" : 10, "text" : "수원유수가", "head" : 11, "label" : "NP_SBJ", "mod" : [], "weight" : 0.524827 },
		{"id" : 11, "text" : "겸임했다.", "head" : -1, "label" : "VP", "mod" : [7, 9, 10], "weight" : 0.297396 }
	],
	"SRL" : [
		{"verb" : "구성", "sense" : 1, "word_id" : 7, "weight" : 0.108618,
			"argument" : [
				{"type" : "ARG1", "word_id" : 0, "text" : "장용영은", "weight" : 0.109295 },
				{"type" : "ARG2", "word_id" : 6, "text" : "외영(外營)으로", "weight" : 0.10794 }
			] },
		{"verb" : "겸임", "sense" : 1, "word_id" : 11, "weight" : 0.107681,
			"argument" : [
				{"type" : "ARG1", "word_id" : 9, "text" : "장은", "weight" : 0.13132 },
				{"type" : "ARG0", "word_id" : 10, "text" : "수원유수가", "weight" : 0.840433 }
			] }
	],
	"relation" : [
	],
	"SA" : [
	],
	"ZA" : [
	]
	}
 ],
 "entity" : [
 ]
}

