{"doc_id" : "E2015.947.023_A_04",
 "DCT" : "",
 "category" : "",
 "category_weight" : 0,
 "title" : {"text" : "", "NE" : ""},
 "metaInfo" : { },
 "sentence" : [
	{
	"id" : 0,
	"reserve_str" : "",
	"text" : "부엌에 머물러 있는 가신(家神).",
	"morp" : [
		{"id" : 0, "lemma" : "부엌", "type" : "NNG", "position" : 0, "weight" : 0.0226361 },
		{"id" : 1, "lemma" : "에", "type" : "JKB", "position" : 6, "weight" : 0.0462397 },
		{"id" : 2, "lemma" : "머무르", "type" : "VV", "position" : 10, "weight" : 0.0226361 },
		{"id" : 3, "lemma" : "어", "type" : "EC", "position" : 13, "weight" : 0.0462397 },
		{"id" : 4, "lemma" : "있", "type" : "VX", "position" : 20, "weight" : 0.0284623 },
		{"id" : 5, "lemma" : "는", "type" : "ETM", "position" : 23, "weight" : 0.01681 },
		{"id" : 6, "lemma" : "가신", "type" : "NNG", "position" : 27, "weight" : 0.0226361 },
		{"id" : 7, "lemma" : "(", "type" : "SS", "position" : 33, "weight" : 0.0462397 },
		{"id" : 8, "lemma" : "家神", "type" : "SH", "position" : 34, "weight" : 1 },
		{"id" : 9, "lemma" : ")", "type" : "SS", "position" : 40, "weight" : 1 },
		{"id" : 10, "lemma" : ".", "type" : "SF", "position" : 41, "weight" : 0.0475096 }
	],
	"morp_eval" : [
	],
	"WSD" : [
	],
	"word" : [
		{"id" : 0, "text" : "부엌에", "type" : "", "begin" : 0, "end" : 1},
		{"id" : 1, "text" : "머물러", "type" : "", "begin" : 2, "end" : 3},
		{"id" : 2, "text" : "있는", "type" : "", "begin" : 4, "end" : 5},
		{"id" : 3, "text" : "가신(家神).", "type" : "", "begin" : 6, "end" : 10}
	],
	"NE" : [
		{"id" : 0, "text" : "가신", "type" : "CV_POSITION", "begin" : 6, "end" : 6, "weight" : 0.189475, "common_noun" : 0},
		{"id" : 1, "text" : "家神", "type" : "CV_POSITION", "begin" : 8, "end" : 8, "weight" : 0.189475, "common_noun" : 0}
	],
	"chunk" : [
	],
	"dependency" : [
		{"id" : 0, "text" : "부엌에", "head" : 1, "label" : "NP_AJT", "mod" : [], "weight" : 0.832692 },
		{"id" : 1, "text" : "머물러", "head" : 2, "label" : "VP", "mod" : [0], "weight" : 0.859058 },
		{"id" : 2, "text" : "있는", "head" : 3, "label" : "VP_MOD", "mod" : [1], "weight" : 0.560929 },
		{"id" : 3, "text" : "가신(家神).", "head" : -1, "label" : "NP", "mod" : [2], "weight" : 0.218177 }
	],
	"SRL" : [
		{"verb" : "머무르", "sense" : 1, "word_id" : 1, "weight" : 0.163705,
			"argument" : [
				{"type" : "ARG2", "word_id" : 0, "text" : "부엌에", "weight" : 0.177039 },
				{"type" : "AUX", "word_id" : 2, "text" : "있는", "weight" : 0.239825 },
				{"type" : "ARG1", "word_id" : 3, "text" : "가신(家神).", "weight" : 0.7425 }
			] }
	],
	"relation" : [
	],
	"SA" : [
	],
	"ZA" : [
	]
	},
	{
	"id" : 1,
	"reserve_str" : "",
	"text" : "조신ㆍ조왕대신ㆍ부뚜막신 등의 이름으로도 불린다.",
	"morp" : [
		{"id" : 0, "lemma" : "조신", "type" : "NNG", "position" : 43, "weight" : 0.0196142 },
		{"id" : 1, "lemma" : "ㆍ", "type" : "SP", "position" : 49, "weight" : 0.0417695 },
		{"id" : 2, "lemma" : "조왕대신", "type" : "NNG", "position" : 52, "weight" : 0.0113179 },
		{"id" : 3, "lemma" : "ㆍ", "type" : "SP", "position" : 64, "weight" : 0.0409093 },
		{"id" : 4, "lemma" : "부뚜막", "type" : "NNG", "position" : 67, "weight" : 0.0127294 },
		{"id" : 5, "lemma" : "신", "type" : "NNG", "position" : 73, "weight" : 0.0101956 },
		{"id" : 6, "lemma" : "등", "type" : "NNB", "position" : 80, "weight" : 0.0292261 },
		{"id" : 7, "lemma" : "의", "type" : "JKG", "position" : 83, "weight" : 0.0100022 },
		{"id" : 8, "lemma" : "이름", "type" : "NNG", "position" : 87, "weight" : 0.0196142 },
		{"id" : 9, "lemma" : "으로", "type" : "JKB", "position" : 93, "weight" : 0.0297146 },
		{"id" : 10, "lemma" : "도", "type" : "JX", "position" : 99, "weight" : 0.00872314 },
		{"id" : 11, "lemma" : "불리", "type" : "VV", "position" : 103, "weight" : 0.0196142 },
		{"id" : 12, "lemma" : "ㄴ다", "type" : "EF", "position" : 106, "weight" : 0.0297146 },
		{"id" : 13, "lemma" : ".", "type" : "SF", "position" : 112, "weight" : 0.00872314 }
	],
	"morp_eval" : [
	],
	"WSD" : [
	],
	"word" : [
		{"id" : 0, "text" : "조신ㆍ조왕대신ㆍ부뚜막신", "type" : "", "begin" : 0, "end" : 5},
		{"id" : 1, "text" : "등의", "type" : "", "begin" : 6, "end" : 7},
		{"id" : 2, "text" : "이름으로도", "type" : "", "begin" : 8, "end" : 10},
		{"id" : 3, "text" : "불린다.", "type" : "", "begin" : 11, "end" : 13}
	],
	"NE" : [
		{"id" : 0, "text" : "조신", "type" : "CV_POSITION", "begin" : 0, "end" : 0, "weight" : 0.182749, "common_noun" : 0},
		{"id" : 1, "text" : "조왕대신", "type" : "CV_POSITION", "begin" : 2, "end" : 2, "weight" : 0.182749, "common_noun" : 0},
		{"id" : 2, "text" : "부뚜막신", "type" : "CV_POSITION", "begin" : 4, "end" : 5, "weight" : 0.182749, "common_noun" : 0}
	],
	"chunk" : [
	],
	"dependency" : [
		{"id" : 0, "text" : "조신ㆍ조왕대신ㆍ부뚜막신", "head" : 1, "label" : "NP", "mod" : [], "weight" : 0.874368 },
		{"id" : 1, "text" : "등의", "head" : 2, "label" : "NP_MOD", "mod" : [0], "weight" : 0.850759 },
		{"id" : 2, "text" : "이름으로도", "head" : 3, "label" : "NP_AJT", "mod" : [1], "weight" : 0.519136 },
		{"id" : 3, "text" : "불린다.", "head" : -1, "label" : "VP", "mod" : [2], "weight" : 0.278962 }
	],
	"SRL" : [
		{"verb" : "부르", "sense" : 2, "word_id" : 3, "weight" : 0.185033,
			"argument" : [
				{"type" : "ARG2", "word_id" : 2, "text" : "이름으로도", "weight" : 0.185033 }
			] }
	],
	"relation" : [
	],
	"SA" : [
	],
	"ZA" : [
	]
	},
	{
	"id" : 2,
	"reserve_str" : "",
	"text" : "그의 본질이 화신(火神)이기 때문에 부엌에서 존재하게 되었으며, 먼 옛날부터 부녀자들과 깊은 관계를 갖고 있다.",
	"morp" : [
		{"id" : 0, "lemma" : "그", "type" : "NP", "position" : 114, "weight" : 0.0385776 },
		{"id" : 1, "lemma" : "의", "type" : "JKG", "position" : 117, "weight" : 0.0533911 },
		{"id" : 2, "lemma" : "본질", "type" : "NNG", "position" : 121, "weight" : 0.0459843 },
		{"id" : 3, "lemma" : "이", "type" : "JKS", "position" : 127, "weight" : 0.0418347 },
		{"id" : 4, "lemma" : "화신", "type" : "NNG", "position" : 131, "weight" : 0.0459843 },
		{"id" : 5, "lemma" : "(", "type" : "SS", "position" : 137, "weight" : 0.0418347 },
		{"id" : 6, "lemma" : "火神", "type" : "SH", "position" : 138, "weight" : 0.0304325 },
		{"id" : 7, "lemma" : ")", "type" : "SS", "position" : 144, "weight" : 0.0345013 },
		{"id" : 8, "lemma" : "이", "type" : "VCP", "position" : 145, "weight" : 0.0163467 },
		{"id" : 9, "lemma" : "기", "type" : "ETN", "position" : 148, "weight" : 1 },
		{"id" : 10, "lemma" : "때문", "type" : "NNB", "position" : 152, "weight" : 0.0459843 },
		{"id" : 11, "lemma" : "에", "type" : "JKB", "position" : 158, "weight" : 0.0418347 },
		{"id" : 12, "lemma" : "부엌", "type" : "NNG", "position" : 162, "weight" : 0.0459843 },
		{"id" : 13, "lemma" : "에서", "type" : "JKB", "position" : 168, "weight" : 0.0350275 },
		{"id" : 14, "lemma" : "존재", "type" : "NNG", "position" : 175, "weight" : 0.0459843 },
		{"id" : 15, "lemma" : "하", "type" : "XSV", "position" : 181, "weight" : 0.0418347 },
		{"id" : 16, "lemma" : "게", "type" : "EC", "position" : 184, "weight" : 0.0282202 },
		{"id" : 17, "lemma" : "되", "type" : "VV", "position" : 188, "weight" : 0.0385776 },
		{"id" : 18, "lemma" : "었", "type" : "EP", "position" : 191, "weight" : 0.0533911 },
		{"id" : 19, "lemma" : "으며", "type" : "EC", "position" : 194, "weight" : 0.0350275 },
		{"id" : 20, "lemma" : ",", "type" : "SP", "position" : 200, "weight" : 0.0326448 },
		{"id" : 21, "lemma" : "멀", "type" : "VA", "position" : 202, "weight" : 0.0385776 },
		{"id" : 22, "lemma" : "ㄴ", "type" : "ETM", "position" : 202, "weight" : 0.0533911 },
		{"id" : 23, "lemma" : "옛날", "type" : "NNG", "position" : 206, "weight" : 0.0459843 },
		{"id" : 24, "lemma" : "부터", "type" : "JX", "position" : 212, "weight" : 0.0350275 },
		{"id" : 25, "lemma" : "부녀자", "type" : "NNG", "position" : 219, "weight" : 0.0446011 },
		{"id" : 26, "lemma" : "들", "type" : "XSN", "position" : 228, "weight" : 0.0282202 },
		{"id" : 27, "lemma" : "과", "type" : "JKB", "position" : 231, "weight" : 0.0326448 },
		{"id" : 28, "lemma" : "깊", "type" : "VA", "position" : 235, "weight" : 0.0385776 },
		{"id" : 29, "lemma" : "은", "type" : "ETM", "position" : 238, "weight" : 0.0533911 },
		{"id" : 30, "lemma" : "관계", "type" : "NNG", "position" : 242, "weight" : 0.0459843 },
		{"id" : 31, "lemma" : "를", "type" : "JKO", "position" : 248, "weight" : 0.0418347 },
		{"id" : 32, "lemma" : "갖", "type" : "VV", "position" : 252, "weight" : 0.0385776 },
		{"id" : 33, "lemma" : "고", "type" : "EC", "position" : 255, "weight" : 0.0533911 },
		{"id" : 34, "lemma" : "있", "type" : "VX", "position" : 259, "weight" : 0.0385776 },
		{"id" : 35, "lemma" : "다", "type" : "EF", "position" : 262, "weight" : 0.0533911 },
		{"id" : 36, "lemma" : ".", "type" : "SF", "position" : 265, "weight" : 0.0418347 }
	],
	"morp_eval" : [
	],
	"WSD" : [
	],
	"word" : [
		{"id" : 0, "text" : "그의", "type" : "", "begin" : 0, "end" : 1},
		{"id" : 1, "text" : "본질이", "type" : "", "begin" : 2, "end" : 3},
		{"id" : 2, "text" : "화신(火神)이기", "type" : "", "begin" : 4, "end" : 9},
		{"id" : 3, "text" : "때문에", "type" : "", "begin" : 10, "end" : 11},
		{"id" : 4, "text" : "부엌에서", "type" : "", "begin" : 12, "end" : 13},
		{"id" : 5, "text" : "존재하게", "type" : "", "begin" : 14, "end" : 16},
		{"id" : 6, "text" : "되었으며,", "type" : "", "begin" : 17, "end" : 20},
		{"id" : 7, "text" : "먼", "type" : "", "begin" : 21, "end" : 22},
		{"id" : 8, "text" : "옛날부터", "type" : "", "begin" : 23, "end" : 24},
		{"id" : 9, "text" : "부녀자들과", "type" : "", "begin" : 25, "end" : 27},
		{"id" : 10, "text" : "깊은", "type" : "", "begin" : 28, "end" : 29},
		{"id" : 11, "text" : "관계를", "type" : "", "begin" : 30, "end" : 31},
		{"id" : 12, "text" : "갖고", "type" : "", "begin" : 32, "end" : 33},
		{"id" : 13, "text" : "있다.", "type" : "", "begin" : 34, "end" : 36}
	],
	"NE" : [
		{"id" : 0, "text" : "화신", "type" : "CV_POSITION", "begin" : 4, "end" : 4, "weight" : 0.182749, "common_noun" : 0},
		{"id" : 1, "text" : "火神", "type" : "CV_POSITION", "begin" : 6, "end" : 6, "weight" : 0.182749, "common_noun" : 0},
		{"id" : 2, "text" : "부녀자", "type" : "CV_POSITION", "begin" : 25, "end" : 25, "weight" : 0.182749, "common_noun" : 0}
	],
	"chunk" : [
	],
	"dependency" : [
		{"id" : 0, "text" : "그의", "head" : 1, "label" : "NP_MOD", "mod" : [], "weight" : 0.684334 },
		{"id" : 1, "text" : "본질이", "head" : 2, "label" : "NP_SBJ", "mod" : [0], "weight" : 0.761366 },
		{"id" : 2, "text" : "화신(火神)이기", "head" : 3, "label" : "VNP", "mod" : [1], "weight" : 0.913132 },
		{"id" : 3, "text" : "때문에", "head" : 5, "label" : "NP_AJT", "mod" : [2], "weight" : 0.685091 },
		{"id" : 4, "text" : "부엌에서", "head" : 5, "label" : "NP_AJT", "mod" : [], "weight" : 0.937759 },
		{"id" : 5, "text" : "존재하게", "head" : 6, "label" : "VP", "mod" : [3, 4], "weight" : 0.585917 },
		{"id" : 6, "text" : "되었으며,", "head" : 12, "label" : "VP", "mod" : [5], "weight" : 0.69727 },
		{"id" : 7, "text" : "먼", "head" : 8, "label" : "VP_MOD", "mod" : [], "weight" : 0.807453 },
		{"id" : 8, "text" : "옛날부터", "head" : 12, "label" : "NP_AJT", "mod" : [7], "weight" : 0.651719 },
		{"id" : 9, "text" : "부녀자들과", "head" : 12, "label" : "NP_AJT", "mod" : [], "weight" : 0.64901 },
		{"id" : 10, "text" : "깊은", "head" : 11, "label" : "VP_MOD", "mod" : [], "weight" : 0.820335 },
		{"id" : 11, "text" : "관계를", "head" : 12, "label" : "NP_OBJ", "mod" : [10], "weight" : 0.646293 },
		{"id" : 12, "text" : "갖고", "head" : 13, "label" : "VP", "mod" : [6, 8, 9, 11], "weight" : 0.627387 },
		{"id" : 13, "text" : "있다.", "head" : -1, "label" : "VP", "mod" : [12], "weight" : 0.112067 }
	],
	"SRL" : [
		{"verb" : "존재", "sense" : 1, "word_id" : 5, "weight" : 0.136881,
			"argument" : [
				{"type" : "ARGM-CAU", "word_id" : 3, "text" : "때문에", "weight" : 0.136054 },
				{"type" : "ARG2", "word_id" : 4, "text" : "부엌에서", "weight" : 0.592162 },
				{"type" : "AUX", "word_id" : 6, "text" : "되었으며,", "weight" : 0.215371 }
			] },
		{"verb" : "멀", "sense" : 1, "word_id" : 7, "weight" : 0.160288,
			"argument" : [
				{"type" : "ARG1", "word_id" : 8, "text" : "옛날부터", "weight" : 0.160288 }
			] },
		{"verb" : "깊", "sense" : 1, "word_id" : 10, "weight" : 0.217588,
			"argument" : [
				{"type" : "ARG1", "word_id" : 11, "text" : "관계를", "weight" : 0.217588 }
			] },
		{"verb" : "갖", "sense" : 1, "word_id" : 12, "weight" : 0.169778,
			"argument" : [
				{"type" : "ARGM-TMP", "word_id" : 8, "text" : "옛날부터", "weight" : 0.849433 },
				{"type" : "ARG2", "word_id" : 9, "text" : "부녀자들과", "weight" : 0.939837 },
				{"type" : "ARG1", "word_id" : 11, "text" : "관계를", "weight" : 0.25356 },
				{"type" : "AUX", "word_id" : 13, "text" : "있다.", "weight" : 0.246626 }
			] }
	],
	"relation" : [
	],
	"SA" : [
	],
	"ZA" : [
	]
	}
 ],
 "entity" : [
 ]
}

