{"doc_id" : "E2015.943.002_A_03",
 "DCT" : "",
 "category" : "",
 "category_weight" : 0,
 "title" : {"text" : "", "NE" : ""},
 "metaInfo" : { },
 "sentence" : [
	{
	"id" : 0,
	"reserve_str" : "",
	"text" : "1981년부터 매년 1~2월 스위스의 고급 휴양지인 다보스에서 회의를 하기 때문에 일명 '다보스회의'라고도 불린다.",
	"morp" : [
		{"id" : 0, "lemma" : "1981", "type" : "SN", "position" : 0, "weight" : 1 },
		{"id" : 1, "lemma" : "년", "type" : "NNB", "position" : 4, "weight" : 0.0489032 },
		{"id" : 2, "lemma" : "부터", "type" : "JX", "position" : 7, "weight" : 0.0289537 },
		{"id" : 3, "lemma" : "매년", "type" : "MAG", "position" : 14, "weight" : 1 },
		{"id" : 4, "lemma" : "1", "type" : "SN", "position" : 21, "weight" : 1 },
		{"id" : 5, "lemma" : "~", "type" : "SO", "position" : 22, "weight" : 1 },
		{"id" : 6, "lemma" : "2", "type" : "SN", "position" : 23, "weight" : 1 },
		{"id" : 7, "lemma" : "월", "type" : "NNB", "position" : 24, "weight" : 1 },
		{"id" : 8, "lemma" : "스위스", "type" : "NNP", "position" : 28, "weight" : 1 },
		{"id" : 9, "lemma" : "의", "type" : "JKG", "position" : 37, "weight" : 1 },
		{"id" : 10, "lemma" : "고급", "type" : "NNG", "position" : 41, "weight" : 1 },
		{"id" : 11, "lemma" : "휴양지", "type" : "NNG", "position" : 48, "weight" : 1 },
		{"id" : 12, "lemma" : "이", "type" : "VCP", "position" : 57, "weight" : 1 },
		{"id" : 13, "lemma" : "ㄴ", "type" : "ETM", "position" : 57, "weight" : 0.0489032 },
		{"id" : 14, "lemma" : "다보스", "type" : "NNP", "position" : 61, "weight" : 1 },
		{"id" : 15, "lemma" : "에서", "type" : "JKB", "position" : 70, "weight" : 0.524452 },
		{"id" : 16, "lemma" : "회의", "type" : "NNG", "position" : 77, "weight" : 1 },
		{"id" : 17, "lemma" : "를", "type" : "JKO", "position" : 83, "weight" : 1 },
		{"id" : 18, "lemma" : "하", "type" : "VV", "position" : 87, "weight" : 1 },
		{"id" : 19, "lemma" : "기", "type" : "ETN", "position" : 90, "weight" : 1 },
		{"id" : 20, "lemma" : "때문", "type" : "NNB", "position" : 94, "weight" : 1 },
		{"id" : 21, "lemma" : "에", "type" : "JKB", "position" : 100, "weight" : 1 },
		{"id" : 22, "lemma" : "일명", "type" : "NNG", "position" : 104, "weight" : 1 },
		{"id" : 23, "lemma" : "'", "type" : "SS", "position" : 111, "weight" : 1 },
		{"id" : 24, "lemma" : "다보스", "type" : "NNP", "position" : 112, "weight" : 1 },
		{"id" : 25, "lemma" : "회의", "type" : "NNG", "position" : 121, "weight" : 0.0388368 },
		{"id" : 26, "lemma" : "'", "type" : "SS", "position" : 127, "weight" : 0.029137 },
		{"id" : 27, "lemma" : "라고", "type" : "JKQ", "position" : 129, "weight" : 1 },
		{"id" : 28, "lemma" : "도", "type" : "JX", "position" : 135, "weight" : 1 },
		{"id" : 29, "lemma" : "불리", "type" : "VV", "position" : 139, "weight" : 1 },
		{"id" : 30, "lemma" : "ㄴ다", "type" : "EF", "position" : 142, "weight" : 1 },
		{"id" : 31, "lemma" : ".", "type" : "SF", "position" : 148, "weight" : 0.0489032 }
	],
	"morp_eval" : [
	],
	"WSD" : [
	],
	"word" : [
		{"id" : 0, "text" : "1981년부터", "type" : "", "begin" : 0, "end" : 2},
		{"id" : 1, "text" : "매년", "type" : "", "begin" : 3, "end" : 3},
		{"id" : 2, "text" : "1~2월", "type" : "", "begin" : 4, "end" : 7},
		{"id" : 3, "text" : "스위스의", "type" : "", "begin" : 8, "end" : 9},
		{"id" : 4, "text" : "고급", "type" : "", "begin" : 10, "end" : 10},
		{"id" : 5, "text" : "휴양지인", "type" : "", "begin" : 11, "end" : 13},
		{"id" : 6, "text" : "다보스에서", "type" : "", "begin" : 14, "end" : 15},
		{"id" : 7, "text" : "회의를", "type" : "", "begin" : 16, "end" : 17},
		{"id" : 8, "text" : "하기", "type" : "", "begin" : 18, "end" : 19},
		{"id" : 9, "text" : "때문에", "type" : "", "begin" : 20, "end" : 21},
		{"id" : 10, "text" : "일명", "type" : "", "begin" : 22, "end" : 22},
		{"id" : 11, "text" : "'다보스회의'라고도", "type" : "", "begin" : 23, "end" : 28},
		{"id" : 12, "text" : "불린다.", "type" : "", "begin" : 29, "end" : 31}
	],
	"NE" : [
		{"id" : 0, "text" : "1981년", "type" : "DT_YEAR", "begin" : 0, "end" : 1, "weight" : 0.5799, "common_noun" : 0},
		{"id" : 1, "text" : "1~2월", "type" : "DT_DURATION", "begin" : 4, "end" : 7, "weight" : 0.312138, "common_noun" : 0},
		{"id" : 2, "text" : "스위스", "type" : "LCP_COUNTRY", "begin" : 8, "end" : 8, "weight" : 0.395247, "common_noun" : 0},
		{"id" : 3, "text" : "다보스", "type" : "LCP_CITY", "begin" : 14, "end" : 14, "weight" : 0.220608, "common_noun" : 0},
		{"id" : 4, "text" : "다보스회의", "type" : "OGG_ECONOMY", "begin" : 24, "end" : 25, "weight" : 0.234344, "common_noun" : 0}
	],
	"chunk" : [
	],
	"dependency" : [
		{"id" : 0, "text" : "1981년부터", "head" : 8, "label" : "NP_AJT", "mod" : [], "weight" : 0.797381 },
		{"id" : 1, "text" : "매년", "head" : 8, "label" : "AP", "mod" : [], "weight" : 0.740642 },
		{"id" : 2, "text" : "1~2월", "head" : 8, "label" : "NP_AJT", "mod" : [], "weight" : 0.571093 },
		{"id" : 3, "text" : "스위스의", "head" : 5, "label" : "NP_MOD", "mod" : [], "weight" : 0.747503 },
		{"id" : 4, "text" : "고급", "head" : 5, "label" : "NP", "mod" : [], "weight" : 0.933298 },
		{"id" : 5, "text" : "휴양지인", "head" : 6, "label" : "VNP_MOD", "mod" : [3, 4], "weight" : 0.70095 },
		{"id" : 6, "text" : "다보스에서", "head" : 8, "label" : "NP_AJT", "mod" : [5], "weight" : 0.765357 },
		{"id" : 7, "text" : "회의를", "head" : 8, "label" : "NP_OBJ", "mod" : [], "weight" : 0.799927 },
		{"id" : 8, "text" : "하기", "head" : 9, "label" : "VP", "mod" : [0, 1, 2, 6, 7], "weight" : 0.830486 },
		{"id" : 9, "text" : "때문에", "head" : 12, "label" : "NP_AJT", "mod" : [8], "weight" : 0.804885 },
		{"id" : 10, "text" : "일명", "head" : 11, "label" : "NP", "mod" : [], "weight" : 0.719887 },
		{"id" : 11, "text" : "'다보스회의'라고도", "head" : 12, "label" : "NP_CMP", "mod" : [10], "weight" : 0.354645 },
		{"id" : 12, "text" : "불린다.", "head" : -1, "label" : "VP", "mod" : [9, 11], "weight" : 0.124009 }
	],
	"SRL" : [
		{"verb" : "하", "sense" : 1, "word_id" : 8, "weight" : 0.171393,
			"argument" : [
				{"type" : "ARGM-LOC", "word_id" : 6, "text" : "다보스에서", "weight" : 0.10039 },
				{"type" : "ARG1", "word_id" : 7, "text" : "회의를", "weight" : 0.242396 },
				{"type" : "ARGM-TMP", "word_id" : 2, "text" : "1~2월", "weight" : 0 }
			] },
		{"verb" : "부르", "sense" : 2, "word_id" : 12, "weight" : 0.125056,
			"argument" : [
				{"type" : "ARGM-CAU", "word_id" : 9, "text" : "때문에", "weight" : 0.139007 },
				{"type" : "ARG2", "word_id" : 11, "text" : "'다보스회의'라고도", "weight" : 0.111104 }
			] }
	],
	"relation" : [
	],
	"SA" : [
	],
	"ZA" : [
	]
	}
 ],
 "entity" : [
 ]
}

