{"doc_id" : "E2015.947.028_A_05",
 "DCT" : "",
 "category" : "",
 "category_weight" : 0,
 "title" : {"text" : "", "NE" : ""},
 "metaInfo" : { },
 "sentence" : [
	{
	"id" : 0,
	"reserve_str" : "",
	"text" : "살아 있는 남자인 양생과 죽은 처녀의 애틋한 사랑을 그린 매월당 김시습(梅月堂 金時習, 1435~1493)의 한문 단편소설이다.",
	"morp" : [
		{"id" : 0, "lemma" : "살", "type" : "VV", "position" : 0, "weight" : 0.02322 },
		{"id" : 1, "lemma" : "아", "type" : "EC", "position" : 3, "weight" : 0.0324127 },
		{"id" : 2, "lemma" : "있", "type" : "VX", "position" : 7, "weight" : 0.02322 },
		{"id" : 3, "lemma" : "는", "type" : "ETM", "position" : 10, "weight" : 0.0324127 },
		{"id" : 4, "lemma" : "남자", "type" : "NNG", "position" : 14, "weight" : 0.0278163 },
		{"id" : 5, "lemma" : "이", "type" : "VCP", "position" : 20, "weight" : 0.0543015 },
		{"id" : 6, "lemma" : "ㄴ", "type" : "ETM", "position" : 20, "weight" : 0.0429659 },
		{"id" : 7, "lemma" : "양생", "type" : "NNP", "position" : 24, "weight" : 0.0278163 },
		{"id" : 8, "lemma" : "과", "type" : "JC", "position" : 30, "weight" : 0.0543015 },
		{"id" : 9, "lemma" : "죽", "type" : "VV", "position" : 34, "weight" : 0.02322 },
		{"id" : 10, "lemma" : "은", "type" : "ETM", "position" : 37, "weight" : 0.0324127 },
		{"id" : 11, "lemma" : "처녀", "type" : "NNG", "position" : 41, "weight" : 0.0278163 },
		{"id" : 12, "lemma" : "의", "type" : "JKG", "position" : 47, "weight" : 0.0543015 },
		{"id" : 13, "lemma" : "애틋하", "type" : "VA", "position" : 51, "weight" : 0.0366447 },
		{"id" : 14, "lemma" : "ㄴ", "type" : "ETM", "position" : 57, "weight" : 0.0429659 },
		{"id" : 15, "lemma" : "사랑", "type" : "NNG", "position" : 61, "weight" : 0.0278163 },
		{"id" : 16, "lemma" : "을", "type" : "JKO", "position" : 67, "weight" : 0.0543015 },
		{"id" : 17, "lemma" : "그리", "type" : "VV", "position" : 71, "weight" : 0.0278163 },
		{"id" : 18, "lemma" : "ㄴ", "type" : "ETM", "position" : 74, "weight" : 0.0543015 },
		{"id" : 19, "lemma" : "매월당", "type" : "NNP", "position" : 78, "weight" : 0.0366447 },
		{"id" : 20, "lemma" : "김시습", "type" : "NNP", "position" : 88, "weight" : 0.0366447 },
		{"id" : 21, "lemma" : "(", "type" : "SS", "position" : 97, "weight" : 0.0429659 },
		{"id" : 22, "lemma" : "梅月堂", "type" : "SH", "position" : 98, "weight" : 0.0408303 },
		{"id" : 23, "lemma" : "金時習", "type" : "SH", "position" : 108, "weight" : 0.0366447 },
		{"id" : 24, "lemma" : ",", "type" : "SP", "position" : 117, "weight" : 0.0429659 },
		{"id" : 25, "lemma" : "1435", "type" : "SN", "position" : 119, "weight" : 0.038225 },
		{"id" : 26, "lemma" : "~", "type" : "SO", "position" : 123, "weight" : 0.0425749 },
		{"id" : 27, "lemma" : "1493", "type" : "SN", "position" : 124, "weight" : 0.0336881 },
		{"id" : 28, "lemma" : ")", "type" : "SS", "position" : 128, "weight" : 0.0281412 },
		{"id" : 29, "lemma" : "의", "type" : "JKG", "position" : 129, "weight" : 0.0456066 },
		{"id" : 30, "lemma" : "한문", "type" : "NNG", "position" : 133, "weight" : 0.0278163 },
		{"id" : 31, "lemma" : "단편", "type" : "NNG", "position" : 140, "weight" : 0.0278163 },
		{"id" : 32, "lemma" : "소설", "type" : "NNG", "position" : 146, "weight" : 0.0486337 },
		{"id" : 33, "lemma" : "이", "type" : "VCP", "position" : 152, "weight" : 0.0425749 },
		{"id" : 34, "lemma" : "다", "type" : "EF", "position" : 155, "weight" : 0.0484818 },
		{"id" : 35, "lemma" : ".", "type" : "SF", "position" : 158, "weight" : 0.0314343 }
	],
	"morp_eval" : [
	],
	"WSD" : [
	],
	"word" : [
		{"id" : 0, "text" : "살아", "type" : "", "begin" : 0, "end" : 1},
		{"id" : 1, "text" : "있는", "type" : "", "begin" : 2, "end" : 3},
		{"id" : 2, "text" : "남자인", "type" : "", "begin" : 4, "end" : 6},
		{"id" : 3, "text" : "양생과", "type" : "", "begin" : 7, "end" : 8},
		{"id" : 4, "text" : "죽은", "type" : "", "begin" : 9, "end" : 10},
		{"id" : 5, "text" : "처녀의", "type" : "", "begin" : 11, "end" : 12},
		{"id" : 6, "text" : "애틋한", "type" : "", "begin" : 13, "end" : 14},
		{"id" : 7, "text" : "사랑을", "type" : "", "begin" : 15, "end" : 16},
		{"id" : 8, "text" : "그린", "type" : "", "begin" : 17, "end" : 18},
		{"id" : 9, "text" : "매월당", "type" : "", "begin" : 19, "end" : 19},
		{"id" : 10, "text" : "김시습(梅月堂", "type" : "", "begin" : 20, "end" : 22},
		{"id" : 11, "text" : "金時習,", "type" : "", "begin" : 23, "end" : 24},
		{"id" : 12, "text" : "1435~1493)의", "type" : "", "begin" : 25, "end" : 29},
		{"id" : 13, "text" : "한문", "type" : "", "begin" : 30, "end" : 30},
		{"id" : 14, "text" : "단편소설이다.", "type" : "", "begin" : 31, "end" : 35}
	],
	"NE" : [
		{"id" : 0, "text" : "양생", "type" : "PS_NAME", "begin" : 7, "end" : 7, "weight" : 0.129122, "common_noun" : 0},
		{"id" : 1, "text" : "매월당", "type" : "PS_NAME", "begin" : 19, "end" : 19, "weight" : 0.129122, "common_noun" : 0},
		{"id" : 2, "text" : "김시습", "type" : "PS_NAME", "begin" : 20, "end" : 20, "weight" : 0.218407, "common_noun" : 0},
		{"id" : 3, "text" : "梅月堂", "type" : "PS_NAME", "begin" : 22, "end" : 22, "weight" : 0.218407, "common_noun" : 0},
		{"id" : 4, "text" : "金時習", "type" : "PS_NAME", "begin" : 23, "end" : 23, "weight" : 0.218407, "common_noun" : 0},
		{"id" : 5, "text" : "1435~1493", "type" : "DT_DURATION", "begin" : 25, "end" : 27, "weight" : 0.239222, "common_noun" : 0},
		{"id" : 6, "text" : "한문", "type" : "CV_LANGUAGE", "begin" : 30, "end" : 30, "weight" : 0.166269, "common_noun" : 0},
		{"id" : 7, "text" : "단편소설", "type" : "FD_ART", "begin" : 31, "end" : 32, "weight" : 0.697067, "common_noun" : 0}
	],
	"chunk" : [
	],
	"dependency" : [
		{"id" : 0, "text" : "살아", "head" : 1, "label" : "VP", "mod" : [], "weight" : 0.88342 },
		{"id" : 1, "text" : "있는", "head" : 2, "label" : "VP_MOD", "mod" : [0], "weight" : 0.630552 },
		{"id" : 2, "text" : "남자인", "head" : 3, "label" : "VNP_MOD", "mod" : [1], "weight" : 0.594256 },
		{"id" : 3, "text" : "양생과", "head" : 5, "label" : "NP_CNJ", "mod" : [2], "weight" : 0.576864 },
		{"id" : 4, "text" : "죽은", "head" : 5, "label" : "VP_MOD", "mod" : [], "weight" : 0.764501 },
		{"id" : 5, "text" : "처녀의", "head" : 7, "label" : "NP_MOD", "mod" : [3, 4], "weight" : 0.865958 },
		{"id" : 6, "text" : "애틋한", "head" : 7, "label" : "VP_MOD", "mod" : [], "weight" : 0.803221 },
		{"id" : 7, "text" : "사랑을", "head" : 8, "label" : "NP_OBJ", "mod" : [5, 6], "weight" : 0.683223 },
		{"id" : 8, "text" : "그린", "head" : 14, "label" : "VP_MOD", "mod" : [7], "weight" : 0.577836 },
		{"id" : 9, "text" : "매월당", "head" : 10, "label" : "NP", "mod" : [], "weight" : 0.648864 },
		{"id" : 10, "text" : "김시습(梅月堂", "head" : 11, "label" : "NP", "mod" : [9], "weight" : 0.676544 },
		{"id" : 11, "text" : "金時習,", "head" : 12, "label" : "NP", "mod" : [10], "weight" : 0.850099 },
		{"id" : 12, "text" : "1435~1493)의", "head" : 14, "label" : "NP_MOD", "mod" : [11], "weight" : 0.41762 },
		{"id" : 13, "text" : "한문", "head" : 14, "label" : "NP", "mod" : [], "weight" : 0.36279 },
		{"id" : 14, "text" : "단편소설이다.", "head" : -1, "label" : "VNP", "mod" : [8, 12, 13], "weight" : 0.165196 }
	],
	"SRL" : [
		{"verb" : "살", "sense" : 2, "word_id" : 0, "weight" : 0.195693,
			"argument" : [
				{"type" : "AUX", "word_id" : 1, "text" : "있는", "weight" : 0.299676 },
				{"type" : "ARG1", "word_id" : 2, "text" : "남자인", "weight" : 0 }
			] },
		{"verb" : "죽", "sense" : 1, "word_id" : 4, "weight" : 0.114795,
			"argument" : [
				{"type" : "ARG1", "word_id" : 5, "text" : "처녀의", "weight" : 0.130383 }
			] },
		{"verb" : "애틋하", "sense" : 1, "word_id" : 6, "weight" : 0.244133,
			"argument" : [
				{"type" : "ARG1", "word_id" : 7, "text" : "사랑을", "weight" : 0.244133 }
			] },
		{"verb" : "그리", "sense" : 3, "word_id" : 8, "weight" : 0.176258,
			"argument" : [
				{"type" : "ARG1", "word_id" : 7, "text" : "사랑을", "weight" : 0.176258 },
				{"type" : "ARG0", "word_id" : 10, "text" : "김시습(梅月堂", "weight" : 0 }
			] }
	],
	"relation" : [
	],
	"SA" : [
	],
	"ZA" : [
	]
	},
	{
	"id" : 1,
	"reserve_str" : "",
	"text" : "원본은 전하지 않고, 일본 도쿄에서 목판본으로 간행된 그의 단편소설집 『금오신화』(金鰲新話)에 실려 있다.",
	"morp" : [
		{"id" : 0, "lemma" : "원본", "type" : "NNG", "position" : 160, "weight" : 0.0221064 },
		{"id" : 1, "lemma" : "은", "type" : "JX", "position" : 166, "weight" : 0.0396107 },
		{"id" : 2, "lemma" : "전하", "type" : "VV", "position" : 170, "weight" : 0.0221064 },
		{"id" : 3, "lemma" : "지", "type" : "EC", "position" : 176, "weight" : 0.0396107 },
		{"id" : 4, "lemma" : "않", "type" : "VX", "position" : 180, "weight" : 0.0270739 },
		{"id" : 5, "lemma" : "고", "type" : "EC", "position" : 183, "weight" : 0.017139 },
		{"id" : 6, "lemma" : ",", "type" : "SP", "position" : 186, "weight" : 0.0396107 },
		{"id" : 7, "lemma" : "일본", "type" : "NNP", "position" : 188, "weight" : 0.0221064 },
		{"id" : 8, "lemma" : "도쿄", "type" : "NNP", "position" : 195, "weight" : 0.0221064 },
		{"id" : 9, "lemma" : "에서", "type" : "JKB", "position" : 201, "weight" : 0.0314292 },
		{"id" : 10, "lemma" : "목판", "type" : "NNG", "position" : 208, "weight" : 0.0221064 },
		{"id" : 11, "lemma" : "본", "type" : "XSN", "position" : 214, "weight" : 0.0396107 },
		{"id" : 12, "lemma" : "으로", "type" : "JKB", "position" : 217, "weight" : 0.0210462 },
		{"id" : 13, "lemma" : "간행", "type" : "NNG", "position" : 224, "weight" : 0.0221064 },
		{"id" : 14, "lemma" : "되", "type" : "XSV", "position" : 230, "weight" : 0.0396107 },
		{"id" : 15, "lemma" : "ㄴ", "type" : "ETM", "position" : 230, "weight" : 0.0232476 },
		{"id" : 16, "lemma" : "그", "type" : "NP", "position" : 234, "weight" : 0.0270739 },
		{"id" : 17, "lemma" : "의", "type" : "JKG", "position" : 237, "weight" : 0.017139 },
		{"id" : 18, "lemma" : "단편", "type" : "NNG", "position" : 241, "weight" : 0.0221064 },
		{"id" : 19, "lemma" : "소설", "type" : "NNG", "position" : 247, "weight" : 0.0314292 },
		{"id" : 20, "lemma" : "집", "type" : "XSN", "position" : 253, "weight" : 0.0188448 },
		{"id" : 21, "lemma" : "『", "type" : "SS", "position" : 257, "weight" : 0.0270739 },
		{"id" : 22, "lemma" : "금오신화", "type" : "NNP", "position" : 260, "weight" : 0.0247105 },
		{"id" : 23, "lemma" : "』", "type" : "SS", "position" : 272, "weight" : 0.0794521 },
		{"id" : 24, "lemma" : "(", "type" : "SS", "position" : 275, "weight" : 0.0540634 },
		{"id" : 25, "lemma" : "金鰲新話", "type" : "SH", "position" : 276, "weight" : 0.290889 },
		{"id" : 26, "lemma" : ")", "type" : "SS", "position" : 288, "weight" : 0.0472724 },
		{"id" : 27, "lemma" : "에", "type" : "JKB", "position" : 289, "weight" : 0.0261164 },
		{"id" : 28, "lemma" : "실리", "type" : "VV", "position" : 293, "weight" : 0.0221064 },
		{"id" : 29, "lemma" : "어", "type" : "EC", "position" : 296, "weight" : 0.0396107 },
		{"id" : 30, "lemma" : "있", "type" : "VX", "position" : 300, "weight" : 0.0270739 },
		{"id" : 31, "lemma" : "다", "type" : "EF", "position" : 303, "weight" : 0.017139 },
		{"id" : 32, "lemma" : ".", "type" : "SF", "position" : 306, "weight" : 0.0396107 }
	],
	"morp_eval" : [
	],
	"WSD" : [
	],
	"word" : [
		{"id" : 0, "text" : "원본은", "type" : "", "begin" : 0, "end" : 1},
		{"id" : 1, "text" : "전하지", "type" : "", "begin" : 2, "end" : 3},
		{"id" : 2, "text" : "않고,", "type" : "", "begin" : 4, "end" : 6},
		{"id" : 3, "text" : "일본", "type" : "", "begin" : 7, "end" : 7},
		{"id" : 4, "text" : "도쿄에서", "type" : "", "begin" : 8, "end" : 9},
		{"id" : 5, "text" : "목판본으로", "type" : "", "begin" : 10, "end" : 12},
		{"id" : 6, "text" : "간행된", "type" : "", "begin" : 13, "end" : 15},
		{"id" : 7, "text" : "그의", "type" : "", "begin" : 16, "end" : 17},
		{"id" : 8, "text" : "단편소설집", "type" : "", "begin" : 18, "end" : 20},
		{"id" : 9, "text" : "『금오신화』(金鰲新話)에", "type" : "", "begin" : 21, "end" : 27},
		{"id" : 10, "text" : "실려", "type" : "", "begin" : 28, "end" : 29},
		{"id" : 11, "text" : "있다.", "type" : "", "begin" : 30, "end" : 32}
	],
	"NE" : [
		{"id" : 0, "text" : "일본", "type" : "LCP_COUNTRY", "begin" : 7, "end" : 7, "weight" : 0.639964, "common_noun" : 0},
		{"id" : 1, "text" : "도쿄", "type" : "LCP_CAPITALCITY", "begin" : 8, "end" : 8, "weight" : 0.322133, "common_noun" : 0},
		{"id" : 2, "text" : "단편소설", "type" : "FD_ART", "begin" : 18, "end" : 19, "weight" : 0.322133, "common_noun" : 0},
		{"id" : 3, "text" : "금오신화", "type" : "AFW_DOCUMENT", "begin" : 22, "end" : 22, "weight" : 0.28482, "common_noun" : 0},
		{"id" : 4, "text" : "金鰲新話", "type" : "AFW_DOCUMENT", "begin" : 25, "end" : 25, "weight" : 0.0574997, "common_noun" : 0}
	],
	"chunk" : [
	],
	"dependency" : [
		{"id" : 0, "text" : "원본은", "head" : 1, "label" : "NP_SBJ", "mod" : [], "weight" : 0.957922 },
		{"id" : 1, "text" : "전하지", "head" : 2, "label" : "VP", "mod" : [0], "weight" : 0.673431 },
		{"id" : 2, "text" : "않고,", "head" : 10, "label" : "VP", "mod" : [1], "weight" : 0.893979 },
		{"id" : 3, "text" : "일본", "head" : 4, "label" : "NP", "mod" : [], "weight" : 0.790407 },
		{"id" : 4, "text" : "도쿄에서", "head" : 6, "label" : "NP_AJT", "mod" : [3], "weight" : 0.736487 },
		{"id" : 5, "text" : "목판본으로", "head" : 6, "label" : "NP_AJT", "mod" : [], "weight" : 0.786232 },
		{"id" : 6, "text" : "간행된", "head" : 8, "label" : "VP_MOD", "mod" : [4, 5], "weight" : 0.569753 },
		{"id" : 7, "text" : "그의", "head" : 8, "label" : "NP_MOD", "mod" : [], "weight" : 0.654562 },
		{"id" : 8, "text" : "단편소설집", "head" : 9, "label" : "NP", "mod" : [6, 7], "weight" : 0.693045 },
		{"id" : 9, "text" : "『금오신화』(金鰲新話)에", "head" : 10, "label" : "NP_AJT", "mod" : [8], "weight" : 0.568097 },
		{"id" : 10, "text" : "실려", "head" : 11, "label" : "VP", "mod" : [2, 9], "weight" : 0.586748 },
		{"id" : 11, "text" : "있다.", "head" : -1, "label" : "VP", "mod" : [10], "weight" : 0.204764 }
	],
	"SRL" : [
		{"verb" : "전하", "sense" : 1, "word_id" : 1, "weight" : 0.136878,
			"argument" : [
				{"type" : "ARG1", "word_id" : 0, "text" : "원본은", "weight" : 0.124323 },
				{"type" : "ARGM-NEG", "word_id" : 2, "text" : "않고,", "weight" : 0.149432 }
			] },
		{"verb" : "간행", "sense" : 1, "word_id" : 6, "weight" : 0.106815,
			"argument" : [
				{"type" : "ARGM-LOC", "word_id" : 4, "text" : "도쿄에서", "weight" : 0.12459 },
				{"type" : "ARGM-PRD", "word_id" : 5, "text" : "목판본으로", "weight" : 0.608088 },
				{"type" : "ARG1", "word_id" : 9, "text" : "『금오신화』(金鰲新話)에", "weight" : 0 }
			] },
		{"verb" : "실리", "sense" : 1, "word_id" : 10, "weight" : 0.191215,
			"argument" : [
				{"type" : "ARG2", "word_id" : 9, "text" : "『금오신화』(金鰲新話)에", "weight" : 0.154384 },
				{"type" : "AUX", "word_id" : 11, "text" : "있다.", "weight" : 0.228047 }
			] }
	],
	"relation" : [
	],
	"SA" : [
	],
	"ZA" : [
	]
	}
 ],
 "entity" : [
 ]
}

