{"doc_id" : "E2014.139_Q_01",
 "DCT" : "",
 "category" : "",
 "category_weight" : 0,
 "title" : {"text" : "", "NE" : ""},
 "metaInfo" : { },
 "sentence" : [
	{
	"id" : 0,
	"reserve_str" : "",
	"text" : "가혹하게 세금을 거두거나 백성의 재물을 억지로 빼앗는 것을 의미하는 이 사자성어는 무엇일까?",
	"morp" : [
		{"id" : 0, "lemma" : "가혹", "type" : "NNG", "position" : 0, "weight" : 1 },
		{"id" : 1, "lemma" : "하", "type" : "XSA", "position" : 6, "weight" : 1 },
		{"id" : 2, "lemma" : "게", "type" : "EC", "position" : 9, "weight" : 1 },
		{"id" : 3, "lemma" : "세금", "type" : "NNG", "position" : 13, "weight" : 1 },
		{"id" : 4, "lemma" : "을", "type" : "JKO", "position" : 19, "weight" : 1 },
		{"id" : 5, "lemma" : "거두", "type" : "VV", "position" : 23, "weight" : 1 },
		{"id" : 6, "lemma" : "거나", "type" : "EC", "position" : 29, "weight" : 1 },
		{"id" : 7, "lemma" : "백성", "type" : "NNG", "position" : 36, "weight" : 1 },
		{"id" : 8, "lemma" : "의", "type" : "JKG", "position" : 42, "weight" : 1 },
		{"id" : 9, "lemma" : "재물", "type" : "NNG", "position" : 46, "weight" : 1 },
		{"id" : 10, "lemma" : "을", "type" : "JKO", "position" : 52, "weight" : 1 },
		{"id" : 11, "lemma" : "억지로", "type" : "MAG", "position" : 56, "weight" : 1 },
		{"id" : 12, "lemma" : "빼앗", "type" : "VV", "position" : 66, "weight" : 1 },
		{"id" : 13, "lemma" : "는", "type" : "ETM", "position" : 72, "weight" : 1 },
		{"id" : 14, "lemma" : "것", "type" : "NNB", "position" : 76, "weight" : 1 },
		{"id" : 15, "lemma" : "을", "type" : "JKO", "position" : 79, "weight" : 1 },
		{"id" : 16, "lemma" : "의미", "type" : "NNG", "position" : 83, "weight" : 1 },
		{"id" : 17, "lemma" : "하", "type" : "XSV", "position" : 89, "weight" : 1 },
		{"id" : 18, "lemma" : "는", "type" : "ETM", "position" : 92, "weight" : 1 },
		{"id" : 19, "lemma" : "이", "type" : "MM", "position" : 96, "weight" : 1 },
		{"id" : 20, "lemma" : "사자성어", "type" : "NNG", "position" : 100, "weight" : 1 },
		{"id" : 21, "lemma" : "는", "type" : "JX", "position" : 112, "weight" : 0.0331548 },
		{"id" : 22, "lemma" : "무엇", "type" : "NP", "position" : 116, "weight" : 1 },
		{"id" : 23, "lemma" : "이", "type" : "VCP", "position" : 122, "weight" : 1 },
		{"id" : 24, "lemma" : "ㄹ까", "type" : "EF", "position" : 122, "weight" : 0.516577 },
		{"id" : 25, "lemma" : "?", "type" : "SF", "position" : 128, "weight" : 0.0374802 }
	],
	"morp_eval" : [
	],
	"WSD" : [
	],
	"word" : [
		{"id" : 0, "text" : "가혹하게", "type" : "", "begin" : 0, "end" : 2},
		{"id" : 1, "text" : "세금을", "type" : "", "begin" : 3, "end" : 4},
		{"id" : 2, "text" : "거두거나", "type" : "", "begin" : 5, "end" : 6},
		{"id" : 3, "text" : "백성의", "type" : "", "begin" : 7, "end" : 8},
		{"id" : 4, "text" : "재물을", "type" : "", "begin" : 9, "end" : 10},
		{"id" : 5, "text" : "억지로", "type" : "", "begin" : 11, "end" : 11},
		{"id" : 6, "text" : "빼앗는", "type" : "", "begin" : 12, "end" : 13},
		{"id" : 7, "text" : "것을", "type" : "", "begin" : 14, "end" : 15},
		{"id" : 8, "text" : "의미하는", "type" : "", "begin" : 16, "end" : 18},
		{"id" : 9, "text" : "이", "type" : "", "begin" : 19, "end" : 19},
		{"id" : 10, "text" : "사자성어는", "type" : "", "begin" : 20, "end" : 21},
		{"id" : 11, "text" : "무엇일까?", "type" : "", "begin" : 22, "end" : 25}
	],
	"NE" : [
	],
	"chunk" : [
	],
	"dependency" : [
		{"id" : 0, "text" : "가혹하게", "head" : 2, "label" : "VP_AJT", "mod" : [], "weight" : 0.640659 },
		{"id" : 1, "text" : "세금을", "head" : 2, "label" : "NP_OBJ", "mod" : [], "weight" : 0.740203 },
		{"id" : 2, "text" : "거두거나", "head" : 6, "label" : "VP", "mod" : [0, 1], "weight" : 0.801052 },
		{"id" : 3, "text" : "백성의", "head" : 4, "label" : "NP_MOD", "mod" : [], "weight" : 0.807895 },
		{"id" : 4, "text" : "재물을", "head" : 6, "label" : "NP_OBJ", "mod" : [3], "weight" : 0.773725 },
		{"id" : 5, "text" : "억지로", "head" : 6, "label" : "NP_AJT", "mod" : [], "weight" : 0.830855 },
		{"id" : 6, "text" : "빼앗는", "head" : 7, "label" : "VP_MOD", "mod" : [2, 4, 5], "weight" : 0.862894 },
		{"id" : 7, "text" : "것을", "head" : 8, "label" : "NP_OBJ", "mod" : [6], "weight" : 0.874545 },
		{"id" : 8, "text" : "의미하는", "head" : 10, "label" : "VP_MOD", "mod" : [7], "weight" : 0.770179 },
		{"id" : 9, "text" : "이", "head" : 10, "label" : "DP", "mod" : [], "weight" : 0.74322 },
		{"id" : 10, "text" : "사자성어는", "head" : 11, "label" : "NP_SBJ", "mod" : [8, 9], "weight" : 0.727642 },
		{"id" : 11, "text" : "무엇일까?", "head" : -1, "label" : "VNP", "mod" : [10], "weight" : 0.443875 }
	],
	"SRL" : [
		{"verb" : "거두", "sense" : 1, "word_id" : 2, "weight" : 0.126337,
			"argument" : [
				{"type" : "ARGM-MNR", "word_id" : 0, "text" : "가혹하게", "weight" : 0.917549 },
				{"type" : "ARG1", "word_id" : 1, "text" : "세금을", "weight" : 0.16092 }
			] },
		{"verb" : "빼앗", "sense" : 1, "word_id" : 6, "weight" : 0.124607,
			"argument" : [
				{"type" : "ARG1", "word_id" : 4, "text" : "재물을", "weight" : 0.182674 },
				{"type" : "ARGM-MNR", "word_id" : 5, "text" : "억지로", "weight" : 0.665396 }
			] },
		{"verb" : "의미", "sense" : 1, "word_id" : 8, "weight" : 0.18257,
			"argument" : [
				{"type" : "ARG2", "word_id" : 7, "text" : "것을", "weight" : 0.18257 },
				{"type" : "ARG1", "word_id" : 10, "text" : "사자성어는", "weight" : 0 }
			] }
	],
	"relation" : [
	],
	"SA" : [
	],
	"ZA" : [
	]
	}
 ],
 "entity" : [
 ]
}

