{"doc_id" : "E2015.947.031_A_01",
 "DCT" : "",
 "category" : "",
 "category_weight" : 0,
 "title" : {"text" : "", "NE" : ""},
 "metaInfo" : { },
 "sentence" : [
	{
	"id" : 0,
	"reserve_str" : "",
	"text" : "《청구영언》(靑丘永言)은 1728년(조선 영조 4년) 김천택이 엮은 시조집이다.",
	"morp" : [
		{"id" : 0, "lemma" : "《", "type" : "SS", "position" : 0, "weight" : 1 },
		{"id" : 1, "lemma" : "청구영언", "type" : "NNP", "position" : 3, "weight" : 1 },
		{"id" : 2, "lemma" : "》", "type" : "SS", "position" : 15, "weight" : 1 },
		{"id" : 3, "lemma" : "(", "type" : "SS", "position" : 18, "weight" : 0.074436 },
		{"id" : 4, "lemma" : "靑丘永言", "type" : "SH", "position" : 19, "weight" : 1 },
		{"id" : 5, "lemma" : ")", "type" : "SS", "position" : 31, "weight" : 1 },
		{"id" : 6, "lemma" : "은", "type" : "JX", "position" : 32, "weight" : 0.0449314 },
		{"id" : 7, "lemma" : "1728", "type" : "SN", "position" : 36, "weight" : 1 },
		{"id" : 8, "lemma" : "년", "type" : "NNB", "position" : 40, "weight" : 1 },
		{"id" : 9, "lemma" : "(", "type" : "SS", "position" : 43, "weight" : 1 },
		{"id" : 10, "lemma" : "조선", "type" : "NNP", "position" : 44, "weight" : 0.537218 },
		{"id" : 11, "lemma" : "영조", "type" : "NNP", "position" : 51, "weight" : 1 },
		{"id" : 12, "lemma" : "4", "type" : "SN", "position" : 58, "weight" : 1 },
		{"id" : 13, "lemma" : "년", "type" : "NNB", "position" : 59, "weight" : 1 },
		{"id" : 14, "lemma" : ")", "type" : "SS", "position" : 62, "weight" : 1 },
		{"id" : 15, "lemma" : "김천택", "type" : "NNP", "position" : 64, "weight" : 1 },
		{"id" : 16, "lemma" : "이", "type" : "JKS", "position" : 73, "weight" : 1 },
		{"id" : 17, "lemma" : "엮", "type" : "VV", "position" : 77, "weight" : 1 },
		{"id" : 18, "lemma" : "은", "type" : "ETM", "position" : 80, "weight" : 1 },
		{"id" : 19, "lemma" : "시조", "type" : "NNG", "position" : 84, "weight" : 1 },
		{"id" : 20, "lemma" : "집", "type" : "XSN", "position" : 90, "weight" : 1 },
		{"id" : 21, "lemma" : "이", "type" : "VCP", "position" : 93, "weight" : 1 },
		{"id" : 22, "lemma" : "다", "type" : "EF", "position" : 96, "weight" : 1 },
		{"id" : 23, "lemma" : ".", "type" : "SF", "position" : 99, "weight" : 1 }
	],
	"morp_eval" : [
	],
	"WSD" : [
	],
	"word" : [
		{"id" : 0, "text" : "《청구영언》(靑丘永言)은", "type" : "", "begin" : 0, "end" : 6},
		{"id" : 1, "text" : "1728년(조선", "type" : "", "begin" : 7, "end" : 10},
		{"id" : 2, "text" : "영조", "type" : "", "begin" : 11, "end" : 11},
		{"id" : 3, "text" : "4년)", "type" : "", "begin" : 12, "end" : 14},
		{"id" : 4, "text" : "김천택이", "type" : "", "begin" : 15, "end" : 16},
		{"id" : 5, "text" : "엮은", "type" : "", "begin" : 17, "end" : 18},
		{"id" : 6, "text" : "시조집이다.", "type" : "", "begin" : 19, "end" : 23}
	],
	"NE" : [
		{"id" : 0, "text" : "청구영언", "type" : "AFW_DOCUMENT", "begin" : 1, "end" : 1, "weight" : 0.815155, "common_noun" : 0},
		{"id" : 1, "text" : "靑丘永言", "type" : "AFW_DOCUMENT", "begin" : 4, "end" : 4, "weight" : 0.111596, "common_noun" : 0},
		{"id" : 2, "text" : "1728년", "type" : "DT_YEAR", "begin" : 7, "end" : 8, "weight" : 0.687754, "common_noun" : 0},
		{"id" : 3, "text" : "조선 영조 4년", "type" : "DT_DYNASTY", "begin" : 10, "end" : 13, "weight" : 0.474423, "common_noun" : 0},
		{"id" : 4, "text" : "김천택", "type" : "PS_NAME", "begin" : 15, "end" : 15, "weight" : 0.415138, "common_noun" : 0},
		{"id" : 5, "text" : "시조", "type" : "FD_ART", "begin" : 19, "end" : 19, "weight" : 0.415138, "common_noun" : 0}
	],
	"chunk" : [
	],
	"dependency" : [
		{"id" : 0, "text" : "《청구영언》(靑丘永言)은", "head" : 6, "label" : "NP_SBJ", "mod" : [], "weight" : 0.878891 },
		{"id" : 1, "text" : "1728년(조선", "head" : 3, "label" : "NP", "mod" : [], "weight" : 0.519521 },
		{"id" : 2, "text" : "영조", "head" : 3, "label" : "NP", "mod" : [], "weight" : 0.941323 },
		{"id" : 3, "text" : "4년)", "head" : 5, "label" : "NP_AJT", "mod" : [1, 2], "weight" : 0.586907 },
		{"id" : 4, "text" : "김천택이", "head" : 5, "label" : "NP_SBJ", "mod" : [], "weight" : 0.50585 },
		{"id" : 5, "text" : "엮은", "head" : 6, "label" : "VP_MOD", "mod" : [3, 4], "weight" : 0.4137 },
		{"id" : 6, "text" : "시조집이다.", "head" : -1, "label" : "VNP", "mod" : [0, 5], "weight" : 0.378258 }
	],
	"SRL" : [
		{"verb" : "엮", "sense" : 1, "word_id" : 5, "weight" : 0.17202,
			"argument" : [
				{"type" : "ARG0", "word_id" : 4, "text" : "김천택이", "weight" : 0.234718 },
				{"type" : "ARG1", "word_id" : 6, "text" : "시조집이다.", "weight" : 0.109321 },
				{"type" : "ARGM-TMP", "word_id" : 3, "text" : "4년)", "weight" : 0 }
			] }
	],
	"relation" : [
	],
	"SA" : [
	],
	"ZA" : [
	]
	}
 ],
 "entity" : [
 ]
}

