{"doc_id" : "E2015.947.012_A_03",
 "DCT" : "",
 "category" : "",
 "category_weight" : 0,
 "title" : {"text" : "", "NE" : ""},
 "metaInfo" : { },
 "sentence" : [
	{
	"id" : 0,
	"reserve_str" : "",
	"text" : "루치아노 파바로티, 플라시도 도밍고와 함께 세계 3대 테너 가수로 꼽히며 각국을 무대로 공연을 가졌고 국내외 많은 상을 수상하였다.",
	"morp" : [
		{"id" : 0, "lemma" : "루치아노", "type" : "NNP", "position" : 0, "weight" : 1 },
		{"id" : 1, "lemma" : "파바로티", "type" : "NNP", "position" : 13, "weight" : 1 },
		{"id" : 2, "lemma" : ",", "type" : "SP", "position" : 25, "weight" : 1 },
		{"id" : 3, "lemma" : "플라시도", "type" : "NNP", "position" : 27, "weight" : 1 },
		{"id" : 4, "lemma" : "도밍고", "type" : "NNP", "position" : 40, "weight" : 1 },
		{"id" : 5, "lemma" : "와", "type" : "JKB", "position" : 49, "weight" : 1 },
		{"id" : 6, "lemma" : "함께", "type" : "MAG", "position" : 53, "weight" : 1 },
		{"id" : 7, "lemma" : "세계", "type" : "NNG", "position" : 60, "weight" : 1 },
		{"id" : 8, "lemma" : "3", "type" : "SN", "position" : 67, "weight" : 1 },
		{"id" : 9, "lemma" : "대", "type" : "NNG", "position" : 68, "weight" : 1 },
		{"id" : 10, "lemma" : "테너", "type" : "NNG", "position" : 72, "weight" : 1 },
		{"id" : 11, "lemma" : "가수", "type" : "NNG", "position" : 79, "weight" : 1 },
		{"id" : 12, "lemma" : "로", "type" : "JKB", "position" : 85, "weight" : 1 },
		{"id" : 13, "lemma" : "꼽히", "type" : "VV", "position" : 89, "weight" : 1 },
		{"id" : 14, "lemma" : "며", "type" : "EC", "position" : 95, "weight" : 1 },
		{"id" : 15, "lemma" : "각국", "type" : "NNG", "position" : 99, "weight" : 1 },
		{"id" : 16, "lemma" : "을", "type" : "JKO", "position" : 105, "weight" : 1 },
		{"id" : 17, "lemma" : "무대", "type" : "NNG", "position" : 109, "weight" : 1 },
		{"id" : 18, "lemma" : "로", "type" : "JKB", "position" : 115, "weight" : 1 },
		{"id" : 19, "lemma" : "공연", "type" : "NNG", "position" : 119, "weight" : 1 },
		{"id" : 20, "lemma" : "을", "type" : "JKO", "position" : 125, "weight" : 1 },
		{"id" : 21, "lemma" : "가지", "type" : "VV", "position" : 129, "weight" : 1 },
		{"id" : 22, "lemma" : "었", "type" : "EP", "position" : 132, "weight" : 1 },
		{"id" : 23, "lemma" : "고", "type" : "EC", "position" : 135, "weight" : 1 },
		{"id" : 24, "lemma" : "국내외", "type" : "NNG", "position" : 139, "weight" : 1 },
		{"id" : 25, "lemma" : "많", "type" : "VA", "position" : 149, "weight" : 1 },
		{"id" : 26, "lemma" : "은", "type" : "ETM", "position" : 152, "weight" : 1 },
		{"id" : 27, "lemma" : "상", "type" : "NNG", "position" : 156, "weight" : 1 },
		{"id" : 28, "lemma" : "을", "type" : "JKO", "position" : 159, "weight" : 1 },
		{"id" : 29, "lemma" : "수상", "type" : "NNG", "position" : 163, "weight" : 1 },
		{"id" : 30, "lemma" : "하", "type" : "XSV", "position" : 169, "weight" : 1 },
		{"id" : 31, "lemma" : "였", "type" : "EP", "position" : 172, "weight" : 1 },
		{"id" : 32, "lemma" : "다", "type" : "EF", "position" : 175, "weight" : 1 },
		{"id" : 33, "lemma" : ".", "type" : "SF", "position" : 178, "weight" : 1 }
	],
	"morp_eval" : [
	],
	"WSD" : [
	],
	"word" : [
		{"id" : 0, "text" : "루치아노", "type" : "", "begin" : 0, "end" : 0},
		{"id" : 1, "text" : "파바로티,", "type" : "", "begin" : 1, "end" : 2},
		{"id" : 2, "text" : "플라시도", "type" : "", "begin" : 3, "end" : 3},
		{"id" : 3, "text" : "도밍고와", "type" : "", "begin" : 4, "end" : 5},
		{"id" : 4, "text" : "함께", "type" : "", "begin" : 6, "end" : 6},
		{"id" : 5, "text" : "세계", "type" : "", "begin" : 7, "end" : 7},
		{"id" : 6, "text" : "3대", "type" : "", "begin" : 8, "end" : 9},
		{"id" : 7, "text" : "테너", "type" : "", "begin" : 10, "end" : 10},
		{"id" : 8, "text" : "가수로", "type" : "", "begin" : 11, "end" : 12},
		{"id" : 9, "text" : "꼽히며", "type" : "", "begin" : 13, "end" : 14},
		{"id" : 10, "text" : "각국을", "type" : "", "begin" : 15, "end" : 16},
		{"id" : 11, "text" : "무대로", "type" : "", "begin" : 17, "end" : 18},
		{"id" : 12, "text" : "공연을", "type" : "", "begin" : 19, "end" : 20},
		{"id" : 13, "text" : "가졌고", "type" : "", "begin" : 21, "end" : 23},
		{"id" : 14, "text" : "국내외", "type" : "", "begin" : 24, "end" : 24},
		{"id" : 15, "text" : "많은", "type" : "", "begin" : 25, "end" : 26},
		{"id" : 16, "text" : "상을", "type" : "", "begin" : 27, "end" : 28},
		{"id" : 17, "text" : "수상하였다.", "type" : "", "begin" : 29, "end" : 33}
	],
	"NE" : [
		{"id" : 0, "text" : "루치아노 파바로티", "type" : "PS_NAME", "begin" : 0, "end" : 1, "weight" : 0.371725, "common_noun" : 0},
		{"id" : 1, "text" : "플라시도 도밍고", "type" : "PS_NAME", "begin" : 3, "end" : 4, "weight" : 0.475531, "common_noun" : 0},
		{"id" : 2, "text" : "3대", "type" : "QT_COUNT", "begin" : 8, "end" : 9, "weight" : 0.642282, "common_noun" : 0},
		{"id" : 3, "text" : "테너 가수", "type" : "CV_OCCUPATION", "begin" : 10, "end" : 11, "weight" : 0.642282, "common_noun" : 0}
	],
	"chunk" : [
	],
	"dependency" : [
		{"id" : 0, "text" : "루치아노", "head" : 1, "label" : "NP", "mod" : [], "weight" : 0.787353 },
		{"id" : 1, "text" : "파바로티,", "head" : 3, "label" : "NP_CNJ", "mod" : [0], "weight" : 0.808668 },
		{"id" : 2, "text" : "플라시도", "head" : 3, "label" : "NP", "mod" : [], "weight" : 0.351544 },
		{"id" : 3, "text" : "도밍고와", "head" : 4, "label" : "NP_AJT", "mod" : [1, 2], "weight" : 0.685838 },
		{"id" : 4, "text" : "함께", "head" : 9, "label" : "AP", "mod" : [3], "weight" : 0.995332 },
		{"id" : 5, "text" : "세계", "head" : 7, "label" : "NP", "mod" : [], "weight" : 0.545172 },
		{"id" : 6, "text" : "3대", "head" : 7, "label" : "NP", "mod" : [], "weight" : 0.642458 },
		{"id" : 7, "text" : "테너", "head" : 8, "label" : "NP", "mod" : [5, 6], "weight" : 0.800745 },
		{"id" : 8, "text" : "가수로", "head" : 9, "label" : "NP_AJT", "mod" : [7], "weight" : 0.766387 },
		{"id" : 9, "text" : "꼽히며", "head" : 13, "label" : "VP", "mod" : [4, 8], "weight" : 0.865734 },
		{"id" : 10, "text" : "각국을", "head" : 11, "label" : "NP_OBJ", "mod" : [], "weight" : 0.625619 },
		{"id" : 11, "text" : "무대로", "head" : 13, "label" : "NP_AJT", "mod" : [10], "weight" : 0.748244 },
		{"id" : 12, "text" : "공연을", "head" : 13, "label" : "NP_OBJ", "mod" : [], "weight" : 0.594845 },
		{"id" : 13, "text" : "가졌고", "head" : 17, "label" : "VP", "mod" : [9, 11, 12], "weight" : 0.880441 },
		{"id" : 14, "text" : "국내외", "head" : 16, "label" : "NP", "mod" : [], "weight" : 0.611013 },
		{"id" : 15, "text" : "많은", "head" : 16, "label" : "VP_MOD", "mod" : [], "weight" : 0.887115 },
		{"id" : 16, "text" : "상을", "head" : 17, "label" : "NP_OBJ", "mod" : [14, 15], "weight" : 0.572063 },
		{"id" : 17, "text" : "수상하였다.", "head" : -1, "label" : "VP", "mod" : [13, 16], "weight" : 0.170826 }
	],
	"SRL" : [
		{"verb" : "꼽", "sense" : 1, "word_id" : 9, "weight" : 0.927898,
			"argument" : [
				{"type" : "ARGM-MNR", "word_id" : 4, "text" : "함께", "weight" : 0.973866 },
				{"type" : "ARG2", "word_id" : 8, "text" : "가수로", "weight" : 0.881929 }
			] },
		{"verb" : "가지", "sense" : 1, "word_id" : 13, "weight" : 0.128243,
			"argument" : [
				{"type" : "ARGM-MNR", "word_id" : 11, "text" : "무대로", "weight" : 0.642827 },
				{"type" : "ARG1", "word_id" : 12, "text" : "공연을", "weight" : 0.192202 }
			] },
		{"verb" : "많", "sense" : 1, "word_id" : 15, "weight" : 0.157272,
			"argument" : [
				{"type" : "ARG1", "word_id" : 16, "text" : "상을", "weight" : 0.157272 }
			] },
		{"verb" : "수상", "sense" : 1, "word_id" : 17, "weight" : 0.151077,
			"argument" : [
				{"type" : "ARG1", "word_id" : 16, "text" : "상을", "weight" : 0.151077 }
			] }
	],
	"relation" : [
	],
	"SA" : [
	],
	"ZA" : [
	]
	}
 ],
 "entity" : [
 ]
}

