{"doc_id" : "E2015.943.022_A_03",
 "DCT" : "",
 "category" : "",
 "category_weight" : 0,
 "title" : {"text" : "", "NE" : ""},
 "metaInfo" : { },
 "sentence" : [
	{
	"id" : 0,
	"reserve_str" : "",
	"text" : "1788년 장용영으로 개칭하였고, 1793년 도성(都城) 중심의 내영(內營)과 그 외곽인 수원 성곽(사적 3) 중심의 외영(外營)으로 확대 편제하여 기존 5군영보다 더 큰 비중을 차지하였다.",
	"morp" : [
		{"id" : 0, "lemma" : "1788", "type" : "SN", "position" : 0, "weight" : 1 },
		{"id" : 1, "lemma" : "년", "type" : "NNB", "position" : 4, "weight" : 0.0410795 },
		{"id" : 2, "lemma" : "장용영", "type" : "NNG", "position" : 8, "weight" : 1 },
		{"id" : 3, "lemma" : "으로", "type" : "JKB", "position" : 17, "weight" : 0.52054 },
		{"id" : 4, "lemma" : "개칭", "type" : "NNG", "position" : 24, "weight" : 1 },
		{"id" : 5, "lemma" : "하", "type" : "XSV", "position" : 30, "weight" : 1 },
		{"id" : 6, "lemma" : "였", "type" : "EP", "position" : 33, "weight" : 1 },
		{"id" : 7, "lemma" : "고", "type" : "EC", "position" : 36, "weight" : 0.0410795 },
		{"id" : 8, "lemma" : ",", "type" : "SP", "position" : 39, "weight" : 1 },
		{"id" : 9, "lemma" : "1793", "type" : "SN", "position" : 41, "weight" : 1 },
		{"id" : 10, "lemma" : "년", "type" : "NNB", "position" : 45, "weight" : 0.0410795 },
		{"id" : 11, "lemma" : "도성", "type" : "NNG", "position" : 49, "weight" : 1 },
		{"id" : 12, "lemma" : "(", "type" : "SS", "position" : 55, "weight" : 1 },
		{"id" : 13, "lemma" : "都城", "type" : "SH", "position" : 56, "weight" : 0.52054 },
		{"id" : 14, "lemma" : ")", "type" : "SS", "position" : 62, "weight" : 1 },
		{"id" : 15, "lemma" : "중심", "type" : "NNG", "position" : 64, "weight" : 1 },
		{"id" : 16, "lemma" : "의", "type" : "JKG", "position" : 70, "weight" : 1 },
		{"id" : 17, "lemma" : "내영", "type" : "NNG", "position" : 74, "weight" : 1 },
		{"id" : 18, "lemma" : "(", "type" : "SS", "position" : 80, "weight" : 1 },
		{"id" : 19, "lemma" : "內營", "type" : "SH", "position" : 81, "weight" : 0.52054 },
		{"id" : 20, "lemma" : ")", "type" : "SS", "position" : 87, "weight" : 1 },
		{"id" : 21, "lemma" : "과", "type" : "JC", "position" : 88, "weight" : 1 },
		{"id" : 22, "lemma" : "그", "type" : "MM", "position" : 92, "weight" : 1 },
		{"id" : 23, "lemma" : "외곽", "type" : "NNG", "position" : 96, "weight" : 1 },
		{"id" : 24, "lemma" : "이", "type" : "VCP", "position" : 102, "weight" : 1 },
		{"id" : 25, "lemma" : "ㄴ", "type" : "ETM", "position" : 102, "weight" : 1 },
		{"id" : 26, "lemma" : "수원", "type" : "NNP", "position" : 106, "weight" : 1 },
		{"id" : 27, "lemma" : "성곽", "type" : "NNG", "position" : 113, "weight" : 1 },
		{"id" : 28, "lemma" : "(", "type" : "SS", "position" : 119, "weight" : 1 },
		{"id" : 29, "lemma" : "사적", "type" : "NNG", "position" : 120, "weight" : 1 },
		{"id" : 30, "lemma" : "3", "type" : "SN", "position" : 127, "weight" : 1 },
		{"id" : 31, "lemma" : ")", "type" : "SS", "position" : 128, "weight" : 1 },
		{"id" : 32, "lemma" : "중심", "type" : "NNG", "position" : 130, "weight" : 1 },
		{"id" : 33, "lemma" : "의", "type" : "JKG", "position" : 136, "weight" : 1 },
		{"id" : 34, "lemma" : "외영", "type" : "NNG", "position" : 140, "weight" : 1 },
		{"id" : 35, "lemma" : "(", "type" : "SS", "position" : 146, "weight" : 1 },
		{"id" : 36, "lemma" : "外營", "type" : "SH", "position" : 147, "weight" : 0.52054 },
		{"id" : 37, "lemma" : ")", "type" : "SS", "position" : 153, "weight" : 1 },
		{"id" : 38, "lemma" : "으로", "type" : "JKB", "position" : 154, "weight" : 1 },
		{"id" : 39, "lemma" : "확대", "type" : "NNG", "position" : 161, "weight" : 1 },
		{"id" : 40, "lemma" : "편제", "type" : "NNG", "position" : 168, "weight" : 1 },
		{"id" : 41, "lemma" : "하", "type" : "XSV", "position" : 174, "weight" : 1 },
		{"id" : 42, "lemma" : "여", "type" : "EC", "position" : 177, "weight" : 1 },
		{"id" : 43, "lemma" : "기존", "type" : "NNG", "position" : 181, "weight" : 1 },
		{"id" : 44, "lemma" : "5", "type" : "SN", "position" : 188, "weight" : 1 },
		{"id" : 45, "lemma" : "군영", "type" : "NNG", "position" : 189, "weight" : 1 },
		{"id" : 46, "lemma" : "보다", "type" : "JKB", "position" : 195, "weight" : 0.52054 },
		{"id" : 47, "lemma" : "더", "type" : "MAG", "position" : 202, "weight" : 1 },
		{"id" : 48, "lemma" : "크", "type" : "VA", "position" : 206, "weight" : 1 },
		{"id" : 49, "lemma" : "ㄴ", "type" : "ETM", "position" : 206, "weight" : 1 },
		{"id" : 50, "lemma" : "비중", "type" : "NNG", "position" : 210, "weight" : 1 },
		{"id" : 51, "lemma" : "을", "type" : "JKO", "position" : 216, "weight" : 1 },
		{"id" : 52, "lemma" : "차지", "type" : "NNG", "position" : 220, "weight" : 1 },
		{"id" : 53, "lemma" : "하", "type" : "XSV", "position" : 226, "weight" : 1 },
		{"id" : 54, "lemma" : "였", "type" : "EP", "position" : 229, "weight" : 1 },
		{"id" : 55, "lemma" : "다", "type" : "EF", "position" : 232, "weight" : 0.0410795 },
		{"id" : 56, "lemma" : ".", "type" : "SF", "position" : 235, "weight" : 1 }
	],
	"morp_eval" : [
	],
	"WSD" : [
	],
	"word" : [
		{"id" : 0, "text" : "1788년", "type" : "", "begin" : 0, "end" : 1},
		{"id" : 1, "text" : "장용영으로", "type" : "", "begin" : 2, "end" : 3},
		{"id" : 2, "text" : "개칭하였고,", "type" : "", "begin" : 4, "end" : 8},
		{"id" : 3, "text" : "1793년", "type" : "", "begin" : 9, "end" : 10},
		{"id" : 4, "text" : "도성(都城)", "type" : "", "begin" : 11, "end" : 14},
		{"id" : 5, "text" : "중심의", "type" : "", "begin" : 15, "end" : 16},
		{"id" : 6, "text" : "내영(內營)과", "type" : "", "begin" : 17, "end" : 21},
		{"id" : 7, "text" : "그", "type" : "", "begin" : 22, "end" : 22},
		{"id" : 8, "text" : "외곽인", "type" : "", "begin" : 23, "end" : 25},
		{"id" : 9, "text" : "수원", "type" : "", "begin" : 26, "end" : 26},
		{"id" : 10, "text" : "성곽(사적", "type" : "", "begin" : 27, "end" : 29},
		{"id" : 11, "text" : "3)", "type" : "", "begin" : 30, "end" : 31},
		{"id" : 12, "text" : "중심의", "type" : "", "begin" : 32, "end" : 33},
		{"id" : 13, "text" : "외영(外營)으로", "type" : "", "begin" : 34, "end" : 38},
		{"id" : 14, "text" : "확대", "type" : "", "begin" : 39, "end" : 39},
		{"id" : 15, "text" : "편제하여", "type" : "", "begin" : 40, "end" : 42},
		{"id" : 16, "text" : "기존", "type" : "", "begin" : 43, "end" : 43},
		{"id" : 17, "text" : "5군영보다", "type" : "", "begin" : 44, "end" : 46},
		{"id" : 18, "text" : "더", "type" : "", "begin" : 47, "end" : 47},
		{"id" : 19, "text" : "큰", "type" : "", "begin" : 48, "end" : 49},
		{"id" : 20, "text" : "비중을", "type" : "", "begin" : 50, "end" : 51},
		{"id" : 21, "text" : "차지하였다.", "type" : "", "begin" : 52, "end" : 56}
	],
	"NE" : [
		{"id" : 0, "text" : "1788년", "type" : "DT_YEAR", "begin" : 0, "end" : 1, "weight" : 0.532319, "common_noun" : 0},
		{"id" : 1, "text" : "장용영", "type" : "OGG_MILITARY", "begin" : 2, "end" : 2, "weight" : 0.0996597, "common_noun" : 0},
		{"id" : 2, "text" : "1793년", "type" : "DT_YEAR", "begin" : 9, "end" : 10, "weight" : 0.648459, "common_noun" : 0},
		{"id" : 3, "text" : "내영", "type" : "OGG_MILITARY", "begin" : 17, "end" : 17, "weight" : 0.648459, "common_noun" : 0},
		{"id" : 4, "text" : "內營", "type" : "OGG_MILITARY", "begin" : 19, "end" : 19, "weight" : 0.648459, "common_noun" : 0},
		{"id" : 5, "text" : "수원 성곽", "type" : "AF_CULTURAL_ASSET", "begin" : 26, "end" : 27, "weight" : 0.218173, "common_noun" : 0},
		{"id" : 6, "text" : "3", "type" : "QT_ORDER", "begin" : 30, "end" : 30, "weight" : 0.36594, "common_noun" : 0},
		{"id" : 7, "text" : "외영", "type" : "OGG_MILITARY", "begin" : 34, "end" : 34, "weight" : 0.648459, "common_noun" : 0},
		{"id" : 8, "text" : "外營", "type" : "OGG_MILITARY", "begin" : 36, "end" : 36, "weight" : 0.648459, "common_noun" : 0},
		{"id" : 9, "text" : "5군영", "type" : "OGG_MILITARY", "begin" : 44, "end" : 45, "weight" : 0.299218, "common_noun" : 0}
	],
	"chunk" : [
	],
	"dependency" : [
		{"id" : 0, "text" : "1788년", "head" : 2, "label" : "NP_AJT", "mod" : [], "weight" : 0.524311 },
		{"id" : 1, "text" : "장용영으로", "head" : 2, "label" : "NP_AJT", "mod" : [], "weight" : 0.86291 },
		{"id" : 2, "text" : "개칭하였고,", "head" : 15, "label" : "VP", "mod" : [0, 1], "weight" : 0.784953 },
		{"id" : 3, "text" : "1793년", "head" : 15, "label" : "NP", "mod" : [], "weight" : 0.580645 },
		{"id" : 4, "text" : "도성(都城)", "head" : 5, "label" : "NP", "mod" : [], "weight" : 0.70892 },
		{"id" : 5, "text" : "중심의", "head" : 6, "label" : "NP_MOD", "mod" : [4], "weight" : 0.738465 },
		{"id" : 6, "text" : "내영(內營)과", "head" : 13, "label" : "NP_CNJ", "mod" : [5], "weight" : 0.789746 },
		{"id" : 7, "text" : "그", "head" : 8, "label" : "DP", "mod" : [], "weight" : 0.66507 },
		{"id" : 8, "text" : "외곽인", "head" : 11, "label" : "VNP_MOD", "mod" : [7], "weight" : 0.511806 },
		{"id" : 9, "text" : "수원", "head" : 10, "label" : "NP", "mod" : [], "weight" : 0.527622 },
		{"id" : 10, "text" : "성곽(사적", "head" : 11, "label" : "NP", "mod" : [9], "weight" : 0.635146 },
		{"id" : 11, "text" : "3)", "head" : 12, "label" : "NP_PRN", "mod" : [8, 10], "weight" : 0.67787 },
		{"id" : 12, "text" : "중심의", "head" : 13, "label" : "NP_MOD", "mod" : [11], "weight" : 0.929277 },
		{"id" : 13, "text" : "외영(外營)으로", "head" : 15, "label" : "NP_AJT", "mod" : [6, 12], "weight" : 0.989278 },
		{"id" : 14, "text" : "확대", "head" : 15, "label" : "NP_CNJ", "mod" : [], "weight" : 0.50136 },
		{"id" : 15, "text" : "편제하여", "head" : 21, "label" : "VP", "mod" : [2, 3, 13, 14], "weight" : 0.596466 },
		{"id" : 16, "text" : "기존", "head" : 17, "label" : "NP", "mod" : [], "weight" : 0.756022 },
		{"id" : 17, "text" : "5군영보다", "head" : 19, "label" : "NP_AJT", "mod" : [16], "weight" : 0.643398 },
		{"id" : 18, "text" : "더", "head" : 19, "label" : "AP", "mod" : [], "weight" : 0.776688 },
		{"id" : 19, "text" : "큰", "head" : 20, "label" : "VP_MOD", "mod" : [17, 18], "weight" : 0.802663 },
		{"id" : 20, "text" : "비중을", "head" : 21, "label" : "NP_OBJ", "mod" : [19], "weight" : 0.555327 },
		{"id" : 21, "text" : "차지하였다.", "head" : -1, "label" : "VP", "mod" : [15, 20], "weight" : 0.242997 }
	],
	"SRL" : [
		{"verb" : "개칭", "sense" : 1, "word_id" : 2, "weight" : 0.719603,
			"argument" : [
				{"type" : "ARG3", "word_id" : 1, "text" : "장용영으로", "weight" : 0.719603 },
				{"type" : "ARGM-TMP", "word_id" : 0, "text" : "1788년", "weight" : 0 }
			] },
		{"verb" : "편제", "sense" : 1, "word_id" : 15, "weight" : 0.732941,
			"argument" : [
				{"type" : "ARG2", "word_id" : 13, "text" : "외영(外營)으로", "weight" : 0.732941 },
				{"type" : "ARGM-TMP", "word_id" : 3, "text" : "1793년", "weight" : 0 }
			] },
		{"verb" : "크", "sense" : 1, "word_id" : 19, "weight" : 0.191848,
			"argument" : [
				{"type" : "ARGM-CND", "word_id" : 17, "text" : "5군영보다", "weight" : 0.143882 },
				{"type" : "ARGM-EXT", "word_id" : 18, "text" : "더", "weight" : 0.287124 },
				{"type" : "ARG1", "word_id" : 20, "text" : "비중을", "weight" : 0.144538 }
			] },
		{"verb" : "차지", "sense" : 1, "word_id" : 21, "weight" : 0.181033,
			"argument" : [
				{"type" : "ARG1", "word_id" : 20, "text" : "비중을", "weight" : 0.181033 },
				{"type" : "ARGM-CAU", "word_id" : 15, "text" : "편제하여", "weight" : 0 }
			] }
	],
	"relation" : [
	],
	"SA" : [
	],
	"ZA" : [
	]
	}
 ],
 "entity" : [
 ]
}

