{"doc_id" : "E2015.943.015_Q_01",
 "DCT" : "",
 "category" : "",
 "category_weight" : 0,
 "title" : {"text" : "", "NE" : ""},
 "metaInfo" : { },
 "sentence" : [
	{
	"id" : 0,
	"reserve_str" : "",
	"text" : "2013년에 우리나라에서 발사한 위성으로 얼마 전 우주 쓰레기와 충돌 가능성이 있었던 위성은 무엇일까?",
	"morp" : [
		{"id" : 0, "lemma" : "2013", "type" : "SN", "position" : 0, "weight" : 1 },
		{"id" : 1, "lemma" : "년", "type" : "NNB", "position" : 4, "weight" : 0.0533826 },
		{"id" : 2, "lemma" : "에", "type" : "JKB", "position" : 7, "weight" : 0.0375021 },
		{"id" : 3, "lemma" : "우리나라", "type" : "NNG", "position" : 11, "weight" : 1 },
		{"id" : 4, "lemma" : "에서", "type" : "JKB", "position" : 23, "weight" : 0.0454423 },
		{"id" : 5, "lemma" : "발사", "type" : "NNG", "position" : 30, "weight" : 1 },
		{"id" : 6, "lemma" : "하", "type" : "XSV", "position" : 36, "weight" : 1 },
		{"id" : 7, "lemma" : "ㄴ", "type" : "ETM", "position" : 36, "weight" : 1 },
		{"id" : 8, "lemma" : "위성", "type" : "NNG", "position" : 40, "weight" : 1 },
		{"id" : 9, "lemma" : "으로", "type" : "JKB", "position" : 46, "weight" : 1 },
		{"id" : 10, "lemma" : "얼마", "type" : "NNG", "position" : 53, "weight" : 1 },
		{"id" : 11, "lemma" : "전", "type" : "NNG", "position" : 60, "weight" : 1 },
		{"id" : 12, "lemma" : "우주", "type" : "NNG", "position" : 64, "weight" : 1 },
		{"id" : 13, "lemma" : "쓰레기", "type" : "NNG", "position" : 71, "weight" : 1 },
		{"id" : 14, "lemma" : "와", "type" : "JKB", "position" : 80, "weight" : 1 },
		{"id" : 15, "lemma" : "충돌", "type" : "NNG", "position" : 84, "weight" : 1 },
		{"id" : 16, "lemma" : "가능", "type" : "NNG", "position" : 91, "weight" : 1 },
		{"id" : 17, "lemma" : "성", "type" : "XSN", "position" : 97, "weight" : 1 },
		{"id" : 18, "lemma" : "이", "type" : "JKS", "position" : 100, "weight" : 1 },
		{"id" : 19, "lemma" : "있", "type" : "VA", "position" : 104, "weight" : 1 },
		{"id" : 20, "lemma" : "었", "type" : "EP", "position" : 107, "weight" : 1 },
		{"id" : 21, "lemma" : "던", "type" : "ETM", "position" : 110, "weight" : 1 },
		{"id" : 22, "lemma" : "위성", "type" : "NNG", "position" : 114, "weight" : 1 },
		{"id" : 23, "lemma" : "은", "type" : "JX", "position" : 120, "weight" : 1 },
		{"id" : 24, "lemma" : "무엇", "type" : "NP", "position" : 124, "weight" : 1 },
		{"id" : 25, "lemma" : "이", "type" : "VCP", "position" : 130, "weight" : 1 },
		{"id" : 26, "lemma" : "ㄹ까", "type" : "EF", "position" : 130, "weight" : 0.526691 },
		{"id" : 27, "lemma" : "?", "type" : "SF", "position" : 136, "weight" : 0.0375021 }
	],
	"morp_eval" : [
	],
	"WSD" : [
	],
	"word" : [
		{"id" : 0, "text" : "2013년에", "type" : "", "begin" : 0, "end" : 2},
		{"id" : 1, "text" : "우리나라에서", "type" : "", "begin" : 3, "end" : 4},
		{"id" : 2, "text" : "발사한", "type" : "", "begin" : 5, "end" : 7},
		{"id" : 3, "text" : "위성으로", "type" : "", "begin" : 8, "end" : 9},
		{"id" : 4, "text" : "얼마", "type" : "", "begin" : 10, "end" : 10},
		{"id" : 5, "text" : "전", "type" : "", "begin" : 11, "end" : 11},
		{"id" : 6, "text" : "우주", "type" : "", "begin" : 12, "end" : 12},
		{"id" : 7, "text" : "쓰레기와", "type" : "", "begin" : 13, "end" : 14},
		{"id" : 8, "text" : "충돌", "type" : "", "begin" : 15, "end" : 15},
		{"id" : 9, "text" : "가능성이", "type" : "", "begin" : 16, "end" : 18},
		{"id" : 10, "text" : "있었던", "type" : "", "begin" : 19, "end" : 21},
		{"id" : 11, "text" : "위성은", "type" : "", "begin" : 22, "end" : 23},
		{"id" : 12, "text" : "무엇일까?", "type" : "", "begin" : 24, "end" : 27}
	],
	"NE" : [
		{"id" : 0, "text" : "2013년", "type" : "DT_YEAR", "begin" : 0, "end" : 1, "weight" : 0.672056, "common_noun" : 0},
		{"id" : 1, "text" : "우주", "type" : "LC_SPACE", "begin" : 12, "end" : 12, "weight" : 0.161433, "common_noun" : 0}
	],
	"chunk" : [
	],
	"dependency" : [
		{"id" : 0, "text" : "2013년에", "head" : 2, "label" : "NP_AJT", "mod" : [], "weight" : 0.508807 },
		{"id" : 1, "text" : "우리나라에서", "head" : 2, "label" : "NP_AJT", "mod" : [], "weight" : 0.763303 },
		{"id" : 2, "text" : "발사한", "head" : 3, "label" : "VP_MOD", "mod" : [0, 1], "weight" : 0.743042 },
		{"id" : 3, "text" : "위성으로", "head" : 11, "label" : "NP_AJT", "mod" : [2], "weight" : 0.646771 },
		{"id" : 4, "text" : "얼마", "head" : 5, "label" : "NP", "mod" : [], "weight" : 0.821008 },
		{"id" : 5, "text" : "전", "head" : 10, "label" : "NP_AJT", "mod" : [4], "weight" : 0.695808 },
		{"id" : 6, "text" : "우주", "head" : 7, "label" : "NP", "mod" : [], "weight" : 0.697732 },
		{"id" : 7, "text" : "쓰레기와", "head" : 10, "label" : "NP_AJT", "mod" : [6], "weight" : 0.587088 },
		{"id" : 8, "text" : "충돌", "head" : 9, "label" : "NP", "mod" : [], "weight" : 0.995637 },
		{"id" : 9, "text" : "가능성이", "head" : 10, "label" : "NP_SBJ", "mod" : [8], "weight" : 0.771395 },
		{"id" : 10, "text" : "있었던", "head" : 11, "label" : "VP_MOD", "mod" : [5, 7, 9], "weight" : 0.758445 },
		{"id" : 11, "text" : "위성은", "head" : 12, "label" : "NP_SBJ", "mod" : [3, 10], "weight" : 0.619982 },
		{"id" : 12, "text" : "무엇일까?", "head" : -1, "label" : "VNP", "mod" : [11], "weight" : 0.12058 }
	],
	"SRL" : [
		{"verb" : "발사", "sense" : 1, "word_id" : 2, "weight" : 0.14988,
			"argument" : [
				{"type" : "ARGM-TMP", "word_id" : 0, "text" : "2013년에", "weight" : 0.218027 },
				{"type" : "ARGM-LOC", "word_id" : 1, "text" : "우리나라에서", "weight" : 0.837848 },
				{"type" : "ARG1", "word_id" : 3, "text" : "위성으로", "weight" : 0.147827 }
			] },
		{"verb" : "있", "sense" : 1, "word_id" : 10, "weight" : 0.135142,
			"argument" : [
				{"type" : "ARGM-TMP", "word_id" : 5, "text" : "전", "weight" : 0.148791 },
				{"type" : "ARG1", "word_id" : 9, "text" : "가능성이", "weight" : 0.15964 }
			] }
	],
	"relation" : [
	],
	"SA" : [
	],
	"ZA" : [
	]
	}
 ],
 "entity" : [
 ]
}

