{"doc_id" : "E2015.943.012_A_01",
 "DCT" : "",
 "category" : "",
 "category_weight" : 0,
 "title" : {"text" : "", "NE" : ""},
 "metaInfo" : { },
 "sentence" : [
	{
	"id" : 0,
	"reserve_str" : "",
	"text" : "글리산도(glissando, gliss)란 높이가 다른 두 음을 계속해서 연주할 때 첫 음에서 다음 음으로 진행할 경우 두 음 간에 잠재하는 모든 음을 거쳐서 끝의 음에 이르는 주법을 말한다.",
	"morp" : [
		{"id" : 0, "lemma" : "글리산도", "type" : "NNG", "position" : 0, "weight" : 1 },
		{"id" : 1, "lemma" : "(", "type" : "SS", "position" : 12, "weight" : 1 },
		{"id" : 2, "lemma" : "glissando", "type" : "SL", "position" : 13, "weight" : 1 },
		{"id" : 3, "lemma" : ",", "type" : "SP", "position" : 22, "weight" : 1 },
		{"id" : 4, "lemma" : "gliss", "type" : "SL", "position" : 24, "weight" : 1 },
		{"id" : 5, "lemma" : ")", "type" : "SS", "position" : 29, "weight" : 1 },
		{"id" : 6, "lemma" : "란", "type" : "JX", "position" : 30, "weight" : 1 },
		{"id" : 7, "lemma" : "높이", "type" : "NNG", "position" : 34, "weight" : 1 },
		{"id" : 8, "lemma" : "가", "type" : "JKS", "position" : 40, "weight" : 1 },
		{"id" : 9, "lemma" : "다르", "type" : "VA", "position" : 44, "weight" : 1 },
		{"id" : 10, "lemma" : "ㄴ", "type" : "ETM", "position" : 44, "weight" : 1 },
		{"id" : 11, "lemma" : "두", "type" : "MM", "position" : 51, "weight" : 1 },
		{"id" : 12, "lemma" : "음", "type" : "NNG", "position" : 55, "weight" : 1 },
		{"id" : 13, "lemma" : "을", "type" : "JKO", "position" : 58, "weight" : 1 },
		{"id" : 14, "lemma" : "계속", "type" : "NNG", "position" : 62, "weight" : 1 },
		{"id" : 15, "lemma" : "하", "type" : "XSV", "position" : 68, "weight" : 1 },
		{"id" : 16, "lemma" : "아서", "type" : "EC", "position" : 68, "weight" : 1 },
		{"id" : 17, "lemma" : "연주", "type" : "NNG", "position" : 75, "weight" : 1 },
		{"id" : 18, "lemma" : "하", "type" : "XSV", "position" : 81, "weight" : 1 },
		{"id" : 19, "lemma" : "ㄹ", "type" : "ETM", "position" : 81, "weight" : 1 },
		{"id" : 20, "lemma" : "때", "type" : "NNG", "position" : 85, "weight" : 1 },
		{"id" : 21, "lemma" : "첫", "type" : "MM", "position" : 89, "weight" : 1 },
		{"id" : 22, "lemma" : "음", "type" : "NNG", "position" : 89, "weight" : 1 },
		{"id" : 23, "lemma" : "에서", "type" : "JKB", "position" : 95, "weight" : 1 },
		{"id" : 24, "lemma" : "다음", "type" : "NNG", "position" : 102, "weight" : 1 },
		{"id" : 25, "lemma" : "음", "type" : "NNG", "position" : 109, "weight" : 1 },
		{"id" : 26, "lemma" : "으로", "type" : "JKB", "position" : 112, "weight" : 1 },
		{"id" : 27, "lemma" : "진행", "type" : "NNG", "position" : 119, "weight" : 1 },
		{"id" : 28, "lemma" : "하", "type" : "XSV", "position" : 125, "weight" : 1 },
		{"id" : 29, "lemma" : "ㄹ", "type" : "ETM", "position" : 125, "weight" : 1 },
		{"id" : 30, "lemma" : "경우", "type" : "NNG", "position" : 129, "weight" : 1 },
		{"id" : 31, "lemma" : "두", "type" : "MM", "position" : 136, "weight" : 1 },
		{"id" : 32, "lemma" : "음", "type" : "NNG", "position" : 140, "weight" : 1 },
		{"id" : 33, "lemma" : "간", "type" : "NNB", "position" : 144, "weight" : 1 },
		{"id" : 34, "lemma" : "에", "type" : "JKB", "position" : 147, "weight" : 1 },
		{"id" : 35, "lemma" : "잠재", "type" : "NNG", "position" : 151, "weight" : 1 },
		{"id" : 36, "lemma" : "하", "type" : "XSV", "position" : 157, "weight" : 1 },
		{"id" : 37, "lemma" : "는", "type" : "ETM", "position" : 160, "weight" : 1 },
		{"id" : 38, "lemma" : "모든", "type" : "MM", "position" : 164, "weight" : 1 },
		{"id" : 39, "lemma" : "음", "type" : "NNG", "position" : 171, "weight" : 1 },
		{"id" : 40, "lemma" : "을", "type" : "JKO", "position" : 174, "weight" : 1 },
		{"id" : 41, "lemma" : "거치", "type" : "VV", "position" : 178, "weight" : 1 },
		{"id" : 42, "lemma" : "어서", "type" : "EC", "position" : 181, "weight" : 1 },
		{"id" : 43, "lemma" : "끝", "type" : "NNG", "position" : 188, "weight" : 1 },
		{"id" : 44, "lemma" : "의", "type" : "JKG", "position" : 191, "weight" : 1 },
		{"id" : 45, "lemma" : "음", "type" : "NNG", "position" : 195, "weight" : 1 },
		{"id" : 46, "lemma" : "에", "type" : "JKB", "position" : 198, "weight" : 1 },
		{"id" : 47, "lemma" : "이르", "type" : "VV", "position" : 202, "weight" : 1 },
		{"id" : 48, "lemma" : "는", "type" : "ETM", "position" : 208, "weight" : 1 },
		{"id" : 49, "lemma" : "주법", "type" : "NNG", "position" : 212, "weight" : 1 },
		{"id" : 50, "lemma" : "을", "type" : "JKO", "position" : 218, "weight" : 1 },
		{"id" : 51, "lemma" : "말", "type" : "NNG", "position" : 222, "weight" : 1 },
		{"id" : 52, "lemma" : "하", "type" : "XSV", "position" : 225, "weight" : 1 },
		{"id" : 53, "lemma" : "ㄴ다", "type" : "EF", "position" : 225, "weight" : 1 },
		{"id" : 54, "lemma" : ".", "type" : "SF", "position" : 231, "weight" : 1 }
	],
	"morp_eval" : [
	],
	"WSD" : [
	],
	"word" : [
		{"id" : 0, "text" : "글리산도(glissando,", "type" : "", "begin" : 0, "end" : 3},
		{"id" : 1, "text" : "gliss)란", "type" : "", "begin" : 4, "end" : 6},
		{"id" : 2, "text" : "높이가", "type" : "", "begin" : 7, "end" : 8},
		{"id" : 3, "text" : "다른", "type" : "", "begin" : 9, "end" : 10},
		{"id" : 4, "text" : "두", "type" : "", "begin" : 11, "end" : 11},
		{"id" : 5, "text" : "음을", "type" : "", "begin" : 12, "end" : 13},
		{"id" : 6, "text" : "계속해서", "type" : "", "begin" : 14, "end" : 16},
		{"id" : 7, "text" : "연주할", "type" : "", "begin" : 17, "end" : 19},
		{"id" : 8, "text" : "때", "type" : "", "begin" : 20, "end" : 20},
		{"id" : 9, "text" : "첫", "type" : "", "begin" : 21, "end" : 21},
		{"id" : 10, "text" : "음에서", "type" : "", "begin" : 22, "end" : 23},
		{"id" : 11, "text" : "다음", "type" : "", "begin" : 24, "end" : 24},
		{"id" : 12, "text" : "음으로", "type" : "", "begin" : 25, "end" : 26},
		{"id" : 13, "text" : "진행할", "type" : "", "begin" : 27, "end" : 29},
		{"id" : 14, "text" : "경우", "type" : "", "begin" : 30, "end" : 30},
		{"id" : 15, "text" : "두", "type" : "", "begin" : 31, "end" : 31},
		{"id" : 16, "text" : "음", "type" : "", "begin" : 32, "end" : 32},
		{"id" : 17, "text" : "간에", "type" : "", "begin" : 33, "end" : 34},
		{"id" : 18, "text" : "잠재하는", "type" : "", "begin" : 35, "end" : 37},
		{"id" : 19, "text" : "모든", "type" : "", "begin" : 38, "end" : 38},
		{"id" : 20, "text" : "음을", "type" : "", "begin" : 39, "end" : 40},
		{"id" : 21, "text" : "거쳐서", "type" : "", "begin" : 41, "end" : 42},
		{"id" : 22, "text" : "끝의", "type" : "", "begin" : 43, "end" : 44},
		{"id" : 23, "text" : "음에", "type" : "", "begin" : 45, "end" : 46},
		{"id" : 24, "text" : "이르는", "type" : "", "begin" : 47, "end" : 48},
		{"id" : 25, "text" : "주법을", "type" : "", "begin" : 49, "end" : 50},
		{"id" : 26, "text" : "말한다.", "type" : "", "begin" : 51, "end" : 54}
	],
	"NE" : [
		{"id" : 0, "text" : "글리산도", "type" : "TR_ART", "begin" : 0, "end" : 0, "weight" : 0.314681, "common_noun" : 0},
		{"id" : 1, "text" : "glissando", "type" : "TR_ART", "begin" : 2, "end" : 2, "weight" : 0.314681, "common_noun" : 0},
		{"id" : 2, "text" : "gliss", "type" : "TR_ART", "begin" : 4, "end" : 4, "weight" : 0.314681, "common_noun" : 0},
		{"id" : 3, "text" : "두", "type" : "QT_COUNT", "begin" : 11, "end" : 11, "weight" : 0.314681, "common_noun" : 0},
		{"id" : 4, "text" : "첫", "type" : "QT_ORDER", "begin" : 21, "end" : 21, "weight" : 0.255448, "common_noun" : 0},
		{"id" : 5, "text" : "두", "type" : "QT_COUNT", "begin" : 31, "end" : 31, "weight" : 0.314681, "common_noun" : 0}
	],
	"chunk" : [
	],
	"dependency" : [
		{"id" : 0, "text" : "글리산도(glissando,", "head" : 1, "label" : "NP", "mod" : [], "weight" : 0.6717 },
		{"id" : 1, "text" : "gliss)란", "head" : 26, "label" : "NP_SBJ", "mod" : [0], "weight" : 0.632495 },
		{"id" : 2, "text" : "높이가", "head" : 3, "label" : "NP_SBJ", "mod" : [], "weight" : 0.687337 },
		{"id" : 3, "text" : "다른", "head" : 5, "label" : "VP_MOD", "mod" : [2], "weight" : 0.739773 },
		{"id" : 4, "text" : "두", "head" : 5, "label" : "DP", "mod" : [], "weight" : 0.954208 },
		{"id" : 5, "text" : "음을", "head" : 7, "label" : "NP_OBJ", "mod" : [3, 4], "weight" : 0.755464 },
		{"id" : 6, "text" : "계속해서", "head" : 7, "label" : "VP", "mod" : [], "weight" : 0.665661 },
		{"id" : 7, "text" : "연주할", "head" : 8, "label" : "VP_MOD", "mod" : [5, 6], "weight" : 0.84605 },
		{"id" : 8, "text" : "때", "head" : 13, "label" : "NP_AJT", "mod" : [7], "weight" : 0.58386 },
		{"id" : 9, "text" : "첫", "head" : 10, "label" : "DP", "mod" : [], "weight" : 0.865124 },
		{"id" : 10, "text" : "음에서", "head" : 13, "label" : "NP_AJT", "mod" : [9], "weight" : 0.779862 },
		{"id" : 11, "text" : "다음", "head" : 12, "label" : "NP", "mod" : [], "weight" : 0.679205 },
		{"id" : 12, "text" : "음으로", "head" : 13, "label" : "NP_AJT", "mod" : [11], "weight" : 0.94721 },
		{"id" : 13, "text" : "진행할", "head" : 14, "label" : "VP_MOD", "mod" : [8, 10, 12], "weight" : 0.876126 },
		{"id" : 14, "text" : "경우", "head" : 21, "label" : "NP_AJT", "mod" : [13], "weight" : 0.531879 },
		{"id" : 15, "text" : "두", "head" : 16, "label" : "DP", "mod" : [], "weight" : 0.655852 },
		{"id" : 16, "text" : "음", "head" : 17, "label" : "NP", "mod" : [15], "weight" : 0.993929 },
		{"id" : 17, "text" : "간에", "head" : 18, "label" : "NP_AJT", "mod" : [16], "weight" : 0.646987 },
		{"id" : 18, "text" : "잠재하는", "head" : 20, "label" : "VP_MOD", "mod" : [17], "weight" : 0.714662 },
		{"id" : 19, "text" : "모든", "head" : 20, "label" : "DP", "mod" : [], "weight" : 0.768576 },
		{"id" : 20, "text" : "음을", "head" : 21, "label" : "NP_OBJ", "mod" : [18, 19], "weight" : 0.803602 },
		{"id" : 21, "text" : "거쳐서", "head" : 24, "label" : "VP", "mod" : [14, 20], "weight" : 0.50653 },
		{"id" : 22, "text" : "끝의", "head" : 23, "label" : "NP_MOD", "mod" : [], "weight" : 0.735984 },
		{"id" : 23, "text" : "음에", "head" : 24, "label" : "NP_AJT", "mod" : [22], "weight" : 0.932471 },
		{"id" : 24, "text" : "이르는", "head" : 25, "label" : "VP_MOD", "mod" : [21, 23], "weight" : 0.781014 },
		{"id" : 25, "text" : "주법을", "head" : 26, "label" : "NP_OBJ", "mod" : [24], "weight" : 0.585123 },
		{"id" : 26, "text" : "말한다.", "head" : -1, "label" : "VP", "mod" : [1, 25], "weight" : 0.244434 }
	],
	"SRL" : [
		{"verb" : "다르", "sense" : 1, "word_id" : 3, "weight" : 0,
			"argument" : [
				{"type" : "ARG1", "word_id" : 2, "text" : "높이가", "weight" : 0 },
				{"type" : "ARG2", "word_id" : 5, "text" : "음을", "weight" : 0 }
			] },
		{"verb" : "연주", "sense" : 1, "word_id" : 7, "weight" : 0.123913,
			"argument" : [
				{"type" : "ARGM-MNR", "word_id" : 6, "text" : "계속해서", "weight" : 0.123913 },
				{"type" : "ARG1", "word_id" : 5, "text" : "음을", "weight" : 0 }
			] },
		{"verb" : "진행", "sense" : 1, "word_id" : 13, "weight" : 0.118246,
			"argument" : [
				{"type" : "ARGM-TMP", "word_id" : 8, "text" : "때", "weight" : 0.192925 },
				{"type" : "ARG2", "word_id" : 10, "text" : "음에서", "weight" : 0.100015 },
				{"type" : "ARG3", "word_id" : 12, "text" : "음으로", "weight" : 0.61797 }
			] },
		{"verb" : "잠재", "sense" : 1, "word_id" : 18, "weight" : 0.107872,
			"argument" : [
				{"type" : "ARG2", "word_id" : 17, "text" : "간에", "weight" : 0.107872 },
				{"type" : "ARG1", "word_id" : 20, "text" : "음을", "weight" : 0 }
			] },
		{"verb" : "거치", "sense" : 1, "word_id" : 21, "weight" : 0.180033,
			"argument" : [
				{"type" : "ARG2", "word_id" : 20, "text" : "음을", "weight" : 0.180033 },
				{"type" : "ARGM-CND", "word_id" : 14, "text" : "경우", "weight" : 0 }
			] },
		{"verb" : "이르", "sense" : 1, "word_id" : 24, "weight" : 0.132742,
			"argument" : [
				{"type" : "ARG3", "word_id" : 23, "text" : "음에", "weight" : 0.132742 }
			] },
		{"verb" : "말하", "sense" : 1, "word_id" : 26, "weight" : 0,
			"argument" : [
				{"type" : "ARG1", "word_id" : 25, "text" : "주법을", "weight" : 0 }
			] }
	],
	"relation" : [
	],
	"SA" : [
	],
	"ZA" : [
	]
	}
 ],
 "entity" : [
 ]
}

