{"doc_id" : "E2015.943.016_A_01",
 "DCT" : "",
 "category" : "",
 "category_weight" : 0,
 "title" : {"text" : "", "NE" : ""},
 "metaInfo" : { },
 "sentence" : [
	{
	"id" : 0,
	"reserve_str" : "",
	"text" : "샹송(프랑스어: Chanson Française, 번역: 프랑스 노래)은 프랑스어로 '노래', '가요'라는 뜻이다.",
	"morp" : [
		{"id" : 0, "lemma" : "샹송", "type" : "NNG", "position" : 0, "weight" : 0.0160061 },
		{"id" : 1, "lemma" : "(", "type" : "SS", "position" : 6, "weight" : 1 },
		{"id" : 2, "lemma" : "프랑스", "type" : "NNP", "position" : 7, "weight" : 1 },
		{"id" : 3, "lemma" : "어", "type" : "XSN", "position" : 16, "weight" : 1 },
		{"id" : 4, "lemma" : ":", "type" : "SP", "position" : 19, "weight" : 1 },
		{"id" : 5, "lemma" : "Chanson", "type" : "SL", "position" : 21, "weight" : 0.718859 },
		{"id" : 6, "lemma" : "Française", "type" : "SL", "position" : 29, "weight" : 0.508003 },
		{"id" : 7, "lemma" : ",", "type" : "SP", "position" : 39, "weight" : 1 },
		{"id" : 8, "lemma" : "번역", "type" : "NNG", "position" : 41, "weight" : 0.0160061 },
		{"id" : 9, "lemma" : ":", "type" : "SP", "position" : 47, "weight" : 1 },
		{"id" : 10, "lemma" : "프랑스", "type" : "NNP", "position" : 49, "weight" : 0.344004 },
		{"id" : 11, "lemma" : "노래", "type" : "NNG", "position" : 59, "weight" : 0.0160061 },
		{"id" : 12, "lemma" : ")", "type" : "SS", "position" : 65, "weight" : 1 },
		{"id" : 13, "lemma" : "은", "type" : "JX", "position" : 66, "weight" : 1 },
		{"id" : 14, "lemma" : "프랑스", "type" : "NNP", "position" : 70, "weight" : 0.344004 },
		{"id" : 15, "lemma" : "어", "type" : "XSN", "position" : 79, "weight" : 1 },
		{"id" : 16, "lemma" : "로", "type" : "JKB", "position" : 82, "weight" : 1 },
		{"id" : 17, "lemma" : "'", "type" : "SS", "position" : 86, "weight" : 0.0214512 },
		{"id" : 18, "lemma" : "노래", "type" : "NNG", "position" : 87, "weight" : 0.505281 },
		{"id" : 19, "lemma" : "'", "type" : "SS", "position" : 93, "weight" : 1 },
		{"id" : 20, "lemma" : ",", "type" : "SP", "position" : 94, "weight" : 1 },
		{"id" : 21, "lemma" : "'", "type" : "SS", "position" : 96, "weight" : 0.0214512 },
		{"id" : 22, "lemma" : "가요", "type" : "NNG", "position" : 97, "weight" : 0.505281 },
		{"id" : 23, "lemma" : "'", "type" : "SS", "position" : 103, "weight" : 1 },
		{"id" : 24, "lemma" : "이", "type" : "VCP", "position" : 104, "weight" : 1 },
		{"id" : 25, "lemma" : "라는", "type" : "ETM", "position" : 104, "weight" : 1 },
		{"id" : 26, "lemma" : "뜻", "type" : "NNG", "position" : 111, "weight" : 0.0214512 },
		{"id" : 27, "lemma" : "이", "type" : "VCP", "position" : 114, "weight" : 0.0105611 },
		{"id" : 28, "lemma" : "다", "type" : "EF", "position" : 117, "weight" : 1 },
		{"id" : 29, "lemma" : ".", "type" : "SF", "position" : 120, "weight" : 1 }
	],
	"morp_eval" : [
	],
	"WSD" : [
	],
	"word" : [
		{"id" : 0, "text" : "샹송(프랑스어:", "type" : "", "begin" : 0, "end" : 4},
		{"id" : 1, "text" : "Chanson", "type" : "", "begin" : 5, "end" : 5},
		{"id" : 2, "text" : "Française,", "type" : "", "begin" : 6, "end" : 7},
		{"id" : 3, "text" : "번역:", "type" : "", "begin" : 8, "end" : 9},
		{"id" : 4, "text" : "프랑스", "type" : "", "begin" : 10, "end" : 10},
		{"id" : 5, "text" : "노래)은", "type" : "", "begin" : 11, "end" : 13},
		{"id" : 6, "text" : "프랑스어로", "type" : "", "begin" : 14, "end" : 16},
		{"id" : 7, "text" : "'노래',", "type" : "", "begin" : 17, "end" : 20},
		{"id" : 8, "text" : "'가요'라는", "type" : "", "begin" : 21, "end" : 25},
		{"id" : 9, "text" : "뜻이다.", "type" : "", "begin" : 26, "end" : 29}
	],
	"NE" : [
		{"id" : 0, "text" : "샹송", "type" : "FD_ART", "begin" : 0, "end" : 0, "weight" : 0.0946784, "common_noun" : 0},
		{"id" : 1, "text" : "프랑스어", "type" : "CV_LANGUAGE", "begin" : 2, "end" : 3, "weight" : 0.321038, "common_noun" : 0},
		{"id" : 2, "text" : "Chanson", "type" : "FD_ART", "begin" : 5, "end" : 5, "weight" : 0.321038, "common_noun" : 0},
		{"id" : 3, "text" : "Française", "type" : "LCP_COUNTRY", "begin" : 6, "end" : 6, "weight" : 0.321038, "common_noun" : 0},
		{"id" : 4, "text" : "프랑스", "type" : "LCP_COUNTRY", "begin" : 10, "end" : 10, "weight" : 0.471316, "common_noun" : 0},
		{"id" : 5, "text" : "노래", "type" : "FD_ART", "begin" : 11, "end" : 11, "weight" : 0.169681, "common_noun" : 0},
		{"id" : 6, "text" : "프랑스어", "type" : "CV_LANGUAGE", "begin" : 14, "end" : 15, "weight" : 0.396745, "common_noun" : 0},
		{"id" : 7, "text" : "노래", "type" : "FD_ART", "begin" : 18, "end" : 18, "weight" : 0.169681, "common_noun" : 0},
		{"id" : 8, "text" : "가요", "type" : "FD_ART", "begin" : 22, "end" : 22, "weight" : 0.169681, "common_noun" : 0}
	],
	"chunk" : [
	],
	"dependency" : [
		{"id" : 0, "text" : "샹송(프랑스어:", "head" : 2, "label" : "NP", "mod" : [], "weight" : 0.754728 },
		{"id" : 1, "text" : "Chanson", "head" : 2, "label" : "NP", "mod" : [], "weight" : 0.782102 },
		{"id" : 2, "text" : "Française,", "head" : 5, "label" : "NP_CNJ", "mod" : [0, 1], "weight" : 0.594475 },
		{"id" : 3, "text" : "번역:", "head" : 5, "label" : "NP", "mod" : [], "weight" : 0.602833 },
		{"id" : 4, "text" : "프랑스", "head" : 5, "label" : "NP", "mod" : [], "weight" : 0.997339 },
		{"id" : 5, "text" : "노래)은", "head" : 9, "label" : "NP_SBJ", "mod" : [2, 3, 4], "weight" : 0.750153 },
		{"id" : 6, "text" : "프랑스어로", "head" : 9, "label" : "NP_AJT", "mod" : [], "weight" : 0.591648 },
		{"id" : 7, "text" : "'노래',", "head" : 8, "label" : "NP_CNJ", "mod" : [], "weight" : 0.479292 },
		{"id" : 8, "text" : "'가요'라는", "head" : 9, "label" : "NP_MOD", "mod" : [7], "weight" : 0.421762 },
		{"id" : 9, "text" : "뜻이다.", "head" : -1, "label" : "VNP", "mod" : [5, 6, 8], "weight" : 0.131499 }
	],
	"SRL" : [
	],
	"relation" : [
	],
	"SA" : [
	],
	"ZA" : [
	]
	},
	{
	"id" : 1,
	"reserve_str" : "",
	"text" : "현재는 프랑스 가곡이 아닌 현대 프랑스의 대중음악, 주로 서민의 노래를 칭할 때 쓰인다.",
	"morp" : [
		{"id" : 0, "lemma" : "현재", "type" : "NNG", "position" : 122, "weight" : 0.0263813 },
		{"id" : 1, "lemma" : "는", "type" : "JX", "position" : 128, "weight" : 0.0368102 },
		{"id" : 2, "lemma" : "프랑스", "type" : "NNP", "position" : 132, "weight" : 0.0298576 },
		{"id" : 3, "lemma" : "가곡", "type" : "NNG", "position" : 142, "weight" : 0.0263813 },
		{"id" : 4, "lemma" : "이", "type" : "JKC", "position" : 148, "weight" : 0.0368102 },
		{"id" : 5, "lemma" : "아니", "type" : "VCN", "position" : 152, "weight" : 0.0263813 },
		{"id" : 6, "lemma" : "ㄴ", "type" : "ETM", "position" : 155, "weight" : 0.0368102 },
		{"id" : 7, "lemma" : "현대", "type" : "NNP", "position" : 159, "weight" : 0.0263813 },
		{"id" : 8, "lemma" : "프랑스", "type" : "NNP", "position" : 166, "weight" : 0.0298576 },
		{"id" : 9, "lemma" : "의", "type" : "JKG", "position" : 175, "weight" : 0.0335904 },
		{"id" : 10, "lemma" : "대중", "type" : "NNG", "position" : 179, "weight" : 0.0263813 },
		{"id" : 11, "lemma" : "음악", "type" : "NNG", "position" : 185, "weight" : 0.0352003 },
		{"id" : 12, "lemma" : ",", "type" : "SP", "position" : 191, "weight" : 0.0307989 },
		{"id" : 13, "lemma" : "주로", "type" : "MAG", "position" : 193, "weight" : 0.0263813 },
		{"id" : 14, "lemma" : "서민", "type" : "NNG", "position" : 200, "weight" : 0.0263813 },
		{"id" : 15, "lemma" : "의", "type" : "JKG", "position" : 206, "weight" : 0.0368102 },
		{"id" : 16, "lemma" : "노래", "type" : "NNG", "position" : 210, "weight" : 0.0263813 },
		{"id" : 17, "lemma" : "를", "type" : "JKO", "position" : 216, "weight" : 0.0368102 },
		{"id" : 18, "lemma" : "칭하", "type" : "VV", "position" : 220, "weight" : 0.0298576 },
		{"id" : 19, "lemma" : "ㄹ", "type" : "ETM", "position" : 220, "weight" : 0.0298576 },
		{"id" : 20, "lemma" : "때", "type" : "NNG", "position" : 220, "weight" : 0.0298576 },
		{"id" : 21, "lemma" : "쓰이", "type" : "VV", "position" : 230, "weight" : 0.0263813 },
		{"id" : 22, "lemma" : "ㄴ다", "type" : "EF", "position" : 233, "weight" : 0.0352003 },
		{"id" : 23, "lemma" : ".", "type" : "SF", "position" : 239, "weight" : 0.0307989 }
	],
	"morp_eval" : [
	],
	"WSD" : [
	],
	"word" : [
		{"id" : 0, "text" : "현재는", "type" : "", "begin" : 0, "end" : 1},
		{"id" : 1, "text" : "프랑스", "type" : "", "begin" : 2, "end" : 2},
		{"id" : 2, "text" : "가곡이", "type" : "", "begin" : 3, "end" : 4},
		{"id" : 3, "text" : "아닌", "type" : "", "begin" : 5, "end" : 6},
		{"id" : 4, "text" : "현대", "type" : "", "begin" : 7, "end" : 7},
		{"id" : 5, "text" : "프랑스의", "type" : "", "begin" : 8, "end" : 9},
		{"id" : 6, "text" : "대중음악,", "type" : "", "begin" : 10, "end" : 12},
		{"id" : 7, "text" : "주로", "type" : "", "begin" : 13, "end" : 13},
		{"id" : 8, "text" : "서민의", "type" : "", "begin" : 14, "end" : 15},
		{"id" : 9, "text" : "노래를", "type" : "", "begin" : 16, "end" : 17},
		{"id" : 10, "text" : "칭할", "type" : "", "begin" : 18, "end" : 19},
		{"id" : 11, "text" : "때", "type" : "", "begin" : 20, "end" : 20},
		{"id" : 12, "text" : "쓰인다.", "type" : "", "begin" : 21, "end" : 23}
	],
	"NE" : [
		{"id" : 0, "text" : "프랑스", "type" : "LCP_COUNTRY", "begin" : 2, "end" : 2, "weight" : 0.488209, "common_noun" : 0},
		{"id" : 1, "text" : "가곡", "type" : "FD_ART", "begin" : 3, "end" : 3, "weight" : 0.116846, "common_noun" : 0},
		{"id" : 2, "text" : "현대", "type" : "DT_OTHERS", "begin" : 7, "end" : 7, "weight" : 0.280038, "common_noun" : 0},
		{"id" : 3, "text" : "프랑스", "type" : "LCP_COUNTRY", "begin" : 8, "end" : 8, "weight" : 0.350477, "common_noun" : 0},
		{"id" : 4, "text" : "대중음악", "type" : "FD_ART", "begin" : 10, "end" : 11, "weight" : 0.305335, "common_noun" : 0},
		{"id" : 5, "text" : "서민", "type" : "CV_POSITION", "begin" : 14, "end" : 14, "weight" : 0.316039, "common_noun" : 0},
		{"id" : 6, "text" : "노래", "type" : "FD_ART", "begin" : 16, "end" : 16, "weight" : 0.169681, "common_noun" : 0}
	],
	"chunk" : [
	],
	"dependency" : [
		{"id" : 0, "text" : "현재는", "head" : 12, "label" : "NP_SBJ", "mod" : [], "weight" : 0.915234 },
		{"id" : 1, "text" : "프랑스", "head" : 2, "label" : "NP", "mod" : [], "weight" : 0.718738 },
		{"id" : 2, "text" : "가곡이", "head" : 3, "label" : "NP_CMP", "mod" : [1], "weight" : 0.849328 },
		{"id" : 3, "text" : "아닌", "head" : 6, "label" : "VP_MOD", "mod" : [2], "weight" : 0.980889 },
		{"id" : 4, "text" : "현대", "head" : 5, "label" : "NP", "mod" : [], "weight" : 0.932019 },
		{"id" : 5, "text" : "프랑스의", "head" : 6, "label" : "NP_MOD", "mod" : [4], "weight" : 0.769058 },
		{"id" : 6, "text" : "대중음악,", "head" : 9, "label" : "NP_CNJ", "mod" : [3, 5], "weight" : 0.400168 },
		{"id" : 7, "text" : "주로", "head" : 9, "label" : "AP", "mod" : [], "weight" : 0.749659 },
		{"id" : 8, "text" : "서민의", "head" : 9, "label" : "NP_MOD", "mod" : [], "weight" : 0.973994 },
		{"id" : 9, "text" : "노래를", "head" : 10, "label" : "NP_OBJ", "mod" : [6, 7, 8], "weight" : 0.76522 },
		{"id" : 10, "text" : "칭할", "head" : 11, "label" : "VP_MOD", "mod" : [9], "weight" : 0.828199 },
		{"id" : 11, "text" : "때", "head" : 12, "label" : "NP_AJT", "mod" : [10], "weight" : 0.559588 },
		{"id" : 12, "text" : "쓰인다.", "head" : -1, "label" : "VP", "mod" : [0, 11], "weight" : 0.30277 }
	],
	"SRL" : [
		{"verb" : "아니", "sense" : 1, "word_id" : 3, "weight" : 0.185451,
			"argument" : [
				{"type" : "ARG2", "word_id" : 2, "text" : "가곡이", "weight" : 0.177776 },
				{"type" : "ARG1", "word_id" : 6, "text" : "대중음악,", "weight" : 0.193127 }
			] },
		{"verb" : "칭하", "sense" : 1, "word_id" : 10, "weight" : 0.186751,
			"argument" : [
				{"type" : "ARG1", "word_id" : 9, "text" : "노래를", "weight" : 0.186751 }
			] },
		{"verb" : "쓰", "sense" : 1, "word_id" : 12, "weight" : 0.143199,
			"argument" : [
				{"type" : "ARGM-TMP", "word_id" : 0, "text" : "현재는", "weight" : 0.106031 },
				{"type" : "ARG2", "word_id" : 11, "text" : "때", "weight" : 0.154623 }
			] }
	],
	"relation" : [
	],
	"SA" : [
	],
	"ZA" : [
	]
	}
 ],
 "entity" : [
 ]
}

