{"doc_id" : "E2015.947.025_A_04",
 "DCT" : "",
 "category" : "",
 "category_weight" : 0,
 "title" : {"text" : "", "NE" : ""},
 "metaInfo" : { },
 "sentence" : [
	{
	"id" : 0,
	"reserve_str" : "",
	"text" : "전도율을 변화시키기 위해 반도체 속에 불순물을 첨가하는 것.",
	"morp" : [
		{"id" : 0, "lemma" : "전도", "type" : "NNG", "position" : 0, "weight" : 1 },
		{"id" : 1, "lemma" : "율", "type" : "XSN", "position" : 6, "weight" : 1 },
		{"id" : 2, "lemma" : "을", "type" : "JKO", "position" : 9, "weight" : 0.0463816 },
		{"id" : 3, "lemma" : "변화", "type" : "NNG", "position" : 13, "weight" : 1 },
		{"id" : 4, "lemma" : "시키", "type" : "XSV", "position" : 19, "weight" : 0.523191 },
		{"id" : 5, "lemma" : "기", "type" : "ETN", "position" : 25, "weight" : 1 },
		{"id" : 6, "lemma" : "위하", "type" : "VV", "position" : 29, "weight" : 1 },
		{"id" : 7, "lemma" : "아", "type" : "EC", "position" : 32, "weight" : 1 },
		{"id" : 8, "lemma" : "반도체", "type" : "NNG", "position" : 36, "weight" : 1 },
		{"id" : 9, "lemma" : "속", "type" : "NNG", "position" : 46, "weight" : 1 },
		{"id" : 10, "lemma" : "에", "type" : "JKB", "position" : 49, "weight" : 1 },
		{"id" : 11, "lemma" : "불순", "type" : "NNG", "position" : 53, "weight" : 1 },
		{"id" : 12, "lemma" : "물", "type" : "XSN", "position" : 59, "weight" : 1 },
		{"id" : 13, "lemma" : "을", "type" : "JKO", "position" : 62, "weight" : 0.0463816 },
		{"id" : 14, "lemma" : "첨가", "type" : "NNG", "position" : 66, "weight" : 1 },
		{"id" : 15, "lemma" : "하", "type" : "XSV", "position" : 72, "weight" : 1 },
		{"id" : 16, "lemma" : "는", "type" : "ETM", "position" : 75, "weight" : 0.0463816 },
		{"id" : 17, "lemma" : "것", "type" : "NNB", "position" : 79, "weight" : 1 },
		{"id" : 18, "lemma" : ".", "type" : "SF", "position" : 82, "weight" : 1 }
	],
	"morp_eval" : [
	],
	"WSD" : [
	],
	"word" : [
		{"id" : 0, "text" : "전도율을", "type" : "", "begin" : 0, "end" : 2},
		{"id" : 1, "text" : "변화시키기", "type" : "", "begin" : 3, "end" : 5},
		{"id" : 2, "text" : "위해", "type" : "", "begin" : 6, "end" : 7},
		{"id" : 3, "text" : "반도체", "type" : "", "begin" : 8, "end" : 8},
		{"id" : 4, "text" : "속에", "type" : "", "begin" : 9, "end" : 10},
		{"id" : 5, "text" : "불순물을", "type" : "", "begin" : 11, "end" : 13},
		{"id" : 6, "text" : "첨가하는", "type" : "", "begin" : 14, "end" : 16},
		{"id" : 7, "text" : "것.", "type" : "", "begin" : 17, "end" : 18}
	],
	"NE" : [
	],
	"chunk" : [
	],
	"dependency" : [
		{"id" : 0, "text" : "전도율을", "head" : 1, "label" : "NP_OBJ", "mod" : [], "weight" : 0.807889 },
		{"id" : 1, "text" : "변화시키기", "head" : 2, "label" : "VP_OBJ", "mod" : [0], "weight" : 0.959836 },
		{"id" : 2, "text" : "위해", "head" : 6, "label" : "VP", "mod" : [1], "weight" : 0.747144 },
		{"id" : 3, "text" : "반도체", "head" : 4, "label" : "NP", "mod" : [], "weight" : 0.959614 },
		{"id" : 4, "text" : "속에", "head" : 6, "label" : "NP_AJT", "mod" : [3], "weight" : 0.690835 },
		{"id" : 5, "text" : "불순물을", "head" : 6, "label" : "NP_OBJ", "mod" : [], "weight" : 0.970765 },
		{"id" : 6, "text" : "첨가하는", "head" : 7, "label" : "VP_MOD", "mod" : [2, 4, 5], "weight" : 0.629955 },
		{"id" : 7, "text" : "것.", "head" : -1, "label" : "NP", "mod" : [6], "weight" : 0.146997 }
	],
	"SRL" : [
		{"verb" : "변화", "sense" : 1, "word_id" : 1, "weight" : 0.205631,
			"argument" : [
				{"type" : "ARG1", "word_id" : 0, "text" : "전도율을", "weight" : 0.205631 }
			] },
		{"verb" : "위하", "sense" : 1, "word_id" : 2, "weight" : 0.1864,
			"argument" : [
				{"type" : "ARG1", "word_id" : 1, "text" : "변화시키기", "weight" : 0.1864 }
			] },
		{"verb" : "첨가", "sense" : 1, "word_id" : 6, "weight" : 0.160841,
			"argument" : [
				{"type" : "ARGM-PRP", "word_id" : 2, "text" : "위해", "weight" : 0.146327 },
				{"type" : "ARG2", "word_id" : 4, "text" : "속에", "weight" : 0.978722 },
				{"type" : "ARG1", "word_id" : 5, "text" : "불순물을", "weight" : 0.238323 }
			] }
	],
	"relation" : [
	],
	"SA" : [
	],
	"ZA" : [
	]
	}
 ],
 "entity" : [
 ]
}

