{"doc_id" : "E2015.943.021_A_03",
 "DCT" : "",
 "category" : "",
 "category_weight" : 0,
 "title" : {"text" : "", "NE" : ""},
 "metaInfo" : { },
 "sentence" : [
	{
	"id" : 0,
	"reserve_str" : "",
	"text" : "대통령 등의 공직 후보를 선발할 때 일반국민이 직접 참여하여 선출하는 방식으로, 국민에게 인기 있고 명망 있는 인물을 후보로 영입하는 데 유리함",
	"morp" : [
		{"id" : 0, "lemma" : "대통령", "type" : "NNG", "position" : 0, "weight" : 1 },
		{"id" : 1, "lemma" : "등", "type" : "NNB", "position" : 10, "weight" : 1 },
		{"id" : 2, "lemma" : "의", "type" : "JKG", "position" : 13, "weight" : 1 },
		{"id" : 3, "lemma" : "공직", "type" : "NNG", "position" : 17, "weight" : 1 },
		{"id" : 4, "lemma" : "후보", "type" : "NNG", "position" : 24, "weight" : 1 },
		{"id" : 5, "lemma" : "를", "type" : "JKO", "position" : 30, "weight" : 1 },
		{"id" : 6, "lemma" : "선발", "type" : "NNG", "position" : 34, "weight" : 1 },
		{"id" : 7, "lemma" : "하", "type" : "XSV", "position" : 40, "weight" : 1 },
		{"id" : 8, "lemma" : "ㄹ", "type" : "ETM", "position" : 40, "weight" : 0.0657014 },
		{"id" : 9, "lemma" : "때", "type" : "NNG", "position" : 44, "weight" : 1 },
		{"id" : 10, "lemma" : "일반", "type" : "NNG", "position" : 48, "weight" : 1 },
		{"id" : 11, "lemma" : "국민", "type" : "NNG", "position" : 54, "weight" : 0.532851 },
		{"id" : 12, "lemma" : "이", "type" : "JKS", "position" : 60, "weight" : 0.0520903 },
		{"id" : 13, "lemma" : "직접", "type" : "MAG", "position" : 64, "weight" : 1 },
		{"id" : 14, "lemma" : "참여", "type" : "NNG", "position" : 71, "weight" : 1 },
		{"id" : 15, "lemma" : "하", "type" : "XSV", "position" : 77, "weight" : 1 },
		{"id" : 16, "lemma" : "여", "type" : "EC", "position" : 80, "weight" : 0.0657014 },
		{"id" : 17, "lemma" : "선출", "type" : "NNG", "position" : 84, "weight" : 1 },
		{"id" : 18, "lemma" : "하", "type" : "XSV", "position" : 90, "weight" : 1 },
		{"id" : 19, "lemma" : "는", "type" : "ETM", "position" : 93, "weight" : 0.0657014 },
		{"id" : 20, "lemma" : "방식", "type" : "NNG", "position" : 97, "weight" : 1 },
		{"id" : 21, "lemma" : "으로", "type" : "JKB", "position" : 103, "weight" : 0.532851 },
		{"id" : 22, "lemma" : ",", "type" : "SP", "position" : 109, "weight" : 0.0520903 },
		{"id" : 23, "lemma" : "국민", "type" : "NNG", "position" : 111, "weight" : 1 },
		{"id" : 24, "lemma" : "에게", "type" : "JKB", "position" : 117, "weight" : 0.532851 },
		{"id" : 25, "lemma" : "인기", "type" : "NNG", "position" : 124, "weight" : 1 },
		{"id" : 26, "lemma" : "있", "type" : "VA", "position" : 131, "weight" : 1 },
		{"id" : 27, "lemma" : "고", "type" : "EC", "position" : 134, "weight" : 1 },
		{"id" : 28, "lemma" : "명망", "type" : "NNG", "position" : 138, "weight" : 1 },
		{"id" : 29, "lemma" : "있", "type" : "VA", "position" : 145, "weight" : 1 },
		{"id" : 30, "lemma" : "는", "type" : "ETM", "position" : 148, "weight" : 1 },
		{"id" : 31, "lemma" : "인물", "type" : "NNG", "position" : 152, "weight" : 1 },
		{"id" : 32, "lemma" : "을", "type" : "JKO", "position" : 158, "weight" : 1 },
		{"id" : 33, "lemma" : "후보", "type" : "NNG", "position" : 162, "weight" : 1 },
		{"id" : 34, "lemma" : "로", "type" : "JKB", "position" : 168, "weight" : 1 },
		{"id" : 35, "lemma" : "영입", "type" : "NNG", "position" : 172, "weight" : 1 },
		{"id" : 36, "lemma" : "하", "type" : "XSV", "position" : 178, "weight" : 1 },
		{"id" : 37, "lemma" : "는", "type" : "ETM", "position" : 181, "weight" : 0.0657014 },
		{"id" : 38, "lemma" : "데", "type" : "NNB", "position" : 185, "weight" : 1 },
		{"id" : 39, "lemma" : "유리", "type" : "NNG", "position" : 189, "weight" : 1 },
		{"id" : 40, "lemma" : "하", "type" : "XSA", "position" : 195, "weight" : 1 },
		{"id" : 41, "lemma" : "ㅁ", "type" : "ETN", "position" : 195, "weight" : 0.0657014 }
	],
	"morp_eval" : [
	],
	"WSD" : [
	],
	"word" : [
		{"id" : 0, "text" : "대통령", "type" : "", "begin" : 0, "end" : 0},
		{"id" : 1, "text" : "등의", "type" : "", "begin" : 1, "end" : 2},
		{"id" : 2, "text" : "공직", "type" : "", "begin" : 3, "end" : 3},
		{"id" : 3, "text" : "후보를", "type" : "", "begin" : 4, "end" : 5},
		{"id" : 4, "text" : "선발할", "type" : "", "begin" : 6, "end" : 8},
		{"id" : 5, "text" : "때", "type" : "", "begin" : 9, "end" : 9},
		{"id" : 6, "text" : "일반국민이", "type" : "", "begin" : 10, "end" : 12},
		{"id" : 7, "text" : "직접", "type" : "", "begin" : 13, "end" : 13},
		{"id" : 8, "text" : "참여하여", "type" : "", "begin" : 14, "end" : 16},
		{"id" : 9, "text" : "선출하는", "type" : "", "begin" : 17, "end" : 19},
		{"id" : 10, "text" : "방식으로,", "type" : "", "begin" : 20, "end" : 22},
		{"id" : 11, "text" : "국민에게", "type" : "", "begin" : 23, "end" : 24},
		{"id" : 12, "text" : "인기", "type" : "", "begin" : 25, "end" : 25},
		{"id" : 13, "text" : "있고", "type" : "", "begin" : 26, "end" : 27},
		{"id" : 14, "text" : "명망", "type" : "", "begin" : 28, "end" : 28},
		{"id" : 15, "text" : "있는", "type" : "", "begin" : 29, "end" : 30},
		{"id" : 16, "text" : "인물을", "type" : "", "begin" : 31, "end" : 32},
		{"id" : 17, "text" : "후보로", "type" : "", "begin" : 33, "end" : 34},
		{"id" : 18, "text" : "영입하는", "type" : "", "begin" : 35, "end" : 37},
		{"id" : 19, "text" : "데", "type" : "", "begin" : 38, "end" : 38},
		{"id" : 20, "text" : "유리함", "type" : "", "begin" : 39, "end" : 41}
	],
	"NE" : [
		{"id" : 0, "text" : "대통령", "type" : "CV_POSITION", "begin" : 0, "end" : 0, "weight" : 0.328862, "common_noun" : 0},
		{"id" : 1, "text" : "후보", "type" : "CV_POSITION", "begin" : 4, "end" : 4, "weight" : 0.427697, "common_noun" : 0},
		{"id" : 2, "text" : "국민", "type" : "CV_POSITION", "begin" : 11, "end" : 11, "weight" : 0.305398, "common_noun" : 0},
		{"id" : 3, "text" : "국민", "type" : "CV_POSITION", "begin" : 23, "end" : 23, "weight" : 0.305398, "common_noun" : 0},
		{"id" : 4, "text" : "후보", "type" : "CV_POSITION", "begin" : 33, "end" : 33, "weight" : 0.305398, "common_noun" : 0}
	],
	"chunk" : [
	],
	"dependency" : [
		{"id" : 0, "text" : "대통령", "head" : 1, "label" : "NP", "mod" : [], "weight" : 0.83678 },
		{"id" : 1, "text" : "등의", "head" : 3, "label" : "NP_MOD", "mod" : [0], "weight" : 0.689265 },
		{"id" : 2, "text" : "공직", "head" : 3, "label" : "NP", "mod" : [], "weight" : 0.820275 },
		{"id" : 3, "text" : "후보를", "head" : 4, "label" : "NP_OBJ", "mod" : [1, 2], "weight" : 0.734577 },
		{"id" : 4, "text" : "선발할", "head" : 5, "label" : "VP_MOD", "mod" : [3], "weight" : 0.739539 },
		{"id" : 5, "text" : "때", "head" : 8, "label" : "NP_AJT", "mod" : [4], "weight" : 0.529262 },
		{"id" : 6, "text" : "일반국민이", "head" : 8, "label" : "NP_SBJ", "mod" : [], "weight" : 0.667271 },
		{"id" : 7, "text" : "직접", "head" : 8, "label" : "AP", "mod" : [], "weight" : 0.816126 },
		{"id" : 8, "text" : "참여하여", "head" : 9, "label" : "VP", "mod" : [5, 6, 7], "weight" : 0.722906 },
		{"id" : 9, "text" : "선출하는", "head" : 10, "label" : "VP_MOD", "mod" : [8], "weight" : 0.896705 },
		{"id" : 10, "text" : "방식으로,", "head" : 20, "label" : "NP_AJT", "mod" : [9], "weight" : 0.8364 },
		{"id" : 11, "text" : "국민에게", "head" : 13, "label" : "NP_AJT", "mod" : [], "weight" : 0.644674 },
		{"id" : 12, "text" : "인기", "head" : 13, "label" : "NP_SBJ", "mod" : [], "weight" : 0.794584 },
		{"id" : 13, "text" : "있고", "head" : 15, "label" : "VP", "mod" : [11, 12], "weight" : 0.592559 },
		{"id" : 14, "text" : "명망", "head" : 15, "label" : "NP_SBJ", "mod" : [], "weight" : 0.937717 },
		{"id" : 15, "text" : "있는", "head" : 16, "label" : "VP_MOD", "mod" : [13, 14], "weight" : 0.740206 },
		{"id" : 16, "text" : "인물을", "head" : 18, "label" : "NP_OBJ", "mod" : [15], "weight" : 0.706583 },
		{"id" : 17, "text" : "후보로", "head" : 18, "label" : "NP_AJT", "mod" : [], "weight" : 0.725453 },
		{"id" : 18, "text" : "영입하는", "head" : 19, "label" : "VP_MOD", "mod" : [16, 17], "weight" : 0.761365 },
		{"id" : 19, "text" : "데", "head" : 20, "label" : "NP_AJT", "mod" : [18], "weight" : 0.54658 },
		{"id" : 20, "text" : "유리함", "head" : -1, "label" : "VP", "mod" : [10, 19], "weight" : 0.100972 }
	],
	"SRL" : [
		{"verb" : "선발", "sense" : 1, "word_id" : 4, "weight" : 0.249686,
			"argument" : [
				{"type" : "ARG1", "word_id" : 3, "text" : "후보를", "weight" : 0.249686 }
			] },
		{"verb" : "참여", "sense" : 1, "word_id" : 8, "weight" : 0.151115,
			"argument" : [
				{"type" : "ARGM-TMP", "word_id" : 5, "text" : "때", "weight" : 0.124705 },
				{"type" : "ARG0", "word_id" : 6, "text" : "일반국민이", "weight" : 0.228617 },
				{"type" : "ARGM-MNR", "word_id" : 7, "text" : "직접", "weight" : 0.100022 }
			] },
		{"verb" : "선출", "sense" : 1, "word_id" : 9, "weight" : 0.873828,
			"argument" : [
				{"type" : "ARGM-MNR", "word_id" : 8, "text" : "참여하여", "weight" : 0.893475 },
				{"type" : "ARG1", "word_id" : 10, "text" : "방식으로,", "weight" : 0.854182 },
				{"type" : "ARG0", "word_id" : 6, "text" : "일반국민이", "weight" : 0 }
			] },
		{"verb" : "있", "sense" : 1, "word_id" : 13, "weight" : 0.151984,
			"argument" : [
				{"type" : "ARG2", "word_id" : 11, "text" : "국민에게", "weight" : 0.168314 },
				{"type" : "ARG1", "word_id" : 12, "text" : "인기", "weight" : 0.135653 }
			] },
		{"verb" : "있", "sense" : 1, "word_id" : 15, "weight" : 0.12653,
			"argument" : [
				{"type" : "ARG1", "word_id" : 14, "text" : "명망", "weight" : 0.14179 }
			] },
		{"verb" : "영입", "sense" : 1, "word_id" : 18, "weight" : 0.139226,
			"argument" : [
				{"type" : "ARG1", "word_id" : 16, "text" : "인물을", "weight" : 0.219673 },
				{"type" : "ARG2", "word_id" : 17, "text" : "후보로", "weight" : 0.587793 }
			] },
		{"verb" : "유리", "sense" : 1, "word_id" : 20, "weight" : 0.130503,
			"argument" : [
				{"type" : "ARG2", "word_id" : 19, "text" : "데", "weight" : 0.130503 }
			] }
	],
	"relation" : [
	],
	"SA" : [
	],
	"ZA" : [
	]
	}
 ],
 "entity" : [
 ]
}

