{"doc_id" : "E2015.943.035_A_04",
 "DCT" : "",
 "category" : "",
 "category_weight" : 0,
 "title" : {"text" : "", "NE" : ""},
 "metaInfo" : { },
 "sentence" : [
	{
	"id" : 0,
	"reserve_str" : "",
	"text" : "우리나라에서는 황해도 봉산군 문정면 지탑리(智塔里), 평안남도 용강군 해운면 궁산리(弓山里), 강원도 양양군 손양면 오산리(鰲山里), 한강 중류의 여주시 점동면 흔암리(欣巖里) 유적에서 출토되었다.",
	"morp" : [
		{"id" : 0, "lemma" : "우리나라", "type" : "NNG", "position" : 0, "weight" : 0.0260053 },
		{"id" : 1, "lemma" : "에서", "type" : "JKB", "position" : 12, "weight" : 0.0377699 },
		{"id" : 2, "lemma" : "는", "type" : "JX", "position" : 18, "weight" : 0.0425652 },
		{"id" : 3, "lemma" : "황해도", "type" : "NNP", "position" : 22, "weight" : 0.020504 },
		{"id" : 4, "lemma" : "봉산", "type" : "NNP", "position" : 32, "weight" : 0.0222627 },
		{"id" : 5, "lemma" : "군", "type" : "NNG", "position" : 38, "weight" : 0.0169865 },
		{"id" : 6, "lemma" : "문정", "type" : "NNP", "position" : 42, "weight" : 0.020504 },
		{"id" : 7, "lemma" : "면", "type" : "NNG", "position" : 42, "weight" : 0.020504 },
		{"id" : 8, "lemma" : "지탑", "type" : "NNP", "position" : 52, "weight" : 0.020504 },
		{"id" : 9, "lemma" : "리", "type" : "NNG", "position" : 52, "weight" : 0.020504 },
		{"id" : 10, "lemma" : "(", "type" : "SS", "position" : 61, "weight" : 0.0425091 },
		{"id" : 11, "lemma" : "智塔里", "type" : "SH", "position" : 62, "weight" : 0.0393684 },
		{"id" : 12, "lemma" : ")", "type" : "SS", "position" : 71, "weight" : 0.0373729 },
		{"id" : 13, "lemma" : ",", "type" : "SP", "position" : 72, "weight" : 0.0118397 },
		{"id" : 14, "lemma" : "평안남도", "type" : "NNP", "position" : 74, "weight" : 0.0222627 },
		{"id" : 15, "lemma" : "용강", "type" : "NNP", "position" : 87, "weight" : 0.0222627 },
		{"id" : 16, "lemma" : "군", "type" : "NNG", "position" : 93, "weight" : 0.0169865 },
		{"id" : 17, "lemma" : "해운", "type" : "NNP", "position" : 97, "weight" : 0.0175223 },
		{"id" : 18, "lemma" : "면", "type" : "NNG", "position" : 103, "weight" : 0.0169865 },
		{"id" : 19, "lemma" : "궁산", "type" : "NNP", "position" : 107, "weight" : 0.0222627 },
		{"id" : 20, "lemma" : "리", "type" : "NNG", "position" : 113, "weight" : 0.0169865 },
		{"id" : 21, "lemma" : "(", "type" : "SS", "position" : 116, "weight" : 0.0425091 },
		{"id" : 22, "lemma" : "弓山里", "type" : "SH", "position" : 117, "weight" : 0.0393684 },
		{"id" : 23, "lemma" : ")", "type" : "SS", "position" : 126, "weight" : 0.0373729 },
		{"id" : 24, "lemma" : ",", "type" : "SP", "position" : 127, "weight" : 0.0118397 },
		{"id" : 25, "lemma" : "강원도", "type" : "NNP", "position" : 129, "weight" : 0.020504 },
		{"id" : 26, "lemma" : "양양", "type" : "NNP", "position" : 139, "weight" : 0.0222627 },
		{"id" : 27, "lemma" : "군", "type" : "NNG", "position" : 145, "weight" : 0.0169865 },
		{"id" : 28, "lemma" : "손양", "type" : "NNP", "position" : 149, "weight" : 0.020504 },
		{"id" : 29, "lemma" : "면", "type" : "NNG", "position" : 149, "weight" : 0.020504 },
		{"id" : 30, "lemma" : "오산", "type" : "NNP", "position" : 159, "weight" : 0.0222627 },
		{"id" : 31, "lemma" : "리", "type" : "NNG", "position" : 165, "weight" : 0.0169865 },
		{"id" : 32, "lemma" : "(", "type" : "SS", "position" : 168, "weight" : 0.0425091 },
		{"id" : 33, "lemma" : "鰲山里", "type" : "SH", "position" : 169, "weight" : 0.0393684 },
		{"id" : 34, "lemma" : ")", "type" : "SS", "position" : 178, "weight" : 0.0373729 },
		{"id" : 35, "lemma" : ",", "type" : "SP", "position" : 179, "weight" : 0.0118397 },
		{"id" : 36, "lemma" : "한강", "type" : "NNP", "position" : 181, "weight" : 0.0222627 },
		{"id" : 37, "lemma" : "중류", "type" : "NNG", "position" : 188, "weight" : 0.0222627 },
		{"id" : 38, "lemma" : "의", "type" : "JKG", "position" : 194, "weight" : 0.0169865 },
		{"id" : 39, "lemma" : "여주", "type" : "NNP", "position" : 198, "weight" : 0.020504 },
		{"id" : 40, "lemma" : "시", "type" : "NNG", "position" : 198, "weight" : 0.020504 },
		{"id" : 41, "lemma" : "점동", "type" : "NNP", "position" : 208, "weight" : 0.020504 },
		{"id" : 42, "lemma" : "면", "type" : "NNG", "position" : 208, "weight" : 0.020504 },
		{"id" : 43, "lemma" : "흔암", "type" : "NNP", "position" : 218, "weight" : 0.0222627 },
		{"id" : 44, "lemma" : "리", "type" : "NNG", "position" : 224, "weight" : 0.0169865 },
		{"id" : 45, "lemma" : "(", "type" : "SS", "position" : 227, "weight" : 0.0425091 },
		{"id" : 46, "lemma" : "欣巖里", "type" : "SH", "position" : 228, "weight" : 0.0393684 },
		{"id" : 47, "lemma" : ")", "type" : "SS", "position" : 237, "weight" : 0.0373729 },
		{"id" : 48, "lemma" : "유적", "type" : "NNG", "position" : 239, "weight" : 0.0222627 },
		{"id" : 49, "lemma" : "에서", "type" : "JKB", "position" : 245, "weight" : 0.0297478 },
		{"id" : 50, "lemma" : "출토", "type" : "NNG", "position" : 252, "weight" : 0.0222627 },
		{"id" : 51, "lemma" : "되", "type" : "XSV", "position" : 258, "weight" : 0.0169865 },
		{"id" : 52, "lemma" : "었", "type" : "EP", "position" : 261, "weight" : 0.0425091 },
		{"id" : 53, "lemma" : "다", "type" : "EF", "position" : 264, "weight" : 0.0467411 },
		{"id" : 54, "lemma" : ".", "type" : "SF", "position" : 267, "weight" : 0.0287988 }
	],
	"morp_eval" : [
	],
	"WSD" : [
	],
	"word" : [
		{"id" : 0, "text" : "우리나라에서는", "type" : "", "begin" : 0, "end" : 2},
		{"id" : 1, "text" : "황해도", "type" : "", "begin" : 3, "end" : 3},
		{"id" : 2, "text" : "봉산군", "type" : "", "begin" : 4, "end" : 5},
		{"id" : 3, "text" : "문정면", "type" : "", "begin" : 6, "end" : 7},
		{"id" : 4, "text" : "지탑리(智塔里),", "type" : "", "begin" : 8, "end" : 13},
		{"id" : 5, "text" : "평안남도", "type" : "", "begin" : 14, "end" : 14},
		{"id" : 6, "text" : "용강군", "type" : "", "begin" : 15, "end" : 16},
		{"id" : 7, "text" : "해운면", "type" : "", "begin" : 17, "end" : 18},
		{"id" : 8, "text" : "궁산리(弓山里),", "type" : "", "begin" : 19, "end" : 24},
		{"id" : 9, "text" : "강원도", "type" : "", "begin" : 25, "end" : 25},
		{"id" : 10, "text" : "양양군", "type" : "", "begin" : 26, "end" : 27},
		{"id" : 11, "text" : "손양면", "type" : "", "begin" : 28, "end" : 29},
		{"id" : 12, "text" : "오산리(鰲山里),", "type" : "", "begin" : 30, "end" : 35},
		{"id" : 13, "text" : "한강", "type" : "", "begin" : 36, "end" : 36},
		{"id" : 14, "text" : "중류의", "type" : "", "begin" : 37, "end" : 38},
		{"id" : 15, "text" : "여주시", "type" : "", "begin" : 39, "end" : 40},
		{"id" : 16, "text" : "점동면", "type" : "", "begin" : 41, "end" : 42},
		{"id" : 17, "text" : "흔암리(欣巖里)", "type" : "", "begin" : 43, "end" : 47},
		{"id" : 18, "text" : "유적에서", "type" : "", "begin" : 48, "end" : 49},
		{"id" : 19, "text" : "출토되었다.", "type" : "", "begin" : 50, "end" : 54}
	],
	"NE" : [
		{"id" : 0, "text" : "황해도", "type" : "LCP_PROVINCE", "begin" : 3, "end" : 3, "weight" : 0.532277, "common_noun" : 0},
		{"id" : 1, "text" : "봉산군", "type" : "LCP_COUNTY", "begin" : 4, "end" : 5, "weight" : 0.386743, "common_noun" : 0},
		{"id" : 2, "text" : "문정면", "type" : "LCP_COUNTY", "begin" : 6, "end" : 7, "weight" : 0.259527, "common_noun" : 0},
		{"id" : 3, "text" : "지탑리", "type" : "LCP_COUNTY", "begin" : 8, "end" : 9, "weight" : 0.0969095, "common_noun" : 0},
		{"id" : 4, "text" : "智塔里", "type" : "LCP_COUNTY", "begin" : 11, "end" : 11, "weight" : 0.0969095, "common_noun" : 0},
		{"id" : 5, "text" : "평안남도", "type" : "LCP_PROVINCE", "begin" : 14, "end" : 14, "weight" : 0.573679, "common_noun" : 0},
		{"id" : 6, "text" : "용강군", "type" : "LCP_COUNTY", "begin" : 15, "end" : 16, "weight" : 0.553621, "common_noun" : 0},
		{"id" : 7, "text" : "해운면", "type" : "LCP_COUNTY", "begin" : 17, "end" : 18, "weight" : 0.608924, "common_noun" : 0},
		{"id" : 8, "text" : "궁산리", "type" : "LCP_COUNTY", "begin" : 19, "end" : 20, "weight" : 0.312663, "common_noun" : 0},
		{"id" : 9, "text" : "弓山里", "type" : "LCP_COUNTY", "begin" : 22, "end" : 22, "weight" : 0.312663, "common_noun" : 0},
		{"id" : 10, "text" : "강원도", "type" : "LCP_PROVINCE", "begin" : 25, "end" : 25, "weight" : 0.669901, "common_noun" : 0},
		{"id" : 11, "text" : "양양군", "type" : "LCP_COUNTY", "begin" : 26, "end" : 27, "weight" : 0.606729, "common_noun" : 0},
		{"id" : 12, "text" : "손양면", "type" : "LCP_COUNTY", "begin" : 28, "end" : 29, "weight" : 0.41664, "common_noun" : 0},
		{"id" : 13, "text" : "오산리", "type" : "LCP_COUNTY", "begin" : 30, "end" : 31, "weight" : 0.337665, "common_noun" : 0},
		{"id" : 14, "text" : "鰲山里", "type" : "LCP_COUNTY", "begin" : 33, "end" : 33, "weight" : 0.108852, "common_noun" : 0},
		{"id" : 15, "text" : "한강", "type" : "LCG_RIVER", "begin" : 36, "end" : 36, "weight" : 0.296777, "common_noun" : 0},
		{"id" : 16, "text" : "여주시", "type" : "LCP_CITY", "begin" : 39, "end" : 40, "weight" : 0.152676, "common_noun" : 0},
		{"id" : 17, "text" : "점동면", "type" : "LCP_COUNTY", "begin" : 41, "end" : 42, "weight" : 0.417992, "common_noun" : 0},
		{"id" : 18, "text" : "흔암리", "type" : "LCP_COUNTY", "begin" : 43, "end" : 44, "weight" : 0.317564, "common_noun" : 0},
		{"id" : 19, "text" : "欣巖里", "type" : "LCP_COUNTY", "begin" : 46, "end" : 46, "weight" : 0.133965, "common_noun" : 0}
	],
	"chunk" : [
	],
	"dependency" : [
		{"id" : 0, "text" : "우리나라에서는", "head" : 19, "label" : "NP_AJT", "mod" : [], "weight" : 0.814282 },
		{"id" : 1, "text" : "황해도", "head" : 2, "label" : "NP", "mod" : [], "weight" : 0.771452 },
		{"id" : 2, "text" : "봉산군", "head" : 3, "label" : "NP", "mod" : [1], "weight" : 0.622687 },
		{"id" : 3, "text" : "문정면", "head" : 4, "label" : "NP", "mod" : [2], "weight" : 0.658174 },
		{"id" : 4, "text" : "지탑리(智塔里),", "head" : 17, "label" : "NP_CNJ", "mod" : [3], "weight" : 0.337806 },
		{"id" : 5, "text" : "평안남도", "head" : 6, "label" : "NP", "mod" : [], "weight" : 0.848363 },
		{"id" : 6, "text" : "용강군", "head" : 7, "label" : "NP", "mod" : [5], "weight" : 0.956916 },
		{"id" : 7, "text" : "해운면", "head" : 8, "label" : "NP", "mod" : [6], "weight" : 0.803513 },
		{"id" : 8, "text" : "궁산리(弓山里),", "head" : 17, "label" : "NP_CNJ", "mod" : [7], "weight" : 0.671943 },
		{"id" : 9, "text" : "강원도", "head" : 10, "label" : "NP", "mod" : [], "weight" : 0.698069 },
		{"id" : 10, "text" : "양양군", "head" : 11, "label" : "NP", "mod" : [9], "weight" : 0.675039 },
		{"id" : 11, "text" : "손양면", "head" : 12, "label" : "NP", "mod" : [10], "weight" : 0.629264 },
		{"id" : 12, "text" : "오산리(鰲山里),", "head" : 17, "label" : "NP_CNJ", "mod" : [11], "weight" : 0.29148 },
		{"id" : 13, "text" : "한강", "head" : 14, "label" : "NP", "mod" : [], "weight" : 0.765224 },
		{"id" : 14, "text" : "중류의", "head" : 15, "label" : "NP_MOD", "mod" : [13], "weight" : 0.73803 },
		{"id" : 15, "text" : "여주시", "head" : 16, "label" : "NP", "mod" : [14], "weight" : 0.748759 },
		{"id" : 16, "text" : "점동면", "head" : 17, "label" : "NP", "mod" : [15], "weight" : 0.667478 },
		{"id" : 17, "text" : "흔암리(欣巖里)", "head" : 18, "label" : "NP", "mod" : [4, 8, 12, 16], "weight" : 0.87217 },
		{"id" : 18, "text" : "유적에서", "head" : 19, "label" : "NP_AJT", "mod" : [17], "weight" : 0.511952 },
		{"id" : 19, "text" : "출토되었다.", "head" : -1, "label" : "VP", "mod" : [0, 18], "weight" : 0.278002 }
	],
	"SRL" : [
		{"verb" : "출토", "sense" : 1, "word_id" : 19, "weight" : 0.994975,
			"argument" : [
				{"type" : "ARGM-LOC", "word_id" : 0, "text" : "우리나라에서는", "weight" : 0.837766 },
				{"type" : "ARG2", "word_id" : 18, "text" : "유적에서", "weight" : 0.115218 }
			] }
	],
	"relation" : [
	],
	"SA" : [
	],
	"ZA" : [
	]
	}
 ],
 "entity" : [
 ]
}

