{"doc_id" : "E2014.123_A_01",
 "DCT" : "",
 "category" : "",
 "category_weight" : 0,
 "title" : {"text" : "", "NE" : ""},
 "metaInfo" : { },
 "sentence" : [
	{
	"id" : 0,
	"reserve_str" : "",
	"text" : "가락 단음계는 자연 단음계의 제6음과 제7음을 올라갈 때에는 반음씩 올리고, 내려갈 때에는 자연단음계의 형태를 갖는 것이다. ",
	"morp" : [
		{"id" : 0, "lemma" : "가락", "type" : "NNG", "position" : 0, "weight" : 0.0184176 },
		{"id" : 1, "lemma" : "단음계", "type" : "NNG", "position" : 10, "weight" : 0.509007 },
		{"id" : 2, "lemma" : "는", "type" : "JX", "position" : 16, "weight" : 1 },
		{"id" : 3, "lemma" : "자연", "type" : "NNG", "position" : 20, "weight" : 0.0184176 },
		{"id" : 4, "lemma" : "단음계", "type" : "NNG", "position" : 30, "weight" : 0.509007 },
		{"id" : 5, "lemma" : "의", "type" : "JKG", "position" : 36, "weight" : 1 },
		{"id" : 6, "lemma" : "제", "type" : "XPN", "position" : 40, "weight" : 0.0188215 },
		{"id" : 7, "lemma" : "6", "type" : "SN", "position" : 43, "weight" : 0.0180136 },
		{"id" : 8, "lemma" : "음", "type" : "NNG", "position" : 44, "weight" : 1 },
		{"id" : 9, "lemma" : "과", "type" : "JC", "position" : 47, "weight" : 1 },
		{"id" : 10, "lemma" : "제", "type" : "XPN", "position" : 51, "weight" : 0.0188215 },
		{"id" : 11, "lemma" : "7", "type" : "SN", "position" : 54, "weight" : 0.0180136 },
		{"id" : 12, "lemma" : "음", "type" : "NNG", "position" : 55, "weight" : 1 },
		{"id" : 13, "lemma" : "을", "type" : "JKO", "position" : 58, "weight" : 1 },
		{"id" : 14, "lemma" : "올라가", "type" : "VV", "position" : 62, "weight" : 0.345612 },
		{"id" : 15, "lemma" : "ㄹ", "type" : "ETM", "position" : 68, "weight" : 1 },
		{"id" : 16, "lemma" : "때", "type" : "NNG", "position" : 72, "weight" : 0.0188215 },
		{"id" : 17, "lemma" : "에", "type" : "JKB", "position" : 75, "weight" : 0.0180136 },
		{"id" : 18, "lemma" : "는", "type" : "JX", "position" : 78, "weight" : 1 },
		{"id" : 19, "lemma" : "반음", "type" : "NNG", "position" : 82, "weight" : 0.0184176 },
		{"id" : 20, "lemma" : "씩", "type" : "XSN", "position" : 88, "weight" : 1 },
		{"id" : 21, "lemma" : "올리", "type" : "VV", "position" : 92, "weight" : 0.0184176 },
		{"id" : 22, "lemma" : "고", "type" : "EC", "position" : 98, "weight" : 1 },
		{"id" : 23, "lemma" : ",", "type" : "SP", "position" : 101, "weight" : 1 },
		{"id" : 24, "lemma" : "내려가", "type" : "VV", "position" : 103, "weight" : 0.345612 },
		{"id" : 25, "lemma" : "ㄹ", "type" : "ETM", "position" : 109, "weight" : 1 },
		{"id" : 26, "lemma" : "때", "type" : "NNG", "position" : 113, "weight" : 0.0188215 },
		{"id" : 27, "lemma" : "에", "type" : "JKB", "position" : 116, "weight" : 0.0180136 },
		{"id" : 28, "lemma" : "는", "type" : "JX", "position" : 119, "weight" : 1 },
		{"id" : 29, "lemma" : "자연", "type" : "NNG", "position" : 123, "weight" : 0.509209 },
		{"id" : 30, "lemma" : "단음계", "type" : "NNG", "position" : 135, "weight" : 1 },
		{"id" : 31, "lemma" : "의", "type" : "JKG", "position" : 138, "weight" : 0.0483153 },
		{"id" : 32, "lemma" : "형태", "type" : "NNG", "position" : 142, "weight" : 0.0184176 },
		{"id" : 33, "lemma" : "를", "type" : "JKO", "position" : 148, "weight" : 1 },
		{"id" : 34, "lemma" : "갖", "type" : "VV", "position" : 152, "weight" : 0.0188215 },
		{"id" : 35, "lemma" : "는", "type" : "ETM", "position" : 155, "weight" : 0.0180136 },
		{"id" : 36, "lemma" : "것", "type" : "NNB", "position" : 159, "weight" : 0.0188215 },
		{"id" : 37, "lemma" : "이", "type" : "VCP", "position" : 162, "weight" : 0.0180136 },
		{"id" : 38, "lemma" : "다", "type" : "EF", "position" : 165, "weight" : 1 },
		{"id" : 39, "lemma" : ".", "type" : "SF", "position" : 168, "weight" : 1 }
	],
	"morp_eval" : [
	],
	"WSD" : [
	],
	"word" : [
		{"id" : 0, "text" : "가락", "type" : "", "begin" : 0, "end" : 0},
		{"id" : 1, "text" : "단음계는", "type" : "", "begin" : 1, "end" : 2},
		{"id" : 2, "text" : "자연", "type" : "", "begin" : 3, "end" : 3},
		{"id" : 3, "text" : "단음계의", "type" : "", "begin" : 4, "end" : 5},
		{"id" : 4, "text" : "제6음과", "type" : "", "begin" : 6, "end" : 9},
		{"id" : 5, "text" : "제7음을", "type" : "", "begin" : 10, "end" : 13},
		{"id" : 6, "text" : "올라갈", "type" : "", "begin" : 14, "end" : 15},
		{"id" : 7, "text" : "때에는", "type" : "", "begin" : 16, "end" : 18},
		{"id" : 8, "text" : "반음씩", "type" : "", "begin" : 19, "end" : 20},
		{"id" : 9, "text" : "올리고,", "type" : "", "begin" : 21, "end" : 23},
		{"id" : 10, "text" : "내려갈", "type" : "", "begin" : 24, "end" : 25},
		{"id" : 11, "text" : "때에는", "type" : "", "begin" : 26, "end" : 28},
		{"id" : 12, "text" : "자연단음계의", "type" : "", "begin" : 29, "end" : 31},
		{"id" : 13, "text" : "형태를", "type" : "", "begin" : 32, "end" : 33},
		{"id" : 14, "text" : "갖는", "type" : "", "begin" : 34, "end" : 35},
		{"id" : 15, "text" : "것이다.", "type" : "", "begin" : 36, "end" : 39}
	],
	"NE" : [
		{"id" : 0, "text" : "제6음", "type" : "QT_ORDER", "begin" : 6, "end" : 8, "weight" : 0.373342, "common_noun" : 0},
		{"id" : 1, "text" : "제7음", "type" : "QT_ORDER", "begin" : 10, "end" : 12, "weight" : 0.333986, "common_noun" : 0}
	],
	"chunk" : [
	],
	"dependency" : [
		{"id" : 0, "text" : "가락", "head" : 1, "label" : "NP", "mod" : [], "weight" : 0.719383 },
		{"id" : 1, "text" : "단음계는", "head" : 14, "label" : "NP_SBJ", "mod" : [0], "weight" : 0.525848 },
		{"id" : 2, "text" : "자연", "head" : 3, "label" : "NP", "mod" : [], "weight" : 0.664164 },
		{"id" : 3, "text" : "단음계의", "head" : 5, "label" : "NP_MOD", "mod" : [2], "weight" : 0.676684 },
		{"id" : 4, "text" : "제6음과", "head" : 5, "label" : "NP_CNJ", "mod" : [], "weight" : 0.667686 },
		{"id" : 5, "text" : "제7음을", "head" : 9, "label" : "NP_OBJ", "mod" : [3, 4], "weight" : 0.595912 },
		{"id" : 6, "text" : "올라갈", "head" : 7, "label" : "VP_MOD", "mod" : [], "weight" : 0.739873 },
		{"id" : 7, "text" : "때에는", "head" : 9, "label" : "NP_AJT", "mod" : [6], "weight" : 0.707024 },
		{"id" : 8, "text" : "반음씩", "head" : 9, "label" : "NP_OBJ", "mod" : [], "weight" : 0.750506 },
		{"id" : 9, "text" : "올리고,", "head" : 14, "label" : "VP", "mod" : [5, 7, 8], "weight" : 0.660705 },
		{"id" : 10, "text" : "내려갈", "head" : 11, "label" : "VP_MOD", "mod" : [], "weight" : 0.886107 },
		{"id" : 11, "text" : "때에는", "head" : 14, "label" : "NP_AJT", "mod" : [10], "weight" : 0.941294 },
		{"id" : 12, "text" : "자연단음계의", "head" : 13, "label" : "NP_MOD", "mod" : [], "weight" : 0.986688 },
		{"id" : 13, "text" : "형태를", "head" : 14, "label" : "NP_OBJ", "mod" : [12], "weight" : 0.583797 },
		{"id" : 14, "text" : "갖는", "head" : 15, "label" : "VP_MOD", "mod" : [1, 9, 11, 13], "weight" : 0.599088 },
		{"id" : 15, "text" : "것이다.", "head" : -1, "label" : "VNP", "mod" : [14], "weight" : 0.398673 }
	],
	"SRL" : [
		{"verb" : "올리", "sense" : 1, "word_id" : 9, "weight" : 0.975003,
			"argument" : [
				{"type" : "ARG2", "word_id" : 1, "text" : "단음계는", "weight" : 0.937423 },
				{"type" : "ARGM-TMP", "word_id" : 7, "text" : "때에는", "weight" : 0.109336 },
				{"type" : "ARGM-EXT", "word_id" : 8, "text" : "반음씩", "weight" : 0.894226 },
				{"type" : "ARG1", "word_id" : 5, "text" : "제7음을", "weight" : 0 }
			] },
		{"verb" : "갖", "sense" : 1, "word_id" : 14, "weight" : 0.144061,
			"argument" : [
				{"type" : "ARGM-TMP", "word_id" : 11, "text" : "때에는", "weight" : 0.925745 },
				{"type" : "ARG1", "word_id" : 13, "text" : "형태를", "weight" : 0.195547 },
				{"type" : "ARG0", "word_id" : 1, "text" : "단음계는", "weight" : 0 }
			] }
	],
	"relation" : [
	],
	"SA" : [
	],
	"ZA" : [
	]
	}
 ],
 "entity" : [
 ]
}

