{"doc_id" : "E2015.947.010_Q_01",
 "DCT" : "",
 "category" : "",
 "category_weight" : 0,
 "title" : {"text" : "", "NE" : ""},
 "metaInfo" : { },
 "sentence" : [
	{
	"id" : 0,
	"reserve_str" : "",
	"text" : "전자기 센서를 이용한 보안 검색대 장치는 자기장의 변화를 감지해 금속이 있는지 알아낸다.",
	"morp" : [
		{"id" : 0, "lemma" : "전자기", "type" : "NNG", "position" : 0, "weight" : 0.0151987 },
		{"id" : 1, "lemma" : "센서", "type" : "NNG", "position" : 10, "weight" : 0.0190807 },
		{"id" : 2, "lemma" : "를", "type" : "JKO", "position" : 16, "weight" : 0.00743479 },
		{"id" : 3, "lemma" : "이용", "type" : "NNG", "position" : 20, "weight" : 0.0190807 },
		{"id" : 4, "lemma" : "하", "type" : "XSV", "position" : 26, "weight" : 0.00743479 },
		{"id" : 5, "lemma" : "ㄴ", "type" : "ETM", "position" : 26, "weight" : 0.0274055 },
		{"id" : 6, "lemma" : "보안", "type" : "NNG", "position" : 30, "weight" : 0.0190807 },
		{"id" : 7, "lemma" : "검색", "type" : "NNG", "position" : 37, "weight" : 0.0190807 },
		{"id" : 8, "lemma" : "대", "type" : "NNG", "position" : 43, "weight" : 0.00743479 },
		{"id" : 9, "lemma" : "장치", "type" : "NNG", "position" : 47, "weight" : 0.0190807 },
		{"id" : 10, "lemma" : "는", "type" : "JX", "position" : 53, "weight" : 0.00743479 },
		{"id" : 11, "lemma" : "자기", "type" : "NNG", "position" : 57, "weight" : 0.0190807 },
		{"id" : 12, "lemma" : "장", "type" : "NNG", "position" : 63, "weight" : 0.00743479 },
		{"id" : 13, "lemma" : "의", "type" : "JKG", "position" : 66, "weight" : 0.0274055 },
		{"id" : 14, "lemma" : "변화", "type" : "NNG", "position" : 70, "weight" : 0.0190807 },
		{"id" : 15, "lemma" : "를", "type" : "JKO", "position" : 76, "weight" : 0.00743479 },
		{"id" : 16, "lemma" : "감지", "type" : "NNG", "position" : 80, "weight" : 0.0190807 },
		{"id" : 17, "lemma" : "하", "type" : "XSV", "position" : 86, "weight" : 0.00743479 },
		{"id" : 18, "lemma" : "아", "type" : "EC", "position" : 86, "weight" : 0.0274055 },
		{"id" : 19, "lemma" : "금속", "type" : "NNG", "position" : 90, "weight" : 0.0190807 },
		{"id" : 20, "lemma" : "이", "type" : "JKS", "position" : 96, "weight" : 0.00743479 },
		{"id" : 21, "lemma" : "있", "type" : "VA", "position" : 100, "weight" : 0.0243446 },
		{"id" : 22, "lemma" : "는지", "type" : "EC", "position" : 103, "weight" : 0.0106258 },
		{"id" : 23, "lemma" : "알아내", "type" : "VV", "position" : 110, "weight" : 0.0151987 },
		{"id" : 24, "lemma" : "ㄴ다", "type" : "EF", "position" : 116, "weight" : 0.0281016 },
		{"id" : 25, "lemma" : ".", "type" : "SF", "position" : 122, "weight" : 0.0472778 }
	],
	"morp_eval" : [
	],
	"WSD" : [
	],
	"word" : [
		{"id" : 0, "text" : "전자기", "type" : "", "begin" : 0, "end" : 0},
		{"id" : 1, "text" : "센서를", "type" : "", "begin" : 1, "end" : 2},
		{"id" : 2, "text" : "이용한", "type" : "", "begin" : 3, "end" : 5},
		{"id" : 3, "text" : "보안", "type" : "", "begin" : 6, "end" : 6},
		{"id" : 4, "text" : "검색대", "type" : "", "begin" : 7, "end" : 8},
		{"id" : 5, "text" : "장치는", "type" : "", "begin" : 9, "end" : 10},
		{"id" : 6, "text" : "자기장의", "type" : "", "begin" : 11, "end" : 13},
		{"id" : 7, "text" : "변화를", "type" : "", "begin" : 14, "end" : 15},
		{"id" : 8, "text" : "감지해", "type" : "", "begin" : 16, "end" : 18},
		{"id" : 9, "text" : "금속이", "type" : "", "begin" : 19, "end" : 20},
		{"id" : 10, "text" : "있는지", "type" : "", "begin" : 21, "end" : 22},
		{"id" : 11, "text" : "알아낸다.", "type" : "", "begin" : 23, "end" : 25}
	],
	"NE" : [
	],
	"chunk" : [
	],
	"dependency" : [
		{"id" : 0, "text" : "전자기", "head" : 1, "label" : "NP", "mod" : [], "weight" : 0.688846 },
		{"id" : 1, "text" : "센서를", "head" : 2, "label" : "NP_OBJ", "mod" : [0], "weight" : 0.785542 },
		{"id" : 2, "text" : "이용한", "head" : 5, "label" : "VP_MOD", "mod" : [1], "weight" : 0.729659 },
		{"id" : 3, "text" : "보안", "head" : 4, "label" : "NP", "mod" : [], "weight" : 0.591137 },
		{"id" : 4, "text" : "검색대", "head" : 5, "label" : "NP", "mod" : [3], "weight" : 0.878371 },
		{"id" : 5, "text" : "장치는", "head" : 8, "label" : "NP_SBJ", "mod" : [2, 4], "weight" : 0.986146 },
		{"id" : 6, "text" : "자기장의", "head" : 7, "label" : "NP_MOD", "mod" : [], "weight" : 0.966036 },
		{"id" : 7, "text" : "변화를", "head" : 8, "label" : "NP_OBJ", "mod" : [6], "weight" : 0.880919 },
		{"id" : 8, "text" : "감지해", "head" : 11, "label" : "VP", "mod" : [5, 7], "weight" : 0.975892 },
		{"id" : 9, "text" : "금속이", "head" : 10, "label" : "NP_SBJ", "mod" : [], "weight" : 0.669023 },
		{"id" : 10, "text" : "있는지", "head" : 11, "label" : "VP_OBJ", "mod" : [9], "weight" : 0.451592 },
		{"id" : 11, "text" : "알아낸다.", "head" : -1, "label" : "VP", "mod" : [8, 10], "weight" : 0.397624 }
	],
	"SRL" : [
		{"verb" : "이용", "sense" : 1, "word_id" : 2, "weight" : 0.164047,
			"argument" : [
				{"type" : "ARG1", "word_id" : 1, "text" : "센서를", "weight" : 0.175909 },
				{"type" : "ARG0", "word_id" : 5, "text" : "장치는", "weight" : 0.152185 }
			] },
		{"verb" : "감지", "sense" : 1, "word_id" : 8, "weight" : 0.178047,
			"argument" : [
				{"type" : "ARG0", "word_id" : 5, "text" : "장치는", "weight" : 0.110522 },
				{"type" : "ARG1", "word_id" : 7, "text" : "변화를", "weight" : 0.245573 }
			] },
		{"verb" : "있", "sense" : 1, "word_id" : 10, "weight" : 0.208936,
			"argument" : [
				{"type" : "ARG1", "word_id" : 9, "text" : "금속이", "weight" : 0.208936 }
			] },
		{"verb" : "알아내", "sense" : 1, "word_id" : 11, "weight" : 0,
			"argument" : [
				{"type" : "ARG0", "word_id" : 5, "text" : "장치는", "weight" : 0 },
				{"type" : "ARGM-MNR", "word_id" : 8, "text" : "감지해", "weight" : 0 },
				{"type" : "ARG1", "word_id" : 10, "text" : "있는지", "weight" : 0 }
			] }
	],
	"relation" : [
	],
	"SA" : [
	],
	"ZA" : [
	]
	},
	{
	"id" : 1,
	"reserve_str" : "",
	"text" : "이때 이용하는 물리 법칙은 무엇일까?",
	"morp" : [
		{"id" : 0, "lemma" : "이때", "type" : "NNG", "position" : 124, "weight" : 0.0215168 },
		{"id" : 1, "lemma" : "이용", "type" : "NNG", "position" : 131, "weight" : 0.0215168 },
		{"id" : 2, "lemma" : "하", "type" : "XSV", "position" : 137, "weight" : 1 },
		{"id" : 3, "lemma" : "는", "type" : "ETM", "position" : 140, "weight" : 1 },
		{"id" : 4, "lemma" : "물리", "type" : "NNG", "position" : 144, "weight" : 0.0215168 },
		{"id" : 5, "lemma" : "법칙", "type" : "NNG", "position" : 151, "weight" : 0.0215168 },
		{"id" : 6, "lemma" : "은", "type" : "JX", "position" : 157, "weight" : 1 },
		{"id" : 7, "lemma" : "무엇", "type" : "NP", "position" : 161, "weight" : 0.0215168 },
		{"id" : 8, "lemma" : "이", "type" : "VCP", "position" : 167, "weight" : 1 },
		{"id" : 9, "lemma" : "ㄹ까", "type" : "EF", "position" : 167, "weight" : 1 },
		{"id" : 10, "lemma" : "?", "type" : "SF", "position" : 173, "weight" : 0.0522388 }
	],
	"morp_eval" : [
	],
	"WSD" : [
	],
	"word" : [
		{"id" : 0, "text" : "이때", "type" : "", "begin" : 0, "end" : 0},
		{"id" : 1, "text" : "이용하는", "type" : "", "begin" : 1, "end" : 3},
		{"id" : 2, "text" : "물리", "type" : "", "begin" : 4, "end" : 4},
		{"id" : 3, "text" : "법칙은", "type" : "", "begin" : 5, "end" : 6},
		{"id" : 4, "text" : "무엇일까?", "type" : "", "begin" : 7, "end" : 10}
	],
	"NE" : [
		{"id" : 0, "text" : "물리", "type" : "FD_SCIENCE", "begin" : 4, "end" : 4, "weight" : 0.45285, "common_noun" : 0}
	],
	"chunk" : [
	],
	"dependency" : [
		{"id" : 0, "text" : "이때", "head" : 1, "label" : "NP_AJT", "mod" : [], "weight" : 0.689701 },
		{"id" : 1, "text" : "이용하는", "head" : 3, "label" : "VP_MOD", "mod" : [0], "weight" : 0.793823 },
		{"id" : 2, "text" : "물리", "head" : 3, "label" : "NP", "mod" : [], "weight" : 0.745481 },
		{"id" : 3, "text" : "법칙은", "head" : 4, "label" : "NP_SBJ", "mod" : [1, 2], "weight" : 0.678099 },
		{"id" : 4, "text" : "무엇일까?", "head" : -1, "label" : "VNP", "mod" : [3], "weight" : 0.208051 }
	],
	"SRL" : [
		{"verb" : "이용", "sense" : 1, "word_id" : 1, "weight" : 0.128767,
			"argument" : [
				{"type" : "ARGM-TMP", "word_id" : 0, "text" : "이때", "weight" : 0.940346 },
				{"type" : "ARG1", "word_id" : 3, "text" : "법칙은", "weight" : 0.1635 }
			] }
	],
	"relation" : [
	],
	"SA" : [
	],
	"ZA" : [
	]
	}
 ],
 "entity" : [
 ]
}

