{"doc_id" : "E2014.221_Q_01",
 "DCT" : "",
 "category" : "",
 "category_weight" : 0,
 "title" : {"text" : "", "NE" : ""},
 "metaInfo" : { },
 "sentence" : [
	{
	"id" : 0,
	"reserve_str" : "",
	"text" : "1차원 바코드는 가로줄에만 정보를 저장할 수 있기 때문에 정보의 저장용량이 적은데 최근에는 이런 문제를 보완하기 위해 저장용량이 더 큰 2차원 바코드를 많이 이용한다.",
	"morp" : [
		{"id" : 0, "lemma" : "1", "type" : "SN", "position" : 0, "weight" : 1 },
		{"id" : 1, "lemma" : "차원", "type" : "NNG", "position" : 1, "weight" : 0.020181 },
		{"id" : 2, "lemma" : "바코드", "type" : "NNG", "position" : 8, "weight" : 1 },
		{"id" : 3, "lemma" : "는", "type" : "JX", "position" : 17, "weight" : 1 },
		{"id" : 4, "lemma" : "가로줄", "type" : "NNG", "position" : 21, "weight" : 0.508713 },
		{"id" : 5, "lemma" : "에", "type" : "JKB", "position" : 30, "weight" : 1 },
		{"id" : 6, "lemma" : "만", "type" : "JX", "position" : 33, "weight" : 1 },
		{"id" : 7, "lemma" : "정보", "type" : "NNG", "position" : 37, "weight" : 0.508713 },
		{"id" : 8, "lemma" : "를", "type" : "JKO", "position" : 43, "weight" : 0.0229352 },
		{"id" : 9, "lemma" : "저장", "type" : "NNG", "position" : 47, "weight" : 0.508713 },
		{"id" : 10, "lemma" : "하", "type" : "XSV", "position" : 53, "weight" : 0.0229352 },
		{"id" : 11, "lemma" : "ㄹ", "type" : "ETM", "position" : 53, "weight" : 1 },
		{"id" : 12, "lemma" : "수", "type" : "NNB", "position" : 57, "weight" : 1 },
		{"id" : 13, "lemma" : "있", "type" : "VA", "position" : 61, "weight" : 1 },
		{"id" : 14, "lemma" : "기", "type" : "ETN", "position" : 64, "weight" : 0.0174267 },
		{"id" : 15, "lemma" : "때문", "type" : "NNB", "position" : 68, "weight" : 0.508713 },
		{"id" : 16, "lemma" : "에", "type" : "JKB", "position" : 74, "weight" : 0.0229352 },
		{"id" : 17, "lemma" : "정보", "type" : "NNG", "position" : 78, "weight" : 0.508713 },
		{"id" : 18, "lemma" : "의", "type" : "JKG", "position" : 84, "weight" : 0.0229352 },
		{"id" : 19, "lemma" : "저장", "type" : "NNG", "position" : 88, "weight" : 0.508713 },
		{"id" : 20, "lemma" : "용량", "type" : "NNG", "position" : 94, "weight" : 0.511468 },
		{"id" : 21, "lemma" : "이", "type" : "JKS", "position" : 100, "weight" : 1 },
		{"id" : 22, "lemma" : "적", "type" : "VA", "position" : 104, "weight" : 1 },
		{"id" : 23, "lemma" : "은데", "type" : "EC", "position" : 107, "weight" : 0.020181 },
		{"id" : 24, "lemma" : "최근", "type" : "NNG", "position" : 114, "weight" : 0.508713 },
		{"id" : 25, "lemma" : "에", "type" : "JKB", "position" : 120, "weight" : 0.0229352 },
		{"id" : 26, "lemma" : "는", "type" : "JX", "position" : 123, "weight" : 1 },
		{"id" : 27, "lemma" : "이런", "type" : "MM", "position" : 127, "weight" : 0.508713 },
		{"id" : 28, "lemma" : "문제", "type" : "NNG", "position" : 134, "weight" : 0.508713 },
		{"id" : 29, "lemma" : "를", "type" : "JKO", "position" : 140, "weight" : 0.0229352 },
		{"id" : 30, "lemma" : "보완", "type" : "NNG", "position" : 144, "weight" : 0.508713 },
		{"id" : 31, "lemma" : "하", "type" : "XSV", "position" : 150, "weight" : 0.0229352 },
		{"id" : 32, "lemma" : "기", "type" : "ETN", "position" : 153, "weight" : 1 },
		{"id" : 33, "lemma" : "위하", "type" : "VV", "position" : 157, "weight" : 0.508713 },
		{"id" : 34, "lemma" : "아", "type" : "EC", "position" : 160, "weight" : 0.0229352 },
		{"id" : 35, "lemma" : "저장", "type" : "NNG", "position" : 164, "weight" : 0.508713 },
		{"id" : 36, "lemma" : "용량", "type" : "NNG", "position" : 170, "weight" : 0.511468 },
		{"id" : 37, "lemma" : "이", "type" : "JKS", "position" : 176, "weight" : 1 },
		{"id" : 38, "lemma" : "더", "type" : "MAG", "position" : 180, "weight" : 1 },
		{"id" : 39, "lemma" : "크", "type" : "VA", "position" : 184, "weight" : 1 },
		{"id" : 40, "lemma" : "ㄴ", "type" : "ETM", "position" : 184, "weight" : 0.0174267 },
		{"id" : 41, "lemma" : "2", "type" : "SN", "position" : 188, "weight" : 1 },
		{"id" : 42, "lemma" : "차원", "type" : "NNG", "position" : 189, "weight" : 0.020181 },
		{"id" : 43, "lemma" : "바코드", "type" : "NNG", "position" : 196, "weight" : 1 },
		{"id" : 44, "lemma" : "를", "type" : "JKO", "position" : 205, "weight" : 1 },
		{"id" : 45, "lemma" : "많이", "type" : "MAG", "position" : 209, "weight" : 0.508713 },
		{"id" : 46, "lemma" : "이용", "type" : "NNG", "position" : 216, "weight" : 0.508713 },
		{"id" : 47, "lemma" : "하", "type" : "XSV", "position" : 222, "weight" : 0.0229352 },
		{"id" : 48, "lemma" : "ㄴ다", "type" : "EF", "position" : 222, "weight" : 1 },
		{"id" : 49, "lemma" : ".", "type" : "SF", "position" : 228, "weight" : 1 }
	],
	"morp_eval" : [
	],
	"WSD" : [
	],
	"word" : [
		{"id" : 0, "text" : "1차원", "type" : "", "begin" : 0, "end" : 1},
		{"id" : 1, "text" : "바코드는", "type" : "", "begin" : 2, "end" : 3},
		{"id" : 2, "text" : "가로줄에만", "type" : "", "begin" : 4, "end" : 6},
		{"id" : 3, "text" : "정보를", "type" : "", "begin" : 7, "end" : 8},
		{"id" : 4, "text" : "저장할", "type" : "", "begin" : 9, "end" : 11},
		{"id" : 5, "text" : "수", "type" : "", "begin" : 12, "end" : 12},
		{"id" : 6, "text" : "있기", "type" : "", "begin" : 13, "end" : 14},
		{"id" : 7, "text" : "때문에", "type" : "", "begin" : 15, "end" : 16},
		{"id" : 8, "text" : "정보의", "type" : "", "begin" : 17, "end" : 18},
		{"id" : 9, "text" : "저장용량이", "type" : "", "begin" : 19, "end" : 21},
		{"id" : 10, "text" : "적은데", "type" : "", "begin" : 22, "end" : 23},
		{"id" : 11, "text" : "최근에는", "type" : "", "begin" : 24, "end" : 26},
		{"id" : 12, "text" : "이런", "type" : "", "begin" : 27, "end" : 27},
		{"id" : 13, "text" : "문제를", "type" : "", "begin" : 28, "end" : 29},
		{"id" : 14, "text" : "보완하기", "type" : "", "begin" : 30, "end" : 32},
		{"id" : 15, "text" : "위해", "type" : "", "begin" : 33, "end" : 34},
		{"id" : 16, "text" : "저장용량이", "type" : "", "begin" : 35, "end" : 37},
		{"id" : 17, "text" : "더", "type" : "", "begin" : 38, "end" : 38},
		{"id" : 18, "text" : "큰", "type" : "", "begin" : 39, "end" : 40},
		{"id" : 19, "text" : "2차원", "type" : "", "begin" : 41, "end" : 42},
		{"id" : 20, "text" : "바코드를", "type" : "", "begin" : 43, "end" : 44},
		{"id" : 21, "text" : "많이", "type" : "", "begin" : 45, "end" : 45},
		{"id" : 22, "text" : "이용한다.", "type" : "", "begin" : 46, "end" : 49}
	],
	"NE" : [
		{"id" : 0, "text" : "1차원", "type" : "QT_OTHERS", "begin" : 0, "end" : 1, "weight" : 0.284694, "common_noun" : 0},
		{"id" : 1, "text" : "2차원", "type" : "QT_OTHERS", "begin" : 41, "end" : 42, "weight" : 0.398499, "common_noun" : 0}
	],
	"chunk" : [
	],
	"dependency" : [
		{"id" : 0, "text" : "1차원", "head" : 1, "label" : "NP", "mod" : [], "weight" : 0.783419 },
		{"id" : 1, "text" : "바코드는", "head" : 4, "label" : "NP_SBJ", "mod" : [0], "weight" : 0.597657 },
		{"id" : 2, "text" : "가로줄에만", "head" : 4, "label" : "NP_AJT", "mod" : [], "weight" : 0.759923 },
		{"id" : 3, "text" : "정보를", "head" : 4, "label" : "NP_OBJ", "mod" : [], "weight" : 0.854202 },
		{"id" : 4, "text" : "저장할", "head" : 5, "label" : "VP_MOD", "mod" : [1, 2, 3], "weight" : 0.920714 },
		{"id" : 5, "text" : "수", "head" : 6, "label" : "NP_SBJ", "mod" : [4], "weight" : 0.90769 },
		{"id" : 6, "text" : "있기", "head" : 7, "label" : "VP", "mod" : [5], "weight" : 0.993493 },
		{"id" : 7, "text" : "때문에", "head" : 10, "label" : "NP_AJT", "mod" : [6], "weight" : 0.824616 },
		{"id" : 8, "text" : "정보의", "head" : 9, "label" : "NP_MOD", "mod" : [], "weight" : 0.88884 },
		{"id" : 9, "text" : "저장용량이", "head" : 10, "label" : "NP_SBJ", "mod" : [8], "weight" : 0.970535 },
		{"id" : 10, "text" : "적은데", "head" : 22, "label" : "VP", "mod" : [7, 9], "weight" : 0.766914 },
		{"id" : 11, "text" : "최근에는", "head" : 22, "label" : "NP_AJT", "mod" : [], "weight" : 0.727116 },
		{"id" : 12, "text" : "이런", "head" : 13, "label" : "DP", "mod" : [], "weight" : 0.788969 },
		{"id" : 13, "text" : "문제를", "head" : 14, "label" : "NP_OBJ", "mod" : [12], "weight" : 0.927578 },
		{"id" : 14, "text" : "보완하기", "head" : 15, "label" : "VP_OBJ", "mod" : [13], "weight" : 0.796208 },
		{"id" : 15, "text" : "위해", "head" : 22, "label" : "VP", "mod" : [14], "weight" : 0.727947 },
		{"id" : 16, "text" : "저장용량이", "head" : 18, "label" : "NP_SBJ", "mod" : [], "weight" : 0.625999 },
		{"id" : 17, "text" : "더", "head" : 18, "label" : "AP", "mod" : [], "weight" : 0.85482 },
		{"id" : 18, "text" : "큰", "head" : 20, "label" : "VP_MOD", "mod" : [16, 17], "weight" : 0.783556 },
		{"id" : 19, "text" : "2차원", "head" : 20, "label" : "NP", "mod" : [], "weight" : 0.7701 },
		{"id" : 20, "text" : "바코드를", "head" : 22, "label" : "NP_OBJ", "mod" : [18, 19], "weight" : 0.594304 },
		{"id" : 21, "text" : "많이", "head" : 22, "label" : "AP", "mod" : [], "weight" : 0.44752 },
		{"id" : 22, "text" : "이용한다.", "head" : -1, "label" : "VP", "mod" : [10, 11, 15, 20, 21], "weight" : 0.265716 }
	],
	"SRL" : [
		{"verb" : "저장", "sense" : 1, "word_id" : 4, "weight" : 0.158402,
			"argument" : [
				{"type" : "ARG0", "word_id" : 1, "text" : "바코드는", "weight" : 0.541502 },
				{"type" : "ARG2", "word_id" : 2, "text" : "가로줄에만", "weight" : 0.630996 },
				{"type" : "ARG1", "word_id" : 3, "text" : "정보를", "weight" : 0.174294 },
				{"type" : "AUX", "word_id" : 6, "text" : "있기", "weight" : 0.342065 }
			] },
		{"verb" : "적", "sense" : 2, "word_id" : 10, "weight" : 0.164883,
			"argument" : [
				{"type" : "ARGM-CAU", "word_id" : 7, "text" : "때문에", "weight" : 0.143693 },
				{"type" : "ARG1", "word_id" : 9, "text" : "저장용량이", "weight" : 0.186072 }
			] },
		{"verb" : "보완", "sense" : 1, "word_id" : 14, "weight" : 0.198598,
			"argument" : [
				{"type" : "ARG1", "word_id" : 13, "text" : "문제를", "weight" : 0.198598 }
			] },
		{"verb" : "위하", "sense" : 1, "word_id" : 15, "weight" : 0.184836,
			"argument" : [
				{"type" : "ARG1", "word_id" : 14, "text" : "보완하기", "weight" : 0.184836 }
			] },
		{"verb" : "크", "sense" : 1, "word_id" : 18, "weight" : 0.181753,
			"argument" : [
				{"type" : "ARG1", "word_id" : 16, "text" : "저장용량이", "weight" : 0.129802 },
				{"type" : "ARGM-EXT", "word_id" : 17, "text" : "더", "weight" : 0.220328 }
			] },
		{"verb" : "이용", "sense" : 1, "word_id" : 22, "weight" : 0.111558,
			"argument" : [
				{"type" : "ARGM-TMP", "word_id" : 11, "text" : "최근에는", "weight" : 0.116858 },
				{"type" : "ARGM-PRP", "word_id" : 15, "text" : "위해", "weight" : 0.1145 },
				{"type" : "ARG1", "word_id" : 20, "text" : "바코드를", "weight" : 0.132093 },
				{"type" : "ARGM-EXT", "word_id" : 21, "text" : "많이", "weight" : 0.827783 }
			] }
	],
	"relation" : [
	],
	"SA" : [
	],
	"ZA" : [
	]
	},
	{
	"id" : 1,
	"reserve_str" : "",
	"text" : " 2차원 바코드 중에서  '빠른 응답'을 얻을 수 있다는 의미로 이용하는 이것은 무엇일까?",
	"morp" : [
		{"id" : 0, "lemma" : "2", "type" : "SN", "position" : 230, "weight" : 1 },
		{"id" : 1, "lemma" : "차원", "type" : "NNG", "position" : 231, "weight" : 0.0213556 },
		{"id" : 2, "lemma" : "바코드", "type" : "NNG", "position" : 238, "weight" : 1 },
		{"id" : 3, "lemma" : "중", "type" : "NNB", "position" : 248, "weight" : 1 },
		{"id" : 4, "lemma" : "에서", "type" : "JKB", "position" : 251, "weight" : 0.0213556 },
		{"id" : 5, "lemma" : "'", "type" : "SS", "position" : 259, "weight" : 1 },
		{"id" : 6, "lemma" : "빠르", "type" : "VA", "position" : 260, "weight" : 0.0213556 },
		{"id" : 7, "lemma" : "ㄴ", "type" : "ETM", "position" : 263, "weight" : 1 },
		{"id" : 8, "lemma" : "응답", "type" : "NNG", "position" : 267, "weight" : 0.509153 },
		{"id" : 9, "lemma" : "'", "type" : "SS", "position" : 273, "weight" : 0.0244055 },
		{"id" : 10, "lemma" : "을", "type" : "JKO", "position" : 274, "weight" : 1 },
		{"id" : 11, "lemma" : "얻", "type" : "VV", "position" : 278, "weight" : 1 },
		{"id" : 12, "lemma" : "을", "type" : "ETM", "position" : 281, "weight" : 0.0183058 },
		{"id" : 13, "lemma" : "수", "type" : "NNB", "position" : 285, "weight" : 1 },
		{"id" : 14, "lemma" : "있", "type" : "VA", "position" : 289, "weight" : 1 },
		{"id" : 15, "lemma" : "다는", "type" : "ETM", "position" : 292, "weight" : 0.0213556 },
		{"id" : 16, "lemma" : "의미", "type" : "NNG", "position" : 299, "weight" : 0.509153 },
		{"id" : 17, "lemma" : "로", "type" : "JKB", "position" : 305, "weight" : 0.0244055 },
		{"id" : 18, "lemma" : "이용", "type" : "NNG", "position" : 309, "weight" : 0.509153 },
		{"id" : 19, "lemma" : "하", "type" : "XSV", "position" : 315, "weight" : 0.0244055 },
		{"id" : 20, "lemma" : "는", "type" : "ETM", "position" : 318, "weight" : 1 },
		{"id" : 21, "lemma" : "이것", "type" : "NP", "position" : 322, "weight" : 0.509153 },
		{"id" : 22, "lemma" : "은", "type" : "JX", "position" : 328, "weight" : 0.0244055 },
		{"id" : 23, "lemma" : "무엇", "type" : "NP", "position" : 332, "weight" : 0.509153 },
		{"id" : 24, "lemma" : "이", "type" : "VCP", "position" : 338, "weight" : 0.0244055 },
		{"id" : 25, "lemma" : "ㄹ까", "type" : "EF", "position" : 338, "weight" : 1 },
		{"id" : 26, "lemma" : "?", "type" : "SF", "position" : 344, "weight" : 1 }
	],
	"morp_eval" : [
	],
	"WSD" : [
	],
	"word" : [
		{"id" : 0, "text" : "2차원", "type" : "", "begin" : 0, "end" : 1},
		{"id" : 1, "text" : "바코드", "type" : "", "begin" : 2, "end" : 2},
		{"id" : 2, "text" : "중에서", "type" : "", "begin" : 3, "end" : 4},
		{"id" : 3, "text" : "'빠른", "type" : "", "begin" : 5, "end" : 7},
		{"id" : 4, "text" : "응답'을", "type" : "", "begin" : 8, "end" : 10},
		{"id" : 5, "text" : "얻을", "type" : "", "begin" : 11, "end" : 12},
		{"id" : 6, "text" : "수", "type" : "", "begin" : 13, "end" : 13},
		{"id" : 7, "text" : "있다는", "type" : "", "begin" : 14, "end" : 15},
		{"id" : 8, "text" : "의미로", "type" : "", "begin" : 16, "end" : 17},
		{"id" : 9, "text" : "이용하는", "type" : "", "begin" : 18, "end" : 20},
		{"id" : 10, "text" : "이것은", "type" : "", "begin" : 21, "end" : 22},
		{"id" : 11, "text" : "무엇일까?", "type" : "", "begin" : 23, "end" : 26}
	],
	"NE" : [
		{"id" : 0, "text" : "2차원", "type" : "QT_OTHERS", "begin" : 0, "end" : 1, "weight" : 0.302348, "common_noun" : 0}
	],
	"chunk" : [
	],
	"dependency" : [
		{"id" : 0, "text" : "2차원", "head" : 1, "label" : "NP", "mod" : [], "weight" : 0.70532 },
		{"id" : 1, "text" : "바코드", "head" : 2, "label" : "NP", "mod" : [0], "weight" : 0.955879 },
		{"id" : 2, "text" : "중에서", "head" : 9, "label" : "NP_AJT", "mod" : [1], "weight" : 0.629584 },
		{"id" : 3, "text" : "'빠른", "head" : 4, "label" : "VP_MOD", "mod" : [], "weight" : 0.941962 },
		{"id" : 4, "text" : "응답'을", "head" : 5, "label" : "NP_OBJ", "mod" : [3], "weight" : 0.85854 },
		{"id" : 5, "text" : "얻을", "head" : 6, "label" : "VP_MOD", "mod" : [4], "weight" : 0.770291 },
		{"id" : 6, "text" : "수", "head" : 7, "label" : "NP_SBJ", "mod" : [5], "weight" : 0.999074 },
		{"id" : 7, "text" : "있다는", "head" : 8, "label" : "VP_MOD", "mod" : [6], "weight" : 0.82123 },
		{"id" : 8, "text" : "의미로", "head" : 9, "label" : "NP_AJT", "mod" : [7], "weight" : 0.87631 },
		{"id" : 9, "text" : "이용하는", "head" : 10, "label" : "VP_MOD", "mod" : [2, 8], "weight" : 0.63693 },
		{"id" : 10, "text" : "이것은", "head" : 11, "label" : "NP_SBJ", "mod" : [9], "weight" : 0.653769 },
		{"id" : 11, "text" : "무엇일까?", "head" : -1, "label" : "VNP", "mod" : [10], "weight" : 0.58749 }
	],
	"SRL" : [
		{"verb" : "빠르", "sense" : 1, "word_id" : 3, "weight" : 0,
			"argument" : [
				{"type" : "ARG1", "word_id" : 4, "text" : "응답'을", "weight" : 1 }
			] },
		{"verb" : "얻", "sense" : 1, "word_id" : 5, "weight" : 0.178268,
			"argument" : [
				{"type" : "ARG1", "word_id" : 4, "text" : "응답'을", "weight" : 0.135346 },
				{"type" : "AUX", "word_id" : 7, "text" : "있다는", "weight" : 0.31678 }
			] },
		{"verb" : "이용", "sense" : 1, "word_id" : 9, "weight" : 0.859029,
			"argument" : [
				{"type" : "ARG2", "word_id" : 8, "text" : "의미로", "weight" : 0.573639 },
				{"type" : "ARG1", "word_id" : 10, "text" : "이것은", "weight" : 0.114442 },
				{"type" : "ARGM-CND", "word_id" : 2, "text" : "중에서", "weight" : 0 }
			] }
	],
	"relation" : [
	],
	"SA" : [
	],
	"ZA" : [
	]
	}
 ],
 "entity" : [
 ]
}

