{"doc_id" : "E2015.943.013_Q_01",
 "DCT" : "",
 "category" : "",
 "category_weight" : 0,
 "title" : {"text" : "", "NE" : ""},
 "metaInfo" : { },
 "sentence" : [
	{
	"id" : 0,
	"reserve_str" : "",
	"text" : "원자 번호가 6번이고, 질량수가 13인 원자의 중성자수는 몇 개일까?",
	"morp" : [
		{"id" : 0, "lemma" : "원자", "type" : "NNG", "position" : 0, "weight" : 0.0197235 },
		{"id" : 1, "lemma" : "번호", "type" : "NNG", "position" : 7, "weight" : 0.0197235 },
		{"id" : 2, "lemma" : "가", "type" : "JKS", "position" : 13, "weight" : 0.0220067 },
		{"id" : 3, "lemma" : "6", "type" : "SN", "position" : 17, "weight" : 0.0190455 },
		{"id" : 4, "lemma" : "번", "type" : "NNB", "position" : 18, "weight" : 0.0204014 },
		{"id" : 5, "lemma" : "이", "type" : "VCP", "position" : 21, "weight" : 0.0220067 },
		{"id" : 6, "lemma" : "고", "type" : "EC", "position" : 24, "weight" : 0.0233796 },
		{"id" : 7, "lemma" : ",", "type" : "SP", "position" : 27, "weight" : 0.034202 },
		{"id" : 8, "lemma" : "질량", "type" : "NNG", "position" : 29, "weight" : 0.0197235 },
		{"id" : 9, "lemma" : "수", "type" : "NNG", "position" : 35, "weight" : 0.0220067 },
		{"id" : 10, "lemma" : "가", "type" : "JKS", "position" : 38, "weight" : 0.0233796 },
		{"id" : 11, "lemma" : "13", "type" : "SN", "position" : 42, "weight" : 0.0197235 },
		{"id" : 12, "lemma" : "이", "type" : "VCP", "position" : 44, "weight" : 0.0220067 },
		{"id" : 13, "lemma" : "ㄴ", "type" : "ETM", "position" : 44, "weight" : 0.0233796 },
		{"id" : 14, "lemma" : "원자", "type" : "NNG", "position" : 48, "weight" : 0.0197235 },
		{"id" : 15, "lemma" : "의", "type" : "JKG", "position" : 54, "weight" : 0.0220067 },
		{"id" : 16, "lemma" : "중성자", "type" : "NNG", "position" : 58, "weight" : 0.0204845 },
		{"id" : 17, "lemma" : "수", "type" : "NNG", "position" : 67, "weight" : 0.0233796 },
		{"id" : 18, "lemma" : "는", "type" : "JX", "position" : 70, "weight" : 0.034202 },
		{"id" : 19, "lemma" : "몇", "type" : "MM", "position" : 74, "weight" : 0.0190455 },
		{"id" : 20, "lemma" : "개", "type" : "NNB", "position" : 78, "weight" : 0.0190455 },
		{"id" : 21, "lemma" : "이", "type" : "VCP", "position" : 81, "weight" : 0.0204014 },
		{"id" : 22, "lemma" : "ㄹ까", "type" : "EF", "position" : 81, "weight" : 0.0226931 },
		{"id" : 23, "lemma" : "?", "type" : "SF", "position" : 87, "weight" : 0.034202 }
	],
	"morp_eval" : [
	],
	"WSD" : [
	],
	"word" : [
		{"id" : 0, "text" : "원자", "type" : "", "begin" : 0, "end" : 0},
		{"id" : 1, "text" : "번호가", "type" : "", "begin" : 1, "end" : 2},
		{"id" : 2, "text" : "6번이고,", "type" : "", "begin" : 3, "end" : 7},
		{"id" : 3, "text" : "질량수가", "type" : "", "begin" : 8, "end" : 10},
		{"id" : 4, "text" : "13인", "type" : "", "begin" : 11, "end" : 13},
		{"id" : 5, "text" : "원자의", "type" : "", "begin" : 14, "end" : 15},
		{"id" : 6, "text" : "중성자수는", "type" : "", "begin" : 16, "end" : 18},
		{"id" : 7, "text" : "몇", "type" : "", "begin" : 19, "end" : 19},
		{"id" : 8, "text" : "개일까?", "type" : "", "begin" : 20, "end" : 23}
	],
	"NE" : [
		{"id" : 0, "text" : "6번", "type" : "QT_ORDER", "begin" : 3, "end" : 4, "weight" : 0.534469, "common_noun" : 0},
		{"id" : 1, "text" : "13", "type" : "QT_COUNT", "begin" : 11, "end" : 11, "weight" : 0.433035, "common_noun" : 0}
	],
	"chunk" : [
	],
	"dependency" : [
		{"id" : 0, "text" : "원자", "head" : 1, "label" : "NP", "mod" : [], "weight" : 0.733038 },
		{"id" : 1, "text" : "번호가", "head" : 2, "label" : "NP_SBJ", "mod" : [0], "weight" : 0.72251 },
		{"id" : 2, "text" : "6번이고,", "head" : 4, "label" : "VNP", "mod" : [1], "weight" : 0.754877 },
		{"id" : 3, "text" : "질량수가", "head" : 4, "label" : "NP_SBJ", "mod" : [], "weight" : 0.609247 },
		{"id" : 4, "text" : "13인", "head" : 5, "label" : "VNP_MOD", "mod" : [2, 3], "weight" : 0.783568 },
		{"id" : 5, "text" : "원자의", "head" : 6, "label" : "NP_MOD", "mod" : [4], "weight" : 0.945794 },
		{"id" : 6, "text" : "중성자수는", "head" : 8, "label" : "NP_SBJ", "mod" : [5], "weight" : 0.720428 },
		{"id" : 7, "text" : "몇", "head" : 8, "label" : "DP", "mod" : [], "weight" : 0.482328 },
		{"id" : 8, "text" : "개일까?", "head" : -1, "label" : "VNP", "mod" : [6, 7], "weight" : 0.412497 }
	],
	"SRL" : [
	],
	"relation" : [
	],
	"SA" : [
	],
	"ZA" : [
	]
	}
 ],
 "entity" : [
 ]
}

