{"doc_id" : "E2015.947.014_Q_01",
 "DCT" : "",
 "category" : "",
 "category_weight" : 0,
 "title" : {"text" : "", "NE" : ""},
 "metaInfo" : { },
 "sentence" : [
	{
	"id" : 0,
	"reserve_str" : "",
	"text" : "이태준의 <달밤>에서 순박한 품성을 지닌 주인공 '황수건'이 가졌던 직업이 아닌 것은 무엇일까?",
	"morp" : [
		{"id" : 0, "lemma" : "이태준", "type" : "NNP", "position" : 0, "weight" : 1 },
		{"id" : 1, "lemma" : "의", "type" : "JKG", "position" : 9, "weight" : 0.0471768 },
		{"id" : 2, "lemma" : "<", "type" : "SS", "position" : 13, "weight" : 1 },
		{"id" : 3, "lemma" : "달밤", "type" : "NNG", "position" : 14, "weight" : 1 },
		{"id" : 4, "lemma" : ">", "type" : "SS", "position" : 20, "weight" : 0.0471768 },
		{"id" : 5, "lemma" : "에서", "type" : "JKB", "position" : 21, "weight" : 0.508387 },
		{"id" : 6, "lemma" : "순박", "type" : "NNG", "position" : 28, "weight" : 1 },
		{"id" : 7, "lemma" : "하", "type" : "XSA", "position" : 34, "weight" : 1 },
		{"id" : 8, "lemma" : "ㄴ", "type" : "ETM", "position" : 34, "weight" : 0.0471768 },
		{"id" : 9, "lemma" : "품성", "type" : "NNG", "position" : 38, "weight" : 1 },
		{"id" : 10, "lemma" : "을", "type" : "JKO", "position" : 44, "weight" : 1 },
		{"id" : 11, "lemma" : "지니", "type" : "VV", "position" : 48, "weight" : 1 },
		{"id" : 12, "lemma" : "ㄴ", "type" : "ETM", "position" : 51, "weight" : 1 },
		{"id" : 13, "lemma" : "주인공", "type" : "NNG", "position" : 55, "weight" : 1 },
		{"id" : 14, "lemma" : "'", "type" : "SS", "position" : 65, "weight" : 1 },
		{"id" : 15, "lemma" : "황수건", "type" : "NNP", "position" : 66, "weight" : 0.682392 },
		{"id" : 16, "lemma" : "'", "type" : "SS", "position" : 75, "weight" : 1 },
		{"id" : 17, "lemma" : "이", "type" : "JKS", "position" : 76, "weight" : 0.0167735 },
		{"id" : 18, "lemma" : "가지", "type" : "VV", "position" : 80, "weight" : 1 },
		{"id" : 19, "lemma" : "었", "type" : "EP", "position" : 83, "weight" : 1 },
		{"id" : 20, "lemma" : "던", "type" : "ETM", "position" : 86, "weight" : 0.0471768 },
		{"id" : 21, "lemma" : "직업", "type" : "NNG", "position" : 90, "weight" : 1 },
		{"id" : 22, "lemma" : "이", "type" : "JKC", "position" : 96, "weight" : 1 },
		{"id" : 23, "lemma" : "아니", "type" : "VCN", "position" : 100, "weight" : 1 },
		{"id" : 24, "lemma" : "ㄴ", "type" : "ETM", "position" : 103, "weight" : 1 },
		{"id" : 25, "lemma" : "것", "type" : "NNB", "position" : 107, "weight" : 1 },
		{"id" : 26, "lemma" : "은", "type" : "JX", "position" : 110, "weight" : 1 },
		{"id" : 27, "lemma" : "무엇", "type" : "NP", "position" : 114, "weight" : 1 },
		{"id" : 28, "lemma" : "이", "type" : "VCP", "position" : 120, "weight" : 1 },
		{"id" : 29, "lemma" : "ㄹ까", "type" : "EF", "position" : 120, "weight" : 0.523588 },
		{"id" : 30, "lemma" : "?", "type" : "SF", "position" : 126, "weight" : 0.0167735 }
	],
	"morp_eval" : [
	],
	"WSD" : [
	],
	"word" : [
		{"id" : 0, "text" : "이태준의", "type" : "", "begin" : 0, "end" : 1},
		{"id" : 1, "text" : "<달밤>에서", "type" : "", "begin" : 2, "end" : 5},
		{"id" : 2, "text" : "순박한", "type" : "", "begin" : 6, "end" : 8},
		{"id" : 3, "text" : "품성을", "type" : "", "begin" : 9, "end" : 10},
		{"id" : 4, "text" : "지닌", "type" : "", "begin" : 11, "end" : 12},
		{"id" : 5, "text" : "주인공", "type" : "", "begin" : 13, "end" : 13},
		{"id" : 6, "text" : "'황수건'이", "type" : "", "begin" : 14, "end" : 17},
		{"id" : 7, "text" : "가졌던", "type" : "", "begin" : 18, "end" : 20},
		{"id" : 8, "text" : "직업이", "type" : "", "begin" : 21, "end" : 22},
		{"id" : 9, "text" : "아닌", "type" : "", "begin" : 23, "end" : 24},
		{"id" : 10, "text" : "것은", "type" : "", "begin" : 25, "end" : 26},
		{"id" : 11, "text" : "무엇일까?", "type" : "", "begin" : 27, "end" : 30}
	],
	"NE" : [
		{"id" : 0, "text" : "이태준", "type" : "PS_NAME", "begin" : 0, "end" : 0, "weight" : 0.530416, "common_noun" : 0},
		{"id" : 1, "text" : "달밤", "type" : "AFW_DOCUMENT", "begin" : 3, "end" : 3, "weight" : 0.192603, "common_noun" : 0},
		{"id" : 2, "text" : "주인공", "type" : "CV_POSITION", "begin" : 13, "end" : 13, "weight" : 0.439046, "common_noun" : 0},
		{"id" : 3, "text" : "황수건", "type" : "PS_NAME", "begin" : 15, "end" : 15, "weight" : 0.274293, "common_noun" : 0}
	],
	"chunk" : [
	],
	"dependency" : [
		{"id" : 0, "text" : "이태준의", "head" : 1, "label" : "NP_MOD", "mod" : [], "weight" : 0.737228 },
		{"id" : 1, "text" : "<달밤>에서", "head" : 4, "label" : "NP_AJT", "mod" : [0], "weight" : 0.545637 },
		{"id" : 2, "text" : "순박한", "head" : 3, "label" : "VP_MOD", "mod" : [], "weight" : 0.733506 },
		{"id" : 3, "text" : "품성을", "head" : 4, "label" : "NP_OBJ", "mod" : [2], "weight" : 0.808492 },
		{"id" : 4, "text" : "지닌", "head" : 6, "label" : "VP_MOD", "mod" : [1, 3], "weight" : 0.647487 },
		{"id" : 5, "text" : "주인공", "head" : 6, "label" : "NP", "mod" : [], "weight" : 0.571774 },
		{"id" : 6, "text" : "'황수건'이", "head" : 7, "label" : "NP_SBJ", "mod" : [4, 5], "weight" : 0.740134 },
		{"id" : 7, "text" : "가졌던", "head" : 8, "label" : "VP_MOD", "mod" : [6], "weight" : 0.684315 },
		{"id" : 8, "text" : "직업이", "head" : 9, "label" : "NP_CMP", "mod" : [7], "weight" : 0.729991 },
		{"id" : 9, "text" : "아닌", "head" : 10, "label" : "VP_MOD", "mod" : [8], "weight" : 0.901939 },
		{"id" : 10, "text" : "것은", "head" : 11, "label" : "NP_SBJ", "mod" : [9], "weight" : 0.663542 },
		{"id" : 11, "text" : "무엇일까?", "head" : -1, "label" : "VNP", "mod" : [10], "weight" : 0.137511 }
	],
	"SRL" : [
		{"verb" : "순박", "sense" : 1, "word_id" : 2, "weight" : 0.245306,
			"argument" : [
				{"type" : "ARG1", "word_id" : 3, "text" : "품성을", "weight" : 0.245306 }
			] },
		{"verb" : "지니", "sense" : 1, "word_id" : 4, "weight" : 0.177268,
			"argument" : [
				{"type" : "ARG1", "word_id" : 3, "text" : "품성을", "weight" : 0.15033 },
				{"type" : "ARG0", "word_id" : 6, "text" : "'황수건'이", "weight" : 0.204207 }
			] },
		{"verb" : "가지", "sense" : 1, "word_id" : 7, "weight" : 0.178694,
			"argument" : [
				{"type" : "ARG0", "word_id" : 6, "text" : "'황수건'이", "weight" : 0.243349 },
				{"type" : "ARG1", "word_id" : 8, "text" : "직업이", "weight" : 0.11404 },
				{"type" : "ARGM-LOC", "word_id" : 1, "text" : "<달밤>에서", "weight" : 1 }
			] },
		{"verb" : "아니", "sense" : 1, "word_id" : 9, "weight" : 0.181142,
			"argument" : [
				{"type" : "ARG2", "word_id" : 8, "text" : "직업이", "weight" : 0.193524 },
				{"type" : "ARG1", "word_id" : 10, "text" : "것은", "weight" : 0.168759 },
				{"type" : "ARGM-LOC", "word_id" : 1, "text" : "<달밤>에서", "weight" : 0 }
			] }
	],
	"relation" : [
	],
	"SA" : [
	],
	"ZA" : [
	]
	}
 ],
 "entity" : [
 ]
}

