{"doc_id" : "E2015.947.020_A_01",
 "DCT" : "",
 "category" : "",
 "category_weight" : 0,
 "title" : {"text" : "", "NE" : ""},
 "metaInfo" : { },
 "sentence" : [
	{
	"id" : 0,
	"reserve_str" : "",
	"text" : "앙부일구(仰釜日晷)는 1434년 조선 세종대왕 16년 이후로 제작·사용된 해시계로, 과학·역사·예술적 가치를 인정받아 대한민국의 보물 제845호로 지정되었다.",
	"morp" : [
		{"id" : 0, "lemma" : "앙부일구", "type" : "NNP", "position" : 0, "weight" : 1 },
		{"id" : 1, "lemma" : "(", "type" : "SS", "position" : 12, "weight" : 1 },
		{"id" : 2, "lemma" : "仰釜日晷", "type" : "SH", "position" : 13, "weight" : 1 },
		{"id" : 3, "lemma" : ")", "type" : "SS", "position" : 25, "weight" : 1 },
		{"id" : 4, "lemma" : "는", "type" : "JX", "position" : 26, "weight" : 0.0456091 },
		{"id" : 5, "lemma" : "1434", "type" : "SN", "position" : 30, "weight" : 1 },
		{"id" : 6, "lemma" : "년", "type" : "NNB", "position" : 34, "weight" : 1 },
		{"id" : 7, "lemma" : "조선", "type" : "NNP", "position" : 38, "weight" : 1 },
		{"id" : 8, "lemma" : "세종", "type" : "NNP", "position" : 45, "weight" : 1 },
		{"id" : 9, "lemma" : "대왕", "type" : "NNG", "position" : 51, "weight" : 1 },
		{"id" : 10, "lemma" : "16", "type" : "SN", "position" : 58, "weight" : 1 },
		{"id" : 11, "lemma" : "년", "type" : "NNB", "position" : 60, "weight" : 1 },
		{"id" : 12, "lemma" : "이후", "type" : "NNG", "position" : 64, "weight" : 1 },
		{"id" : 13, "lemma" : "로", "type" : "JKB", "position" : 70, "weight" : 1 },
		{"id" : 14, "lemma" : "제작", "type" : "NNG", "position" : 74, "weight" : 1 },
		{"id" : 15, "lemma" : "·", "type" : "SW", "position" : 80, "weight" : 1 },
		{"id" : 16, "lemma" : "사용", "type" : "NNG", "position" : 82, "weight" : 1 },
		{"id" : 17, "lemma" : "되", "type" : "XSV", "position" : 88, "weight" : 1 },
		{"id" : 18, "lemma" : "ㄴ", "type" : "ETM", "position" : 88, "weight" : 1 },
		{"id" : 19, "lemma" : "해", "type" : "NNG", "position" : 92, "weight" : 1 },
		{"id" : 20, "lemma" : "시계", "type" : "NNG", "position" : 95, "weight" : 1 },
		{"id" : 21, "lemma" : "로", "type" : "JKB", "position" : 101, "weight" : 1 },
		{"id" : 22, "lemma" : ",", "type" : "SP", "position" : 104, "weight" : 1 },
		{"id" : 23, "lemma" : "과학", "type" : "NNG", "position" : 106, "weight" : 1 },
		{"id" : 24, "lemma" : "·", "type" : "SW", "position" : 112, "weight" : 1 },
		{"id" : 25, "lemma" : "역사", "type" : "NNG", "position" : 114, "weight" : 1 },
		{"id" : 26, "lemma" : "·", "type" : "SW", "position" : 120, "weight" : 1 },
		{"id" : 27, "lemma" : "예술", "type" : "NNG", "position" : 122, "weight" : 1 },
		{"id" : 28, "lemma" : "적", "type" : "XSN", "position" : 128, "weight" : 1 },
		{"id" : 29, "lemma" : "가치", "type" : "NNG", "position" : 132, "weight" : 1 },
		{"id" : 30, "lemma" : "를", "type" : "JKO", "position" : 138, "weight" : 1 },
		{"id" : 31, "lemma" : "인정", "type" : "NNG", "position" : 142, "weight" : 1 },
		{"id" : 32, "lemma" : "받", "type" : "XSV", "position" : 148, "weight" : 1 },
		{"id" : 33, "lemma" : "아", "type" : "EC", "position" : 151, "weight" : 1 },
		{"id" : 34, "lemma" : "대한민국", "type" : "NNP", "position" : 155, "weight" : 1 },
		{"id" : 35, "lemma" : "의", "type" : "JKG", "position" : 167, "weight" : 1 },
		{"id" : 36, "lemma" : "보물", "type" : "NNG", "position" : 171, "weight" : 1 },
		{"id" : 37, "lemma" : "제", "type" : "XPN", "position" : 178, "weight" : 1 },
		{"id" : 38, "lemma" : "845", "type" : "SN", "position" : 181, "weight" : 1 },
		{"id" : 39, "lemma" : "호", "type" : "NNB", "position" : 184, "weight" : 1 },
		{"id" : 40, "lemma" : "로", "type" : "JKB", "position" : 187, "weight" : 1 },
		{"id" : 41, "lemma" : "지정", "type" : "NNG", "position" : 191, "weight" : 1 },
		{"id" : 42, "lemma" : "되", "type" : "XSV", "position" : 197, "weight" : 1 },
		{"id" : 43, "lemma" : "었", "type" : "EP", "position" : 200, "weight" : 1 },
		{"id" : 44, "lemma" : "다", "type" : "EF", "position" : 203, "weight" : 1 },
		{"id" : 45, "lemma" : ".", "type" : "SF", "position" : 206, "weight" : 1 }
	],
	"morp_eval" : [
	],
	"WSD" : [
	],
	"word" : [
		{"id" : 0, "text" : "앙부일구(仰釜日晷)는", "type" : "", "begin" : 0, "end" : 4},
		{"id" : 1, "text" : "1434년", "type" : "", "begin" : 5, "end" : 6},
		{"id" : 2, "text" : "조선", "type" : "", "begin" : 7, "end" : 7},
		{"id" : 3, "text" : "세종대왕", "type" : "", "begin" : 8, "end" : 9},
		{"id" : 4, "text" : "16년", "type" : "", "begin" : 10, "end" : 11},
		{"id" : 5, "text" : "이후로", "type" : "", "begin" : 12, "end" : 13},
		{"id" : 6, "text" : "제작·사용된", "type" : "", "begin" : 14, "end" : 18},
		{"id" : 7, "text" : "해시계로,", "type" : "", "begin" : 19, "end" : 22},
		{"id" : 8, "text" : "과학·역사·예술적", "type" : "", "begin" : 23, "end" : 28},
		{"id" : 9, "text" : "가치를", "type" : "", "begin" : 29, "end" : 30},
		{"id" : 10, "text" : "인정받아", "type" : "", "begin" : 31, "end" : 33},
		{"id" : 11, "text" : "대한민국의", "type" : "", "begin" : 34, "end" : 35},
		{"id" : 12, "text" : "보물", "type" : "", "begin" : 36, "end" : 36},
		{"id" : 13, "text" : "제845호로", "type" : "", "begin" : 37, "end" : 40},
		{"id" : 14, "text" : "지정되었다.", "type" : "", "begin" : 41, "end" : 45}
	],
	"NE" : [
		{"id" : 0, "text" : "앙부일구", "type" : "AF_CULTURAL_ASSET", "begin" : 0, "end" : 0, "weight" : 0.104234, "common_noun" : 0},
		{"id" : 1, "text" : "仰釜日晷", "type" : "AF_CULTURAL_ASSET", "begin" : 2, "end" : 2, "weight" : 0.101992, "common_noun" : 0},
		{"id" : 2, "text" : "1434년", "type" : "DT_YEAR", "begin" : 5, "end" : 6, "weight" : 0.422684, "common_noun" : 0},
		{"id" : 3, "text" : "조선", "type" : "LCP_COUNTRY", "begin" : 7, "end" : 7, "weight" : 0.236487, "common_noun" : 0},
		{"id" : 4, "text" : "세종대왕 16년", "type" : "DT_DYNASTY", "begin" : 8, "end" : 11, "weight" : 0.303109, "common_noun" : 0},
		{"id" : 5, "text" : "대한민국", "type" : "LCP_COUNTRY", "begin" : 34, "end" : 34, "weight" : 0.232993, "common_noun" : 0},
		{"id" : 6, "text" : "제845호", "type" : "QT_ORDER", "begin" : 37, "end" : 39, "weight" : 0.630516, "common_noun" : 0}
	],
	"chunk" : [
	],
	"dependency" : [
		{"id" : 0, "text" : "앙부일구(仰釜日晷)는", "head" : 7, "label" : "NP_SBJ", "mod" : [], "weight" : 0.719397 },
		{"id" : 1, "text" : "1434년", "head" : 6, "label" : "NP_AJT", "mod" : [], "weight" : 0.979616 },
		{"id" : 2, "text" : "조선", "head" : 3, "label" : "NP", "mod" : [], "weight" : 0.743132 },
		{"id" : 3, "text" : "세종대왕", "head" : 4, "label" : "NP", "mod" : [2], "weight" : 0.820504 },
		{"id" : 4, "text" : "16년", "head" : 5, "label" : "NP", "mod" : [3], "weight" : 0.990417 },
		{"id" : 5, "text" : "이후로", "head" : 6, "label" : "NP_AJT", "mod" : [4], "weight" : 0.544255 },
		{"id" : 6, "text" : "제작·사용된", "head" : 7, "label" : "VP_MOD", "mod" : [1, 5], "weight" : 0.945899 },
		{"id" : 7, "text" : "해시계로,", "head" : 10, "label" : "NP_AJT", "mod" : [0, 6], "weight" : 0.745898 },
		{"id" : 8, "text" : "과학·역사·예술적", "head" : 9, "label" : "NP", "mod" : [], "weight" : 0.895747 },
		{"id" : 9, "text" : "가치를", "head" : 10, "label" : "NP_OBJ", "mod" : [8], "weight" : 0.75832 },
		{"id" : 10, "text" : "인정받아", "head" : 14, "label" : "VP", "mod" : [7, 9], "weight" : 0.716259 },
		{"id" : 11, "text" : "대한민국의", "head" : 12, "label" : "NP_MOD", "mod" : [], "weight" : 0.652456 },
		{"id" : 12, "text" : "보물", "head" : 13, "label" : "NP", "mod" : [11], "weight" : 0.631804 },
		{"id" : 13, "text" : "제845호로", "head" : 14, "label" : "NP_AJT", "mod" : [12], "weight" : 0.46117 },
		{"id" : 14, "text" : "지정되었다.", "head" : -1, "label" : "VP", "mod" : [10, 13], "weight" : 0.951232 }
	],
	"SRL" : [
		{"verb" : "제작", "sense" : 1, "word_id" : 6, "weight" : 0.13307,
			"argument" : [
				{"type" : "ARGM-TMP", "word_id" : 5, "text" : "이후로", "weight" : 0.11931 },
				{"type" : "ARG1", "word_id" : 7, "text" : "해시계로,", "weight" : 0.146831 },
				{"type" : "ARGM-TMP", "word_id" : 1, "text" : "1434년", "weight" : 0 }
			] },
		{"verb" : "인정", "sense" : 1, "word_id" : 10, "weight" : 0.21319,
			"argument" : [
				{"type" : "ARG1", "word_id" : 9, "text" : "가치를", "weight" : 0.266683 }
			] },
		{"verb" : "지정", "sense" : 1, "word_id" : 14, "weight" : 0.104829,
			"argument" : [
				{"type" : "ARGM-CAU", "word_id" : 10, "text" : "인정받아", "weight" : 0.902144 },
				{"type" : "ARG2", "word_id" : 13, "text" : "제845호로", "weight" : 0.119444 },
				{"type" : "ARG1", "word_id" : 0, "text" : "앙부일구(仰釜日晷)는", "weight" : 0 }
			] }
	],
	"relation" : [
	],
	"SA" : [
	],
	"ZA" : [
	]
	}
 ],
 "entity" : [
 ]
}

