{"doc_id" : "E2015.943.020_A_03",
 "DCT" : "",
 "category" : "",
 "category_weight" : 0,
 "title" : {"text" : "", "NE" : ""},
 "metaInfo" : { },
 "sentence" : [
	{
	"id" : 0,
	"reserve_str" : "",
	"text" : "프랑스의 화가.",
	"morp" : [
		{"id" : 0, "lemma" : "프랑스", "type" : "NNP", "position" : 0, "weight" : 0.0311841 },
		{"id" : 1, "lemma" : "의", "type" : "JKG", "position" : 9, "weight" : 0.0430674 },
		{"id" : 2, "lemma" : "화가", "type" : "NNG", "position" : 13, "weight" : 0.0275464 },
		{"id" : 3, "lemma" : ".", "type" : "SF", "position" : 19, "weight" : 0.0384595 }
	],
	"morp_eval" : [
	],
	"WSD" : [
	],
	"word" : [
		{"id" : 0, "text" : "프랑스의", "type" : "", "begin" : 0, "end" : 1},
		{"id" : 1, "text" : "화가.", "type" : "", "begin" : 2, "end" : 3}
	],
	"NE" : [
		{"id" : 0, "text" : "프랑스", "type" : "LCP_COUNTRY", "begin" : 0, "end" : 0, "weight" : 0.447849, "common_noun" : 0},
		{"id" : 1, "text" : "화가", "type" : "CV_OCCUPATION", "begin" : 2, "end" : 2, "weight" : 0.474391, "common_noun" : 0}
	],
	"chunk" : [
	],
	"dependency" : [
		{"id" : 0, "text" : "프랑스의", "head" : 1, "label" : "NP_MOD", "mod" : [], "weight" : 0.572581 },
		{"id" : 1, "text" : "화가.", "head" : -1, "label" : "NP", "mod" : [0], "weight" : 0.298908 }
	],
	"SRL" : [
	],
	"relation" : [
	],
	"SA" : [
	],
	"ZA" : [
	]
	},
	{
	"id" : 1,
	"reserve_str" : "",
	"text" : "그가 주도한 야수파(포비슴) 운동은 20세기 회화의 일대 혁명이며, 원색의 대담한 병렬(竝列)을 강조하여 강렬한 개성적 표현을 기도하였다.",
	"morp" : [
		{"id" : 0, "lemma" : "그", "type" : "NP", "position" : 21, "weight" : 0.0372121 },
		{"id" : 1, "lemma" : "가", "type" : "JKS", "position" : 24, "weight" : 0.0453744 },
		{"id" : 2, "lemma" : "주도", "type" : "NNG", "position" : 28, "weight" : 0.0412933 },
		{"id" : 3, "lemma" : "하", "type" : "XSV", "position" : 34, "weight" : 1 },
		{"id" : 4, "lemma" : "ㄴ", "type" : "ETM", "position" : 34, "weight" : 1 },
		{"id" : 5, "lemma" : "야수", "type" : "NNG", "position" : 38, "weight" : 0.0412933 },
		{"id" : 6, "lemma" : "파", "type" : "NNG", "position" : 44, "weight" : 1 },
		{"id" : 7, "lemma" : "(", "type" : "SS", "position" : 47, "weight" : 1 },
		{"id" : 8, "lemma" : "포비슴", "type" : "NNG", "position" : 48, "weight" : 1 },
		{"id" : 9, "lemma" : ")", "type" : "SS", "position" : 57, "weight" : 1 },
		{"id" : 10, "lemma" : "운동", "type" : "NNG", "position" : 59, "weight" : 0.0412933 },
		{"id" : 11, "lemma" : "은", "type" : "JX", "position" : 65, "weight" : 1 },
		{"id" : 12, "lemma" : "20", "type" : "SN", "position" : 69, "weight" : 0.0412933 },
		{"id" : 13, "lemma" : "세기", "type" : "NNG", "position" : 71, "weight" : 1 },
		{"id" : 14, "lemma" : "회화", "type" : "NNG", "position" : 78, "weight" : 0.0412933 },
		{"id" : 15, "lemma" : "의", "type" : "JKG", "position" : 84, "weight" : 1 },
		{"id" : 16, "lemma" : "일대", "type" : "MM", "position" : 88, "weight" : 0.0412933 },
		{"id" : 17, "lemma" : "혁명", "type" : "NNG", "position" : 95, "weight" : 0.0412933 },
		{"id" : 18, "lemma" : "이", "type" : "VCP", "position" : 101, "weight" : 1 },
		{"id" : 19, "lemma" : "며", "type" : "EC", "position" : 104, "weight" : 1 },
		{"id" : 20, "lemma" : ",", "type" : "SP", "position" : 107, "weight" : 1 },
		{"id" : 21, "lemma" : "원색", "type" : "NNG", "position" : 109, "weight" : 0.0412933 },
		{"id" : 22, "lemma" : "의", "type" : "JKG", "position" : 115, "weight" : 1 },
		{"id" : 23, "lemma" : "대담", "type" : "NNG", "position" : 119, "weight" : 0.0412933 },
		{"id" : 24, "lemma" : "하", "type" : "XSA", "position" : 125, "weight" : 1 },
		{"id" : 25, "lemma" : "ㄴ", "type" : "ETM", "position" : 125, "weight" : 1 },
		{"id" : 26, "lemma" : "병렬", "type" : "NNG", "position" : 129, "weight" : 0.0412933 },
		{"id" : 27, "lemma" : "(", "type" : "SS", "position" : 135, "weight" : 1 },
		{"id" : 28, "lemma" : "竝列", "type" : "SH", "position" : 136, "weight" : 1 },
		{"id" : 29, "lemma" : ")", "type" : "SS", "position" : 142, "weight" : 1 },
		{"id" : 30, "lemma" : "을", "type" : "JKO", "position" : 143, "weight" : 1 },
		{"id" : 31, "lemma" : "강조", "type" : "NNG", "position" : 147, "weight" : 0.0412933 },
		{"id" : 32, "lemma" : "하", "type" : "XSV", "position" : 153, "weight" : 1 },
		{"id" : 33, "lemma" : "여", "type" : "EC", "position" : 156, "weight" : 1 },
		{"id" : 34, "lemma" : "강렬", "type" : "NNG", "position" : 160, "weight" : 0.0412933 },
		{"id" : 35, "lemma" : "하", "type" : "XSA", "position" : 166, "weight" : 1 },
		{"id" : 36, "lemma" : "ㄴ", "type" : "ETM", "position" : 166, "weight" : 1 },
		{"id" : 37, "lemma" : "개성", "type" : "NNG", "position" : 170, "weight" : 0.0412933 },
		{"id" : 38, "lemma" : "적", "type" : "XSN", "position" : 176, "weight" : 1 },
		{"id" : 39, "lemma" : "표현", "type" : "NNG", "position" : 180, "weight" : 0.0412933 },
		{"id" : 40, "lemma" : "을", "type" : "JKO", "position" : 186, "weight" : 1 },
		{"id" : 41, "lemma" : "기도", "type" : "NNG", "position" : 190, "weight" : 0.0412933 },
		{"id" : 42, "lemma" : "하", "type" : "XSV", "position" : 196, "weight" : 1 },
		{"id" : 43, "lemma" : "였", "type" : "EP", "position" : 199, "weight" : 1 },
		{"id" : 44, "lemma" : "다", "type" : "EF", "position" : 202, "weight" : 1 },
		{"id" : 45, "lemma" : ".", "type" : "SF", "position" : 205, "weight" : 1 }
	],
	"morp_eval" : [
	],
	"WSD" : [
	],
	"word" : [
		{"id" : 0, "text" : "그가", "type" : "", "begin" : 0, "end" : 1},
		{"id" : 1, "text" : "주도한", "type" : "", "begin" : 2, "end" : 4},
		{"id" : 2, "text" : "야수파(포비슴)", "type" : "", "begin" : 5, "end" : 9},
		{"id" : 3, "text" : "운동은", "type" : "", "begin" : 10, "end" : 11},
		{"id" : 4, "text" : "20세기", "type" : "", "begin" : 12, "end" : 13},
		{"id" : 5, "text" : "회화의", "type" : "", "begin" : 14, "end" : 15},
		{"id" : 6, "text" : "일대", "type" : "", "begin" : 16, "end" : 16},
		{"id" : 7, "text" : "혁명이며,", "type" : "", "begin" : 17, "end" : 20},
		{"id" : 8, "text" : "원색의", "type" : "", "begin" : 21, "end" : 22},
		{"id" : 9, "text" : "대담한", "type" : "", "begin" : 23, "end" : 25},
		{"id" : 10, "text" : "병렬(竝列)을", "type" : "", "begin" : 26, "end" : 30},
		{"id" : 11, "text" : "강조하여", "type" : "", "begin" : 31, "end" : 33},
		{"id" : 12, "text" : "강렬한", "type" : "", "begin" : 34, "end" : 36},
		{"id" : 13, "text" : "개성적", "type" : "", "begin" : 37, "end" : 38},
		{"id" : 14, "text" : "표현을", "type" : "", "begin" : 39, "end" : 40},
		{"id" : 15, "text" : "기도하였다.", "type" : "", "begin" : 41, "end" : 45}
	],
	"NE" : [
		{"id" : 0, "text" : "야수파", "type" : "FD_ART", "begin" : 5, "end" : 6, "weight" : 0.293284, "common_noun" : 0},
		{"id" : 1, "text" : "포비슴", "type" : "FD_ART", "begin" : 8, "end" : 8, "weight" : 0.176582, "common_noun" : 0},
		{"id" : 2, "text" : "20세기", "type" : "DT_OTHERS", "begin" : 12, "end" : 13, "weight" : 0.719445, "common_noun" : 0},
		{"id" : 3, "text" : "회화", "type" : "FD_ART", "begin" : 14, "end" : 14, "weight" : 0.397137, "common_noun" : 0}
	],
	"chunk" : [
	],
	"dependency" : [
		{"id" : 0, "text" : "그가", "head" : 1, "label" : "NP_SBJ", "mod" : [], "weight" : 0.776496 },
		{"id" : 1, "text" : "주도한", "head" : 3, "label" : "VP_MOD", "mod" : [0], "weight" : 0.925946 },
		{"id" : 2, "text" : "야수파(포비슴)", "head" : 3, "label" : "NP", "mod" : [], "weight" : 0.842289 },
		{"id" : 3, "text" : "운동은", "head" : 7, "label" : "NP_SBJ", "mod" : [1, 2], "weight" : 0.688722 },
		{"id" : 4, "text" : "20세기", "head" : 5, "label" : "NP", "mod" : [], "weight" : 0.798834 },
		{"id" : 5, "text" : "회화의", "head" : 7, "label" : "NP_MOD", "mod" : [4], "weight" : 0.943711 },
		{"id" : 6, "text" : "일대", "head" : 7, "label" : "NP", "mod" : [], "weight" : 0.5394 },
		{"id" : 7, "text" : "혁명이며,", "head" : 11, "label" : "VNP", "mod" : [3, 5, 6], "weight" : 0.984133 },
		{"id" : 8, "text" : "원색의", "head" : 10, "label" : "NP_MOD", "mod" : [], "weight" : 0.999733 },
		{"id" : 9, "text" : "대담한", "head" : 10, "label" : "VP_MOD", "mod" : [], "weight" : 0.973415 },
		{"id" : 10, "text" : "병렬(竝列)을", "head" : 11, "label" : "NP_OBJ", "mod" : [8, 9], "weight" : 0.783206 },
		{"id" : 11, "text" : "강조하여", "head" : 15, "label" : "VP", "mod" : [7, 10], "weight" : 0.621576 },
		{"id" : 12, "text" : "강렬한", "head" : 14, "label" : "VP_MOD", "mod" : [], "weight" : 0.881513 },
		{"id" : 13, "text" : "개성적", "head" : 14, "label" : "NP", "mod" : [], "weight" : 0.990807 },
		{"id" : 14, "text" : "표현을", "head" : 15, "label" : "NP_OBJ", "mod" : [12, 13], "weight" : 0.540905 },
		{"id" : 15, "text" : "기도하였다.", "head" : -1, "label" : "VP", "mod" : [11, 14], "weight" : 0.283689 }
	],
	"SRL" : [
		{"verb" : "주도", "sense" : 1, "word_id" : 1, "weight" : 0.20347,
			"argument" : [
				{"type" : "ARG0", "word_id" : 0, "text" : "그가", "weight" : 0.283557 },
				{"type" : "ARG1", "word_id" : 3, "text" : "운동은", "weight" : 0.123382 }
			] },
		{"verb" : "대담", "sense" : 1, "word_id" : 9, "weight" : 0.294338,
			"argument" : [
				{"type" : "ARG1", "word_id" : 10, "text" : "병렬(竝列)을", "weight" : 0.294338 }
			] },
		{"verb" : "강조", "sense" : 1, "word_id" : 11, "weight" : 0.315453,
			"argument" : [
				{"type" : "ARG1", "word_id" : 10, "text" : "병렬(竝列)을", "weight" : 0.315453 }
			] },
		{"verb" : "강렬", "sense" : 1, "word_id" : 12, "weight" : 0.191261,
			"argument" : [
				{"type" : "ARG1", "word_id" : 14, "text" : "표현을", "weight" : 0.191261 }
			] },
		{"verb" : "기도", "sense" : 1, "word_id" : 15, "weight" : 0.187326,
			"argument" : [
				{"type" : "ARG1", "word_id" : 14, "text" : "표현을", "weight" : 0.187326 }
			] }
	],
	"relation" : [
	],
	"SA" : [
	],
	"ZA" : [
	]
	}
 ],
 "entity" : [
 ]
}

