{"doc_id" : "E2014.128_A_01",
 "DCT" : "",
 "category" : "",
 "category_weight" : 0,
 "title" : {"text" : "", "NE" : ""},
 "metaInfo" : { },
 "sentence" : [
	{
	"id" : 0,
	"reserve_str" : "",
	"text" : "이스터 섬은 거대한 석상 모아이로 유명하다. ",
	"morp" : [
		{"id" : 0, "lemma" : "이스터", "type" : "NNP", "position" : 0, "weight" : 1 },
		{"id" : 1, "lemma" : "섬", "type" : "NNG", "position" : 10, "weight" : 1 },
		{"id" : 2, "lemma" : "은", "type" : "JX", "position" : 13, "weight" : 1 },
		{"id" : 3, "lemma" : "거대", "type" : "NNG", "position" : 17, "weight" : 1 },
		{"id" : 4, "lemma" : "하", "type" : "XSA", "position" : 23, "weight" : 1 },
		{"id" : 5, "lemma" : "ㄴ", "type" : "ETM", "position" : 23, "weight" : 0.0293348 },
		{"id" : 6, "lemma" : "석상", "type" : "NNG", "position" : 27, "weight" : 1 },
		{"id" : 7, "lemma" : "모아이", "type" : "NNP", "position" : 34, "weight" : 1 },
		{"id" : 8, "lemma" : "로", "type" : "JKB", "position" : 43, "weight" : 0.0293348 },
		{"id" : 9, "lemma" : "유명", "type" : "NNG", "position" : 47, "weight" : 1 },
		{"id" : 10, "lemma" : "하", "type" : "XSA", "position" : 53, "weight" : 1 },
		{"id" : 11, "lemma" : "다", "type" : "EF", "position" : 56, "weight" : 0.0293348 },
		{"id" : 12, "lemma" : ".", "type" : "SF", "position" : 59, "weight" : 0.0338978 }
	],
	"morp_eval" : [
	],
	"WSD" : [
	],
	"word" : [
		{"id" : 0, "text" : "이스터", "type" : "", "begin" : 0, "end" : 0},
		{"id" : 1, "text" : "섬은", "type" : "", "begin" : 1, "end" : 2},
		{"id" : 2, "text" : "거대한", "type" : "", "begin" : 3, "end" : 5},
		{"id" : 3, "text" : "석상", "type" : "", "begin" : 6, "end" : 6},
		{"id" : 4, "text" : "모아이로", "type" : "", "begin" : 7, "end" : 8},
		{"id" : 5, "text" : "유명하다.", "type" : "", "begin" : 9, "end" : 12}
	],
	"NE" : [
		{"id" : 0, "text" : "이스터 섬", "type" : "LCG_ISLAND", "begin" : 0, "end" : 1, "weight" : 0.273147, "common_noun" : 0},
		{"id" : 1, "text" : "모아이", "type" : "AF_CULTURAL_ASSET", "begin" : 7, "end" : 7, "weight" : 1, "common_noun" : 0}
	],
	"chunk" : [
	],
	"dependency" : [
		{"id" : 0, "text" : "이스터", "head" : 1, "label" : "NP", "mod" : [], "weight" : 0.932596 },
		{"id" : 1, "text" : "섬은", "head" : 5, "label" : "NP_SBJ", "mod" : [0], "weight" : 0.650408 },
		{"id" : 2, "text" : "거대한", "head" : 3, "label" : "VP_MOD", "mod" : [], "weight" : 0.535474 },
		{"id" : 3, "text" : "석상", "head" : 4, "label" : "NP", "mod" : [2], "weight" : 0.866075 },
		{"id" : 4, "text" : "모아이로", "head" : 5, "label" : "NP_AJT", "mod" : [3], "weight" : 0.454251 },
		{"id" : 5, "text" : "유명하다.", "head" : -1, "label" : "VP", "mod" : [1, 4], "weight" : 0.866906 }
	],
	"SRL" : [
		{"verb" : "거대", "sense" : 1, "word_id" : 2, "weight" : 0.208379,
			"argument" : [
				{"type" : "ARG1", "word_id" : 3, "text" : "석상", "weight" : 0.208379 }
			] },
		{"verb" : "유명", "sense" : 1, "word_id" : 5, "weight" : 0.110406,
			"argument" : [
				{"type" : "ARG1", "word_id" : 1, "text" : "섬은", "weight" : 0.113313 },
				{"type" : "ARG2", "word_id" : 4, "text" : "모아이로", "weight" : 0.107499 }
			] }
	],
	"relation" : [
	],
	"SA" : [
	],
	"ZA" : [
	]
	}
 ],
 "entity" : [
 ]
}

