{"doc_id" : "E2015.943.036_Q_01",
 "DCT" : "",
 "category" : "",
 "category_weight" : 0,
 "title" : {"text" : "", "NE" : ""},
 "metaInfo" : { },
 "sentence" : [
	{
	"id" : 0,
	"reserve_str" : "",
	"text" : "이 말은 산스크리트어 '크샤나'를 음역한 것이다.",
	"morp" : [
		{"id" : 0, "lemma" : "이", "type" : "MM", "position" : 0, "weight" : 0.0365897 },
		{"id" : 1, "lemma" : "말", "type" : "NNG", "position" : 4, "weight" : 0.0365897 },
		{"id" : 2, "lemma" : "은", "type" : "JX", "position" : 7, "weight" : 0.040388 },
		{"id" : 3, "lemma" : "산스크리트", "type" : "NNG", "position" : 11, "weight" : 0.423596 },
		{"id" : 4, "lemma" : "어", "type" : "XSN", "position" : 26, "weight" : 1 },
		{"id" : 5, "lemma" : "'", "type" : "SS", "position" : 30, "weight" : 0.0365897 },
		{"id" : 6, "lemma" : "크샤나", "type" : "NNG", "position" : 31, "weight" : 0.360464 },
		{"id" : 7, "lemma" : "'", "type" : "SS", "position" : 40, "weight" : 1 },
		{"id" : 8, "lemma" : "를", "type" : "JKO", "position" : 41, "weight" : 1 },
		{"id" : 9, "lemma" : "음역", "type" : "NNG", "position" : 45, "weight" : 0.0384888 },
		{"id" : 10, "lemma" : "하", "type" : "XSV", "position" : 51, "weight" : 0.0410034 },
		{"id" : 11, "lemma" : "ㄴ", "type" : "ETM", "position" : 51, "weight" : 1 },
		{"id" : 12, "lemma" : "것", "type" : "NNB", "position" : 55, "weight" : 0.0365897 },
		{"id" : 13, "lemma" : "이", "type" : "VCP", "position" : 58, "weight" : 0.040388 },
		{"id" : 14, "lemma" : "다", "type" : "EF", "position" : 61, "weight" : 0.0410034 },
		{"id" : 15, "lemma" : ".", "type" : "SF", "position" : 64, "weight" : 1 }
	],
	"morp_eval" : [
	],
	"WSD" : [
	],
	"word" : [
		{"id" : 0, "text" : "이", "type" : "", "begin" : 0, "end" : 0},
		{"id" : 1, "text" : "말은", "type" : "", "begin" : 1, "end" : 2},
		{"id" : 2, "text" : "산스크리트어", "type" : "", "begin" : 3, "end" : 4},
		{"id" : 3, "text" : "'크샤나'를", "type" : "", "begin" : 5, "end" : 8},
		{"id" : 4, "text" : "음역한", "type" : "", "begin" : 9, "end" : 11},
		{"id" : 5, "text" : "것이다.", "type" : "", "begin" : 12, "end" : 15}
	],
	"NE" : [
		{"id" : 0, "text" : "산스크리트어", "type" : "CV_LANGUAGE", "begin" : 3, "end" : 4, "weight" : 0.461312, "common_noun" : 0}
	],
	"chunk" : [
	],
	"dependency" : [
		{"id" : 0, "text" : "이", "head" : 1, "label" : "DP", "mod" : [], "weight" : 0.990641 },
		{"id" : 1, "text" : "말은", "head" : 4, "label" : "NP_SBJ", "mod" : [0], "weight" : 0.861457 },
		{"id" : 2, "text" : "산스크리트어", "head" : 3, "label" : "NP", "mod" : [], "weight" : 0.800524 },
		{"id" : 3, "text" : "'크샤나'를", "head" : 4, "label" : "NP_OBJ", "mod" : [2], "weight" : 0.428056 },
		{"id" : 4, "text" : "음역한", "head" : 5, "label" : "VP_MOD", "mod" : [1, 3], "weight" : 0.548173 },
		{"id" : 5, "text" : "것이다.", "head" : -1, "label" : "VNP", "mod" : [4], "weight" : 0.109868 }
	],
	"SRL" : [
		{"verb" : "음역", "sense" : 1, "word_id" : 4, "weight" : 0.1791,
			"argument" : [
				{"type" : "ARG1", "word_id" : 3, "text" : "'크샤나'를", "weight" : 0.1791 },
				{"type" : "ARG2", "word_id" : 1, "text" : "말은", "weight" : 0 }
			] }
	],
	"relation" : [
	],
	"SA" : [
	],
	"ZA" : [
	]
	},
	{
	"id" : 1,
	"reserve_str" : "",
	"text" : "불교에서의 최소 시간 단위로 1/75, 즉 약 0.013초에 해당하는 시간을 말하는데, 영원한 시간을 뜻하는 '겁'의 반대개념이기도 한 이 단어는 무엇일까?",
	"morp" : [
		{"id" : 0, "lemma" : "불교", "type" : "NNG", "position" : 66, "weight" : 0.0302381 },
		{"id" : 1, "lemma" : "에서", "type" : "JKB", "position" : 72, "weight" : 0.0358315 },
		{"id" : 2, "lemma" : "의", "type" : "JKG", "position" : 78, "weight" : 0.0434692 },
		{"id" : 3, "lemma" : "최소", "type" : "NNG", "position" : 82, "weight" : 0.0302381 },
		{"id" : 4, "lemma" : "시간", "type" : "NNG", "position" : 89, "weight" : 0.0302381 },
		{"id" : 5, "lemma" : "단위", "type" : "NNG", "position" : 96, "weight" : 0.0302381 },
		{"id" : 6, "lemma" : "로", "type" : "JKB", "position" : 102, "weight" : 0.0422373 },
		{"id" : 7, "lemma" : "1", "type" : "SN", "position" : 106, "weight" : 0.035183 },
		{"id" : 8, "lemma" : "/", "type" : "SP", "position" : 107, "weight" : 0.0252932 },
		{"id" : 9, "lemma" : "75", "type" : "SN", "position" : 108, "weight" : 0.0358315 },
		{"id" : 10, "lemma" : ",", "type" : "SP", "position" : 110, "weight" : 0.0434692 },
		{"id" : 11, "lemma" : "즉", "type" : "MAJ", "position" : 112, "weight" : 0.035183 },
		{"id" : 12, "lemma" : "약", "type" : "MM", "position" : 116, "weight" : 0.035183 },
		{"id" : 13, "lemma" : "0.013", "type" : "SN", "position" : 120, "weight" : 0.035183 },
		{"id" : 14, "lemma" : "초", "type" : "NNB", "position" : 125, "weight" : 0.0373489 },
		{"id" : 15, "lemma" : "에", "type" : "JKB", "position" : 128, "weight" : 0.0227972 },
		{"id" : 16, "lemma" : "해당", "type" : "NNG", "position" : 132, "weight" : 0.0302381 },
		{"id" : 17, "lemma" : "하", "type" : "XSV", "position" : 138, "weight" : 0.0422373 },
		{"id" : 18, "lemma" : "는", "type" : "ETM", "position" : 141, "weight" : 0.0294257 },
		{"id" : 19, "lemma" : "시간", "type" : "NNG", "position" : 145, "weight" : 0.0302381 },
		{"id" : 20, "lemma" : "을", "type" : "JKO", "position" : 151, "weight" : 0.0422373 },
		{"id" : 21, "lemma" : "말", "type" : "NNG", "position" : 155, "weight" : 0.035183 },
		{"id" : 22, "lemma" : "하", "type" : "XSV", "position" : 158, "weight" : 0.0252932 },
		{"id" : 23, "lemma" : "는데", "type" : "EC", "position" : 161, "weight" : 0.0358315 },
		{"id" : 24, "lemma" : ",", "type" : "SP", "position" : 167, "weight" : 0.0434692 },
		{"id" : 25, "lemma" : "영원", "type" : "NNG", "position" : 169, "weight" : 0.0302381 },
		{"id" : 26, "lemma" : "하", "type" : "XSA", "position" : 175, "weight" : 0.0422373 },
		{"id" : 27, "lemma" : "ㄴ", "type" : "ETM", "position" : 175, "weight" : 0.0294257 },
		{"id" : 28, "lemma" : "시간", "type" : "NNG", "position" : 179, "weight" : 0.0302381 },
		{"id" : 29, "lemma" : "을", "type" : "JKO", "position" : 185, "weight" : 0.0422373 },
		{"id" : 30, "lemma" : "뜻하", "type" : "VV", "position" : 189, "weight" : 0.0302381 },
		{"id" : 31, "lemma" : "는", "type" : "ETM", "position" : 195, "weight" : 0.0422373 },
		{"id" : 32, "lemma" : "'", "type" : "SS", "position" : 199, "weight" : 0.035183 },
		{"id" : 33, "lemma" : "겁", "type" : "NNG", "position" : 200, "weight" : 0.0252932 },
		{"id" : 34, "lemma" : "'", "type" : "SS", "position" : 203, "weight" : 0.0422373 },
		{"id" : 35, "lemma" : "의", "type" : "JKG", "position" : 204, "weight" : 0.0294257 },
		{"id" : 36, "lemma" : "반대", "type" : "NNG", "position" : 208, "weight" : 0.0302381 },
		{"id" : 37, "lemma" : "개념", "type" : "NNG", "position" : 214, "weight" : 0.0358315 },
		{"id" : 38, "lemma" : "이", "type" : "VCP", "position" : 220, "weight" : 0.0434692 },
		{"id" : 39, "lemma" : "기", "type" : "ETN", "position" : 223, "weight" : 0.0373489 },
		{"id" : 40, "lemma" : "도", "type" : "JX", "position" : 226, "weight" : 0.0227972 },
		{"id" : 41, "lemma" : "하", "type" : "VV", "position" : 230, "weight" : 0.035183 },
		{"id" : 42, "lemma" : "ㄴ", "type" : "ETM", "position" : 230, "weight" : 0.035183 },
		{"id" : 43, "lemma" : "이", "type" : "MM", "position" : 234, "weight" : 0.035183 },
		{"id" : 44, "lemma" : "단어", "type" : "NNG", "position" : 238, "weight" : 0.0302381 },
		{"id" : 45, "lemma" : "는", "type" : "JX", "position" : 244, "weight" : 0.0422373 },
		{"id" : 46, "lemma" : "무엇", "type" : "NP", "position" : 248, "weight" : 0.0302381 },
		{"id" : 47, "lemma" : "이", "type" : "VCP", "position" : 254, "weight" : 0.0422373 },
		{"id" : 48, "lemma" : "ㄹ까", "type" : "EF", "position" : 254, "weight" : 0.0364474 },
		{"id" : 49, "lemma" : "?", "type" : "SF", "position" : 260, "weight" : 0.0373489 }
	],
	"morp_eval" : [
	],
	"WSD" : [
	],
	"word" : [
		{"id" : 0, "text" : "불교에서의", "type" : "", "begin" : 0, "end" : 2},
		{"id" : 1, "text" : "최소", "type" : "", "begin" : 3, "end" : 3},
		{"id" : 2, "text" : "시간", "type" : "", "begin" : 4, "end" : 4},
		{"id" : 3, "text" : "단위로", "type" : "", "begin" : 5, "end" : 6},
		{"id" : 4, "text" : "1/75,", "type" : "", "begin" : 7, "end" : 10},
		{"id" : 5, "text" : "즉", "type" : "", "begin" : 11, "end" : 11},
		{"id" : 6, "text" : "약", "type" : "", "begin" : 12, "end" : 12},
		{"id" : 7, "text" : "0.013초에", "type" : "", "begin" : 13, "end" : 15},
		{"id" : 8, "text" : "해당하는", "type" : "", "begin" : 16, "end" : 18},
		{"id" : 9, "text" : "시간을", "type" : "", "begin" : 19, "end" : 20},
		{"id" : 10, "text" : "말하는데,", "type" : "", "begin" : 21, "end" : 24},
		{"id" : 11, "text" : "영원한", "type" : "", "begin" : 25, "end" : 27},
		{"id" : 12, "text" : "시간을", "type" : "", "begin" : 28, "end" : 29},
		{"id" : 13, "text" : "뜻하는", "type" : "", "begin" : 30, "end" : 31},
		{"id" : 14, "text" : "'겁'의", "type" : "", "begin" : 32, "end" : 35},
		{"id" : 15, "text" : "반대개념이기도", "type" : "", "begin" : 36, "end" : 40},
		{"id" : 16, "text" : "한", "type" : "", "begin" : 41, "end" : 42},
		{"id" : 17, "text" : "이", "type" : "", "begin" : 43, "end" : 43},
		{"id" : 18, "text" : "단어는", "type" : "", "begin" : 44, "end" : 45},
		{"id" : 19, "text" : "무엇일까?", "type" : "", "begin" : 46, "end" : 49}
	],
	"NE" : [
		{"id" : 0, "text" : "불교", "type" : "OGG_RELIGION", "begin" : 0, "end" : 0, "weight" : 0.444721, "common_noun" : 0},
		{"id" : 1, "text" : "1/75", "type" : "QT_PERCENTAGE", "begin" : 7, "end" : 9, "weight" : 0.308289, "common_noun" : 0},
		{"id" : 2, "text" : "약 0.013초", "type" : "TI_SECOND", "begin" : 12, "end" : 14, "weight" : 0.375439, "common_noun" : 0}
	],
	"chunk" : [
	],
	"dependency" : [
		{"id" : 0, "text" : "불교에서의", "head" : 3, "label" : "NP_MOD", "mod" : [], "weight" : 0.961795 },
		{"id" : 1, "text" : "최소", "head" : 2, "label" : "NP", "mod" : [], "weight" : 0.610189 },
		{"id" : 2, "text" : "시간", "head" : 3, "label" : "NP", "mod" : [1], "weight" : 0.917719 },
		{"id" : 3, "text" : "단위로", "head" : 9, "label" : "NP_AJT", "mod" : [0, 2], "weight" : 0.903696 },
		{"id" : 4, "text" : "1/75,", "head" : 7, "label" : "NP", "mod" : [], "weight" : 0.644714 },
		{"id" : 5, "text" : "즉", "head" : 7, "label" : "AP", "mod" : [], "weight" : 0.531874 },
		{"id" : 6, "text" : "약", "head" : 7, "label" : "DP", "mod" : [], "weight" : 0.883805 },
		{"id" : 7, "text" : "0.013초에", "head" : 8, "label" : "NP_AJT", "mod" : [4, 5, 6], "weight" : 0.566721 },
		{"id" : 8, "text" : "해당하는", "head" : 9, "label" : "VP_MOD", "mod" : [7], "weight" : 0.867076 },
		{"id" : 9, "text" : "시간을", "head" : 10, "label" : "NP_OBJ", "mod" : [3, 8], "weight" : 0.957769 },
		{"id" : 10, "text" : "말하는데,", "head" : 16, "label" : "VP", "mod" : [9], "weight" : 0.999481 },
		{"id" : 11, "text" : "영원한", "head" : 12, "label" : "VP_MOD", "mod" : [], "weight" : 0.755226 },
		{"id" : 12, "text" : "시간을", "head" : 13, "label" : "NP_OBJ", "mod" : [11], "weight" : 0.741189 },
		{"id" : 13, "text" : "뜻하는", "head" : 14, "label" : "VP_MOD", "mod" : [12], "weight" : 0.568905 },
		{"id" : 14, "text" : "'겁'의", "head" : 15, "label" : "NP_MOD", "mod" : [13], "weight" : 0.990145 },
		{"id" : 15, "text" : "반대개념이기도", "head" : 16, "label" : "VNP", "mod" : [14], "weight" : 0.784186 },
		{"id" : 16, "text" : "한", "head" : 18, "label" : "VP_MOD", "mod" : [10, 15], "weight" : 0.689471 },
		{"id" : 17, "text" : "이", "head" : 18, "label" : "DP", "mod" : [], "weight" : 0.856333 },
		{"id" : 18, "text" : "단어는", "head" : 19, "label" : "NP_SBJ", "mod" : [16, 17], "weight" : 0.668082 },
		{"id" : 19, "text" : "무엇일까?", "head" : -1, "label" : "VNP", "mod" : [18], "weight" : 0.529993 }
	],
	"SRL" : [
		{"verb" : "해당", "sense" : 1, "word_id" : 8, "weight" : 0.919817,
			"argument" : [
				{"type" : "ARG2", "word_id" : 7, "text" : "0.013초에", "weight" : 0.919817 },
				{"type" : "ARG1", "word_id" : 9, "text" : "시간을", "weight" : 0 }
			] },
		{"verb" : "말하", "sense" : 1, "word_id" : 10, "weight" : 0.208033,
			"argument" : [
				{"type" : "ARG1", "word_id" : 9, "text" : "시간을", "weight" : 0.208033 }
			] },
		{"verb" : "영원", "sense" : 1, "word_id" : 11, "weight" : 0.196401,
			"argument" : [
				{"type" : "ARG1", "word_id" : 12, "text" : "시간을", "weight" : 0.196401 }
			] },
		{"verb" : "뜻하", "sense" : 1, "word_id" : 13, "weight" : 0.169748,
			"argument" : [
				{"type" : "ARG2", "word_id" : 12, "text" : "시간을", "weight" : 0.214172 },
				{"type" : "ARG1", "word_id" : 14, "text" : "'겁'의", "weight" : 0.125325 }
			] }
	],
	"relation" : [
	],
	"SA" : [
	],
	"ZA" : [
	]
	}
 ],
 "entity" : [
 ]
}

