{"doc_id" : "E2014.173_A_02",
 "DCT" : "",
 "category" : "",
 "category_weight" : 0,
 "title" : {"text" : "", "NE" : ""},
 "metaInfo" : { },
 "sentence" : [
	{
	"id" : 2,
	"reserve_str" : "",
	"text" : "   태양에서 넷째로 가까운 행성.",
	"morp" : [
		{"id" : 0, "lemma" : "태양", "type" : "NNP", "position" : 238, "weight" : 0.0252433 },
		{"id" : 1, "lemma" : "에서", "type" : "JKB", "position" : 244, "weight" : 0.0371835 },
		{"id" : 2, "lemma" : "넷째", "type" : "NR", "position" : 251, "weight" : 0.0252433 },
		{"id" : 3, "lemma" : "로", "type" : "JKB", "position" : 257, "weight" : 0.0437964 },
		{"id" : 4, "lemma" : "가깝", "type" : "VA", "position" : 261, "weight" : 0.0252433 },
		{"id" : 5, "lemma" : "ㄴ", "type" : "ETM", "position" : 264, "weight" : 0.0437964 },
		{"id" : 6, "lemma" : "행성", "type" : "NNG", "position" : 271, "weight" : 0.0252433 },
		{"id" : 7, "lemma" : ".", "type" : "SF", "position" : 277, "weight" : 0.0437964 }
	],
	"morp_eval" : [
	],
	"WSD" : [
	],
	"word" : [
		{"id" : 0, "text" : "태양에서", "type" : "", "begin" : 0, "end" : 1},
		{"id" : 1, "text" : "넷째로", "type" : "", "begin" : 2, "end" : 3},
		{"id" : 2, "text" : "가까운", "type" : "", "begin" : 4, "end" : 5},
		{"id" : 3, "text" : "행성.", "type" : "", "begin" : 6, "end" : 7}
	],
	"NE" : [
		{"id" : 0, "text" : "태양", "type" : "LC_SPACE", "begin" : 0, "end" : 0, "weight" : 0.42243, "common_noun" : 0},
		{"id" : 1, "text" : "넷째", "type" : "QT_ORDER", "begin" : 2, "end" : 2, "weight" : 0.379564, "common_noun" : 0}
	],
	"chunk" : [
	],
	"dependency" : [
		{"id" : 0, "text" : "태양에서", "head" : 2, "label" : "NP_AJT", "mod" : [], "weight" : 0.623953 },
		{"id" : 1, "text" : "넷째로", "head" : 2, "label" : "NP_AJT", "mod" : [], "weight" : 0.736296 },
		{"id" : 2, "text" : "가까운", "head" : 3, "label" : "VP_MOD", "mod" : [0, 1], "weight" : 0.499316 },
		{"id" : 3, "text" : "행성.", "head" : -1, "label" : "NP", "mod" : [2], "weight" : 0.136014 }
	],
	"SRL" : [
		{"verb" : "가깝", "sense" : 1, "word_id" : 2, "weight" : 0.917396,
			"argument" : [
				{"type" : "ARG2", "word_id" : 0, "text" : "태양에서", "weight" : 0.611845 },
				{"type" : "ARGM-PRD", "word_id" : 1, "text" : "넷째로", "weight" : 0.909061 },
				{"type" : "ARG1", "word_id" : 3, "text" : "행성.", "weight" : 0.123128 }
			] }
	],
	"relation" : [
	],
	"SA" : [
	],
	"ZA" : [
	]
	},
	{
	"id" : 3,
	"reserve_str" : "",
	"text" : " 공전 주기는 1.88년, 자전 주기는 24시간 37분 23초, 지름은 지구의 0.532배, 질량은 지구의 0.1074배이다.",
	"morp" : [
		{"id" : 0, "lemma" : "공전", "type" : "NNG", "position" : 279, "weight" : 0.0358994 },
		{"id" : 1, "lemma" : "주기", "type" : "NNG", "position" : 286, "weight" : 0.0358994 },
		{"id" : 2, "lemma" : "는", "type" : "JX", "position" : 292, "weight" : 0.0179629 },
		{"id" : 3, "lemma" : "1.88", "type" : "SN", "position" : 296, "weight" : 0.0475704 },
		{"id" : 4, "lemma" : "년", "type" : "NNB", "position" : 300, "weight" : 0.0428355 },
		{"id" : 5, "lemma" : ",", "type" : "SP", "position" : 303, "weight" : 1 },
		{"id" : 6, "lemma" : "자전", "type" : "NNG", "position" : 305, "weight" : 0.0358994 },
		{"id" : 7, "lemma" : "주기", "type" : "NNG", "position" : 312, "weight" : 0.0358994 },
		{"id" : 8, "lemma" : "는", "type" : "JX", "position" : 318, "weight" : 0.0179629 },
		{"id" : 9, "lemma" : "24", "type" : "SN", "position" : 322, "weight" : 0.0358994 },
		{"id" : 10, "lemma" : "시간", "type" : "NNB", "position" : 324, "weight" : 0.0148059 },
		{"id" : 11, "lemma" : "37", "type" : "SN", "position" : 331, "weight" : 0.0358994 },
		{"id" : 12, "lemma" : "분", "type" : "NNB", "position" : 333, "weight" : 0.0179629 },
		{"id" : 13, "lemma" : "23", "type" : "SN", "position" : 337, "weight" : 0.0358994 },
		{"id" : 14, "lemma" : "초", "type" : "NNB", "position" : 339, "weight" : 0.0179629 },
		{"id" : 15, "lemma" : ",", "type" : "SP", "position" : 342, "weight" : 0.011649 },
		{"id" : 16, "lemma" : "지름", "type" : "NNG", "position" : 344, "weight" : 0.0358994 },
		{"id" : 17, "lemma" : "은", "type" : "JX", "position" : 350, "weight" : 0.0179629 },
		{"id" : 18, "lemma" : "지구", "type" : "NNG", "position" : 354, "weight" : 0.0358994 },
		{"id" : 19, "lemma" : "의", "type" : "JKG", "position" : 360, "weight" : 0.0179629 },
		{"id" : 20, "lemma" : "0.532", "type" : "SN", "position" : 364, "weight" : 0.0475704 },
		{"id" : 21, "lemma" : "배", "type" : "NNG", "position" : 369, "weight" : 1 },
		{"id" : 22, "lemma" : ",", "type" : "SP", "position" : 372, "weight" : 1 },
		{"id" : 23, "lemma" : "질량", "type" : "NNG", "position" : 374, "weight" : 0.0358994 },
		{"id" : 24, "lemma" : "은", "type" : "JX", "position" : 380, "weight" : 0.0179629 },
		{"id" : 25, "lemma" : "지구", "type" : "NNG", "position" : 384, "weight" : 0.0358994 },
		{"id" : 26, "lemma" : "의", "type" : "JKG", "position" : 390, "weight" : 0.0179629 },
		{"id" : 27, "lemma" : "0.1074", "type" : "SN", "position" : 394, "weight" : 0.0475704 },
		{"id" : 28, "lemma" : "배", "type" : "NNG", "position" : 400, "weight" : 1 },
		{"id" : 29, "lemma" : "이", "type" : "VCP", "position" : 403, "weight" : 1 },
		{"id" : 30, "lemma" : "다", "type" : "EF", "position" : 406, "weight" : 1 },
		{"id" : 31, "lemma" : ".", "type" : "SF", "position" : 409, "weight" : 0.0404894 }
	],
	"morp_eval" : [
	],
	"WSD" : [
	],
	"word" : [
		{"id" : 0, "text" : "공전", "type" : "", "begin" : 0, "end" : 0},
		{"id" : 1, "text" : "주기는", "type" : "", "begin" : 1, "end" : 2},
		{"id" : 2, "text" : "1.88년,", "type" : "", "begin" : 3, "end" : 5},
		{"id" : 3, "text" : "자전", "type" : "", "begin" : 6, "end" : 6},
		{"id" : 4, "text" : "주기는", "type" : "", "begin" : 7, "end" : 8},
		{"id" : 5, "text" : "24시간", "type" : "", "begin" : 9, "end" : 10},
		{"id" : 6, "text" : "37분", "type" : "", "begin" : 11, "end" : 12},
		{"id" : 7, "text" : "23초,", "type" : "", "begin" : 13, "end" : 15},
		{"id" : 8, "text" : "지름은", "type" : "", "begin" : 16, "end" : 17},
		{"id" : 9, "text" : "지구의", "type" : "", "begin" : 18, "end" : 19},
		{"id" : 10, "text" : "0.532배,", "type" : "", "begin" : 20, "end" : 22},
		{"id" : 11, "text" : "질량은", "type" : "", "begin" : 23, "end" : 24},
		{"id" : 12, "text" : "지구의", "type" : "", "begin" : 25, "end" : 26},
		{"id" : 13, "text" : "0.1074배이다.", "type" : "", "begin" : 27, "end" : 31}
	],
	"NE" : [
		{"id" : 0, "text" : "1.88년", "type" : "DT_DURATION", "begin" : 3, "end" : 4, "weight" : 0.193688, "common_noun" : 0},
		{"id" : 1, "text" : "24시간 37분 23초", "type" : "TI_DURATION", "begin" : 9, "end" : 14, "weight" : 0.422101, "common_noun" : 0},
		{"id" : 2, "text" : "지구", "type" : "LC_SPACE", "begin" : 18, "end" : 18, "weight" : 0.173458, "common_noun" : 0},
		{"id" : 3, "text" : "0.532배", "type" : "QT_PERCENTAGE", "begin" : 20, "end" : 21, "weight" : 0.585745, "common_noun" : 0},
		{"id" : 4, "text" : "지구", "type" : "LC_SPACE", "begin" : 25, "end" : 25, "weight" : 0.156079, "common_noun" : 0},
		{"id" : 5, "text" : "0.1074배", "type" : "QT_PERCENTAGE", "begin" : 27, "end" : 28, "weight" : 0.636252, "common_noun" : 0}
	],
	"chunk" : [
	],
	"dependency" : [
		{"id" : 0, "text" : "공전", "head" : 1, "label" : "NP", "mod" : [], "weight" : 0.752931 },
		{"id" : 1, "text" : "주기는", "head" : 2, "label" : "NP_SBJ", "mod" : [0], "weight" : 0.558821 },
		{"id" : 2, "text" : "1.88년,", "head" : 13, "label" : "NP_CNJ", "mod" : [1], "weight" : 0.762619 },
		{"id" : 3, "text" : "자전", "head" : 4, "label" : "NP", "mod" : [], "weight" : 0.844818 },
		{"id" : 4, "text" : "주기는", "head" : 7, "label" : "NP_SBJ", "mod" : [3], "weight" : 0.528829 },
		{"id" : 5, "text" : "24시간", "head" : 6, "label" : "NP", "mod" : [], "weight" : 0.675573 },
		{"id" : 6, "text" : "37분", "head" : 7, "label" : "NP", "mod" : [5], "weight" : 0.754407 },
		{"id" : 7, "text" : "23초,", "head" : 13, "label" : "NP_CNJ", "mod" : [4, 6], "weight" : 0.533034 },
		{"id" : 8, "text" : "지름은", "head" : 10, "label" : "NP_SBJ", "mod" : [], "weight" : 0.629591 },
		{"id" : 9, "text" : "지구의", "head" : 10, "label" : "NP_MOD", "mod" : [], "weight" : 0.898282 },
		{"id" : 10, "text" : "0.532배,", "head" : 13, "label" : "NP_CNJ", "mod" : [8, 9], "weight" : 0.409847 },
		{"id" : 11, "text" : "질량은", "head" : 13, "label" : "NP_SBJ", "mod" : [], "weight" : 0.614756 },
		{"id" : 12, "text" : "지구의", "head" : 13, "label" : "NP_MOD", "mod" : [], "weight" : 0.44426 },
		{"id" : 13, "text" : "0.1074배이다.", "head" : -1, "label" : "VNP", "mod" : [2, 7, 10, 11, 12], "weight" : 0.177506 }
	],
	"SRL" : [
	],
	"relation" : [
	],
	"SA" : [
	],
	"ZA" : [
	]
	}
 ],
 "entity" : [
 ]
}

