{"doc_id" : "E2014.160_Q_01",
 "DCT" : "",
 "category" : "",
 "category_weight" : 0,
 "title" : {"text" : "", "NE" : ""},
 "metaInfo" : { },
 "sentence" : [
	{
	"id" : 0,
	"reserve_str" : "",
	"text" : "지구 대기로 진입한 우주 공간의 유성체가 대기를 통과하며 다 타지 않고 땅에 떨어진 것",
	"morp" : [
		{"id" : 0, "lemma" : "지구", "type" : "NNG", "position" : 0, "weight" : 0.0277119 },
		{"id" : 1, "lemma" : "대기", "type" : "NNG", "position" : 7, "weight" : 0.0277119 },
		{"id" : 2, "lemma" : "로", "type" : "JKB", "position" : 13, "weight" : 0.0152777 },
		{"id" : 3, "lemma" : "진입", "type" : "NNG", "position" : 17, "weight" : 0.0277119 },
		{"id" : 4, "lemma" : "하", "type" : "XSV", "position" : 23, "weight" : 0.0152777 },
		{"id" : 5, "lemma" : "ㄴ", "type" : "ETM", "position" : 23, "weight" : 0.0190815 },
		{"id" : 6, "lemma" : "우주", "type" : "NNG", "position" : 27, "weight" : 0.0277119 },
		{"id" : 7, "lemma" : "공간", "type" : "NNG", "position" : 34, "weight" : 0.0277119 },
		{"id" : 8, "lemma" : "의", "type" : "JKG", "position" : 40, "weight" : 0.0152777 },
		{"id" : 9, "lemma" : "유성", "type" : "NNG", "position" : 44, "weight" : 0.0235672 },
		{"id" : 10, "lemma" : "체", "type" : "XSN", "position" : 44, "weight" : 0.0235672 },
		{"id" : 11, "lemma" : "가", "type" : "JKS", "position" : 53, "weight" : 0.0190815 },
		{"id" : 12, "lemma" : "대기", "type" : "NNG", "position" : 57, "weight" : 0.0277119 },
		{"id" : 13, "lemma" : "를", "type" : "JKO", "position" : 63, "weight" : 0.0152777 },
		{"id" : 14, "lemma" : "통과", "type" : "NNG", "position" : 67, "weight" : 0.0277119 },
		{"id" : 15, "lemma" : "하", "type" : "XSV", "position" : 73, "weight" : 0.0152777 },
		{"id" : 16, "lemma" : "며", "type" : "EC", "position" : 76, "weight" : 0.0190815 },
		{"id" : 17, "lemma" : "다", "type" : "MAG", "position" : 80, "weight" : 0.0433654 },
		{"id" : 18, "lemma" : "타", "type" : "VV", "position" : 84, "weight" : 0.0433654 },
		{"id" : 19, "lemma" : "지", "type" : "EC", "position" : 87, "weight" : 0.0120584 },
		{"id" : 20, "lemma" : "않", "type" : "VX", "position" : 91, "weight" : 0.0433654 },
		{"id" : 21, "lemma" : "고", "type" : "EC", "position" : 94, "weight" : 0.0120584 },
		{"id" : 22, "lemma" : "땅", "type" : "NNG", "position" : 98, "weight" : 0.0433654 },
		{"id" : 23, "lemma" : "에", "type" : "JKB", "position" : 101, "weight" : 0.0120584 },
		{"id" : 24, "lemma" : "떨어지", "type" : "VV", "position" : 105, "weight" : 0.0235672 },
		{"id" : 25, "lemma" : "ㄴ", "type" : "ETM", "position" : 111, "weight" : 0.0190815 },
		{"id" : 26, "lemma" : "것", "type" : "NNB", "position" : 115, "weight" : 0.0433654 }
	],
	"morp_eval" : [
	],
	"WSD" : [
	],
	"word" : [
		{"id" : 0, "text" : "지구", "type" : "", "begin" : 0, "end" : 0},
		{"id" : 1, "text" : "대기로", "type" : "", "begin" : 1, "end" : 2},
		{"id" : 2, "text" : "진입한", "type" : "", "begin" : 3, "end" : 5},
		{"id" : 3, "text" : "우주", "type" : "", "begin" : 6, "end" : 6},
		{"id" : 4, "text" : "공간의", "type" : "", "begin" : 7, "end" : 8},
		{"id" : 5, "text" : "유성체가", "type" : "", "begin" : 9, "end" : 11},
		{"id" : 6, "text" : "대기를", "type" : "", "begin" : 12, "end" : 13},
		{"id" : 7, "text" : "통과하며", "type" : "", "begin" : 14, "end" : 16},
		{"id" : 8, "text" : "다", "type" : "", "begin" : 17, "end" : 17},
		{"id" : 9, "text" : "타지", "type" : "", "begin" : 18, "end" : 19},
		{"id" : 10, "text" : "않고", "type" : "", "begin" : 20, "end" : 21},
		{"id" : 11, "text" : "땅에", "type" : "", "begin" : 22, "end" : 23},
		{"id" : 12, "text" : "떨어진", "type" : "", "begin" : 24, "end" : 25},
		{"id" : 13, "text" : "것", "type" : "", "begin" : 26, "end" : 26}
	],
	"NE" : [
		{"id" : 0, "text" : "지구", "type" : "LC_SPACE", "begin" : 0, "end" : 0, "weight" : 0.147868, "common_noun" : 0},
		{"id" : 1, "text" : "우주", "type" : "LC_SPACE", "begin" : 6, "end" : 6, "weight" : 0.224388, "common_noun" : 0}
	],
	"chunk" : [
	],
	"dependency" : [
		{"id" : 0, "text" : "지구", "head" : 1, "label" : "NP", "mod" : [], "weight" : 0.670447 },
		{"id" : 1, "text" : "대기로", "head" : 2, "label" : "NP_AJT", "mod" : [0], "weight" : 0.71234 },
		{"id" : 2, "text" : "진입한", "head" : 5, "label" : "VP_MOD", "mod" : [1], "weight" : 0.705523 },
		{"id" : 3, "text" : "우주", "head" : 4, "label" : "NP", "mod" : [], "weight" : 0.80094 },
		{"id" : 4, "text" : "공간의", "head" : 5, "label" : "NP_MOD", "mod" : [3], "weight" : 0.872027 },
		{"id" : 5, "text" : "유성체가", "head" : 7, "label" : "NP_SBJ", "mod" : [2, 4], "weight" : 0.872342 },
		{"id" : 6, "text" : "대기를", "head" : 7, "label" : "NP_OBJ", "mod" : [], "weight" : 0.790581 },
		{"id" : 7, "text" : "통과하며", "head" : 9, "label" : "VP", "mod" : [5, 6], "weight" : 0.803131 },
		{"id" : 8, "text" : "다", "head" : 9, "label" : "AP", "mod" : [], "weight" : 0.803953 },
		{"id" : 9, "text" : "타지", "head" : 10, "label" : "VP", "mod" : [7, 8], "weight" : 0.856738 },
		{"id" : 10, "text" : "않고", "head" : 12, "label" : "VP", "mod" : [9], "weight" : 0.556037 },
		{"id" : 11, "text" : "땅에", "head" : 12, "label" : "NP_AJT", "mod" : [], "weight" : 0.842415 },
		{"id" : 12, "text" : "떨어진", "head" : 13, "label" : "VP_MOD", "mod" : [10, 11], "weight" : 0.557981 },
		{"id" : 13, "text" : "것", "head" : -1, "label" : "NP", "mod" : [12], "weight" : 0.142035 }
	],
	"SRL" : [
		{"verb" : "진입", "sense" : 1, "word_id" : 2, "weight" : 0.930725,
			"argument" : [
				{"type" : "ARG1", "word_id" : 1, "text" : "대기로", "weight" : 0.587071 },
				{"type" : "ARG0", "word_id" : 5, "text" : "유성체가", "weight" : 0.127438 }
			] },
		{"verb" : "통과", "sense" : 1, "word_id" : 7, "weight" : 0.111838,
			"argument" : [
				{"type" : "ARG0", "word_id" : 5, "text" : "유성체가", "weight" : 0.109703 },
				{"type" : "ARG1", "word_id" : 6, "text" : "대기를", "weight" : 0.113972 }
			] },
		{"verb" : "타", "sense" : 3, "word_id" : 9, "weight" : 0.203899,
			"argument" : [
				{"type" : "ARGM-EXT", "word_id" : 8, "text" : "다", "weight" : 0.736607 },
				{"type" : "ARGM-NEG", "word_id" : 10, "text" : "않고", "weight" : 0.334138 },
				{"type" : "ARG1", "word_id" : 5, "text" : "유성체가", "weight" : 1 }
			] },
		{"verb" : "떨어지", "sense" : 1, "word_id" : 12, "weight" : 0.883469,
			"argument" : [
				{"type" : "ARG3", "word_id" : 11, "text" : "땅에", "weight" : 0.883469 },
				{"type" : "ARG1", "word_id" : 13, "text" : "것", "weight" : 0 }
			] }
	],
	"relation" : [
	],
	"SA" : [
	],
	"ZA" : [
	]
	}
 ],
 "entity" : [
 ]
}

