{"doc_id" : "E2015.943.018_A_05",
 "DCT" : "",
 "category" : "",
 "category_weight" : 0,
 "title" : {"text" : "", "NE" : ""},
 "metaInfo" : { },
 "sentence" : [
	{
	"id" : 0,
	"reserve_str" : "",
	"text" : "취재대상이 기자들을 상대로 보도 자제를 요청하거나 기자실에서 기자들 사이 합의에 따라 일정 시점까지 보도를 자제하지 않겠다는 약속.",
	"morp" : [
		{"id" : 0, "lemma" : "취재", "type" : "NNG", "position" : 0, "weight" : 1 },
		{"id" : 1, "lemma" : "대상", "type" : "NNG", "position" : 6, "weight" : 1 },
		{"id" : 2, "lemma" : "이", "type" : "JKS", "position" : 12, "weight" : 0.0344208 },
		{"id" : 3, "lemma" : "기자", "type" : "NNG", "position" : 16, "weight" : 1 },
		{"id" : 4, "lemma" : "들", "type" : "XSN", "position" : 22, "weight" : 1 },
		{"id" : 5, "lemma" : "을", "type" : "JKO", "position" : 25, "weight" : 1 },
		{"id" : 6, "lemma" : "상대", "type" : "NNG", "position" : 29, "weight" : 1 },
		{"id" : 7, "lemma" : "로", "type" : "JKB", "position" : 35, "weight" : 1 },
		{"id" : 8, "lemma" : "보도", "type" : "NNG", "position" : 39, "weight" : 1 },
		{"id" : 9, "lemma" : "자제", "type" : "NNG", "position" : 46, "weight" : 1 },
		{"id" : 10, "lemma" : "를", "type" : "JKO", "position" : 52, "weight" : 1 },
		{"id" : 11, "lemma" : "요청", "type" : "NNG", "position" : 56, "weight" : 1 },
		{"id" : 12, "lemma" : "하", "type" : "XSV", "position" : 62, "weight" : 1 },
		{"id" : 13, "lemma" : "거나", "type" : "EC", "position" : 65, "weight" : 0.51721 },
		{"id" : 14, "lemma" : "기자", "type" : "NNG", "position" : 72, "weight" : 1 },
		{"id" : 15, "lemma" : "실", "type" : "XSN", "position" : 78, "weight" : 1 },
		{"id" : 16, "lemma" : "에서", "type" : "JKB", "position" : 81, "weight" : 0.51721 },
		{"id" : 17, "lemma" : "기자", "type" : "NNG", "position" : 88, "weight" : 1 },
		{"id" : 18, "lemma" : "들", "type" : "XSN", "position" : 94, "weight" : 1 },
		{"id" : 19, "lemma" : "사이", "type" : "NNG", "position" : 98, "weight" : 1 },
		{"id" : 20, "lemma" : "합의", "type" : "NNG", "position" : 105, "weight" : 1 },
		{"id" : 21, "lemma" : "에", "type" : "JKB", "position" : 111, "weight" : 1 },
		{"id" : 22, "lemma" : "따르", "type" : "VV", "position" : 115, "weight" : 1 },
		{"id" : 23, "lemma" : "아", "type" : "EC", "position" : 118, "weight" : 1 },
		{"id" : 24, "lemma" : "일정", "type" : "NNG", "position" : 122, "weight" : 1 },
		{"id" : 25, "lemma" : "시점", "type" : "NNG", "position" : 129, "weight" : 1 },
		{"id" : 26, "lemma" : "까지", "type" : "JX", "position" : 135, "weight" : 1 },
		{"id" : 27, "lemma" : "보도", "type" : "NNG", "position" : 142, "weight" : 1 },
		{"id" : 28, "lemma" : "를", "type" : "JKO", "position" : 148, "weight" : 1 },
		{"id" : 29, "lemma" : "자제", "type" : "NNG", "position" : 152, "weight" : 1 },
		{"id" : 30, "lemma" : "하", "type" : "XSV", "position" : 158, "weight" : 1 },
		{"id" : 31, "lemma" : "지", "type" : "EC", "position" : 161, "weight" : 1 },
		{"id" : 32, "lemma" : "않", "type" : "VX", "position" : 165, "weight" : 1 },
		{"id" : 33, "lemma" : "겠", "type" : "EP", "position" : 168, "weight" : 1 },
		{"id" : 34, "lemma" : "다는", "type" : "ETM", "position" : 171, "weight" : 1 },
		{"id" : 35, "lemma" : "약속", "type" : "NNG", "position" : 178, "weight" : 1 },
		{"id" : 36, "lemma" : ".", "type" : "SF", "position" : 184, "weight" : 1 }
	],
	"morp_eval" : [
	],
	"WSD" : [
	],
	"word" : [
		{"id" : 0, "text" : "취재대상이", "type" : "", "begin" : 0, "end" : 2},
		{"id" : 1, "text" : "기자들을", "type" : "", "begin" : 3, "end" : 5},
		{"id" : 2, "text" : "상대로", "type" : "", "begin" : 6, "end" : 7},
		{"id" : 3, "text" : "보도", "type" : "", "begin" : 8, "end" : 8},
		{"id" : 4, "text" : "자제를", "type" : "", "begin" : 9, "end" : 10},
		{"id" : 5, "text" : "요청하거나", "type" : "", "begin" : 11, "end" : 13},
		{"id" : 6, "text" : "기자실에서", "type" : "", "begin" : 14, "end" : 16},
		{"id" : 7, "text" : "기자들", "type" : "", "begin" : 17, "end" : 18},
		{"id" : 8, "text" : "사이", "type" : "", "begin" : 19, "end" : 19},
		{"id" : 9, "text" : "합의에", "type" : "", "begin" : 20, "end" : 21},
		{"id" : 10, "text" : "따라", "type" : "", "begin" : 22, "end" : 23},
		{"id" : 11, "text" : "일정", "type" : "", "begin" : 24, "end" : 24},
		{"id" : 12, "text" : "시점까지", "type" : "", "begin" : 25, "end" : 26},
		{"id" : 13, "text" : "보도를", "type" : "", "begin" : 27, "end" : 28},
		{"id" : 14, "text" : "자제하지", "type" : "", "begin" : 29, "end" : 31},
		{"id" : 15, "text" : "않겠다는", "type" : "", "begin" : 32, "end" : 34},
		{"id" : 16, "text" : "약속.", "type" : "", "begin" : 35, "end" : 36}
	],
	"NE" : [
		{"id" : 0, "text" : "기자", "type" : "CV_OCCUPATION", "begin" : 3, "end" : 3, "weight" : 0.646743, "common_noun" : 0},
		{"id" : 1, "text" : "기자", "type" : "CV_OCCUPATION", "begin" : 14, "end" : 14, "weight" : 0.502814, "common_noun" : 0},
		{"id" : 2, "text" : "기자", "type" : "CV_OCCUPATION", "begin" : 17, "end" : 17, "weight" : 0.540364, "common_noun" : 0}
	],
	"chunk" : [
	],
	"dependency" : [
		{"id" : 0, "text" : "취재대상이", "head" : 5, "label" : "NP_SBJ", "mod" : [], "weight" : 0.832584 },
		{"id" : 1, "text" : "기자들을", "head" : 2, "label" : "NP_OBJ", "mod" : [], "weight" : 0.623468 },
		{"id" : 2, "text" : "상대로", "head" : 5, "label" : "NP_AJT", "mod" : [1], "weight" : 0.755147 },
		{"id" : 3, "text" : "보도", "head" : 4, "label" : "NP", "mod" : [], "weight" : 0.727813 },
		{"id" : 4, "text" : "자제를", "head" : 5, "label" : "NP_OBJ", "mod" : [3], "weight" : 0.989879 },
		{"id" : 5, "text" : "요청하거나", "head" : 14, "label" : "VP", "mod" : [0, 2, 4], "weight" : 0.813423 },
		{"id" : 6, "text" : "기자실에서", "head" : 14, "label" : "NP_AJT", "mod" : [], "weight" : 0.649568 },
		{"id" : 7, "text" : "기자들", "head" : 8, "label" : "NP", "mod" : [], "weight" : 0.519424 },
		{"id" : 8, "text" : "사이", "head" : 9, "label" : "NP", "mod" : [7], "weight" : 0.612296 },
		{"id" : 9, "text" : "합의에", "head" : 10, "label" : "NP_AJT", "mod" : [8], "weight" : 0.836138 },
		{"id" : 10, "text" : "따라", "head" : 14, "label" : "VP", "mod" : [9], "weight" : 0.717241 },
		{"id" : 11, "text" : "일정", "head" : 12, "label" : "NP", "mod" : [], "weight" : 0.775172 },
		{"id" : 12, "text" : "시점까지", "head" : 14, "label" : "NP_AJT", "mod" : [11], "weight" : 0.954326 },
		{"id" : 13, "text" : "보도를", "head" : 14, "label" : "NP_OBJ", "mod" : [], "weight" : 0.996907 },
		{"id" : 14, "text" : "자제하지", "head" : 15, "label" : "VP", "mod" : [5, 6, 10, 12, 13], "weight" : 0.888928 },
		{"id" : 15, "text" : "않겠다는", "head" : 16, "label" : "VP_MOD", "mod" : [14], "weight" : 0.581278 },
		{"id" : 16, "text" : "약속.", "head" : -1, "label" : "NP", "mod" : [15], "weight" : 0.723482 }
	],
	"SRL" : [
		{"verb" : "요청", "sense" : 1, "word_id" : 5, "weight" : 0.150702,
			"argument" : [
				{"type" : "ARG0", "word_id" : 0, "text" : "취재대상이", "weight" : 0.166747 },
				{"type" : "ARG2", "word_id" : 2, "text" : "상대로", "weight" : 0.771218 },
				{"type" : "ARG1", "word_id" : 4, "text" : "자제를", "weight" : 0.208239 }
			] },
		{"verb" : "따르", "sense" : 2, "word_id" : 10, "weight" : 0.162215,
			"argument" : [
				{"type" : "ARG2", "word_id" : 9, "text" : "합의에", "weight" : 0.162215 }
			] },
		{"verb" : "자제", "sense" : 1, "word_id" : 14, "weight" : 0.205434,
			"argument" : [
				{"type" : "ARGM-TMP", "word_id" : 12, "text" : "시점까지", "weight" : 0.948663 },
				{"type" : "ARG1", "word_id" : 13, "text" : "보도를", "weight" : 0.247208 },
				{"type" : "ARGM-NEG", "word_id" : 15, "text" : "않겠다는", "weight" : 0.274228 },
				{"type" : "ARG0", "word_id" : 6, "text" : "기자실에서", "weight" : 0 },
				{"type" : "ARGM-MNR", "word_id" : 10, "text" : "따라", "weight" : 0 }
			] }
	],
	"relation" : [
	],
	"SA" : [
	],
	"ZA" : [
	]
	},
	{
	"id" : 1,
	"reserve_str" : "",
	"text" : "국가 안보사항 등 조기 보도할 경우 문제가 생기는 경우에 보도를 유보한다.",
	"morp" : [
		{"id" : 0, "lemma" : "국가", "type" : "NNG", "position" : 186, "weight" : 0.0416766 },
		{"id" : 1, "lemma" : "안보", "type" : "NNG", "position" : 193, "weight" : 0.0416766 },
		{"id" : 2, "lemma" : "사항", "type" : "NNG", "position" : 199, "weight" : 1 },
		{"id" : 3, "lemma" : "등", "type" : "NNB", "position" : 206, "weight" : 0.0572952 },
		{"id" : 4, "lemma" : "조기", "type" : "NNG", "position" : 210, "weight" : 0.0416766 },
		{"id" : 5, "lemma" : "보도", "type" : "NNG", "position" : 217, "weight" : 0.0416766 },
		{"id" : 6, "lemma" : "하", "type" : "XSV", "position" : 223, "weight" : 1 },
		{"id" : 7, "lemma" : "ㄹ", "type" : "ETM", "position" : 223, "weight" : 1 },
		{"id" : 8, "lemma" : "경우", "type" : "NNG", "position" : 227, "weight" : 0.0416766 },
		{"id" : 9, "lemma" : "문제", "type" : "NNG", "position" : 234, "weight" : 0.0416766 },
		{"id" : 10, "lemma" : "가", "type" : "JKS", "position" : 240, "weight" : 1 },
		{"id" : 11, "lemma" : "생기", "type" : "VV", "position" : 244, "weight" : 0.0416766 },
		{"id" : 12, "lemma" : "는", "type" : "ETM", "position" : 250, "weight" : 1 },
		{"id" : 13, "lemma" : "경우", "type" : "NNG", "position" : 254, "weight" : 0.0416766 },
		{"id" : 14, "lemma" : "에", "type" : "JKB", "position" : 260, "weight" : 1 },
		{"id" : 15, "lemma" : "보도", "type" : "NNG", "position" : 264, "weight" : 0.0416766 },
		{"id" : 16, "lemma" : "를", "type" : "JKO", "position" : 270, "weight" : 1 },
		{"id" : 17, "lemma" : "유보", "type" : "NNG", "position" : 274, "weight" : 0.0416766 },
		{"id" : 18, "lemma" : "하", "type" : "XSV", "position" : 280, "weight" : 1 },
		{"id" : 19, "lemma" : "ㄴ다", "type" : "EF", "position" : 280, "weight" : 1 },
		{"id" : 20, "lemma" : ".", "type" : "SF", "position" : 286, "weight" : 1 }
	],
	"morp_eval" : [
	],
	"WSD" : [
	],
	"word" : [
		{"id" : 0, "text" : "국가", "type" : "", "begin" : 0, "end" : 0},
		{"id" : 1, "text" : "안보사항", "type" : "", "begin" : 1, "end" : 2},
		{"id" : 2, "text" : "등", "type" : "", "begin" : 3, "end" : 3},
		{"id" : 3, "text" : "조기", "type" : "", "begin" : 4, "end" : 4},
		{"id" : 4, "text" : "보도할", "type" : "", "begin" : 5, "end" : 7},
		{"id" : 5, "text" : "경우", "type" : "", "begin" : 8, "end" : 8},
		{"id" : 6, "text" : "문제가", "type" : "", "begin" : 9, "end" : 10},
		{"id" : 7, "text" : "생기는", "type" : "", "begin" : 11, "end" : 12},
		{"id" : 8, "text" : "경우에", "type" : "", "begin" : 13, "end" : 14},
		{"id" : 9, "text" : "보도를", "type" : "", "begin" : 15, "end" : 16},
		{"id" : 10, "text" : "유보한다.", "type" : "", "begin" : 17, "end" : 20}
	],
	"NE" : [
	],
	"chunk" : [
	],
	"dependency" : [
		{"id" : 0, "text" : "국가", "head" : 1, "label" : "NP", "mod" : [], "weight" : 0.899426 },
		{"id" : 1, "text" : "안보사항", "head" : 2, "label" : "NP", "mod" : [0], "weight" : 0.904011 },
		{"id" : 2, "text" : "등", "head" : 8, "label" : "NP_OBJ", "mod" : [1], "weight" : 0.653907 },
		{"id" : 3, "text" : "조기", "head" : 4, "label" : "NP", "mod" : [], "weight" : 0.899452 },
		{"id" : 4, "text" : "보도할", "head" : 5, "label" : "VP_MOD", "mod" : [3], "weight" : 0.711855 },
		{"id" : 5, "text" : "경우", "head" : 8, "label" : "NP_CNJ", "mod" : [4], "weight" : 0.506393 },
		{"id" : 6, "text" : "문제가", "head" : 7, "label" : "NP_SBJ", "mod" : [], "weight" : 0.963557 },
		{"id" : 7, "text" : "생기는", "head" : 8, "label" : "VP_MOD", "mod" : [6], "weight" : 0.914447 },
		{"id" : 8, "text" : "경우에", "head" : 10, "label" : "NP_AJT", "mod" : [2, 5, 7], "weight" : 0.759483 },
		{"id" : 9, "text" : "보도를", "head" : 10, "label" : "NP_OBJ", "mod" : [], "weight" : 0.481455 },
		{"id" : 10, "text" : "유보한다.", "head" : -1, "label" : "VP", "mod" : [8, 9], "weight" : 0.420755 }
	],
	"SRL" : [
		{"verb" : "보도", "sense" : 1, "word_id" : 4, "weight" : 0,
			"argument" : [
				{"type" : "ARG1", "word_id" : 2, "text" : "등", "weight" : 0 }
			] },
		{"verb" : "생기", "sense" : 1, "word_id" : 7, "weight" : 0.132395,
			"argument" : [
				{"type" : "ARG1", "word_id" : 6, "text" : "문제가", "weight" : 0.167233 },
				{"type" : "ARGM-CND", "word_id" : 5, "text" : "경우", "weight" : 1 }
			] },
		{"verb" : "유보", "sense" : 1, "word_id" : 10, "weight" : 0.108157,
			"argument" : [
				{"type" : "ARGM-CND", "word_id" : 8, "text" : "경우에", "weight" : 0.746355 },
				{"type" : "ARG1", "word_id" : 9, "text" : "보도를", "weight" : 0.141679 }
			] }
	],
	"relation" : [
	],
	"SA" : [
	],
	"ZA" : [
	]
	},
	{
	"id" : 2,
	"reserve_str" : "",
	"text" : "한 나라가 상대국의 항구에 상업선의 입항 및 출항을 금지토록 법으로 명령하는 것을 뜻한다.",
	"morp" : [
		{"id" : 0, "lemma" : "한", "type" : "MM", "position" : 288, "weight" : 0.0422774 },
		{"id" : 1, "lemma" : "나라", "type" : "NNG", "position" : 292, "weight" : 0.035419 },
		{"id" : 2, "lemma" : "가", "type" : "JKS", "position" : 298, "weight" : 0.0367383 },
		{"id" : 3, "lemma" : "상대", "type" : "NNG", "position" : 302, "weight" : 0.035419 },
		{"id" : 4, "lemma" : "국", "type" : "XSN", "position" : 308, "weight" : 0.0367383 },
		{"id" : 5, "lemma" : "의", "type" : "JKG", "position" : 311, "weight" : 0.0280973 },
		{"id" : 6, "lemma" : "항구", "type" : "NNG", "position" : 315, "weight" : 0.035419 },
		{"id" : 7, "lemma" : "에", "type" : "JKB", "position" : 321, "weight" : 0.0367383 },
		{"id" : 8, "lemma" : "상업", "type" : "NNG", "position" : 325, "weight" : 0.0358588 },
		{"id" : 9, "lemma" : "선", "type" : "XSN", "position" : 325, "weight" : 0.0358588 },
		{"id" : 10, "lemma" : "의", "type" : "JKG", "position" : 334, "weight" : 0.0280973 },
		{"id" : 11, "lemma" : "입항", "type" : "NNG", "position" : 338, "weight" : 0.035419 },
		{"id" : 12, "lemma" : "및", "type" : "MAJ", "position" : 345, "weight" : 0.0422774 },
		{"id" : 13, "lemma" : "출항", "type" : "NNG", "position" : 349, "weight" : 0.035419 },
		{"id" : 14, "lemma" : "을", "type" : "JKO", "position" : 355, "weight" : 0.0367383 },
		{"id" : 15, "lemma" : "금지", "type" : "NNG", "position" : 359, "weight" : 0.035419 },
		{"id" : 16, "lemma" : "하", "type" : "XSV", "position" : 365, "weight" : 0.0367383 },
		{"id" : 17, "lemma" : "도록", "type" : "EC", "position" : 365, "weight" : 0.514049 },
		{"id" : 18, "lemma" : "법", "type" : "NNG", "position" : 372, "weight" : 0.0422774 },
		{"id" : 19, "lemma" : "으로", "type" : "JKB", "position" : 375, "weight" : 0.0326495 },
		{"id" : 20, "lemma" : "명령", "type" : "NNG", "position" : 382, "weight" : 0.035419 },
		{"id" : 21, "lemma" : "하", "type" : "XSV", "position" : 388, "weight" : 0.0367383 },
		{"id" : 22, "lemma" : "는", "type" : "ETM", "position" : 391, "weight" : 0.0280973 },
		{"id" : 23, "lemma" : "것", "type" : "NNB", "position" : 395, "weight" : 0.0422774 },
		{"id" : 24, "lemma" : "을", "type" : "JKO", "position" : 398, "weight" : 0.0285607 },
		{"id" : 25, "lemma" : "뜻", "type" : "NNG", "position" : 402, "weight" : 0.0422774 },
		{"id" : 26, "lemma" : "하", "type" : "XSV", "position" : 405, "weight" : 0.0285607 },
		{"id" : 27, "lemma" : "ㄴ다", "type" : "EF", "position" : 405, "weight" : 0.0324178 },
		{"id" : 28, "lemma" : ".", "type" : "SF", "position" : 411, "weight" : 1 }
	],
	"morp_eval" : [
	],
	"WSD" : [
	],
	"word" : [
		{"id" : 0, "text" : "한", "type" : "", "begin" : 0, "end" : 0},
		{"id" : 1, "text" : "나라가", "type" : "", "begin" : 1, "end" : 2},
		{"id" : 2, "text" : "상대국의", "type" : "", "begin" : 3, "end" : 5},
		{"id" : 3, "text" : "항구에", "type" : "", "begin" : 6, "end" : 7},
		{"id" : 4, "text" : "상업선의", "type" : "", "begin" : 8, "end" : 10},
		{"id" : 5, "text" : "입항", "type" : "", "begin" : 11, "end" : 11},
		{"id" : 6, "text" : "및", "type" : "", "begin" : 12, "end" : 12},
		{"id" : 7, "text" : "출항을", "type" : "", "begin" : 13, "end" : 14},
		{"id" : 8, "text" : "금지토록", "type" : "", "begin" : 15, "end" : 17},
		{"id" : 9, "text" : "법으로", "type" : "", "begin" : 18, "end" : 19},
		{"id" : 10, "text" : "명령하는", "type" : "", "begin" : 20, "end" : 22},
		{"id" : 11, "text" : "것을", "type" : "", "begin" : 23, "end" : 24},
		{"id" : 12, "text" : "뜻한다.", "type" : "", "begin" : 25, "end" : 28}
	],
	"NE" : [
		{"id" : 0, "text" : "한", "type" : "QT_COUNT", "begin" : 0, "end" : 0, "weight" : 0.136948, "common_noun" : 0}
	],
	"chunk" : [
	],
	"dependency" : [
		{"id" : 0, "text" : "한", "head" : 1, "label" : "DP", "mod" : [], "weight" : 0.925735 },
		{"id" : 1, "text" : "나라가", "head" : 10, "label" : "NP_SBJ", "mod" : [0], "weight" : 0.65674 },
		{"id" : 2, "text" : "상대국의", "head" : 3, "label" : "NP_MOD", "mod" : [], "weight" : 0.913742 },
		{"id" : 3, "text" : "항구에", "head" : 8, "label" : "NP_AJT", "mod" : [2], "weight" : 0.599484 },
		{"id" : 4, "text" : "상업선의", "head" : 7, "label" : "NP_MOD", "mod" : [], "weight" : 0.865704 },
		{"id" : 5, "text" : "입항", "head" : 7, "label" : "NP_CNJ", "mod" : [], "weight" : 0.861908 },
		{"id" : 6, "text" : "및", "head" : 7, "label" : "AP", "mod" : [], "weight" : 0.833644 },
		{"id" : 7, "text" : "출항을", "head" : 8, "label" : "NP_OBJ", "mod" : [4, 5, 6], "weight" : 0.748435 },
		{"id" : 8, "text" : "금지토록", "head" : 10, "label" : "VP", "mod" : [3, 7], "weight" : 0.927956 },
		{"id" : 9, "text" : "법으로", "head" : 10, "label" : "NP_AJT", "mod" : [], "weight" : 0.880896 },
		{"id" : 10, "text" : "명령하는", "head" : 11, "label" : "VP_MOD", "mod" : [1, 8, 9], "weight" : 0.961858 },
		{"id" : 11, "text" : "것을", "head" : 12, "label" : "NP_OBJ", "mod" : [10], "weight" : 0.570311 },
		{"id" : 12, "text" : "뜻한다.", "head" : -1, "label" : "VP", "mod" : [11], "weight" : 0.536863 }
	],
	"SRL" : [
		{"verb" : "금지", "sense" : 1, "word_id" : 8, "weight" : 0.196871,
			"argument" : [
				{"type" : "ARG0", "word_id" : 1, "text" : "나라가", "weight" : 0.168431 },
				{"type" : "ARG1", "word_id" : 7, "text" : "출항을", "weight" : 0.225311 }
			] },
		{"verb" : "명령", "sense" : 1, "word_id" : 10, "weight" : 0.831064,
			"argument" : [
				{"type" : "ARG1", "word_id" : 8, "text" : "금지토록", "weight" : 0.98019 },
				{"type" : "ARGM-INS", "word_id" : 9, "text" : "법으로", "weight" : 0.681938 }
			] },
		{"verb" : "뜻하", "sense" : 1, "word_id" : 12, "weight" : 0.141483,
			"argument" : [
				{"type" : "ARG2", "word_id" : 11, "text" : "것을", "weight" : 0.141483 }
			] }
	],
	"relation" : [
	],
	"SA" : [
	],
	"ZA" : [
	]
	}
 ],
 "entity" : [
 ]
}

