{"doc_id" : "E2015.947.024_A_04",
 "DCT" : "",
 "category" : "",
 "category_weight" : 0,
 "title" : {"text" : "", "NE" : ""},
 "metaInfo" : { },
 "sentence" : [
	{
	"id" : 0,
	"reserve_str" : "",
	"text" : "영어의 ‘paper’(종이)도 여기에서 나왔다.",
	"morp" : [
		{"id" : 0, "lemma" : "영어", "type" : "NNP", "position" : 0, "weight" : 0.0279207 },
		{"id" : 1, "lemma" : "의", "type" : "JKG", "position" : 6, "weight" : 0.0434549 },
		{"id" : 2, "lemma" : "‘", "type" : "SS", "position" : 10, "weight" : 0.0322918 },
		{"id" : 3, "lemma" : "paper", "type" : "SL", "position" : 13, "weight" : 0.613401 },
		{"id" : 4, "lemma" : "’", "type" : "SS", "position" : 18, "weight" : 1 },
		{"id" : 5, "lemma" : "(", "type" : "SS", "position" : 21, "weight" : 1 },
		{"id" : 6, "lemma" : "종이", "type" : "NNG", "position" : 22, "weight" : 1 },
		{"id" : 7, "lemma" : ")", "type" : "SS", "position" : 28, "weight" : 0.0550669 },
		{"id" : 8, "lemma" : "도", "type" : "JX", "position" : 29, "weight" : 0.0195933 },
		{"id" : 9, "lemma" : "여기", "type" : "NP", "position" : 33, "weight" : 0.0279207 },
		{"id" : 10, "lemma" : "에서", "type" : "JKB", "position" : 39, "weight" : 0.521727 },
		{"id" : 11, "lemma" : "나오", "type" : "VV", "position" : 46, "weight" : 0.0279207 },
		{"id" : 12, "lemma" : "았", "type" : "EP", "position" : 49, "weight" : 0.0434549 },
		{"id" : 13, "lemma" : "다", "type" : "EF", "position" : 52, "weight" : 1 },
		{"id" : 14, "lemma" : ".", "type" : "SF", "position" : 55, "weight" : 1 }
	],
	"morp_eval" : [
	],
	"WSD" : [
	],
	"word" : [
		{"id" : 0, "text" : "영어의", "type" : "", "begin" : 0, "end" : 1},
		{"id" : 1, "text" : "‘paper’(종이)도", "type" : "", "begin" : 2, "end" : 8},
		{"id" : 2, "text" : "여기에서", "type" : "", "begin" : 9, "end" : 10},
		{"id" : 3, "text" : "나왔다.", "type" : "", "begin" : 11, "end" : 14}
	],
	"NE" : [
		{"id" : 0, "text" : "영어", "type" : "CV_LANGUAGE", "begin" : 0, "end" : 0, "weight" : 0.316984, "common_noun" : 0}
	],
	"chunk" : [
	],
	"dependency" : [
		{"id" : 0, "text" : "영어의", "head" : 1, "label" : "NP_MOD", "mod" : [], "weight" : 0.898833 },
		{"id" : 1, "text" : "‘paper’(종이)도", "head" : 3, "label" : "NP_SBJ", "mod" : [0], "weight" : 0.628427 },
		{"id" : 2, "text" : "여기에서", "head" : 3, "label" : "NP_AJT", "mod" : [], "weight" : 0.649472 },
		{"id" : 3, "text" : "나왔다.", "head" : -1, "label" : "VP", "mod" : [1, 2], "weight" : 0.264909 }
	],
	"SRL" : [
		{"verb" : "나오", "sense" : 1, "word_id" : 3, "weight" : 0.117,
			"argument" : [
				{"type" : "ARG0", "word_id" : 1, "text" : "‘paper’(종이)도", "weight" : 0.124885 },
				{"type" : "ARG2", "word_id" : 2, "text" : "여기에서", "weight" : 0.109115 }
			] }
	],
	"relation" : [
	],
	"SA" : [
	],
	"ZA" : [
	]
	}
 ],
 "entity" : [
 ]
}

