{"doc_id" : "E2015.947.017_Q_01",
 "DCT" : "",
 "category" : "",
 "category_weight" : 0,
 "title" : {"text" : "", "NE" : ""},
 "metaInfo" : { },
 "sentence" : [
	{
	"id" : 0,
	"reserve_str" : "",
	"text" : "증시에서 하락장, 약세, 비관론자 등을 상징하는 동물은 곰이다.",
	"morp" : [
		{"id" : 0, "lemma" : "증시", "type" : "NNG", "position" : 0, "weight" : 0.0341873 },
		{"id" : 1, "lemma" : "에서", "type" : "JKB", "position" : 6, "weight" : 0.0350625 },
		{"id" : 2, "lemma" : "하락", "type" : "NNG", "position" : 13, "weight" : 0.0365428 },
		{"id" : 3, "lemma" : "장", "type" : "NNG", "position" : 13, "weight" : 0.0365428 },
		{"id" : 4, "lemma" : ",", "type" : "SP", "position" : 22, "weight" : 0.0288712 },
		{"id" : 5, "lemma" : "약세", "type" : "NNG", "position" : 24, "weight" : 0.0341873 },
		{"id" : 6, "lemma" : ",", "type" : "SP", "position" : 30, "weight" : 0.0412539 },
		{"id" : 7, "lemma" : "비관", "type" : "NNG", "position" : 32, "weight" : 0.0341873 },
		{"id" : 8, "lemma" : "론", "type" : "XSN", "position" : 38, "weight" : 0.0412539 },
		{"id" : 9, "lemma" : "자", "type" : "XSN", "position" : 41, "weight" : 0.0288712 },
		{"id" : 10, "lemma" : "등", "type" : "NNB", "position" : 45, "weight" : 0.047273 },
		{"id" : 11, "lemma" : "을", "type" : "JKO", "position" : 48, "weight" : 0.0211016 },
		{"id" : 12, "lemma" : "상징", "type" : "NNG", "position" : 52, "weight" : 0.0341873 },
		{"id" : 13, "lemma" : "하", "type" : "XSV", "position" : 58, "weight" : 0.0412539 },
		{"id" : 14, "lemma" : "는", "type" : "ETM", "position" : 61, "weight" : 0.0288712 },
		{"id" : 15, "lemma" : "동물", "type" : "NNG", "position" : 65, "weight" : 0.0341873 },
		{"id" : 16, "lemma" : "은", "type" : "JX", "position" : 71, "weight" : 0.0412539 },
		{"id" : 17, "lemma" : "곰", "type" : "NNG", "position" : 75, "weight" : 0.047273 },
		{"id" : 18, "lemma" : "이", "type" : "VCP", "position" : 78, "weight" : 0.0211016 },
		{"id" : 19, "lemma" : "다", "type" : "EF", "position" : 81, "weight" : 0.0412539 },
		{"id" : 20, "lemma" : ".", "type" : "SF", "position" : 84, "weight" : 0.0288712 }
	],
	"morp_eval" : [
	],
	"WSD" : [
	],
	"word" : [
		{"id" : 0, "text" : "증시에서", "type" : "", "begin" : 0, "end" : 1},
		{"id" : 1, "text" : "하락장,", "type" : "", "begin" : 2, "end" : 4},
		{"id" : 2, "text" : "약세,", "type" : "", "begin" : 5, "end" : 6},
		{"id" : 3, "text" : "비관론자", "type" : "", "begin" : 7, "end" : 9},
		{"id" : 4, "text" : "등을", "type" : "", "begin" : 10, "end" : 11},
		{"id" : 5, "text" : "상징하는", "type" : "", "begin" : 12, "end" : 14},
		{"id" : 6, "text" : "동물은", "type" : "", "begin" : 15, "end" : 16},
		{"id" : 7, "text" : "곰이다.", "type" : "", "begin" : 17, "end" : 20}
	],
	"NE" : [
		{"id" : 0, "text" : "곰", "type" : "AM_MAMMALIA", "begin" : 17, "end" : 17, "weight" : 0.215368, "common_noun" : 0}
	],
	"chunk" : [
	],
	"dependency" : [
		{"id" : 0, "text" : "증시에서", "head" : 5, "label" : "NP_AJT", "mod" : [], "weight" : 0.729333 },
		{"id" : 1, "text" : "하락장,", "head" : 3, "label" : "NP_CNJ", "mod" : [], "weight" : 0.880286 },
		{"id" : 2, "text" : "약세,", "head" : 3, "label" : "NP_CNJ", "mod" : [], "weight" : 0.831528 },
		{"id" : 3, "text" : "비관론자", "head" : 4, "label" : "NP", "mod" : [1, 2], "weight" : 0.987526 },
		{"id" : 4, "text" : "등을", "head" : 5, "label" : "NP_OBJ", "mod" : [3], "weight" : 0.785318 },
		{"id" : 5, "text" : "상징하는", "head" : 6, "label" : "VP_MOD", "mod" : [0, 4], "weight" : 0.727726 },
		{"id" : 6, "text" : "동물은", "head" : 7, "label" : "NP_SBJ", "mod" : [5], "weight" : 0.574313 },
		{"id" : 7, "text" : "곰이다.", "head" : -1, "label" : "VNP", "mod" : [6], "weight" : 0.117975 }
	],
	"SRL" : [
		{"verb" : "상징", "sense" : 1, "word_id" : 5, "weight" : 0.114902,
			"argument" : [
				{"type" : "ARG2", "word_id" : 4, "text" : "등을", "weight" : 0.114902 },
				{"type" : "ARGM-LOC", "word_id" : 0, "text" : "증시에서", "weight" : 0 },
				{"type" : "ARG1", "word_id" : 6, "text" : "동물은", "weight" : 0 }
			] }
	],
	"relation" : [
	],
	"SA" : [
	],
	"ZA" : [
	]
	},
	{
	"id" : 1,
	"reserve_str" : "",
	"text" : "그렇다면 상승장, 강세, 낙관론자 등을 의미하는 동물은 무엇일까?",
	"morp" : [
		{"id" : 0, "lemma" : "그렇", "type" : "VA", "position" : 86, "weight" : 1 },
		{"id" : 1, "lemma" : "다면", "type" : "EC", "position" : 92, "weight" : 0.028646 },
		{"id" : 2, "lemma" : "상승", "type" : "NNG", "position" : 99, "weight" : 1 },
		{"id" : 3, "lemma" : "장", "type" : "NNG", "position" : 105, "weight" : 0.0263154 },
		{"id" : 4, "lemma" : ",", "type" : "SP", "position" : 108, "weight" : 0.0309766 },
		{"id" : 5, "lemma" : "강세", "type" : "NNG", "position" : 110, "weight" : 1 },
		{"id" : 6, "lemma" : ",", "type" : "SP", "position" : 116, "weight" : 0.0263154 },
		{"id" : 7, "lemma" : "낙관", "type" : "NNG", "position" : 118, "weight" : 1 },
		{"id" : 8, "lemma" : "론", "type" : "XSN", "position" : 124, "weight" : 0.0263154 },
		{"id" : 9, "lemma" : "자", "type" : "XSN", "position" : 127, "weight" : 0.0309766 },
		{"id" : 10, "lemma" : "등", "type" : "NNB", "position" : 131, "weight" : 1 },
		{"id" : 11, "lemma" : "을", "type" : "JKO", "position" : 134, "weight" : 1 },
		{"id" : 12, "lemma" : "의미", "type" : "NNG", "position" : 138, "weight" : 1 },
		{"id" : 13, "lemma" : "하", "type" : "XSV", "position" : 144, "weight" : 0.0263154 },
		{"id" : 14, "lemma" : "는", "type" : "ETM", "position" : 147, "weight" : 0.0309766 },
		{"id" : 15, "lemma" : "동물", "type" : "NNG", "position" : 151, "weight" : 1 },
		{"id" : 16, "lemma" : "은", "type" : "JX", "position" : 157, "weight" : 0.0263154 },
		{"id" : 17, "lemma" : "무엇", "type" : "NP", "position" : 161, "weight" : 1 },
		{"id" : 18, "lemma" : "이", "type" : "VCP", "position" : 167, "weight" : 0.0263154 },
		{"id" : 19, "lemma" : "ㄹ까", "type" : "EF", "position" : 167, "weight" : 0.515488 },
		{"id" : 20, "lemma" : "?", "type" : "SF", "position" : 173, "weight" : 1 }
	],
	"morp_eval" : [
	],
	"WSD" : [
	],
	"word" : [
		{"id" : 0, "text" : "그렇다면", "type" : "", "begin" : 0, "end" : 1},
		{"id" : 1, "text" : "상승장,", "type" : "", "begin" : 2, "end" : 4},
		{"id" : 2, "text" : "강세,", "type" : "", "begin" : 5, "end" : 6},
		{"id" : 3, "text" : "낙관론자", "type" : "", "begin" : 7, "end" : 9},
		{"id" : 4, "text" : "등을", "type" : "", "begin" : 10, "end" : 11},
		{"id" : 5, "text" : "의미하는", "type" : "", "begin" : 12, "end" : 14},
		{"id" : 6, "text" : "동물은", "type" : "", "begin" : 15, "end" : 16},
		{"id" : 7, "text" : "무엇일까?", "type" : "", "begin" : 17, "end" : 20}
	],
	"NE" : [
	],
	"chunk" : [
	],
	"dependency" : [
		{"id" : 0, "text" : "그렇다면", "head" : 7, "label" : "VP", "mod" : [], "weight" : 0.933443 },
		{"id" : 1, "text" : "상승장,", "head" : 3, "label" : "NP_CNJ", "mod" : [], "weight" : 0.792962 },
		{"id" : 2, "text" : "강세,", "head" : 3, "label" : "NP_CNJ", "mod" : [], "weight" : 0.809131 },
		{"id" : 3, "text" : "낙관론자", "head" : 4, "label" : "NP", "mod" : [1, 2], "weight" : 0.994136 },
		{"id" : 4, "text" : "등을", "head" : 5, "label" : "NP_OBJ", "mod" : [3], "weight" : 0.839907 },
		{"id" : 5, "text" : "의미하는", "head" : 6, "label" : "VP_MOD", "mod" : [4], "weight" : 0.849457 },
		{"id" : 6, "text" : "동물은", "head" : 7, "label" : "NP_SBJ", "mod" : [5], "weight" : 0.715184 },
		{"id" : 7, "text" : "무엇일까?", "head" : -1, "label" : "VNP", "mod" : [0, 6], "weight" : 0.225582 }
	],
	"SRL" : [
		{"verb" : "의미", "sense" : 1, "word_id" : 5, "weight" : 0.132546,
			"argument" : [
				{"type" : "ARG2", "word_id" : 4, "text" : "등을", "weight" : 0.182581 },
				{"type" : "ARG1", "word_id" : 6, "text" : "동물은", "weight" : 0.825103 }
			] }
	],
	"relation" : [
	],
	"SA" : [
	],
	"ZA" : [
	]
	}
 ],
 "entity" : [
 ]
}

