{"doc_id" : "E2014.120_Q_01",
 "DCT" : "",
 "category" : "",
 "category_weight" : 0,
 "title" : {"text" : "", "NE" : ""},
 "metaInfo" : { },
 "sentence" : [
	{
	"id" : 0,
	"reserve_str" : "",
	"text" : "대륙 주변부에 있는 수심 200m 이내의 완만한 경사를 가진 해저 지형",
	"morp" : [
		{"id" : 0, "lemma" : "대륙", "type" : "NNG", "position" : 0, "weight" : 0.0223741 },
		{"id" : 1, "lemma" : "주변", "type" : "NNG", "position" : 7, "weight" : 0.0309395 },
		{"id" : 2, "lemma" : "부", "type" : "XSN", "position" : 7, "weight" : 0.0309395 },
		{"id" : 3, "lemma" : "에", "type" : "JKB", "position" : 16, "weight" : 0.0227032 },
		{"id" : 4, "lemma" : "있", "type" : "VA", "position" : 20, "weight" : 0.0324207 },
		{"id" : 5, "lemma" : "는", "type" : "ETM", "position" : 23, "weight" : 0.0123276 },
		{"id" : 6, "lemma" : "수심", "type" : "NNG", "position" : 27, "weight" : 0.0223741 },
		{"id" : 7, "lemma" : "200", "type" : "SN", "position" : 34, "weight" : 0.0309395 },
		{"id" : 8, "lemma" : "m", "type" : "SL", "position" : 37, "weight" : 0.0227032 },
		{"id" : 9, "lemma" : "이내", "type" : "NNG", "position" : 39, "weight" : 0.0223741 },
		{"id" : 10, "lemma" : "의", "type" : "JKG", "position" : 45, "weight" : 0.0480701 },
		{"id" : 11, "lemma" : "완만", "type" : "XR", "position" : 49, "weight" : 0.0223741 },
		{"id" : 12, "lemma" : "하", "type" : "XSA", "position" : 55, "weight" : 0.0480701 },
		{"id" : 13, "lemma" : "ㄴ", "type" : "ETM", "position" : 55, "weight" : 0.0227032 },
		{"id" : 14, "lemma" : "경사", "type" : "NNG", "position" : 59, "weight" : 0.0223741 },
		{"id" : 15, "lemma" : "를", "type" : "JKO", "position" : 65, "weight" : 0.0480701 },
		{"id" : 16, "lemma" : "가지", "type" : "VV", "position" : 69, "weight" : 0.0223741 },
		{"id" : 17, "lemma" : "ㄴ", "type" : "ETM", "position" : 72, "weight" : 0.0480701 },
		{"id" : 18, "lemma" : "해저", "type" : "NNG", "position" : 76, "weight" : 0.0223741 },
		{"id" : 19, "lemma" : "지형", "type" : "NNG", "position" : 83, "weight" : 0.0223741 }
	],
	"morp_eval" : [
	],
	"WSD" : [
	],
	"word" : [
		{"id" : 0, "text" : "대륙", "type" : "", "begin" : 0, "end" : 0},
		{"id" : 1, "text" : "주변부에", "type" : "", "begin" : 1, "end" : 3},
		{"id" : 2, "text" : "있는", "type" : "", "begin" : 4, "end" : 5},
		{"id" : 3, "text" : "수심", "type" : "", "begin" : 6, "end" : 6},
		{"id" : 4, "text" : "200m", "type" : "", "begin" : 7, "end" : 8},
		{"id" : 5, "text" : "이내의", "type" : "", "begin" : 9, "end" : 10},
		{"id" : 6, "text" : "완만한", "type" : "", "begin" : 11, "end" : 13},
		{"id" : 7, "text" : "경사를", "type" : "", "begin" : 14, "end" : 15},
		{"id" : 8, "text" : "가진", "type" : "", "begin" : 16, "end" : 17},
		{"id" : 9, "text" : "해저", "type" : "", "begin" : 18, "end" : 18},
		{"id" : 10, "text" : "지형", "type" : "", "begin" : 19, "end" : 19}
	],
	"NE" : [
		{"id" : 0, "text" : "200m", "type" : "QT_LENGTH", "begin" : 7, "end" : 8, "weight" : 0.65989, "common_noun" : 0}
	],
	"chunk" : [
	],
	"dependency" : [
		{"id" : 0, "text" : "대륙", "head" : 1, "label" : "NP", "mod" : [], "weight" : 0.731407 },
		{"id" : 1, "text" : "주변부에", "head" : 2, "label" : "NP_AJT", "mod" : [0], "weight" : 0.705001 },
		{"id" : 2, "text" : "있는", "head" : 10, "label" : "VP_MOD", "mod" : [1], "weight" : 0.672756 },
		{"id" : 3, "text" : "수심", "head" : 4, "label" : "NP", "mod" : [], "weight" : 0.552964 },
		{"id" : 4, "text" : "200m", "head" : 5, "label" : "NP", "mod" : [3], "weight" : 0.807218 },
		{"id" : 5, "text" : "이내의", "head" : 7, "label" : "NP_MOD", "mod" : [4], "weight" : 0.671213 },
		{"id" : 6, "text" : "완만한", "head" : 7, "label" : "VP_MOD", "mod" : [], "weight" : 0.768529 },
		{"id" : 7, "text" : "경사를", "head" : 8, "label" : "NP_OBJ", "mod" : [5, 6], "weight" : 0.862836 },
		{"id" : 8, "text" : "가진", "head" : 10, "label" : "VP_MOD", "mod" : [7], "weight" : 0.635212 },
		{"id" : 9, "text" : "해저", "head" : 10, "label" : "NP", "mod" : [], "weight" : 0.5106 },
		{"id" : 10, "text" : "지형", "head" : -1, "label" : "NP", "mod" : [2, 8, 9], "weight" : 0.133569 }
	],
	"SRL" : [
		{"verb" : "있", "sense" : 1, "word_id" : 2, "weight" : 0.14931,
			"argument" : [
				{"type" : "ARG2", "word_id" : 1, "text" : "주변부에", "weight" : 0.14931 }
			] },
		{"verb" : "완만", "sense" : 1, "word_id" : 6, "weight" : 0.276451,
			"argument" : [
				{"type" : "ARG1", "word_id" : 7, "text" : "경사를", "weight" : 0.276451 },
				{"type" : "ARGM-EXT", "word_id" : 4, "text" : "200m", "weight" : 0 },
				{"type" : "ARGM-CND", "word_id" : 5, "text" : "이내의", "weight" : 0 }
			] },
		{"verb" : "가지", "sense" : 1, "word_id" : 8, "weight" : 0.161865,
			"argument" : [
				{"type" : "ARG1", "word_id" : 7, "text" : "경사를", "weight" : 0.161865 },
				{"type" : "ARG0", "word_id" : 10, "text" : "지형", "weight" : 0 }
			] }
	],
	"relation" : [
	],
	"SA" : [
	],
	"ZA" : [
	]
	}
 ],
 "entity" : [
 ]
}

