{"doc_id" : "E2015.943.031_A_04",
 "DCT" : "",
 "category" : "",
 "category_weight" : 0,
 "title" : {"text" : "", "NE" : ""},
 "metaInfo" : { },
 "sentence" : [
	{
	"id" : 0,
	"reserve_str" : "",
	"text" : "발생학자로서 출발했지만, 1908년경부터 초파리를 사용하여 유전학을 연구하기 시작하였다.",
	"morp" : [
		{"id" : 0, "lemma" : "발생", "type" : "NNG", "position" : 0, "weight" : 1 },
		{"id" : 1, "lemma" : "학", "type" : "XSN", "position" : 6, "weight" : 1 },
		{"id" : 2, "lemma" : "자", "type" : "XSN", "position" : 9, "weight" : 0.0269785 },
		{"id" : 3, "lemma" : "로서", "type" : "JKB", "position" : 12, "weight" : 0.0271355 },
		{"id" : 4, "lemma" : "출발", "type" : "NNG", "position" : 19, "weight" : 1 },
		{"id" : 5, "lemma" : "하", "type" : "XSV", "position" : 25, "weight" : 1 },
		{"id" : 6, "lemma" : "았", "type" : "EP", "position" : 25, "weight" : 0.0269785 },
		{"id" : 7, "lemma" : "지만", "type" : "EC", "position" : 28, "weight" : 0.0271355 },
		{"id" : 8, "lemma" : ",", "type" : "SP", "position" : 34, "weight" : 1 },
		{"id" : 9, "lemma" : "1908", "type" : "SN", "position" : 36, "weight" : 0.756745 },
		{"id" : 10, "lemma" : "년", "type" : "NNB", "position" : 40, "weight" : 0.0299433 },
		{"id" : 11, "lemma" : "경", "type" : "XSN", "position" : 43, "weight" : 0.0243276 },
		{"id" : 12, "lemma" : "부터", "type" : "JX", "position" : 46, "weight" : 1 },
		{"id" : 13, "lemma" : "초", "type" : "NNG", "position" : 53, "weight" : 1 },
		{"id" : 14, "lemma" : "파리", "type" : "NNG", "position" : 56, "weight" : 1 },
		{"id" : 15, "lemma" : "를", "type" : "JKO", "position" : 62, "weight" : 0.0269785 },
		{"id" : 16, "lemma" : "사용", "type" : "NNG", "position" : 66, "weight" : 1 },
		{"id" : 17, "lemma" : "하", "type" : "XSV", "position" : 72, "weight" : 1 },
		{"id" : 18, "lemma" : "여", "type" : "EC", "position" : 75, "weight" : 0.0269785 },
		{"id" : 19, "lemma" : "유전", "type" : "NNG", "position" : 79, "weight" : 1 },
		{"id" : 20, "lemma" : "학", "type" : "XSN", "position" : 85, "weight" : 1 },
		{"id" : 21, "lemma" : "을", "type" : "JKO", "position" : 88, "weight" : 0.0269785 },
		{"id" : 22, "lemma" : "연구", "type" : "NNG", "position" : 92, "weight" : 1 },
		{"id" : 23, "lemma" : "하", "type" : "XSV", "position" : 98, "weight" : 1 },
		{"id" : 24, "lemma" : "기", "type" : "ETN", "position" : 101, "weight" : 0.0269785 },
		{"id" : 25, "lemma" : "시작", "type" : "NNG", "position" : 105, "weight" : 1 },
		{"id" : 26, "lemma" : "하", "type" : "XSV", "position" : 111, "weight" : 1 },
		{"id" : 27, "lemma" : "였", "type" : "EP", "position" : 114, "weight" : 0.0269785 },
		{"id" : 28, "lemma" : "다", "type" : "EF", "position" : 117, "weight" : 0.0299433 },
		{"id" : 29, "lemma" : ".", "type" : "SF", "position" : 120, "weight" : 0.0243276 }
	],
	"morp_eval" : [
	],
	"WSD" : [
	],
	"word" : [
		{"id" : 0, "text" : "발생학자로서", "type" : "", "begin" : 0, "end" : 3},
		{"id" : 1, "text" : "출발했지만,", "type" : "", "begin" : 4, "end" : 8},
		{"id" : 2, "text" : "1908년경부터", "type" : "", "begin" : 9, "end" : 12},
		{"id" : 3, "text" : "초파리를", "type" : "", "begin" : 13, "end" : 15},
		{"id" : 4, "text" : "사용하여", "type" : "", "begin" : 16, "end" : 18},
		{"id" : 5, "text" : "유전학을", "type" : "", "begin" : 19, "end" : 21},
		{"id" : 6, "text" : "연구하기", "type" : "", "begin" : 22, "end" : 24},
		{"id" : 7, "text" : "시작하였다.", "type" : "", "begin" : 25, "end" : 29}
	],
	"NE" : [
		{"id" : 0, "text" : "발생학자", "type" : "CV_OCCUPATION", "begin" : 0, "end" : 2, "weight" : 0.156653, "common_noun" : 0},
		{"id" : 1, "text" : "1908년경", "type" : "DT_YEAR", "begin" : 9, "end" : 11, "weight" : 0.642395, "common_noun" : 0},
		{"id" : 2, "text" : "초파리", "type" : "AM_INSECT", "begin" : 13, "end" : 14, "weight" : 0.136388, "common_noun" : 0},
		{"id" : 3, "text" : "유전학", "type" : "FD_SCIENCE", "begin" : 19, "end" : 20, "weight" : 0.499304, "common_noun" : 0}
	],
	"chunk" : [
	],
	"dependency" : [
		{"id" : 0, "text" : "발생학자로서", "head" : 1, "label" : "NP_AJT", "mod" : [], "weight" : 0.825258 },
		{"id" : 1, "text" : "출발했지만,", "head" : 4, "label" : "VP", "mod" : [0], "weight" : 0.578662 },
		{"id" : 2, "text" : "1908년경부터", "head" : 4, "label" : "NP_AJT", "mod" : [], "weight" : 0.860004 },
		{"id" : 3, "text" : "초파리를", "head" : 4, "label" : "NP_OBJ", "mod" : [], "weight" : 0.831711 },
		{"id" : 4, "text" : "사용하여", "head" : 6, "label" : "VP", "mod" : [1, 2, 3], "weight" : 0.885515 },
		{"id" : 5, "text" : "유전학을", "head" : 6, "label" : "NP_OBJ", "mod" : [], "weight" : 0.634439 },
		{"id" : 6, "text" : "연구하기", "head" : 7, "label" : "VP_OBJ", "mod" : [4, 5], "weight" : 0.449959 },
		{"id" : 7, "text" : "시작하였다.", "head" : -1, "label" : "VP", "mod" : [6], "weight" : 0.665674 }
	],
	"SRL" : [
		{"verb" : "출발", "sense" : 1, "word_id" : 1, "weight" : 0.806281,
			"argument" : [
				{"type" : "ARGM-PRD", "word_id" : 0, "text" : "발생학자로서", "weight" : 0.806281 }
			] },
		{"verb" : "사용", "sense" : 1, "word_id" : 4, "weight" : 0.185294,
			"argument" : [
				{"type" : "ARGM-TMP", "word_id" : 2, "text" : "1908년경부터", "weight" : 0.15738 },
				{"type" : "ARG1", "word_id" : 3, "text" : "초파리를", "weight" : 0.213207 }
			] },
		{"verb" : "연구", "sense" : 1, "word_id" : 6, "weight" : 0.186388,
			"argument" : [
				{"type" : "ARG1", "word_id" : 5, "text" : "유전학을", "weight" : 0.186388 }
			] },
		{"verb" : "시작", "sense" : 1, "word_id" : 7, "weight" : 0.15589,
			"argument" : [
				{"type" : "ARG1", "word_id" : 6, "text" : "연구하기", "weight" : 0.15589 }
			] }
	],
	"relation" : [
	],
	"SA" : [
	],
	"ZA" : [
	]
	}
 ],
 "entity" : [
 ]
}

