{
    "doc_id": "E2016.888.13_Q_01.json", 
    "DCT": "", 
    "category": "", 
    "category_weight": 0, 
    "title": {
        "text": "", 
        "NE": ""
    }, 
    "metaInfo": {}, 
    "sentence": [
        {
            "id": 0, 
            "reserve_str": "", 
            "text": "이것은 20만원 이하의 벌금이나 구류 및 과료의 형벌이 부과되는 사건에 적용되는 것으로 경찰 서장의 청구에 의해 순회 판사가 약식으로 행하는 심판이다.", 
            "morp": [
                {"id": 0, "lemma": "이것", "type": "NP", "position": 0, "weight": 0.0733657}, 
                {"id": 1, "lemma": "은", "type": "JX", "position": 6, "weight": 0.191811}, 
                {"id": 2, "lemma": "20", "type": "SN", "position": 10, "weight": 1}, 
                {"id": 3, "lemma": "만", "type": "NR", "position": 12, "weight": 0.0178717}, 
                {"id": 4, "lemma": "원", "type": "NNB", "position": 15, "weight": 0.318791}, 
                {"id": 5, "lemma": "이하", "type": "NNG", "position": 19, "weight": 0.110243}, 
                {"id": 6, "lemma": "의", "type": "JKG", "position": 25, "weight": 0.0694213}, 
                {"id": 7, "lemma": "벌금", "type": "NNG", "position": 29, "weight": 0.9}, 
                {"id": 8, "lemma": "이나", "type": "JC", "position": 35, "weight": 0.0238189}, 
                {"id": 9, "lemma": "구류", "type": "NNG", "position": 42, "weight": 0.9}, 
                {"id": 10, "lemma": "및", "type": "MAJ", "position": 49, "weight": 0.00215414}, 
                {"id": 11, "lemma": "과료", "type": "NNG", "position": 53, "weight": 0.9}, 
                {"id": 12, "lemma": "의", "type": "JKG", "position": 59, "weight": 0.0694213}, 
                {"id": 13, "lemma": "형벌", "type": "NNG", "position": 63, "weight": 0.9}, 
                {"id": 14, "lemma": "이", "type": "JKS", "position": 69, "weight": 0.0360723}, 
                {"id": 15, "lemma": "부과", "type": "NNG", "position": 73, "weight": 0.9}, 
                {"id": 16, "lemma": "되", "type": "XSV", "position": 79, "weight": 0.000224177}, 
                {"id": 17, "lemma": "는", "type": "ETM", "position": 82, "weight": 0.238503}, 
                {"id": 18, "lemma": "사건", "type": "NNG", "position": 86, "weight": 0.9}, 
                {"id": 19, "lemma": "에", "type": "JKB", "position": 92, "weight": 0.153364}, 
                {"id": 20, "lemma": "적용", "type": "NNG", "position": 96, "weight": 0.9}, 
                {"id": 21, "lemma": "되", "type": "XSV", "position": 102, "weight": 0.000224177}, 
                {"id": 22, "lemma": "는", "type": "ETM", "position": 105, "weight": 0.238503}, 
                {"id": 23, "lemma": "것", "type": "NNB", "position": 109, "weight": 0.228788}, 
                {"id": 24, "lemma": "으로", "type": "JKB", "position": 112, "weight": 0.135596}, 
                {"id": 25, "lemma": "경찰", "type": "NNG", "position": 119, "weight": 0.9}, 
                {"id": 26, "lemma": "서장", "type": "NNG", "position": 126, "weight": 0.182342}, 
                {"id": 27, "lemma": "의", "type": "JKG", "position": 132, "weight": 0.0694213}, 
                {"id": 28, "lemma": "청구", "type": "NNG", "position": 136, "weight": 0.791356}, 
                {"id": 29, "lemma": "에", "type": "JKB", "position": 142, "weight": 0.153364}, 
                {"id": 30, "lemma": "의하", "type": "VV", "position": 146, "weight": 0.9}, 
                {"id": 31, "lemma": "아", "type": "EC", "position": 149, "weight": 0.41831}, 
                {"id": 32, "lemma": "순회", "type": "NNG", "position": 153, "weight": 0.9}, 
                {"id": 33, "lemma": "판사", "type": "NNG", "position": 160, "weight": 0.9}, 
                {"id": 34, "lemma": "가", "type": "JKS", "position": 166, "weight": 0.066324}, 
                {"id": 35, "lemma": "약식", "type": "NNG", "position": 170, "weight": 0.9}, 
                {"id": 36, "lemma": "으로", "type": "JKB", "position": 176, "weight": 0.153406}, 
                {"id": 37, "lemma": "행하", "type": "VV", "position": 183, "weight": 0.442614}, 
                {"id": 38, "lemma": "는", "type": "ETM", "position": 189, "weight": 0.184941}, 
                {"id": 39, "lemma": "심판", "type": "NNG", "position": 193, "weight": 0.653178}, 
                {"id": 40, "lemma": "이", "type": "VCP", "position": 199, "weight": 0.0177525}, 
                {"id": 41, "lemma": "다", "type": "EF", "position": 202, "weight": 0.353579}, 
                {"id": 42, "lemma": ".", "type": "SF", "position": 205, "weight": 1}
            ], 
            "morp_eval": [], 
            "WSD": [
                {"id": 0, "text": "이것", "type": "NP", "scode": "000001", "weight": 0.25, "position": 0, "begin": 0, "end": 0}, 
                {"id": 1, "text": "은", "type": "JX", "scode": "000000", "weight": 1, "position": 6, "begin": 1, "end": 1}, 
                {"id": 2, "text": "20", "type": "SN", "scode": "000000", "weight": 1, "position": 10, "begin": 2, "end": 2}, 
                {"id": 3, "text": "만", "type": "NR", "scode": "060000", "weight": 0.0416667, "position": 12, "begin": 3, "end": 3}, 
                {"id": 4, "text": "원", "type": "NNB", "scode": "010000", "weight": 0.04, "position": 15, "begin": 4, "end": 4}, 
                {"id": 5, "text": "이하", "type": "NNG", "scode": "020001", "weight": 0.142857, "position": 19, "begin": 5, "end": 5}, 
                {"id": 6, "text": "의", "type": "JKG", "scode": "000000", "weight": 1, "position": 25, "begin": 6, "end": 6}, 
                {"id": 7, "text": "벌금", "type": "NNG", "scode": "000002", "weight": 0.5, "position": 29, "begin": 7, "end": 7}, 
                {"id": 8, "text": "이나", "type": "JC", "scode": "000000", "weight": 1, "position": 35, "begin": 8, "end": 8}, 
                {"id": 9, "text": "구류", "type": "NNG", "scode": "040000", "weight": 0.166667, "position": 42, "begin": 9, "end": 9}, 
                {"id": 10, "text": "및", "type": "MAJ", "scode": "000000", "weight": 1, "position": 49, "begin": 10, "end": 10}, 
                {"id": 11, "text": "과료", "type": "NNG", "scode": "010000", "weight": 0.5, "position": 53, "begin": 11, "end": 11}, 
                {"id": 12, "text": "의", "type": "JKG", "scode": "000000", "weight": 1, "position": 59, "begin": 12, "end": 12}, 
                {"id": 13, "text": "형벌", "type": "NNG", "scode": "000000", "weight": 1, "position": 63, "begin": 13, "end": 13}, 
                {"id": 14, "text": "이", "type": "JKS", "scode": "000000", "weight": 1, "position": 69, "begin": 14, "end": 14}, 
                {"id": 15, "text": "부과되", "type": "VV", "scode": "000001", "weight": 0.5, "position": 73, "begin": 15, "end": 16}, 
                {"id": 16, "text": "는", "type": "ETM", "scode": "000000", "weight": 1, "position": 82, "begin": 17, "end": 17}, 
                {"id": 17, "text": "사건", "type": "NNG", "scode": "010001", "weight": 0.25, "position": 86, "begin": 18, "end": 18}, 
                {"id": 18, "text": "에", "type": "JKB", "scode": "000000", "weight": 1, "position": 92, "begin": 19, "end": 19}, 
                {"id": 19, "text": "적용되", "type": "VV", "scode": "000000", "weight": 1, "position": 96, "begin": 20, "end": 21}, 
                {"id": 20, "text": "는", "type": "ETM", "scode": "000000", "weight": 1, "position": 105, "begin": 22, "end": 22}, 
                {"id": 21, "text": "것", "type": "NNB", "scode": "010001", "weight": 0.125, "position": 109, "begin": 23, "end": 23}, 
                {"id": 22, "text": "으로", "type": "JKB", "scode": "000000", "weight": 1, "position": 112, "begin": 24, "end": 24}, 
                {"id": 23, "text": "경찰", "type": "NNG", "scode": "040002", "weight": 0.166667, "position": 119, "begin": 25, "end": 25}, 
                {"id": 24, "text": "서장", "type": "NNG", "scode": "070000", "weight": 0.111111, "position": 126, "begin": 26, "end": 26}, 
                {"id": 25, "text": "의", "type": "JKG", "scode": "000000", "weight": 1, "position": 132, "begin": 27, "end": 27}, 
                {"id": 26, "text": "청구", "type": "NNG", "scode": "040002", "weight": 0.2, "position": 136, "begin": 28, "end": 28}, 
                {"id": 27, "text": "에", "type": "JKB", "scode": "000000", "weight": 1, "position": 142, "begin": 29, "end": 29}, 
                {"id": 28, "text": "의하", "type": "VV", "scode": "010000", "weight": 0.5, "position": 146, "begin": 30, "end": 30}, 
                {"id": 29, "text": "아", "type": "EC", "scode": "000000", "weight": 1, "position": 149, "begin": 31, "end": 31}, 
                {"id": 30, "text": "순회", "type": "NNG", "scode": "000000", "weight": 1, "position": 153, "begin": 32, "end": 32}, 
                {"id": 31, "text": "판사", "type": "NNG", "scode": "010000", "weight": 0.142857, "position": 160, "begin": 33, "end": 33}, 
                {"id": 32, "text": "가", "type": "JKS", "scode": "000000", "weight": 1, "position": 166, "begin": 34, "end": 34}, 
                {"id": 33, "text": "약식", "type": "NNG", "scode": "020000", "weight": 0.333333, "position": 170, "begin": 35, "end": 35}, 
                {"id": 34, "text": "으로", "type": "JKB", "scode": "000000", "weight": 1, "position": 176, "begin": 36, "end": 36}, 
                {"id": 35, "text": "행하", "type": "VV", "scode": "000000", "weight": 1, "position": 183, "begin": 37, "end": 37}, 
                {"id": 36, "text": "는", "type": "ETM", "scode": "000000", "weight": 1, "position": 189, "begin": 38, "end": 38}, 
                {"id": 37, "text": "심판", "type": "NNG", "scode": "020003", "weight": 0.125, "position": 193, "begin": 39, "end": 39}, 
                {"id": 38, "text": "이", "type": "VCP", "scode": "030000", "weight": 0.0172414, "position": 199, "begin": 40, "end": 40}, 
                {"id": 39, "text": "다", "type": "EF", "scode": "000000", "weight": 1, "position": 202, "begin": 41, "end": 41}, 
                {"id": 40, "text": ".", "type": "SF", "scode": "000000", "weight": 1, "position": 205, "begin": 42, "end": 42}
            ], 
            "word": [
                {"id": 0, "text": "이것은", "type": "", "begin": 0, "end": 1}, 
                {"id": 1, "text": "20만원", "type": "", "begin": 2, "end": 4}, 
                {"id": 2, "text": "이하의", "type": "", "begin": 5, "end": 6}, 
                {"id": 3, "text": "벌금이나", "type": "", "begin": 7, "end": 8}, 
                {"id": 4, "text": "구류", "type": "", "begin": 9, "end": 9}, 
                {"id": 5, "text": "및", "type": "", "begin": 10, "end": 10}, 
                {"id": 6, "text": "과료의", "type": "", "begin": 11, "end": 12}, 
                {"id": 7, "text": "형벌이", "type": "", "begin": 13, "end": 14}, 
                {"id": 8, "text": "부과되는", "type": "", "begin": 15, "end": 17}, 
                {"id": 9, "text": "사건에", "type": "", "begin": 18, "end": 19}, 
                {"id": 10, "text": "적용되는", "type": "", "begin": 20, "end": 22}, 
                {"id": 11, "text": "것으로", "type": "", "begin": 23, "end": 24}, 
                {"id": 12, "text": "경찰", "type": "", "begin": 25, "end": 25}, 
                {"id": 13, "text": "서장의", "type": "", "begin": 26, "end": 27}, 
                {"id": 14, "text": "청구에", "type": "", "begin": 28, "end": 29}, 
                {"id": 15, "text": "의해", "type": "", "begin": 30, "end": 31}, 
                {"id": 16, "text": "순회", "type": "", "begin": 32, "end": 32}, 
                {"id": 17, "text": "판사가", "type": "", "begin": 33, "end": 34}, 
                {"id": 18, "text": "약식으로", "type": "", "begin": 35, "end": 36}, 
                {"id": 19, "text": "행하는", "type": "", "begin": 37, "end": 38}, 
                {"id": 20, "text": "심판이다.", "type": "", "begin": 39, "end": 42}
            ], 
            "NE": [
                {"id": 0, "text": "20만원", "type": "QT_PRICE", "begin": 2, "end": 4, "weight": 0.826534, "common_noun": 0}, 
                {"id": 1, "text": "벌금", "type": "CV_LAW", "begin": 7, "end": 7, "weight": 0.55574, "common_noun": 0}, 
                {"id": 2, "text": "구류", "type": "CV_LAW", "begin": 9, "end": 9, "weight": 0.367257, "common_noun": 0}, 
                {"id": 3, "text": "과료", "type": "CV_LAW", "begin": 11, "end": 11, "weight": 0.280734, "common_noun": 0}, 
                {"id": 4, "text": "경찰 서장", "type": "CV_POSITION", "begin": 25, "end": 26, "weight": 0.242056, "common_noun": 0}, 
                {"id": 5, "text": "판사", "type": "CV_OCCUPATION", "begin": 33, "end": 33, "weight": 0.593003, "common_noun": 0}
            ], 
            "chunk": [], 
            "dependency": [
                {"id": 0, "text": "이것은", "head": 11, "label": "NP_SBJ", "mod": [], "weight": 0.0380583}, 
                {"id": 1, "text": "20만원", "head": 2, "label": "NP", "mod": [], "weight": 0.623272}, 
                {"id": 2, "text": "이하의", "head": 3, "label": "NP_MOD", "mod": [1], "weight": 0.600381}, 
                {"id": 3, "text": "벌금이나", "head": 6, "label": "NP_CNJ", "mod": [2], "weight": 0.685212}, 
                {"id": 4, "text": "구류", "head": 6, "label": "NP_CNJ", "mod": [], "weight": 0.310169}, 
                {"id": 5, "text": "및", "head": 6, "label": "AP", "mod": [], "weight": 0.245998}, 
                {"id": 6, "text": "과료의", "head": 7, "label": "NP_MOD", "mod": [3, 4, 5], "weight": 0.597023}, 
                {"id": 7, "text": "형벌이", "head": 8, "label": "NP_SBJ", "mod": [6], "weight": 0.711486}, 
                {"id": 8, "text": "부과되는", "head": 9, "label": "VP_MOD", "mod": [7], "weight": 0.74129}, 
                {"id": 9, "text": "사건에", "head": 10, "label": "NP_AJT", "mod": [8], "weight": 0.777376}, 
                {"id": 10, "text": "적용되는", "head": 11, "label": "VP_MOD", "mod": [9], "weight": 0.884267}, 
                {"id": 11, "text": "것으로", "head": 20, "label": "NP_AJT", "mod": [0, 10], "weight": 0.18052}, 
                {"id": 12, "text": "경찰", "head": 13, "label": "NP", "mod": [], "weight": 0.703833}, 
                {"id": 13, "text": "서장의", "head": 14, "label": "NP_MOD", "mod": [12], "weight": 0.695447}, 
                {"id": 14, "text": "청구에", "head": 15, "label": "NP_AJT", "mod": [13], "weight": 0.763218}, 
                {"id": 15, "text": "의해", "head": 19, "label": "VP", "mod": [14], "weight": 0.823895}, 
                {"id": 16, "text": "순회", "head": 17, "label": "NP", "mod": [], "weight": 0.796223}, 
                {"id": 17, "text": "판사가", "head": 19, "label": "NP_SBJ", "mod": [16], "weight": 0.788829}, 
                {"id": 18, "text": "약식으로", "head": 19, "label": "NP_AJT", "mod": [], "weight": 0.738838}, 
                {"id": 19, "text": "행하는", "head": 20, "label": "VP_MOD", "mod": [15, 17, 18], "weight": 0.770035}, 
                {"id": 20, "text": "심판이다.", "head": -1, "label": "VNP", "mod": [19, 11], "weight": 2.64681e-06}
            ], 
            "SRL": [
                {"verb": "부과", "sense": 1, "word_id": 8, "weight": 0.12796, "argument": [
                    {"type": "ARG1", "word_id": 7, "text": "형벌이", "weight": 0.12796}, 
                    {"type": "ARGM-EXT", "word_id": 2, "text": "이하의", "weight": 1}, 
                    {"type": "ARG2", "word_id": 9, "text": "사건에", "weight": 1}
                ]}, 
                {"verb": "적용", "sense": 1, "word_id": 10, "weight": 0.153747, "argument": [
                    {"type": "ARG2", "word_id": 9, "text": "사건에", "weight": 0.153747}, 
                    {"type": "ARG1", "word_id": 11, "text": "것으로", "weight": 1}
                ]}, 
                {"verb": "의하", "sense": 1, "word_id": 15, "weight": 0.267189, "argument": [
                    {"type": "ARG2", "word_id": 14, "text": "청구에", "weight": 0.267189}
                ]}, 
                {"verb": "행하", "sense": 1, "word_id": 19, "weight": 0.154178, "argument": [
                    {"type": "ARG0", "word_id": 17, "text": "판사가", "weight": 0.266647}, 
                    {"type": "ARGM-PRD", "word_id": 18, "text": "약식으로", "weight": 0.0814154}, 
                    {"type": "ARG1", "word_id": 20, "text": "심판이다.", "weight": 0.114471}
                ]}
            ], 
            "relation": [], 
            "SA": [], 
            "ZA": []
        }, 
        {
            "id": 1, 
            "reserve_str": "", 
            "text": "이 심판은 무엇일까? ", 
            "morp": [
                {"id": 0, "lemma": "이", "type": "MM", "position": 206, "weight": 0.0020222}, 
                {"id": 1, "lemma": "심판", "type": "NNG", "position": 210, "weight": 0.731114}, 
                {"id": 2, "lemma": "은", "type": "JX", "position": 216, "weight": 0.0449928}, 
                {"id": 3, "lemma": "무엇", "type": "NP", "position": 220, "weight": 0.9}, 
                {"id": 4, "lemma": "이", "type": "VCP", "position": 226, "weight": 0.0175768}, 
                {"id": 5, "lemma": "ㄹ까", "type": "EF", "position": 226, "weight": 0.258243}, 
                {"id": 6, "lemma": "?", "type": "SF", "position": 232, "weight": 1}
            ], 
            "morp_eval": [], 
            "WSD": [
                {"id": 0, "text": "이", "type": "MM", "scode": "050102", "weight": 0.0172414, "position": 206, "begin": 0, "end": 0}, 
                {"id": 1, "text": "심판", "type": "NNG", "scode": "020003", "weight": 0.125, "position": 210, "begin": 1, "end": 1}, 
                {"id": 2, "text": "은", "type": "JX", "scode": "000000", "weight": 1, "position": 216, "begin": 2, "end": 2}, 
                {"id": 3, "text": "무엇", "type": "NP", "scode": "000001", "weight": 0.5, "position": 220, "begin": 3, "end": 3}, 
                {"id": 4, "text": "이", "type": "VCP", "scode": "030000", "weight": 0.0172414, "position": 226, "begin": 4, "end": 4}, 
                {"id": 5, "text": "ㄹ까", "type": "EF", "scode": "000000", "weight": 1, "position": 226, "begin": 5, "end": 5}, 
                {"id": 6, "text": "?", "type": "SF", "scode": "000000", "weight": 1, "position": 232, "begin": 6, "end": 6}
            ], 
            "word": [
                {"id": 0, "text": "이", "type": "", "begin": 0, "end": 0}, 
                {"id": 1, "text": "심판은", "type": "", "begin": 1, "end": 2}, 
                {"id": 2, "text": "무엇일까?", "type": "", "begin": 3, "end": 6}
            ], 
            "NE": [], 
            "chunk": [], 
            "dependency": [
                {"id": 0, "text": "이", "head": 1, "label": "DP", "mod": [], "weight": 0.687291}, 
                {"id": 1, "text": "심판은", "head": 2, "label": "NP_SBJ", "mod": [0], "weight": 0.864312}, 
                {"id": 2, "text": "무엇일까?", "head": -1, "label": "VNP", "mod": [1], "weight": 0.522623}
            ], 
            "SRL": [], 
            "relation": [], 
            "SA": [], 
            "ZA": []
        }
    ], 
    "entity": [
        {"id": 0, "type": "CV_OCCUPATION", "number": "singular", "gender": "", "person": "", "animacy": "thing", "mention": [
            {"id": 0, "sent_id": 0, "start_eid": 0, "end_eid": 0, "ne_id": -1, "text": "이것은", "start_eid_short": 0, "end_eid_short": 0, "text_short": "이것은"}, 
            {"id": 1, "sent_id": 0, "start_eid": 1, "end_eid": 11, "ne_id": -1, "text": "20만원 이하의 벌금이나 구류 및 과료의 형벌이 부과되는 사건에 적용되는 것으로", "start_eid_short": 11, "end_eid_short": 11, "text_short": "것으로"}, 
            {"id": 10, "sent_id": 0, "start_eid": 12, "end_eid": 20, "ne_id": 5, "text": "경찰 서장의 청구에 의해 순회 판사가 약식으로 행하는 심판이다.", "start_eid_short": 20, "end_eid_short": 20, "text_short": "심판이다."}, 
            {"id": 17, "sent_id": 1, "start_eid": 0, "end_eid": 1, "ne_id": 0, "text": "이 심판은", "start_eid_short": 0, "end_eid_short": 1, "text_short": "이 심판은"}, 
            {"id": 18, "sent_id": 1, "start_eid": 2, "end_eid": 2, "ne_id": -1, "text": "무엇일까?", "start_eid_short": 2, "end_eid_short": 2, "text_short": "무엇일까?"}
        ]}, 
        {"id": 1, "type": "", "number": "singular", "gender": "", "person": "", "animacy": "thing", "mention": [
            {"id": 2, "sent_id": 0, "start_eid": 1, "end_eid": 9, "ne_id": -1, "text": "20만원 이하의 벌금이나 구류 및 과료의 형벌이 부과되는 사건에", "start_eid_short": 9, "end_eid_short": 9, "text_short": "사건에"}
        ]}, 
        {"id": 2, "type": "", "number": "singular", "gender": "", "person": "", "animacy": "thing", "mention": [
            {"id": 5, "sent_id": 0, "start_eid": 1, "end_eid": 2, "ne_id": -1, "text": "20만원 이하의", "start_eid_short": 1, "end_eid_short": 2, "text_short": "20만원 이하의"}
        ]}, 
        {"id": 3, "type": "QT_PRICE", "number": "singular", "gender": "", "person": "", "animacy": "thing", "mention": [
            {"id": 6, "sent_id": 0, "start_eid": 1, "end_eid": 1, "ne_id": 0, "text": "20만원", "start_eid_short": 1, "end_eid_short": 1, "text_short": "20만원"}
        ]}, 
        {"id": 4, "type": "CV_LAW", "number": "singular", "gender": "", "person": "", "animacy": "thing", "mention": [
            {"id": 4, "sent_id": 0, "start_eid": 1, "end_eid": 3, "ne_id": 1, "text": "20만원 이하의 벌금이나", "start_eid_short": 3, "end_eid_short": 3, "text_short": "벌금이나"}
        ]}, 
        {"id": 5, "type": "", "number": "singular", "gender": "", "person": "", "animacy": "thing", "mention": [
            {"id": 9, "sent_id": 0, "start_eid": 6, "end_eid": 6, "ne_id": -1, "text": "과료의", "start_eid_short": 6, "end_eid_short": 6, "text_short": "과료의"}
        ]}, 
        {"id": 6, "type": "", "number": "singular", "gender": "", "person": "", "animacy": "thing", "mention": [
            {"id": 8, "sent_id": 0, "start_eid": 4, "end_eid": 4, "ne_id": -1, "text": "구류", "start_eid_short": 4, "end_eid_short": 4, "text_short": "구류"}
        ]}, 
        {"id": 7, "type": "", "number": "singular", "gender": "", "person": "", "animacy": "thing", "mention": [
            {"id": 3, "sent_id": 0, "start_eid": 1, "end_eid": 7, "ne_id": -1, "text": "20만원 이하의 벌금이나 구류 및 과료의 형벌이", "start_eid_short": 7, "end_eid_short": 7, "text_short": "형벌이"}
        ]}, 
        {"id": 8, "type": "CV_POSITION", "number": "singular", "gender": "", "person": "", "animacy": "human", "mention": [
            {"id": 12, "sent_id": 0, "start_eid": 12, "end_eid": 13, "ne_id": 3, "text": "경찰 서장의", "start_eid_short": 12, "end_eid_short": 13, "text_short": "경찰 서장의"}
        ]}, 
        {"id": 9, "type": "OGG_POLITICS", "number": "singular", "gender": "", "person": "", "animacy": "thing", "mention": [
            {"id": 13, "sent_id": 0, "start_eid": 12, "end_eid": 12, "ne_id": 2, "text": "경찰", "start_eid_short": 12, "end_eid_short": 12, "text_short": "경찰"}
        ]}, 
        {"id": 10, "type": "", "number": "singular", "gender": "", "person": "", "animacy": "thing", "mention": [
            {"id": 11, "sent_id": 0, "start_eid": 12, "end_eid": 14, "ne_id": -1, "text": "경찰 서장의 청구에", "start_eid_short": 14, "end_eid_short": 14, "text_short": "청구에"}
        ]}, 
        {"id": 11, "type": "CV_OCCUPATION", "number": "singular", "gender": "", "person": "", "animacy": "thing", "mention": [
            {"id": 14, "sent_id": 0, "start_eid": 16, "end_eid": 17, "ne_id": 4, "text": "순회 판사가", "start_eid_short": 16, "end_eid_short": 17, "text_short": "순회 판사가"}
        ]}, 
        {"id": 12, "type": "", "number": "singular", "gender": "", "person": "", "animacy": "thing", "mention": [
            {"id": 15, "sent_id": 0, "start_eid": 16, "end_eid": 16, "ne_id": -1, "text": "순회", "start_eid_short": 16, "end_eid_short": 16, "text_short": "순회"}
        ]}, 
        {"id": 13, "type": "", "number": "singular", "gender": "", "person": "", "animacy": "thing", "mention": [
            {"id": 16, "sent_id": 0, "start_eid": 18, "end_eid": 18, "ne_id": -1, "text": "약식으로", "start_eid_short": 18, "end_eid_short": 18, "text_short": "약식으로"}
        ]}, 
        {"id": 14, "type": "", "number": "singular", "gender": "", "person": "", "animacy": "thing", "mention": [
            {"id": 7, "sent_id": 0, "start_eid": 4, "end_eid": 7, "ne_id": -1, "text": "구류 및 과료의 형벌이", "start_eid_short": 7, "end_eid_short": 7, "text_short": "형벌이"}
        ]}
    ]
}