{
    "doc_id": "E2016.788.25_A_02.json", 
    "DCT": "", 
    "category": "", 
    "category_weight": 0, 
    "title": {
        "text": "성삼문", 
        "NE": ""
    }, 
    "metaInfo": {}, 
    "sentence": [
        {
            "id": 0, 
            "reserve_str": "", 
            "text": "<인명> 조선 세종 때의 문신(1418~1456).", 
            "morp": [
                {"id": 0, "lemma": "<", "type": "SS", "position": 0, "weight": 1}, 
                {"id": 1, "lemma": "인명", "type": "NNG", "position": 1, "weight": 0.0157248}, 
                {"id": 2, "lemma": ">", "type": "SS", "position": 7, "weight": 1}, 
                {"id": 3, "lemma": "조선", "type": "NNP", "position": 9, "weight": 0.0663851}, 
                {"id": 4, "lemma": "세종", "type": "NNP", "position": 16, "weight": 0.0807222}, 
                {"id": 5, "lemma": "때", "type": "NNG", "position": 23, "weight": 0.280999}, 
                {"id": 6, "lemma": "의", "type": "JKG", "position": 26, "weight": 0.0694213}, 
                {"id": 7, "lemma": "문신", "type": "NNG", "position": 30, "weight": 0.9}, 
                {"id": 8, "lemma": "(", "type": "SS", "position": 36, "weight": 1}, 
                {"id": 9, "lemma": "1418", "type": "SN", "position": 37, "weight": 1}, 
                {"id": 10, "lemma": "~", "type": "SO", "position": 41, "weight": 1}, 
                {"id": 11, "lemma": "1456", "type": "SN", "position": 42, "weight": 1}, 
                {"id": 12, "lemma": ")", "type": "SS", "position": 46, "weight": 1}, 
                {"id": 13, "lemma": ".", "type": "SF", "position": 47, "weight": 1}
            ], 
            "morp_eval": [], 
            "WSD": [
                {"id": 0, "text": "<", "type": "SS", "scode": "000000", "weight": 1, "position": 0, "begin": 0, "end": 0}, 
                {"id": 1, "text": "인명", "type": "NNG", "scode": "010000", "weight": 0.2, "position": 1, "begin": 1, "end": 1}, 
                {"id": 2, "text": ">", "type": "SS", "scode": "000000", "weight": 1, "position": 7, "begin": 2, "end": 2}, 
                {"id": 3, "text": "조선", "type": "NNP", "scode": "050002", "weight": 0.0833333, "position": 9, "begin": 3, "end": 3}, 
                {"id": 4, "text": "세종", "type": "NNP", "scode": "020000", "weight": 0.166667, "position": 16, "begin": 4, "end": 4}, 
                {"id": 5, "text": "때", "type": "NNG", "scode": "010005", "weight": 0.0666667, "position": 23, "begin": 5, "end": 5}, 
                {"id": 6, "text": "의", "type": "JKG", "scode": "000000", "weight": 1, "position": 26, "begin": 6, "end": 6}, 
                {"id": 7, "text": "문신", "type": "NNG", "scode": "010000", "weight": 0.25, "position": 30, "begin": 7, "end": 7}, 
                {"id": 8, "text": "(", "type": "SS", "scode": "000000", "weight": 1, "position": 36, "begin": 8, "end": 8}, 
                {"id": 9, "text": "1418", "type": "SN", "scode": "000000", "weight": 1, "position": 37, "begin": 9, "end": 9}, 
                {"id": 10, "text": "~", "type": "SO", "scode": "000000", "weight": 1, "position": 41, "begin": 10, "end": 10}, 
                {"id": 11, "text": "1456", "type": "SN", "scode": "000000", "weight": 1, "position": 42, "begin": 11, "end": 11}, 
                {"id": 12, "text": ")", "type": "SS", "scode": "000000", "weight": 1, "position": 46, "begin": 12, "end": 12}, 
                {"id": 13, "text": ".", "type": "SF", "scode": "000000", "weight": 1, "position": 47, "begin": 13, "end": 13}
            ], 
            "word": [
                {"id": 0, "text": "<인명>", "type": "", "begin": 0, "end": 2}, 
                {"id": 1, "text": "조선", "type": "", "begin": 3, "end": 3}, 
                {"id": 2, "text": "세종", "type": "", "begin": 4, "end": 4}, 
                {"id": 3, "text": "때의", "type": "", "begin": 5, "end": 6}, 
                {"id": 4, "text": "문신(1418~1456).", "type": "", "begin": 7, "end": 13}
            ], 
            "NE": [
                {"id": 0, "text": "조선 세종 때", "type": "DT_DYNASTY", "begin": 3, "end": 5, "weight": 0.92582, "common_noun": 0}, 
                {"id": 1, "text": "문신", "type": "CV_POSITION", "begin": 7, "end": 7, "weight": 0.450234, "common_noun": 0}, 
                {"id": 2, "text": "1418~1456", "type": "DT_DURATION", "begin": 9, "end": 11, "weight": 0.426433, "common_noun": 0}
            ], 
            "chunk": [], 
            "dependency": [
                {"id": 0, "text": "<인명>", "head": 4, "label": "NP", "mod": [], "weight": 0.849155}, 
                {"id": 1, "text": "조선", "head": 2, "label": "NP", "mod": [], "weight": 0.775799}, 
                {"id": 2, "text": "세종", "head": 3, "label": "NP", "mod": [1], "weight": 0.796172}, 
                {"id": 3, "text": "때의", "head": 4, "label": "NP_MOD", "mod": [2], "weight": 0.771313}, 
                {"id": 4, "text": "문신(1418~1456).", "head": -1, "label": "NP", "mod": [0, 3], "weight": 0.338756}
            ], 
            "SRL": [], 
            "relation": [], 
            "SA": [], 
            "ZA": []
        }, 
        {
            "id": 1, 
            "reserve_str": "", 
            "text": "자는 근보(謹甫).", 
            "morp": [
                {"id": 0, "lemma": "자", "type": "NNG", "position": 48, "weight": 0.0525675}, 
                {"id": 1, "lemma": "는", "type": "JX", "position": 51, "weight": 0.0287565}, 
                {"id": 2, "lemma": "근보", "type": "NNP", "position": 55, "weight": 0.05}, 
                {"id": 3, "lemma": "(", "type": "SS", "position": 61, "weight": 1}, 
                {"id": 4, "lemma": "謹甫", "type": "SH", "position": 62, "weight": 1}, 
                {"id": 5, "lemma": ")", "type": "SS", "position": 68, "weight": 1}, 
                {"id": 6, "lemma": ".", "type": "SF", "position": 69, "weight": 1}
            ], 
            "morp_eval": [], 
            "WSD": [
                {"id": 0, "text": "자", "type": "NNG", "scode": "130000", "weight": 0.0217391, "position": 48, "begin": 0, "end": 0}, 
                {"id": 1, "text": "는", "type": "JX", "scode": "000000", "weight": 1, "position": 51, "begin": 1, "end": 1}, 
                {"id": 2, "text": "근보", "type": "NNP", "scode": "000000", "weight": 0, "position": 55, "begin": 2, "end": 2}, 
                {"id": 3, "text": "(", "type": "SS", "scode": "000000", "weight": 1, "position": 61, "begin": 3, "end": 3}, 
                {"id": 4, "text": "謹甫", "type": "SH", "scode": "000000", "weight": 1, "position": 62, "begin": 4, "end": 4}, 
                {"id": 5, "text": ")", "type": "SS", "scode": "000000", "weight": 1, "position": 68, "begin": 5, "end": 5}, 
                {"id": 6, "text": ".", "type": "SF", "scode": "000000", "weight": 1, "position": 69, "begin": 6, "end": 6}
            ], 
            "word": [
                {"id": 0, "text": "자는", "type": "", "begin": 0, "end": 1}, 
                {"id": 1, "text": "근보(謹甫).", "type": "", "begin": 2, "end": 6}
            ], 
            "NE": [
                {"id": 0, "text": "근보", "type": "PS_NAME", "begin": 2, "end": 2, "weight": 0.463912, "common_noun": 0}, 
                {"id": 1, "text": "謹甫", "type": "PS_NAME", "begin": 4, "end": 4, "weight": 0.145825, "common_noun": 0}
            ], 
            "chunk": [], 
            "dependency": [
                {"id": 0, "text": "자는", "head": 1, "label": "NP_SBJ", "mod": [], "weight": 0.834382}, 
                {"id": 1, "text": "근보(謹甫).", "head": -1, "label": "NP", "mod": [0], "weight": 0.708934}
            ], 
            "SRL": [], 
            "relation": [], 
            "SA": [], 
            "ZA": []
        }, 
        {
            "id": 2, 
            "reserve_str": "", 
            "text": "호는 매죽헌(梅竹軒).", 
            "morp": [
                {"id": 0, "lemma": "호", "type": "NNG", "position": 70, "weight": 0.18669}, 
                {"id": 1, "lemma": "는", "type": "JX", "position": 73, "weight": 0.0287565}, 
                {"id": 2, "lemma": "매죽헌", "type": "NNP", "position": 77, "weight": 0.15}, 
                {"id": 3, "lemma": "(", "type": "SS", "position": 86, "weight": 1}, 
                {"id": 4, "lemma": "梅竹軒", "type": "SH", "position": 87, "weight": 1}, 
                {"id": 5, "lemma": ")", "type": "SS", "position": 96, "weight": 1}, 
                {"id": 6, "lemma": ".", "type": "SF", "position": 97, "weight": 1}
            ], 
            "morp_eval": [], 
            "WSD": [
                {"id": 0, "text": "호", "type": "NNG", "scode": "130001", "weight": 0.0333333, "position": 70, "begin": 0, "end": 0}, 
                {"id": 1, "text": "는", "type": "JX", "scode": "000000", "weight": 1, "position": 73, "begin": 1, "end": 1}, 
                {"id": 2, "text": "매죽헌", "type": "NNP", "scode": "000000", "weight": 1, "position": 77, "begin": 2, "end": 2}, 
                {"id": 3, "text": "(", "type": "SS", "scode": "000000", "weight": 1, "position": 86, "begin": 3, "end": 3}, 
                {"id": 4, "text": "梅竹軒", "type": "SH", "scode": "000000", "weight": 1, "position": 87, "begin": 4, "end": 4}, 
                {"id": 5, "text": ")", "type": "SS", "scode": "000000", "weight": 1, "position": 96, "begin": 5, "end": 5}, 
                {"id": 6, "text": ".", "type": "SF", "scode": "000000", "weight": 1, "position": 97, "begin": 6, "end": 6}
            ], 
            "word": [
                {"id": 0, "text": "호는", "type": "", "begin": 0, "end": 1}, 
                {"id": 1, "text": "매죽헌(梅竹軒).", "type": "", "begin": 2, "end": 6}
            ], 
            "NE": [
                {"id": 0, "text": "매죽헌", "type": "PS_NAME", "begin": 2, "end": 2, "weight": 0.626828, "common_noun": 0}, 
                {"id": 1, "text": "梅竹軒", "type": "PS_NAME", "begin": 4, "end": 4, "weight": 1, "common_noun": 0}
            ], 
            "chunk": [], 
            "dependency": [
                {"id": 0, "text": "호는", "head": 1, "label": "NP_SBJ", "mod": [], "weight": 0.797388}, 
                {"id": 1, "text": "매죽헌(梅竹軒).", "head": -1, "label": "NP", "mod": [0], "weight": 0.68126}
            ], 
            "SRL": [], 
            "relation": [], 
            "SA": [], 
            "ZA": []
        }, 
        {
            "id": 3, 
            "reserve_str": "", 
            "text": "집현전 학사로 세종을 도와 <훈민정음>을 창제하였다.", 
            "morp": [
                {"id": 0, "lemma": "집현전", "type": "NNP", "position": 98, "weight": 0.401453}, 
                {"id": 1, "lemma": "학사", "type": "NNG", "position": 108, "weight": 0.183934}, 
                {"id": 2, "lemma": "로", "type": "JKB", "position": 114, "weight": 0.153229}, 
                {"id": 3, "lemma": "세종", "type": "NNP", "position": 118, "weight": 0.0229499}, 
                {"id": 4, "lemma": "을", "type": "JKO", "position": 124, "weight": 0.0266447}, 
                {"id": 5, "lemma": "돕", "type": "VV", "position": 128, "weight": 0.777582}, 
                {"id": 6, "lemma": "아", "type": "EC", "position": 128, "weight": 0.398809}, 
                {"id": 7, "lemma": "<", "type": "SS", "position": 135, "weight": 1}, 
                {"id": 8, "lemma": "훈민정음", "type": "NNP", "position": 136, "weight": 0.0215289}, 
                {"id": 9, "lemma": ">", "type": "SS", "position": 148, "weight": 1}, 
                {"id": 10, "lemma": "을", "type": "JKO", "position": 149, "weight": 0.0336085}, 
                {"id": 11, "lemma": "창제", "type": "NNG", "position": 153, "weight": 0.9}, 
                {"id": 12, "lemma": "하", "type": "XSV", "position": 159, "weight": 0.0001}, 
                {"id": 13, "lemma": "었", "type": "EP", "position": 162, "weight": 0.9}, 
                {"id": 14, "lemma": "다", "type": "EF", "position": 165, "weight": 0.640954}, 
                {"id": 15, "lemma": ".", "type": "SF", "position": 168, "weight": 1}
            ], 
            "morp_eval": [], 
            "WSD": [
                {"id": 0, "text": "집현전", "type": "NNP", "scode": "000002", "weight": 0.5, "position": 98, "begin": 0, "end": 0}, 
                {"id": 1, "text": "학사", "type": "NNG", "scode": "020001", "weight": 0.0769231, "position": 108, "begin": 1, "end": 1}, 
                {"id": 2, "text": "로", "type": "JKB", "scode": "000000", "weight": 1, "position": 114, "begin": 2, "end": 2}, 
                {"id": 3, "text": "세종", "type": "NNP", "scode": "020000", "weight": 0.166667, "position": 118, "begin": 3, "end": 3}, 
                {"id": 4, "text": "을", "type": "JKO", "scode": "000000", "weight": 1, "position": 124, "begin": 4, "end": 4}, 
                {"id": 5, "text": "돕", "type": "VV", "scode": "000101", "weight": 0.142857, "position": 128, "begin": 5, "end": 5}, 
                {"id": 6, "text": "아", "type": "EC", "scode": "000000", "weight": 1, "position": 128, "begin": 6, "end": 6}, 
                {"id": 7, "text": "<", "type": "SS", "scode": "000000", "weight": 1, "position": 135, "begin": 7, "end": 7}, 
                {"id": 8, "text": "훈민정음", "type": "NNP", "scode": "000002", "weight": 0.5, "position": 136, "begin": 8, "end": 8}, 
                {"id": 9, "text": ">", "type": "SS", "scode": "000000", "weight": 1, "position": 148, "begin": 9, "end": 9}, 
                {"id": 10, "text": "을", "type": "JKO", "scode": "000000", "weight": 1, "position": 149, "begin": 10, "end": 10}, 
                {"id": 11, "text": "창제하", "type": "VV", "scode": "020000", "weight": 0.5, "position": 153, "begin": 11, "end": 12}, 
                {"id": 12, "text": "었", "type": "EP", "scode": "000000", "weight": 1, "position": 162, "begin": 13, "end": 13}, 
                {"id": 13, "text": "다", "type": "EF", "scode": "000000", "weight": 1, "position": 165, "begin": 14, "end": 14}, 
                {"id": 14, "text": ".", "type": "SF", "scode": "000000", "weight": 1, "position": 168, "begin": 15, "end": 15}
            ], 
            "word": [
                {"id": 0, "text": "집현전", "type": "", "begin": 0, "end": 0}, 
                {"id": 1, "text": "학사로", "type": "", "begin": 1, "end": 2}, 
                {"id": 2, "text": "세종을", "type": "", "begin": 3, "end": 4}, 
                {"id": 3, "text": "도와", "type": "", "begin": 5, "end": 6}, 
                {"id": 4, "text": "<훈민정음>을", "type": "", "begin": 7, "end": 10}, 
                {"id": 5, "text": "창제하였다.", "type": "", "begin": 11, "end": 15}
            ], 
            "NE": [
                {"id": 0, "text": "집현전", "type": "OGG_POLITICS", "begin": 0, "end": 0, "weight": 0.704859, "common_noun": 0}, 
                {"id": 1, "text": "학사", "type": "CV_POSITION", "begin": 1, "end": 1, "weight": 0.388204, "common_noun": 0}, 
                {"id": 2, "text": "세종", "type": "PS_NAME", "begin": 3, "end": 3, "weight": 0.529377, "common_noun": 0}, 
                {"id": 3, "text": "훈민정음", "type": "AFW_DOCUMENT", "begin": 8, "end": 8, "weight": 0.424249, "common_noun": 0}
            ], 
            "chunk": [], 
            "dependency": [
                {"id": 0, "text": "집현전", "head": 1, "label": "NP", "mod": [], "weight": 0.758578}, 
                {"id": 1, "text": "학사로", "head": 3, "label": "NP_AJT", "mod": [0], "weight": 0.743944}, 
                {"id": 2, "text": "세종을", "head": 3, "label": "NP_OBJ", "mod": [], "weight": 0.701445}, 
                {"id": 3, "text": "도와", "head": 5, "label": "VP", "mod": [1, 2], "weight": 0.767197}, 
                {"id": 4, "text": "<훈민정음>을", "head": 5, "label": "NP_OBJ", "mod": [], "weight": 0.656994}, 
                {"id": 5, "text": "창제하였다.", "head": -1, "label": "VP", "mod": [3, 4], "weight": 0.178112}
            ], 
            "SRL": [
                {"verb": "돕", "sense": 1, "word_id": 3, "weight": 0.17462, "argument": [
                    {"type": "ARGM-INS", "word_id": 1, "text": "학사로", "weight": 0.111766}, 
                    {"type": "ARG1", "word_id": 2, "text": "세종을", "weight": 0.237474}
                ]}, 
                {"verb": "창제", "sense": 1, "word_id": 5, "weight": 0.205174, "argument": [
                    {"type": "ARG1", "word_id": 4, "text": "<훈민정음>을", "weight": 0.205174}
                ]}
            ], 
            "relation": [], 
            "SA": [], 
            "ZA": []
        }
    ], 
    "entity": [
        {"id": 0, "type": "DT_DYNASTY", "number": "singular", "gender": "", "person": "", "animacy": "time", "mention": [
            {"id": 1, "sent_id": 0, "start_eid": 1, "end_eid": 3, "ne_id": 0, "text": "조선 세종 때의", "start_eid_short": 1, "end_eid_short": 3, "text_short": "조선 세종 때의"}
        ]}, 
        {"id": 1, "type": "DT_DURATION", "number": "singular", "gender": "", "person": "", "animacy": "time", "mention": [
            {"id": 0, "sent_id": 0, "start_eid": 1, "end_eid": 4, "ne_id": 1, "text": "조선 세종 때의 문신(1418~1456).", "start_eid_short": 4, "end_eid_short": 4, "text_short": "문신(1418~1456)."}
        ]}, 
        {"id": 2, "type": "", "number": "singular", "gender": "", "person": "", "animacy": "thing", "mention": [
            {"id": 2, "sent_id": 1, "start_eid": 0, "end_eid": 0, "ne_id": -1, "text": "자는", "start_eid_short": 0, "end_eid_short": 0, "text_short": "자는"}
        ]}, 
        {"id": 3, "type": "PS_NAME", "number": "singular", "gender": "", "person": "", "animacy": "human", "mention": [
            {"id": 3, "sent_id": 1, "start_eid": 1, "end_eid": 1, "ne_id": 0, "text": "근보(謹甫).", "start_eid_short": 1, "end_eid_short": 0, "text_short": ""}
        ]}, 
        {"id": 4, "type": "", "number": "singular", "gender": "", "person": "", "animacy": "thing", "mention": [
            {"id": 4, "sent_id": 2, "start_eid": 0, "end_eid": 0, "ne_id": -1, "text": "호는", "start_eid_short": 0, "end_eid_short": 0, "text_short": "호는"}
        ]}, 
        {"id": 5, "type": "PS_NAME", "number": "singular", "gender": "", "person": "", "animacy": "human", "mention": [
            {"id": 5, "sent_id": 2, "start_eid": 1, "end_eid": 1, "ne_id": 0, "text": "매죽헌(梅竹軒).", "start_eid_short": 1, "end_eid_short": 0, "text_short": ""}
        ]}, 
        {"id": 6, "type": "CV_POSITION", "number": "singular", "gender": "", "person": "", "animacy": "human", "mention": [
            {"id": 6, "sent_id": 3, "start_eid": 0, "end_eid": 1, "ne_id": 1, "text": "집현전 학사로", "start_eid_short": 0, "end_eid_short": 1, "text_short": "집현전 학사로"}
        ]}, 
        {"id": 7, "type": "OGG_POLITICS", "number": "singular", "gender": "", "person": "", "animacy": "thing", "mention": [
            {"id": 7, "sent_id": 3, "start_eid": 0, "end_eid": 0, "ne_id": 0, "text": "집현전", "start_eid_short": 0, "end_eid_short": 0, "text_short": "집현전"}
        ]}, 
        {"id": 8, "type": "PS_NAME", "number": "singular", "gender": "", "person": "", "animacy": "human", "mention": [
            {"id": 8, "sent_id": 3, "start_eid": 2, "end_eid": 2, "ne_id": 2, "text": "세종을", "start_eid_short": 2, "end_eid_short": 2, "text_short": "세종을"}
        ]}, 
        {"id": 9, "type": "AFW_DOCUMENT", "number": "singular", "gender": "", "person": "", "animacy": "thing", "mention": [
            {"id": 9, "sent_id": 3, "start_eid": 4, "end_eid": 4, "ne_id": 3, "text": "<훈민정음>을", "start_eid_short": 4, "end_eid_short": 4, "text_short": "<훈민정음>을"}
        ]}
    ]
}