{
    "doc_id": "E2016.836.19_A_01.json", 
    "DCT": "", 
    "category": "", 
    "category_weight": 0, 
    "title": {
        "text": "탱고", 
        "NE": ""
    }, 
    "metaInfo": {}, 
    "sentence": [
        {
            "id": 0, 
            "reserve_str": "", 
            "text": "탱고는 1880년경 아르헨티나 부에노스 아이레스의 동남쪽에 위치한 항구도시 보카(Boca)에서 탄생한 음악이다.", 
            "morp": [
                {"id": 0, "lemma": "탱고", "type": "NNG", "position": 0, "weight": 0.9}, 
                {"id": 1, "lemma": "는", "type": "JX", "position": 6, "weight": 0.0287565}, 
                {"id": 2, "lemma": "1880", "type": "SN", "position": 10, "weight": 1}, 
                {"id": 3, "lemma": "년", "type": "NNB", "position": 14, "weight": 0.414343}, 
                {"id": 4, "lemma": "경", "type": "XSN", "position": 17, "weight": 0.0160459}, 
                {"id": 5, "lemma": "아르헨티나", "type": "NNP", "position": 21, "weight": 0.9}, 
                {"id": 6, "lemma": "부에노스", "type": "NNP", "position": 37, "weight": 0.2}, 
                {"id": 7, "lemma": "아이레스", "type": "NNP", "position": 50, "weight": 0.2}, 
                {"id": 8, "lemma": "의", "type": "JKG", "position": 62, "weight": 0.0987295}, 
                {"id": 9, "lemma": "동남", "type": "NNG", "position": 66, "weight": 0.836113}, 
                {"id": 10, "lemma": "쪽", "type": "NNG", "position": 72, "weight": 0.00899105}, 
                {"id": 11, "lemma": "에", "type": "JKB", "position": 75, "weight": 0.153364}, 
                {"id": 12, "lemma": "위치", "type": "NNG", "position": 79, "weight": 0.207864}, 
                {"id": 13, "lemma": "하", "type": "XSV", "position": 85, "weight": 0.0001}, 
                {"id": 14, "lemma": "ㄴ", "type": "ETM", "position": 85, "weight": 0.392321}, 
                {"id": 15, "lemma": "항구", "type": "NNG", "position": 89, "weight": 0.9}, 
                {"id": 16, "lemma": "도시", "type": "NNG", "position": 95, "weight": 0.184157}, 
                {"id": 17, "lemma": "보카", "type": "NNP", "position": 102, "weight": 0.15}, 
                {"id": 18, "lemma": "(", "type": "SS", "position": 108, "weight": 1}, 
                {"id": 19, "lemma": "Boca", "type": "SL", "position": 109, "weight": 1}, 
                {"id": 20, "lemma": ")", "type": "SS", "position": 113, "weight": 1}, 
                {"id": 21, "lemma": "에서", "type": "JKB", "position": 114, "weight": 0.0486066}, 
                {"id": 22, "lemma": "탄생", "type": "NNG", "position": 121, "weight": 0.9}, 
                {"id": 23, "lemma": "하", "type": "XSV", "position": 127, "weight": 0.0001}, 
                {"id": 24, "lemma": "ㄴ", "type": "ETM", "position": 127, "weight": 0.392321}, 
                {"id": 25, "lemma": "음악", "type": "NNG", "position": 131, "weight": 0.65869}, 
                {"id": 26, "lemma": "이", "type": "VCP", "position": 137, "weight": 0.0177525}, 
                {"id": 27, "lemma": "다", "type": "EF", "position": 140, "weight": 0.353579}, 
                {"id": 28, "lemma": ".", "type": "SF", "position": 143, "weight": 1}
            ], 
            "morp_eval": [], 
            "WSD": [
                {"id": 0, "text": "탱고", "type": "NNG", "scode": "020002", "weight": 0.333333, "position": 0, "begin": 0, "end": 0}, 
                {"id": 1, "text": "는", "type": "JX", "scode": "000000", "weight": 1, "position": 6, "begin": 1, "end": 1}, 
                {"id": 2, "text": "1880", "type": "SN", "scode": "000000", "weight": 1, "position": 10, "begin": 2, "end": 2}, 
                {"id": 3, "text": "년", "type": "NNB", "scode": "020000", "weight": 0.166667, "position": 14, "begin": 3, "end": 3}, 
                {"id": 4, "text": "경", "type": "XSN", "scode": "250001", "weight": 0.0217391, "position": 17, "begin": 4, "end": 4}, 
                {"id": 5, "text": "아르헨티나", "type": "NNP", "scode": "020000", "weight": 0.5, "position": 21, "begin": 5, "end": 5}, 
                {"id": 6, "text": "부에노스", "type": "NNP", "scode": "000000", "weight": 0, "position": 37, "begin": 6, "end": 6}, 
                {"id": 7, "text": "아이레스", "type": "NNP", "scode": "000000", "weight": 0, "position": 50, "begin": 7, "end": 7}, 
                {"id": 8, "text": "의", "type": "JKG", "scode": "000000", "weight": 1, "position": 62, "begin": 8, "end": 8}, 
                {"id": 9, "text": "동남쪽", "type": "NNG", "scode": "000000", "weight": 1, "position": 66, "begin": 9, "end": 10}, 
                {"id": 10, "text": "에", "type": "JKB", "scode": "000000", "weight": 1, "position": 75, "begin": 11, "end": 11}, 
                {"id": 11, "text": "위치하", "type": "VV", "scode": "000000", "weight": 1, "position": 79, "begin": 12, "end": 13}, 
                {"id": 12, "text": "ㄴ", "type": "ETM", "scode": "000000", "weight": 1, "position": 85, "begin": 14, "end": 14}, 
                {"id": 13, "text": "항구도시", "type": "NNG", "scode": "000000", "weight": 1, "position": 89, "begin": 15, "end": 16}, 
                {"id": 14, "text": "보카", "type": "NNP", "scode": "000000", "weight": 0, "position": 102, "begin": 17, "end": 17}, 
                {"id": 15, "text": "(", "type": "SS", "scode": "000000", "weight": 1, "position": 108, "begin": 18, "end": 18}, 
                {"id": 16, "text": "Boca", "type": "SL", "scode": "000000", "weight": 1, "position": 109, "begin": 19, "end": 19}, 
                {"id": 17, "text": ")", "type": "SS", "scode": "000000", "weight": 1, "position": 113, "begin": 20, "end": 20}, 
                {"id": 18, "text": "에서", "type": "JKB", "scode": "000000", "weight": 1, "position": 114, "begin": 21, "end": 21}, 
                {"id": 19, "text": "탄생하", "type": "VV", "scode": "000002", "weight": 0.5, "position": 121, "begin": 22, "end": 23}, 
                {"id": 20, "text": "ㄴ", "type": "ETM", "scode": "000000", "weight": 1, "position": 127, "begin": 24, "end": 24}, 
                {"id": 21, "text": "음악", "type": "NNG", "scode": "010000", "weight": 0.5, "position": 131, "begin": 25, "end": 25}, 
                {"id": 22, "text": "이", "type": "VCP", "scode": "030000", "weight": 0.0172414, "position": 137, "begin": 26, "end": 26}, 
                {"id": 23, "text": "다", "type": "EF", "scode": "000000", "weight": 1, "position": 140, "begin": 27, "end": 27}, 
                {"id": 24, "text": ".", "type": "SF", "scode": "000000", "weight": 1, "position": 143, "begin": 28, "end": 28}
            ], 
            "word": [
                {"id": 0, "text": "탱고는", "type": "", "begin": 0, "end": 1}, 
                {"id": 1, "text": "1880년경", "type": "", "begin": 2, "end": 4}, 
                {"id": 2, "text": "아르헨티나", "type": "", "begin": 5, "end": 5}, 
                {"id": 3, "text": "부에노스", "type": "", "begin": 6, "end": 6}, 
                {"id": 4, "text": "아이레스의", "type": "", "begin": 7, "end": 8}, 
                {"id": 5, "text": "동남쪽에", "type": "", "begin": 9, "end": 11}, 
                {"id": 6, "text": "위치한", "type": "", "begin": 12, "end": 14}, 
                {"id": 7, "text": "항구도시", "type": "", "begin": 15, "end": 16}, 
                {"id": 8, "text": "보카(Boca)에서", "type": "", "begin": 17, "end": 21}, 
                {"id": 9, "text": "탄생한", "type": "", "begin": 22, "end": 24}, 
                {"id": 10, "text": "음악이다.", "type": "", "begin": 25, "end": 28}
            ], 
            "NE": [
                {"id": 0, "text": "탱고", "type": "FD_ART", "begin": 0, "end": 0, "weight": 0.183192, "common_noun": 0}, 
                {"id": 1, "text": "1880년경", "type": "DT_YEAR", "begin": 2, "end": 4, "weight": 0.762087, "common_noun": 0}, 
                {"id": 2, "text": "아르헨티나", "type": "LCP_COUNTRY", "begin": 5, "end": 5, "weight": 0.662918, "common_noun": 0}, 
                {"id": 3, "text": "부에노스 아이레스", "type": "LCP_CAPITALCITY", "begin": 6, "end": 7, "weight": 0.350911, "common_noun": 0}, 
                {"id": 4, "text": "동남쪽", "type": "TM_DIRECTION", "begin": 9, "end": 10, "weight": 0.525346, "common_noun": 0}, 
                {"id": 5, "text": "보카", "type": "LCP_CITY", "begin": 17, "end": 17, "weight": 0.302007, "common_noun": 0}, 
                {"id": 6, "text": "Boca", "type": "LCP_CITY", "begin": 19, "end": 19, "weight": 0.0944516, "common_noun": 0}, 
                {"id": 7, "text": "음악", "type": "FD_ART", "begin": 25, "end": 25, "weight": 0.70256, "common_noun": 0}
            ], 
            "chunk": [], 
            "dependency": [
                {"id": 0, "text": "탱고는", "head": 10, "label": "NP_SBJ", "mod": [], "weight": 0.334236}, 
                {"id": 1, "text": "1880년경", "head": 9, "label": "NP_AJT", "mod": [], "weight": 0.490782}, 
                {"id": 2, "text": "아르헨티나", "head": 3, "label": "NP", "mod": [], "weight": 0.609239}, 
                {"id": 3, "text": "부에노스", "head": 4, "label": "NP", "mod": [2], "weight": 0.629431}, 
                {"id": 4, "text": "아이레스의", "head": 5, "label": "NP_MOD", "mod": [3], "weight": 0.373381}, 
                {"id": 5, "text": "동남쪽에", "head": 6, "label": "NP_AJT", "mod": [4], "weight": 0.740394}, 
                {"id": 6, "text": "위치한", "head": 7, "label": "VP_MOD", "mod": [5], "weight": 0.404303}, 
                {"id": 7, "text": "항구도시", "head": 8, "label": "NP", "mod": [6], "weight": 0.718963}, 
                {"id": 8, "text": "보카(Boca)에서", "head": 9, "label": "NP_AJT", "mod": [7], "weight": 0.714586}, 
                {"id": 9, "text": "탄생한", "head": 10, "label": "VP_MOD", "mod": [1, 8], "weight": 0.766877}, 
                {"id": 10, "text": "음악이다.", "head": -1, "label": "VNP", "mod": [9, 0], "weight": 0.0022997}
            ], 
            "SRL": [
                {"verb": "위치", "sense": 1, "word_id": 6, "weight": 0.193924, "argument": [
                    {"type": "ARG2", "word_id": 5, "text": "동남쪽에", "weight": 0.208299}, 
                    {"type": "ARG1", "word_id": 7, "text": "항구도시", "weight": 0.17955}
                ]}, 
                {"verb": "탄생", "sense": 1, "word_id": 9, "weight": 0.220967, "argument": [
                    {"type": "ARGM-TMP", "word_id": 1, "text": "1880년경", "weight": 0.171982}, 
                    {"type": "ARGM-LOC", "word_id": 8, "text": "보카(Boca)에서", "weight": 0.269952}, 
                    {"type": "ARG1", "word_id": 10, "text": "음악이다.", "weight": 1}
                ]}
            ], 
            "relation": [], 
            "SA": [], 
            "ZA": []
        }, 
        {
            "id": 1, 
            "reserve_str": "", 
            "text": "19세기 말에서 제1차 세계대전 전까지 보카를 통해 유럽으로부터 엄청난 수의 이민자들이 아르헨티나로 모여들었고 그들 속에서 탱고가 태어났다.", 
            "morp": [
                {"id": 0, "lemma": "19", "type": "SN", "position": 144, "weight": 1}, 
                {"id": 1, "lemma": "세기", "type": "NNG", "position": 146, "weight": 0.100259}, 
                {"id": 2, "lemma": "말", "type": "NNG", "position": 153, "weight": 0.148392}, 
                {"id": 3, "lemma": "에서", "type": "JKB", "position": 156, "weight": 0.153407}, 
                {"id": 4, "lemma": "제", "type": "XPN", "position": 163, "weight": 0.000688271}, 
                {"id": 5, "lemma": "1", "type": "SN", "position": 166, "weight": 1}, 
                {"id": 6, "lemma": "차", "type": "NNB", "position": 167, "weight": 0.109163}, 
                {"id": 7, "lemma": "세계", "type": "NNG", "position": 171, "weight": 0.9}, 
                {"id": 8, "lemma": "대전", "type": "NNG", "position": 177, "weight": 0.117127}, 
                {"id": 9, "lemma": "전", "type": "NNG", "position": 184, "weight": 0.107818}, 
                {"id": 10, "lemma": "까지", "type": "JX", "position": 187, "weight": 0.0687424}, 
                {"id": 11, "lemma": "보카", "type": "NNP", "position": 194, "weight": 0.15}, 
                {"id": 12, "lemma": "를", "type": "JKO", "position": 200, "weight": 0.0283046}, 
                {"id": 13, "lemma": "통하", "type": "VV", "position": 204, "weight": 0.9}, 
                {"id": 14, "lemma": "어", "type": "EC", "position": 207, "weight": 0.41831}, 
                {"id": 15, "lemma": "유럽", "type": "NNP", "position": 211, "weight": 0.9}, 
                {"id": 16, "lemma": "으로부터", "type": "JKB", "position": 217, "weight": 0.9}, 
                {"id": 17, "lemma": "엄청나", "type": "VA", "position": 230, "weight": 0.9}, 
                {"id": 18, "lemma": "ㄴ", "type": "ETM", "position": 236, "weight": 0.430446}, 
                {"id": 19, "lemma": "수", "type": "NNG", "position": 240, "weight": 0.0332669}, 
                {"id": 20, "lemma": "의", "type": "JKG", "position": 243, "weight": 0.0694213}, 
                {"id": 21, "lemma": "이민", "type": "NNG", "position": 247, "weight": 0.86027}, 
                {"id": 22, "lemma": "자", "type": "XSN", "position": 253, "weight": 0.00398741}, 
                {"id": 23, "lemma": "들", "type": "XSN", "position": 256, "weight": 0.0103232}, 
                {"id": 24, "lemma": "이", "type": "JKS", "position": 259, "weight": 0.0731805}, 
                {"id": 25, "lemma": "아르헨티나", "type": "NNP", "position": 263, "weight": 0.9}, 
                {"id": 26, "lemma": "로", "type": "JKB", "position": 278, "weight": 0.0822907}, 
                {"id": 27, "lemma": "모여들", "type": "VV", "position": 282, "weight": 0.9}, 
                {"id": 28, "lemma": "었", "type": "EP", "position": 291, "weight": 0.9}, 
                {"id": 29, "lemma": "고", "type": "EC", "position": 294, "weight": 0.190901}, 
                {"id": 30, "lemma": "그", "type": "NP", "position": 298, "weight": 0.0116164}, 
                {"id": 31, "lemma": "들", "type": "XSN", "position": 301, "weight": 0.055005}, 
                {"id": 32, "lemma": "속", "type": "NNG", "position": 305, "weight": 0.129393}, 
                {"id": 33, "lemma": "에서", "type": "JKB", "position": 308, "weight": 0.153407}, 
                {"id": 34, "lemma": "탱고", "type": "NNG", "position": 315, "weight": 0.9}, 
                {"id": 35, "lemma": "가", "type": "JKS", "position": 321, "weight": 0.066324}, 
                {"id": 36, "lemma": "태어나", "type": "VV", "position": 325, "weight": 0.9}, 
                {"id": 37, "lemma": "았", "type": "EP", "position": 331, "weight": 0.9}, 
                {"id": 38, "lemma": "다", "type": "EF", "position": 334, "weight": 0.640954}, 
                {"id": 39, "lemma": ".", "type": "SF", "position": 337, "weight": 1}
            ], 
            "morp_eval": [], 
            "WSD": [
                {"id": 0, "text": "19", "type": "SN", "scode": "000000", "weight": 1, "position": 144, "begin": 0, "end": 0}, 
                {"id": 1, "text": "세기", "type": "NNG", "scode": "030002", "weight": 0.0909091, "position": 146, "begin": 1, "end": 1}, 
                {"id": 2, "text": "말", "type": "NNG", "scode": "110000", "weight": 0.0384615, "position": 153, "begin": 2, "end": 2}, 
                {"id": 3, "text": "에서", "type": "JKB", "scode": "000000", "weight": 1, "position": 156, "begin": 3, "end": 3}, 
                {"id": 4, "text": "제", "type": "XPN", "scode": "210000", "weight": 0.0322581, "position": 163, "begin": 4, "end": 4}, 
                {"id": 5, "text": "1", "type": "SN", "scode": "000000", "weight": 1, "position": 166, "begin": 5, "end": 5}, 
                {"id": 6, "text": "차", "type": "NNB", "scode": "030001", "weight": 0.05, "position": 167, "begin": 6, "end": 6}, 
                {"id": 7, "text": "세계대전", "type": "NNG", "scode": "000002", "weight": 0.333333, "position": 171, "begin": 7, "end": 8}, 
                {"id": 8, "text": "전", "type": "NNG", "scode": "080002", "weight": 0.02, "position": 184, "begin": 9, "end": 9}, 
                {"id": 9, "text": "까지", "type": "JX", "scode": "000000", "weight": 1, "position": 187, "begin": 10, "end": 10}, 
                {"id": 10, "text": "보카", "type": "NNP", "scode": "000000", "weight": 0, "position": 194, "begin": 11, "end": 11}, 
                {"id": 11, "text": "를", "type": "JKO", "scode": "000000", "weight": 1, "position": 200, "begin": 12, "end": 12}, 
                {"id": 12, "text": "통하", "type": "VV", "scode": "000701", "weight": 0.0625, "position": 204, "begin": 13, "end": 13}, 
                {"id": 13, "text": "어", "type": "EC", "scode": "000000", "weight": 1, "position": 207, "begin": 14, "end": 14}, 
                {"id": 14, "text": "유럽", "type": "NNP", "scode": "020000", "weight": 0.5, "position": 211, "begin": 15, "end": 15}, 
                {"id": 15, "text": "으로부터", "type": "JKB", "scode": "000000", "weight": 1, "position": 217, "begin": 16, "end": 16}, 
                {"id": 16, "text": "엄청나", "type": "VA", "scode": "000000", "weight": 1, "position": 230, "begin": 17, "end": 17}, 
                {"id": 17, "text": "ㄴ", "type": "ETM", "scode": "000000", "weight": 1, "position": 236, "begin": 18, "end": 18}, 
                {"id": 18, "text": "수", "type": "NNG", "scode": "260001", "weight": 0.02, "position": 240, "begin": 19, "end": 19}, 
                {"id": 19, "text": "의", "type": "JKG", "scode": "000000", "weight": 1, "position": 243, "begin": 20, "end": 20}, 
                {"id": 20, "text": "이민자", "type": "NNG", "scode": "000000", "weight": 1, "position": 247, "begin": 21, "end": 22}, 
                {"id": 21, "text": "들", "type": "XSN", "scode": "090000", "weight": 0.0909091, "position": 256, "begin": 23, "end": 23}, 
                {"id": 22, "text": "이", "type": "JKS", "scode": "000000", "weight": 1, "position": 259, "begin": 24, "end": 24}, 
                {"id": 23, "text": "아르헨티나", "type": "NNP", "scode": "020000", "weight": 0.5, "position": 263, "begin": 25, "end": 25}, 
                {"id": 24, "text": "로", "type": "JKB", "scode": "000000", "weight": 1, "position": 278, "begin": 26, "end": 26}, 
                {"id": 25, "text": "모여들", "type": "VV", "scode": "000000", "weight": 1, "position": 282, "begin": 27, "end": 27}, 
                {"id": 26, "text": "었", "type": "EP", "scode": "000000", "weight": 1, "position": 291, "begin": 28, "end": 28}, 
                {"id": 27, "text": "고", "type": "EC", "scode": "000000", "weight": 1, "position": 294, "begin": 29, "end": 29}, 
                {"id": 28, "text": "그", "type": "NP", "scode": "010002", "weight": 0.142857, "position": 298, "begin": 30, "end": 30}, 
                {"id": 29, "text": "들", "type": "XSN", "scode": "090000", "weight": 0.0909091, "position": 301, "begin": 31, "end": 31}, 
                {"id": 30, "text": "속", "type": "NNG", "scode": "010002", "weight": 0.0416667, "position": 305, "begin": 32, "end": 32}, 
                {"id": 31, "text": "에서", "type": "JKB", "scode": "000000", "weight": 1, "position": 308, "begin": 33, "end": 33}, 
                {"id": 32, "text": "탱고", "type": "NNG", "scode": "020002", "weight": 0.333333, "position": 315, "begin": 34, "end": 34}, 
                {"id": 33, "text": "가", "type": "JKS", "scode": "000000", "weight": 1, "position": 321, "begin": 35, "end": 35}, 
                {"id": 34, "text": "태어나", "type": "VV", "scode": "000000", "weight": 1, "position": 325, "begin": 36, "end": 36}, 
                {"id": 35, "text": "았", "type": "EP", "scode": "000000", "weight": 1, "position": 331, "begin": 37, "end": 37}, 
                {"id": 36, "text": "다", "type": "EF", "scode": "000000", "weight": 1, "position": 334, "begin": 38, "end": 38}, 
                {"id": 37, "text": ".", "type": "SF", "scode": "000000", "weight": 1, "position": 337, "begin": 39, "end": 39}
            ], 
            "word": [
                {"id": 0, "text": "19세기", "type": "", "begin": 0, "end": 1}, 
                {"id": 1, "text": "말에서", "type": "", "begin": 2, "end": 3}, 
                {"id": 2, "text": "제1차", "type": "", "begin": 4, "end": 6}, 
                {"id": 3, "text": "세계대전", "type": "", "begin": 7, "end": 8}, 
                {"id": 4, "text": "전까지", "type": "", "begin": 9, "end": 10}, 
                {"id": 5, "text": "보카를", "type": "", "begin": 11, "end": 12}, 
                {"id": 6, "text": "통해", "type": "", "begin": 13, "end": 14}, 
                {"id": 7, "text": "유럽으로부터", "type": "", "begin": 15, "end": 16}, 
                {"id": 8, "text": "엄청난", "type": "", "begin": 17, "end": 18}, 
                {"id": 9, "text": "수의", "type": "", "begin": 19, "end": 20}, 
                {"id": 10, "text": "이민자들이", "type": "", "begin": 21, "end": 24}, 
                {"id": 11, "text": "아르헨티나로", "type": "", "begin": 25, "end": 26}, 
                {"id": 12, "text": "모여들었고", "type": "", "begin": 27, "end": 29}, 
                {"id": 13, "text": "그들", "type": "", "begin": 30, "end": 31}, 
                {"id": 14, "text": "속에서", "type": "", "begin": 32, "end": 33}, 
                {"id": 15, "text": "탱고가", "type": "", "begin": 34, "end": 35}, 
                {"id": 16, "text": "태어났다.", "type": "", "begin": 36, "end": 39}
            ], 
            "NE": [
                {"id": 0, "text": "19세기 말", "type": "DT_OTHERS", "begin": 0, "end": 2, "weight": 0.812082, "common_noun": 0}, 
                {"id": 1, "text": "제1차 세계대전 전", "type": "DT_OTHERS", "begin": 4, "end": 9, "weight": 0.803436, "common_noun": 0}, 
                {"id": 2, "text": "보카", "type": "LCP_CITY", "begin": 11, "end": 11, "weight": 0.126695, "common_noun": 0}, 
                {"id": 3, "text": "유럽", "type": "LCG_CONTINENT", "begin": 15, "end": 15, "weight": 0.78562, "common_noun": 0}, 
                {"id": 4, "text": "이민자", "type": "CV_POSITION", "begin": 21, "end": 22, "weight": 0.661261, "common_noun": 0}, 
                {"id": 5, "text": "아르헨티나", "type": "LCP_COUNTRY", "begin": 25, "end": 25, "weight": 0.665115, "common_noun": 0}, 
                {"id": 6, "text": "탱고", "type": "FD_ART", "begin": 34, "end": 34, "weight": 0.175289, "common_noun": 0}
            ], 
            "chunk": [], 
            "dependency": [
                {"id": 0, "text": "19세기", "head": 1, "label": "NP", "mod": [], "weight": 0.7507}, 
                {"id": 1, "text": "말에서", "head": 6, "label": "NP_AJT", "mod": [0], "weight": 0.666034}, 
                {"id": 2, "text": "제1차", "head": 3, "label": "NP", "mod": [], "weight": 0.440957}, 
                {"id": 3, "text": "세계대전", "head": 4, "label": "NP", "mod": [2], "weight": 0.685925}, 
                {"id": 4, "text": "전까지", "head": 6, "label": "NP_AJT", "mod": [3], "weight": 0.547199}, 
                {"id": 5, "text": "보카를", "head": 6, "label": "NP_OBJ", "mod": [], "weight": 0.755858}, 
                {"id": 6, "text": "통해", "head": 12, "label": "VP", "mod": [1, 4, 5], "weight": 0.881072}, 
                {"id": 7, "text": "유럽으로부터", "head": 12, "label": "NP_AJT", "mod": [], "weight": 0.790115}, 
                {"id": 8, "text": "엄청난", "head": 9, "label": "VP_MOD", "mod": [], "weight": 0.433235}, 
                {"id": 9, "text": "수의", "head": 10, "label": "NP_MOD", "mod": [8], "weight": 0.615025}, 
                {"id": 10, "text": "이민자들이", "head": 12, "label": "NP_SBJ", "mod": [9], "weight": 0.837046}, 
                {"id": 11, "text": "아르헨티나로", "head": 12, "label": "NP_AJT", "mod": [], "weight": 0.717394}, 
                {"id": 12, "text": "모여들었고", "head": 16, "label": "VP", "mod": [6, 7, 10, 11], "weight": 0.787144}, 
                {"id": 13, "text": "그들", "head": 14, "label": "NP", "mod": [], "weight": 0.756532}, 
                {"id": 14, "text": "속에서", "head": 16, "label": "NP_AJT", "mod": [13], "weight": 0.835964}, 
                {"id": 15, "text": "탱고가", "head": 16, "label": "NP_SBJ", "mod": [], "weight": 0.747922}, 
                {"id": 16, "text": "태어났다.", "head": -1, "label": "VP", "mod": [12, 14, 15], "weight": 0.00221516}
            ], 
            "SRL": [
                {"verb": "통하", "sense": 1, "word_id": 6, "weight": 0.199845, "argument": [
                    {"type": "ARG2", "word_id": 5, "text": "보카를", "weight": 0.199845}, 
                    {"type": "ARGM-TMP", "word_id": 4, "text": "전까지", "weight": 1}, 
                    {"type": "ARGM-TMP", "word_id": 1, "text": "말에서", "weight": 1}
                ]}, 
                {"verb": "엄청나", "sense": 1, "word_id": 8, "weight": 0.243032, "argument": [
                    {"type": "ARG1", "word_id": 9, "text": "수의", "weight": 1}
                ]}, 
                {"verb": "모여들", "sense": 1, "word_id": 12, "weight": 0.148636, "argument": [
                    {"type": "ARGM-MNR", "word_id": 6, "text": "통해", "weight": 0.10092}, 
                    {"type": "ARG1", "word_id": 7, "text": "유럽으로부터", "weight": 1}, 
                    {"type": "ARG0", "word_id": 10, "text": "이민자들이", "weight": 0.227996}, 
                    {"type": "ARG2", "word_id": 11, "text": "아르헨티나로", "weight": 0.074139}
                ]}, 
                {"verb": "태어나", "sense": 1, "word_id": 16, "weight": 0.183273, "argument": [
                    {"type": "ARGM-LOC", "word_id": 14, "text": "속에서", "weight": 0.094012}, 
                    {"type": "ARG1", "word_id": 15, "text": "탱고가", "weight": 0.272533}
                ]}
            ], 
            "relation": [], 
            "SA": [], 
            "ZA": []
        }, 
        {
            "id": 2, 
            "reserve_str": "", 
            "text": "탱고는 유럽 계통의 무곡과 아프리카계 주민의 민속음악이 혼합된 것이라고 보는 것이 정설로 되어 있다.", 
            "morp": [
                {"id": 0, "lemma": "탱고", "type": "NNG", "position": 338, "weight": 0.9}, 
                {"id": 1, "lemma": "는", "type": "JX", "position": 344, "weight": 0.0287565}, 
                {"id": 2, "lemma": "유럽", "type": "NNP", "position": 348, "weight": 0.9}, 
                {"id": 3, "lemma": "계통", "type": "NNG", "position": 355, "weight": 0.9}, 
                {"id": 4, "lemma": "의", "type": "JKG", "position": 361, "weight": 0.0694213}, 
                {"id": 5, "lemma": "무곡", "type": "NNG", "position": 365, "weight": 0.9}, 
                {"id": 6, "lemma": "과", "type": "JC", "position": 371, "weight": 0.017569}, 
                {"id": 7, "lemma": "아프리카", "type": "NNP", "position": 375, "weight": 0.9}, 
                {"id": 8, "lemma": "계", "type": "XSN", "position": 387, "weight": 0.0128393}, 
                {"id": 9, "lemma": "주민", "type": "NNG", "position": 391, "weight": 0.9}, 
                {"id": 10, "lemma": "의", "type": "JKG", "position": 397, "weight": 0.0694213}, 
                {"id": 11, "lemma": "민속", "type": "NNG", "position": 401, "weight": 0.9}, 
                {"id": 12, "lemma": "음악", "type": "NNG", "position": 407, "weight": 0.184797}, 
                {"id": 13, "lemma": "이", "type": "JKS", "position": 413, "weight": 0.0360723}, 
                {"id": 14, "lemma": "혼합", "type": "NNG", "position": 417, "weight": 0.9}, 
                {"id": 15, "lemma": "되", "type": "XSV", "position": 423, "weight": 0.000224177}, 
                {"id": 16, "lemma": "ㄴ", "type": "ETM", "position": 423, "weight": 0.392321}, 
                {"id": 17, "lemma": "것", "type": "NNB", "position": 427, "weight": 0.228788}, 
                {"id": 18, "lemma": "이", "type": "VCP", "position": 430, "weight": 0.0607843}, 
                {"id": 19, "lemma": "라고", "type": "EC", "position": 433, "weight": 0.204147}, 
                {"id": 20, "lemma": "보", "type": "VV", "position": 440, "weight": 0.138267}, 
                {"id": 21, "lemma": "는", "type": "ETM", "position": 443, "weight": 0.184941}, 
                {"id": 22, "lemma": "것", "type": "NNB", "position": 447, "weight": 0.228788}, 
                {"id": 23, "lemma": "이", "type": "JKS", "position": 450, "weight": 0.0376169}, 
                {"id": 24, "lemma": "정설", "type": "NNG", "position": 454, "weight": 0.20666}, 
                {"id": 25, "lemma": "로", "type": "JKB", "position": 460, "weight": 0.153229}, 
                {"id": 26, "lemma": "되", "type": "VV", "position": 464, "weight": 0.412662}, 
                {"id": 27, "lemma": "어", "type": "EC", "position": 467, "weight": 0.41831}, 
                {"id": 28, "lemma": "있", "type": "VX", "position": 471, "weight": 0.125953}, 
                {"id": 29, "lemma": "다", "type": "EF", "position": 474, "weight": 0.180366}, 
                {"id": 30, "lemma": ".", "type": "SF", "position": 477, "weight": 1}
            ], 
            "morp_eval": [], 
            "WSD": [
                {"id": 0, "text": "탱고", "type": "NNG", "scode": "020002", "weight": 0.333333, "position": 338, "begin": 0, "end": 0}, 
                {"id": 1, "text": "는", "type": "JX", "scode": "000000", "weight": 1, "position": 344, "begin": 1, "end": 1}, 
                {"id": 2, "text": "유럽", "type": "NNP", "scode": "020000", "weight": 0.5, "position": 348, "begin": 2, "end": 2}, 
                {"id": 3, "text": "계통", "type": "NNG", "scode": "010001", "weight": 0.125, "position": 355, "begin": 3, "end": 3}, 
                {"id": 4, "text": "의", "type": "JKG", "scode": "000000", "weight": 1, "position": 361, "begin": 4, "end": 4}, 
                {"id": 5, "text": "무곡", "type": "NNG", "scode": "030000", "weight": 0.25, "position": 365, "begin": 5, "end": 5}, 
                {"id": 6, "text": "과", "type": "JC", "scode": "000000", "weight": 1, "position": 371, "begin": 6, "end": 6}, 
                {"id": 7, "text": "아프리카", "type": "NNP", "scode": "000000", "weight": 1, "position": 375, "begin": 7, "end": 7}, 
                {"id": 8, "text": "계", "type": "XSN", "scode": "160000", "weight": 0.03125, "position": 387, "begin": 8, "end": 8}, 
                {"id": 9, "text": "주민", "type": "NNG", "scode": "000001", "weight": 0.5, "position": 391, "begin": 9, "end": 9}, 
                {"id": 10, "text": "의", "type": "JKG", "scode": "000000", "weight": 1, "position": 397, "begin": 10, "end": 10}, 
                {"id": 11, "text": "민속음악", "type": "NNG", "scode": "000000", "weight": 1, "position": 401, "begin": 11, "end": 12}, 
                {"id": 12, "text": "이", "type": "JKS", "scode": "000000", "weight": 1, "position": 413, "begin": 13, "end": 13}, 
                {"id": 13, "text": "혼합되", "type": "VV", "scode": "000001", "weight": 0.5, "position": 417, "begin": 14, "end": 15}, 
                {"id": 14, "text": "ㄴ", "type": "ETM", "scode": "000000", "weight": 1, "position": 423, "begin": 16, "end": 16}, 
                {"id": 15, "text": "것", "type": "NNB", "scode": "010001", "weight": 0.125, "position": 427, "begin": 17, "end": 17}, 
                {"id": 16, "text": "이", "type": "VCP", "scode": "030000", "weight": 0.0172414, "position": 430, "begin": 18, "end": 18}, 
                {"id": 17, "text": "라고", "type": "EC", "scode": "000000", "weight": 1, "position": 433, "begin": 19, "end": 19}, 
                {"id": 18, "text": "보", "type": "VV", "scode": "010300", "weight": 0.025641, "position": 440, "begin": 20, "end": 20}, 
                {"id": 19, "text": "는", "type": "ETM", "scode": "000000", "weight": 1, "position": 443, "begin": 21, "end": 21}, 
                {"id": 20, "text": "것", "type": "NNB", "scode": "010001", "weight": 0.125, "position": 447, "begin": 22, "end": 22}, 
                {"id": 21, "text": "이", "type": "JKS", "scode": "000000", "weight": 1, "position": 450, "begin": 23, "end": 23}, 
                {"id": 22, "text": "정설", "type": "NNG", "scode": "010000", "weight": 0.5, "position": 454, "begin": 24, "end": 24}, 
                {"id": 23, "text": "로", "type": "JKB", "scode": "000000", "weight": 1, "position": 460, "begin": 25, "end": 25}, 
                {"id": 24, "text": "되", "type": "VV", "scode": "010202", "weight": 0.03125, "position": 464, "begin": 26, "end": 26}, 
                {"id": 25, "text": "어", "type": "EC", "scode": "000000", "weight": 1, "position": 467, "begin": 27, "end": 27}, 
                {"id": 26, "text": "있", "type": "VX", "scode": "010901", "weight": 0.0416667, "position": 471, "begin": 28, "end": 28}, 
                {"id": 27, "text": "다", "type": "EF", "scode": "000000", "weight": 1, "position": 474, "begin": 29, "end": 29}, 
                {"id": 28, "text": ".", "type": "SF", "scode": "000000", "weight": 1, "position": 477, "begin": 30, "end": 30}
            ], 
            "word": [
                {"id": 0, "text": "탱고는", "type": "", "begin": 0, "end": 1}, 
                {"id": 1, "text": "유럽", "type": "", "begin": 2, "end": 2}, 
                {"id": 2, "text": "계통의", "type": "", "begin": 3, "end": 4}, 
                {"id": 3, "text": "무곡과", "type": "", "begin": 5, "end": 6}, 
                {"id": 4, "text": "아프리카계", "type": "", "begin": 7, "end": 8}, 
                {"id": 5, "text": "주민의", "type": "", "begin": 9, "end": 10}, 
                {"id": 6, "text": "민속음악이", "type": "", "begin": 11, "end": 13}, 
                {"id": 7, "text": "혼합된", "type": "", "begin": 14, "end": 16}, 
                {"id": 8, "text": "것이라고", "type": "", "begin": 17, "end": 19}, 
                {"id": 9, "text": "보는", "type": "", "begin": 20, "end": 21}, 
                {"id": 10, "text": "것이", "type": "", "begin": 22, "end": 23}, 
                {"id": 11, "text": "정설로", "type": "", "begin": 24, "end": 25}, 
                {"id": 12, "text": "되어", "type": "", "begin": 26, "end": 27}, 
                {"id": 13, "text": "있다.", "type": "", "begin": 28, "end": 30}
            ], 
            "NE": [
                {"id": 0, "text": "탱고", "type": "FD_ART", "begin": 0, "end": 0, "weight": 0.263004, "common_noun": 0}, 
                {"id": 1, "text": "유럽", "type": "LCG_CONTINENT", "begin": 2, "end": 2, "weight": 0.61827, "common_noun": 0}, 
                {"id": 2, "text": "무곡", "type": "FD_ART", "begin": 5, "end": 5, "weight": 0.229315, "common_noun": 0}, 
                {"id": 3, "text": "아프리카", "type": "LCG_CONTINENT", "begin": 7, "end": 7, "weight": 0.578253, "common_noun": 0}, 
                {"id": 4, "text": "주민", "type": "CV_POSITION", "begin": 9, "end": 9, "weight": 0.307049, "common_noun": 0}, 
                {"id": 5, "text": "민속음악", "type": "FD_ART", "begin": 11, "end": 12, "weight": 0.688375, "common_noun": 0}
            ], 
            "chunk": [], 
            "dependency": [
                {"id": 0, "text": "탱고는", "head": 7, "label": "NP_SBJ", "mod": [], "weight": 0.330358}, 
                {"id": 1, "text": "유럽", "head": 2, "label": "NP", "mod": [], "weight": 0.697121}, 
                {"id": 2, "text": "계통의", "head": 3, "label": "NP_MOD", "mod": [1], "weight": 0.392509}, 
                {"id": 3, "text": "무곡과", "head": 6, "label": "NP_CNJ", "mod": [2], "weight": 0.65629}, 
                {"id": 4, "text": "아프리카계", "head": 5, "label": "NP", "mod": [], "weight": 0.63274}, 
                {"id": 5, "text": "주민의", "head": 6, "label": "NP_MOD", "mod": [4], "weight": 0.643345}, 
                {"id": 6, "text": "민속음악이", "head": 7, "label": "NP_SBJ", "mod": [3, 5], "weight": 0.860901}, 
                {"id": 7, "text": "혼합된", "head": 8, "label": "VP_MOD", "mod": [0, 6], "weight": 0.732562}, 
                {"id": 8, "text": "것이라고", "head": 9, "label": "VNP_CMP", "mod": [7], "weight": 0.595437}, 
                {"id": 9, "text": "보는", "head": 10, "label": "VP_MOD", "mod": [8], "weight": 0.820735}, 
                {"id": 10, "text": "것이", "head": 12, "label": "NP_SBJ", "mod": [9], "weight": 0.753549}, 
                {"id": 11, "text": "정설로", "head": 12, "label": "NP_AJT", "mod": [], "weight": 0.730703}, 
                {"id": 12, "text": "되어", "head": 13, "label": "VP", "mod": [10, 11], "weight": 0.781494}, 
                {"id": 13, "text": "있다.", "head": -1, "label": "VP", "mod": [12], "weight": 0.00248394}
            ], 
            "SRL": [
                {"verb": "혼합", "sense": 1, "word_id": 7, "weight": 0.161309, "argument": [
                    {"type": "ARG1", "word_id": 6, "text": "민속음악이", "weight": 0.161309}
                ]}, 
                {"verb": "보", "sense": 2, "word_id": 9, "weight": 0.161684, "argument": [
                    {"type": "ARG1", "word_id": 8, "text": "것이라고", "weight": 0.161684}
                ]}, 
                {"verb": "되", "sense": 2, "word_id": 12, "weight": 0.255524, "argument": [
                    {"type": "ARG1", "word_id": 10, "text": "것이", "weight": 0.246205}, 
                    {"type": "ARG2", "word_id": 11, "text": "정설로", "weight": 0.130639}, 
                    {"type": "AUX", "word_id": 13, "text": "있다.", "weight": 0.389729}
                ]}
            ], 
            "relation": [], 
            "SA": [], 
            "ZA": []
        }
    ], 
    "entity": [
        {"id": 0, "type": "FD_ART", "number": "singular", "gender": "", "person": "", "animacy": "thing", "mention": [
            {"id": 0, "sent_id": 0, "start_eid": 0, "end_eid": 0, "ne_id": 0, "text": "탱고는", "start_eid_short": 0, "end_eid_short": 0, "text_short": "탱고는"}, 
            {"id": 2, "sent_id": 0, "start_eid": 2, "end_eid": 10, "ne_id": 7, "text": "아르헨티나 부에노스 아이레스의 동남쪽에 위치한 항구도시 보카(Boca)에서 탄생한 음악이다.", "start_eid_short": 10, "end_eid_short": 10, "text_short": "음악이다."}, 
            {"id": 16, "sent_id": 1, "start_eid": 15, "end_eid": 15, "ne_id": 5, "text": "탱고가", "start_eid_short": 15, "end_eid_short": 15, "text_short": "탱고가"}, 
            {"id": 17, "sent_id": 2, "start_eid": 0, "end_eid": 0, "ne_id": 0, "text": "탱고는", "start_eid_short": 0, "end_eid_short": 0, "text_short": "탱고는"}, 
            {"id": 18, "sent_id": 2, "start_eid": 1, "end_eid": 10, "ne_id": -1, "text": "유럽 계통의 무곡과 아프리카계 주민의 민속음악이 혼합된 것이라고 보는 것이", "start_eid_short": 10, "end_eid_short": 10, "text_short": "것이"}, 
            {"id": 19, "sent_id": 2, "start_eid": 1, "end_eid": 8, "ne_id": -1, "text": "유럽 계통의 무곡과 아프리카계 주민의 민속음악이 혼합된 것이라고", "start_eid_short": 8, "end_eid_short": 8, "text_short": "것이라고"}
        ]}, 
        {"id": 1, "type": "DT_YEAR", "number": "singular", "gender": "", "person": "", "animacy": "time", "mention": [
            {"id": 1, "sent_id": 0, "start_eid": 1, "end_eid": 1, "ne_id": 1, "text": "1880년경", "start_eid_short": 1, "end_eid_short": 1, "text_short": "1880년경"}
        ]}, 
        {"id": 2, "type": "", "number": "singular", "gender": "", "person": "", "animacy": "thing", "mention": [
            {"id": 4, "sent_id": 0, "start_eid": 2, "end_eid": 7, "ne_id": -1, "text": "아르헨티나 부에노스 아이레스의 동남쪽에 위치한 항구도시", "start_eid_short": 7, "end_eid_short": 7, "text_short": "항구도시"}
        ]}, 
        {"id": 3, "type": "LCP_CAPITALCITY", "number": "singular", "gender": "", "person": "", "animacy": "place", "mention": [
            {"id": 6, "sent_id": 0, "start_eid": 2, "end_eid": 4, "ne_id": 3, "text": "아르헨티나 부에노스 아이레스의", "start_eid_short": 2, "end_eid_short": 4, "text_short": "아르헨티나 부에노스 아이레스의"}
        ]}, 
        {"id": 4, "type": "LCP_COUNTRY", "number": "singular", "gender": "", "person": "", "animacy": "place", "mention": [
            {"id": 7, "sent_id": 0, "start_eid": 2, "end_eid": 2, "ne_id": 2, "text": "아르헨티나", "start_eid_short": 2, "end_eid_short": 2, "text_short": "아르헨티나"}, 
            {"id": 13, "sent_id": 1, "start_eid": 11, "end_eid": 11, "ne_id": 4, "text": "아르헨티나로", "start_eid_short": 11, "end_eid_short": 11, "text_short": "아르헨티나로"}
        ]}, 
        {"id": 5, "type": "TM_DIRECTION", "number": "singular", "gender": "", "person": "", "animacy": "thing", "mention": [
            {"id": 5, "sent_id": 0, "start_eid": 2, "end_eid": 5, "ne_id": 4, "text": "아르헨티나 부에노스 아이레스의 동남쪽에", "start_eid_short": 5, "end_eid_short": 5, "text_short": "동남쪽에"}
        ]}, 
        {"id": 6, "type": "LCP_CITY", "number": "singular", "gender": "", "person": "", "animacy": "place", "mention": [
            {"id": 3, "sent_id": 0, "start_eid": 2, "end_eid": 8, "ne_id": 5, "text": "아르헨티나 부에노스 아이레스의 동남쪽에 위치한 항구도시 보카(Boca)에서", "start_eid_short": 8, "end_eid_short": 8, "text_short": "보카(Boca)에서"}, 
            {"id": 9, "sent_id": 1, "start_eid": 5, "end_eid": 5, "ne_id": -1, "text": "보카를", "start_eid_short": 5, "end_eid_short": 5, "text_short": "보카를"}
        ]}, 
        {"id": 7, "type": "DT_OTHERS", "number": "singular", "gender": "", "person": "", "animacy": "time", "mention": [
            {"id": 8, "sent_id": 1, "start_eid": 0, "end_eid": 1, "ne_id": 0, "text": "19세기 말에서", "start_eid_short": 0, "end_eid_short": 1, "text_short": "19세기 말에서"}
        ]}, 
        {"id": 8, "type": "LCG_CONTINENT", "number": "singular", "gender": "", "person": "", "animacy": "place", "mention": [
            {"id": 10, "sent_id": 1, "start_eid": 7, "end_eid": 7, "ne_id": 2, "text": "유럽으로부터", "start_eid_short": 7, "end_eid_short": 7, "text_short": "유럽으로부터"}, 
            {"id": 23, "sent_id": 2, "start_eid": 1, "end_eid": 1, "ne_id": 1, "text": "유럽", "start_eid_short": 1, "end_eid_short": 1, "text_short": "유럽"}
        ]}, 
        {"id": 9, "type": "CV_POSITION", "number": "singular", "gender": "", "person": "", "animacy": "human", "mention": [
            {"id": 11, "sent_id": 1, "start_eid": 8, "end_eid": 10, "ne_id": 3, "text": "엄청난 수의 이민자들이", "start_eid_short": 10, "end_eid_short": 10, "text_short": "이민자들이"}, 
            {"id": 15, "sent_id": 1, "start_eid": 13, "end_eid": 13, "ne_id": -1, "text": "그들", "start_eid_short": 13, "end_eid_short": 13, "text_short": "그들"}
        ]}, 
        {"id": 10, "type": "", "number": "singular", "gender": "", "person": "", "animacy": "thing", "mention": [
            {"id": 12, "sent_id": 1, "start_eid": 8, "end_eid": 9, "ne_id": -1, "text": "엄청난 수의", "start_eid_short": 9, "end_eid_short": 9, "text_short": "수의"}
        ]}, 
        {"id": 11, "type": "", "number": "singular", "gender": "", "person": "", "animacy": "thing", "mention": [
            {"id": 14, "sent_id": 1, "start_eid": 13, "end_eid": 14, "ne_id": -1, "text": "그들 속에서", "start_eid_short": 13, "end_eid_short": 14, "text_short": "그들 속에서"}
        ]}, 
        {"id": 12, "type": "", "number": "singular", "gender": "", "person": "", "animacy": "thing", "mention": [
            {"id": 22, "sent_id": 2, "start_eid": 1, "end_eid": 2, "ne_id": -1, "text": "유럽 계통의", "start_eid_short": 1, "end_eid_short": 2, "text_short": "유럽 계통의"}
        ]}, 
        {"id": 13, "type": "", "number": "singular", "gender": "", "person": "", "animacy": "thing", "mention": [
            {"id": 21, "sent_id": 2, "start_eid": 1, "end_eid": 3, "ne_id": -1, "text": "유럽 계통의 무곡과", "start_eid_short": 3, "end_eid_short": 3, "text_short": "무곡과"}
        ]}, 
        {"id": 14, "type": "", "number": "singular", "gender": "", "person": "", "animacy": "thing", "mention": [
            {"id": 24, "sent_id": 2, "start_eid": 4, "end_eid": 6, "ne_id": -1, "text": "아프리카계 주민의 민속음악이", "start_eid_short": 6, "end_eid_short": 6, "text_short": "민속음악이"}
        ]}, 
        {"id": 15, "type": "", "number": "singular", "gender": "", "person": "", "animacy": "thing", "mention": [
            {"id": 25, "sent_id": 2, "start_eid": 4, "end_eid": 5, "ne_id": -1, "text": "아프리카계 주민의", "start_eid_short": 4, "end_eid_short": 5, "text_short": "아프리카계 주민의"}
        ]}, 
        {"id": 16, "type": "LCG_CONTINENT", "number": "singular", "gender": "", "person": "", "animacy": "place", "mention": [
            {"id": 26, "sent_id": 2, "start_eid": 4, "end_eid": 4, "ne_id": 2, "text": "아프리카계", "start_eid_short": 4, "end_eid_short": 4, "text_short": "아프리카계"}
        ]}, 
        {"id": 17, "type": "", "number": "singular", "gender": "", "person": "", "animacy": "thing", "mention": [
            {"id": 27, "sent_id": 2, "start_eid": 11, "end_eid": 11, "ne_id": -1, "text": "정설로", "start_eid_short": 11, "end_eid_short": 11, "text_short": "정설로"}
        ]}, 
        {"id": 18, "type": "", "number": "singular", "gender": "", "person": "", "animacy": "thing", "mention": [
            {"id": 20, "sent_id": 2, "start_eid": 1, "end_eid": 6, "ne_id": -1, "text": "유럽 계통의 무곡과 아프리카계 주민의 민속음악이", "start_eid_short": 6, "end_eid_short": 6, "text_short": "민속음악이"}
        ]}
    ]
}