{
    "doc_id": "E2016.836.14_A_02.json", 
    "DCT": "", 
    "category": "", 
    "category_weight": 0, 
    "title": {
        "text": "그린벨트", 
        "NE": ""
    }, 
    "metaInfo": {}, 
    "sentence": [
        {
            "id": 0, 
            "reserve_str": "", 
            "text": "도시의 무질서한 확산 방지와 도시의 자연환경 보전 따위를 위하여 국토교통부 장관이 도시 개발을 제한하도록 지정한 구역", 
            "morp": [
                {"id": 0, "lemma": "도시", "type": "NNG", "position": 0, "weight": 0.43633}, 
                {"id": 1, "lemma": "의", "type": "JKG", "position": 6, "weight": 0.0694213}, 
                {"id": 2, "lemma": "무질서", "type": "NNG", "position": 10, "weight": 0.9}, 
                {"id": 3, "lemma": "하", "type": "XSA", "position": 19, "weight": 0.0001}, 
                {"id": 4, "lemma": "ㄴ", "type": "ETM", "position": 19, "weight": 0.488779}, 
                {"id": 5, "lemma": "확산", "type": "NNG", "position": 23, "weight": 0.9}, 
                {"id": 6, "lemma": "방지", "type": "NNG", "position": 30, "weight": 0.9}, 
                {"id": 7, "lemma": "와", "type": "JC", "position": 36, "weight": 0.0169714}, 
                {"id": 8, "lemma": "도시", "type": "NNG", "position": 40, "weight": 0.800111}, 
                {"id": 9, "lemma": "의", "type": "JKG", "position": 46, "weight": 0.0694213}, 
                {"id": 10, "lemma": "자연", "type": "NNG", "position": 50, "weight": 0.840607}, 
                {"id": 11, "lemma": "환경", "type": "NNG", "position": 56, "weight": 0.184807}, 
                {"id": 12, "lemma": "보전", "type": "NNG", "position": 63, "weight": 0.184011}, 
                {"id": 13, "lemma": "따위", "type": "NNB", "position": 70, "weight": 0.9}, 
                {"id": 14, "lemma": "를", "type": "JKO", "position": 76, "weight": 0.0669358}, 
                {"id": 15, "lemma": "위하", "type": "VV", "position": 80, "weight": 0.778555}, 
                {"id": 16, "lemma": "아", "type": "EC", "position": 86, "weight": 0.41831}, 
                {"id": 17, "lemma": "국토", "type": "NNG", "position": 90, "weight": 0.9}, 
                {"id": 18, "lemma": "교통", "type": "NNG", "position": 96, "weight": 0.9}, 
                {"id": 19, "lemma": "부", "type": "NNG", "position": 102, "weight": 0.0693022}, 
                {"id": 20, "lemma": "장관", "type": "NNG", "position": 106, "weight": 0.184797}, 
                {"id": 21, "lemma": "이", "type": "JKS", "position": 112, "weight": 0.0360723}, 
                {"id": 22, "lemma": "도시", "type": "NNG", "position": 116, "weight": 0.20847}, 
                {"id": 23, "lemma": "개발", "type": "NNG", "position": 123, "weight": 0.9}, 
                {"id": 24, "lemma": "을", "type": "JKO", "position": 129, "weight": 0.129611}, 
                {"id": 25, "lemma": "제한", "type": "NNG", "position": 133, "weight": 0.9}, 
                {"id": 26, "lemma": "하", "type": "XSV", "position": 139, "weight": 0.0001}, 
                {"id": 27, "lemma": "도록", "type": "EC", "position": 142, "weight": 0.370757}, 
                {"id": 28, "lemma": "지정", "type": "NNG", "position": 149, "weight": 0.9}, 
                {"id": 29, "lemma": "하", "type": "XSV", "position": 155, "weight": 0.0001}, 
                {"id": 30, "lemma": "ㄴ", "type": "ETM", "position": 155, "weight": 0.392321}, 
                {"id": 31, "lemma": "구역", "type": "NNG", "position": 159, "weight": 0.9}
            ], 
            "morp_eval": [], 
            "WSD": [
                {"id": 0, "text": "도시", "type": "NNG", "scode": "030000", "weight": 0.0909091, "position": 0, "begin": 0, "end": 0}, 
                {"id": 1, "text": "의", "type": "JKG", "scode": "000000", "weight": 1, "position": 6, "begin": 1, "end": 1}, 
                {"id": 2, "text": "무질서하", "type": "VA", "scode": "000000", "weight": 1, "position": 10, "begin": 2, "end": 3}, 
                {"id": 3, "text": "ㄴ", "type": "ETM", "scode": "000000", "weight": 1, "position": 19, "begin": 4, "end": 4}, 
                {"id": 4, "text": "확산", "type": "NNG", "scode": "000001", "weight": 0.5, "position": 23, "begin": 5, "end": 5}, 
                {"id": 5, "text": "방지", "type": "NNG", "scode": "040000", "weight": 0.142857, "position": 30, "begin": 6, "end": 6}, 
                {"id": 6, "text": "와", "type": "JC", "scode": "000000", "weight": 1, "position": 36, "begin": 7, "end": 7}, 
                {"id": 7, "text": "도시", "type": "NNG", "scode": "030000", "weight": 0.0909091, "position": 40, "begin": 8, "end": 8}, 
                {"id": 8, "text": "의", "type": "JKG", "scode": "000000", "weight": 1, "position": 46, "begin": 9, "end": 9}, 
                {"id": 9, "text": "자연환경", "type": "NNG", "scode": "000000", "weight": 1, "position": 50, "begin": 10, "end": 11}, 
                {"id": 10, "text": "보전", "type": "NNG", "scode": "030000", "weight": 0.0909091, "position": 63, "begin": 12, "end": 12}, 
                {"id": 11, "text": "따위", "type": "NNB", "scode": "000001", "weight": 0.5, "position": 70, "begin": 13, "end": 13}, 
                {"id": 12, "text": "를", "type": "JKO", "scode": "000000", "weight": 1, "position": 76, "begin": 14, "end": 14}, 
                {"id": 13, "text": "위하", "type": "VV", "scode": "010003", "weight": 0.25, "position": 80, "begin": 15, "end": 15}, 
                {"id": 14, "text": "아", "type": "EC", "scode": "000000", "weight": 1, "position": 86, "begin": 16, "end": 16}, 
                {"id": 15, "text": "국토", "type": "NNG", "scode": "000000", "weight": 1, "position": 90, "begin": 17, "end": 17}, 
                {"id": 16, "text": "교통", "type": "NNG", "scode": "010001", "weight": 0.2, "position": 96, "begin": 18, "end": 18}, 
                {"id": 17, "text": "부", "type": "NNG", "scode": "150001", "weight": 0.027027, "position": 102, "begin": 19, "end": 19}, 
                {"id": 18, "text": "장관", "type": "NNG", "scode": "020001", "weight": 0.1, "position": 106, "begin": 20, "end": 20}, 
                {"id": 19, "text": "이", "type": "JKS", "scode": "000000", "weight": 1, "position": 112, "begin": 21, "end": 21}, 
                {"id": 20, "text": "도시", "type": "NNG", "scode": "030000", "weight": 0.0909091, "position": 116, "begin": 22, "end": 22}, 
                {"id": 21, "text": "개발", "type": "NNG", "scode": "000003", "weight": 0.25, "position": 123, "begin": 23, "end": 23}, 
                {"id": 22, "text": "을", "type": "JKO", "scode": "000000", "weight": 1, "position": 129, "begin": 24, "end": 24}, 
                {"id": 23, "text": "제한하", "type": "VV", "scode": "000000", "weight": 1, "position": 133, "begin": 25, "end": 26}, 
                {"id": 24, "text": "도록", "type": "EC", "scode": "000000", "weight": 1, "position": 142, "begin": 27, "end": 27}, 
                {"id": 25, "text": "지정하", "type": "VV", "scode": "050001", "weight": 0.142857, "position": 149, "begin": 28, "end": 29}, 
                {"id": 26, "text": "ㄴ", "type": "ETM", "scode": "000000", "weight": 1, "position": 155, "begin": 30, "end": 30}, 
                {"id": 27, "text": "구역", "type": "NNG", "scode": "040001", "weight": 0.0666667, "position": 159, "begin": 31, "end": 31}
            ], 
            "word": [
                {"id": 0, "text": "도시의", "type": "", "begin": 0, "end": 1}, 
                {"id": 1, "text": "무질서한", "type": "", "begin": 2, "end": 4}, 
                {"id": 2, "text": "확산", "type": "", "begin": 5, "end": 5}, 
                {"id": 3, "text": "방지와", "type": "", "begin": 6, "end": 7}, 
                {"id": 4, "text": "도시의", "type": "", "begin": 8, "end": 9}, 
                {"id": 5, "text": "자연환경", "type": "", "begin": 10, "end": 11}, 
                {"id": 6, "text": "보전", "type": "", "begin": 12, "end": 12}, 
                {"id": 7, "text": "따위를", "type": "", "begin": 13, "end": 14}, 
                {"id": 8, "text": "위하여", "type": "", "begin": 15, "end": 16}, 
                {"id": 9, "text": "국토교통부", "type": "", "begin": 17, "end": 19}, 
                {"id": 10, "text": "장관이", "type": "", "begin": 20, "end": 21}, 
                {"id": 11, "text": "도시", "type": "", "begin": 22, "end": 22}, 
                {"id": 12, "text": "개발을", "type": "", "begin": 23, "end": 24}, 
                {"id": 13, "text": "제한하도록", "type": "", "begin": 25, "end": 27}, 
                {"id": 14, "text": "지정한", "type": "", "begin": 28, "end": 30}, 
                {"id": 15, "text": "구역", "type": "", "begin": 31, "end": 31}
            ], 
            "NE": [
                {"id": 0, "text": "국토교통부", "type": "OGG_POLITICS", "begin": 17, "end": 19, "weight": 0.764774, "common_noun": 0}, 
                {"id": 1, "text": "장관", "type": "CV_POSITION", "begin": 20, "end": 20, "weight": 0.492368, "common_noun": 0}
            ], 
            "chunk": [], 
            "dependency": [
                {"id": 0, "text": "도시의", "head": 2, "label": "NP_MOD", "mod": [], "weight": 0.167402}, 
                {"id": 1, "text": "무질서한", "head": 2, "label": "VP_MOD", "mod": [], "weight": 0.385921}, 
                {"id": 2, "text": "확산", "head": 3, "label": "NP", "mod": [1, 0], "weight": 0.732563}, 
                {"id": 3, "text": "방지와", "head": 6, "label": "NP_CNJ", "mod": [2], "weight": 0.698607}, 
                {"id": 4, "text": "도시의", "head": 6, "label": "NP_MOD", "mod": [], "weight": 0.483669}, 
                {"id": 5, "text": "자연환경", "head": 6, "label": "NP", "mod": [], "weight": 0.470445}, 
                {"id": 6, "text": "보전", "head": 7, "label": "NP", "mod": [3, 4, 5], "weight": 0.786313}, 
                {"id": 7, "text": "따위를", "head": 8, "label": "NP_OBJ", "mod": [6], "weight": 0.818128}, 
                {"id": 8, "text": "위하여", "head": 13, "label": "VP", "mod": [7], "weight": 0.318473}, 
                {"id": 9, "text": "국토교통부", "head": 10, "label": "NP", "mod": [], "weight": 0.860957}, 
                {"id": 10, "text": "장관이", "head": 13, "label": "NP_SBJ", "mod": [9], "weight": 0.28395}, 
                {"id": 11, "text": "도시", "head": 12, "label": "NP", "mod": [], "weight": 0.762008}, 
                {"id": 12, "text": "개발을", "head": 13, "label": "NP_OBJ", "mod": [11], "weight": 0.636746}, 
                {"id": 13, "text": "제한하도록", "head": 14, "label": "VP", "mod": [8, 10, 12], "weight": 0.645565}, 
                {"id": 14, "text": "지정한", "head": 15, "label": "VP_MOD", "mod": [13], "weight": 0.61738}, 
                {"id": 15, "text": "구역", "head": -1, "label": "NP", "mod": [14], "weight": 5.9995e-05}
            ], 
            "SRL": [
                {"verb": "무질서", "sense": 1, "word_id": 1, "weight": 0.322467, "argument": [
                    {"type": "ARG1", "word_id": 2, "text": "확산", "weight": 1}
                ]}, 
                {"verb": "위하", "sense": 1, "word_id": 8, "weight": 0.209013, "argument": [
                    {"type": "ARG1", "word_id": 7, "text": "따위를", "weight": 0.209013}
                ]}, 
                {"verb": "제한", "sense": 1, "word_id": 13, "weight": 0.29451, "argument": [
                    {"type": "ARG0", "word_id": 10, "text": "장관이", "weight": 0.240614}, 
                    {"type": "ARG1", "word_id": 12, "text": "개발을", "weight": 0.348407}, 
                    {"type": "ARGM-PRP", "word_id": 8, "text": "위하여", "weight": 1}
                ]}, 
                {"verb": "지정", "sense": 1, "word_id": 14, "weight": 0.120545, "argument": [
                    {"type": "ARG2", "word_id": 13, "text": "제한하도록", "weight": 1}, 
                    {"type": "ARG1", "word_id": 15, "text": "구역", "weight": 0.107763}, 
                    {"type": "ARG0", "word_id": 10, "text": "장관이", "weight": 1}
                ]}
            ], 
            "relation": [], 
            "SA": [], 
            "ZA": []
        }
    ], 
    "entity": [
        {"id": 0, "type": "", "number": "singular", "gender": "", "person": "", "animacy": "thing", "mention": [
            {"id": 3, "sent_id": 0, "start_eid": 0, "end_eid": 2, "ne_id": -1, "text": "도시의 무질서한 확산", "start_eid_short": 2, "end_eid_short": 2, "text_short": "확산"}
        ]}, 
        {"id": 1, "type": "", "number": "singular", "gender": "", "person": "", "animacy": "thing", "mention": [
            {"id": 4, "sent_id": 0, "start_eid": 0, "end_eid": 0, "ne_id": -1, "text": "도시의", "start_eid_short": 0, "end_eid_short": 0, "text_short": "도시의"}, 
            {"id": 8, "sent_id": 0, "start_eid": 4, "end_eid": 4, "ne_id": -1, "text": "도시의", "start_eid_short": 4, "end_eid_short": 4, "text_short": "도시의"}, 
            {"id": 12, "sent_id": 0, "start_eid": 11, "end_eid": 11, "ne_id": -1, "text": "도시", "start_eid_short": 11, "end_eid_short": 11, "text_short": "도시"}
        ]}, 
        {"id": 2, "type": "", "number": "singular", "gender": "", "person": "", "animacy": "thing", "mention": [
            {"id": 0, "sent_id": 0, "start_eid": 0, "end_eid": 15, "ne_id": -1, "text": "도시의 무질서한 확산 방지와 도시의 자연환경 보전 따위를 위하여 국토교통부 장관이 도시 개발을 제한하도록 지정한 구역", "start_eid_short": 15, "end_eid_short": 15, "text_short": "구역"}
        ]}, 
        {"id": 3, "type": "", "number": "singular", "gender": "", "person": "", "animacy": "thing", "mention": [
            {"id": 6, "sent_id": 0, "start_eid": 4, "end_eid": 6, "ne_id": -1, "text": "도시의 자연환경 보전", "start_eid_short": 5, "end_eid_short": 6, "text_short": "자연환경 보전"}
        ]}, 
        {"id": 4, "type": "", "number": "singular", "gender": "", "person": "", "animacy": "thing", "mention": [
            {"id": 7, "sent_id": 0, "start_eid": 4, "end_eid": 5, "ne_id": -1, "text": "도시의 자연환경", "start_eid_short": 5, "end_eid_short": 5, "text_short": "자연환경"}
        ]}, 
        {"id": 5, "type": "", "number": "singular", "gender": "", "person": "", "animacy": "thing", "mention": [
            {"id": 5, "sent_id": 0, "start_eid": 4, "end_eid": 7, "ne_id": -1, "text": "도시의 자연환경 보전 따위를", "start_eid_short": 5, "end_eid_short": 7, "text_short": "자연환경 보전 따위를"}
        ]}, 
        {"id": 6, "type": "CV_POSITION", "number": "singular", "gender": "", "person": "", "animacy": "human", "mention": [
            {"id": 9, "sent_id": 0, "start_eid": 9, "end_eid": 10, "ne_id": 1, "text": "국토교통부 장관이", "start_eid_short": 9, "end_eid_short": 10, "text_short": "국토교통부 장관이"}
        ]}, 
        {"id": 7, "type": "OGG_POLITICS", "number": "singular", "gender": "", "person": "", "animacy": "thing", "mention": [
            {"id": 10, "sent_id": 0, "start_eid": 9, "end_eid": 9, "ne_id": 0, "text": "국토교통부", "start_eid_short": 9, "end_eid_short": 9, "text_short": "국토교통부"}
        ]}, 
        {"id": 8, "type": "", "number": "singular", "gender": "", "person": "", "animacy": "thing", "mention": [
            {"id": 11, "sent_id": 0, "start_eid": 11, "end_eid": 12, "ne_id": -1, "text": "도시 개발을", "start_eid_short": 11, "end_eid_short": 12, "text_short": "도시 개발을"}
        ]}, 
        {"id": 9, "type": "", "number": "singular", "gender": "", "person": "", "animacy": "thing", "mention": [
            {"id": 2, "sent_id": 0, "start_eid": 0, "end_eid": 3, "ne_id": -1, "text": "도시의 무질서한 확산 방지와", "start_eid_short": 2, "end_eid_short": 3, "text_short": "확산 방지와"}
        ]}, 
        {"id": 10, "type": "", "number": "singular", "gender": "", "person": "", "animacy": "thing", "mention": [
            {"id": 1, "sent_id": 0, "start_eid": 0, "end_eid": 7, "ne_id": -1, "text": "도시의 무질서한 확산 방지와 도시의 자연환경 보전 따위를", "start_eid_short": 5, "end_eid_short": 7, "text_short": "자연환경 보전 따위를"}
        ]}
    ]
}