{
    "doc_id": "E2016.837.02_A_02.json", 
    "DCT": "", 
    "category": "", 
    "category_weight": 0, 
    "title": {
        "text": "방령", 
        "NE": ""
    }, 
    "metaInfo": {}, 
    "sentence": [
        {
            "id": 0, 
            "reserve_str": "", 
            "text": "백제시대 지방행정구역인 방(方)의 최고 책임자.", 
            "morp": [
                {"id": 0, "lemma": "백제", "type": "NNP", "position": 0, "weight": 0.9}, 
                {"id": 1, "lemma": "시대", "type": "NNG", "position": 6, "weight": 0.9}, 
                {"id": 2, "lemma": "지방", "type": "NNG", "position": 13, "weight": 0.9}, 
                {"id": 3, "lemma": "행정", "type": "NNG", "position": 19, "weight": 0.9}, 
                {"id": 4, "lemma": "구역", "type": "NNG", "position": 25, "weight": 0.9}, 
                {"id": 5, "lemma": "이", "type": "VCP", "position": 31, "weight": 0.0177525}, 
                {"id": 6, "lemma": "ㄴ", "type": "ETM", "position": 31, "weight": 0.220712}, 
                {"id": 7, "lemma": "방", "type": "NNG", "position": 35, "weight": 0.641993}, 
                {"id": 8, "lemma": "(", "type": "SS", "position": 38, "weight": 1}, 
                {"id": 9, "lemma": "方", "type": "SH", "position": 39, "weight": 1}, 
                {"id": 10, "lemma": ")", "type": "SS", "position": 42, "weight": 1}, 
                {"id": 11, "lemma": "의", "type": "JKG", "position": 43, "weight": 0.0878251}, 
                {"id": 12, "lemma": "최고", "type": "NNG", "position": 47, "weight": 0.9}, 
                {"id": 13, "lemma": "책임", "type": "NNG", "position": 54, "weight": 0.9}, 
                {"id": 14, "lemma": "자", "type": "XSN", "position": 60, "weight": 0.00398741}, 
                {"id": 15, "lemma": ".", "type": "SF", "position": 63, "weight": 1}
            ], 
            "morp_eval": [], 
            "WSD": [
                {"id": 0, "text": "백제", "type": "NNP", "scode": "020000", "weight": 0.5, "position": 0, "begin": 0, "end": 0}, 
                {"id": 1, "text": "시대", "type": "NNG", "scode": "020001", "weight": 0.333333, "position": 6, "begin": 1, "end": 1}, 
                {"id": 2, "text": "지방", "type": "NNG", "scode": "050003", "weight": 0.0909091, "position": 13, "begin": 2, "end": 2}, 
                {"id": 3, "text": "행정구역", "type": "NNG", "scode": "000000", "weight": 1, "position": 19, "begin": 3, "end": 4}, 
                {"id": 4, "text": "이", "type": "VCP", "scode": "030000", "weight": 0.0172414, "position": 31, "begin": 5, "end": 5}, 
                {"id": 5, "text": "ㄴ", "type": "ETM", "scode": "000000", "weight": 1, "position": 31, "begin": 6, "end": 6}, 
                {"id": 6, "text": "방", "type": "NNG", "scode": "888888", "weight": 0.0357143, "position": 35, "begin": 7, "end": 7}, 
                {"id": 7, "text": "(", "type": "SS", "scode": "000000", "weight": 1, "position": 38, "begin": 8, "end": 8}, 
                {"id": 8, "text": "方", "type": "SH", "scode": "000000", "weight": 1, "position": 39, "begin": 9, "end": 9}, 
                {"id": 9, "text": ")", "type": "SS", "scode": "000000", "weight": 1, "position": 42, "begin": 10, "end": 10}, 
                {"id": 10, "text": "의", "type": "JKG", "scode": "000000", "weight": 1, "position": 43, "begin": 11, "end": 11}, 
                {"id": 11, "text": "최고", "type": "NNG", "scode": "020001", "weight": 0.2, "position": 47, "begin": 12, "end": 12}, 
                {"id": 12, "text": "책임자", "type": "NNG", "scode": "000000", "weight": 1, "position": 54, "begin": 13, "end": 14}, 
                {"id": 13, "text": ".", "type": "SF", "scode": "000000", "weight": 1, "position": 63, "begin": 15, "end": 15}
            ], 
            "word": [
                {"id": 0, "text": "백제시대", "type": "", "begin": 0, "end": 1}, 
                {"id": 1, "text": "지방행정구역인", "type": "", "begin": 2, "end": 6}, 
                {"id": 2, "text": "방(方)의", "type": "", "begin": 7, "end": 11}, 
                {"id": 3, "text": "최고", "type": "", "begin": 12, "end": 12}, 
                {"id": 4, "text": "책임자.", "type": "", "begin": 13, "end": 15}
            ], 
            "NE": [
                {"id": 0, "text": "백제시대", "type": "DT_DYNASTY", "begin": 0, "end": 1, "weight": 0.866289, "common_noun": 0}, 
                {"id": 1, "text": "최고 책임자", "type": "CV_POSITION", "begin": 12, "end": 14, "weight": 0.610373, "common_noun": 0}
            ], 
            "chunk": [], 
            "dependency": [
                {"id": 0, "text": "백제시대", "head": 1, "label": "NP", "mod": [], "weight": 0.379873}, 
                {"id": 1, "text": "지방행정구역인", "head": 2, "label": "VNP_MOD", "mod": [0], "weight": 0.73541}, 
                {"id": 2, "text": "방(方)의", "head": 4, "label": "NP_MOD", "mod": [1], "weight": 0.82896}, 
                {"id": 3, "text": "최고", "head": 4, "label": "NP", "mod": [], "weight": 0.688701}, 
                {"id": 4, "text": "책임자.", "head": -1, "label": "NP", "mod": [2, 3], "weight": 0.140892}
            ], 
            "SRL": [], 
            "relation": [], 
            "SA": [], 
            "ZA": []
        }
    ], 
    "entity": [
        {"id": 0, "type": "DT_DYNASTY", "number": "singular", "gender": "", "person": "", "animacy": "time", "mention": [
            {"id": 3, "sent_id": 0, "start_eid": 0, "end_eid": 0, "ne_id": 0, "text": "백제시대", "start_eid_short": 0, "end_eid_short": 0, "text_short": "백제시대"}
        ]}, 
        {"id": 1, "type": "", "number": "singular", "gender": "", "person": "", "animacy": "thing", "mention": [
            {"id": 4, "sent_id": 0, "start_eid": 3, "end_eid": 3, "ne_id": -1, "text": "최고", "start_eid_short": 3, "end_eid_short": 3, "text_short": "최고"}
        ]}, 
        {"id": 2, "type": "CV_POSITION", "number": "singular", "gender": "", "person": "", "animacy": "human", "mention": [
            {"id": 0, "sent_id": 0, "start_eid": 0, "end_eid": 4, "ne_id": 1, "text": "백제시대 지방행정구역인 방(方)의 최고 책임자.", "start_eid_short": 3, "end_eid_short": 4, "text_short": "최고 책임자."}
        ]}, 
        {"id": 3, "type": "", "number": "singular", "gender": "", "person": "", "animacy": "thing", "mention": [
            {"id": 1, "sent_id": 0, "start_eid": 0, "end_eid": 2, "ne_id": -1, "text": "백제시대 지방행정구역인 방(方)의", "start_eid_short": 2, "end_eid_short": 2, "text_short": "방(方)의"}, 
            {"id": 2, "sent_id": 0, "start_eid": 0, "end_eid": 1, "ne_id": -1, "text": "백제시대 지방행정구역인", "start_eid_short": 1, "end_eid_short": 1, "text_short": "지방행정구역인"}
        ]}
    ]
}