{
    "doc_id": "E2016.835.21_A_02.json", 
    "DCT": "", 
    "category": "", 
    "category_weight": 0, 
    "title": {
        "text": "당통", 
        "NE": ""
    }, 
    "metaInfo": {}, 
    "sentence": [
        {
            "id": 0, 
            "reserve_str": "", 
            "text": "<인명> 프랑스 혁명 시기의 정치가(1759~1794).", 
            "morp": [
                {"id": 0, "lemma": "<", "type": "SS", "position": 0, "weight": 1}, 
                {"id": 1, "lemma": "인명", "type": "NNG", "position": 1, "weight": 0.153379}, 
                {"id": 2, "lemma": ">", "type": "SS", "position": 7, "weight": 1}, 
                {"id": 3, "lemma": "프랑스", "type": "NNP", "position": 9, "weight": 0.0674443}, 
                {"id": 4, "lemma": "혁명", "type": "NNG", "position": 19, "weight": 0.9}, 
                {"id": 5, "lemma": "시기", "type": "NNG", "position": 26, "weight": 0.184726}, 
                {"id": 6, "lemma": "의", "type": "JKG", "position": 32, "weight": 0.0694213}, 
                {"id": 7, "lemma": "정치", "type": "NNG", "position": 36, "weight": 0.9}, 
                {"id": 8, "lemma": "가", "type": "XSN", "position": 42, "weight": 0.000115417}, 
                {"id": 9, "lemma": "(", "type": "SS", "position": 45, "weight": 1}, 
                {"id": 10, "lemma": "1759", "type": "SN", "position": 46, "weight": 1}, 
                {"id": 11, "lemma": "~", "type": "SO", "position": 50, "weight": 1}, 
                {"id": 12, "lemma": "1794", "type": "SN", "position": 51, "weight": 1}, 
                {"id": 13, "lemma": ")", "type": "SS", "position": 55, "weight": 1}, 
                {"id": 14, "lemma": ".", "type": "SF", "position": 56, "weight": 1}
            ], 
            "morp_eval": [], 
            "WSD": [
                {"id": 0, "text": "<", "type": "SS", "scode": "000000", "weight": 1, "position": 0, "begin": 0, "end": 0}, 
                {"id": 1, "text": "인명", "type": "NNG", "scode": "010000", "weight": 0.2, "position": 1, "begin": 1, "end": 1}, 
                {"id": 2, "text": ">", "type": "SS", "scode": "000000", "weight": 1, "position": 7, "begin": 2, "end": 2}, 
                {"id": 3, "text": "프랑스", "type": "NNP", "scode": "020000", "weight": 0.5, "position": 9, "begin": 3, "end": 3}, 
                {"id": 4, "text": "혁명", "type": "NNG", "scode": "000001", "weight": 0.333333, "position": 19, "begin": 4, "end": 4}, 
                {"id": 5, "text": "시기", "type": "NNG", "scode": "040000", "weight": 0.0666667, "position": 26, "begin": 5, "end": 5}, 
                {"id": 6, "text": "의", "type": "JKG", "scode": "000000", "weight": 1, "position": 32, "begin": 6, "end": 6}, 
                {"id": 7, "text": "정치가", "type": "NNG", "scode": "000000", "weight": 1, "position": 36, "begin": 7, "end": 8}, 
                {"id": 8, "text": "(", "type": "SS", "scode": "000000", "weight": 1, "position": 45, "begin": 9, "end": 9}, 
                {"id": 9, "text": "1759", "type": "SN", "scode": "000000", "weight": 1, "position": 46, "begin": 10, "end": 10}, 
                {"id": 10, "text": "~", "type": "SO", "scode": "000000", "weight": 1, "position": 50, "begin": 11, "end": 11}, 
                {"id": 11, "text": "1794", "type": "SN", "scode": "000000", "weight": 1, "position": 51, "begin": 12, "end": 12}, 
                {"id": 12, "text": ")", "type": "SS", "scode": "000000", "weight": 1, "position": 55, "begin": 13, "end": 13}, 
                {"id": 13, "text": ".", "type": "SF", "scode": "000000", "weight": 1, "position": 56, "begin": 14, "end": 14}
            ], 
            "word": [
                {"id": 0, "text": "<인명>", "type": "", "begin": 0, "end": 2}, 
                {"id": 1, "text": "프랑스", "type": "", "begin": 3, "end": 3}, 
                {"id": 2, "text": "혁명", "type": "", "begin": 4, "end": 4}, 
                {"id": 3, "text": "시기의", "type": "", "begin": 5, "end": 6}, 
                {"id": 4, "text": "정치가(1759~1794).", "type": "", "begin": 7, "end": 14}
            ], 
            "NE": [
                {"id": 0, "text": "프랑스 혁명", "type": "EV_WAR_REVOLUTION", "begin": 3, "end": 4, "weight": 0.277374, "common_noun": 0}, 
                {"id": 1, "text": "정치가", "type": "CV_OCCUPATION", "begin": 7, "end": 8, "weight": 0.544055, "common_noun": 0}, 
                {"id": 2, "text": "1759~1794", "type": "DT_DURATION", "begin": 10, "end": 12, "weight": 0.416699, "common_noun": 0}
            ], 
            "chunk": [], 
            "dependency": [
                {"id": 0, "text": "<인명>", "head": 4, "label": "NP", "mod": [], "weight": 0.817633}, 
                {"id": 1, "text": "프랑스", "head": 2, "label": "NP", "mod": [], "weight": 0.70336}, 
                {"id": 2, "text": "혁명", "head": 3, "label": "NP", "mod": [1], "weight": 0.779451}, 
                {"id": 3, "text": "시기의", "head": 4, "label": "NP_MOD", "mod": [2], "weight": 0.769453}, 
                {"id": 4, "text": "정치가(1759~1794).", "head": -1, "label": "NP", "mod": [0, 3], "weight": 0.295032}
            ], 
            "SRL": [], 
            "relation": [], 
            "SA": [], 
            "ZA": []
        }, 
        {
            "id": 1, 
            "reserve_str": "", 
            "text": "자코뱅파의 지도자로 혁명 재판소를 설치하고 왕당파를 처형하였으나, 로베스 피에르의 독재에 반대하다가 처형되었다.", 
            "morp": [
                {"id": 0, "lemma": "자코뱅파", "type": "NNP", "position": 57, "weight": 0.05}, 
                {"id": 1, "lemma": "의", "type": "JKG", "position": 69, "weight": 0.0694213}, 
                {"id": 2, "lemma": "지도", "type": "NNG", "position": 73, "weight": 0.869829}, 
                {"id": 3, "lemma": "자", "type": "XSN", "position": 79, "weight": 0.00398741}, 
                {"id": 4, "lemma": "로", "type": "JKB", "position": 82, "weight": 0.121577}, 
                {"id": 5, "lemma": "혁명", "type": "NNG", "position": 86, "weight": 0.9}, 
                {"id": 6, "lemma": "재판", "type": "NNG", "position": 93, "weight": 0.9}, 
                {"id": 7, "lemma": "소", "type": "XSN", "position": 99, "weight": 0.00141622}, 
                {"id": 8, "lemma": "를", "type": "JKO", "position": 102, "weight": 0.0870227}, 
                {"id": 9, "lemma": "설치", "type": "NNG", "position": 106, "weight": 0.0749782}, 
                {"id": 10, "lemma": "하", "type": "XSV", "position": 112, "weight": 0.0001}, 
                {"id": 11, "lemma": "고", "type": "EC", "position": 115, "weight": 0.359917}, 
                {"id": 12, "lemma": "왕당", "type": "NNG", "position": 119, "weight": 0.05}, 
                {"id": 13, "lemma": "파", "type": "NNG", "position": 125, "weight": 0.092063}, 
                {"id": 14, "lemma": "를", "type": "JKO", "position": 128, "weight": 0.137686}, 
                {"id": 15, "lemma": "처형", "type": "NNG", "position": 132, "weight": 0.9}, 
                {"id": 16, "lemma": "하", "type": "XSV", "position": 138, "weight": 0.0001}, 
                {"id": 17, "lemma": "였", "type": "EP", "position": 141, "weight": 0.9}, 
                {"id": 18, "lemma": "으나", "type": "EC", "position": 144, "weight": 0.197698}, 
                {"id": 19, "lemma": ",", "type": "SP", "position": 150, "weight": 1}, 
                {"id": 20, "lemma": "로베스", "type": "NNP", "position": 152, "weight": 0.6}, 
                {"id": 21, "lemma": "피에르", "type": "NNP", "position": 162, "weight": 0.9}, 
                {"id": 22, "lemma": "의", "type": "JKG", "position": 171, "weight": 0.0987295}, 
                {"id": 23, "lemma": "독재", "type": "NNG", "position": 175, "weight": 0.869992}, 
                {"id": 24, "lemma": "에", "type": "JKB", "position": 181, "weight": 0.153364}, 
                {"id": 25, "lemma": "반대", "type": "NNG", "position": 185, "weight": 0.9}, 
                {"id": 26, "lemma": "하", "type": "XSV", "position": 191, "weight": 0.0001}, 
                {"id": 27, "lemma": "다가", "type": "EC", "position": 194, "weight": 0.35574}, 
                {"id": 28, "lemma": "처형", "type": "NNG", "position": 201, "weight": 0.9}, 
                {"id": 29, "lemma": "되", "type": "XSV", "position": 207, "weight": 0.000224177}, 
                {"id": 30, "lemma": "었", "type": "EP", "position": 210, "weight": 0.9}, 
                {"id": 31, "lemma": "다", "type": "EF", "position": 213, "weight": 0.640954}, 
                {"id": 32, "lemma": ".", "type": "SF", "position": 216, "weight": 1}
            ], 
            "morp_eval": [], 
            "WSD": [
                {"id": 0, "text": "자코뱅파", "type": "NNP", "scode": "000000", "weight": 1, "position": 57, "begin": 0, "end": 0}, 
                {"id": 1, "text": "의", "type": "JKG", "scode": "000000", "weight": 1, "position": 69, "begin": 1, "end": 1}, 
                {"id": 2, "text": "지도자", "type": "NNG", "scode": "000000", "weight": 1, "position": 73, "begin": 2, "end": 3}, 
                {"id": 3, "text": "로", "type": "JKB", "scode": "000000", "weight": 1, "position": 82, "begin": 4, "end": 4}, 
                {"id": 4, "text": "혁명", "type": "NNG", "scode": "000001", "weight": 0.333333, "position": 86, "begin": 5, "end": 5}, 
                {"id": 5, "text": "재판소", "type": "NNG", "scode": "000001", "weight": 0.5, "position": 93, "begin": 6, "end": 7}, 
                {"id": 6, "text": "를", "type": "JKO", "scode": "000000", "weight": 1, "position": 102, "begin": 8, "end": 8}, 
                {"id": 7, "text": "설치하", "type": "VV", "scode": "010000", "weight": 0.25, "position": 106, "begin": 9, "end": 10}, 
                {"id": 8, "text": "고", "type": "EC", "scode": "000000", "weight": 1, "position": 115, "begin": 11, "end": 11}, 
                {"id": 9, "text": "왕당파", "type": "NNG", "scode": "000001", "weight": 0.5, "position": 119, "begin": 12, "end": 13}, 
                {"id": 10, "text": "를", "type": "JKO", "scode": "000000", "weight": 1, "position": 128, "begin": 14, "end": 14}, 
                {"id": 11, "text": "처형하", "type": "VV", "scode": "000002", "weight": 0.5, "position": 132, "begin": 15, "end": 16}, 
                {"id": 12, "text": "였", "type": "EP", "scode": "000000", "weight": 1, "position": 141, "begin": 17, "end": 17}, 
                {"id": 13, "text": "으나", "type": "EC", "scode": "000000", "weight": 1, "position": 144, "begin": 18, "end": 18}, 
                {"id": 14, "text": ",", "type": "SP", "scode": "000000", "weight": 1, "position": 150, "begin": 19, "end": 19}, 
                {"id": 15, "text": "로베스", "type": "NNP", "scode": "000000", "weight": 0, "position": 152, "begin": 20, "end": 20}, 
                {"id": 16, "text": "피에르", "type": "NNP", "scode": "000000", "weight": 0, "position": 162, "begin": 21, "end": 21}, 
                {"id": 17, "text": "의", "type": "JKG", "scode": "000000", "weight": 1, "position": 171, "begin": 22, "end": 22}, 
                {"id": 18, "text": "독재", "type": "NNG", "scode": "000001", "weight": 0.5, "position": 175, "begin": 23, "end": 23}, 
                {"id": 19, "text": "에", "type": "JKB", "scode": "000000", "weight": 1, "position": 181, "begin": 24, "end": 24}, 
                {"id": 20, "text": "반대하", "type": "VV", "scode": "010000", "weight": 0.5, "position": 185, "begin": 25, "end": 26}, 
                {"id": 21, "text": "다가", "type": "EC", "scode": "000000", "weight": 1, "position": 194, "begin": 27, "end": 27}, 
                {"id": 22, "text": "처형되", "type": "VV", "scode": "000002", "weight": 0.5, "position": 201, "begin": 28, "end": 29}, 
                {"id": 23, "text": "었", "type": "EP", "scode": "000000", "weight": 1, "position": 210, "begin": 30, "end": 30}, 
                {"id": 24, "text": "다", "type": "EF", "scode": "000000", "weight": 1, "position": 213, "begin": 31, "end": 31}, 
                {"id": 25, "text": ".", "type": "SF", "scode": "000000", "weight": 1, "position": 216, "begin": 32, "end": 32}
            ], 
            "word": [
                {"id": 0, "text": "자코뱅파의", "type": "", "begin": 0, "end": 1}, 
                {"id": 1, "text": "지도자로", "type": "", "begin": 2, "end": 4}, 
                {"id": 2, "text": "혁명", "type": "", "begin": 5, "end": 5}, 
                {"id": 3, "text": "재판소를", "type": "", "begin": 6, "end": 8}, 
                {"id": 4, "text": "설치하고", "type": "", "begin": 9, "end": 11}, 
                {"id": 5, "text": "왕당파를", "type": "", "begin": 12, "end": 14}, 
                {"id": 6, "text": "처형하였으나,", "type": "", "begin": 15, "end": 19}, 
                {"id": 7, "text": "로베스", "type": "", "begin": 20, "end": 20}, 
                {"id": 8, "text": "피에르의", "type": "", "begin": 21, "end": 22}, 
                {"id": 9, "text": "독재에", "type": "", "begin": 23, "end": 24}, 
                {"id": 10, "text": "반대하다가", "type": "", "begin": 25, "end": 27}, 
                {"id": 11, "text": "처형되었다.", "type": "", "begin": 28, "end": 32}
            ], 
            "NE": [
                {"id": 0, "text": "자코뱅파", "type": "OGG_POLITICS", "begin": 0, "end": 0, "weight": 0.172685, "common_noun": 0}, 
                {"id": 1, "text": "지도자", "type": "CV_POSITION", "begin": 2, "end": 3, "weight": 0.804387, "common_noun": 0}, 
                {"id": 2, "text": "혁명 재판소", "type": "OGG_LAW", "begin": 5, "end": 7, "weight": 0.483388, "common_noun": 0}, 
                {"id": 3, "text": "왕당파", "type": "OGG_POLITICS", "begin": 12, "end": 13, "weight": 0.212917, "common_noun": 0}, 
                {"id": 4, "text": "로베스 피에르", "type": "PS_NAME", "begin": 20, "end": 21, "weight": 0.716657, "common_noun": 0}
            ], 
            "chunk": [], 
            "dependency": [
                {"id": 0, "text": "자코뱅파의", "head": 1, "label": "NP_MOD", "mod": [], "weight": 0.678607}, 
                {"id": 1, "text": "지도자로", "head": 4, "label": "NP_AJT", "mod": [0], "weight": 0.752241}, 
                {"id": 2, "text": "혁명", "head": 3, "label": "NP", "mod": [], "weight": 0.771528}, 
                {"id": 3, "text": "재판소를", "head": 4, "label": "NP_OBJ", "mod": [2], "weight": 0.766137}, 
                {"id": 4, "text": "설치하고", "head": 6, "label": "VP", "mod": [1, 3], "weight": 0.798447}, 
                {"id": 5, "text": "왕당파를", "head": 6, "label": "NP_OBJ", "mod": [], "weight": 0.682262}, 
                {"id": 6, "text": "처형하였으나,", "head": 10, "label": "VP", "mod": [4, 5], "weight": 0.670657}, 
                {"id": 7, "text": "로베스", "head": 8, "label": "NP", "mod": [], "weight": 0.755552}, 
                {"id": 8, "text": "피에르의", "head": 9, "label": "NP_MOD", "mod": [7], "weight": 0.709894}, 
                {"id": 9, "text": "독재에", "head": 10, "label": "NP_AJT", "mod": [8], "weight": 0.850094}, 
                {"id": 10, "text": "반대하다가", "head": 11, "label": "VP", "mod": [6, 9], "weight": 0.737242}, 
                {"id": 11, "text": "처형되었다.", "head": -1, "label": "VP", "mod": [10], "weight": 0.0286878}
            ], 
            "SRL": [
                {"verb": "설치", "sense": 1, "word_id": 4, "weight": 0.201513, "argument": [
                    {"type": "ARGM-PRD", "word_id": 1, "text": "지도자로", "weight": 0.0767387}, 
                    {"type": "ARG1", "word_id": 3, "text": "재판소를", "weight": 0.326287}
                ]}, 
                {"verb": "처형", "sense": 1, "word_id": 6, "weight": 0.239995, "argument": [
                    {"type": "ARG1", "word_id": 5, "text": "왕당파를", "weight": 0.239995}
                ]}, 
                {"verb": "반대", "sense": 1, "word_id": 10, "weight": 0.206291, "argument": [
                    {"type": "ARG1", "word_id": 9, "text": "독재에", "weight": 0.206291}
                ]}, 
                {"verb": "처형", "sense": 1, "word_id": 11, "weight": 0.0696005, "argument": [
                    {"type": "ARGM-CAU", "word_id": 10, "text": "반대하다가", "weight": 0.0696005}
                ]}
            ], 
            "relation": [], 
            "SA": [], 
            "ZA": []
        }
    ], 
    "entity": [
        {"id": 0, "type": "DT_DYNASTY", "number": "singular", "gender": "", "person": "", "animacy": "time", "mention": [
            {"id": 1, "sent_id": 0, "start_eid": 1, "end_eid": 3, "ne_id": 0, "text": "프랑스 혁명 시기의", "start_eid_short": 1, "end_eid_short": 3, "text_short": "프랑스 혁명 시기의"}
        ]}, 
        {"id": 1, "type": "DT_DURATION", "number": "singular", "gender": "", "person": "", "animacy": "time", "mention": [
            {"id": 0, "sent_id": 0, "start_eid": 1, "end_eid": 4, "ne_id": 1, "text": "프랑스 혁명 시기의 정치가(1759~1794).", "start_eid_short": 4, "end_eid_short": 4, "text_short": "정치가(1759~1794)."}, 
            {"id": 2, "sent_id": 1, "start_eid": 0, "end_eid": 1, "ne_id": 1, "text": "자코뱅파의 지도자로", "start_eid_short": 1, "end_eid_short": 1, "text_short": "지도자로"}
        ]}, 
        {"id": 2, "type": "OGG_POLITICS", "number": "singular", "gender": "", "person": "", "animacy": "thing", "mention": [
            {"id": 3, "sent_id": 1, "start_eid": 0, "end_eid": 0, "ne_id": 0, "text": "자코뱅파의", "start_eid_short": 0, "end_eid_short": 0, "text_short": "자코뱅파의"}
        ]}, 
        {"id": 3, "type": "OGG_LAW", "number": "singular", "gender": "", "person": "", "animacy": "thing", "mention": [
            {"id": 4, "sent_id": 1, "start_eid": 2, "end_eid": 3, "ne_id": 2, "text": "혁명 재판소를", "start_eid_short": 2, "end_eid_short": 3, "text_short": "혁명 재판소를"}
        ]}, 
        {"id": 4, "type": "OGG_POLITICS", "number": "singular", "gender": "", "person": "", "animacy": "thing", "mention": [
            {"id": 5, "sent_id": 1, "start_eid": 5, "end_eid": 5, "ne_id": 3, "text": "왕당파를", "start_eid_short": 5, "end_eid_short": 5, "text_short": "왕당파를"}
        ]}, 
        {"id": 5, "type": "", "number": "singular", "gender": "", "person": "", "animacy": "thing", "mention": [
            {"id": 6, "sent_id": 1, "start_eid": 7, "end_eid": 9, "ne_id": -1, "text": "로베스 피에르의 독재에", "start_eid_short": 9, "end_eid_short": 9, "text_short": "독재에"}
        ]}, 
        {"id": 6, "type": "PS_NAME", "number": "singular", "gender": "", "person": "", "animacy": "human", "mention": [
            {"id": 7, "sent_id": 1, "start_eid": 7, "end_eid": 8, "ne_id": 4, "text": "로베스 피에르의", "start_eid_short": 7, "end_eid_short": 8, "text_short": "로베스 피에르의"}
        ]}
    ]
}