{
    "doc_id": "E2016.835.16_Q_01.json", 
    "DCT": "", 
    "category": "", 
    "category_weight": 0, 
    "title": {
        "text": "", 
        "NE": ""
    }, 
    "metaInfo": {}, 
    "sentence": [
        {
            "id": 0, 
            "reserve_str": "", 
            "text": "근대소설의 선구적 작품으로 영화와 뮤지컬로도 만들어졌다.", 
            "morp": [
                {"id": 0, "lemma": "근대", "type": "NNG", "position": 0, "weight": 0.437602}, 
                {"id": 1, "lemma": "소설", "type": "NNG", "position": 6, "weight": 0.9}, 
                {"id": 2, "lemma": "의", "type": "JKG", "position": 12, "weight": 0.0694213}, 
                {"id": 3, "lemma": "선구", "type": "NNG", "position": 16, "weight": 0.79222}, 
                {"id": 4, "lemma": "적", "type": "XSN", "position": 22, "weight": 0.0168756}, 
                {"id": 5, "lemma": "작품", "type": "NNG", "position": 26, "weight": 0.131261}, 
                {"id": 6, "lemma": "으로", "type": "JKB", "position": 32, "weight": 0.153406}, 
                {"id": 7, "lemma": "영화", "type": "NNG", "position": 39, "weight": 0.206384}, 
                {"id": 8, "lemma": "와", "type": "JC", "position": 45, "weight": 0.0169714}, 
                {"id": 9, "lemma": "뮤지컬", "type": "NNG", "position": 49, "weight": 0.9}, 
                {"id": 10, "lemma": "로", "type": "JKB", "position": 58, "weight": 0.153229}, 
                {"id": 11, "lemma": "도", "type": "JX", "position": 61, "weight": 0.0912297}, 
                {"id": 12, "lemma": "만들", "type": "VV", "position": 65, "weight": 0.9}, 
                {"id": 13, "lemma": "어", "type": "EC", "position": 71, "weight": 0.41831}, 
                {"id": 14, "lemma": "지", "type": "VX", "position": 74, "weight": 0.0539764}, 
                {"id": 15, "lemma": "었", "type": "EP", "position": 74, "weight": 0.9}, 
                {"id": 16, "lemma": "다", "type": "EF", "position": 77, "weight": 0.640954}, 
                {"id": 17, "lemma": ".", "type": "SF", "position": 80, "weight": 1}
            ], 
            "morp_eval": [], 
            "WSD": [
                {"id": 0, "text": "근대소설", "type": "NNG", "scode": "000000", "weight": 1, "position": 0, "begin": 0, "end": 1}, 
                {"id": 1, "text": "의", "type": "JKG", "scode": "000000", "weight": 1, "position": 12, "begin": 2, "end": 2}, 
                {"id": 2, "text": "선구적", "type": "NNG", "scode": "000000", "weight": 1, "position": 16, "begin": 3, "end": 4}, 
                {"id": 3, "text": "작품", "type": "NNG", "scode": "010002", "weight": 0.25, "position": 26, "begin": 5, "end": 5}, 
                {"id": 4, "text": "으로", "type": "JKB", "scode": "000000", "weight": 1, "position": 32, "begin": 6, "end": 6}, 
                {"id": 5, "text": "영화", "type": "NNG", "scode": "010000", "weight": 0.0909091, "position": 39, "begin": 7, "end": 7}, 
                {"id": 6, "text": "와", "type": "JC", "scode": "000000", "weight": 1, "position": 45, "begin": 8, "end": 8}, 
                {"id": 7, "text": "뮤지컬", "type": "NNG", "scode": "000000", "weight": 1, "position": 49, "begin": 9, "end": 9}, 
                {"id": 8, "text": "로", "type": "JKB", "scode": "000000", "weight": 1, "position": 58, "begin": 10, "end": 10}, 
                {"id": 9, "text": "도", "type": "JX", "scode": "000000", "weight": 1, "position": 61, "begin": 11, "end": 11}, 
                {"id": 10, "text": "만들", "type": "VV", "scode": "000101", "weight": 0.0769231, "position": 65, "begin": 12, "end": 12}, 
                {"id": 11, "text": "어", "type": "EC", "scode": "000000", "weight": 1, "position": 71, "begin": 13, "end": 13}, 
                {"id": 12, "text": "지", "type": "VX", "scode": "040101", "weight": 0.037037, "position": 74, "begin": 14, "end": 14}, 
                {"id": 13, "text": "었", "type": "EP", "scode": "000000", "weight": 1, "position": 74, "begin": 15, "end": 15}, 
                {"id": 14, "text": "다", "type": "EF", "scode": "000000", "weight": 1, "position": 77, "begin": 16, "end": 16}, 
                {"id": 15, "text": ".", "type": "SF", "scode": "000000", "weight": 1, "position": 80, "begin": 17, "end": 17}
            ], 
            "word": [
                {"id": 0, "text": "근대소설의", "type": "", "begin": 0, "end": 2}, 
                {"id": 1, "text": "선구적", "type": "", "begin": 3, "end": 4}, 
                {"id": 2, "text": "작품으로", "type": "", "begin": 5, "end": 6}, 
                {"id": 3, "text": "영화와", "type": "", "begin": 7, "end": 8}, 
                {"id": 4, "text": "뮤지컬로도", "type": "", "begin": 9, "end": 11}, 
                {"id": 5, "text": "만들어졌다.", "type": "", "begin": 12, "end": 17}
            ], 
            "NE": [
                {"id": 0, "text": "근대소설", "type": "FD_ART", "begin": 0, "end": 1, "weight": 0.302494, "common_noun": 0}, 
                {"id": 1, "text": "영화", "type": "FD_ART", "begin": 7, "end": 7, "weight": 0.867863, "common_noun": 0}, 
                {"id": 2, "text": "뮤지컬", "type": "FD_ART", "begin": 9, "end": 9, "weight": 0.544264, "common_noun": 0}
            ], 
            "chunk": [], 
            "dependency": [
                {"id": 0, "text": "근대소설의", "head": 2, "label": "NP_MOD", "mod": [], "weight": 0.773795}, 
                {"id": 1, "text": "선구적", "head": 2, "label": "NP", "mod": [], "weight": 0.777503}, 
                {"id": 2, "text": "작품으로", "head": 5, "label": "NP_AJT", "mod": [0, 1], "weight": 0.691593}, 
                {"id": 3, "text": "영화와", "head": 4, "label": "NP_CNJ", "mod": [], "weight": 0.806499}, 
                {"id": 4, "text": "뮤지컬로도", "head": 5, "label": "NP_AJT", "mod": [3], "weight": 0.55042}, 
                {"id": 5, "text": "만들어졌다.", "head": -1, "label": "VP", "mod": [2, 4], "weight": 0.13868}
            ], 
            "SRL": [
                {"verb": "만들", "sense": 1, "word_id": 5, "weight": 0.0873804, "argument": [
                    {"type": "ARGM-PRD", "word_id": 2, "text": "작품으로", "weight": 1}, 
                    {"type": "ARG1", "word_id": 4, "text": "뮤지컬로도", "weight": 0.0823223}
                ]}
            ], 
            "relation": [], 
            "SA": [], 
            "ZA": []
        }, 
        {
            "id": 1, 
            "reserve_str": "", 
            "text": "에스파냐의 작가 세르반테스가 쓴 소설로 몰락하는 기사 계급을 풍자한 이 소설의 제목은?", 
            "morp": [
                {"id": 0, "lemma": "에스파냐", "type": "NNP", "position": 81, "weight": 0.9}, 
                {"id": 1, "lemma": "의", "type": "JKG", "position": 93, "weight": 0.0987295}, 
                {"id": 2, "lemma": "작가", "type": "NNG", "position": 97, "weight": 0.871247}, 
                {"id": 3, "lemma": "세르반테스", "type": "NNP", "position": 104, "weight": 0.55}, 
                {"id": 4, "lemma": "가", "type": "JKS", "position": 119, "weight": 0.0431193}, 
                {"id": 5, "lemma": "쓰", "type": "VV", "position": 123, "weight": 0.312323}, 
                {"id": 6, "lemma": "ㄴ", "type": "ETM", "position": 123, "weight": 0.304215}, 
                {"id": 7, "lemma": "소설", "type": "NNG", "position": 127, "weight": 0.9}, 
                {"id": 8, "lemma": "로", "type": "JKB", "position": 133, "weight": 0.153229}, 
                {"id": 9, "lemma": "몰락", "type": "NNG", "position": 137, "weight": 0.9}, 
                {"id": 10, "lemma": "하", "type": "XSV", "position": 143, "weight": 0.0001}, 
                {"id": 11, "lemma": "는", "type": "ETM", "position": 146, "weight": 0.238503}, 
                {"id": 12, "lemma": "기사", "type": "NNG", "position": 150, "weight": 0.9}, 
                {"id": 13, "lemma": "계급", "type": "NNG", "position": 157, "weight": 0.9}, 
                {"id": 14, "lemma": "을", "type": "JKO", "position": 163, "weight": 0.129611}, 
                {"id": 15, "lemma": "풍자", "type": "NNG", "position": 167, "weight": 0.9}, 
                {"id": 16, "lemma": "하", "type": "XSV", "position": 173, "weight": 0.0001}, 
                {"id": 17, "lemma": "ㄴ", "type": "ETM", "position": 173, "weight": 0.392321}, 
                {"id": 18, "lemma": "이", "type": "MM", "position": 177, "weight": 0.00060084}, 
                {"id": 19, "lemma": "소설", "type": "NNG", "position": 181, "weight": 0.9}, 
                {"id": 20, "lemma": "의", "type": "JKG", "position": 187, "weight": 0.0694213}, 
                {"id": 21, "lemma": "제목", "type": "NNG", "position": 191, "weight": 0.9}, 
                {"id": 22, "lemma": "은", "type": "JX", "position": 197, "weight": 0.0449928}, 
                {"id": 23, "lemma": "?", "type": "SF", "position": 200, "weight": 1}
            ], 
            "morp_eval": [], 
            "WSD": [
                {"id": 0, "text": "에스파냐", "type": "NNP", "scode": "000000", "weight": 1, "position": 81, "begin": 0, "end": 0}, 
                {"id": 1, "text": "의", "type": "JKG", "scode": "000000", "weight": 1, "position": 93, "begin": 1, "end": 1}, 
                {"id": 2, "text": "작가", "type": "NNG", "scode": "010000", "weight": 0.5, "position": 97, "begin": 2, "end": 2}, 
                {"id": 3, "text": "세르반테스", "type": "NNP", "scode": "000000", "weight": 0, "position": 104, "begin": 3, "end": 3}, 
                {"id": 4, "text": "가", "type": "JKS", "scode": "000000", "weight": 1, "position": 119, "begin": 4, "end": 4}, 
                {"id": 5, "text": "쓰", "type": "VV", "scode": "010102", "weight": 0.0384615, "position": 123, "begin": 5, "end": 5}, 
                {"id": 6, "text": "ㄴ", "type": "ETM", "scode": "000000", "weight": 1, "position": 123, "begin": 6, "end": 6}, 
                {"id": 7, "text": "소설", "type": "NNG", "scode": "030001", "weight": 0.0666667, "position": 127, "begin": 7, "end": 7}, 
                {"id": 8, "text": "로", "type": "JKB", "scode": "000000", "weight": 1, "position": 133, "begin": 8, "end": 8}, 
                {"id": 9, "text": "몰락하", "type": "VV", "scode": "000001", "weight": 0.5, "position": 137, "begin": 9, "end": 10}, 
                {"id": 10, "text": "는", "type": "ETM", "scode": "000000", "weight": 1, "position": 146, "begin": 11, "end": 11}, 
                {"id": 11, "text": "기사", "type": "NNG", "scode": "200002", "weight": 0.0333333, "position": 150, "begin": 12, "end": 12}, 
                {"id": 12, "text": "계급", "type": "NNG", "scode": "020002", "weight": 0.25, "position": 157, "begin": 13, "end": 13}, 
                {"id": 13, "text": "을", "type": "JKO", "scode": "000000", "weight": 1, "position": 163, "begin": 14, "end": 14}, 
                {"id": 14, "text": "풍자하", "type": "VV", "scode": "000002", "weight": 0.5, "position": 167, "begin": 15, "end": 16}, 
                {"id": 15, "text": "ㄴ", "type": "ETM", "scode": "000000", "weight": 1, "position": 173, "begin": 17, "end": 17}, 
                {"id": 16, "text": "이", "type": "MM", "scode": "050102", "weight": 0.0172414, "position": 177, "begin": 18, "end": 18}, 
                {"id": 17, "text": "소설", "type": "NNG", "scode": "030001", "weight": 0.0666667, "position": 181, "begin": 19, "end": 19}, 
                {"id": 18, "text": "의", "type": "JKG", "scode": "000000", "weight": 1, "position": 187, "begin": 20, "end": 20}, 
                {"id": 19, "text": "제목", "type": "NNG", "scode": "020000", "weight": 0.5, "position": 191, "begin": 21, "end": 21}, 
                {"id": 20, "text": "은", "type": "JX", "scode": "000000", "weight": 1, "position": 197, "begin": 22, "end": 22}, 
                {"id": 21, "text": "?", "type": "SF", "scode": "000000", "weight": 1, "position": 200, "begin": 23, "end": 23}
            ], 
            "word": [
                {"id": 0, "text": "에스파냐의", "type": "", "begin": 0, "end": 1}, 
                {"id": 1, "text": "작가", "type": "", "begin": 2, "end": 2}, 
                {"id": 2, "text": "세르반테스가", "type": "", "begin": 3, "end": 4}, 
                {"id": 3, "text": "쓴", "type": "", "begin": 5, "end": 6}, 
                {"id": 4, "text": "소설로", "type": "", "begin": 7, "end": 8}, 
                {"id": 5, "text": "몰락하는", "type": "", "begin": 9, "end": 11}, 
                {"id": 6, "text": "기사", "type": "", "begin": 12, "end": 12}, 
                {"id": 7, "text": "계급을", "type": "", "begin": 13, "end": 14}, 
                {"id": 8, "text": "풍자한", "type": "", "begin": 15, "end": 17}, 
                {"id": 9, "text": "이", "type": "", "begin": 18, "end": 18}, 
                {"id": 10, "text": "소설의", "type": "", "begin": 19, "end": 20}, 
                {"id": 11, "text": "제목은?", "type": "", "begin": 21, "end": 23}
            ], 
            "NE": [
                {"id": 0, "text": "에스파냐", "type": "LCP_COUNTRY", "begin": 0, "end": 0, "weight": 0.644465, "common_noun": 0}, 
                {"id": 1, "text": "작가", "type": "CV_OCCUPATION", "begin": 2, "end": 2, "weight": 0.799072, "common_noun": 0}, 
                {"id": 2, "text": "세르반테스", "type": "PS_NAME", "begin": 3, "end": 3, "weight": 0.67231, "common_noun": 0}, 
                {"id": 3, "text": "소설", "type": "FD_ART", "begin": 7, "end": 7, "weight": 0.405321, "common_noun": 0}, 
                {"id": 4, "text": "기사", "type": "CV_POSITION", "begin": 12, "end": 12, "weight": 0.67231, "common_noun": 0}, 
                {"id": 5, "text": "소설", "type": "FD_ART", "begin": 19, "end": 19, "weight": 0.64452, "common_noun": 0}
            ], 
            "chunk": [], 
            "dependency": [
                {"id": 0, "text": "에스파냐의", "head": 1, "label": "NP_MOD", "mod": [], "weight": 0.413013}, 
                {"id": 1, "text": "작가", "head": 2, "label": "NP", "mod": [0], "weight": 0.78476}, 
                {"id": 2, "text": "세르반테스가", "head": 3, "label": "NP_SBJ", "mod": [1], "weight": 0.234636}, 
                {"id": 3, "text": "쓴", "head": 4, "label": "VP_MOD", "mod": [2], "weight": 0.631303}, 
                {"id": 4, "text": "소설로", "head": 11, "label": "NP_AJT", "mod": [3], "weight": 0.458541}, 
                {"id": 5, "text": "몰락하는", "head": 7, "label": "VP_MOD", "mod": [], "weight": 0.339353}, 
                {"id": 6, "text": "기사", "head": 7, "label": "NP", "mod": [], "weight": 0.480294}, 
                {"id": 7, "text": "계급을", "head": 8, "label": "NP_OBJ", "mod": [5, 6], "weight": 0.786121}, 
                {"id": 8, "text": "풍자한", "head": 10, "label": "VP_MOD", "mod": [7], "weight": 0.358475}, 
                {"id": 9, "text": "이", "head": 10, "label": "DP", "mod": [], "weight": 0.593561}, 
                {"id": 10, "text": "소설의", "head": 11, "label": "NP_MOD", "mod": [8, 9], "weight": 0.745666}, 
                {"id": 11, "text": "제목은?", "head": -1, "label": "NP_SBJ", "mod": [10, 4], "weight": 4.82365e-05}
            ], 
            "SRL": [
                {"verb": "쓰", "sense": 2, "word_id": 3, "weight": 0.349978, "argument": [
                    {"type": "ARG0", "word_id": 2, "text": "세르반테스가", "weight": 0.347462}, 
                    {"type": "ARG1", "word_id": 4, "text": "소설로", "weight": 0.352494}
                ]}, 
                {"verb": "몰락", "sense": 1, "word_id": 5, "weight": 0.226617, "argument": [
                    {"type": "ARG1", "word_id": 7, "text": "계급을", "weight": 0.226617}
                ]}, 
                {"verb": "풍자", "sense": 1, "word_id": 8, "weight": 0.210049, "argument": [
                    {"type": "ARG1", "word_id": 7, "text": "계급을", "weight": 0.30645}, 
                    {"type": "ARG0", "word_id": 10, "text": "소설의", "weight": 1}
                ]}
            ], 
            "relation": [], 
            "SA": [], 
            "ZA": []
        }
    ], 
    "entity": [
        {"id": 0, "type": "", "number": "singular", "gender": "", "person": "", "animacy": "thing", "mention": [
            {"id": 0, "sent_id": 0, "start_eid": 0, "end_eid": 2, "ne_id": -1, "text": "근대소설의 선구적 작품으로", "start_eid_short": 1, "end_eid_short": 2, "text_short": "선구적 작품으로"}
        ]}, 
        {"id": 1, "type": "FD_ART", "number": "singular", "gender": "", "person": "", "animacy": "thing", "mention": [
            {"id": 1, "sent_id": 0, "start_eid": 0, "end_eid": 0, "ne_id": 0, "text": "근대소설의", "start_eid_short": 0, "end_eid_short": 0, "text_short": "근대소설의"}
        ]}, 
        {"id": 2, "type": "", "number": "singular", "gender": "", "person": "", "animacy": "thing", "mention": [
            {"id": 2, "sent_id": 0, "start_eid": 1, "end_eid": 1, "ne_id": -1, "text": "선구적", "start_eid_short": 1, "end_eid_short": 1, "text_short": "선구적"}
        ]}, 
        {"id": 3, "type": "FD_ART", "number": "plural", "gender": "", "person": "", "animacy": "thing", "mention": [
            {"id": 3, "sent_id": 0, "start_eid": 3, "end_eid": 4, "ne_id": 2, "text": "영화와 뮤지컬로도", "start_eid_short": 4, "end_eid_short": 4, "text_short": "뮤지컬로도"}
        ]}, 
        {"id": 4, "type": "FD_ART", "number": "singular", "gender": "", "person": "", "animacy": "thing", "mention": [
            {"id": 6, "sent_id": 1, "start_eid": 0, "end_eid": 4, "ne_id": 3, "text": "에스파냐의 작가 세르반테스가 쓴 소설로", "start_eid_short": 4, "end_eid_short": 4, "text_short": "소설로"}
        ]}, 
        {"id": 5, "type": "PS_NAME", "number": "singular", "gender": "", "person": "", "animacy": "human", "mention": [
            {"id": 7, "sent_id": 1, "start_eid": 0, "end_eid": 2, "ne_id": 2, "text": "에스파냐의 작가 세르반테스가", "start_eid_short": 1, "end_eid_short": 2, "text_short": "작가 세르반테스가"}, 
            {"id": 8, "sent_id": 1, "start_eid": 0, "end_eid": 1, "ne_id": 1, "text": "에스파냐의 작가", "start_eid_short": 1, "end_eid_short": 1, "text_short": "작가"}
        ]}, 
        {"id": 6, "type": "LCP_COUNTRY", "number": "singular", "gender": "", "person": "", "animacy": "place", "mention": [
            {"id": 9, "sent_id": 1, "start_eid": 0, "end_eid": 0, "ne_id": 0, "text": "에스파냐의", "start_eid_short": 0, "end_eid_short": 0, "text_short": "에스파냐의"}
        ]}, 
        {"id": 7, "type": "FD_ART", "number": "singular", "gender": "", "person": "", "animacy": "thing", "mention": [
            {"id": 12, "sent_id": 1, "start_eid": 9, "end_eid": 11, "ne_id": -1, "text": "이 소설의 제목은?", "start_eid_short": 11, "end_eid_short": 11, "text_short": "제목은?"}, 
            {"id": 13, "sent_id": 1, "start_eid": 9, "end_eid": 10, "ne_id": 4, "text": "이 소설의", "start_eid_short": 9, "end_eid_short": 10, "text_short": "이 소설의"}
        ]}, 
        {"id": 8, "type": "", "number": "singular", "gender": "", "person": "", "animacy": "thing", "mention": [
            {"id": 10, "sent_id": 1, "start_eid": 5, "end_eid": 7, "ne_id": -1, "text": "몰락하는 기사 계급을", "start_eid_short": 6, "end_eid_short": 7, "text_short": "기사 계급을"}
        ]}, 
        {"id": 9, "type": "", "number": "singular", "gender": "", "person": "", "animacy": "thing", "mention": [
            {"id": 11, "sent_id": 1, "start_eid": 5, "end_eid": 6, "ne_id": -1, "text": "몰락하는 기사", "start_eid_short": 6, "end_eid_short": 6, "text_short": "기사"}
        ]}, 
        {"id": 10, "type": "FD_ART", "number": "singular", "gender": "", "person": "", "animacy": "thing", "mention": [
            {"id": 5, "sent_id": 0, "start_eid": 4, "end_eid": 4, "ne_id": 2, "text": "뮤지컬로도", "start_eid_short": 4, "end_eid_short": 4, "text_short": "뮤지컬로도"}
        ]}, 
        {"id": 11, "type": "FD_ART", "number": "singular", "gender": "", "person": "", "animacy": "thing", "mention": [
            {"id": 4, "sent_id": 0, "start_eid": 3, "end_eid": 3, "ne_id": 1, "text": "영화와", "start_eid_short": 3, "end_eid_short": 3, "text_short": "영화와"}
        ]}
    ]
}