{
    "doc_id": "E2016.835.19_Q_01.json", 
    "DCT": "", 
    "category": "", 
    "category_weight": 0, 
    "title": {
        "text": "", 
        "NE": ""
    }, 
    "metaInfo": {}, 
    "sentence": [
        {
            "id": 0, 
            "reserve_str": "", 
            "text": "이탈리아 서해안 티레니아 해 토스카나 열도에 딸린 섬이다.", 
            "morp": [
                {"id": 0, "lemma": "이탈리아", "type": "NNP", "position": 0, "weight": 0.9}, 
                {"id": 1, "lemma": "서해", "type": "NNG", "position": 13, "weight": 0.0154047}, 
                {"id": 2, "lemma": "안", "type": "XSN", "position": 19, "weight": 0}, 
                {"id": 3, "lemma": "티레니아", "type": "NNP", "position": 23, "weight": 0.2}, 
                {"id": 4, "lemma": "해", "type": "XSN", "position": 36, "weight": 0.000742616}, 
                {"id": 5, "lemma": "토스카나", "type": "NNP", "position": 40, "weight": 0.00744025}, 
                {"id": 6, "lemma": "열도", "type": "NNG", "position": 53, "weight": 0.9}, 
                {"id": 7, "lemma": "에", "type": "JKB", "position": 59, "weight": 0.153364}, 
                {"id": 8, "lemma": "딸리", "type": "VV", "position": 63, "weight": 0.9}, 
                {"id": 9, "lemma": "ㄴ", "type": "ETM", "position": 66, "weight": 0.304215}, 
                {"id": 10, "lemma": "섬", "type": "NNG", "position": 70, "weight": 0.588632}, 
                {"id": 11, "lemma": "이", "type": "VCP", "position": 73, "weight": 0.0177525}, 
                {"id": 12, "lemma": "다", "type": "EF", "position": 76, "weight": 0.353579}, 
                {"id": 13, "lemma": ".", "type": "SF", "position": 79, "weight": 1}
            ], 
            "morp_eval": [], 
            "WSD": [
                {"id": 0, "text": "이탈리아", "type": "NNP", "scode": "000000", "weight": 1, "position": 0, "begin": 0, "end": 0}, 
                {"id": 1, "text": "서해안", "type": "NNG", "scode": "000001", "weight": 0.5, "position": 13, "begin": 1, "end": 2}, 
                {"id": 2, "text": "티레니아", "type": "NNP", "scode": "000000", "weight": 0, "position": 23, "begin": 3, "end": 3}, 
                {"id": 3, "text": "해", "type": "XSN", "scode": "180000", "weight": 0.0333333, "position": 36, "begin": 4, "end": 4}, 
                {"id": 4, "text": "토스카나", "type": "NNP", "scode": "000000", "weight": 0, "position": 40, "begin": 5, "end": 5}, 
                {"id": 5, "text": "열도", "type": "NNG", "scode": "010000", "weight": 0.2, "position": 53, "begin": 6, "end": 6}, 
                {"id": 6, "text": "에", "type": "JKB", "scode": "000000", "weight": 1, "position": 59, "begin": 7, "end": 7}, 
                {"id": 7, "text": "딸리", "type": "VV", "scode": "010001", "weight": 0.166667, "position": 63, "begin": 8, "end": 8}, 
                {"id": 8, "text": "ㄴ", "type": "ETM", "scode": "000000", "weight": 1, "position": 66, "begin": 9, "end": 9}, 
                {"id": 9, "text": "섬", "type": "NNG", "scode": "030000", "weight": 0.111111, "position": 70, "begin": 10, "end": 10}, 
                {"id": 10, "text": "이", "type": "VCP", "scode": "030000", "weight": 0.0172414, "position": 73, "begin": 11, "end": 11}, 
                {"id": 11, "text": "다", "type": "EF", "scode": "000000", "weight": 1, "position": 76, "begin": 12, "end": 12}, 
                {"id": 12, "text": ".", "type": "SF", "scode": "000000", "weight": 1, "position": 79, "begin": 13, "end": 13}
            ], 
            "word": [
                {"id": 0, "text": "이탈리아", "type": "", "begin": 0, "end": 0}, 
                {"id": 1, "text": "서해안", "type": "", "begin": 1, "end": 2}, 
                {"id": 2, "text": "티레니아", "type": "", "begin": 3, "end": 3}, 
                {"id": 3, "text": "해", "type": "", "begin": 4, "end": 4}, 
                {"id": 4, "text": "토스카나", "type": "", "begin": 5, "end": 5}, 
                {"id": 5, "text": "열도에", "type": "", "begin": 6, "end": 7}, 
                {"id": 6, "text": "딸린", "type": "", "begin": 8, "end": 9}, 
                {"id": 7, "text": "섬이다.", "type": "", "begin": 10, "end": 13}
            ], 
            "NE": [
                {"id": 0, "text": "이탈리아", "type": "LCP_COUNTRY", "begin": 0, "end": 0, "weight": 0.718969, "common_noun": 0}, 
                {"id": 1, "text": "서해안", "type": "LC_OTHERS", "begin": 1, "end": 2, "weight": 0.788117, "common_noun": 0}, 
                {"id": 2, "text": "티레니아 해", "type": "LCG_OCEAN", "begin": 3, "end": 4, "weight": 0.661866, "common_noun": 0}, 
                {"id": 3, "text": "토스카나", "type": "LCP_PROVINCE", "begin": 5, "end": 5, "weight": 0.461237, "common_noun": 0}
            ], 
            "chunk": [], 
            "dependency": [
                {"id": 0, "text": "이탈리아", "head": 1, "label": "NP", "mod": [], "weight": 0.648463}, 
                {"id": 1, "text": "서해안", "head": 3, "label": "NP", "mod": [0], "weight": 0.244268}, 
                {"id": 2, "text": "티레니아", "head": 3, "label": "NP", "mod": [], "weight": 0.871536}, 
                {"id": 3, "text": "해", "head": 5, "label": "NP", "mod": [2, 1], "weight": 0.0607605}, 
                {"id": 4, "text": "토스카나", "head": 5, "label": "NP", "mod": [], "weight": 0.730002}, 
                {"id": 5, "text": "열도에", "head": 6, "label": "NP_AJT", "mod": [3, 4], "weight": 0.758628}, 
                {"id": 6, "text": "딸린", "head": 7, "label": "VP_MOD", "mod": [5], "weight": 0.801535}, 
                {"id": 7, "text": "섬이다.", "head": -1, "label": "VNP", "mod": [6], "weight": 0.00305446}
            ], 
            "SRL": [
                {"verb": "딸리", "sense": 1, "word_id": 6, "weight": 0.142192, "argument": [
                    {"type": "ARG2", "word_id": 5, "text": "열도에", "weight": 0.129087}, 
                    {"type": "ARG1", "word_id": 7, "text": "섬이다.", "weight": 0.155297}
                ]}
            ], 
            "relation": [], 
            "SA": [], 
            "ZA": []
        }, 
        {
            "id": 1, 
            "reserve_str": "", 
            "text": "러시아 원정에 실패하고 라이프치히에서 대패를 당한 나폴레옹이 유배되었다가 탈출해 백일천하를 실현하기도 했는데 이 섬의 이름은?", 
            "morp": [
                {"id": 0, "lemma": "러시아", "type": "NNP", "position": 80, "weight": 0.9}, 
                {"id": 1, "lemma": "원정", "type": "NNG", "position": 90, "weight": 0.27887}, 
                {"id": 2, "lemma": "에", "type": "JKB", "position": 96, "weight": 0.153364}, 
                {"id": 3, "lemma": "실패", "type": "NNG", "position": 100, "weight": 0.9}, 
                {"id": 4, "lemma": "하", "type": "XSV", "position": 106, "weight": 0.0001}, 
                {"id": 5, "lemma": "고", "type": "EC", "position": 109, "weight": 0.359917}, 
                {"id": 6, "lemma": "라이프치히", "type": "NNP", "position": 113, "weight": 0.9}, 
                {"id": 7, "lemma": "에서", "type": "JKB", "position": 128, "weight": 0.0823859}, 
                {"id": 8, "lemma": "대패", "type": "NNG", "position": 135, "weight": 0.9}, 
                {"id": 9, "lemma": "를", "type": "JKO", "position": 141, "weight": 0.137686}, 
                {"id": 10, "lemma": "당하", "type": "VV", "position": 145, "weight": 0.0591749}, 
                {"id": 11, "lemma": "ㄴ", "type": "ETM", "position": 148, "weight": 0.392321}, 
                {"id": 12, "lemma": "나폴레옹", "type": "NNP", "position": 152, "weight": 0.0279625}, 
                {"id": 13, "lemma": "이", "type": "JKS", "position": 164, "weight": 0.0234517}, 
                {"id": 14, "lemma": "유배", "type": "NNG", "position": 168, "weight": 0.9}, 
                {"id": 15, "lemma": "되", "type": "XSV", "position": 174, "weight": 0.000224177}, 
                {"id": 16, "lemma": "었", "type": "EP", "position": 177, "weight": 0.9}, 
                {"id": 17, "lemma": "다가", "type": "EC", "position": 180, "weight": 0.188685}, 
                {"id": 18, "lemma": "탈출", "type": "NNG", "position": 187, "weight": 0.9}, 
                {"id": 19, "lemma": "하", "type": "XSV", "position": 193, "weight": 0.0001}, 
                {"id": 20, "lemma": "아", "type": "EC", "position": 193, "weight": 0.361326}, 
                {"id": 21, "lemma": "백일", "type": "NNG", "position": 197, "weight": 0.9}, 
                {"id": 22, "lemma": "천하", "type": "NNG", "position": 203, "weight": 0.121804}, 
                {"id": 23, "lemma": "를", "type": "JKO", "position": 209, "weight": 0.137686}, 
                {"id": 24, "lemma": "실현", "type": "NNG", "position": 213, "weight": 0.9}, 
                {"id": 25, "lemma": "하", "type": "XSV", "position": 219, "weight": 0.0001}, 
                {"id": 26, "lemma": "기", "type": "ETN", "position": 222, "weight": 0.0556099}, 
                {"id": 27, "lemma": "도", "type": "JX", "position": 225, "weight": 0.147715}, 
                {"id": 28, "lemma": "하", "type": "VX", "position": 229, "weight": 0.00978548}, 
                {"id": 29, "lemma": "았", "type": "EP", "position": 229, "weight": 0.9}, 
                {"id": 30, "lemma": "는데", "type": "EC", "position": 232, "weight": 0.188154}, 
                {"id": 31, "lemma": "이", "type": "MM", "position": 239, "weight": 0.000947656}, 
                {"id": 32, "lemma": "섬", "type": "NNG", "position": 243, "weight": 0.658866}, 
                {"id": 33, "lemma": "의", "type": "JKG", "position": 246, "weight": 0.0694213}, 
                {"id": 34, "lemma": "이름", "type": "NNG", "position": 250, "weight": 0.9}, 
                {"id": 35, "lemma": "은", "type": "JX", "position": 256, "weight": 0.0449928}, 
                {"id": 36, "lemma": "?", "type": "SF", "position": 259, "weight": 1}
            ], 
            "morp_eval": [], 
            "WSD": [
                {"id": 0, "text": "러시아", "type": "NNP", "scode": "000000", "weight": 1, "position": 80, "begin": 0, "end": 0}, 
                {"id": 1, "text": "원정", "type": "NNG", "scode": "130001", "weight": 0.0526316, "position": 90, "begin": 1, "end": 1}, 
                {"id": 2, "text": "에", "type": "JKB", "scode": "000000", "weight": 1, "position": 96, "begin": 2, "end": 2}, 
                {"id": 3, "text": "실패하", "type": "VV", "scode": "010001", "weight": 0.333333, "position": 100, "begin": 3, "end": 4}, 
                {"id": 4, "text": "고", "type": "EC", "scode": "000000", "weight": 1, "position": 109, "begin": 5, "end": 5}, 
                {"id": 5, "text": "라이프치히", "type": "NNP", "scode": "000000", "weight": 1, "position": 113, "begin": 6, "end": 6}, 
                {"id": 6, "text": "에서", "type": "JKB", "scode": "000000", "weight": 1, "position": 128, "begin": 7, "end": 7}, 
                {"id": 7, "text": "대패", "type": "NNG", "scode": "030001", "weight": 0.2, "position": 135, "begin": 8, "end": 8}, 
                {"id": 8, "text": "를", "type": "JKO", "scode": "000000", "weight": 1, "position": 141, "begin": 9, "end": 9}, 
                {"id": 9, "text": "당하", "type": "VV", "scode": "010501", "weight": 0.111111, "position": 145, "begin": 10, "end": 10}, 
                {"id": 10, "text": "ㄴ", "type": "ETM", "scode": "000000", "weight": 1, "position": 148, "begin": 11, "end": 11}, 
                {"id": 11, "text": "나폴레옹", "type": "NNP", "scode": "020000", "weight": 0.2, "position": 152, "begin": 12, "end": 12}, 
                {"id": 12, "text": "이", "type": "JKS", "scode": "000000", "weight": 1, "position": 164, "begin": 13, "end": 13}, 
                {"id": 13, "text": "유배되", "type": "VV", "scode": "000000", "weight": 1, "position": 168, "begin": 14, "end": 15}, 
                {"id": 14, "text": "었", "type": "EP", "scode": "000000", "weight": 1, "position": 177, "begin": 16, "end": 16}, 
                {"id": 15, "text": "다가", "type": "EC", "scode": "000000", "weight": 1, "position": 180, "begin": 17, "end": 17}, 
                {"id": 16, "text": "탈출하", "type": "VV", "scode": "020000", "weight": 0.5, "position": 187, "begin": 18, "end": 19}, 
                {"id": 17, "text": "아", "type": "EC", "scode": "000000", "weight": 1, "position": 193, "begin": 20, "end": 20}, 
                {"id": 18, "text": "백일천하", "type": "NNG", "scode": "000000", "weight": 1, "position": 197, "begin": 21, "end": 22}, 
                {"id": 19, "text": "를", "type": "JKO", "scode": "000000", "weight": 1, "position": 209, "begin": 23, "end": 23}, 
                {"id": 20, "text": "실현하", "type": "VV", "scode": "000000", "weight": 1, "position": 213, "begin": 24, "end": 25}, 
                {"id": 21, "text": "기", "type": "ETN", "scode": "000000", "weight": 1, "position": 222, "begin": 26, "end": 26}, 
                {"id": 22, "text": "도", "type": "JX", "scode": "000000", "weight": 1, "position": 225, "begin": 27, "end": 27}, 
                {"id": 23, "text": "하", "type": "VX", "scode": "011105", "weight": 0.02, "position": 229, "begin": 28, "end": 28}, 
                {"id": 24, "text": "았", "type": "EP", "scode": "000000", "weight": 1, "position": 229, "begin": 29, "end": 29}, 
                {"id": 25, "text": "는데", "type": "EC", "scode": "000000", "weight": 1, "position": 232, "begin": 30, "end": 30}, 
                {"id": 26, "text": "이", "type": "MM", "scode": "050102", "weight": 0.0172414, "position": 239, "begin": 31, "end": 31}, 
                {"id": 27, "text": "섬", "type": "NNG", "scode": "030000", "weight": 0.111111, "position": 243, "begin": 32, "end": 32}, 
                {"id": 28, "text": "의", "type": "JKG", "scode": "000000", "weight": 1, "position": 246, "begin": 33, "end": 33}, 
                {"id": 29, "text": "이름", "type": "NNG", "scode": "000001", "weight": 0.111111, "position": 250, "begin": 34, "end": 34}, 
                {"id": 30, "text": "은", "type": "JX", "scode": "000000", "weight": 1, "position": 256, "begin": 35, "end": 35}, 
                {"id": 31, "text": "?", "type": "SF", "scode": "000000", "weight": 1, "position": 259, "begin": 36, "end": 36}
            ], 
            "word": [
                {"id": 0, "text": "러시아", "type": "", "begin": 0, "end": 0}, 
                {"id": 1, "text": "원정에", "type": "", "begin": 1, "end": 2}, 
                {"id": 2, "text": "실패하고", "type": "", "begin": 3, "end": 5}, 
                {"id": 3, "text": "라이프치히에서", "type": "", "begin": 6, "end": 7}, 
                {"id": 4, "text": "대패를", "type": "", "begin": 8, "end": 9}, 
                {"id": 5, "text": "당한", "type": "", "begin": 10, "end": 11}, 
                {"id": 6, "text": "나폴레옹이", "type": "", "begin": 12, "end": 13}, 
                {"id": 7, "text": "유배되었다가", "type": "", "begin": 14, "end": 17}, 
                {"id": 8, "text": "탈출해", "type": "", "begin": 18, "end": 20}, 
                {"id": 9, "text": "백일천하를", "type": "", "begin": 21, "end": 23}, 
                {"id": 10, "text": "실현하기도", "type": "", "begin": 24, "end": 27}, 
                {"id": 11, "text": "했는데", "type": "", "begin": 28, "end": 30}, 
                {"id": 12, "text": "이", "type": "", "begin": 31, "end": 31}, 
                {"id": 13, "text": "섬의", "type": "", "begin": 32, "end": 33}, 
                {"id": 14, "text": "이름은?", "type": "", "begin": 34, "end": 36}
            ], 
            "NE": [
                {"id": 0, "text": "러시아", "type": "LCP_COUNTRY", "begin": 0, "end": 0, "weight": 0.444839, "common_noun": 0}, 
                {"id": 1, "text": "라이프치히", "type": "LCP_CITY", "begin": 6, "end": 6, "weight": 0.244911, "common_noun": 0}, 
                {"id": 2, "text": "나폴레옹", "type": "PS_NAME", "begin": 12, "end": 12, "weight": 0.672455, "common_noun": 0}
            ], 
            "chunk": [], 
            "dependency": [
                {"id": 0, "text": "러시아", "head": 1, "label": "NP", "mod": [], "weight": 0.718924}, 
                {"id": 1, "text": "원정에", "head": 2, "label": "NP_AJT", "mod": [0], "weight": 0.780885}, 
                {"id": 2, "text": "실패하고", "head": 5, "label": "VP", "mod": [1], "weight": 0.268739}, 
                {"id": 3, "text": "라이프치히에서", "head": 5, "label": "NP_AJT", "mod": [], "weight": 0.671561}, 
                {"id": 4, "text": "대패를", "head": 5, "label": "NP_OBJ", "mod": [], "weight": 0.808564}, 
                {"id": 5, "text": "당한", "head": 6, "label": "VP_MOD", "mod": [2, 3, 4], "weight": 0.590808}, 
                {"id": 6, "text": "나폴레옹이", "head": 7, "label": "NP_SBJ", "mod": [5], "weight": 0.763725}, 
                {"id": 7, "text": "유배되었다가", "head": 8, "label": "VP", "mod": [6], "weight": 0.817761}, 
                {"id": 8, "text": "탈출해", "head": 10, "label": "VP", "mod": [7], "weight": 0.752239}, 
                {"id": 9, "text": "백일천하를", "head": 10, "label": "NP_OBJ", "mod": [], "weight": 0.822338}, 
                {"id": 10, "text": "실현하기도", "head": 11, "label": "VP", "mod": [8, 9], "weight": 0.789261}, 
                {"id": 11, "text": "했는데", "head": 14, "label": "VP", "mod": [10], "weight": 0.695846}, 
                {"id": 12, "text": "이", "head": 13, "label": "DP", "mod": [], "weight": 0.651531}, 
                {"id": 13, "text": "섬의", "head": 14, "label": "NP_MOD", "mod": [12], "weight": 0.820165}, 
                {"id": 14, "text": "이름은?", "head": -1, "label": "NP_SBJ", "mod": [11, 13], "weight": 0.00230373}
            ], 
            "SRL": [
                {"verb": "실패", "sense": 1, "word_id": 2, "weight": 0.100218, "argument": [
                    {"type": "ARG2", "word_id": 1, "text": "원정에", "weight": 0.100218}
                ]}, 
                {"verb": "당하", "sense": 1, "word_id": 5, "weight": 0.201965, "argument": [
                    {"type": "ARGM-LOC", "word_id": 3, "text": "라이프치히에서", "weight": 0.167892}, 
                    {"type": "ARG2", "word_id": 4, "text": "대패를", "weight": 1}, 
                    {"type": "ARG1", "word_id": 6, "text": "나폴레옹이", "weight": 1}
                ]}, 
                {"verb": "유배", "sense": 1, "word_id": 7, "weight": 0.1936, "argument": [
                    {"type": "ARG1", "word_id": 6, "text": "나폴레옹이", "weight": 1}
                ]}, 
                {"verb": "탈출", "sense": 1, "word_id": 8, "weight": 0, "argument": [
                    {"type": "ARG0", "word_id": 6, "text": "나폴레옹이", "weight": 1}
                ]}, 
                {"verb": "실현", "sense": 1, "word_id": 10, "weight": 0.202601, "argument": [
                    {"type": "ARG0", "word_id": 6, "text": "나폴레옹이", "weight": 0.256033}, 
                    {"type": "ARG1", "word_id": 9, "text": "백일천하를", "weight": 0.272719}, 
                    {"type": "AUX", "word_id": 11, "text": "했는데", "weight": 0.176944}
                ]}
            ], 
            "relation": [], 
            "SA": [], 
            "ZA": []
        }
    ], 
    "entity": [
        {"id": 0, "type": "LC_OTHERS", "number": "singular", "gender": "", "person": "", "animacy": "place", "mention": [
            {"id": 3, "sent_id": 0, "start_eid": 0, "end_eid": 1, "ne_id": 1, "text": "이탈리아 서해안", "start_eid_short": 0, "end_eid_short": 1, "text_short": "이탈리아 서해안"}
        ]}, 
        {"id": 1, "type": "LCP_COUNTRY", "number": "singular", "gender": "", "person": "", "animacy": "place", "mention": [
            {"id": 4, "sent_id": 0, "start_eid": 0, "end_eid": 0, "ne_id": 0, "text": "이탈리아", "start_eid_short": 0, "end_eid_short": 0, "text_short": "이탈리아"}
        ]}, 
        {"id": 2, "type": "LCG_OCEAN", "number": "singular", "gender": "", "person": "", "animacy": "place", "mention": [
            {"id": 2, "sent_id": 0, "start_eid": 0, "end_eid": 3, "ne_id": 2, "text": "이탈리아 서해안 티레니아 해", "start_eid_short": 0, "end_eid_short": 3, "text_short": "이탈리아 서해안 티레니아 해"}
        ]}, 
        {"id": 3, "type": "", "number": "singular", "gender": "", "person": "", "animacy": "thing", "mention": [
            {"id": 1, "sent_id": 0, "start_eid": 0, "end_eid": 5, "ne_id": -1, "text": "이탈리아 서해안 티레니아 해 토스카나 열도에", "start_eid_short": 0, "end_eid_short": 5, "text_short": "이탈리아 서해안 티레니아 해 토스카나 열도에"}
        ]}, 
        {"id": 4, "type": "LCP_PROVINCE", "number": "singular", "gender": "", "person": "", "animacy": "place", "mention": [
            {"id": 5, "sent_id": 0, "start_eid": 4, "end_eid": 4, "ne_id": 3, "text": "토스카나", "start_eid_short": 4, "end_eid_short": 4, "text_short": "토스카나"}
        ]}, 
        {"id": 5, "type": "PS_NAME", "number": "singular", "gender": "", "person": "", "animacy": "human", "mention": [
            {"id": 6, "sent_id": 1, "start_eid": 0, "end_eid": 6, "ne_id": 2, "text": "러시아 원정에 실패하고 라이프치히에서 대패를 당한 나폴레옹이", "start_eid_short": 6, "end_eid_short": 6, "text_short": "나폴레옹이"}
        ]}, 
        {"id": 6, "type": "", "number": "singular", "gender": "", "person": "", "animacy": "thing", "mention": [
            {"id": 7, "sent_id": 1, "start_eid": 0, "end_eid": 1, "ne_id": -1, "text": "러시아 원정에", "start_eid_short": 0, "end_eid_short": 1, "text_short": "러시아 원정에"}
        ]}, 
        {"id": 7, "type": "LCP_COUNTRY", "number": "singular", "gender": "", "person": "", "animacy": "place", "mention": [
            {"id": 8, "sent_id": 1, "start_eid": 0, "end_eid": 0, "ne_id": 0, "text": "러시아", "start_eid_short": 0, "end_eid_short": 0, "text_short": "러시아"}
        ]}, 
        {"id": 8, "type": "LCP_CITY", "number": "singular", "gender": "", "person": "", "animacy": "place", "mention": [
            {"id": 9, "sent_id": 1, "start_eid": 3, "end_eid": 3, "ne_id": 1, "text": "라이프치히에서", "start_eid_short": 3, "end_eid_short": 3, "text_short": "라이프치히에서"}
        ]}, 
        {"id": 9, "type": "", "number": "singular", "gender": "", "person": "", "animacy": "thing", "mention": [
            {"id": 10, "sent_id": 1, "start_eid": 4, "end_eid": 4, "ne_id": -1, "text": "대패를", "start_eid_short": 4, "end_eid_short": 4, "text_short": "대패를"}
        ]}, 
        {"id": 10, "type": "", "number": "singular", "gender": "", "person": "", "animacy": "thing", "mention": [
            {"id": 0, "sent_id": 0, "start_eid": 0, "end_eid": 7, "ne_id": -1, "text": "이탈리아 서해안 티레니아 해 토스카나 열도에 딸린 섬이다.", "start_eid_short": 7, "end_eid_short": 7, "text_short": "섬이다."}, 
            {"id": 12, "sent_id": 1, "start_eid": 12, "end_eid": 14, "ne_id": -1, "text": "이 섬의 이름은?", "start_eid_short": 14, "end_eid_short": 14, "text_short": "이름은?"}, 
            {"id": 13, "sent_id": 1, "start_eid": 12, "end_eid": 13, "ne_id": -1, "text": "이 섬의", "start_eid_short": 12, "end_eid_short": 13, "text_short": "이 섬의"}
        ]}, 
        {"id": 11, "type": "", "number": "singular", "gender": "", "person": "", "animacy": "thing", "mention": [
            {"id": 11, "sent_id": 1, "start_eid": 9, "end_eid": 9, "ne_id": -1, "text": "백일천하를", "start_eid_short": 9, "end_eid_short": 9, "text_short": "백일천하를"}
        ]}
    ]
}