{
    "doc_id": "E2016.837.14_A_01.json", 
    "DCT": "", 
    "category": "", 
    "category_weight": 0, 
    "title": {
        "text": "모나리자", 
        "NE": ""
    }, 
    "metaInfo": {}, 
    "sentence": [
        {
            "id": 0, 
            "reserve_str": "", 
            "text": "모나리자(Mona Lisa) 또는 라 조콘다(La Gioconda, La Joconde)는 16세기 르네상스 시대에 레오나르도 다 빈치가 그린 초상화로, 현재 프랑스 파리 루브르 박물관에 전시되어 있다.", 
            "morp": [
                {"id": 0, "lemma": "모나리자", "type": "NNP", "position": 0, "weight": 0.0525538}, 
                {"id": 1, "lemma": "(", "type": "SS", "position": 12, "weight": 1}, 
                {"id": 2, "lemma": "Mona", "type": "SL", "position": 13, "weight": 1}, 
                {"id": 3, "lemma": "Lisa", "type": "SL", "position": 18, "weight": 1}, 
                {"id": 4, "lemma": ")", "type": "SS", "position": 22, "weight": 1}, 
                {"id": 5, "lemma": "또는", "type": "MAJ", "position": 24, "weight": 0.00307013}, 
                {"id": 6, "lemma": "라", "type": "NNP", "position": 31, "weight": 0.00155561}, 
                {"id": 7, "lemma": "조콘다", "type": "NNP", "position": 35, "weight": 0.05}, 
                {"id": 8, "lemma": "(", "type": "SS", "position": 44, "weight": 1}, 
                {"id": 9, "lemma": "La", "type": "SL", "position": 45, "weight": 1}, 
                {"id": 10, "lemma": "Gioconda", "type": "SL", "position": 48, "weight": 1}, 
                {"id": 11, "lemma": ",", "type": "SP", "position": 56, "weight": 1}, 
                {"id": 12, "lemma": "La", "type": "SL", "position": 58, "weight": 1}, 
                {"id": 13, "lemma": "Joconde", "type": "SL", "position": 61, "weight": 1}, 
                {"id": 14, "lemma": ")", "type": "SS", "position": 68, "weight": 1}, 
                {"id": 15, "lemma": "는", "type": "JX", "position": 69, "weight": 0.00823314}, 
                {"id": 16, "lemma": "16", "type": "SN", "position": 73, "weight": 1}, 
                {"id": 17, "lemma": "세기", "type": "NNG", "position": 75, "weight": 0.100259}, 
                {"id": 18, "lemma": "르네상스", "type": "NNG", "position": 82, "weight": 0.9}, 
                {"id": 19, "lemma": "시대", "type": "NNG", "position": 95, "weight": 0.9}, 
                {"id": 20, "lemma": "에", "type": "JKB", "position": 101, "weight": 0.153364}, 
                {"id": 21, "lemma": "레오나르도", "type": "NNP", "position": 105, "weight": 0.9}, 
                {"id": 22, "lemma": "다", "type": "NNP", "position": 121, "weight": 0.0001}, 
                {"id": 23, "lemma": "빈치", "type": "NNP", "position": 125, "weight": 0.9}, 
                {"id": 24, "lemma": "가", "type": "JKS", "position": 131, "weight": 0.0431193}, 
                {"id": 25, "lemma": "그리", "type": "VV", "position": 135, "weight": 0.244349}, 
                {"id": 26, "lemma": "ㄴ", "type": "ETM", "position": 138, "weight": 0.304215}, 
                {"id": 27, "lemma": "초상", "type": "NNG", "position": 142, "weight": 0.9}, 
                {"id": 28, "lemma": "화", "type": "XSN", "position": 148, "weight": 0.0240371}, 
                {"id": 29, "lemma": "로", "type": "JKB", "position": 151, "weight": 0.121577}, 
                {"id": 30, "lemma": ",", "type": "SP", "position": 154, "weight": 1}, 
                {"id": 31, "lemma": "현재", "type": "MAG", "position": 156, "weight": 0.034489}, 
                {"id": 32, "lemma": "프랑스", "type": "NNP", "position": 163, "weight": 0.0267186}, 
                {"id": 33, "lemma": "파리", "type": "NNP", "position": 173, "weight": 0.0514019}, 
                {"id": 34, "lemma": "루브르", "type": "NNP", "position": 180, "weight": 0.0590849}, 
                {"id": 35, "lemma": "박물", "type": "NNG", "position": 190, "weight": 0.15}, 
                {"id": 36, "lemma": "관", "type": "XSN", "position": 196, "weight": 0.0123777}, 
                {"id": 37, "lemma": "에", "type": "JKB", "position": 199, "weight": 0.121683}, 
                {"id": 38, "lemma": "전시", "type": "NNG", "position": 203, "weight": 0.20775}, 
                {"id": 39, "lemma": "되", "type": "XSV", "position": 209, "weight": 0.000224177}, 
                {"id": 40, "lemma": "어", "type": "EC", "position": 212, "weight": 0.361326}, 
                {"id": 41, "lemma": "있", "type": "VX", "position": 216, "weight": 0.125953}, 
                {"id": 42, "lemma": "다", "type": "EF", "position": 219, "weight": 0.180366}, 
                {"id": 43, "lemma": ".", "type": "SF", "position": 222, "weight": 1}
            ], 
            "morp_eval": [], 
            "WSD": [
                {"id": 0, "text": "모나리자", "type": "NNP", "scode": "000000", "weight": 1, "position": 0, "begin": 0, "end": 0}, 
                {"id": 1, "text": "(", "type": "SS", "scode": "000000", "weight": 1, "position": 12, "begin": 1, "end": 1}, 
                {"id": 2, "text": "Mona", "type": "SL", "scode": "000000", "weight": 1, "position": 13, "begin": 2, "end": 2}, 
                {"id": 3, "text": "Lisa", "type": "SL", "scode": "000000", "weight": 1, "position": 18, "begin": 3, "end": 3}, 
                {"id": 4, "text": ")", "type": "SS", "scode": "000000", "weight": 1, "position": 22, "begin": 4, "end": 4}, 
                {"id": 5, "text": "또는", "type": "MAJ", "scode": "000000", "weight": 1, "position": 24, "begin": 5, "end": 5}, 
                {"id": 6, "text": "라", "type": "NNP", "scode": "000000", "weight": 0.0833333, "position": 31, "begin": 6, "end": 6}, 
                {"id": 7, "text": "조콘다", "type": "NNP", "scode": "000000", "weight": 0, "position": 35, "begin": 7, "end": 7}, 
                {"id": 8, "text": "(", "type": "SS", "scode": "000000", "weight": 1, "position": 44, "begin": 8, "end": 8}, 
                {"id": 9, "text": "La", "type": "SL", "scode": "000000", "weight": 1, "position": 45, "begin": 9, "end": 9}, 
                {"id": 10, "text": "Gioconda", "type": "SL", "scode": "000000", "weight": 1, "position": 48, "begin": 10, "end": 10}, 
                {"id": 11, "text": ",", "type": "SP", "scode": "000000", "weight": 1, "position": 56, "begin": 11, "end": 11}, 
                {"id": 12, "text": "La", "type": "SL", "scode": "000000", "weight": 1, "position": 58, "begin": 12, "end": 12}, 
                {"id": 13, "text": "Joconde", "type": "SL", "scode": "000000", "weight": 1, "position": 61, "begin": 13, "end": 13}, 
                {"id": 14, "text": ")", "type": "SS", "scode": "000000", "weight": 1, "position": 68, "begin": 14, "end": 14}, 
                {"id": 15, "text": "는", "type": "JX", "scode": "000000", "weight": 1, "position": 69, "begin": 15, "end": 15}, 
                {"id": 16, "text": "16", "type": "SN", "scode": "000000", "weight": 1, "position": 73, "begin": 16, "end": 16}, 
                {"id": 17, "text": "세기", "type": "NNG", "scode": "030002", "weight": 0.0909091, "position": 75, "begin": 17, "end": 17}, 
                {"id": 18, "text": "르네상스", "type": "NNG", "scode": "000000", "weight": 1, "position": 82, "begin": 18, "end": 18}, 
                {"id": 19, "text": "시대", "type": "NNG", "scode": "020001", "weight": 0.333333, "position": 95, "begin": 19, "end": 19}, 
                {"id": 20, "text": "에", "type": "JKB", "scode": "000000", "weight": 1, "position": 101, "begin": 20, "end": 20}, 
                {"id": 21, "text": "레오나르도", "type": "NNP", "scode": "000000", "weight": 0, "position": 105, "begin": 21, "end": 21}, 
                {"id": 22, "text": "다", "type": "NNP", "scode": "000000", "weight": 0.047619, "position": 121, "begin": 22, "end": 22}, 
                {"id": 23, "text": "빈치", "type": "NNP", "scode": "000000", "weight": 1, "position": 125, "begin": 23, "end": 23}, 
                {"id": 24, "text": "가", "type": "JKS", "scode": "000000", "weight": 1, "position": 131, "begin": 24, "end": 24}, 
                {"id": 25, "text": "그리", "type": "VV", "scode": "020001", "weight": 0.166667, "position": 135, "begin": 25, "end": 25}, 
                {"id": 26, "text": "ㄴ", "type": "ETM", "scode": "000000", "weight": 1, "position": 138, "begin": 26, "end": 26}, 
                {"id": 27, "text": "초상화", "type": "NNG", "scode": "000000", "weight": 1, "position": 142, "begin": 27, "end": 28}, 
                {"id": 28, "text": "로", "type": "JKB", "scode": "000000", "weight": 1, "position": 151, "begin": 29, "end": 29}, 
                {"id": 29, "text": ",", "type": "SP", "scode": "000000", "weight": 1, "position": 154, "begin": 30, "end": 30}, 
                {"id": 30, "text": "현재", "type": "MAG", "scode": "020101", "weight": 0.0909091, "position": 156, "begin": 31, "end": 31}, 
                {"id": 31, "text": "프랑스", "type": "NNP", "scode": "020000", "weight": 0.5, "position": 163, "begin": 32, "end": 32}, 
                {"id": 32, "text": "파리", "type": "NNP", "scode": "070000", "weight": 0.0769231, "position": 173, "begin": 33, "end": 33}, 
                {"id": 33, "text": "루브르", "type": "NNP", "scode": "000000", "weight": 1, "position": 180, "begin": 34, "end": 34}, 
                {"id": 34, "text": "박물관", "type": "NNG", "scode": "000000", "weight": 1, "position": 190, "begin": 35, "end": 36}, 
                {"id": 35, "text": "에", "type": "JKB", "scode": "000000", "weight": 1, "position": 199, "begin": 37, "end": 37}, 
                {"id": 36, "text": "전시되", "type": "VV", "scode": "000001", "weight": 0.5, "position": 203, "begin": 38, "end": 39}, 
                {"id": 37, "text": "어", "type": "EC", "scode": "000000", "weight": 1, "position": 212, "begin": 40, "end": 40}, 
                {"id": 38, "text": "있", "type": "VX", "scode": "010901", "weight": 0.0416667, "position": 216, "begin": 41, "end": 41}, 
                {"id": 39, "text": "다", "type": "EF", "scode": "000000", "weight": 1, "position": 219, "begin": 42, "end": 42}, 
                {"id": 40, "text": ".", "type": "SF", "scode": "000000", "weight": 1, "position": 222, "begin": 43, "end": 43}
            ], 
            "word": [
                {"id": 0, "text": "모나리자(Mona", "type": "", "begin": 0, "end": 2}, 
                {"id": 1, "text": "Lisa)", "type": "", "begin": 3, "end": 4}, 
                {"id": 2, "text": "또는", "type": "", "begin": 5, "end": 5}, 
                {"id": 3, "text": "라", "type": "", "begin": 6, "end": 6}, 
                {"id": 4, "text": "조콘다(La", "type": "", "begin": 7, "end": 9}, 
                {"id": 5, "text": "Gioconda,", "type": "", "begin": 10, "end": 11}, 
                {"id": 6, "text": "La", "type": "", "begin": 12, "end": 12}, 
                {"id": 7, "text": "Joconde)는", "type": "", "begin": 13, "end": 15}, 
                {"id": 8, "text": "16세기", "type": "", "begin": 16, "end": 17}, 
                {"id": 9, "text": "르네상스", "type": "", "begin": 18, "end": 18}, 
                {"id": 10, "text": "시대에", "type": "", "begin": 19, "end": 20}, 
                {"id": 11, "text": "레오나르도", "type": "", "begin": 21, "end": 21}, 
                {"id": 12, "text": "다", "type": "", "begin": 22, "end": 22}, 
                {"id": 13, "text": "빈치가", "type": "", "begin": 23, "end": 24}, 
                {"id": 14, "text": "그린", "type": "", "begin": 25, "end": 26}, 
                {"id": 15, "text": "초상화로,", "type": "", "begin": 27, "end": 30}, 
                {"id": 16, "text": "현재", "type": "", "begin": 31, "end": 31}, 
                {"id": 17, "text": "프랑스", "type": "", "begin": 32, "end": 32}, 
                {"id": 18, "text": "파리", "type": "", "begin": 33, "end": 33}, 
                {"id": 19, "text": "루브르", "type": "", "begin": 34, "end": 34}, 
                {"id": 20, "text": "박물관에", "type": "", "begin": 35, "end": 37}, 
                {"id": 21, "text": "전시되어", "type": "", "begin": 38, "end": 40}, 
                {"id": 22, "text": "있다.", "type": "", "begin": 41, "end": 43}
            ], 
            "NE": [
                {"id": 0, "text": "모나리자", "type": "AFW_ART_CRAFT", "begin": 0, "end": 0, "weight": 0.129229, "common_noun": 0}, 
                {"id": 1, "text": "Mona Lisa", "type": "AFW_ART_CRAFT", "begin": 2, "end": 3, "weight": 0.241717, "common_noun": 0}, 
                {"id": 2, "text": "라 조콘다", "type": "AFW_ART_CRAFT", "begin": 6, "end": 7, "weight": 0.257992, "common_noun": 0}, 
                {"id": 3, "text": "La Gioconda", "type": "AFW_ART_CRAFT", "begin": 9, "end": 10, "weight": 0.331702, "common_noun": 0}, 
                {"id": 4, "text": "La Joconde", "type": "AFW_ART_CRAFT", "begin": 12, "end": 13, "weight": 0.116984, "common_noun": 0}, 
                {"id": 5, "text": "16세기", "type": "DT_OTHERS", "begin": 16, "end": 17, "weight": 0.815849, "common_noun": 0}, 
                {"id": 6, "text": "르네상스 시대", "type": "DT_DYNASTY", "begin": 18, "end": 19, "weight": 0.523872, "common_noun": 0}, 
                {"id": 7, "text": "레오나르도 다 빈치", "type": "PS_NAME", "begin": 21, "end": 23, "weight": 0.872791, "common_noun": 0}, 
                {"id": 8, "text": "초상화", "type": "FD_ART", "begin": 27, "end": 28, "weight": 0.769305, "common_noun": 0}, 
                {"id": 9, "text": "프랑스", "type": "LCP_COUNTRY", "begin": 32, "end": 32, "weight": 0.891603, "common_noun": 0}, 
                {"id": 10, "text": "파리", "type": "LCP_CAPITALCITY", "begin": 33, "end": 33, "weight": 0.735706, "common_noun": 0}, 
                {"id": 11, "text": "루브르 박물관", "type": "OGG_ART", "begin": 34, "end": 36, "weight": 0.813426, "common_noun": 0}
            ], 
            "chunk": [], 
            "dependency": [
                {"id": 0, "text": "모나리자(Mona", "head": 1, "label": "NP", "mod": [], "weight": 0.848906}, 
                {"id": 1, "text": "Lisa)", "head": 7, "label": "NP_CNJ", "mod": [0], "weight": 0.2807}, 
                {"id": 2, "text": "또는", "head": 7, "label": "AP", "mod": [], "weight": 0.699518}, 
                {"id": 3, "text": "라", "head": 4, "label": "NP", "mod": [], "weight": 0.679801}, 
                {"id": 4, "text": "조콘다(La", "head": 5, "label": "NP", "mod": [3], "weight": 0.792762}, 
                {"id": 5, "text": "Gioconda,", "head": 7, "label": "NP", "mod": [4], "weight": 0.182576}, 
                {"id": 6, "text": "La", "head": 7, "label": "NP", "mod": [], "weight": 0.756294}, 
                {"id": 7, "text": "Joconde)는", "head": 15, "label": "NP_SBJ", "mod": [1, 2, 5, 6], "weight": 0.738341}, 
                {"id": 8, "text": "16세기", "head": 9, "label": "NP", "mod": [], "weight": 0.530996}, 
                {"id": 9, "text": "르네상스", "head": 10, "label": "NP", "mod": [8], "weight": 0.815346}, 
                {"id": 10, "text": "시대에", "head": 14, "label": "NP_AJT", "mod": [9], "weight": 0.225438}, 
                {"id": 11, "text": "레오나르도", "head": 12, "label": "NP", "mod": [], "weight": 0.717439}, 
                {"id": 12, "text": "다", "head": 13, "label": "NP", "mod": [11], "weight": 0.72921}, 
                {"id": 13, "text": "빈치가", "head": 14, "label": "NP_SBJ", "mod": [12], "weight": 0.520683}, 
                {"id": 14, "text": "그린", "head": 15, "label": "VP_MOD", "mod": [10, 13], "weight": 0.60552}, 
                {"id": 15, "text": "초상화로,", "head": 21, "label": "NP_AJT", "mod": [7, 14], "weight": 0.790721}, 
                {"id": 16, "text": "현재", "head": 21, "label": "AP", "mod": [], "weight": 0.706868}, 
                {"id": 17, "text": "프랑스", "head": 18, "label": "NP", "mod": [], "weight": 0.0440794}, 
                {"id": 18, "text": "파리", "head": 19, "label": "NP", "mod": [17], "weight": 0.324374}, 
                {"id": 19, "text": "루브르", "head": 20, "label": "NP", "mod": [18], "weight": 0.674091}, 
                {"id": 20, "text": "박물관에", "head": 21, "label": "NP_AJT", "mod": [19], "weight": 0.817822}, 
                {"id": 21, "text": "전시되어", "head": 22, "label": "VP", "mod": [15, 16, 20], "weight": 0.789022}, 
                {"id": 22, "text": "있다.", "head": -1, "label": "VP", "mod": [21], "weight": 3.85621e-07}
            ], 
            "SRL": [
                {"verb": "그리", "sense": 1, "word_id": 14, "weight": 0.345678, "argument": [
                    {"type": "ARGM-TMP", "word_id": 10, "text": "시대에", "weight": 0.28751}, 
                    {"type": "ARG0", "word_id": 13, "text": "빈치가", "weight": 0.442885}, 
                    {"type": "ARG1", "word_id": 15, "text": "초상화로,", "weight": 1}
                ]}, 
                {"verb": "전시", "sense": 1, "word_id": 21, "weight": 0.2478, "argument": [
                    {"type": "ARG1", "word_id": 15, "text": "초상화로,", "weight": 0.141419}, 
                    {"type": "ARGM-TMP", "word_id": 16, "text": "현재", "weight": 0.204989}, 
                    {"type": "ARG2", "word_id": 20, "text": "박물관에", "weight": 0.217491}, 
                    {"type": "AUX", "word_id": 22, "text": "있다.", "weight": 0.427299}
                ]}
            ], 
            "relation": [], 
            "SA": [], 
            "ZA": []
        }, 
        {
            "id": 1, 
            "reserve_str": "", 
            "text": "모나리자의 다른 명칭인 \"라 조콘다\"는 한국어로 \"조콘다(Giocondo)의 부인\"이라는 뜻이 된다.", 
            "morp": [
                {"id": 0, "lemma": "모나리자", "type": "NNP", "position": 223, "weight": 0.0785834}, 
                {"id": 1, "lemma": "의", "type": "JKG", "position": 235, "weight": 0.0987295}, 
                {"id": 2, "lemma": "다른", "type": "MM", "position": 239, "weight": 0.9}, 
                {"id": 3, "lemma": "명칭", "type": "NNG", "position": 246, "weight": 0.9}, 
                {"id": 4, "lemma": "이", "type": "VCP", "position": 252, "weight": 0.0177525}, 
                {"id": 5, "lemma": "ㄴ", "type": "ETM", "position": 252, "weight": 0.220712}, 
                {"id": 6, "lemma": "\"", "type": "SS", "position": 256, "weight": 1}, 
                {"id": 7, "lemma": "라", "type": "NNP", "position": 257, "weight": 0.000486304}, 
                {"id": 8, "lemma": "조콘다", "type": "NNP", "position": 261, "weight": 0.05}, 
                {"id": 9, "lemma": "\"", "type": "SS", "position": 270, "weight": 1}, 
                {"id": 10, "lemma": "는", "type": "JX", "position": 271, "weight": 0.00823314}, 
                {"id": 11, "lemma": "한국어", "type": "NNP", "position": 275, "weight": 0.0370952}, 
                {"id": 12, "lemma": "로", "type": "JKB", "position": 284, "weight": 0.0822907}, 
                {"id": 13, "lemma": "\"", "type": "SS", "position": 288, "weight": 1}, 
                {"id": 14, "lemma": "조콘다", "type": "NNP", "position": 289, "weight": 0.05}, 
                {"id": 15, "lemma": "(", "type": "SS", "position": 298, "weight": 1}, 
                {"id": 16, "lemma": "Giocondo", "type": "SL", "position": 299, "weight": 1}, 
                {"id": 17, "lemma": ")", "type": "SS", "position": 307, "weight": 1}, 
                {"id": 18, "lemma": "의", "type": "JKG", "position": 308, "weight": 0.0878251}, 
                {"id": 19, "lemma": "부인", "type": "NNG", "position": 312, "weight": 0.9}, 
                {"id": 20, "lemma": "\"", "type": "SS", "position": 318, "weight": 1}, 
                {"id": 21, "lemma": "이", "type": "VCP", "position": 319, "weight": 0.00747344}, 
                {"id": 22, "lemma": "라는", "type": "ETM", "position": 322, "weight": 0.230361}, 
                {"id": 23, "lemma": "뜻", "type": "NNG", "position": 329, "weight": 0.9}, 
                {"id": 24, "lemma": "이", "type": "JKC", "position": 332, "weight": 0.000287945}, 
                {"id": 25, "lemma": "되", "type": "VV", "position": 336, "weight": 0.542406}, 
                {"id": 26, "lemma": "ㄴ다", "type": "EF", "position": 336, "weight": 0.0793196}, 
                {"id": 27, "lemma": ".", "type": "SF", "position": 342, "weight": 1}
            ], 
            "morp_eval": [], 
            "WSD": [
                {"id": 0, "text": "모나리자", "type": "NNP", "scode": "000000", "weight": 1, "position": 223, "begin": 0, "end": 0}, 
                {"id": 1, "text": "의", "type": "JKG", "scode": "000000", "weight": 1, "position": 235, "begin": 1, "end": 1}, 
                {"id": 2, "text": "다른", "type": "MM", "scode": "000000", "weight": 1, "position": 239, "begin": 2, "end": 2}, 
                {"id": 3, "text": "명칭", "type": "NNG", "scode": "020000", "weight": 0.5, "position": 246, "begin": 3, "end": 3}, 
                {"id": 4, "text": "이", "type": "VCP", "scode": "030000", "weight": 0.0172414, "position": 252, "begin": 4, "end": 4}, 
                {"id": 5, "text": "ㄴ", "type": "ETM", "scode": "000000", "weight": 1, "position": 252, "begin": 5, "end": 5}, 
                {"id": 6, "text": "\"", "type": "SS", "scode": "000000", "weight": 1, "position": 256, "begin": 6, "end": 6}, 
                {"id": 7, "text": "라", "type": "NNP", "scode": "000000", "weight": 0.0833333, "position": 257, "begin": 7, "end": 7}, 
                {"id": 8, "text": "조콘다", "type": "NNP", "scode": "000000", "weight": 0, "position": 261, "begin": 8, "end": 8}, 
                {"id": 9, "text": "\"", "type": "SS", "scode": "000000", "weight": 1, "position": 270, "begin": 9, "end": 9}, 
                {"id": 10, "text": "는", "type": "JX", "scode": "000000", "weight": 1, "position": 271, "begin": 10, "end": 10}, 
                {"id": 11, "text": "한국어", "type": "NNP", "scode": "000000", "weight": 1, "position": 275, "begin": 11, "end": 11}, 
                {"id": 12, "text": "로", "type": "JKB", "scode": "000000", "weight": 1, "position": 284, "begin": 12, "end": 12}, 
                {"id": 13, "text": "\"", "type": "SS", "scode": "000000", "weight": 1, "position": 288, "begin": 13, "end": 13}, 
                {"id": 14, "text": "조콘다", "type": "NNP", "scode": "000000", "weight": 0, "position": 289, "begin": 14, "end": 14}, 
                {"id": 15, "text": "(", "type": "SS", "scode": "000000", "weight": 1, "position": 298, "begin": 15, "end": 15}, 
                {"id": 16, "text": "Giocondo", "type": "SL", "scode": "000000", "weight": 1, "position": 299, "begin": 16, "end": 16}, 
                {"id": 17, "text": ")", "type": "SS", "scode": "000000", "weight": 1, "position": 307, "begin": 17, "end": 17}, 
                {"id": 18, "text": "의", "type": "JKG", "scode": "000000", "weight": 1, "position": 308, "begin": 18, "end": 18}, 
                {"id": 19, "text": "부인", "type": "NNG", "scode": "010001", "weight": 0.0833333, "position": 312, "begin": 19, "end": 19}, 
                {"id": 20, "text": "\"", "type": "SS", "scode": "000000", "weight": 1, "position": 318, "begin": 20, "end": 20}, 
                {"id": 21, "text": "이", "type": "VCP", "scode": "030000", "weight": 0.0172414, "position": 319, "begin": 21, "end": 21}, 
                {"id": 22, "text": "라는", "type": "ETM", "scode": "000000", "weight": 1, "position": 322, "begin": 22, "end": 22}, 
                {"id": 23, "text": "뜻", "type": "NNG", "scode": "000002", "weight": 0.333333, "position": 329, "begin": 23, "end": 23}, 
                {"id": 24, "text": "이", "type": "JKC", "scode": "000000", "weight": 1, "position": 332, "begin": 24, "end": 24}, 
                {"id": 25, "text": "되", "type": "VV", "scode": "010202", "weight": 0.03125, "position": 336, "begin": 25, "end": 25}, 
                {"id": 26, "text": "ㄴ다", "type": "EF", "scode": "000000", "weight": 1, "position": 336, "begin": 26, "end": 26}, 
                {"id": 27, "text": ".", "type": "SF", "scode": "000000", "weight": 1, "position": 342, "begin": 27, "end": 27}
            ], 
            "word": [
                {"id": 0, "text": "모나리자의", "type": "", "begin": 0, "end": 1}, 
                {"id": 1, "text": "다른", "type": "", "begin": 2, "end": 2}, 
                {"id": 2, "text": "명칭인", "type": "", "begin": 3, "end": 5}, 
                {"id": 3, "text": "\"라", "type": "", "begin": 6, "end": 7}, 
                {"id": 4, "text": "조콘다\"는", "type": "", "begin": 8, "end": 10}, 
                {"id": 5, "text": "한국어로", "type": "", "begin": 11, "end": 12}, 
                {"id": 6, "text": "\"조콘다(Giocondo)의", "type": "", "begin": 13, "end": 18}, 
                {"id": 7, "text": "부인\"이라는", "type": "", "begin": 19, "end": 22}, 
                {"id": 8, "text": "뜻이", "type": "", "begin": 23, "end": 24}, 
                {"id": 9, "text": "된다.", "type": "", "begin": 25, "end": 27}
            ], 
            "NE": [
                {"id": 0, "text": "모나리자", "type": "AFW_ART_CRAFT", "begin": 0, "end": 0, "weight": 0.150737, "common_noun": 0}, 
                {"id": 1, "text": "라 조콘다", "type": "AFW_ART_CRAFT", "begin": 7, "end": 8, "weight": 0.0676838, "common_noun": 0}, 
                {"id": 2, "text": "한국어", "type": "CV_LANGUAGE", "begin": 11, "end": 11, "weight": 0.486542, "common_noun": 0}, 
                {"id": 3, "text": "조콘다", "type": "PS_NAME", "begin": 14, "end": 14, "weight": 0.10131, "common_noun": 0}, 
                {"id": 4, "text": "Giocondo", "type": "PS_NAME", "begin": 16, "end": 16, "weight": 0.18396, "common_noun": 0}, 
                {"id": 5, "text": "부인", "type": "CV_RELATION", "begin": 19, "end": 19, "weight": 0.726843, "common_noun": 0}
            ], 
            "chunk": [], 
            "dependency": [
                {"id": 0, "text": "모나리자의", "head": 2, "label": "NP_MOD", "mod": [], "weight": 0.710773}, 
                {"id": 1, "text": "다른", "head": 2, "label": "DP", "mod": [], "weight": 0.713626}, 
                {"id": 2, "text": "명칭인", "head": 4, "label": "VNP_MOD", "mod": [0, 1], "weight": 0.405458}, 
                {"id": 3, "text": "\"라", "head": 4, "label": "NP", "mod": [], "weight": 0.853474}, 
                {"id": 4, "text": "조콘다\"는", "head": 9, "label": "NP_SBJ", "mod": [2, 3], "weight": 0.656924}, 
                {"id": 5, "text": "한국어로", "head": 9, "label": "NP_AJT", "mod": [], "weight": 0.811133}, 
                {"id": 6, "text": "\"조콘다(Giocondo)의", "head": 7, "label": "NP_MOD", "mod": [], "weight": 0.691498}, 
                {"id": 7, "text": "부인\"이라는", "head": 8, "label": "VNP_MOD", "mod": [6], "weight": 0.341701}, 
                {"id": 8, "text": "뜻이", "head": 9, "label": "NP_CMP", "mod": [7], "weight": 0.766768}, 
                {"id": 9, "text": "된다.", "head": -1, "label": "VP", "mod": [4, 5, 8], "weight": 0.0139244}
            ], 
            "SRL": [
                {"verb": "되", "sense": 1, "word_id": 9, "weight": 0.232322, "argument": [
                    {"type": "ARG1", "word_id": 4, "text": "조콘다\"는", "weight": 0.241473}, 
                    {"type": "ARGM-MNR", "word_id": 5, "text": "한국어로", "weight": 1}, 
                    {"type": "ARG2", "word_id": 8, "text": "뜻이", "weight": 0.314143}
                ]}
            ], 
            "relation": [], 
            "SA": [], 
            "ZA": []
        }
    ], 
    "entity": [
        {"id": 0, "type": "PS_NAME", "number": "singular", "gender": "", "person": "", "animacy": "human", "mention": [
            {"id": 0, "sent_id": 0, "start_eid": 0, "end_eid": 7, "ne_id": 4, "text": "모나리자(Mona Lisa) 또는 라 조콘다(La Gioconda, La Joconde)는", "start_eid_short": 0, "end_eid_short": 0, "text_short": "모나리자(Mona"}, 
            {"id": 1, "sent_id": 0, "start_eid": 0, "end_eid": 1, "ne_id": 2, "text": "모나리자(Mona Lisa)", "start_eid_short": 0, "end_eid_short": 0, "text_short": "모나리자(Mona"}, 
            {"id": 2, "sent_id": 0, "start_eid": 3, "end_eid": 7, "ne_id": 3, "text": "라 조콘다(La Gioconda, La Joconde)는", "start_eid_short": 7, "end_eid_short": 7, "text_short": "Joconde)는"}, 
            {"id": 3, "sent_id": 0, "start_eid": 8, "end_eid": 15, "ne_id": 8, "text": "16세기 르네상스 시대에 레오나르도 다 빈치가 그린 초상화로,", "start_eid_short": 15, "end_eid_short": 15, "text_short": "초상화로,"}, 
            {"id": 10, "sent_id": 1, "start_eid": 0, "end_eid": 0, "ne_id": 0, "text": "모나리자의", "start_eid_short": 0, "end_eid_short": 0, "text_short": "모나리자의"}, 
            {"id": 11, "sent_id": 1, "start_eid": 3, "end_eid": 4, "ne_id": -1, "text": "\"라 조콘다\"는", "start_eid_short": 4, "end_eid_short": 4, "text_short": "조콘다\"는"}, 
            {"id": 12, "sent_id": 1, "start_eid": 5, "end_eid": 8, "ne_id": -1, "text": "한국어로 \"조콘다(Giocondo)의 부인\"이라는 뜻이", "start_eid_short": 8, "end_eid_short": 8, "text_short": "뜻이"}, 
            {"id": 14, "sent_id": 1, "start_eid": 6, "end_eid": 7, "ne_id": 4, "text": "\"조콘다(Giocondo)의 부인\"이라는", "start_eid_short": 6, "end_eid_short": 0, "text_short": ""}
        ]}, 
        {"id": 1, "type": "DT_DYNASTY", "number": "singular", "gender": "", "person": "", "animacy": "time", "mention": [
            {"id": 4, "sent_id": 0, "start_eid": 8, "end_eid": 10, "ne_id": 6, "text": "16세기 르네상스 시대에", "start_eid_short": 8, "end_eid_short": 10, "text_short": "16세기 르네상스 시대에"}
        ]}, 
        {"id": 2, "type": "DT_OTHERS", "number": "singular", "gender": "", "person": "", "animacy": "time", "mention": [
            {"id": 5, "sent_id": 0, "start_eid": 8, "end_eid": 8, "ne_id": 5, "text": "16세기", "start_eid_short": 8, "end_eid_short": 8, "text_short": "16세기"}
        ]}, 
        {"id": 3, "type": "PS_NAME", "number": "singular", "gender": "", "person": "", "animacy": "human", "mention": [
            {"id": 6, "sent_id": 0, "start_eid": 11, "end_eid": 13, "ne_id": 7, "text": "레오나르도 다 빈치가", "start_eid_short": 11, "end_eid_short": 13, "text_short": "레오나르도 다 빈치가"}
        ]}, 
        {"id": 4, "type": "LCP_CAPITALCITY", "number": "singular", "gender": "", "person": "", "animacy": "place", "mention": [
            {"id": 8, "sent_id": 0, "start_eid": 17, "end_eid": 18, "ne_id": 10, "text": "프랑스 파리", "start_eid_short": 17, "end_eid_short": 18, "text_short": "프랑스 파리"}
        ]}, 
        {"id": 5, "type": "LCP_COUNTRY", "number": "singular", "gender": "", "person": "", "animacy": "place", "mention": [
            {"id": 9, "sent_id": 0, "start_eid": 17, "end_eid": 17, "ne_id": 9, "text": "프랑스", "start_eid_short": 17, "end_eid_short": 17, "text_short": "프랑스"}
        ]}, 
        {"id": 6, "type": "OGG_ART", "number": "singular", "gender": "", "person": "", "animacy": "thing", "mention": [
            {"id": 7, "sent_id": 0, "start_eid": 16, "end_eid": 20, "ne_id": 11, "text": "현재 프랑스 파리 루브르 박물관에", "start_eid_short": 16, "end_eid_short": 20, "text_short": "현재 프랑스 파리 루브르 박물관에"}
        ]}, 
        {"id": 7, "type": "CV_LANGUAGE", "number": "singular", "gender": "", "person": "", "animacy": "thing", "mention": [
            {"id": 13, "sent_id": 1, "start_eid": 5, "end_eid": 5, "ne_id": 1, "text": "한국어로", "start_eid_short": 5, "end_eid_short": 5, "text_short": "한국어로"}
        ]}, 
        {"id": 8, "type": "PS_NAME", "number": "singular", "gender": "", "person": "", "animacy": "human", "mention": [
            {"id": 15, "sent_id": 1, "start_eid": 6, "end_eid": 6, "ne_id": 2, "text": "\"조콘다(Giocondo)의", "start_eid_short": 6, "end_eid_short": 0, "text_short": ""}
        ]}
    ]
}