{
    "doc_id": "E2016.790.09_A_01.json", 
    "DCT": "", 
    "category": "", 
    "category_weight": 0, 
    "title": {
        "text": "세한삼우", 
        "NE": ""
    }, 
    "metaInfo": {}, 
    "sentence": [
        {
            "id": 0, 
            "reserve_str": "", 
            "text": "추운 겨울철의 세 벗이라는 뜻으로, 추위에 잘 견디는 소나무ㆍ대나무ㆍ매화나무를 통틀어 이르는 말.", 
            "morp": [
                {"id": 0, "lemma": "춥", "type": "VA", "position": 0, "weight": 0.9}, 
                {"id": 1, "lemma": "ㄴ", "type": "ETM", "position": 0, "weight": 0.430446}, 
                {"id": 2, "lemma": "겨울", "type": "NNG", "position": 7, "weight": 0.9}, 
                {"id": 3, "lemma": "철", "type": "NNG", "position": 13, "weight": 0.177462}, 
                {"id": 4, "lemma": "의", "type": "JKG", "position": 16, "weight": 0.0694213}, 
                {"id": 5, "lemma": "세", "type": "MM", "position": 20, "weight": 0.00992922}, 
                {"id": 6, "lemma": "벗", "type": "NNG", "position": 24, "weight": 0.123645}, 
                {"id": 7, "lemma": "이", "type": "VCP", "position": 27, "weight": 0.0177525}, 
                {"id": 8, "lemma": "라는", "type": "ETM", "position": 30, "weight": 0.230361}, 
                {"id": 9, "lemma": "뜻", "type": "NNG", "position": 37, "weight": 0.9}, 
                {"id": 10, "lemma": "으로", "type": "JKB", "position": 40, "weight": 0.153406}, 
                {"id": 11, "lemma": ",", "type": "SP", "position": 46, "weight": 1}, 
                {"id": 12, "lemma": "추위", "type": "NNG", "position": 48, "weight": 0.9}, 
                {"id": 13, "lemma": "에", "type": "JKB", "position": 54, "weight": 0.153364}, 
                {"id": 14, "lemma": "잘", "type": "MAG", "position": 58, "weight": 0.0532428}, 
                {"id": 15, "lemma": "견디", "type": "VV", "position": 62, "weight": 0.9}, 
                {"id": 16, "lemma": "는", "type": "ETM", "position": 68, "weight": 0.184941}, 
                {"id": 17, "lemma": "소나무", "type": "NNG", "position": 72, "weight": 0.27568}, 
                {"id": 18, "lemma": "ㆍ", "type": "SP", "position": 81, "weight": 1}, 
                {"id": 19, "lemma": "대나무", "type": "NNG", "position": 84, "weight": 0.0799447}, 
                {"id": 20, "lemma": "ㆍ", "type": "SP", "position": 93, "weight": 1}, 
                {"id": 21, "lemma": "매화나무", "type": "NNG", "position": 96, "weight": 0.9}, 
                {"id": 22, "lemma": "를", "type": "JKO", "position": 108, "weight": 0.137686}, 
                {"id": 23, "lemma": "통틀어", "type": "MAG", "position": 112, "weight": 0.9}, 
                {"id": 24, "lemma": "이르", "type": "VV", "position": 122, "weight": 0.380808}, 
                {"id": 25, "lemma": "는", "type": "ETM", "position": 128, "weight": 0.184941}, 
                {"id": 26, "lemma": "말", "type": "NNG", "position": 132, "weight": 0.528926}, 
                {"id": 27, "lemma": ".", "type": "SF", "position": 135, "weight": 1}
            ], 
            "morp_eval": [], 
            "WSD": [
                {"id": 0, "text": "춥", "type": "VA", "scode": "000000", "weight": 1, "position": 0, "begin": 0, "end": 0}, 
                {"id": 1, "text": "ㄴ", "type": "ETM", "scode": "000000", "weight": 1, "position": 0, "begin": 1, "end": 1}, 
                {"id": 2, "text": "겨울철", "type": "NNG", "scode": "000000", "weight": 1, "position": 7, "begin": 2, "end": 3}, 
                {"id": 3, "text": "의", "type": "JKG", "scode": "000000", "weight": 1, "position": 16, "begin": 4, "end": 4}, 
                {"id": 4, "text": "세", "type": "MM", "scode": "010000", "weight": 0.0526316, "position": 20, "begin": 5, "end": 5}, 
                {"id": 5, "text": "벗", "type": "NNG", "scode": "020001", "weight": 0.166667, "position": 24, "begin": 6, "end": 6}, 
                {"id": 6, "text": "이", "type": "VCP", "scode": "030000", "weight": 0.0172414, "position": 27, "begin": 7, "end": 7}, 
                {"id": 7, "text": "라는", "type": "ETM", "scode": "000000", "weight": 1, "position": 30, "begin": 8, "end": 8}, 
                {"id": 8, "text": "뜻", "type": "NNG", "scode": "000002", "weight": 0.333333, "position": 37, "begin": 9, "end": 9}, 
                {"id": 9, "text": "으로", "type": "JKB", "scode": "000000", "weight": 1, "position": 40, "begin": 10, "end": 10}, 
                {"id": 10, "text": ",", "type": "SP", "scode": "000000", "weight": 1, "position": 46, "begin": 11, "end": 11}, 
                {"id": 11, "text": "추위", "type": "NNG", "scode": "010000", "weight": 0.333333, "position": 48, "begin": 12, "end": 12}, 
                {"id": 12, "text": "에", "type": "JKB", "scode": "000000", "weight": 1, "position": 54, "begin": 13, "end": 13}, 
                {"id": 13, "text": "잘", "type": "MAG", "scode": "020010", "weight": 0.0526316, "position": 58, "begin": 14, "end": 14}, 
                {"id": 14, "text": "견디", "type": "VV", "scode": "000201", "weight": 0.2, "position": 62, "begin": 15, "end": 15}, 
                {"id": 15, "text": "는", "type": "ETM", "scode": "000000", "weight": 1, "position": 68, "begin": 16, "end": 16}, 
                {"id": 16, "text": "소나무", "type": "NNG", "scode": "000002", "weight": 0.5, "position": 72, "begin": 17, "end": 17}, 
                {"id": 17, "text": "ㆍ", "type": "SP", "scode": "000000", "weight": 1, "position": 81, "begin": 18, "end": 18}, 
                {"id": 18, "text": "대나무", "type": "NNG", "scode": "000000", "weight": 1, "position": 84, "begin": 19, "end": 19}, 
                {"id": 19, "text": "ㆍ", "type": "SP", "scode": "000000", "weight": 1, "position": 93, "begin": 20, "end": 20}, 
                {"id": 20, "text": "매화나무", "type": "NNG", "scode": "000000", "weight": 1, "position": 96, "begin": 21, "end": 21}, 
                {"id": 21, "text": "를", "type": "JKO", "scode": "000000", "weight": 1, "position": 108, "begin": 22, "end": 22}, 
                {"id": 22, "text": "통틀어", "type": "MAG", "scode": "000000", "weight": 1, "position": 112, "begin": 23, "end": 23}, 
                {"id": 23, "text": "이르", "type": "VV", "scode": "020200", "weight": 0.1, "position": 122, "begin": 24, "end": 24}, 
                {"id": 24, "text": "는", "type": "ETM", "scode": "000000", "weight": 1, "position": 128, "begin": 25, "end": 25}, 
                {"id": 25, "text": "말", "type": "NNG", "scode": "010004", "weight": 0.0384615, "position": 132, "begin": 26, "end": 26}, 
                {"id": 26, "text": ".", "type": "SF", "scode": "000000", "weight": 1, "position": 135, "begin": 27, "end": 27}
            ], 
            "word": [
                {"id": 0, "text": "추운", "type": "", "begin": 0, "end": 1}, 
                {"id": 1, "text": "겨울철의", "type": "", "begin": 2, "end": 4}, 
                {"id": 2, "text": "세", "type": "", "begin": 5, "end": 5}, 
                {"id": 3, "text": "벗이라는", "type": "", "begin": 6, "end": 8}, 
                {"id": 4, "text": "뜻으로,", "type": "", "begin": 9, "end": 11}, 
                {"id": 5, "text": "추위에", "type": "", "begin": 12, "end": 13}, 
                {"id": 6, "text": "잘", "type": "", "begin": 14, "end": 14}, 
                {"id": 7, "text": "견디는", "type": "", "begin": 15, "end": 16}, 
                {"id": 8, "text": "소나무ㆍ대나무ㆍ매화나무를", "type": "", "begin": 17, "end": 22}, 
                {"id": 9, "text": "통틀어", "type": "", "begin": 23, "end": 23}, 
                {"id": 10, "text": "이르는", "type": "", "begin": 24, "end": 25}, 
                {"id": 11, "text": "말.", "type": "", "begin": 26, "end": 27}
            ], 
            "NE": [
                {"id": 0, "text": "겨울철", "type": "DT_SEASON", "begin": 2, "end": 3, "weight": 0.400703, "common_noun": 0}, 
                {"id": 1, "text": "세 벗", "type": "QT_COUNT", "begin": 5, "end": 6, "weight": 0.433319, "common_noun": 0}, 
                {"id": 2, "text": "소나무", "type": "PT_TREE", "begin": 17, "end": 17, "weight": 0.316827, "common_noun": 0}, 
                {"id": 3, "text": "대나무", "type": "PT_TREE", "begin": 19, "end": 19, "weight": 0.547638, "common_noun": 0}, 
                {"id": 4, "text": "매화나무", "type": "PT_TREE", "begin": 21, "end": 21, "weight": 0.502414, "common_noun": 0}
            ], 
            "chunk": [], 
            "dependency": [
                {"id": 0, "text": "추운", "head": 1, "label": "VP_MOD", "mod": [], "weight": 0.851919}, 
                {"id": 1, "text": "겨울철의", "head": 3, "label": "NP_MOD", "mod": [0], "weight": 0.77806}, 
                {"id": 2, "text": "세", "head": 3, "label": "DP", "mod": [], "weight": 0.548886}, 
                {"id": 3, "text": "벗이라는", "head": 4, "label": "VNP_MOD", "mod": [1, 2], "weight": 0.63092}, 
                {"id": 4, "text": "뜻으로,", "head": 11, "label": "NP_AJT", "mod": [3], "weight": 0.812273}, 
                {"id": 5, "text": "추위에", "head": 7, "label": "NP_AJT", "mod": [], "weight": 0.606445}, 
                {"id": 6, "text": "잘", "head": 7, "label": "AP", "mod": [], "weight": 0.83151}, 
                {"id": 7, "text": "견디는", "head": 8, "label": "VP_MOD", "mod": [5, 6], "weight": 0.767433}, 
                {"id": 8, "text": "소나무ㆍ대나무ㆍ매화나무를", "head": 10, "label": "NP_OBJ", "mod": [7], "weight": 0.398477}, 
                {"id": 9, "text": "통틀어", "head": 10, "label": "AP", "mod": [], "weight": 0.471004}, 
                {"id": 10, "text": "이르는", "head": 11, "label": "VP_MOD", "mod": [9, 8], "weight": 0.81647}, 
                {"id": 11, "text": "말.", "head": -1, "label": "NP", "mod": [4, 10], "weight": 0.00822071}
            ], 
            "SRL": [
                {"verb": "춥", "sense": 1, "word_id": 0, "weight": 0.168015, "argument": [
                    {"type": "ARG1", "word_id": 1, "text": "겨울철의", "weight": 0.168015}
                ]}, 
                {"verb": "견디", "sense": 1, "word_id": 7, "weight": 0.124558, "argument": [
                    {"type": "ARG1", "word_id": 5, "text": "추위에", "weight": 1}, 
                    {"type": "ARGM-ADV", "word_id": 6, "text": "잘", "weight": 0.146339}, 
                    {"type": "ARG0", "word_id": 8, "text": "소나무ㆍ대나무ㆍ매화나무를", "weight": 1}
                ]}, 
                {"verb": "이르", "sense": 4, "word_id": 10, "weight": 0.116179, "argument": [
                    {"type": "ARGM-MNR", "word_id": 9, "text": "통틀어", "weight": 0.0912512}, 
                    {"type": "ARG2", "word_id": 11, "text": "말.", "weight": 0.141106}, 
                    {"type": "ARG1", "word_id": 8, "text": "소나무ㆍ대나무ㆍ매화나무를", "weight": 1}
                ]}
            ], 
            "relation": [], 
            "SA": [], 
            "ZA": []
        }
    ], 
    "entity": [
        {"id": 0, "type": "", "number": "singular", "gender": "", "person": "", "animacy": "thing", "mention": [
            {"id": 1, "sent_id": 0, "start_eid": 0, "end_eid": 4, "ne_id": -1, "text": "추운 겨울철의 세 벗이라는 뜻으로,", "start_eid_short": 4, "end_eid_short": 4, "text_short": "뜻으로,"}
        ]}, 
        {"id": 1, "type": "DT_SEASON", "number": "singular", "gender": "", "person": "", "animacy": "time", "mention": [
            {"id": 2, "sent_id": 0, "start_eid": 0, "end_eid": 1, "ne_id": 0, "text": "추운 겨울철의", "start_eid_short": 1, "end_eid_short": 1, "text_short": "겨울철의"}
        ]}, 
        {"id": 2, "type": "QT_COUNT", "number": "singular", "gender": "", "person": "", "animacy": "thing", "mention": [
            {"id": 3, "sent_id": 0, "start_eid": 2, "end_eid": 3, "ne_id": 1, "text": "세 벗이라는", "start_eid_short": 3, "end_eid_short": 3, "text_short": "벗이라는"}
        ]}, 
        {"id": 3, "type": "PT_TREE", "number": "singular", "gender": "", "person": "", "animacy": "plant", "mention": [
            {"id": 4, "sent_id": 0, "start_eid": 5, "end_eid": 8, "ne_id": 2, "text": "추위에 잘 견디는 소나무ㆍ대나무ㆍ매화나무를", "start_eid_short": 8, "end_eid_short": 8, "text_short": "소나무ㆍ대나무ㆍ매화나무를"}
        ]}, 
        {"id": 4, "type": "", "number": "singular", "gender": "", "person": "", "animacy": "thing", "mention": [
            {"id": 5, "sent_id": 0, "start_eid": 5, "end_eid": 5, "ne_id": -1, "text": "추위에", "start_eid_short": 5, "end_eid_short": 5, "text_short": "추위에"}
        ]}, 
        {"id": 5, "type": "", "number": "singular", "gender": "", "person": "", "animacy": "thing", "mention": [
            {"id": 0, "sent_id": 0, "start_eid": 0, "end_eid": 11, "ne_id": -1, "text": "추운 겨울철의 세 벗이라는 뜻으로, 추위에 잘 견디는 소나무ㆍ대나무ㆍ매화나무를 통틀어 이르는 말.", "start_eid_short": 11, "end_eid_short": 11, "text_short": "말."}
        ]}
    ]
}