{
    "doc_id": "E2016.836.11_A_02.json", 
    "DCT": "", 
    "category": "", 
    "category_weight": 0, 
    "title": {
        "text": "한국은행", 
        "NE": ""
    }, 
    "metaInfo": {}, 
    "sentence": [
        {
            "id": 0, 
            "reserve_str": "", 
            "text": "<경제> 우리나라의 중앙은행.", 
            "morp": [
                {"id": 0, "lemma": "<", "type": "SS", "position": 0, "weight": 1}, 
                {"id": 1, "lemma": "경제", "type": "NNG", "position": 1, "weight": 0.199981}, 
                {"id": 2, "lemma": ">", "type": "SS", "position": 7, "weight": 1}, 
                {"id": 3, "lemma": "우리", "type": "NNG", "position": 9, "weight": 0.000697649}, 
                {"id": 4, "lemma": "나라", "type": "NNG", "position": 15, "weight": 0.184431}, 
                {"id": 5, "lemma": "의", "type": "JKG", "position": 21, "weight": 0.0694213}, 
                {"id": 6, "lemma": "중앙", "type": "NNG", "position": 25, "weight": 0.854269}, 
                {"id": 7, "lemma": "은행", "type": "NNG", "position": 31, "weight": 0.184753}, 
                {"id": 8, "lemma": ".", "type": "SF", "position": 37, "weight": 1}
            ], 
            "morp_eval": [], 
            "WSD": [
                {"id": 0, "text": "<", "type": "SS", "scode": "000000", "weight": 1, "position": 0, "begin": 0, "end": 0}, 
                {"id": 1, "text": "경제", "type": "NNG", "scode": "040001", "weight": 0.111111, "position": 1, "begin": 1, "end": 1}, 
                {"id": 2, "text": ">", "type": "SS", "scode": "000000", "weight": 1, "position": 7, "begin": 2, "end": 2}, 
                {"id": 3, "text": "우리나라", "type": "NNG", "scode": "000000", "weight": 1, "position": 9, "begin": 3, "end": 4}, 
                {"id": 4, "text": "의", "type": "JKG", "scode": "000000", "weight": 1, "position": 21, "begin": 5, "end": 5}, 
                {"id": 5, "text": "중앙은행", "type": "NNG", "scode": "000000", "weight": 1, "position": 25, "begin": 6, "end": 7}, 
                {"id": 6, "text": ".", "type": "SF", "scode": "000000", "weight": 1, "position": 37, "begin": 8, "end": 8}
            ], 
            "word": [
                {"id": 0, "text": "<경제>", "type": "", "begin": 0, "end": 2}, 
                {"id": 1, "text": "우리나라의", "type": "", "begin": 3, "end": 5}, 
                {"id": 2, "text": "중앙은행.", "type": "", "begin": 6, "end": 8}
            ], 
            "NE": [
                {"id": 0, "text": "중앙은행", "type": "OGG_ECONOMY", "begin": 6, "end": 7, "weight": 0.25455, "common_noun": 0}
            ], 
            "chunk": [], 
            "dependency": [
                {"id": 0, "text": "<경제>", "head": 2, "label": "NP", "mod": [], "weight": 0.763365}, 
                {"id": 1, "text": "우리나라의", "head": 2, "label": "NP_MOD", "mod": [], "weight": 0.803518}, 
                {"id": 2, "text": "중앙은행.", "head": -1, "label": "NP", "mod": [0, 1], "weight": 0.460092}
            ], 
            "SRL": [], 
            "relation": [], 
            "SA": [], 
            "ZA": []
        }, 
        {
            "id": 1, 
            "reserve_str": "", 
            "text": "1950년 5월 한국은행법에 의하여 설립된 무자본 특수법인체로, 일반 금융 기관에 대한 예금ㆍ대출 업무, 발권 업무, 국고 업무, 외국환 업무 따위를 수행한다.", 
            "morp": [
                {"id": 0, "lemma": "1950", "type": "SN", "position": 38, "weight": 1}, 
                {"id": 1, "lemma": "년", "type": "NNB", "position": 42, "weight": 0.414343}, 
                {"id": 2, "lemma": "5", "type": "SN", "position": 46, "weight": 1}, 
                {"id": 3, "lemma": "월", "type": "NNB", "position": 47, "weight": 0.408539}, 
                {"id": 4, "lemma": "한국은행법", "type": "NNG", "position": 51, "weight": 0.05}, 
                {"id": 5, "lemma": "에", "type": "JKB", "position": 66, "weight": 0.153364}, 
                {"id": 6, "lemma": "의하", "type": "VV", "position": 70, "weight": 0.9}, 
                {"id": 7, "lemma": "아", "type": "EC", "position": 76, "weight": 0.41831}, 
                {"id": 8, "lemma": "설립", "type": "NNG", "position": 80, "weight": 0.9}, 
                {"id": 9, "lemma": "되", "type": "XSV", "position": 86, "weight": 0.000224177}, 
                {"id": 10, "lemma": "ㄴ", "type": "ETM", "position": 86, "weight": 0.392321}, 
                {"id": 11, "lemma": "무", "type": "XPN", "position": 90, "weight": 0.000457326}, 
                {"id": 12, "lemma": "자본", "type": "NNG", "position": 93, "weight": 0.9}, 
                {"id": 13, "lemma": "특수", "type": "NNG", "position": 100, "weight": 0.9}, 
                {"id": 14, "lemma": "법인", "type": "NNG", "position": 106, "weight": 0.184465}, 
                {"id": 15, "lemma": "체", "type": "XSN", "position": 112, "weight": 0.0209224}, 
                {"id": 16, "lemma": "로", "type": "JKB", "position": 115, "weight": 0.121577}, 
                {"id": 17, "lemma": ",", "type": "SP", "position": 118, "weight": 1}, 
                {"id": 18, "lemma": "일반", "type": "NNG", "position": 120, "weight": 0.9}, 
                {"id": 19, "lemma": "금융", "type": "NNG", "position": 127, "weight": 0.9}, 
                {"id": 20, "lemma": "기관", "type": "NNG", "position": 134, "weight": 0.9}, 
                {"id": 21, "lemma": "에", "type": "JKB", "position": 140, "weight": 0.153364}, 
                {"id": 22, "lemma": "대하", "type": "VV", "position": 144, "weight": 0.0312871}, 
                {"id": 23, "lemma": "ㄴ", "type": "ETM", "position": 147, "weight": 0.392321}, 
                {"id": 24, "lemma": "예금", "type": "NNG", "position": 151, "weight": 0.9}, 
                {"id": 25, "lemma": "ㆍ", "type": "SP", "position": 157, "weight": 1}, 
                {"id": 26, "lemma": "대출", "type": "NNG", "position": 160, "weight": 0.9}, 
                {"id": 27, "lemma": "업무", "type": "NNG", "position": 167, "weight": 0.9}, 
                {"id": 28, "lemma": ",", "type": "SP", "position": 173, "weight": 1}, 
                {"id": 29, "lemma": "발권", "type": "NNG", "position": 175, "weight": 0.6}, 
                {"id": 30, "lemma": "업무", "type": "NNG", "position": 182, "weight": 0.9}, 
                {"id": 31, "lemma": ",", "type": "SP", "position": 188, "weight": 1}, 
                {"id": 32, "lemma": "국고", "type": "NNG", "position": 190, "weight": 0.9}, 
                {"id": 33, "lemma": "업무", "type": "NNG", "position": 197, "weight": 0.9}, 
                {"id": 34, "lemma": ",", "type": "SP", "position": 203, "weight": 1}, 
                {"id": 35, "lemma": "외국", "type": "NNG", "position": 205, "weight": 0.9}, 
                {"id": 36, "lemma": "환", "type": "NNG", "position": 211, "weight": 0.109535}, 
                {"id": 37, "lemma": "업무", "type": "NNG", "position": 215, "weight": 0.9}, 
                {"id": 38, "lemma": "따위", "type": "NNB", "position": 222, "weight": 0.9}, 
                {"id": 39, "lemma": "를", "type": "JKO", "position": 228, "weight": 0.0669358}, 
                {"id": 40, "lemma": "수행", "type": "NNG", "position": 232, "weight": 0.9}, 
                {"id": 41, "lemma": "하", "type": "XSV", "position": 238, "weight": 0.0001}, 
                {"id": 42, "lemma": "ㄴ다", "type": "EF", "position": 238, "weight": 0.0449045}, 
                {"id": 43, "lemma": ".", "type": "SF", "position": 244, "weight": 1}
            ], 
            "morp_eval": [], 
            "WSD": [
                {"id": 0, "text": "1950", "type": "SN", "scode": "000000", "weight": 1, "position": 38, "begin": 0, "end": 0}, 
                {"id": 1, "text": "년", "type": "NNB", "scode": "020000", "weight": 0.166667, "position": 42, "begin": 1, "end": 1}, 
                {"id": 2, "text": "5", "type": "SN", "scode": "000000", "weight": 1, "position": 46, "begin": 2, "end": 2}, 
                {"id": 3, "text": "월", "type": "NNB", "scode": "020100", "weight": 0.125, "position": 47, "begin": 3, "end": 3}, 
                {"id": 4, "text": "한국은행법", "type": "NNG", "scode": "000000", "weight": 0, "position": 51, "begin": 4, "end": 4}, 
                {"id": 5, "text": "에", "type": "JKB", "scode": "000000", "weight": 1, "position": 66, "begin": 5, "end": 5}, 
                {"id": 6, "text": "의하", "type": "VV", "scode": "010000", "weight": 0.5, "position": 70, "begin": 6, "end": 6}, 
                {"id": 7, "text": "아", "type": "EC", "scode": "000000", "weight": 1, "position": 76, "begin": 7, "end": 7}, 
                {"id": 8, "text": "설립되", "type": "VV", "scode": "000000", "weight": 1, "position": 80, "begin": 8, "end": 9}, 
                {"id": 9, "text": "ㄴ", "type": "ETM", "scode": "000000", "weight": 1, "position": 86, "begin": 10, "end": 10}, 
                {"id": 10, "text": "무자본", "type": "NNG", "scode": "000000", "weight": 1, "position": 90, "begin": 11, "end": 12}, 
                {"id": 11, "text": "특수", "type": "NNG", "scode": "020001", "weight": 0.166667, "position": 100, "begin": 13, "end": 13}, 
                {"id": 12, "text": "법인체", "type": "NNG", "scode": "000002", "weight": 0.5, "position": 106, "begin": 14, "end": 15}, 
                {"id": 13, "text": "로", "type": "JKB", "scode": "000000", "weight": 1, "position": 115, "begin": 16, "end": 16}, 
                {"id": 14, "text": ",", "type": "SP", "scode": "000000", "weight": 1, "position": 118, "begin": 17, "end": 17}, 
                {"id": 15, "text": "일반", "type": "NNG", "scode": "020002", "weight": 0.142857, "position": 120, "begin": 18, "end": 18}, 
                {"id": 16, "text": "금융", "type": "NNG", "scode": "000000", "weight": 1, "position": 127, "begin": 19, "end": 19}, 
                {"id": 17, "text": "기관", "type": "NNG", "scode": "110002", "weight": 0.0666667, "position": 134, "begin": 20, "end": 20}, 
                {"id": 18, "text": "에", "type": "JKB", "scode": "000000", "weight": 1, "position": 140, "begin": 21, "end": 21}, 
                {"id": 19, "text": "대하", "type": "VV", "scode": "020003", "weight": 0.25, "position": 144, "begin": 22, "end": 22}, 
                {"id": 20, "text": "ㄴ", "type": "ETM", "scode": "000000", "weight": 1, "position": 147, "begin": 23, "end": 23}, 
                {"id": 21, "text": "예금", "type": "NNG", "scode": "010000", "weight": 0.5, "position": 151, "begin": 24, "end": 24}, 
                {"id": 22, "text": "ㆍ", "type": "SP", "scode": "000000", "weight": 1, "position": 157, "begin": 25, "end": 25}, 
                {"id": 23, "text": "대출", "type": "NNG", "scode": "030000", "weight": 0.333333, "position": 160, "begin": 26, "end": 26}, 
                {"id": 24, "text": "업무", "type": "NNG", "scode": "020000", "weight": 0.333333, "position": 167, "begin": 27, "end": 27}, 
                {"id": 25, "text": ",", "type": "SP", "scode": "000000", "weight": 1, "position": 173, "begin": 28, "end": 28}, 
                {"id": 26, "text": "발권", "type": "NNG", "scode": "000000", "weight": 1, "position": 175, "begin": 29, "end": 29}, 
                {"id": 27, "text": "업무", "type": "NNG", "scode": "020000", "weight": 0.333333, "position": 182, "begin": 30, "end": 30}, 
                {"id": 28, "text": ",", "type": "SP", "scode": "000000", "weight": 1, "position": 188, "begin": 31, "end": 31}, 
                {"id": 29, "text": "국고", "type": "NNG", "scode": "000001", "weight": 0.333333, "position": 190, "begin": 32, "end": 32}, 
                {"id": 30, "text": "업무", "type": "NNG", "scode": "020000", "weight": 0.333333, "position": 197, "begin": 33, "end": 33}, 
                {"id": 31, "text": ",", "type": "SP", "scode": "000000", "weight": 1, "position": 203, "begin": 34, "end": 34}, 
                {"id": 32, "text": "외국환", "type": "NNG", "scode": "000002", "weight": 0.5, "position": 205, "begin": 35, "end": 36}, 
                {"id": 33, "text": "업무", "type": "NNG", "scode": "020000", "weight": 0.333333, "position": 215, "begin": 37, "end": 37}, 
                {"id": 34, "text": "따위", "type": "NNB", "scode": "000001", "weight": 0.5, "position": 222, "begin": 38, "end": 38}, 
                {"id": 35, "text": "를", "type": "JKO", "scode": "000000", "weight": 1, "position": 228, "begin": 39, "end": 39}, 
                {"id": 36, "text": "수행하", "type": "VV", "scode": "020000", "weight": 0.142857, "position": 232, "begin": 40, "end": 41}, 
                {"id": 37, "text": "ㄴ다", "type": "EF", "scode": "000000", "weight": 1, "position": 238, "begin": 42, "end": 42}, 
                {"id": 38, "text": ".", "type": "SF", "scode": "000000", "weight": 1, "position": 244, "begin": 43, "end": 43}
            ], 
            "word": [
                {"id": 0, "text": "1950년", "type": "", "begin": 0, "end": 1}, 
                {"id": 1, "text": "5월", "type": "", "begin": 2, "end": 3}, 
                {"id": 2, "text": "한국은행법에", "type": "", "begin": 4, "end": 5}, 
                {"id": 3, "text": "의하여", "type": "", "begin": 6, "end": 7}, 
                {"id": 4, "text": "설립된", "type": "", "begin": 8, "end": 10}, 
                {"id": 5, "text": "무자본", "type": "", "begin": 11, "end": 12}, 
                {"id": 6, "text": "특수법인체로,", "type": "", "begin": 13, "end": 17}, 
                {"id": 7, "text": "일반", "type": "", "begin": 18, "end": 18}, 
                {"id": 8, "text": "금융", "type": "", "begin": 19, "end": 19}, 
                {"id": 9, "text": "기관에", "type": "", "begin": 20, "end": 21}, 
                {"id": 10, "text": "대한", "type": "", "begin": 22, "end": 23}, 
                {"id": 11, "text": "예금ㆍ대출", "type": "", "begin": 24, "end": 26}, 
                {"id": 12, "text": "업무,", "type": "", "begin": 27, "end": 28}, 
                {"id": 13, "text": "발권", "type": "", "begin": 29, "end": 29}, 
                {"id": 14, "text": "업무,", "type": "", "begin": 30, "end": 31}, 
                {"id": 15, "text": "국고", "type": "", "begin": 32, "end": 32}, 
                {"id": 16, "text": "업무,", "type": "", "begin": 33, "end": 34}, 
                {"id": 17, "text": "외국환", "type": "", "begin": 35, "end": 36}, 
                {"id": 18, "text": "업무", "type": "", "begin": 37, "end": 37}, 
                {"id": 19, "text": "따위를", "type": "", "begin": 38, "end": 39}, 
                {"id": 20, "text": "수행한다.", "type": "", "begin": 40, "end": 43}
            ], 
            "NE": [
                {"id": 0, "text": "1950년 5월", "type": "DT_OTHERS", "begin": 0, "end": 3, "weight": 0.799001, "common_noun": 0}, 
                {"id": 1, "text": "한국은행법", "type": "CV_LAW", "begin": 4, "end": 4, "weight": 0.149414, "common_noun": 0}
            ], 
            "chunk": [], 
            "dependency": [
                {"id": 0, "text": "1950년", "head": 1, "label": "NP", "mod": [], "weight": 0.702144}, 
                {"id": 1, "text": "5월", "head": 3, "label": "NP_AJT", "mod": [0], "weight": 0.143337}, 
                {"id": 2, "text": "한국은행법에", "head": 3, "label": "NP_AJT", "mod": [], "weight": 0.750281}, 
                {"id": 3, "text": "의하여", "head": 4, "label": "VP", "mod": [1, 2], "weight": 0.70373}, 
                {"id": 4, "text": "설립된", "head": 6, "label": "VP_MOD", "mod": [3], "weight": 0.789378}, 
                {"id": 5, "text": "무자본", "head": 6, "label": "NP", "mod": [], "weight": 0.757114}, 
                {"id": 6, "text": "특수법인체로,", "head": 20, "label": "NP_AJT", "mod": [4, 5], "weight": 0.801661}, 
                {"id": 7, "text": "일반", "head": 8, "label": "NP", "mod": [], "weight": 0.160373}, 
                {"id": 8, "text": "금융", "head": 9, "label": "NP", "mod": [7], "weight": 0.760095}, 
                {"id": 9, "text": "기관에", "head": 10, "label": "NP_AJT", "mod": [8], "weight": 0.676648}, 
                {"id": 10, "text": "대한", "head": 18, "label": "VP_MOD", "mod": [9], "weight": 0.0934161}, 
                {"id": 11, "text": "예금ㆍ대출", "head": 12, "label": "NP", "mod": [], "weight": 0.849417}, 
                {"id": 12, "text": "업무,", "head": 18, "label": "NP_CNJ", "mod": [11], "weight": 0.745143}, 
                {"id": 13, "text": "발권", "head": 14, "label": "NP", "mod": [], "weight": 0.847261}, 
                {"id": 14, "text": "업무,", "head": 18, "label": "NP_CNJ", "mod": [13], "weight": 0.777466}, 
                {"id": 15, "text": "국고", "head": 16, "label": "NP", "mod": [], "weight": 0.700849}, 
                {"id": 16, "text": "업무,", "head": 18, "label": "NP_CNJ", "mod": [15], "weight": 0.675076}, 
                {"id": 17, "text": "외국환", "head": 18, "label": "NP", "mod": [], "weight": 0.788434}, 
                {"id": 18, "text": "업무", "head": 19, "label": "NP", "mod": [12, 14, 16, 17, 10], "weight": 0.83901}, 
                {"id": 19, "text": "따위를", "head": 20, "label": "NP_OBJ", "mod": [18], "weight": 0.810312}, 
                {"id": 20, "text": "수행한다.", "head": -1, "label": "VP", "mod": [6, 19], "weight": 1.91764e-05}
            ], 
            "SRL": [
                {"verb": "의하", "sense": 1, "word_id": 3, "weight": 0.340536, "argument": [
                    {"type": "ARG2", "word_id": 2, "text": "한국은행법에", "weight": 0.340536}
                ]}, 
                {"verb": "설립", "sense": 1, "word_id": 4, "weight": 0.1577, "argument": [
                    {"type": "ARG1", "word_id": 6, "text": "특수법인체로,", "weight": 0.229027}, 
                    {"type": "ARGM-TMP", "word_id": 1, "text": "5월", "weight": 1}
                ]}, 
                {"verb": "대하", "sense": 1, "word_id": 10, "weight": 0.154219, "argument": [
                    {"type": "ARG2", "word_id": 9, "text": "기관에", "weight": 0.154219}, 
                    {"type": "ARG1", "word_id": 18, "text": "업무", "weight": 1}
                ]}, 
                {"verb": "수행", "sense": 1, "word_id": 20, "weight": 0.138915, "argument": [
                    {"type": "ARG1", "word_id": 19, "text": "따위를", "weight": 0.138915}, 
                    {"type": "ARG0", "word_id": 6, "text": "특수법인체로,", "weight": 1}
                ]}
            ], 
            "relation": [], 
            "SA": [], 
            "ZA": []
        }
    ], 
    "entity": [
        {"id": 0, "type": "", "number": "singular", "gender": "", "person": "", "animacy": "thing", "mention": [
            {"id": 1, "sent_id": 0, "start_eid": 1, "end_eid": 1, "ne_id": -1, "text": "우리나라의", "start_eid_short": 1, "end_eid_short": 1, "text_short": "우리나라의"}
        ]}, 
        {"id": 1, "type": "DT_OTHERS", "number": "singular", "gender": "", "person": "", "animacy": "time", "mention": [
            {"id": 3, "sent_id": 1, "start_eid": 0, "end_eid": 1, "ne_id": 0, "text": "1950년 5월", "start_eid_short": 0, "end_eid_short": 1, "text_short": "1950년 5월"}
        ]}, 
        {"id": 2, "type": "CV_LAW", "number": "singular", "gender": "", "person": "", "animacy": "thing", "mention": [
            {"id": 4, "sent_id": 1, "start_eid": 2, "end_eid": 2, "ne_id": 1, "text": "한국은행법에", "start_eid_short": 2, "end_eid_short": 2, "text_short": "한국은행법에"}
        ]}, 
        {"id": 3, "type": "", "number": "singular", "gender": "", "person": "", "animacy": "thing", "mention": [
            {"id": 5, "sent_id": 1, "start_eid": 5, "end_eid": 5, "ne_id": -1, "text": "무자본", "start_eid_short": 5, "end_eid_short": 5, "text_short": "무자본"}
        ]}, 
        {"id": 4, "type": "", "number": "singular", "gender": "", "person": "", "animacy": "thing", "mention": [
            {"id": 7, "sent_id": 1, "start_eid": 7, "end_eid": 18, "ne_id": -1, "text": "일반 금융 기관에 대한 예금ㆍ대출 업무, 발권 업무, 국고 업무, 외국환 업무", "start_eid_short": 17, "end_eid_short": 18, "text_short": "외국환 업무"}
        ]}, 
        {"id": 5, "type": "", "number": "singular", "gender": "", "person": "", "animacy": "thing", "mention": [
            {"id": 9, "sent_id": 1, "start_eid": 7, "end_eid": 8, "ne_id": -1, "text": "일반 금융", "start_eid_short": 7, "end_eid_short": 8, "text_short": "일반 금융"}
        ]}, 
        {"id": 6, "type": "", "number": "singular", "gender": "", "person": "", "animacy": "thing", "mention": [
            {"id": 10, "sent_id": 1, "start_eid": 7, "end_eid": 7, "ne_id": -1, "text": "일반", "start_eid_short": 7, "end_eid_short": 7, "text_short": "일반"}
        ]}, 
        {"id": 7, "type": "", "number": "singular", "gender": "", "person": "", "animacy": "thing", "mention": [
            {"id": 8, "sent_id": 1, "start_eid": 7, "end_eid": 9, "ne_id": -1, "text": "일반 금융 기관에", "start_eid_short": 7, "end_eid_short": 9, "text_short": "일반 금융 기관에"}
        ]}, 
        {"id": 8, "type": "", "number": "singular", "gender": "", "person": "", "animacy": "thing", "mention": [
            {"id": 12, "sent_id": 1, "start_eid": 11, "end_eid": 11, "ne_id": -1, "text": "예금ㆍ대출", "start_eid_short": 11, "end_eid_short": 11, "text_short": "예금ㆍ대출"}
        ]}, 
        {"id": 9, "type": "", "number": "singular", "gender": "", "person": "", "animacy": "thing", "mention": [
            {"id": 14, "sent_id": 1, "start_eid": 13, "end_eid": 13, "ne_id": -1, "text": "발권", "start_eid_short": 13, "end_eid_short": 13, "text_short": "발권"}
        ]}, 
        {"id": 10, "type": "", "number": "singular", "gender": "", "person": "", "animacy": "thing", "mention": [
            {"id": 16, "sent_id": 1, "start_eid": 15, "end_eid": 15, "ne_id": -1, "text": "국고", "start_eid_short": 15, "end_eid_short": 15, "text_short": "국고"}
        ]}, 
        {"id": 11, "type": "", "number": "singular", "gender": "", "person": "", "animacy": "thing", "mention": [
            {"id": 18, "sent_id": 1, "start_eid": 17, "end_eid": 17, "ne_id": -1, "text": "외국환", "start_eid_short": 17, "end_eid_short": 17, "text_short": "외국환"}
        ]}, 
        {"id": 12, "type": "", "number": "singular", "gender": "", "person": "", "animacy": "thing", "mention": [
            {"id": 6, "sent_id": 1, "start_eid": 7, "end_eid": 19, "ne_id": -1, "text": "일반 금융 기관에 대한 예금ㆍ대출 업무, 발권 업무, 국고 업무, 외국환 업무 따위를", "start_eid_short": 17, "end_eid_short": 19, "text_short": "외국환 업무 따위를"}
        ]}, 
        {"id": 13, "type": "", "number": "singular", "gender": "", "person": "", "animacy": "thing", "mention": [
            {"id": 0, "sent_id": 0, "start_eid": 1, "end_eid": 2, "ne_id": -1, "text": "우리나라의 중앙은행.", "start_eid_short": 2, "end_eid_short": 2, "text_short": "중앙은행."}, 
            {"id": 2, "sent_id": 1, "start_eid": 0, "end_eid": 6, "ne_id": -1, "text": "1950년 5월 한국은행법에 의하여 설립된 무자본 특수법인체로,", "start_eid_short": 6, "end_eid_short": 6, "text_short": "특수법인체로,"}
        ]}, 
        {"id": 14, "type": "", "number": "singular", "gender": "", "person": "", "animacy": "thing", "mention": [
            {"id": 11, "sent_id": 1, "start_eid": 11, "end_eid": 12, "ne_id": -1, "text": "예금ㆍ대출 업무,", "start_eid_short": 12, "end_eid_short": 12, "text_short": "업무,"}
        ]}, 
        {"id": 15, "type": "", "number": "singular", "gender": "", "person": "", "animacy": "thing", "mention": [
            {"id": 13, "sent_id": 1, "start_eid": 13, "end_eid": 14, "ne_id": -1, "text": "발권 업무,", "start_eid_short": 13, "end_eid_short": 14, "text_short": "발권 업무,"}
        ]}, 
        {"id": 16, "type": "", "number": "singular", "gender": "", "person": "", "animacy": "thing", "mention": [
            {"id": 15, "sent_id": 1, "start_eid": 15, "end_eid": 16, "ne_id": -1, "text": "국고 업무,", "start_eid_short": 15, "end_eid_short": 16, "text_short": "국고 업무,"}
        ]}, 
        {"id": 17, "type": "", "number": "singular", "gender": "", "person": "", "animacy": "thing", "mention": [
            {"id": 17, "sent_id": 1, "start_eid": 17, "end_eid": 18, "ne_id": -1, "text": "외국환 업무", "start_eid_short": 17, "end_eid_short": 18, "text_short": "외국환 업무"}
        ]}
    ]
}