{
    "doc_id": "E2016.790.24_Q_01.json", 
    "DCT": "", 
    "category": "", 
    "category_weight": 0, 
    "title": {
        "text": "", 
        "NE": ""
    }, 
    "metaInfo": {}, 
    "sentence": [
        {
            "id": 0, 
            "reserve_str": "", 
            "text": "'이탈리아의 대중가요'라고 불리는 3음절의 이것은 멜로디가 밝고 누구나 쉽게 부를 수 있으며, 주로 사랑에 대한 노래가 많은 이것은 무엇일까?", 
            "morp": [
                {"id": 0, "lemma": "'", "type": "SS", "position": 0, "weight": 1}, 
                {"id": 1, "lemma": "이탈리아", "type": "NNP", "position": 1, "weight": 0.9}, 
                {"id": 2, "lemma": "의", "type": "JKG", "position": 13, "weight": 0.0987295}, 
                {"id": 3, "lemma": "대중", "type": "NNG", "position": 17, "weight": 0.868434}, 
                {"id": 4, "lemma": "가요", "type": "NNG", "position": 23, "weight": 0.9}, 
                {"id": 5, "lemma": "'", "type": "SS", "position": 29, "weight": 1}, 
                {"id": 6, "lemma": "라고", "type": "JKQ", "position": 30, "weight": 0.00318431}, 
                {"id": 7, "lemma": "불리", "type": "VV", "position": 37, "weight": 0.837908}, 
                {"id": 8, "lemma": "는", "type": "ETM", "position": 43, "weight": 0.184941}, 
                {"id": 9, "lemma": "3", "type": "SN", "position": 47, "weight": 1}, 
                {"id": 10, "lemma": "음절", "type": "NNG", "position": 48, "weight": 0.9}, 
                {"id": 11, "lemma": "의", "type": "JKG", "position": 54, "weight": 0.0694213}, 
                {"id": 12, "lemma": "이것", "type": "NP", "position": 58, "weight": 0.0030442}, 
                {"id": 13, "lemma": "은", "type": "JX", "position": 64, "weight": 0.191811}, 
                {"id": 14, "lemma": "멜로디", "type": "NNG", "position": 68, "weight": 0.321099}, 
                {"id": 15, "lemma": "가", "type": "JKS", "position": 77, "weight": 0.066324}, 
                {"id": 16, "lemma": "밝", "type": "VA", "position": 81, "weight": 0.224203}, 
                {"id": 17, "lemma": "고", "type": "EC", "position": 84, "weight": 0.310376}, 
                {"id": 18, "lemma": "누구", "type": "NP", "position": 88, "weight": 0.9}, 
                {"id": 19, "lemma": "나", "type": "JX", "position": 94, "weight": 0.0155572}, 
                {"id": 20, "lemma": "쉽", "type": "VA", "position": 98, "weight": 0.9}, 
                {"id": 21, "lemma": "게", "type": "EC", "position": 101, "weight": 0.31879}, 
                {"id": 22, "lemma": "부르", "type": "VV", "position": 105, "weight": 0.222121}, 
                {"id": 23, "lemma": "ㄹ", "type": "ETM", "position": 108, "weight": 0.300746}, 
                {"id": 24, "lemma": "수", "type": "NNB", "position": 112, "weight": 0.215617}, 
                {"id": 25, "lemma": "있", "type": "VA", "position": 116, "weight": 0.0518488}, 
                {"id": 26, "lemma": "으며", "type": "EC", "position": 119, "weight": 0.321076}, 
                {"id": 27, "lemma": ",", "type": "SP", "position": 125, "weight": 1}, 
                {"id": 28, "lemma": "주로", "type": "MAG", "position": 127, "weight": 0.0575914}, 
                {"id": 29, "lemma": "사랑", "type": "NNG", "position": 134, "weight": 0.261216}, 
                {"id": 30, "lemma": "에", "type": "JKB", "position": 140, "weight": 0.153364}, 
                {"id": 31, "lemma": "대하", "type": "VV", "position": 144, "weight": 0.0312871}, 
                {"id": 32, "lemma": "ㄴ", "type": "ETM", "position": 147, "weight": 0.392321}, 
                {"id": 33, "lemma": "노래", "type": "NNG", "position": 151, "weight": 0.9}, 
                {"id": 34, "lemma": "가", "type": "JKS", "position": 157, "weight": 0.066324}, 
                {"id": 35, "lemma": "많", "type": "VA", "position": 161, "weight": 0.249378}, 
                {"id": 36, "lemma": "은", "type": "ETM", "position": 164, "weight": 0.155123}, 
                {"id": 37, "lemma": "이것", "type": "NP", "position": 168, "weight": 0.0102992}, 
                {"id": 38, "lemma": "은", "type": "JX", "position": 174, "weight": 0.191811}, 
                {"id": 39, "lemma": "무엇", "type": "NP", "position": 178, "weight": 0.9}, 
                {"id": 40, "lemma": "이", "type": "VCP", "position": 184, "weight": 0.0175768}, 
                {"id": 41, "lemma": "ㄹ까", "type": "EF", "position": 184, "weight": 0.258243}, 
                {"id": 42, "lemma": "?", "type": "SF", "position": 190, "weight": 1}
            ], 
            "morp_eval": [], 
            "WSD": [
                {"id": 0, "text": "'", "type": "SS", "scode": "000000", "weight": 1, "position": 0, "begin": 0, "end": 0}, 
                {"id": 1, "text": "이탈리아", "type": "NNP", "scode": "000000", "weight": 1, "position": 1, "begin": 1, "end": 1}, 
                {"id": 2, "text": "의", "type": "JKG", "scode": "000000", "weight": 1, "position": 13, "begin": 2, "end": 2}, 
                {"id": 3, "text": "대중가요", "type": "NNG", "scode": "000000", "weight": 1, "position": 17, "begin": 3, "end": 4}, 
                {"id": 4, "text": "'", "type": "SS", "scode": "000000", "weight": 1, "position": 29, "begin": 5, "end": 5}, 
                {"id": 5, "text": "라고", "type": "JKQ", "scode": "000000", "weight": 1, "position": 30, "begin": 6, "end": 6}, 
                {"id": 6, "text": "불리", "type": "VV", "scode": "040300", "weight": 0.0714286, "position": 37, "begin": 7, "end": 7}, 
                {"id": 7, "text": "는", "type": "ETM", "scode": "000000", "weight": 1, "position": 43, "begin": 8, "end": 8}, 
                {"id": 8, "text": "3", "type": "SN", "scode": "000000", "weight": 1, "position": 47, "begin": 9, "end": 9}, 
                {"id": 9, "text": "음절", "type": "NNG", "scode": "000001", "weight": 0.5, "position": 48, "begin": 10, "end": 10}, 
                {"id": 10, "text": "의", "type": "JKG", "scode": "000000", "weight": 1, "position": 54, "begin": 11, "end": 11}, 
                {"id": 11, "text": "이것", "type": "NP", "scode": "000001", "weight": 0.25, "position": 58, "begin": 12, "end": 12}, 
                {"id": 12, "text": "은", "type": "JX", "scode": "000000", "weight": 1, "position": 64, "begin": 13, "end": 13}, 
                {"id": 13, "text": "멜로디", "type": "NNG", "scode": "000000", "weight": 1, "position": 68, "begin": 14, "end": 14}, 
                {"id": 14, "text": "가", "type": "JKS", "scode": "000000", "weight": 1, "position": 77, "begin": 15, "end": 15}, 
                {"id": 15, "text": "밝", "type": "VA", "scode": "000105", "weight": 0.111111, "position": 81, "begin": 16, "end": 16}, 
                {"id": 16, "text": "고", "type": "EC", "scode": "000000", "weight": 1, "position": 84, "begin": 17, "end": 17}, 
                {"id": 17, "text": "누구", "type": "NP", "scode": "000002", "weight": 0.333333, "position": 88, "begin": 18, "end": 18}, 
                {"id": 18, "text": "나", "type": "JX", "scode": "000000", "weight": 1, "position": 94, "begin": 19, "end": 19}, 
                {"id": 19, "text": "쉽", "type": "VA", "scode": "000001", "weight": 0.333333, "position": 98, "begin": 20, "end": 20}, 
                {"id": 20, "text": "게", "type": "EC", "scode": "000000", "weight": 1, "position": 101, "begin": 21, "end": 21}, 
                {"id": 21, "text": "부르", "type": "VV", "scode": "010104", "weight": 0.0714286, "position": 105, "begin": 22, "end": 22}, 
                {"id": 22, "text": "ㄹ", "type": "ETM", "scode": "000000", "weight": 1, "position": 108, "begin": 23, "end": 23}, 
                {"id": 23, "text": "수", "type": "NNB", "scode": "020100", "weight": 0.02, "position": 112, "begin": 24, "end": 24}, 
                {"id": 24, "text": "있", "type": "VA", "scode": "010305", "weight": 0.0416667, "position": 116, "begin": 25, "end": 25}, 
                {"id": 25, "text": "으며", "type": "EC", "scode": "000000", "weight": 1, "position": 119, "begin": 26, "end": 26}, 
                {"id": 26, "text": ",", "type": "SP", "scode": "000000", "weight": 1, "position": 125, "begin": 27, "end": 27}, 
                {"id": 27, "text": "주로", "type": "MAG", "scode": "010000", "weight": 0.142857, "position": 127, "begin": 28, "end": 28}, 
                {"id": 28, "text": "사랑", "type": "NNG", "scode": "010001", "weight": 0.125, "position": 134, "begin": 29, "end": 29}, 
                {"id": 29, "text": "에", "type": "JKB", "scode": "000000", "weight": 1, "position": 140, "begin": 30, "end": 30}, 
                {"id": 30, "text": "대하", "type": "VV", "scode": "020003", "weight": 0.25, "position": 144, "begin": 31, "end": 31}, 
                {"id": 31, "text": "ㄴ", "type": "ETM", "scode": "000000", "weight": 1, "position": 147, "begin": 32, "end": 32}, 
                {"id": 32, "text": "노래", "type": "NNG", "scode": "010001", "weight": 0.125, "position": 151, "begin": 33, "end": 33}, 
                {"id": 33, "text": "가", "type": "JKS", "scode": "000000", "weight": 1, "position": 157, "begin": 34, "end": 34}, 
                {"id": 34, "text": "많", "type": "VA", "scode": "000000", "weight": 1, "position": 161, "begin": 35, "end": 35}, 
                {"id": 35, "text": "은", "type": "ETM", "scode": "000000", "weight": 1, "position": 164, "begin": 36, "end": 36}, 
                {"id": 36, "text": "이것", "type": "NP", "scode": "000001", "weight": 0.25, "position": 168, "begin": 37, "end": 37}, 
                {"id": 37, "text": "은", "type": "JX", "scode": "000000", "weight": 1, "position": 174, "begin": 38, "end": 38}, 
                {"id": 38, "text": "무엇", "type": "NP", "scode": "000001", "weight": 0.5, "position": 178, "begin": 39, "end": 39}, 
                {"id": 39, "text": "이", "type": "VCP", "scode": "030000", "weight": 0.0172414, "position": 184, "begin": 40, "end": 40}, 
                {"id": 40, "text": "ㄹ까", "type": "EF", "scode": "000000", "weight": 1, "position": 184, "begin": 41, "end": 41}, 
                {"id": 41, "text": "?", "type": "SF", "scode": "000000", "weight": 1, "position": 190, "begin": 42, "end": 42}
            ], 
            "word": [
                {"id": 0, "text": "'이탈리아의", "type": "", "begin": 0, "end": 2}, 
                {"id": 1, "text": "대중가요'라고", "type": "", "begin": 3, "end": 6}, 
                {"id": 2, "text": "불리는", "type": "", "begin": 7, "end": 8}, 
                {"id": 3, "text": "3음절의", "type": "", "begin": 9, "end": 11}, 
                {"id": 4, "text": "이것은", "type": "", "begin": 12, "end": 13}, 
                {"id": 5, "text": "멜로디가", "type": "", "begin": 14, "end": 15}, 
                {"id": 6, "text": "밝고", "type": "", "begin": 16, "end": 17}, 
                {"id": 7, "text": "누구나", "type": "", "begin": 18, "end": 19}, 
                {"id": 8, "text": "쉽게", "type": "", "begin": 20, "end": 21}, 
                {"id": 9, "text": "부를", "type": "", "begin": 22, "end": 23}, 
                {"id": 10, "text": "수", "type": "", "begin": 24, "end": 24}, 
                {"id": 11, "text": "있으며,", "type": "", "begin": 25, "end": 27}, 
                {"id": 12, "text": "주로", "type": "", "begin": 28, "end": 28}, 
                {"id": 13, "text": "사랑에", "type": "", "begin": 29, "end": 30}, 
                {"id": 14, "text": "대한", "type": "", "begin": 31, "end": 32}, 
                {"id": 15, "text": "노래가", "type": "", "begin": 33, "end": 34}, 
                {"id": 16, "text": "많은", "type": "", "begin": 35, "end": 36}, 
                {"id": 17, "text": "이것은", "type": "", "begin": 37, "end": 38}, 
                {"id": 18, "text": "무엇일까?", "type": "", "begin": 39, "end": 42}
            ], 
            "NE": [
                {"id": 0, "text": "이탈리아", "type": "LCP_COUNTRY", "begin": 1, "end": 1, "weight": 0.467699, "common_noun": 0}, 
                {"id": 1, "text": "대중가요", "type": "FD_ART", "begin": 3, "end": 4, "weight": 0.588032, "common_noun": 0}, 
                {"id": 2, "text": "3음절", "type": "QT_COUNT", "begin": 9, "end": 10, "weight": 0.445905, "common_noun": 0}
            ], 
            "chunk": [], 
            "dependency": [
                {"id": 0, "text": "'이탈리아의", "head": 1, "label": "NP_MOD", "mod": [], "weight": 0.71926}, 
                {"id": 1, "text": "대중가요'라고", "head": 2, "label": "NP_CMP", "mod": [0], "weight": 0.00609617}, 
                {"id": 2, "text": "불리는", "head": 4, "label": "VP_MOD", "mod": [1], "weight": 0.186006}, 
                {"id": 3, "text": "3음절의", "head": 4, "label": "NP_MOD", "mod": [], "weight": 0.53314}, 
                {"id": 4, "text": "이것은", "head": 6, "label": "NP_SBJ", "mod": [3, 2], "weight": 0.129155}, 
                {"id": 5, "text": "멜로디가", "head": 6, "label": "NP_SBJ", "mod": [], "weight": 0.805542}, 
                {"id": 6, "text": "밝고", "head": 9, "label": "VP", "mod": [4, 5], "weight": 0.751347}, 
                {"id": 7, "text": "누구나", "head": 9, "label": "NP_SBJ", "mod": [], "weight": 0.587977}, 
                {"id": 8, "text": "쉽게", "head": 9, "label": "VP_AJT", "mod": [], "weight": 0.569644}, 
                {"id": 9, "text": "부를", "head": 10, "label": "VP_MOD", "mod": [6, 7, 8], "weight": 0.82955}, 
                {"id": 10, "text": "수", "head": 11, "label": "NP_SBJ", "mod": [9], "weight": 0.873353}, 
                {"id": 11, "text": "있으며,", "head": 16, "label": "VP", "mod": [10], "weight": 0.0766419}, 
                {"id": 12, "text": "주로", "head": 16, "label": "AP", "mod": [], "weight": 0.78704}, 
                {"id": 13, "text": "사랑에", "head": 14, "label": "NP_AJT", "mod": [], "weight": 0.24294}, 
                {"id": 14, "text": "대한", "head": 15, "label": "VP_MOD", "mod": [13], "weight": 0.515108}, 
                {"id": 15, "text": "노래가", "head": 16, "label": "NP_SBJ", "mod": [14], "weight": 0.811489}, 
                {"id": 16, "text": "많은", "head": 17, "label": "VP_MOD", "mod": [11, 12, 15], "weight": 0.790568}, 
                {"id": 17, "text": "이것은", "head": 18, "label": "NP_SBJ", "mod": [16], "weight": 0.739616}, 
                {"id": 18, "text": "무엇일까?", "head": -1, "label": "VNP", "mod": [17], "weight": 2.44969e-08}
            ], 
            "SRL": [
                {"verb": "부르", "sense": 2, "word_id": 2, "weight": 0.132336, "argument": [
                    {"type": "ARG2", "word_id": 1, "text": "대중가요'라고", "weight": 0.132336}, 
                    {"type": "ARG1", "word_id": 4, "text": "이것은", "weight": 1}
                ]}, 
                {"verb": "밝", "sense": 1, "word_id": 6, "weight": 0.223495, "argument": [
                    {"type": "ARG1", "word_id": 5, "text": "멜로디가", "weight": 0.283718}
                ]}, 
                {"verb": "부르", "sense": 1, "word_id": 9, "weight": 0.21256, "argument": [
                    {"type": "ARG0", "word_id": 7, "text": "누구나", "weight": 0.180366}, 
                    {"type": "ARGM-MNR", "word_id": 8, "text": "쉽게", "weight": 0.134939}, 
                    {"type": "AUX", "word_id": 11, "text": "있으며,", "weight": 0.322375}
                ]}, 
                {"verb": "대하", "sense": 1, "word_id": 14, "weight": 0.190966, "argument": [
                    {"type": "ARG2", "word_id": 13, "text": "사랑에", "weight": 0.141102}, 
                    {"type": "ARG1", "word_id": 15, "text": "노래가", "weight": 0.240831}, 
                    {"type": "ARGM-ADV", "word_id": 12, "text": "주로", "weight": 1}
                ]}, 
                {"verb": "많", "sense": 1, "word_id": 16, "weight": 0.182773, "argument": [
                    {"type": "ARG1", "word_id": 15, "text": "노래가", "weight": 1}
                ]}
            ], 
            "relation": [], 
            "SA": [], 
            "ZA": []
        }
    ], 
    "entity": [
        {"id": 0, "type": "FD_ART", "number": "singular", "gender": "", "person": "", "animacy": "thing", "mention": [
            {"id": 0, "sent_id": 0, "start_eid": 0, "end_eid": 1, "ne_id": 1, "text": "'이탈리아의 대중가요'라고", "start_eid_short": 1, "end_eid_short": 1, "text_short": "대중가요'라고"}, 
            {"id": 2, "sent_id": 0, "start_eid": 4, "end_eid": 4, "ne_id": -1, "text": "이것은", "start_eid_short": 4, "end_eid_short": 4, "text_short": "이것은"}, 
            {"id": 6, "sent_id": 0, "start_eid": 17, "end_eid": 17, "ne_id": -1, "text": "이것은", "start_eid_short": 17, "end_eid_short": 17, "text_short": "이것은"}, 
            {"id": 7, "sent_id": 0, "start_eid": 18, "end_eid": 18, "ne_id": -1, "text": "무엇일까?", "start_eid_short": 18, "end_eid_short": 18, "text_short": "무엇일까?"}
        ]}, 
        {"id": 1, "type": "QT_COUNT", "number": "singular", "gender": "", "person": "", "animacy": "thing", "mention": [
            {"id": 1, "sent_id": 0, "start_eid": 3, "end_eid": 3, "ne_id": 2, "text": "3음절의", "start_eid_short": 3, "end_eid_short": 3, "text_short": "3음절의"}
        ]}, 
        {"id": 2, "type": "", "number": "singular", "gender": "", "person": "", "animacy": "thing", "mention": [
            {"id": 3, "sent_id": 0, "start_eid": 5, "end_eid": 5, "ne_id": -1, "text": "멜로디가", "start_eid_short": 5, "end_eid_short": 5, "text_short": "멜로디가"}
        ]}, 
        {"id": 3, "type": "", "number": "singular", "gender": "", "person": "", "animacy": "thing", "mention": [
            {"id": 4, "sent_id": 0, "start_eid": 13, "end_eid": 15, "ne_id": -1, "text": "사랑에 대한 노래가", "start_eid_short": 15, "end_eid_short": 15, "text_short": "노래가"}
        ]}, 
        {"id": 4, "type": "", "number": "singular", "gender": "", "person": "", "animacy": "thing", "mention": [
            {"id": 5, "sent_id": 0, "start_eid": 13, "end_eid": 13, "ne_id": -1, "text": "사랑에", "start_eid_short": 13, "end_eid_short": 13, "text_short": "사랑에"}
        ]}
    ]
}