{
    "doc_id": "E2016.837.11_A_02.json", 
    "DCT": "", 
    "category": "", 
    "category_weight": 0, 
    "title": {
        "text": "달팽이관", 
        "NE": ""
    }, 
    "metaInfo": {}, 
    "sentence": [
        {
            "id": 0, 
            "reserve_str": "", 
            "text": "포유류·조류의 내이에 있는 고둥 모양의 기관이다.", 
            "morp": [
                {"id": 0, "lemma": "포유", "type": "NNG", "position": 0, "weight": 0.5}, 
                {"id": 1, "lemma": "류", "type": "XSN", "position": 6, "weight": 0.0293167}, 
                {"id": 2, "lemma": "·", "type": "SP", "position": 9, "weight": 1}, 
                {"id": 3, "lemma": "조류", "type": "NNG", "position": 11, "weight": 0.530918}, 
                {"id": 4, "lemma": "의", "type": "JKG", "position": 17, "weight": 0.0694213}, 
                {"id": 5, "lemma": "내이", "type": "NNG", "position": 21, "weight": 0.76892}, 
                {"id": 6, "lemma": "에", "type": "JKB", "position": 27, "weight": 0.153364}, 
                {"id": 7, "lemma": "있", "type": "VA", "position": 31, "weight": 0.037292}, 
                {"id": 8, "lemma": "는", "type": "ETM", "position": 34, "weight": 0.26168}, 
                {"id": 9, "lemma": "고둥", "type": "NNG", "position": 38, "weight": 0.9}, 
                {"id": 10, "lemma": "모양", "type": "NNG", "position": 45, "weight": 0.179803}, 
                {"id": 11, "lemma": "의", "type": "JKG", "position": 51, "weight": 0.0694213}, 
                {"id": 12, "lemma": "기관", "type": "NNG", "position": 55, "weight": 0.9}, 
                {"id": 13, "lemma": "이", "type": "VCP", "position": 61, "weight": 0.0177525}, 
                {"id": 14, "lemma": "다", "type": "EF", "position": 64, "weight": 0.353579}, 
                {"id": 15, "lemma": ".", "type": "SF", "position": 67, "weight": 1}
            ], 
            "morp_eval": [], 
            "WSD": [
                {"id": 0, "text": "포유류", "type": "NNG", "scode": "000000", "weight": 1, "position": 0, "begin": 0, "end": 1}, 
                {"id": 1, "text": "·", "type": "SP", "scode": "000000", "weight": 1, "position": 9, "begin": 2, "end": 2}, 
                {"id": 2, "text": "조류", "type": "NNG", "scode": "010000", "weight": 0.25, "position": 11, "begin": 3, "end": 3}, 
                {"id": 3, "text": "의", "type": "JKG", "scode": "000000", "weight": 1, "position": 17, "begin": 4, "end": 4}, 
                {"id": 4, "text": "내이", "type": "NNG", "scode": "010000", "weight": 0.5, "position": 21, "begin": 5, "end": 5}, 
                {"id": 5, "text": "에", "type": "JKB", "scode": "000000", "weight": 1, "position": 27, "begin": 6, "end": 6}, 
                {"id": 6, "text": "있", "type": "VA", "scode": "010301", "weight": 0.0416667, "position": 31, "begin": 7, "end": 7}, 
                {"id": 7, "text": "는", "type": "ETM", "scode": "000000", "weight": 1, "position": 34, "begin": 8, "end": 8}, 
                {"id": 8, "text": "고둥", "type": "NNG", "scode": "000000", "weight": 1, "position": 38, "begin": 9, "end": 9}, 
                {"id": 9, "text": "모양", "type": "NNG", "scode": "020001", "weight": 0.125, "position": 45, "begin": 10, "end": 10}, 
                {"id": 10, "text": "의", "type": "JKG", "scode": "000000", "weight": 1, "position": 51, "begin": 11, "end": 11}, 
                {"id": 11, "text": "기관", "type": "NNG", "scode": "100000", "weight": 0.0666667, "position": 55, "begin": 12, "end": 12}, 
                {"id": 12, "text": "이", "type": "VCP", "scode": "030000", "weight": 0.0172414, "position": 61, "begin": 13, "end": 13}, 
                {"id": 13, "text": "다", "type": "EF", "scode": "000000", "weight": 1, "position": 64, "begin": 14, "end": 14}, 
                {"id": 14, "text": ".", "type": "SF", "scode": "000000", "weight": 1, "position": 67, "begin": 15, "end": 15}
            ], 
            "word": [
                {"id": 0, "text": "포유류·조류의", "type": "", "begin": 0, "end": 4}, 
                {"id": 1, "text": "내이에", "type": "", "begin": 5, "end": 6}, 
                {"id": 2, "text": "있는", "type": "", "begin": 7, "end": 8}, 
                {"id": 3, "text": "고둥", "type": "", "begin": 9, "end": 9}, 
                {"id": 4, "text": "모양의", "type": "", "begin": 10, "end": 11}, 
                {"id": 5, "text": "기관이다.", "type": "", "begin": 12, "end": 15}
            ], 
            "NE": [
                {"id": 0, "text": "포유류", "type": "AM_TYPE", "begin": 0, "end": 1, "weight": 0.738407, "common_noun": 0}, 
                {"id": 1, "text": "조류", "type": "AM_TYPE", "begin": 3, "end": 3, "weight": 0.360769, "common_noun": 0}, 
                {"id": 2, "text": "내이", "type": "TM_CELL_TISSUE", "begin": 5, "end": 5, "weight": 0.410219, "common_noun": 0}, 
                {"id": 3, "text": "고둥", "type": "AM_OTHERS", "begin": 9, "end": 9, "weight": 0.298518, "common_noun": 0}
            ], 
            "chunk": [], 
            "dependency": [
                {"id": 0, "text": "포유류·조류의", "head": 1, "label": "NP_MOD", "mod": [], "weight": 0.778914}, 
                {"id": 1, "text": "내이에", "head": 2, "label": "NP_AJT", "mod": [0], "weight": 0.815667}, 
                {"id": 2, "text": "있는", "head": 5, "label": "VP_MOD", "mod": [1], "weight": 0.75517}, 
                {"id": 3, "text": "고둥", "head": 4, "label": "NP", "mod": [], "weight": 0.646175}, 
                {"id": 4, "text": "모양의", "head": 5, "label": "NP_MOD", "mod": [3], "weight": 0.793717}, 
                {"id": 5, "text": "기관이다.", "head": -1, "label": "VNP", "mod": [2, 4], "weight": 0.21916}
            ], 
            "SRL": [
                {"verb": "있", "sense": 1, "word_id": 2, "weight": 0.209533, "argument": [
                    {"type": "ARG2", "word_id": 1, "text": "내이에", "weight": 0.197811}, 
                    {"type": "ARG1", "word_id": 5, "text": "기관이다.", "weight": 0.221255}
                ]}
            ], 
            "relation": [], 
            "SA": [], 
            "ZA": []
        }, 
        {
            "id": 1, 
            "reserve_str": "", 
            "text": "중앙에 있는 방을 달팽이 세관이라고 하는데 이것은 청각의 중심이 된다.", 
            "morp": [
                {"id": 0, "lemma": "중앙", "type": "NNG", "position": 68, "weight": 0.429318}, 
                {"id": 1, "lemma": "에", "type": "JKB", "position": 74, "weight": 0.153364}, 
                {"id": 2, "lemma": "있", "type": "VA", "position": 78, "weight": 0.037292}, 
                {"id": 3, "lemma": "는", "type": "ETM", "position": 81, "weight": 0.26168}, 
                {"id": 4, "lemma": "방", "type": "NNG", "position": 85, "weight": 0.641993}, 
                {"id": 5, "lemma": "을", "type": "JKO", "position": 88, "weight": 0.129611}, 
                {"id": 6, "lemma": "달팽이", "type": "NNG", "position": 92, "weight": 0.9}, 
                {"id": 7, "lemma": "세관", "type": "NNG", "position": 102, "weight": 0.9}, 
                {"id": 8, "lemma": "이", "type": "VCP", "position": 108, "weight": 0.0177525}, 
                {"id": 9, "lemma": "라고", "type": "EC", "position": 111, "weight": 0.204147}, 
                {"id": 10, "lemma": "하", "type": "VV", "position": 118, "weight": 0.140183}, 
                {"id": 11, "lemma": "는데", "type": "EC", "position": 121, "weight": 0.410685}, 
                {"id": 12, "lemma": "이것", "type": "NP", "position": 128, "weight": 0.0259829}, 
                {"id": 13, "lemma": "은", "type": "JX", "position": 134, "weight": 0.191811}, 
                {"id": 14, "lemma": "청각", "type": "NNG", "position": 138, "weight": 0.9}, 
                {"id": 15, "lemma": "의", "type": "JKG", "position": 144, "weight": 0.0694213}, 
                {"id": 16, "lemma": "중심", "type": "NNG", "position": 148, "weight": 0.9}, 
                {"id": 17, "lemma": "이", "type": "JKC", "position": 154, "weight": 0.000287945}, 
                {"id": 18, "lemma": "되", "type": "VV", "position": 158, "weight": 0.542406}, 
                {"id": 19, "lemma": "ㄴ다", "type": "EF", "position": 158, "weight": 0.0793196}, 
                {"id": 20, "lemma": ".", "type": "SF", "position": 164, "weight": 1}
            ], 
            "morp_eval": [], 
            "WSD": [
                {"id": 0, "text": "중앙", "type": "NNG", "scode": "010001", "weight": 0.2, "position": 68, "begin": 0, "end": 0}, 
                {"id": 1, "text": "에", "type": "JKB", "scode": "000000", "weight": 1, "position": 74, "begin": 1, "end": 1}, 
                {"id": 2, "text": "있", "type": "VA", "scode": "010301", "weight": 0.0416667, "position": 78, "begin": 2, "end": 2}, 
                {"id": 3, "text": "는", "type": "ETM", "scode": "000000", "weight": 1, "position": 81, "begin": 3, "end": 3}, 
                {"id": 4, "text": "방", "type": "NNG", "scode": "888888", "weight": 0.0357143, "position": 85, "begin": 4, "end": 4}, 
                {"id": 5, "text": "을", "type": "JKO", "scode": "000000", "weight": 1, "position": 88, "begin": 5, "end": 5}, 
                {"id": 6, "text": "달팽이", "type": "NNG", "scode": "000001", "weight": 0.5, "position": 92, "begin": 6, "end": 6}, 
                {"id": 7, "text": "세관", "type": "NNG", "scode": "030000", "weight": 0.2, "position": 102, "begin": 7, "end": 7}, 
                {"id": 8, "text": "이", "type": "VCP", "scode": "030000", "weight": 0.0172414, "position": 108, "begin": 8, "end": 8}, 
                {"id": 9, "text": "라고", "type": "EC", "scode": "000000", "weight": 1, "position": 111, "begin": 9, "end": 9}, 
                {"id": 10, "text": "하", "type": "VV", "scode": "010400", "weight": 0.02, "position": 118, "begin": 10, "end": 10}, 
                {"id": 11, "text": "는데", "type": "EC", "scode": "000000", "weight": 1, "position": 121, "begin": 11, "end": 11}, 
                {"id": 12, "text": "이것", "type": "NP", "scode": "000001", "weight": 0.25, "position": 128, "begin": 12, "end": 12}, 
                {"id": 13, "text": "은", "type": "JX", "scode": "000000", "weight": 1, "position": 134, "begin": 13, "end": 13}, 
                {"id": 14, "text": "청각", "type": "NNG", "scode": "020000", "weight": 0.5, "position": 138, "begin": 14, "end": 14}, 
                {"id": 15, "text": "의", "type": "JKG", "scode": "000000", "weight": 1, "position": 144, "begin": 15, "end": 15}, 
                {"id": 16, "text": "중심", "type": "NNG", "scode": "010002", "weight": 0.125, "position": 148, "begin": 16, "end": 16}, 
                {"id": 17, "text": "이", "type": "JKC", "scode": "000000", "weight": 1, "position": 154, "begin": 17, "end": 17}, 
                {"id": 18, "text": "되", "type": "VV", "scode": "010202", "weight": 0.03125, "position": 158, "begin": 18, "end": 18}, 
                {"id": 19, "text": "ㄴ다", "type": "EF", "scode": "000000", "weight": 1, "position": 158, "begin": 19, "end": 19}, 
                {"id": 20, "text": ".", "type": "SF", "scode": "000000", "weight": 1, "position": 164, "begin": 20, "end": 20}
            ], 
            "word": [
                {"id": 0, "text": "중앙에", "type": "", "begin": 0, "end": 1}, 
                {"id": 1, "text": "있는", "type": "", "begin": 2, "end": 3}, 
                {"id": 2, "text": "방을", "type": "", "begin": 4, "end": 5}, 
                {"id": 3, "text": "달팽이", "type": "", "begin": 6, "end": 6}, 
                {"id": 4, "text": "세관이라고", "type": "", "begin": 7, "end": 9}, 
                {"id": 5, "text": "하는데", "type": "", "begin": 10, "end": 11}, 
                {"id": 6, "text": "이것은", "type": "", "begin": 12, "end": 13}, 
                {"id": 7, "text": "청각의", "type": "", "begin": 14, "end": 15}, 
                {"id": 8, "text": "중심이", "type": "", "begin": 16, "end": 17}, 
                {"id": 9, "text": "된다.", "type": "", "begin": 18, "end": 20}
            ], 
            "NE": [
                {"id": 0, "text": "중앙", "type": "TM_DIRECTION", "begin": 0, "end": 0, "weight": 0.366266, "common_noun": 0}, 
                {"id": 1, "text": "달팽이 세관", "type": "TM_CELL_TISSUE", "begin": 6, "end": 7, "weight": 0.367761, "common_noun": 0}
            ], 
            "chunk": [], 
            "dependency": [
                {"id": 0, "text": "중앙에", "head": 1, "label": "NP_AJT", "mod": [], "weight": 0.707058}, 
                {"id": 1, "text": "있는", "head": 2, "label": "VP_MOD", "mod": [0], "weight": 0.80795}, 
                {"id": 2, "text": "방을", "head": 4, "label": "NP_OBJ", "mod": [1], "weight": 0.803105}, 
                {"id": 3, "text": "달팽이", "head": 4, "label": "NP", "mod": [], "weight": 0.759369}, 
                {"id": 4, "text": "세관이라고", "head": 5, "label": "VNP_CMP", "mod": [2, 3], "weight": 0.462784}, 
                {"id": 5, "text": "하는데", "head": 9, "label": "VP", "mod": [4], "weight": 0.784648}, 
                {"id": 6, "text": "이것은", "head": 9, "label": "NP_SBJ", "mod": [], "weight": 0.747115}, 
                {"id": 7, "text": "청각의", "head": 8, "label": "NP_MOD", "mod": [], "weight": 0.763128}, 
                {"id": 8, "text": "중심이", "head": 9, "label": "NP_CMP", "mod": [7], "weight": 0.795914}, 
                {"id": 9, "text": "된다.", "head": -1, "label": "VP", "mod": [5, 6, 8], "weight": 0.0451548}
            ], 
            "SRL": [
                {"verb": "있", "sense": 1, "word_id": 1, "weight": 0.225284, "argument": [
                    {"type": "ARG2", "word_id": 0, "text": "중앙에", "weight": 0.251184}, 
                    {"type": "ARG1", "word_id": 2, "text": "방을", "weight": 0.199384}
                ]}, 
                {"verb": "하", "sense": 2, "word_id": 5, "weight": 0.127837, "argument": [
                    {"type": "ARG2", "word_id": 4, "text": "세관이라고", "weight": 0.127837}, 
                    {"type": "ARG1", "word_id": 2, "text": "방을", "weight": 1}
                ]}, 
                {"verb": "되", "sense": 1, "word_id": 9, "weight": 0.330596, "argument": [
                    {"type": "ARG1", "word_id": 6, "text": "이것은", "weight": 0.255094}, 
                    {"type": "ARG2", "word_id": 8, "text": "중심이", "weight": 0.406098}
                ]}
            ], 
            "relation": [], 
            "SA": [], 
            "ZA": []
        }, 
        {
            "id": 2, 
            "reserve_str": "", 
            "text": "와우관이라고도 한다.", 
            "morp": [
                {"id": 0, "lemma": "와우", "type": "NNG", "position": 165, "weight": 0.012757}, 
                {"id": 1, "lemma": "관", "type": "XSN", "position": 171, "weight": 0.00571598}, 
                {"id": 2, "lemma": "이", "type": "VCP", "position": 174, "weight": 0.0165001}, 
                {"id": 3, "lemma": "라고", "type": "EC", "position": 177, "weight": 0.204147}, 
                {"id": 4, "lemma": "도", "type": "JX", "position": 183, "weight": 0.0271372}, 
                {"id": 5, "lemma": "하", "type": "VV", "position": 187, "weight": 0.0910671}, 
                {"id": 6, "lemma": "ㄴ다", "type": "EF", "position": 187, "weight": 0.0793196}, 
                {"id": 7, "lemma": ".", "type": "SF", "position": 193, "weight": 1}
            ], 
            "morp_eval": [], 
            "WSD": [
                {"id": 0, "text": "와우관", "type": "NNG", "scode": "000000", "weight": 1, "position": 165, "begin": 0, "end": 1}, 
                {"id": 1, "text": "이", "type": "VCP", "scode": "030000", "weight": 0.0172414, "position": 174, "begin": 2, "end": 2}, 
                {"id": 2, "text": "라고", "type": "EC", "scode": "000000", "weight": 1, "position": 177, "begin": 3, "end": 3}, 
                {"id": 3, "text": "도", "type": "JX", "scode": "000000", "weight": 1, "position": 183, "begin": 4, "end": 4}, 
                {"id": 4, "text": "하", "type": "VV", "scode": "010400", "weight": 0.02, "position": 187, "begin": 5, "end": 5}, 
                {"id": 5, "text": "ㄴ다", "type": "EF", "scode": "000000", "weight": 1, "position": 187, "begin": 6, "end": 6}, 
                {"id": 6, "text": ".", "type": "SF", "scode": "000000", "weight": 1, "position": 193, "begin": 7, "end": 7}
            ], 
            "word": [
                {"id": 0, "text": "와우관이라고도", "type": "", "begin": 0, "end": 4}, 
                {"id": 1, "text": "한다.", "type": "", "begin": 5, "end": 7}
            ], 
            "NE": [
                {"id": 0, "text": "와우관", "type": "TM_CELL_TISSUE", "begin": 0, "end": 1, "weight": 0.0948819, "common_noun": 0}
            ], 
            "chunk": [], 
            "dependency": [
                {"id": 0, "text": "와우관이라고도", "head": 1, "label": "VNP_CMP", "mod": [], "weight": 0.657578}, 
                {"id": 1, "text": "한다.", "head": -1, "label": "VP", "mod": [0], "weight": 0.515507}
            ], 
            "SRL": [
                {"verb": "하", "sense": 2, "word_id": 1, "weight": 0.1627, "argument": [
                    {"type": "ARG2", "word_id": 0, "text": "와우관이라고도", "weight": 0.1627}
                ]}
            ], 
            "relation": [], 
            "SA": [], 
            "ZA": []
        }
    ], 
    "entity": [
        {"id": 0, "type": "TM_CELL_TISSUE", "number": "singular", "gender": "", "person": "", "animacy": "thing", "mention": [
            {"id": 1, "sent_id": 0, "start_eid": 0, "end_eid": 1, "ne_id": 2, "text": "포유류·조류의 내이에", "start_eid_short": 1, "end_eid_short": 1, "text_short": "내이에"}
        ]}, 
        {"id": 1, "type": "", "number": "singular", "gender": "", "person": "", "animacy": "thing", "mention": [
            {"id": 0, "sent_id": 0, "start_eid": 0, "end_eid": 5, "ne_id": -1, "text": "포유류·조류의 내이에 있는 고둥 모양의 기관이다.", "start_eid_short": 5, "end_eid_short": 5, "text_short": "기관이다."}, 
            {"id": 5, "sent_id": 1, "start_eid": 0, "end_eid": 2, "ne_id": -1, "text": "중앙에 있는 방을", "start_eid_short": 2, "end_eid_short": 2, "text_short": "방을"}, 
            {"id": 7, "sent_id": 1, "start_eid": 3, "end_eid": 4, "ne_id": -1, "text": "달팽이 세관이라고", "start_eid_short": 4, "end_eid_short": 4, "text_short": "세관이라고"}, 
            {"id": 9, "sent_id": 1, "start_eid": 6, "end_eid": 6, "ne_id": -1, "text": "이것은", "start_eid_short": 6, "end_eid_short": 6, "text_short": "이것은"}, 
            {"id": 10, "sent_id": 1, "start_eid": 7, "end_eid": 8, "ne_id": -1, "text": "청각의 중심이", "start_eid_short": 8, "end_eid_short": 8, "text_short": "중심이"}, 
            {"id": 12, "sent_id": 2, "start_eid": 0, "end_eid": 0, "ne_id": -1, "text": "와우관이라고도", "start_eid_short": 0, "end_eid_short": 0, "text_short": "와우관이라고도"}
        ]}, 
        {"id": 2, "type": "", "number": "singular", "gender": "", "person": "", "animacy": "thing", "mention": [
            {"id": 3, "sent_id": 0, "start_eid": 3, "end_eid": 4, "ne_id": -1, "text": "고둥 모양의", "start_eid_short": 3, "end_eid_short": 4, "text_short": "고둥 모양의"}
        ]}, 
        {"id": 3, "type": "AM_OTHERS", "number": "singular", "gender": "", "person": "", "animacy": "animal", "mention": [
            {"id": 4, "sent_id": 0, "start_eid": 3, "end_eid": 3, "ne_id": 3, "text": "고둥", "start_eid_short": 3, "end_eid_short": 3, "text_short": "고둥"}
        ]}, 
        {"id": 4, "type": "", "number": "singular", "gender": "", "person": "", "animacy": "thing", "mention": [
            {"id": 6, "sent_id": 1, "start_eid": 0, "end_eid": 0, "ne_id": -1, "text": "중앙에", "start_eid_short": 0, "end_eid_short": 0, "text_short": "중앙에"}
        ]}, 
        {"id": 5, "type": "AM_OTHERS", "number": "singular", "gender": "", "person": "", "animacy": "animal", "mention": [
            {"id": 8, "sent_id": 1, "start_eid": 3, "end_eid": 3, "ne_id": 0, "text": "달팽이", "start_eid_short": 3, "end_eid_short": 3, "text_short": "달팽이"}
        ]}, 
        {"id": 6, "type": "", "number": "singular", "gender": "", "person": "", "animacy": "thing", "mention": [
            {"id": 11, "sent_id": 1, "start_eid": 7, "end_eid": 7, "ne_id": -1, "text": "청각의", "start_eid_short": 7, "end_eid_short": 7, "text_short": "청각의"}
        ]}, 
        {"id": 7, "type": "AM_TYPE", "number": "singular", "gender": "", "person": "", "animacy": "animal", "mention": [
            {"id": 2, "sent_id": 0, "start_eid": 0, "end_eid": 0, "ne_id": 0, "text": "포유류·조류의", "start_eid_short": 0, "end_eid_short": 0, "text_short": "포유류·조류의"}
        ]}
    ]
}