{
    "doc_id": "E2016.837.29_A_01.json", 
    "DCT": "", 
    "category": "", 
    "category_weight": 0, 
    "title": {
        "text": "복룡봉추", 
        "NE": ""
    }, 
    "metaInfo": {}, 
    "sentence": [
        {
            "id": 0, 
            "reserve_str": "", 
            "text": "엎드려 있는 용과 봉황의 새끼라는 뜻으로, 초야에 숨어 있는 훌륭한 인재를 이르는 말.", 
            "morp": [
                {"id": 0, "lemma": "엎드리", "type": "VV", "position": 0, "weight": 0.9}, 
                {"id": 1, "lemma": "어", "type": "EC", "position": 6, "weight": 0.41831}, 
                {"id": 2, "lemma": "있", "type": "VX", "position": 10, "weight": 0.125953}, 
                {"id": 3, "lemma": "는", "type": "ETM", "position": 13, "weight": 0.183966}, 
                {"id": 4, "lemma": "용", "type": "NNG", "position": 17, "weight": 0.0724547}, 
                {"id": 5, "lemma": "과", "type": "JC", "position": 20, "weight": 0.017569}, 
                {"id": 6, "lemma": "봉황", "type": "NNG", "position": 24, "weight": 0.9}, 
                {"id": 7, "lemma": "의", "type": "JKG", "position": 30, "weight": 0.0694213}, 
                {"id": 8, "lemma": "새끼", "type": "NNG", "position": 34, "weight": 0.869281}, 
                {"id": 9, "lemma": "이", "type": "VCP", "position": 37, "weight": 0.0177525}, 
                {"id": 10, "lemma": "라는", "type": "ETM", "position": 40, "weight": 0.230361}, 
                {"id": 11, "lemma": "뜻", "type": "NNG", "position": 47, "weight": 0.9}, 
                {"id": 12, "lemma": "으로", "type": "JKB", "position": 50, "weight": 0.153406}, 
                {"id": 13, "lemma": ",", "type": "SP", "position": 56, "weight": 1}, 
                {"id": 14, "lemma": "초야", "type": "NNG", "position": 58, "weight": 0.9}, 
                {"id": 15, "lemma": "에", "type": "JKB", "position": 64, "weight": 0.153364}, 
                {"id": 16, "lemma": "숨", "type": "VV", "position": 68, "weight": 0.156007}, 
                {"id": 17, "lemma": "어", "type": "EC", "position": 71, "weight": 0.41831}, 
                {"id": 18, "lemma": "있", "type": "VX", "position": 75, "weight": 0.125953}, 
                {"id": 19, "lemma": "는", "type": "ETM", "position": 78, "weight": 0.183966}, 
                {"id": 20, "lemma": "훌륭하", "type": "VA", "position": 82, "weight": 0.9}, 
                {"id": 21, "lemma": "ㄴ", "type": "ETM", "position": 88, "weight": 0.430446}, 
                {"id": 22, "lemma": "인재", "type": "NNG", "position": 92, "weight": 0.618911}, 
                {"id": 23, "lemma": "를", "type": "JKO", "position": 98, "weight": 0.137686}, 
                {"id": 24, "lemma": "이르", "type": "VV", "position": 102, "weight": 0.760305}, 
                {"id": 25, "lemma": "는", "type": "ETM", "position": 108, "weight": 0.184941}, 
                {"id": 26, "lemma": "말", "type": "NNG", "position": 112, "weight": 0.528926}, 
                {"id": 27, "lemma": ".", "type": "SF", "position": 115, "weight": 1}
            ], 
            "morp_eval": [], 
            "WSD": [
                {"id": 0, "text": "엎드리", "type": "VV", "scode": "000001", "weight": 0.333333, "position": 0, "begin": 0, "end": 0}, 
                {"id": 1, "text": "어", "type": "EC", "scode": "000000", "weight": 1, "position": 6, "begin": 1, "end": 1}, 
                {"id": 2, "text": "있", "type": "VX", "scode": "010901", "weight": 0.0416667, "position": 10, "begin": 2, "end": 2}, 
                {"id": 3, "text": "는", "type": "ETM", "scode": "000000", "weight": 1, "position": 13, "begin": 3, "end": 3}, 
                {"id": 4, "text": "용", "type": "NNG", "scode": "090000", "weight": 0.0909091, "position": 17, "begin": 4, "end": 4}, 
                {"id": 5, "text": "과", "type": "JC", "scode": "000000", "weight": 1, "position": 20, "begin": 5, "end": 5}, 
                {"id": 6, "text": "봉황", "type": "NNG", "scode": "000000", "weight": 1, "position": 24, "begin": 6, "end": 6}, 
                {"id": 7, "text": "의", "type": "JKG", "scode": "000000", "weight": 1, "position": 30, "begin": 7, "end": 7}, 
                {"id": 8, "text": "새끼", "type": "NNG", "scode": "020001", "weight": 0.25, "position": 34, "begin": 8, "end": 8}, 
                {"id": 9, "text": "이", "type": "VCP", "scode": "030000", "weight": 0.0172414, "position": 37, "begin": 9, "end": 9}, 
                {"id": 10, "text": "라는", "type": "ETM", "scode": "000000", "weight": 1, "position": 40, "begin": 10, "end": 10}, 
                {"id": 11, "text": "뜻", "type": "NNG", "scode": "000002", "weight": 0.333333, "position": 47, "begin": 11, "end": 11}, 
                {"id": 12, "text": "으로", "type": "JKB", "scode": "000000", "weight": 1, "position": 50, "begin": 12, "end": 12}, 
                {"id": 13, "text": ",", "type": "SP", "scode": "000000", "weight": 1, "position": 56, "begin": 13, "end": 13}, 
                {"id": 14, "text": "초야", "type": "NNG", "scode": "030001", "weight": 0.166667, "position": 58, "begin": 14, "end": 14}, 
                {"id": 15, "text": "에", "type": "JKB", "scode": "000000", "weight": 1, "position": 64, "begin": 15, "end": 15}, 
                {"id": 16, "text": "숨", "type": "VV", "scode": "010001", "weight": 0.333333, "position": 68, "begin": 16, "end": 16}, 
                {"id": 17, "text": "어", "type": "EC", "scode": "000000", "weight": 1, "position": 71, "begin": 17, "end": 17}, 
                {"id": 18, "text": "있", "type": "VX", "scode": "010901", "weight": 0.0416667, "position": 75, "begin": 18, "end": 18}, 
                {"id": 19, "text": "는", "type": "ETM", "scode": "000000", "weight": 1, "position": 78, "begin": 19, "end": 19}, 
                {"id": 20, "text": "훌륭하", "type": "VA", "scode": "000000", "weight": 1, "position": 82, "begin": 20, "end": 20}, 
                {"id": 21, "text": "ㄴ", "type": "ETM", "scode": "000000", "weight": 1, "position": 88, "begin": 21, "end": 21}, 
                {"id": 22, "text": "인재", "type": "NNG", "scode": "020000", "weight": 0.25, "position": 92, "begin": 22, "end": 22}, 
                {"id": 23, "text": "를", "type": "JKO", "scode": "000000", "weight": 1, "position": 98, "begin": 23, "end": 23}, 
                {"id": 24, "text": "이르", "type": "VV", "scode": "020200", "weight": 0.1, "position": 102, "begin": 24, "end": 24}, 
                {"id": 25, "text": "는", "type": "ETM", "scode": "000000", "weight": 1, "position": 108, "begin": 25, "end": 25}, 
                {"id": 26, "text": "말", "type": "NNG", "scode": "010004", "weight": 0.0384615, "position": 112, "begin": 26, "end": 26}, 
                {"id": 27, "text": ".", "type": "SF", "scode": "000000", "weight": 1, "position": 115, "begin": 27, "end": 27}
            ], 
            "word": [
                {"id": 0, "text": "엎드려", "type": "", "begin": 0, "end": 1}, 
                {"id": 1, "text": "있는", "type": "", "begin": 2, "end": 3}, 
                {"id": 2, "text": "용과", "type": "", "begin": 4, "end": 5}, 
                {"id": 3, "text": "봉황의", "type": "", "begin": 6, "end": 7}, 
                {"id": 4, "text": "새끼라는", "type": "", "begin": 8, "end": 10}, 
                {"id": 5, "text": "뜻으로,", "type": "", "begin": 11, "end": 13}, 
                {"id": 6, "text": "초야에", "type": "", "begin": 14, "end": 15}, 
                {"id": 7, "text": "숨어", "type": "", "begin": 16, "end": 17}, 
                {"id": 8, "text": "있는", "type": "", "begin": 18, "end": 19}, 
                {"id": 9, "text": "훌륭한", "type": "", "begin": 20, "end": 21}, 
                {"id": 10, "text": "인재를", "type": "", "begin": 22, "end": 23}, 
                {"id": 11, "text": "이르는", "type": "", "begin": 24, "end": 25}, 
                {"id": 12, "text": "말.", "type": "", "begin": 26, "end": 27}
            ], 
            "NE": [
                {"id": 0, "text": "용", "type": "AM_REPTILIA", "begin": 4, "end": 4, "weight": 0.278262, "common_noun": 0}, 
                {"id": 1, "text": "봉황", "type": "AM_BIRD", "begin": 6, "end": 6, "weight": 0.672496, "common_noun": 0}, 
                {"id": 2, "text": "새끼", "type": "CV_RELATION", "begin": 8, "end": 8, "weight": 0.234508, "common_noun": 0}
            ], 
            "chunk": [], 
            "dependency": [
                {"id": 0, "text": "엎드려", "head": 1, "label": "VP", "mod": [], "weight": 0.811849}, 
                {"id": 1, "text": "있는", "head": 3, "label": "VP_MOD", "mod": [0], "weight": 0.491318}, 
                {"id": 2, "text": "용과", "head": 3, "label": "NP_CNJ", "mod": [], "weight": 0.455692}, 
                {"id": 3, "text": "봉황의", "head": 4, "label": "NP_MOD", "mod": [2, 1], "weight": 0.863808}, 
                {"id": 4, "text": "새끼라는", "head": 5, "label": "VNP_MOD", "mod": [3], "weight": 0.618548}, 
                {"id": 5, "text": "뜻으로,", "head": 12, "label": "NP_AJT", "mod": [4], "weight": 0.834328}, 
                {"id": 6, "text": "초야에", "head": 7, "label": "NP_AJT", "mod": [], "weight": 0.773668}, 
                {"id": 7, "text": "숨어", "head": 8, "label": "VP", "mod": [6], "weight": 0.822699}, 
                {"id": 8, "text": "있는", "head": 10, "label": "VP_MOD", "mod": [7], "weight": 0.480758}, 
                {"id": 9, "text": "훌륭한", "head": 10, "label": "VP_MOD", "mod": [], "weight": 0.694596}, 
                {"id": 10, "text": "인재를", "head": 11, "label": "NP_OBJ", "mod": [8, 9], "weight": 0.815192}, 
                {"id": 11, "text": "이르는", "head": 12, "label": "VP_MOD", "mod": [10], "weight": 0.84377}, 
                {"id": 12, "text": "말.", "head": -1, "label": "NP", "mod": [5, 11], "weight": 0.00944033}
            ], 
            "SRL": [
                {"verb": "엎드리", "sense": 1, "word_id": 0, "weight": 0.286796, "argument": [
                    {"type": "AUX", "word_id": 1, "text": "있는", "weight": 0.383231}, 
                    {"type": "ARG0", "word_id": 3, "text": "봉황의", "weight": 1}
                ]}, 
                {"verb": "숨", "sense": 1, "word_id": 7, "weight": 0.189476, "argument": [
                    {"type": "ARG2", "word_id": 6, "text": "초야에", "weight": 0.0919068}, 
                    {"type": "AUX", "word_id": 8, "text": "있는", "weight": 0.287045}, 
                    {"type": "ARG0", "word_id": 10, "text": "인재를", "weight": 1}
                ]}, 
                {"verb": "훌륭하", "sense": 1, "word_id": 9, "weight": 0.31661, "argument": [
                    {"type": "ARG1", "word_id": 10, "text": "인재를", "weight": 0.31661}
                ]}, 
                {"verb": "이르", "sense": 4, "word_id": 11, "weight": 0.233098, "argument": [
                    {"type": "ARG1", "word_id": 10, "text": "인재를", "weight": 0.294302}, 
                    {"type": "ARGM-PRD", "word_id": 5, "text": "뜻으로,", "weight": 1}
                ]}
            ], 
            "relation": [], 
            "SA": [], 
            "ZA": []
        }
    ], 
    "entity": [
        {"id": 0, "type": "AM_BIRD", "number": "singular", "gender": "", "person": "", "animacy": "animal", "mention": [
            {"id": 3, "sent_id": 0, "start_eid": 3, "end_eid": 3, "ne_id": 0, "text": "봉황의", "start_eid_short": 3, "end_eid_short": 3, "text_short": "봉황의"}
        ]}, 
        {"id": 1, "type": "", "number": "singular", "gender": "", "person": "", "animacy": "thing", "mention": [
            {"id": 1, "sent_id": 0, "start_eid": 2, "end_eid": 2, "ne_id": -1, "text": "용과", "start_eid_short": 2, "end_eid_short": 2, "text_short": "용과"}
        ]}, 
        {"id": 2, "type": "", "number": "singular", "gender": "", "person": "", "animacy": "thing", "mention": [
            {"id": 0, "sent_id": 0, "start_eid": 0, "end_eid": 5, "ne_id": -1, "text": "엎드려 있는 용과 봉황의 새끼라는 뜻으로,", "start_eid_short": 5, "end_eid_short": 5, "text_short": "뜻으로,"}, 
            {"id": 4, "sent_id": 0, "start_eid": 6, "end_eid": 12, "ne_id": -1, "text": "초야에 숨어 있는 훌륭한 인재를 이르는 말.", "start_eid_short": 12, "end_eid_short": 12, "text_short": "말."}, 
            {"id": 5, "sent_id": 0, "start_eid": 6, "end_eid": 10, "ne_id": -1, "text": "초야에 숨어 있는 훌륭한 인재를", "start_eid_short": 10, "end_eid_short": 10, "text_short": "인재를"}
        ]}, 
        {"id": 3, "type": "CV_RELATION", "number": "singular", "gender": "", "person": "", "animacy": "human", "mention": [
            {"id": 2, "sent_id": 0, "start_eid": 3, "end_eid": 4, "ne_id": 1, "text": "봉황의 새끼라는", "start_eid_short": 4, "end_eid_short": 4, "text_short": "새끼라는"}
        ]}, 
        {"id": 4, "type": "", "number": "singular", "gender": "", "person": "", "animacy": "thing", "mention": [
            {"id": 6, "sent_id": 0, "start_eid": 6, "end_eid": 6, "ne_id": -1, "text": "초야에", "start_eid_short": 6, "end_eid_short": 6, "text_short": "초야에"}
        ]}
    ]
}