{
    "doc_id": "E2016.835.19_A_01.json", 
    "DCT": "", 
    "category": "", 
    "category_weight": 0, 
    "title": {
        "text": "워털루 전투", 
        "NE": ""
    }, 
    "metaInfo": {}, 
    "sentence": [
        {
            "id": 0, 
            "reserve_str": "", 
            "text": "1813년 라이프치히 전투에서 패배한 나폴레옹은 다음 해 4월에 폐위되어 엘바섬으로 추방되었다.", 
            "morp": [
                {"id": 0, "lemma": "1813", "type": "SN", "position": 0, "weight": 1}, 
                {"id": 1, "lemma": "년", "type": "NNB", "position": 4, "weight": 0.414343}, 
                {"id": 2, "lemma": "라이프치히", "type": "NNP", "position": 8, "weight": 0.9}, 
                {"id": 3, "lemma": "전투", "type": "NNG", "position": 24, "weight": 0.9}, 
                {"id": 4, "lemma": "에서", "type": "JKB", "position": 30, "weight": 0.153407}, 
                {"id": 5, "lemma": "패배", "type": "NNG", "position": 37, "weight": 0.9}, 
                {"id": 6, "lemma": "하", "type": "XSV", "position": 43, "weight": 0.0001}, 
                {"id": 7, "lemma": "ㄴ", "type": "ETM", "position": 43, "weight": 0.392321}, 
                {"id": 8, "lemma": "나폴레옹", "type": "NNP", "position": 47, "weight": 0.0279625}, 
                {"id": 9, "lemma": "은", "type": "JX", "position": 59, "weight": 0.0520511}, 
                {"id": 10, "lemma": "다음", "type": "NNG", "position": 63, "weight": 0.32474}, 
                {"id": 11, "lemma": "해", "type": "NNG", "position": 70, "weight": 0.0001}, 
                {"id": 12, "lemma": "4", "type": "SN", "position": 74, "weight": 1}, 
                {"id": 13, "lemma": "월", "type": "NNB", "position": 75, "weight": 0.408539}, 
                {"id": 14, "lemma": "에", "type": "JKB", "position": 78, "weight": 0.135559}, 
                {"id": 15, "lemma": "폐위", "type": "NNG", "position": 82, "weight": 0.9}, 
                {"id": 16, "lemma": "되", "type": "XSV", "position": 88, "weight": 0.000224177}, 
                {"id": 17, "lemma": "어", "type": "EC", "position": 91, "weight": 0.361326}, 
                {"id": 18, "lemma": "엘바섬", "type": "NNP", "position": 95, "weight": 0.6}, 
                {"id": 19, "lemma": "으로", "type": "JKB", "position": 104, "weight": 0.0823853}, 
                {"id": 20, "lemma": "추방", "type": "NNG", "position": 111, "weight": 0.9}, 
                {"id": 21, "lemma": "되", "type": "XSV", "position": 117, "weight": 0.000224177}, 
                {"id": 22, "lemma": "었", "type": "EP", "position": 120, "weight": 0.9}, 
                {"id": 23, "lemma": "다", "type": "EF", "position": 123, "weight": 0.640954}, 
                {"id": 24, "lemma": ".", "type": "SF", "position": 126, "weight": 1}
            ], 
            "morp_eval": [], 
            "WSD": [
                {"id": 0, "text": "1813", "type": "SN", "scode": "000000", "weight": 1, "position": 0, "begin": 0, "end": 0}, 
                {"id": 1, "text": "년", "type": "NNB", "scode": "020000", "weight": 0.166667, "position": 4, "begin": 1, "end": 1}, 
                {"id": 2, "text": "라이프치히", "type": "NNP", "scode": "000000", "weight": 1, "position": 8, "begin": 2, "end": 2}, 
                {"id": 3, "text": "전투", "type": "NNG", "scode": "000001", "weight": 0.5, "position": 24, "begin": 3, "end": 3}, 
                {"id": 4, "text": "에서", "type": "JKB", "scode": "000000", "weight": 1, "position": 30, "begin": 4, "end": 4}, 
                {"id": 5, "text": "패배하", "type": "VV", "scode": "000001", "weight": 0.5, "position": 37, "begin": 5, "end": 6}, 
                {"id": 6, "text": "ㄴ", "type": "ETM", "scode": "000000", "weight": 1, "position": 43, "begin": 7, "end": 7}, 
                {"id": 7, "text": "나폴레옹", "type": "NNP", "scode": "020000", "weight": 0.2, "position": 47, "begin": 8, "end": 8}, 
                {"id": 8, "text": "은", "type": "JX", "scode": "000000", "weight": 1, "position": 59, "begin": 9, "end": 9}, 
                {"id": 9, "text": "다음", "type": "NNG", "scode": "010002", "weight": 0.0833333, "position": 63, "begin": 10, "end": 10}, 
                {"id": 10, "text": "해", "type": "NNG", "scode": "010002", "weight": 0.0333333, "position": 70, "begin": 11, "end": 11}, 
                {"id": 11, "text": "4", "type": "SN", "scode": "000000", "weight": 1, "position": 74, "begin": 12, "end": 12}, 
                {"id": 12, "text": "월", "type": "NNB", "scode": "020100", "weight": 0.125, "position": 75, "begin": 13, "end": 13}, 
                {"id": 13, "text": "에", "type": "JKB", "scode": "000000", "weight": 1, "position": 78, "begin": 14, "end": 14}, 
                {"id": 14, "text": "폐위되", "type": "VV", "scode": "000000", "weight": 1, "position": 82, "begin": 15, "end": 16}, 
                {"id": 15, "text": "어", "type": "EC", "scode": "000000", "weight": 1, "position": 91, "begin": 17, "end": 17}, 
                {"id": 16, "text": "엘바섬", "type": "NNP", "scode": "000000", "weight": 1, "position": 95, "begin": 18, "end": 18}, 
                {"id": 17, "text": "으로", "type": "JKB", "scode": "000000", "weight": 1, "position": 104, "begin": 19, "end": 19}, 
                {"id": 18, "text": "추방되", "type": "VV", "scode": "000000", "weight": 1, "position": 111, "begin": 20, "end": 21}, 
                {"id": 19, "text": "었", "type": "EP", "scode": "000000", "weight": 1, "position": 120, "begin": 22, "end": 22}, 
                {"id": 20, "text": "다", "type": "EF", "scode": "000000", "weight": 1, "position": 123, "begin": 23, "end": 23}, 
                {"id": 21, "text": ".", "type": "SF", "scode": "000000", "weight": 1, "position": 126, "begin": 24, "end": 24}
            ], 
            "word": [
                {"id": 0, "text": "1813년", "type": "", "begin": 0, "end": 1}, 
                {"id": 1, "text": "라이프치히", "type": "", "begin": 2, "end": 2}, 
                {"id": 2, "text": "전투에서", "type": "", "begin": 3, "end": 4}, 
                {"id": 3, "text": "패배한", "type": "", "begin": 5, "end": 7}, 
                {"id": 4, "text": "나폴레옹은", "type": "", "begin": 8, "end": 9}, 
                {"id": 5, "text": "다음", "type": "", "begin": 10, "end": 10}, 
                {"id": 6, "text": "해", "type": "", "begin": 11, "end": 11}, 
                {"id": 7, "text": "4월에", "type": "", "begin": 12, "end": 14}, 
                {"id": 8, "text": "폐위되어", "type": "", "begin": 15, "end": 17}, 
                {"id": 9, "text": "엘바섬으로", "type": "", "begin": 18, "end": 19}, 
                {"id": 10, "text": "추방되었다.", "type": "", "begin": 20, "end": 24}
            ], 
            "NE": [
                {"id": 0, "text": "1813년", "type": "DT_YEAR", "begin": 0, "end": 1, "weight": 0.722511, "common_noun": 0}, 
                {"id": 1, "text": "라이프치히 전투", "type": "EV_WAR_REVOLUTION", "begin": 2, "end": 3, "weight": 0.370238, "common_noun": 0}, 
                {"id": 2, "text": "나폴레옹", "type": "PS_NAME", "begin": 8, "end": 8, "weight": 0.638898, "common_noun": 0}, 
                {"id": 3, "text": "다음 해 4월", "type": "DT_OTHERS", "begin": 10, "end": 13, "weight": 0.523059, "common_noun": 0}, 
                {"id": 4, "text": "엘바섬", "type": "LCG_ISLAND", "begin": 18, "end": 18, "weight": 0.341944, "common_noun": 0}
            ], 
            "chunk": [], 
            "dependency": [
                {"id": 0, "text": "1813년", "head": 3, "label": "NP_AJT", "mod": [], "weight": 0.717493}, 
                {"id": 1, "text": "라이프치히", "head": 2, "label": "NP", "mod": [], "weight": 0.756833}, 
                {"id": 2, "text": "전투에서", "head": 3, "label": "NP_AJT", "mod": [1], "weight": 0.810022}, 
                {"id": 3, "text": "패배한", "head": 4, "label": "VP_MOD", "mod": [0, 2], "weight": 0.708618}, 
                {"id": 4, "text": "나폴레옹은", "head": 8, "label": "NP_SBJ", "mod": [3], "weight": 0.775303}, 
                {"id": 5, "text": "다음", "head": 7, "label": "NP", "mod": [], "weight": 0.276456}, 
                {"id": 6, "text": "해", "head": 7, "label": "NP", "mod": [], "weight": 0.643503}, 
                {"id": 7, "text": "4월에", "head": 8, "label": "NP_AJT", "mod": [5, 6], "weight": 0.801946}, 
                {"id": 8, "text": "폐위되어", "head": 10, "label": "VP", "mod": [4, 7], "weight": 0.770795}, 
                {"id": 9, "text": "엘바섬으로", "head": 10, "label": "NP_AJT", "mod": [], "weight": 0.797149}, 
                {"id": 10, "text": "추방되었다.", "head": -1, "label": "VP", "mod": [8, 9], "weight": 0.0184705}
            ], 
            "SRL": [
                {"verb": "패배", "sense": 1, "word_id": 3, "weight": 0.227786, "argument": [
                    {"type": "ARGM-TMP", "word_id": 0, "text": "1813년", "weight": 0.360587}, 
                    {"type": "ARGM-LOC", "word_id": 2, "text": "전투에서", "weight": 0.0849288}, 
                    {"type": "ARG0", "word_id": 4, "text": "나폴레옹은", "weight": 0.237841}
                ]}, 
                {"verb": "폐위", "sense": 1, "word_id": 8, "weight": 0.130224, "argument": [
                    {"type": "ARGM-TMP", "word_id": 7, "text": "4월에", "weight": 1}, 
                    {"type": "ARG1", "word_id": 4, "text": "나폴레옹은", "weight": 1}
                ]}, 
                {"verb": "추방", "sense": 1, "word_id": 10, "weight": 0.111167, "argument": [
                    {"type": "ARG3", "word_id": 9, "text": "엘바섬으로", "weight": 0.12286}, 
                    {"type": "ARG1", "word_id": 4, "text": "나폴레옹은", "weight": 1}
                ]}
            ], 
            "relation": [], 
            "SA": [], 
            "ZA": []
        }, 
        {
            "id": 1, 
            "reserve_str": "", 
            "text": "그러나 빈 회의에서 전후처리 문제로 연합군 사이에 다툼이 일어나는 것을 본 나폴레옹은 1815년 2월 26일 엘바섬을 탈출해 남프랑스의 주앙에 상륙한 뒤 병사를 모으면서 파리로 향했다.", 
            "morp": [
                {"id": 0, "lemma": "그러나", "type": "MAJ", "position": 126, "weight": 0.0461081}, 
                {"id": 1, "lemma": "빈", "type": "NNP", "position": 136, "weight": 0.00835675}, 
                {"id": 2, "lemma": "회의", "type": "NNG", "position": 140, "weight": 0.658699}, 
                {"id": 3, "lemma": "에서", "type": "JKB", "position": 146, "weight": 0.153407}, 
                {"id": 4, "lemma": "전후", "type": "NNG", "position": 153, "weight": 0.9}, 
                {"id": 5, "lemma": "처리", "type": "NNG", "position": 159, "weight": 0.9}, 
                {"id": 6, "lemma": "문제", "type": "NNG", "position": 166, "weight": 0.184611}, 
                {"id": 7, "lemma": "로", "type": "JKB", "position": 172, "weight": 0.153229}, 
                {"id": 8, "lemma": "연합", "type": "NNG", "position": 176, "weight": 0.205606}, 
                {"id": 9, "lemma": "군", "type": "NNG", "position": 182, "weight": 0.110913}, 
                {"id": 10, "lemma": "사이", "type": "NNG", "position": 186, "weight": 0.184827}, 
                {"id": 11, "lemma": "에", "type": "JKB", "position": 192, "weight": 0.153364}, 
                {"id": 12, "lemma": "다툼", "type": "NNG", "position": 196, "weight": 0.9}, 
                {"id": 13, "lemma": "이", "type": "JKS", "position": 202, "weight": 0.0360723}, 
                {"id": 14, "lemma": "일어나", "type": "VV", "position": 206, "weight": 0.9}, 
                {"id": 15, "lemma": "는", "type": "ETM", "position": 215, "weight": 0.184941}, 
                {"id": 16, "lemma": "것", "type": "NNB", "position": 219, "weight": 0.228788}, 
                {"id": 17, "lemma": "을", "type": "JKO", "position": 222, "weight": 0.0630104}, 
                {"id": 18, "lemma": "보", "type": "VV", "position": 226, "weight": 0.475105}, 
                {"id": 19, "lemma": "ㄴ", "type": "ETM", "position": 226, "weight": 0.304215}, 
                {"id": 20, "lemma": "나폴레옹", "type": "NNP", "position": 230, "weight": 0.0279625}, 
                {"id": 21, "lemma": "은", "type": "JX", "position": 242, "weight": 0.0520511}, 
                {"id": 22, "lemma": "1815", "type": "SN", "position": 246, "weight": 1}, 
                {"id": 23, "lemma": "년", "type": "NNB", "position": 250, "weight": 0.414343}, 
                {"id": 24, "lemma": "2", "type": "SN", "position": 254, "weight": 1}, 
                {"id": 25, "lemma": "월", "type": "NNB", "position": 255, "weight": 0.408539}, 
                {"id": 26, "lemma": "26", "type": "SN", "position": 259, "weight": 1}, 
                {"id": 27, "lemma": "일", "type": "NNB", "position": 261, "weight": 0.126777}, 
                {"id": 28, "lemma": "엘바섬", "type": "NNP", "position": 265, "weight": 0.6}, 
                {"id": 29, "lemma": "을", "type": "JKO", "position": 274, "weight": 0.0266447}, 
                {"id": 30, "lemma": "탈출", "type": "NNG", "position": 278, "weight": 0.9}, 
                {"id": 31, "lemma": "하", "type": "XSV", "position": 284, "weight": 0.0001}, 
                {"id": 32, "lemma": "아", "type": "EC", "position": 284, "weight": 0.361326}, 
                {"id": 33, "lemma": "남", "type": "NNG", "position": 288, "weight": 0.95}, 
                {"id": 34, "lemma": "프랑스", "type": "NNP", "position": 288, "weight": 0.95}, 
                {"id": 35, "lemma": "의", "type": "JKG", "position": 300, "weight": 0.0987295}, 
                {"id": 36, "lemma": "주앙", "type": "NNP", "position": 304, "weight": 0.15}, 
                {"id": 37, "lemma": "에", "type": "JKB", "position": 310, "weight": 0.0823628}, 
                {"id": 38, "lemma": "상륙", "type": "NNG", "position": 314, "weight": 0.9}, 
                {"id": 39, "lemma": "하", "type": "XSV", "position": 320, "weight": 0.0001}, 
                {"id": 40, "lemma": "ㄴ", "type": "ETM", "position": 320, "weight": 0.392321}, 
                {"id": 41, "lemma": "뒤", "type": "NNG", "position": 324, "weight": 0.65834}, 
                {"id": 42, "lemma": "병사", "type": "NNG", "position": 328, "weight": 0.184656}, 
                {"id": 43, "lemma": "를", "type": "JKO", "position": 334, "weight": 0.137686}, 
                {"id": 44, "lemma": "모으", "type": "VV", "position": 338, "weight": 0.9}, 
                {"id": 45, "lemma": "면서", "type": "EC", "position": 344, "weight": 0.428918}, 
                {"id": 46, "lemma": "파리", "type": "NNP", "position": 351, "weight": 0.0139494}, 
                {"id": 47, "lemma": "로", "type": "JKB", "position": 357, "weight": 0.0822907}, 
                {"id": 48, "lemma": "향하", "type": "VV", "position": 361, "weight": 0.9}, 
                {"id": 49, "lemma": "았", "type": "EP", "position": 364, "weight": 0.9}, 
                {"id": 50, "lemma": "다", "type": "EF", "position": 367, "weight": 0.640954}, 
                {"id": 51, "lemma": ".", "type": "SF", "position": 370, "weight": 1}
            ], 
            "morp_eval": [], 
            "WSD": [
                {"id": 0, "text": "그러나", "type": "MAJ", "scode": "000100", "weight": 0.333333, "position": 126, "begin": 0, "end": 0}, 
                {"id": 1, "text": "빈", "type": "NNP", "scode": "070000", "weight": 0.125, "position": 136, "begin": 1, "end": 1}, 
                {"id": 2, "text": "회의", "type": "NNG", "scode": "040001", "weight": 0.1, "position": 140, "begin": 2, "end": 2}, 
                {"id": 3, "text": "에서", "type": "JKB", "scode": "000000", "weight": 1, "position": 146, "begin": 3, "end": 3}, 
                {"id": 4, "text": "전후", "type": "NNG", "scode": "040000", "weight": 0.125, "position": 153, "begin": 4, "end": 4}, 
                {"id": 5, "text": "처리", "type": "NNG", "scode": "020001", "weight": 0.333333, "position": 159, "begin": 5, "end": 5}, 
                {"id": 6, "text": "문제", "type": "NNG", "scode": "060002", "weight": 0.1, "position": 166, "begin": 6, "end": 6}, 
                {"id": 7, "text": "로", "type": "JKB", "scode": "000000", "weight": 1, "position": 172, "begin": 7, "end": 7}, 
                {"id": 8, "text": "연합군", "type": "NNG", "scode": "000001", "weight": 0.5, "position": 176, "begin": 8, "end": 9}, 
                {"id": 9, "text": "사이", "type": "NNG", "scode": "010004", "weight": 0.0833333, "position": 186, "begin": 10, "end": 10}, 
                {"id": 10, "text": "에", "type": "JKB", "scode": "000000", "weight": 1, "position": 192, "begin": 11, "end": 11}, 
                {"id": 11, "text": "다툼", "type": "NNG", "scode": "000001", "weight": 0.5, "position": 196, "begin": 12, "end": 12}, 
                {"id": 12, "text": "이", "type": "JKS", "scode": "000000", "weight": 1, "position": 202, "begin": 13, "end": 13}, 
                {"id": 13, "text": "일어나", "type": "VV", "scode": "000202", "weight": 0.0909091, "position": 206, "begin": 14, "end": 14}, 
                {"id": 14, "text": "는", "type": "ETM", "scode": "000000", "weight": 1, "position": 215, "begin": 15, "end": 15}, 
                {"id": 15, "text": "것", "type": "NNB", "scode": "010001", "weight": 0.125, "position": 219, "begin": 16, "end": 16}, 
                {"id": 16, "text": "을", "type": "JKO", "scode": "000000", "weight": 1, "position": 222, "begin": 17, "end": 17}, 
                {"id": 17, "text": "보", "type": "VV", "scode": "010101", "weight": 0.025641, "position": 226, "begin": 18, "end": 18}, 
                {"id": 18, "text": "ㄴ", "type": "ETM", "scode": "000000", "weight": 1, "position": 226, "begin": 19, "end": 19}, 
                {"id": 19, "text": "나폴레옹", "type": "NNP", "scode": "020000", "weight": 0.2, "position": 230, "begin": 20, "end": 20}, 
                {"id": 20, "text": "은", "type": "JX", "scode": "000000", "weight": 1, "position": 242, "begin": 21, "end": 21}, 
                {"id": 21, "text": "1815", "type": "SN", "scode": "000000", "weight": 1, "position": 246, "begin": 22, "end": 22}, 
                {"id": 22, "text": "년", "type": "NNB", "scode": "020000", "weight": 0.166667, "position": 250, "begin": 23, "end": 23}, 
                {"id": 23, "text": "2", "type": "SN", "scode": "000000", "weight": 1, "position": 254, "begin": 24, "end": 24}, 
                {"id": 24, "text": "월", "type": "NNB", "scode": "020100", "weight": 0.125, "position": 255, "begin": 25, "end": 25}, 
                {"id": 25, "text": "26", "type": "SN", "scode": "000000", "weight": 1, "position": 259, "begin": 26, "end": 26}, 
                {"id": 26, "text": "일", "type": "NNB", "scode": "070100", "weight": 0.04, "position": 261, "begin": 27, "end": 27}, 
                {"id": 27, "text": "엘바섬", "type": "NNP", "scode": "000000", "weight": 1, "position": 265, "begin": 28, "end": 28}, 
                {"id": 28, "text": "을", "type": "JKO", "scode": "000000", "weight": 1, "position": 274, "begin": 29, "end": 29}, 
                {"id": 29, "text": "탈출하", "type": "VV", "scode": "020000", "weight": 0.5, "position": 278, "begin": 30, "end": 31}, 
                {"id": 30, "text": "아", "type": "EC", "scode": "000000", "weight": 1, "position": 284, "begin": 32, "end": 32}, 
                {"id": 31, "text": "남", "type": "NNG", "scode": "040001", "weight": 0.0769231, "position": 288, "begin": 33, "end": 33}, 
                {"id": 32, "text": "프랑스", "type": "NNP", "scode": "020000", "weight": 0.5, "position": 288, "begin": 34, "end": 34}, 
                {"id": 33, "text": "의", "type": "JKG", "scode": "000000", "weight": 1, "position": 300, "begin": 35, "end": 35}, 
                {"id": 34, "text": "주앙", "type": "NNP", "scode": "000000", "weight": 1, "position": 304, "begin": 36, "end": 36}, 
                {"id": 35, "text": "에", "type": "JKB", "scode": "000000", "weight": 1, "position": 310, "begin": 37, "end": 37}, 
                {"id": 36, "text": "상륙하", "type": "VV", "scode": "000000", "weight": 1, "position": 314, "begin": 38, "end": 39}, 
                {"id": 37, "text": "ㄴ", "type": "ETM", "scode": "000000", "weight": 1, "position": 320, "begin": 40, "end": 40}, 
                {"id": 38, "text": "뒤", "type": "NNG", "scode": "010002", "weight": 0.0588235, "position": 324, "begin": 41, "end": 41}, 
                {"id": 39, "text": "병사", "type": "NNG", "scode": "020001", "weight": 0.0833333, "position": 328, "begin": 42, "end": 42}, 
                {"id": 40, "text": "를", "type": "JKO", "scode": "000000", "weight": 1, "position": 334, "begin": 43, "end": 43}, 
                {"id": 41, "text": "모으", "type": "VV", "scode": "000200", "weight": 0.125, "position": 338, "begin": 44, "end": 44}, 
                {"id": 42, "text": "면서", "type": "EC", "scode": "000000", "weight": 1, "position": 344, "begin": 45, "end": 45}, 
                {"id": 43, "text": "파리", "type": "NNP", "scode": "070000", "weight": 0.0769231, "position": 351, "begin": 46, "end": 46}, 
                {"id": 44, "text": "로", "type": "JKB", "scode": "000000", "weight": 1, "position": 357, "begin": 47, "end": 47}, 
                {"id": 45, "text": "향하", "type": "VV", "scode": "000002", "weight": 0.25, "position": 361, "begin": 48, "end": 48}, 
                {"id": 46, "text": "았", "type": "EP", "scode": "000000", "weight": 1, "position": 364, "begin": 49, "end": 49}, 
                {"id": 47, "text": "다", "type": "EF", "scode": "000000", "weight": 1, "position": 367, "begin": 50, "end": 50}, 
                {"id": 48, "text": ".", "type": "SF", "scode": "000000", "weight": 1, "position": 370, "begin": 51, "end": 51}
            ], 
            "word": [
                {"id": 0, "text": "그러나", "type": "", "begin": 0, "end": 0}, 
                {"id": 1, "text": "빈", "type": "", "begin": 1, "end": 1}, 
                {"id": 2, "text": "회의에서", "type": "", "begin": 2, "end": 3}, 
                {"id": 3, "text": "전후처리", "type": "", "begin": 4, "end": 5}, 
                {"id": 4, "text": "문제로", "type": "", "begin": 6, "end": 7}, 
                {"id": 5, "text": "연합군", "type": "", "begin": 8, "end": 9}, 
                {"id": 6, "text": "사이에", "type": "", "begin": 10, "end": 11}, 
                {"id": 7, "text": "다툼이", "type": "", "begin": 12, "end": 13}, 
                {"id": 8, "text": "일어나는", "type": "", "begin": 14, "end": 15}, 
                {"id": 9, "text": "것을", "type": "", "begin": 16, "end": 17}, 
                {"id": 10, "text": "본", "type": "", "begin": 18, "end": 19}, 
                {"id": 11, "text": "나폴레옹은", "type": "", "begin": 20, "end": 21}, 
                {"id": 12, "text": "1815년", "type": "", "begin": 22, "end": 23}, 
                {"id": 13, "text": "2월", "type": "", "begin": 24, "end": 25}, 
                {"id": 14, "text": "26일", "type": "", "begin": 26, "end": 27}, 
                {"id": 15, "text": "엘바섬을", "type": "", "begin": 28, "end": 29}, 
                {"id": 16, "text": "탈출해", "type": "", "begin": 30, "end": 32}, 
                {"id": 17, "text": "남프랑스의", "type": "", "begin": 33, "end": 35}, 
                {"id": 18, "text": "주앙에", "type": "", "begin": 36, "end": 37}, 
                {"id": 19, "text": "상륙한", "type": "", "begin": 38, "end": 40}, 
                {"id": 20, "text": "뒤", "type": "", "begin": 41, "end": 41}, 
                {"id": 21, "text": "병사를", "type": "", "begin": 42, "end": 43}, 
                {"id": 22, "text": "모으면서", "type": "", "begin": 44, "end": 45}, 
                {"id": 23, "text": "파리로", "type": "", "begin": 46, "end": 47}, 
                {"id": 24, "text": "향했다.", "type": "", "begin": 48, "end": 51}
            ], 
            "NE": [
                {"id": 0, "text": "빈 회의", "type": "EV_OTHERS", "begin": 1, "end": 2, "weight": 0.179321, "common_noun": 0}, 
                {"id": 1, "text": "연합군", "type": "OGG_MILITARY", "begin": 8, "end": 9, "weight": 0.300293, "common_noun": 0}, 
                {"id": 2, "text": "나폴레옹", "type": "PS_NAME", "begin": 20, "end": 20, "weight": 0.692449, "common_noun": 0}, 
                {"id": 3, "text": "1815년 2월 26일", "type": "DT_OTHERS", "begin": 22, "end": 27, "weight": 0.766468, "common_noun": 0}, 
                {"id": 4, "text": "엘바섬", "type": "LCG_ISLAND", "begin": 28, "end": 28, "weight": 0.368449, "common_noun": 0}, 
                {"id": 5, "text": "남프랑스", "type": "LCP_PROVINCE", "begin": 33, "end": 34, "weight": 0.494141, "common_noun": 0}, 
                {"id": 6, "text": "주앙", "type": "LCG_BAY", "begin": 36, "end": 36, "weight": 0.12483, "common_noun": 0}, 
                {"id": 7, "text": "병사", "type": "CV_POSITION", "begin": 42, "end": 42, "weight": 0.349984, "common_noun": 0}, 
                {"id": 8, "text": "파리", "type": "LCP_CAPITALCITY", "begin": 46, "end": 46, "weight": 0.44451, "common_noun": 0}
            ], 
            "chunk": [], 
            "dependency": [
                {"id": 0, "text": "그러나", "head": 16, "label": "AP", "mod": [], "weight": 0.419208}, 
                {"id": 1, "text": "빈", "head": 2, "label": "NP", "mod": [], "weight": 0.777492}, 
                {"id": 2, "text": "회의에서", "head": 8, "label": "NP_AJT", "mod": [1], "weight": 0.661337}, 
                {"id": 3, "text": "전후처리", "head": 4, "label": "NP", "mod": [], "weight": 0.76386}, 
                {"id": 4, "text": "문제로", "head": 8, "label": "NP_AJT", "mod": [3], "weight": 0.479493}, 
                {"id": 5, "text": "연합군", "head": 6, "label": "NP", "mod": [], "weight": 0.830968}, 
                {"id": 6, "text": "사이에", "head": 8, "label": "NP_AJT", "mod": [5], "weight": 0.604572}, 
                {"id": 7, "text": "다툼이", "head": 8, "label": "NP_SBJ", "mod": [], "weight": 0.824214}, 
                {"id": 8, "text": "일어나는", "head": 9, "label": "VP_MOD", "mod": [2, 4, 6, 7], "weight": 0.851402}, 
                {"id": 9, "text": "것을", "head": 10, "label": "NP_OBJ", "mod": [8], "weight": 0.743186}, 
                {"id": 10, "text": "본", "head": 11, "label": "VP_MOD", "mod": [9], "weight": 0.784425}, 
                {"id": 11, "text": "나폴레옹은", "head": 16, "label": "NP_SBJ", "mod": [10], "weight": 0.459353}, 
                {"id": 12, "text": "1815년", "head": 13, "label": "NP", "mod": [], "weight": 0.487699}, 
                {"id": 13, "text": "2월", "head": 14, "label": "NP", "mod": [12], "weight": 0.72326}, 
                {"id": 14, "text": "26일", "head": 16, "label": "NP_AJT", "mod": [13], "weight": 0.552567}, 
                {"id": 15, "text": "엘바섬을", "head": 16, "label": "NP_OBJ", "mod": [], "weight": 0.870401}, 
                {"id": 16, "text": "탈출해", "head": 19, "label": "VP", "mod": [14, 15, 11, 0], "weight": 0.40164}, 
                {"id": 17, "text": "남프랑스의", "head": 18, "label": "NP_MOD", "mod": [], "weight": 0.288612}, 
                {"id": 18, "text": "주앙에", "head": 19, "label": "NP_AJT", "mod": [17], "weight": 0.733832}, 
                {"id": 19, "text": "상륙한", "head": 20, "label": "VP_MOD", "mod": [16, 18], "weight": 0.731095}, 
                {"id": 20, "text": "뒤", "head": 22, "label": "NP_AJT", "mod": [19], "weight": 0.821644}, 
                {"id": 21, "text": "병사를", "head": 22, "label": "NP_OBJ", "mod": [], "weight": 0.79504}, 
                {"id": 22, "text": "모으면서", "head": 24, "label": "VP", "mod": [20, 21], "weight": 0.845656}, 
                {"id": 23, "text": "파리로", "head": 24, "label": "NP_AJT", "mod": [], "weight": 0.777465}, 
                {"id": 24, "text": "향했다.", "head": -1, "label": "VP", "mod": [22, 23], "weight": 2.95218e-05}
            ], 
            "SRL": [
                {"verb": "일어나", "sense": 1, "word_id": 8, "weight": 0.145547, "argument": [
                    {"type": "ARGM-CAU", "word_id": 4, "text": "문제로", "weight": 0.129581}, 
                    {"type": "ARG1", "word_id": 7, "text": "다툼이", "weight": 0.19591}, 
                    {"type": "ARG2", "word_id": 2, "text": "회의에서", "weight": 1}
                ]}, 
                {"verb": "보", "sense": 1, "word_id": 10, "weight": 0.301075, "argument": [
                    {"type": "ARG1", "word_id": 9, "text": "것을", "weight": 0.358515}, 
                    {"type": "ARG0", "word_id": 11, "text": "나폴레옹은", "weight": 0.243634}
                ]}, 
                {"verb": "탈출", "sense": 1, "word_id": 16, "weight": 0.159727, "argument": [
                    {"type": "ARGM-TMP", "word_id": 14, "text": "26일", "weight": 0.164721}, 
                    {"type": "ARG1", "word_id": 15, "text": "엘바섬을", "weight": 0.154734}, 
                    {"type": "ARG0", "word_id": 11, "text": "나폴레옹은", "weight": 1}
                ]}, 
                {"verb": "상륙", "sense": 1, "word_id": 19, "weight": 0.11576, "argument": [
                    {"type": "ARGM-MNR", "word_id": 16, "text": "탈출해", "weight": 1}, 
                    {"type": "ARG1", "word_id": 18, "text": "주앙에", "weight": 0.0898386}, 
                    {"type": "ARG0", "word_id": 11, "text": "나폴레옹은", "weight": 1}
                ]}, 
                {"verb": "모으", "sense": 1, "word_id": 22, "weight": 0.258728, "argument": [
                    {"type": "ARG0", "word_id": 11, "text": "나폴레옹은", "weight": 0.289032}, 
                    {"type": "ARGM-TMP", "word_id": 20, "text": "뒤", "weight": 0.23221}, 
                    {"type": "ARG1", "word_id": 21, "text": "병사를", "weight": 0.254943}
                ]}, 
                {"verb": "향하", "sense": 1, "word_id": 24, "weight": 0.157744, "argument": [
                    {"type": "ARG0", "word_id": 11, "text": "나폴레옹은", "weight": 1}, 
                    {"type": "ARG2", "word_id": 23, "text": "파리로", "weight": 0.124593}
                ]}
            ], 
            "relation": [], 
            "SA": [], 
            "ZA": []
        }
    ], 
    "entity": [
        {"id": 0, "type": "PS_NAME", "number": "singular", "gender": "", "person": "", "animacy": "human", "mention": [
            {"id": 0, "sent_id": 0, "start_eid": 0, "end_eid": 4, "ne_id": 2, "text": "1813년 라이프치히 전투에서 패배한 나폴레옹은", "start_eid_short": 4, "end_eid_short": 4, "text_short": "나폴레옹은"}, 
            {"id": 5, "sent_id": 1, "start_eid": 1, "end_eid": 11, "ne_id": 2, "text": "빈 회의에서 전후처리 문제로 연합군 사이에 다툼이 일어나는 것을 본 나폴레옹은", "start_eid_short": 11, "end_eid_short": 11, "text_short": "나폴레옹은"}
        ]}, 
        {"id": 1, "type": "DT_YEAR", "number": "singular", "gender": "", "person": "", "animacy": "time", "mention": [
            {"id": 1, "sent_id": 0, "start_eid": 0, "end_eid": 0, "ne_id": 0, "text": "1813년", "start_eid_short": 0, "end_eid_short": 0, "text_short": "1813년"}
        ]}, 
        {"id": 2, "type": "EV_WAR_REVOLUTION", "number": "singular", "gender": "", "person": "", "animacy": "thing", "mention": [
            {"id": 2, "sent_id": 0, "start_eid": 1, "end_eid": 2, "ne_id": 1, "text": "라이프치히 전투에서", "start_eid_short": 1, "end_eid_short": 2, "text_short": "라이프치히 전투에서"}
        ]}, 
        {"id": 3, "type": "DT_OTHERS", "number": "singular", "gender": "", "person": "", "animacy": "time", "mention": [
            {"id": 3, "sent_id": 0, "start_eid": 5, "end_eid": 7, "ne_id": 3, "text": "다음 해 4월에", "start_eid_short": 5, "end_eid_short": 7, "text_short": "다음 해 4월에"}
        ]}, 
        {"id": 4, "type": "LCG_ISLAND", "number": "singular", "gender": "", "person": "", "animacy": "place", "mention": [
            {"id": 4, "sent_id": 0, "start_eid": 9, "end_eid": 9, "ne_id": 4, "text": "엘바섬으로", "start_eid_short": 9, "end_eid_short": 9, "text_short": "엘바섬으로"}, 
            {"id": 14, "sent_id": 1, "start_eid": 15, "end_eid": 15, "ne_id": 4, "text": "엘바섬을", "start_eid_short": 15, "end_eid_short": 15, "text_short": "엘바섬을"}
        ]}, 
        {"id": 5, "type": "OGG_POLITICS", "number": "singular", "gender": "", "person": "", "animacy": "thing", "mention": [
            {"id": 7, "sent_id": 1, "start_eid": 1, "end_eid": 2, "ne_id": 0, "text": "빈 회의에서", "start_eid_short": 1, "end_eid_short": 2, "text_short": "빈 회의에서"}
        ]}, 
        {"id": 6, "type": "", "number": "singular", "gender": "", "person": "", "animacy": "thing", "mention": [
            {"id": 8, "sent_id": 1, "start_eid": 3, "end_eid": 4, "ne_id": -1, "text": "전후처리 문제로", "start_eid_short": 3, "end_eid_short": 4, "text_short": "전후처리 문제로"}
        ]}, 
        {"id": 7, "type": "", "number": "singular", "gender": "", "person": "", "animacy": "thing", "mention": [
            {"id": 9, "sent_id": 1, "start_eid": 3, "end_eid": 3, "ne_id": -1, "text": "전후처리", "start_eid_short": 3, "end_eid_short": 3, "text_short": "전후처리"}
        ]}, 
        {"id": 8, "type": "", "number": "singular", "gender": "", "person": "", "animacy": "thing", "mention": [
            {"id": 10, "sent_id": 1, "start_eid": 5, "end_eid": 6, "ne_id": -1, "text": "연합군 사이에", "start_eid_short": 5, "end_eid_short": 6, "text_short": "연합군 사이에"}
        ]}, 
        {"id": 9, "type": "OGG_MILITARY", "number": "singular", "gender": "", "person": "", "animacy": "thing", "mention": [
            {"id": 11, "sent_id": 1, "start_eid": 5, "end_eid": 5, "ne_id": 1, "text": "연합군", "start_eid_short": 5, "end_eid_short": 5, "text_short": "연합군"}
        ]}, 
        {"id": 10, "type": "", "number": "singular", "gender": "", "person": "", "animacy": "thing", "mention": [
            {"id": 12, "sent_id": 1, "start_eid": 7, "end_eid": 7, "ne_id": -1, "text": "다툼이", "start_eid_short": 7, "end_eid_short": 7, "text_short": "다툼이"}
        ]}, 
        {"id": 11, "type": "DT_OTHERS", "number": "singular", "gender": "", "person": "", "animacy": "time", "mention": [
            {"id": 13, "sent_id": 1, "start_eid": 12, "end_eid": 14, "ne_id": 3, "text": "1815년 2월 26일", "start_eid_short": 12, "end_eid_short": 14, "text_short": "1815년 2월 26일"}
        ]}, 
        {"id": 12, "type": "", "number": "singular", "gender": "", "person": "", "animacy": "thing", "mention": [
            {"id": 15, "sent_id": 1, "start_eid": 17, "end_eid": 18, "ne_id": -1, "text": "남프랑스의 주앙에", "start_eid_short": 18, "end_eid_short": 18, "text_short": "주앙에"}
        ]}, 
        {"id": 13, "type": "LCP_COUNTRY", "number": "singular", "gender": "", "person": "", "animacy": "place", "mention": [
            {"id": 16, "sent_id": 1, "start_eid": 17, "end_eid": 17, "ne_id": 5, "text": "남프랑스의", "start_eid_short": 17, "end_eid_short": 17, "text_short": "남프랑스의"}
        ]}, 
        {"id": 14, "type": "CV_POSITION", "number": "singular", "gender": "", "person": "", "animacy": "human", "mention": [
            {"id": 17, "sent_id": 1, "start_eid": 21, "end_eid": 21, "ne_id": 6, "text": "병사를", "start_eid_short": 21, "end_eid_short": 21, "text_short": "병사를"}
        ]}, 
        {"id": 15, "type": "LCP_CAPITALCITY", "number": "singular", "gender": "", "person": "", "animacy": "place", "mention": [
            {"id": 18, "sent_id": 1, "start_eid": 23, "end_eid": 23, "ne_id": 7, "text": "파리로", "start_eid_short": 23, "end_eid_short": 23, "text_short": "파리로"}
        ]}, 
        {"id": 16, "type": "", "number": "singular", "gender": "", "person": "", "animacy": "thing", "mention": [
            {"id": 6, "sent_id": 1, "start_eid": 1, "end_eid": 9, "ne_id": -1, "text": "빈 회의에서 전후처리 문제로 연합군 사이에 다툼이 일어나는 것을", "start_eid_short": 9, "end_eid_short": 9, "text_short": "것을"}
        ]}
    ]
}