{
    "doc_id": "E2016.788.09_A_01.json", 
    "DCT": "", 
    "category": "", 
    "category_weight": 0, 
    "title": {
        "text": "차우차우", 
        "NE": ""
    }, 
    "metaInfo": {}, 
    "sentence": [
        {
            "id": 0, 
            "reserve_str": "", 
            "text": "중화인민공화국이 원산지인 중형견으로 한번에 4~6마리 정도의 새끼를 출산한다.", 
            "morp": [
                {"id": 0, "lemma": "중화", "type": "NNP", "position": 0, "weight": 0.00568786}, 
                {"id": 1, "lemma": "인민", "type": "NNG", "position": 6, "weight": 0.9}, 
                {"id": 2, "lemma": "공화", "type": "NNG", "position": 12, "weight": 0.0586077}, 
                {"id": 3, "lemma": "국", "type": "XSN", "position": 18, "weight": 0.0205107}, 
                {"id": 4, "lemma": "이", "type": "JKS", "position": 21, "weight": 0.0731805}, 
                {"id": 5, "lemma": "원산", "type": "NNG", "position": 25, "weight": 0.057983}, 
                {"id": 6, "lemma": "지", "type": "XSN", "position": 31, "weight": 0.000168337}, 
                {"id": 7, "lemma": "이", "type": "VCP", "position": 34, "weight": 0.0165001}, 
                {"id": 8, "lemma": "ㄴ", "type": "ETM", "position": 34, "weight": 0.220712}, 
                {"id": 9, "lemma": "중형견", "type": "NNG", "position": 38, "weight": 0.6}, 
                {"id": 10, "lemma": "으로", "type": "JKB", "position": 47, "weight": 0.0823853}, 
                {"id": 11, "lemma": "한", "type": "MM", "position": 54, "weight": 0.0170035}, 
                {"id": 12, "lemma": "번", "type": "NNB", "position": 57, "weight": 0.179863}, 
                {"id": 13, "lemma": "에", "type": "JKB", "position": 60, "weight": 0.135559}, 
                {"id": 14, "lemma": "4", "type": "SN", "position": 64, "weight": 1}, 
                {"id": 15, "lemma": "~", "type": "SO", "position": 65, "weight": 1}, 
                {"id": 16, "lemma": "6", "type": "SN", "position": 66, "weight": 1}, 
                {"id": 17, "lemma": "마리", "type": "NNB", "position": 67, "weight": 0.405106}, 
                {"id": 18, "lemma": "정도", "type": "NNG", "position": 74, "weight": 0.110593}, 
                {"id": 19, "lemma": "의", "type": "JKG", "position": 80, "weight": 0.0694213}, 
                {"id": 20, "lemma": "새끼", "type": "NNG", "position": 84, "weight": 0.869281}, 
                {"id": 21, "lemma": "를", "type": "JKO", "position": 90, "weight": 0.137686}, 
                {"id": 22, "lemma": "출산", "type": "NNG", "position": 94, "weight": 0.9}, 
                {"id": 23, "lemma": "하", "type": "XSV", "position": 100, "weight": 0.0001}, 
                {"id": 24, "lemma": "ㄴ다", "type": "EF", "position": 100, "weight": 0.0449045}, 
                {"id": 25, "lemma": ".", "type": "SF", "position": 106, "weight": 1}
            ], 
            "morp_eval": [], 
            "WSD": [
                {"id": 0, "text": "중화인민공화국", "type": "NNG", "scode": "000000", "weight": 1, "position": 0, "begin": 0, "end": 3}, 
                {"id": 1, "text": "이", "type": "JKS", "scode": "000000", "weight": 1, "position": 21, "begin": 4, "end": 4}, 
                {"id": 2, "text": "원산지", "type": "NNG", "scode": "000002", "weight": 0.5, "position": 25, "begin": 5, "end": 6}, 
                {"id": 3, "text": "이", "type": "VCP", "scode": "030000", "weight": 0.0172414, "position": 34, "begin": 7, "end": 7}, 
                {"id": 4, "text": "ㄴ", "type": "ETM", "scode": "000000", "weight": 1, "position": 34, "begin": 8, "end": 8}, 
                {"id": 5, "text": "중형견", "type": "NNG", "scode": "000000", "weight": 0, "position": 38, "begin": 9, "end": 9}, 
                {"id": 6, "text": "으로", "type": "JKB", "scode": "000000", "weight": 1, "position": 47, "begin": 10, "end": 10}, 
                {"id": 7, "text": "한", "type": "MM", "scode": "010001", "weight": 0.0357143, "position": 54, "begin": 11, "end": 11}, 
                {"id": 8, "text": "번", "type": "NNB", "scode": "040002", "weight": 0.0769231, "position": 57, "begin": 12, "end": 12}, 
                {"id": 9, "text": "에", "type": "JKB", "scode": "000000", "weight": 1, "position": 60, "begin": 13, "end": 13}, 
                {"id": 10, "text": "4", "type": "SN", "scode": "000000", "weight": 1, "position": 64, "begin": 14, "end": 14}, 
                {"id": 11, "text": "~", "type": "SO", "scode": "000000", "weight": 1, "position": 65, "begin": 15, "end": 15}, 
                {"id": 12, "text": "6", "type": "SN", "scode": "000000", "weight": 1, "position": 66, "begin": 16, "end": 16}, 
                {"id": 13, "text": "마리", "type": "NNB", "scode": "010001", "weight": 0.1, "position": 67, "begin": 17, "end": 17}, 
                {"id": 14, "text": "정도", "type": "NNG", "scode": "110003", "weight": 0.0526316, "position": 74, "begin": 18, "end": 18}, 
                {"id": 15, "text": "의", "type": "JKG", "scode": "000000", "weight": 1, "position": 80, "begin": 19, "end": 19}, 
                {"id": 16, "text": "새끼", "type": "NNG", "scode": "020001", "weight": 0.25, "position": 84, "begin": 20, "end": 20}, 
                {"id": 17, "text": "를", "type": "JKO", "scode": "000000", "weight": 1, "position": 90, "begin": 21, "end": 21}, 
                {"id": 18, "text": "출산하", "type": "VV", "scode": "020001", "weight": 0.2, "position": 94, "begin": 22, "end": 23}, 
                {"id": 19, "text": "ㄴ다", "type": "EF", "scode": "000000", "weight": 1, "position": 100, "begin": 24, "end": 24}, 
                {"id": 20, "text": ".", "type": "SF", "scode": "000000", "weight": 1, "position": 106, "begin": 25, "end": 25}
            ], 
            "word": [
                {"id": 0, "text": "중화인민공화국이", "type": "", "begin": 0, "end": 4}, 
                {"id": 1, "text": "원산지인", "type": "", "begin": 5, "end": 8}, 
                {"id": 2, "text": "중형견으로", "type": "", "begin": 9, "end": 10}, 
                {"id": 3, "text": "한번에", "type": "", "begin": 11, "end": 13}, 
                {"id": 4, "text": "4~6마리", "type": "", "begin": 14, "end": 17}, 
                {"id": 5, "text": "정도의", "type": "", "begin": 18, "end": 19}, 
                {"id": 6, "text": "새끼를", "type": "", "begin": 20, "end": 21}, 
                {"id": 7, "text": "출산한다.", "type": "", "begin": 22, "end": 25}
            ], 
            "NE": [
                {"id": 0, "text": "중화인민공화국", "type": "LCP_COUNTRY", "begin": 0, "end": 3, "weight": 0.643823, "common_noun": 0}, 
                {"id": 1, "text": "한번", "type": "QT_COUNT", "begin": 11, "end": 12, "weight": 0.734211, "common_noun": 0}, 
                {"id": 2, "text": "4~6마리", "type": "QT_COUNT", "begin": 14, "end": 17, "weight": 0.705433, "common_noun": 0}, 
                {"id": 3, "text": "새끼", "type": "CV_RELATION", "begin": 20, "end": 20, "weight": 0.392129, "common_noun": 0}
            ], 
            "chunk": [], 
            "dependency": [
                {"id": 0, "text": "중화인민공화국이", "head": 1, "label": "NP_SBJ", "mod": [], "weight": 0.862184}, 
                {"id": 1, "text": "원산지인", "head": 2, "label": "VNP_MOD", "mod": [0], "weight": 0.760745}, 
                {"id": 2, "text": "중형견으로", "head": 7, "label": "NP_AJT", "mod": [1], "weight": 0.859855}, 
                {"id": 3, "text": "한번에", "head": 7, "label": "NP_AJT", "mod": [], "weight": 0.706307}, 
                {"id": 4, "text": "4~6마리", "head": 5, "label": "NP", "mod": [], "weight": 0.827032}, 
                {"id": 5, "text": "정도의", "head": 6, "label": "NP_MOD", "mod": [4], "weight": 0.699156}, 
                {"id": 6, "text": "새끼를", "head": 7, "label": "NP_OBJ", "mod": [5], "weight": 0.836502}, 
                {"id": 7, "text": "출산한다.", "head": -1, "label": "VP", "mod": [2, 3, 6], "weight": 0.16203}
            ], 
            "SRL": [
                {"verb": "출산", "sense": 1, "word_id": 7, "weight": 0.139007, "argument": [
                    {"type": "ARG1", "word_id": 6, "text": "새끼를", "weight": 0.139007}
                ]}
            ], 
            "relation": [], 
            "SA": [], 
            "ZA": []
        }, 
        {
            "id": 1, 
            "reserve_str": "", 
            "text": "가장 큰 특징은 흑색 내지 보라색 혀를 가지고 있다는 것이고 북방계 스피츠에 속하는 오래된 품종이다.", 
            "morp": [
                {"id": 0, "lemma": "가장", "type": "MAG", "position": 107, "weight": 0.0643516}, 
                {"id": 1, "lemma": "크", "type": "VA", "position": 114, "weight": 0.131358}, 
                {"id": 2, "lemma": "ㄴ", "type": "ETM", "position": 114, "weight": 0.430446}, 
                {"id": 3, "lemma": "특징", "type": "NNG", "position": 118, "weight": 0.9}, 
                {"id": 4, "lemma": "은", "type": "JX", "position": 124, "weight": 0.0449928}, 
                {"id": 5, "lemma": "흑색", "type": "NNG", "position": 128, "weight": 0.9}, 
                {"id": 6, "lemma": "내지", "type": "MAG", "position": 135, "weight": 0.00462302}, 
                {"id": 7, "lemma": "보라", "type": "NNG", "position": 142, "weight": 0.227971}, 
                {"id": 8, "lemma": "색", "type": "NNG", "position": 148, "weight": 0.184754}, 
                {"id": 9, "lemma": "혀", "type": "NNG", "position": 152, "weight": 0.181616}, 
                {"id": 10, "lemma": "를", "type": "JKO", "position": 155, "weight": 0.137686}, 
                {"id": 11, "lemma": "가지", "type": "VV", "position": 159, "weight": 0.401357}, 
                {"id": 12, "lemma": "고", "type": "EC", "position": 165, "weight": 0.416679}, 
                {"id": 13, "lemma": "있", "type": "VX", "position": 169, "weight": 0.125953}, 
                {"id": 14, "lemma": "다는", "type": "ETM", "position": 172, "weight": 0.315889}, 
                {"id": 15, "lemma": "것", "type": "NNB", "position": 179, "weight": 0.228788}, 
                {"id": 16, "lemma": "이", "type": "VCP", "position": 182, "weight": 0.0607843}, 
                {"id": 17, "lemma": "고", "type": "EC", "position": 185, "weight": 0.242962}, 
                {"id": 18, "lemma": "북방", "type": "NNG", "position": 189, "weight": 0.9}, 
                {"id": 19, "lemma": "계", "type": "XSN", "position": 195, "weight": 0.027803}, 
                {"id": 20, "lemma": "스피츠", "type": "NNG", "position": 199, "weight": 0.2}, 
                {"id": 21, "lemma": "에", "type": "JKB", "position": 208, "weight": 0.153364}, 
                {"id": 22, "lemma": "속하", "type": "VV", "position": 212, "weight": 0.205064}, 
                {"id": 23, "lemma": "는", "type": "ETM", "position": 218, "weight": 0.238503}, 
                {"id": 24, "lemma": "오래", "type": "MAG", "position": 222, "weight": 0.00235506}, 
                {"id": 25, "lemma": "되", "type": "XSA", "position": 228, "weight": 0.0001}, 
                {"id": 26, "lemma": "ㄴ", "type": "ETM", "position": 228, "weight": 0.488779}, 
                {"id": 27, "lemma": "품종", "type": "NNG", "position": 232, "weight": 0.9}, 
                {"id": 28, "lemma": "이", "type": "VCP", "position": 238, "weight": 0.0177525}, 
                {"id": 29, "lemma": "다", "type": "EF", "position": 241, "weight": 0.353579}, 
                {"id": 30, "lemma": ".", "type": "SF", "position": 244, "weight": 1}
            ], 
            "morp_eval": [], 
            "WSD": [
                {"id": 0, "text": "가장", "type": "MAG", "scode": "010000", "weight": 0.0555556, "position": 107, "begin": 0, "end": 0}, 
                {"id": 1, "text": "크", "type": "VA", "scode": "010001", "weight": 0.0555556, "position": 114, "begin": 1, "end": 1}, 
                {"id": 2, "text": "ㄴ", "type": "ETM", "scode": "000000", "weight": 1, "position": 114, "begin": 2, "end": 2}, 
                {"id": 3, "text": "특징", "type": "NNG", "scode": "000001", "weight": 0.25, "position": 118, "begin": 3, "end": 3}, 
                {"id": 4, "text": "은", "type": "JX", "scode": "000000", "weight": 1, "position": 124, "begin": 4, "end": 4}, 
                {"id": 5, "text": "흑색", "type": "NNG", "scode": "000001", "weight": 0.5, "position": 128, "begin": 5, "end": 5}, 
                {"id": 6, "text": "내지", "type": "MAG", "scode": "010002", "weight": 0.0909091, "position": 135, "begin": 6, "end": 6}, 
                {"id": 7, "text": "보라색", "type": "NNG", "scode": "000000", "weight": 1, "position": 142, "begin": 7, "end": 8}, 
                {"id": 8, "text": "혀", "type": "NNG", "scode": "010001", "weight": 0.0909091, "position": 152, "begin": 9, "end": 9}, 
                {"id": 9, "text": "를", "type": "JKO", "scode": "000000", "weight": 1, "position": 155, "begin": 10, "end": 10}, 
                {"id": 10, "text": "가지", "type": "VV", "scode": "000101", "weight": 0.0909091, "position": 159, "begin": 11, "end": 11}, 
                {"id": 11, "text": "고", "type": "EC", "scode": "000000", "weight": 1, "position": 165, "begin": 12, "end": 12}, 
                {"id": 12, "text": "있", "type": "VX", "scode": "010902", "weight": 0.0416667, "position": 169, "begin": 13, "end": 13}, 
                {"id": 13, "text": "다는", "type": "ETM", "scode": "000000", "weight": 1, "position": 172, "begin": 14, "end": 14}, 
                {"id": 14, "text": "것", "type": "NNB", "scode": "010001", "weight": 0.125, "position": 179, "begin": 15, "end": 15}, 
                {"id": 15, "text": "이", "type": "VCP", "scode": "030000", "weight": 0.0172414, "position": 182, "begin": 16, "end": 16}, 
                {"id": 16, "text": "고", "type": "EC", "scode": "000000", "weight": 1, "position": 185, "begin": 17, "end": 17}, 
                {"id": 17, "text": "북방", "type": "NNG", "scode": "000002", "weight": 0.5, "position": 189, "begin": 18, "end": 18}, 
                {"id": 18, "text": "계", "type": "XSN", "scode": "160000", "weight": 0.03125, "position": 195, "begin": 19, "end": 19}, 
                {"id": 19, "text": "스피츠", "type": "NNG", "scode": "000000", "weight": 1, "position": 199, "begin": 20, "end": 20}, 
                {"id": 20, "text": "에", "type": "JKB", "scode": "000000", "weight": 1, "position": 208, "begin": 21, "end": 21}, 
                {"id": 21, "text": "속하", "type": "VV", "scode": "020001", "weight": 0.25, "position": 212, "begin": 22, "end": 22}, 
                {"id": 22, "text": "는", "type": "ETM", "scode": "000000", "weight": 1, "position": 218, "begin": 23, "end": 23}, 
                {"id": 23, "text": "오래되", "type": "VA", "scode": "000000", "weight": 1, "position": 222, "begin": 24, "end": 25}, 
                {"id": 24, "text": "ㄴ", "type": "ETM", "scode": "000000", "weight": 1, "position": 228, "begin": 26, "end": 26}, 
                {"id": 25, "text": "품종", "type": "NNG", "scode": "000002", "weight": 0.333333, "position": 232, "begin": 27, "end": 27}, 
                {"id": 26, "text": "이", "type": "VCP", "scode": "030000", "weight": 0.0172414, "position": 238, "begin": 28, "end": 28}, 
                {"id": 27, "text": "다", "type": "EF", "scode": "000000", "weight": 1, "position": 241, "begin": 29, "end": 29}, 
                {"id": 28, "text": ".", "type": "SF", "scode": "000000", "weight": 1, "position": 244, "begin": 30, "end": 30}
            ], 
            "word": [
                {"id": 0, "text": "가장", "type": "", "begin": 0, "end": 0}, 
                {"id": 1, "text": "큰", "type": "", "begin": 1, "end": 2}, 
                {"id": 2, "text": "특징은", "type": "", "begin": 3, "end": 4}, 
                {"id": 3, "text": "흑색", "type": "", "begin": 5, "end": 5}, 
                {"id": 4, "text": "내지", "type": "", "begin": 6, "end": 6}, 
                {"id": 5, "text": "보라색", "type": "", "begin": 7, "end": 8}, 
                {"id": 6, "text": "혀를", "type": "", "begin": 9, "end": 10}, 
                {"id": 7, "text": "가지고", "type": "", "begin": 11, "end": 12}, 
                {"id": 8, "text": "있다는", "type": "", "begin": 13, "end": 14}, 
                {"id": 9, "text": "것이고", "type": "", "begin": 15, "end": 17}, 
                {"id": 10, "text": "북방계", "type": "", "begin": 18, "end": 19}, 
                {"id": 11, "text": "스피츠에", "type": "", "begin": 20, "end": 21}, 
                {"id": 12, "text": "속하는", "type": "", "begin": 22, "end": 23}, 
                {"id": 13, "text": "오래된", "type": "", "begin": 24, "end": 26}, 
                {"id": 14, "text": "품종이다.", "type": "", "begin": 27, "end": 30}
            ], 
            "NE": [
                {"id": 0, "text": "흑색", "type": "TM_COLOR", "begin": 5, "end": 5, "weight": 0.438448, "common_noun": 0}, 
                {"id": 1, "text": "보라색", "type": "TM_COLOR", "begin": 7, "end": 8, "weight": 0.735478, "common_noun": 0}, 
                {"id": 2, "text": "혀", "type": "AM_PART", "begin": 9, "end": 9, "weight": 0.498382, "common_noun": 0}, 
                {"id": 3, "text": "북방", "type": "TM_DIRECTION", "begin": 18, "end": 18, "weight": 0.222139, "common_noun": 0}, 
                {"id": 4, "text": "스피츠", "type": "AM_MAMMALIA", "begin": 20, "end": 20, "weight": 0.20184, "common_noun": 0}
            ], 
            "chunk": [], 
            "dependency": [
                {"id": 0, "text": "가장", "head": 1, "label": "AP", "mod": [], "weight": 0.792528}, 
                {"id": 1, "text": "큰", "head": 2, "label": "VP_MOD", "mod": [0], "weight": 0.595282}, 
                {"id": 2, "text": "특징은", "head": 9, "label": "NP_SBJ", "mod": [1], "weight": 0.516954}, 
                {"id": 3, "text": "흑색", "head": 4, "label": "NP", "mod": [], "weight": 0.0627107}, 
                {"id": 4, "text": "내지", "head": 5, "label": "AP", "mod": [3], "weight": 0.834295}, 
                {"id": 5, "text": "보라색", "head": 6, "label": "NP", "mod": [4], "weight": 0.787035}, 
                {"id": 6, "text": "혀를", "head": 7, "label": "NP_OBJ", "mod": [5], "weight": 0.866285}, 
                {"id": 7, "text": "가지고", "head": 8, "label": "VP", "mod": [6], "weight": 0.8374}, 
                {"id": 8, "text": "있다는", "head": 9, "label": "VP_MOD", "mod": [7], "weight": 0.795669}, 
                {"id": 9, "text": "것이고", "head": 12, "label": "VNP", "mod": [8, 2], "weight": 0.183677}, 
                {"id": 10, "text": "북방계", "head": 11, "label": "NP", "mod": [], "weight": 0.672969}, 
                {"id": 11, "text": "스피츠에", "head": 12, "label": "NP_AJT", "mod": [10], "weight": 0.797323}, 
                {"id": 12, "text": "속하는", "head": 14, "label": "VP_MOD", "mod": [9, 11], "weight": 0.734979}, 
                {"id": 13, "text": "오래된", "head": 14, "label": "VP_MOD", "mod": [], "weight": 0.704162}, 
                {"id": 14, "text": "품종이다.", "head": -1, "label": "VNP", "mod": [13, 12], "weight": 0.000253914}
            ], 
            "SRL": [
                {"verb": "크", "sense": 1, "word_id": 1, "weight": 0.261395, "argument": [
                    {"type": "ARGM-EXT", "word_id": 0, "text": "가장", "weight": 0.318531}, 
                    {"type": "ARG1", "word_id": 2, "text": "특징은", "weight": 0.204259}
                ]}, 
                {"verb": "가지", "sense": 1, "word_id": 7, "weight": 0.320232, "argument": [
                    {"type": "ARG1", "word_id": 6, "text": "혀를", "weight": 0.165245}, 
                    {"type": "AUX", "word_id": 8, "text": "있다는", "weight": 0.475219}
                ]}, 
                {"verb": "속하", "sense": 1, "word_id": 12, "weight": 0.142117, "argument": [
                    {"type": "ARG2", "word_id": 11, "text": "스피츠에", "weight": 0.142117}, 
                    {"type": "ARG1", "word_id": 14, "text": "품종이다.", "weight": 1}
                ]}, 
                {"verb": "오래되", "sense": 1, "word_id": 13, "weight": 0, "argument": [
                    {"type": "ARG1", "word_id": 14, "text": "품종이다.", "weight": 1}
                ]}
            ], 
            "relation": [], 
            "SA": [], 
            "ZA": []
        }
    ], 
    "entity": [
        {"id": 0, "type": "", "number": "singular", "gender": "", "person": "", "animacy": "thing", "mention": [
            {"id": 0, "sent_id": 0, "start_eid": 0, "end_eid": 2, "ne_id": -1, "text": "중화인민공화국이 원산지인 중형견으로", "start_eid_short": 2, "end_eid_short": 2, "text_short": "중형견으로"}
        ]}, 
        {"id": 1, "type": "LCP_COUNTRY", "number": "singular", "gender": "", "person": "", "animacy": "place", "mention": [
            {"id": 1, "sent_id": 0, "start_eid": 0, "end_eid": 0, "ne_id": 0, "text": "중화인민공화국이", "start_eid_short": 0, "end_eid_short": 0, "text_short": "중화인민공화국이"}
        ]}, 
        {"id": 2, "type": "LCP_CITY", "number": "singular", "gender": "", "person": "", "animacy": "place", "mention": [
            {"id": 2, "sent_id": 0, "start_eid": 1, "end_eid": 1, "ne_id": 1, "text": "원산지인", "start_eid_short": 1, "end_eid_short": 1, "text_short": "원산지인"}
        ]}, 
        {"id": 3, "type": "QT_COUNT", "number": "singular", "gender": "", "person": "", "animacy": "thing", "mention": [
            {"id": 3, "sent_id": 0, "start_eid": 3, "end_eid": 3, "ne_id": 2, "text": "한번에", "start_eid_short": 3, "end_eid_short": 3, "text_short": "한번에"}
        ]}, 
        {"id": 4, "type": "", "number": "singular", "gender": "", "person": "", "animacy": "thing", "mention": [
            {"id": 5, "sent_id": 0, "start_eid": 4, "end_eid": 5, "ne_id": -1, "text": "4~6마리 정도의", "start_eid_short": 5, "end_eid_short": 5, "text_short": "정도의"}
        ]}, 
        {"id": 5, "type": "QT_COUNT", "number": "singular", "gender": "", "person": "", "animacy": "thing", "mention": [
            {"id": 6, "sent_id": 0, "start_eid": 4, "end_eid": 4, "ne_id": 3, "text": "4~6마리", "start_eid_short": 4, "end_eid_short": 4, "text_short": "4~6마리"}
        ]}, 
        {"id": 6, "type": "CV_RELATION", "number": "singular", "gender": "", "person": "", "animacy": "human", "mention": [
            {"id": 4, "sent_id": 0, "start_eid": 4, "end_eid": 6, "ne_id": 4, "text": "4~6마리 정도의 새끼를", "start_eid_short": 6, "end_eid_short": 6, "text_short": "새끼를"}
        ]}, 
        {"id": 7, "type": "", "number": "singular", "gender": "", "person": "", "animacy": "thing", "mention": [
            {"id": 7, "sent_id": 1, "start_eid": 0, "end_eid": 2, "ne_id": -1, "text": "가장 큰 특징은", "start_eid_short": 2, "end_eid_short": 2, "text_short": "특징은"}
        ]}, 
        {"id": 8, "type": "TM_COLOR", "number": "singular", "gender": "", "person": "", "animacy": "thing", "mention": [
            {"id": 11, "sent_id": 1, "start_eid": 3, "end_eid": 5, "ne_id": 1, "text": "흑색 내지 보라색", "start_eid_short": 5, "end_eid_short": 5, "text_short": "보라색"}
        ]}, 
        {"id": 9, "type": "TM_COLOR", "number": "singular", "gender": "", "person": "", "animacy": "thing", "mention": [
            {"id": 12, "sent_id": 1, "start_eid": 3, "end_eid": 3, "ne_id": 0, "text": "흑색", "start_eid_short": 3, "end_eid_short": 3, "text_short": "흑색"}
        ]}, 
        {"id": 10, "type": "TM_COLOR", "number": "singular", "gender": "", "person": "", "animacy": "thing", "mention": [
            {"id": 13, "sent_id": 1, "start_eid": 5, "end_eid": 5, "ne_id": 1, "text": "보라색", "start_eid_short": 5, "end_eid_short": 5, "text_short": "보라색"}
        ]}, 
        {"id": 11, "type": "AM_MAMMALIA", "number": "singular", "gender": "", "person": "", "animacy": "animal", "mention": [
            {"id": 14, "sent_id": 1, "start_eid": 10, "end_eid": 11, "ne_id": 4, "text": "북방계 스피츠에", "start_eid_short": 10, "end_eid_short": 11, "text_short": "북방계 스피츠에"}
        ]}, 
        {"id": 12, "type": "TM_DIRECTION", "number": "singular", "gender": "", "person": "", "animacy": "thing", "mention": [
            {"id": 15, "sent_id": 1, "start_eid": 10, "end_eid": 10, "ne_id": 3, "text": "북방계", "start_eid_short": 10, "end_eid_short": 10, "text_short": "북방계"}
        ]}, 
        {"id": 13, "type": "AM_PART", "number": "singular", "gender": "", "person": "", "animacy": "animal", "mention": [
            {"id": 10, "sent_id": 1, "start_eid": 3, "end_eid": 6, "ne_id": 2, "text": "흑색 내지 보라색 혀를", "start_eid_short": 5, "end_eid_short": 6, "text_short": "보라색 혀를"}
        ]}, 
        {"id": 14, "type": "", "number": "singular", "gender": "", "person": "", "animacy": "thing", "mention": [
            {"id": 9, "sent_id": 1, "start_eid": 3, "end_eid": 9, "ne_id": -1, "text": "흑색 내지 보라색 혀를 가지고 있다는 것이고", "start_eid_short": 9, "end_eid_short": 9, "text_short": "것이고"}
        ]}, 
        {"id": 15, "type": "", "number": "singular", "gender": "", "person": "", "animacy": "thing", "mention": [
            {"id": 8, "sent_id": 1, "start_eid": 3, "end_eid": 14, "ne_id": -1, "text": "흑색 내지 보라색 혀를 가지고 있다는 것이고 북방계 스피츠에 속하는 오래된 품종이다.", "start_eid_short": 14, "end_eid_short": 14, "text_short": "품종이다."}
        ]}
    ]
}