{
    "doc_id": "E2016.889.11_A_02.json", 
    "DCT": "", 
    "category": "", 
    "category_weight": 0, 
    "title": {
        "text": "아리스토텔레스의 원인론", 
        "NE": ""
    }, 
    "metaInfo": {}, 
    "sentence": [
        {
            "id": 0, 
            "reserve_str": "", 
            "text": "아리스토텔레스는 제5원소인 에테르를 가정하였고, 이것은 하늘을 구성하는 물체라고 보았다.", 
            "morp": [
                {"id": 0, "lemma": "아리스토텔레스", "type": "NNP", "position": 0, "weight": 0.9}, 
                {"id": 1, "lemma": "는", "type": "JX", "position": 21, "weight": 0.0332677}, 
                {"id": 2, "lemma": "제", "type": "XPN", "position": 25, "weight": 0.00105508}, 
                {"id": 3, "lemma": "5", "type": "SN", "position": 28, "weight": 1}, 
                {"id": 4, "lemma": "원소", "type": "NNG", "position": 29, "weight": 0.0948304}, 
                {"id": 5, "lemma": "이", "type": "VCP", "position": 35, "weight": 0.0177525}, 
                {"id": 6, "lemma": "ㄴ", "type": "ETM", "position": 35, "weight": 0.220712}, 
                {"id": 7, "lemma": "에테르", "type": "NNG", "position": 39, "weight": 0.9}, 
                {"id": 8, "lemma": "를", "type": "JKO", "position": 48, "weight": 0.137686}, 
                {"id": 9, "lemma": "가정", "type": "NNG", "position": 52, "weight": 0.101224}, 
                {"id": 10, "lemma": "하", "type": "XSV", "position": 58, "weight": 0.0001}, 
                {"id": 11, "lemma": "았", "type": "EP", "position": 61, "weight": 0.9}, 
                {"id": 12, "lemma": "고", "type": "EC", "position": 64, "weight": 0.190901}, 
                {"id": 13, "lemma": ",", "type": "SP", "position": 67, "weight": 1}, 
                {"id": 14, "lemma": "이것", "type": "NP", "position": 69, "weight": 0.0496907}, 
                {"id": 15, "lemma": "은", "type": "JX", "position": 75, "weight": 0.191811}, 
                {"id": 16, "lemma": "하늘", "type": "NNG", "position": 79, "weight": 0.324868}, 
                {"id": 17, "lemma": "을", "type": "JKO", "position": 85, "weight": 0.129611}, 
                {"id": 18, "lemma": "구성", "type": "NNG", "position": 89, "weight": 0.101187}, 
                {"id": 19, "lemma": "하", "type": "XSV", "position": 95, "weight": 0.0001}, 
                {"id": 20, "lemma": "는", "type": "ETM", "position": 98, "weight": 0.238503}, 
                {"id": 21, "lemma": "물체", "type": "NNG", "position": 102, "weight": 0.9}, 
                {"id": 22, "lemma": "이", "type": "VCP", "position": 105, "weight": 0.0177525}, 
                {"id": 23, "lemma": "라고", "type": "EC", "position": 108, "weight": 0.204147}, 
                {"id": 24, "lemma": "보", "type": "VV", "position": 115, "weight": 0.138267}, 
                {"id": 25, "lemma": "았", "type": "EP", "position": 118, "weight": 0.9}, 
                {"id": 26, "lemma": "다", "type": "EF", "position": 121, "weight": 0.640954}, 
                {"id": 27, "lemma": ".", "type": "SF", "position": 124, "weight": 1}
            ], 
            "morp_eval": [], 
            "WSD": [
                {"id": 0, "text": "아리스토텔레스", "type": "NNP", "scode": "000000", "weight": 1, "position": 0, "begin": 0, "end": 0}, 
                {"id": 1, "text": "는", "type": "JX", "scode": "000000", "weight": 1, "position": 21, "begin": 1, "end": 1}, 
                {"id": 2, "text": "제", "type": "XPN", "scode": "210000", "weight": 0.0322581, "position": 25, "begin": 2, "end": 2}, 
                {"id": 3, "text": "5", "type": "SN", "scode": "000000", "weight": 1, "position": 28, "begin": 3, "end": 3}, 
                {"id": 4, "text": "원소", "type": "NNG", "scode": "020003", "weight": 0.0769231, "position": 29, "begin": 4, "end": 4}, 
                {"id": 5, "text": "이", "type": "VCP", "scode": "030000", "weight": 0.0172414, "position": 35, "begin": 5, "end": 5}, 
                {"id": 6, "text": "ㄴ", "type": "ETM", "scode": "000000", "weight": 1, "position": 35, "begin": 6, "end": 6}, 
                {"id": 7, "text": "에테르", "type": "NNG", "scode": "000002", "weight": 0.333333, "position": 39, "begin": 7, "end": 7}, 
                {"id": 8, "text": "를", "type": "JKO", "scode": "000000", "weight": 1, "position": 48, "begin": 8, "end": 8}, 
                {"id": 9, "text": "가정하", "type": "VV", "scode": "020001", "weight": 0.25, "position": 52, "begin": 9, "end": 10}, 
                {"id": 10, "text": "았", "type": "EP", "scode": "000000", "weight": 1, "position": 61, "begin": 11, "end": 11}, 
                {"id": 11, "text": "고", "type": "EC", "scode": "000000", "weight": 1, "position": 64, "begin": 12, "end": 12}, 
                {"id": 12, "text": ",", "type": "SP", "scode": "000000", "weight": 1, "position": 67, "begin": 13, "end": 13}, 
                {"id": 13, "text": "이것", "type": "NP", "scode": "000001", "weight": 0.25, "position": 69, "begin": 14, "end": 14}, 
                {"id": 14, "text": "은", "type": "JX", "scode": "000000", "weight": 1, "position": 75, "begin": 15, "end": 15}, 
                {"id": 15, "text": "하늘", "type": "NNG", "scode": "010001", "weight": 0.142857, "position": 79, "begin": 16, "end": 16}, 
                {"id": 16, "text": "을", "type": "JKO", "scode": "000000", "weight": 1, "position": 85, "begin": 17, "end": 17}, 
                {"id": 17, "text": "구성하", "type": "VV", "scode": "000001", "weight": 0.333333, "position": 89, "begin": 18, "end": 19}, 
                {"id": 18, "text": "는", "type": "ETM", "scode": "000000", "weight": 1, "position": 98, "begin": 20, "end": 20}, 
                {"id": 19, "text": "물체", "type": "NNG", "scode": "000001", "weight": 0.333333, "position": 102, "begin": 21, "end": 21}, 
                {"id": 20, "text": "이", "type": "VCP", "scode": "030000", "weight": 0.0172414, "position": 105, "begin": 22, "end": 22}, 
                {"id": 21, "text": "라고", "type": "EC", "scode": "000000", "weight": 1, "position": 108, "begin": 23, "end": 23}, 
                {"id": 22, "text": "보", "type": "VV", "scode": "010300", "weight": 0.025641, "position": 115, "begin": 24, "end": 24}, 
                {"id": 23, "text": "았", "type": "EP", "scode": "000000", "weight": 1, "position": 118, "begin": 25, "end": 25}, 
                {"id": 24, "text": "다", "type": "EF", "scode": "000000", "weight": 1, "position": 121, "begin": 26, "end": 26}, 
                {"id": 25, "text": ".", "type": "SF", "scode": "000000", "weight": 1, "position": 124, "begin": 27, "end": 27}
            ], 
            "word": [
                {"id": 0, "text": "아리스토텔레스는", "type": "", "begin": 0, "end": 1}, 
                {"id": 1, "text": "제5원소인", "type": "", "begin": 2, "end": 6}, 
                {"id": 2, "text": "에테르를", "type": "", "begin": 7, "end": 8}, 
                {"id": 3, "text": "가정하였고,", "type": "", "begin": 9, "end": 13}, 
                {"id": 4, "text": "이것은", "type": "", "begin": 14, "end": 15}, 
                {"id": 5, "text": "하늘을", "type": "", "begin": 16, "end": 17}, 
                {"id": 6, "text": "구성하는", "type": "", "begin": 18, "end": 20}, 
                {"id": 7, "text": "물체라고", "type": "", "begin": 21, "end": 23}, 
                {"id": 8, "text": "보았다.", "type": "", "begin": 24, "end": 27}
            ], 
            "NE": [
                {"id": 0, "text": "아리스토텔레스", "type": "PS_NAME", "begin": 0, "end": 0, "weight": 1, "common_noun": 0}, 
                {"id": 1, "text": "제5원소", "type": "QT_ORDER", "begin": 2, "end": 4, "weight": 0.448472, "common_noun": 0}
            ], 
            "chunk": [], 
            "dependency": [
                {"id": 0, "text": "아리스토텔레스는", "head": 3, "label": "NP_SBJ", "mod": [], "weight": 0.649353}, 
                {"id": 1, "text": "제5원소인", "head": 2, "label": "VNP_MOD", "mod": [], "weight": 0.49492}, 
                {"id": 2, "text": "에테르를", "head": 3, "label": "NP_OBJ", "mod": [1], "weight": 0.847244}, 
                {"id": 3, "text": "가정하였고,", "head": 7, "label": "VP", "mod": [0, 2], "weight": 0.602285}, 
                {"id": 4, "text": "이것은", "head": 7, "label": "NP_SBJ", "mod": [], "weight": 0.360843}, 
                {"id": 5, "text": "하늘을", "head": 6, "label": "NP_OBJ", "mod": [], "weight": 0.82984}, 
                {"id": 6, "text": "구성하는", "head": 7, "label": "VP_MOD", "mod": [5], "weight": 0.932585}, 
                {"id": 7, "text": "물체라고", "head": 8, "label": "VNP_CMP", "mod": [6, 3, 4], "weight": 0.624173}, 
                {"id": 8, "text": "보았다.", "head": -1, "label": "VP", "mod": [7], "weight": 0.0240928}
            ], 
            "SRL": [
                {"verb": "가정", "sense": 1, "word_id": 3, "weight": 0.237723, "argument": [
                    {"type": "ARG0", "word_id": 0, "text": "아리스토텔레스는", "weight": 0.241791}, 
                    {"type": "ARG1", "word_id": 2, "text": "에테르를", "weight": 0.233654}, 
                    {"type": "ARGM-CND", "word_id": 1, "text": "제5원소인", "weight": 1}
                ]}, 
                {"verb": "구성", "sense": 1, "word_id": 6, "weight": 0.180198, "argument": [
                    {"type": "ARG1", "word_id": 5, "text": "하늘을", "weight": 0.212997}, 
                    {"type": "ARG2", "word_id": 7, "text": "물체라고", "weight": 1}
                ]}, 
                {"verb": "보", "sense": 1, "word_id": 8, "weight": 0.192024, "argument": [
                    {"type": "ARG0", "word_id": 0, "text": "아리스토텔레스는", "weight": 0.189367}, 
                    {"type": "ARG1", "word_id": 4, "text": "이것은", "weight": 1}, 
                    {"type": "ARG2", "word_id": 7, "text": "물체라고", "weight": 1}
                ]}
            ], 
            "relation": [], 
            "SA": [], 
            "ZA": []
        }
    ], 
    "entity": [
        {"id": 0, "type": "PS_NAME", "number": "singular", "gender": "", "person": "", "animacy": "human", "mention": [
            {"id": 0, "sent_id": 0, "start_eid": 0, "end_eid": 0, "ne_id": 0, "text": "아리스토텔레스는", "start_eid_short": 0, "end_eid_short": 0, "text_short": "아리스토텔레스는"}
        ]}, 
        {"id": 1, "type": "QT_ORDER", "number": "singular", "gender": "", "person": "", "animacy": "thing", "mention": [
            {"id": 1, "sent_id": 0, "start_eid": 1, "end_eid": 2, "ne_id": 2, "text": "제5원소인 에테르를", "start_eid_short": 2, "end_eid_short": 2, "text_short": "에테르를"}, 
            {"id": 2, "sent_id": 0, "start_eid": 1, "end_eid": 1, "ne_id": 1, "text": "제5원소인", "start_eid_short": 1, "end_eid_short": 1, "text_short": "제5원소인"}, 
            {"id": 3, "sent_id": 0, "start_eid": 4, "end_eid": 4, "ne_id": -1, "text": "이것은", "start_eid_short": 4, "end_eid_short": 4, "text_short": "이것은"}, 
            {"id": 4, "sent_id": 0, "start_eid": 5, "end_eid": 7, "ne_id": -1, "text": "하늘을 구성하는 물체라고", "start_eid_short": 7, "end_eid_short": 7, "text_short": "물체라고"}
        ]}, 
        {"id": 2, "type": "", "number": "singular", "gender": "", "person": "", "animacy": "thing", "mention": [
            {"id": 5, "sent_id": 0, "start_eid": 5, "end_eid": 5, "ne_id": -1, "text": "하늘을", "start_eid_short": 5, "end_eid_short": 5, "text_short": "하늘을"}
        ]}
    ]
}