{
    "doc_id": "E2016.835.17_Q_01.json", 
    "DCT": "", 
    "category": "", 
    "category_weight": 0, 
    "title": {
        "text": "", 
        "NE": ""
    }, 
    "metaInfo": {}, 
    "sentence": [
        {
            "id": 0, 
            "reserve_str": "", 
            "text": "이탈리아 출신의 탐험가로 에스파냐의 이사벨 여왕의 후원으로 항해를 시작했다.", 
            "morp": [
                {"id": 0, "lemma": "이탈리아", "type": "NNP", "position": 0, "weight": 0.9}, 
                {"id": 1, "lemma": "출신", "type": "NNG", "position": 13, "weight": 0.9}, 
                {"id": 2, "lemma": "의", "type": "JKG", "position": 19, "weight": 0.0694213}, 
                {"id": 3, "lemma": "탐험", "type": "NNG", "position": 23, "weight": 0.9}, 
                {"id": 4, "lemma": "가", "type": "XSN", "position": 29, "weight": 0.000115417}, 
                {"id": 5, "lemma": "로", "type": "JKB", "position": 32, "weight": 0.121577}, 
                {"id": 6, "lemma": "에스파냐", "type": "NNP", "position": 36, "weight": 0.9}, 
                {"id": 7, "lemma": "의", "type": "JKG", "position": 48, "weight": 0.0987295}, 
                {"id": 8, "lemma": "이사벨", "type": "NNP", "position": 52, "weight": 0.9}, 
                {"id": 9, "lemma": "여왕", "type": "NNG", "position": 62, "weight": 0.281129}, 
                {"id": 10, "lemma": "의", "type": "JKG", "position": 68, "weight": 0.0694213}, 
                {"id": 11, "lemma": "후원", "type": "NNG", "position": 72, "weight": 0.86767}, 
                {"id": 12, "lemma": "으로", "type": "JKB", "position": 78, "weight": 0.153406}, 
                {"id": 13, "lemma": "항해", "type": "NNG", "position": 85, "weight": 0.9}, 
                {"id": 14, "lemma": "를", "type": "JKO", "position": 91, "weight": 0.137686}, 
                {"id": 15, "lemma": "시작", "type": "NNG", "position": 95, "weight": 0.9}, 
                {"id": 16, "lemma": "하", "type": "XSV", "position": 101, "weight": 0.0001}, 
                {"id": 17, "lemma": "았", "type": "EP", "position": 101, "weight": 0.9}, 
                {"id": 18, "lemma": "다", "type": "EF", "position": 104, "weight": 0.640954}, 
                {"id": 19, "lemma": ".", "type": "SF", "position": 107, "weight": 1}
            ], 
            "morp_eval": [], 
            "WSD": [
                {"id": 0, "text": "이탈리아", "type": "NNP", "scode": "000000", "weight": 1, "position": 0, "begin": 0, "end": 0}, 
                {"id": 1, "text": "출신", "type": "NNG", "scode": "000002", "weight": 0.142857, "position": 13, "begin": 1, "end": 1}, 
                {"id": 2, "text": "의", "type": "JKG", "scode": "000000", "weight": 1, "position": 19, "begin": 2, "end": 2}, 
                {"id": 3, "text": "탐험가", "type": "NNG", "scode": "000000", "weight": 1, "position": 23, "begin": 3, "end": 4}, 
                {"id": 4, "text": "로", "type": "JKB", "scode": "000000", "weight": 1, "position": 32, "begin": 5, "end": 5}, 
                {"id": 5, "text": "에스파냐", "type": "NNP", "scode": "000000", "weight": 1, "position": 36, "begin": 6, "end": 6}, 
                {"id": 6, "text": "의", "type": "JKG", "scode": "000000", "weight": 1, "position": 48, "begin": 7, "end": 7}, 
                {"id": 7, "text": "이사벨", "type": "NNP", "scode": "000000", "weight": 0, "position": 52, "begin": 8, "end": 8}, 
                {"id": 8, "text": "여왕", "type": "NNG", "scode": "000001", "weight": 0.5, "position": 62, "begin": 9, "end": 9}, 
                {"id": 9, "text": "의", "type": "JKG", "scode": "000000", "weight": 1, "position": 68, "begin": 10, "end": 10}, 
                {"id": 10, "text": "후원", "type": "NNG", "scode": "020000", "weight": 0.25, "position": 72, "begin": 11, "end": 11}, 
                {"id": 11, "text": "으로", "type": "JKB", "scode": "000000", "weight": 1, "position": 78, "begin": 12, "end": 12}, 
                {"id": 12, "text": "항해", "type": "NNG", "scode": "020001", "weight": 0.25, "position": 85, "begin": 13, "end": 13}, 
                {"id": 13, "text": "를", "type": "JKO", "scode": "000000", "weight": 1, "position": 91, "begin": 14, "end": 14}, 
                {"id": 14, "text": "시작하", "type": "VV", "scode": "010001", "weight": 0.25, "position": 95, "begin": 15, "end": 16}, 
                {"id": 15, "text": "았", "type": "EP", "scode": "000000", "weight": 1, "position": 101, "begin": 17, "end": 17}, 
                {"id": 16, "text": "다", "type": "EF", "scode": "000000", "weight": 1, "position": 104, "begin": 18, "end": 18}, 
                {"id": 17, "text": ".", "type": "SF", "scode": "000000", "weight": 1, "position": 107, "begin": 19, "end": 19}
            ], 
            "word": [
                {"id": 0, "text": "이탈리아", "type": "", "begin": 0, "end": 0}, 
                {"id": 1, "text": "출신의", "type": "", "begin": 1, "end": 2}, 
                {"id": 2, "text": "탐험가로", "type": "", "begin": 3, "end": 5}, 
                {"id": 3, "text": "에스파냐의", "type": "", "begin": 6, "end": 7}, 
                {"id": 4, "text": "이사벨", "type": "", "begin": 8, "end": 8}, 
                {"id": 5, "text": "여왕의", "type": "", "begin": 9, "end": 10}, 
                {"id": 6, "text": "후원으로", "type": "", "begin": 11, "end": 12}, 
                {"id": 7, "text": "항해를", "type": "", "begin": 13, "end": 14}, 
                {"id": 8, "text": "시작했다.", "type": "", "begin": 15, "end": 19}
            ], 
            "NE": [
                {"id": 0, "text": "이탈리아", "type": "LCP_COUNTRY", "begin": 0, "end": 0, "weight": 0.61098, "common_noun": 0}, 
                {"id": 1, "text": "탐험가", "type": "CV_OCCUPATION", "begin": 3, "end": 4, "weight": 0.695419, "common_noun": 0}, 
                {"id": 2, "text": "에스파냐", "type": "LCP_COUNTRY", "begin": 6, "end": 6, "weight": 0.664752, "common_noun": 0}, 
                {"id": 3, "text": "이사벨", "type": "PS_NAME", "begin": 8, "end": 8, "weight": 0.381521, "common_noun": 0}, 
                {"id": 4, "text": "여왕", "type": "CV_POSITION", "begin": 9, "end": 9, "weight": 0.60675, "common_noun": 0}
            ], 
            "chunk": [], 
            "dependency": [
                {"id": 0, "text": "이탈리아", "head": 1, "label": "NP", "mod": [], "weight": 0.714603}, 
                {"id": 1, "text": "출신의", "head": 2, "label": "NP_MOD", "mod": [0], "weight": 0.805611}, 
                {"id": 2, "text": "탐험가로", "head": 8, "label": "NP_AJT", "mod": [1], "weight": 0.865776}, 
                {"id": 3, "text": "에스파냐의", "head": 5, "label": "NP_MOD", "mod": [], "weight": 0.417268}, 
                {"id": 4, "text": "이사벨", "head": 5, "label": "NP", "mod": [], "weight": 0.656251}, 
                {"id": 5, "text": "여왕의", "head": 6, "label": "NP_MOD", "mod": [3, 4], "weight": 0.782935}, 
                {"id": 6, "text": "후원으로", "head": 8, "label": "NP_AJT", "mod": [5], "weight": 0.858816}, 
                {"id": 7, "text": "항해를", "head": 8, "label": "NP_OBJ", "mod": [], "weight": 0.609267}, 
                {"id": 8, "text": "시작했다.", "head": -1, "label": "VP", "mod": [2, 6, 7], "weight": 0.0459061}
            ], 
            "SRL": [
                {"verb": "시작", "sense": 1, "word_id": 8, "weight": 0.116636, "argument": [
                    {"type": "ARGM-PRD", "word_id": 2, "text": "탐험가로", "weight": 0.107693}, 
                    {"type": "ARGM-MNR", "word_id": 6, "text": "후원으로", "weight": 1}, 
                    {"type": "ARG1", "word_id": 7, "text": "항해를", "weight": 0.153082}
                ]}
            ], 
            "relation": [], 
            "SA": [], 
            "ZA": []
        }, 
        {
            "id": 1, 
            "reserve_str": "", 
            "text": "서인도 항로를 발견하는 등 신대륙 발견에 중요한 역할을 한 이 탐험가는?", 
            "morp": [
                {"id": 0, "lemma": "서", "type": "NNG", "position": 108, "weight": 0.9}, 
                {"id": 1, "lemma": "인도", "type": "NNP", "position": 108, "weight": 0.9}, 
                {"id": 2, "lemma": "항로", "type": "NNG", "position": 118, "weight": 0.9}, 
                {"id": 3, "lemma": "를", "type": "JKO", "position": 124, "weight": 0.137686}, 
                {"id": 4, "lemma": "발견", "type": "NNG", "position": 128, "weight": 0.9}, 
                {"id": 5, "lemma": "하", "type": "XSV", "position": 134, "weight": 0.0001}, 
                {"id": 6, "lemma": "는", "type": "ETM", "position": 137, "weight": 0.238503}, 
                {"id": 7, "lemma": "등", "type": "NNB", "position": 141, "weight": 0.212402}, 
                {"id": 8, "lemma": "신", "type": "XPN", "position": 145, "weight": 0.000169404}, 
                {"id": 9, "lemma": "대륙", "type": "NNG", "position": 148, "weight": 0.9}, 
                {"id": 10, "lemma": "발견", "type": "NNG", "position": 155, "weight": 0.9}, 
                {"id": 11, "lemma": "에", "type": "JKB", "position": 161, "weight": 0.153364}, 
                {"id": 12, "lemma": "중요", "type": "NNG", "position": 165, "weight": 0.9}, 
                {"id": 13, "lemma": "하", "type": "XSA", "position": 171, "weight": 0.0001}, 
                {"id": 14, "lemma": "ㄴ", "type": "ETM", "position": 171, "weight": 0.488779}, 
                {"id": 15, "lemma": "역할", "type": "NNG", "position": 175, "weight": 0.9}, 
                {"id": 16, "lemma": "을", "type": "JKO", "position": 181, "weight": 0.129611}, 
                {"id": 17, "lemma": "하", "type": "VV", "position": 185, "weight": 0.48169}, 
                {"id": 18, "lemma": "ㄴ", "type": "ETM", "position": 185, "weight": 0.304215}, 
                {"id": 19, "lemma": "이", "type": "MM", "position": 189, "weight": 0.00060084}, 
                {"id": 20, "lemma": "탐험", "type": "NNG", "position": 193, "weight": 0.9}, 
                {"id": 21, "lemma": "가", "type": "XSN", "position": 199, "weight": 0.000115417}, 
                {"id": 22, "lemma": "는", "type": "JX", "position": 202, "weight": 0.0641645}, 
                {"id": 23, "lemma": "?", "type": "SF", "position": 205, "weight": 1}
            ], 
            "morp_eval": [], 
            "WSD": [
                {"id": 0, "text": "서", "type": "NNG", "scode": "060000", "weight": 0.047619, "position": 108, "begin": 0, "end": 0}, 
                {"id": 1, "text": "인도", "type": "NNP", "scode": "080000", "weight": 0.0714286, "position": 108, "begin": 1, "end": 1}, 
                {"id": 2, "text": "항로", "type": "NNG", "scode": "000001", "weight": 0.5, "position": 118, "begin": 2, "end": 2}, 
                {"id": 3, "text": "를", "type": "JKO", "scode": "000000", "weight": 1, "position": 124, "begin": 3, "end": 3}, 
                {"id": 4, "text": "발견하", "type": "VV", "scode": "010000", "weight": 0.5, "position": 128, "begin": 4, "end": 5}, 
                {"id": 5, "text": "는", "type": "ETM", "scode": "000000", "weight": 1, "position": 137, "begin": 6, "end": 6}, 
                {"id": 6, "text": "등", "type": "NNB", "scode": "050001", "weight": 0.0526316, "position": 141, "begin": 7, "end": 7}, 
                {"id": 7, "text": "신대륙", "type": "NNG", "scode": "000000", "weight": 1, "position": 145, "begin": 8, "end": 9}, 
                {"id": 8, "text": "발견", "type": "NNG", "scode": "010000", "weight": 0.5, "position": 155, "begin": 10, "end": 10}, 
                {"id": 9, "text": "에", "type": "JKB", "scode": "000000", "weight": 1, "position": 161, "begin": 11, "end": 11}, 
                {"id": 10, "text": "중요하", "type": "VA", "scode": "020000", "weight": 0.5, "position": 165, "begin": 12, "end": 13}, 
                {"id": 11, "text": "ㄴ", "type": "ETM", "scode": "000000", "weight": 1, "position": 171, "begin": 14, "end": 14}, 
                {"id": 12, "text": "역할", "type": "NNG", "scode": "000001", "weight": 0.5, "position": 175, "begin": 15, "end": 15}, 
                {"id": 13, "text": "을", "type": "JKO", "scode": "000000", "weight": 1, "position": 181, "begin": 16, "end": 16}, 
                {"id": 14, "text": "하", "type": "VV", "scode": "010101", "weight": 0.02, "position": 185, "begin": 17, "end": 17}, 
                {"id": 15, "text": "ㄴ", "type": "ETM", "scode": "000000", "weight": 1, "position": 185, "begin": 18, "end": 18}, 
                {"id": 16, "text": "이", "type": "MM", "scode": "050102", "weight": 0.0172414, "position": 189, "begin": 19, "end": 19}, 
                {"id": 17, "text": "탐험가", "type": "NNG", "scode": "000000", "weight": 1, "position": 193, "begin": 20, "end": 21}, 
                {"id": 18, "text": "는", "type": "JX", "scode": "000000", "weight": 1, "position": 202, "begin": 22, "end": 22}, 
                {"id": 19, "text": "?", "type": "SF", "scode": "000000", "weight": 1, "position": 205, "begin": 23, "end": 23}
            ], 
            "word": [
                {"id": 0, "text": "서인도", "type": "", "begin": 0, "end": 1}, 
                {"id": 1, "text": "항로를", "type": "", "begin": 2, "end": 3}, 
                {"id": 2, "text": "발견하는", "type": "", "begin": 4, "end": 6}, 
                {"id": 3, "text": "등", "type": "", "begin": 7, "end": 7}, 
                {"id": 4, "text": "신대륙", "type": "", "begin": 8, "end": 9}, 
                {"id": 5, "text": "발견에", "type": "", "begin": 10, "end": 11}, 
                {"id": 6, "text": "중요한", "type": "", "begin": 12, "end": 14}, 
                {"id": 7, "text": "역할을", "type": "", "begin": 15, "end": 16}, 
                {"id": 8, "text": "한", "type": "", "begin": 17, "end": 18}, 
                {"id": 9, "text": "이", "type": "", "begin": 19, "end": 19}, 
                {"id": 10, "text": "탐험가는?", "type": "", "begin": 20, "end": 23}
            ], 
            "NE": [
                {"id": 0, "text": "서인도", "type": "LC_OTHERS", "begin": 0, "end": 1, "weight": 1, "common_noun": 0}, 
                {"id": 1, "text": "신대륙", "type": "LCG_CONTINENT", "begin": 8, "end": 9, "weight": 1, "common_noun": 0}, 
                {"id": 2, "text": "탐험가", "type": "CV_OCCUPATION", "begin": 20, "end": 21, "weight": 0.580916, "common_noun": 0}
            ], 
            "chunk": [], 
            "dependency": [
                {"id": 0, "text": "서인도", "head": 1, "label": "NP", "mod": [], "weight": 0.513349}, 
                {"id": 1, "text": "항로를", "head": 2, "label": "NP_OBJ", "mod": [0], "weight": 0.752234}, 
                {"id": 2, "text": "발견하는", "head": 3, "label": "VP_MOD", "mod": [1], "weight": 0.801835}, 
                {"id": 3, "text": "등", "head": 8, "label": "NP_AJT", "mod": [2], "weight": 0.348555}, 
                {"id": 4, "text": "신대륙", "head": 5, "label": "NP", "mod": [], "weight": 0.841391}, 
                {"id": 5, "text": "발견에", "head": 8, "label": "NP_AJT", "mod": [4], "weight": 0.768257}, 
                {"id": 6, "text": "중요한", "head": 7, "label": "VP_MOD", "mod": [], "weight": 0.716247}, 
                {"id": 7, "text": "역할을", "head": 8, "label": "NP_OBJ", "mod": [6], "weight": 0.76166}, 
                {"id": 8, "text": "한", "head": 10, "label": "VP_MOD", "mod": [3, 5, 7], "weight": 0.599577}, 
                {"id": 9, "text": "이", "head": 10, "label": "DP", "mod": [], "weight": 0.55916}, 
                {"id": 10, "text": "탐험가는?", "head": -1, "label": "NP", "mod": [8, 9], "weight": 0.00863362}
            ], 
            "SRL": [
                {"verb": "발견", "sense": 1, "word_id": 2, "weight": 0.259858, "argument": [
                    {"type": "ARG1", "word_id": 1, "text": "항로를", "weight": 0.259858}
                ]}, 
                {"verb": "중요", "sense": 1, "word_id": 6, "weight": 0.329133, "argument": [
                    {"type": "ARG1", "word_id": 7, "text": "역할을", "weight": 0.329133}, 
                    {"type": "ARG2", "word_id": 5, "text": "발견에", "weight": 1}
                ]}, 
                {"verb": "하", "sense": 1, "word_id": 8, "weight": 0.211474, "argument": [
                    {"type": "ARG1", "word_id": 7, "text": "역할을", "weight": 0.26452}, 
                    {"type": "ARG0", "word_id": 10, "text": "탐험가는?", "weight": 0.158428}
                ]}
            ], 
            "relation": [], 
            "SA": [], 
            "ZA": []
        }
    ], 
    "entity": [
        {"id": 0, "type": "", "number": "singular", "gender": "", "person": "", "animacy": "thing", "mention": [
            {"id": 1, "sent_id": 0, "start_eid": 0, "end_eid": 1, "ne_id": -1, "text": "이탈리아 출신의", "start_eid_short": 0, "end_eid_short": 1, "text_short": "이탈리아 출신의"}
        ]}, 
        {"id": 1, "type": "LCP_COUNTRY", "number": "singular", "gender": "", "person": "", "animacy": "place", "mention": [
            {"id": 2, "sent_id": 0, "start_eid": 0, "end_eid": 0, "ne_id": 0, "text": "이탈리아", "start_eid_short": 0, "end_eid_short": 0, "text_short": "이탈리아"}
        ]}, 
        {"id": 2, "type": "CV_OCCUPATION", "number": "singular", "gender": "", "person": "", "animacy": "thing", "mention": [
            {"id": 0, "sent_id": 0, "start_eid": 0, "end_eid": 2, "ne_id": 1, "text": "이탈리아 출신의 탐험가로", "start_eid_short": 2, "end_eid_short": 2, "text_short": "탐험가로"}, 
            {"id": 14, "sent_id": 1, "start_eid": 9, "end_eid": 10, "ne_id": 3, "text": "이 탐험가는?", "start_eid_short": 10, "end_eid_short": 10, "text_short": "탐험가는?"}
        ]}, 
        {"id": 3, "type": "CV_POSITION", "number": "singular", "gender": "", "person": "", "animacy": "human", "mention": [
            {"id": 4, "sent_id": 0, "start_eid": 3, "end_eid": 5, "ne_id": 4, "text": "에스파냐의 이사벨 여왕의", "start_eid_short": 4, "end_eid_short": 5, "text_short": "이사벨 여왕의"}, 
            {"id": 5, "sent_id": 0, "start_eid": 3, "end_eid": 4, "ne_id": 3, "text": "에스파냐의 이사벨", "start_eid_short": 4, "end_eid_short": 4, "text_short": "이사벨"}
        ]}, 
        {"id": 4, "type": "LCP_COUNTRY", "number": "singular", "gender": "", "person": "", "animacy": "place", "mention": [
            {"id": 6, "sent_id": 0, "start_eid": 3, "end_eid": 3, "ne_id": 2, "text": "에스파냐의", "start_eid_short": 3, "end_eid_short": 3, "text_short": "에스파냐의"}
        ]}, 
        {"id": 5, "type": "", "number": "singular", "gender": "", "person": "", "animacy": "thing", "mention": [
            {"id": 3, "sent_id": 0, "start_eid": 3, "end_eid": 6, "ne_id": -1, "text": "에스파냐의 이사벨 여왕의 후원으로", "start_eid_short": 6, "end_eid_short": 6, "text_short": "후원으로"}
        ]}, 
        {"id": 6, "type": "", "number": "singular", "gender": "", "person": "", "animacy": "thing", "mention": [
            {"id": 7, "sent_id": 0, "start_eid": 7, "end_eid": 7, "ne_id": -1, "text": "항해를", "start_eid_short": 7, "end_eid_short": 7, "text_short": "항해를"}
        ]}, 
        {"id": 7, "type": "", "number": "singular", "gender": "", "person": "", "animacy": "thing", "mention": [
            {"id": 8, "sent_id": 1, "start_eid": 0, "end_eid": 3, "ne_id": -1, "text": "서인도 항로를 발견하는 등", "start_eid_short": 3, "end_eid_short": 3, "text_short": "등"}
        ]}, 
        {"id": 8, "type": "", "number": "singular", "gender": "", "person": "", "animacy": "thing", "mention": [
            {"id": 9, "sent_id": 1, "start_eid": 0, "end_eid": 1, "ne_id": -1, "text": "서인도 항로를", "start_eid_short": 0, "end_eid_short": 1, "text_short": "서인도 항로를"}
        ]}, 
        {"id": 9, "type": "LCP_COUNTRY", "number": "singular", "gender": "", "person": "", "animacy": "place", "mention": [
            {"id": 10, "sent_id": 1, "start_eid": 0, "end_eid": 0, "ne_id": 0, "text": "서인도", "start_eid_short": 0, "end_eid_short": 0, "text_short": "서인도"}
        ]}, 
        {"id": 10, "type": "", "number": "singular", "gender": "", "person": "", "animacy": "thing", "mention": [
            {"id": 12, "sent_id": 1, "start_eid": 4, "end_eid": 5, "ne_id": -1, "text": "신대륙 발견에", "start_eid_short": 4, "end_eid_short": 5, "text_short": "신대륙 발견에"}
        ]}, 
        {"id": 11, "type": "LCG_CONTINENT", "number": "singular", "gender": "", "person": "", "animacy": "place", "mention": [
            {"id": 13, "sent_id": 1, "start_eid": 4, "end_eid": 4, "ne_id": 2, "text": "신대륙", "start_eid_short": 4, "end_eid_short": 4, "text_short": "신대륙"}
        ]}, 
        {"id": 12, "type": "", "number": "singular", "gender": "", "person": "", "animacy": "thing", "mention": [
            {"id": 11, "sent_id": 1, "start_eid": 4, "end_eid": 7, "ne_id": -1, "text": "신대륙 발견에 중요한 역할을", "start_eid_short": 7, "end_eid_short": 7, "text_short": "역할을"}
        ]}
    ]
}