{
    "doc_id": "E2016.788.10_A_01.json", 
    "DCT": "", 
    "category": "", 
    "category_weight": 0, 
    "title": {
        "text": "곶", 
        "NE": ""
    }, 
    "metaInfo": {}, 
    "sentence": [
        {
            "id": 0, 
            "reserve_str": "", 
            "text": "곶(串, Cape)은 바다 또는 호수 쪽으로 튀어나온 모양을 한 육지로, 3면이 물로 둘러싸인 땅을 말한다.", 
            "morp": [
                {"id": 0, "lemma": "곶", "type": "NNG", "position": 0, "weight": 0.9}, 
                {"id": 1, "lemma": "(", "type": "SS", "position": 3, "weight": 1}, 
                {"id": 2, "lemma": "串", "type": "SH", "position": 4, "weight": 1}, 
                {"id": 3, "lemma": ",", "type": "SP", "position": 7, "weight": 1}, 
                {"id": 4, "lemma": "Cape", "type": "SL", "position": 9, "weight": 1}, 
                {"id": 5, "lemma": ")", "type": "SS", "position": 13, "weight": 1}, 
                {"id": 6, "lemma": "은", "type": "JX", "position": 14, "weight": 0.0128817}, 
                {"id": 7, "lemma": "바다", "type": "NNG", "position": 18, "weight": 0.313297}, 
                {"id": 8, "lemma": "또는", "type": "MAJ", "position": 25, "weight": 0.0017557}, 
                {"id": 9, "lemma": "호수", "type": "NNG", "position": 32, "weight": 0.413423}, 
                {"id": 10, "lemma": "쪽", "type": "NNB", "position": 39, "weight": 0.0149456}, 
                {"id": 11, "lemma": "으로", "type": "JKB", "position": 42, "weight": 0.135596}, 
                {"id": 12, "lemma": "튀어나오", "type": "VV", "position": 49, "weight": 0.9}, 
                {"id": 13, "lemma": "ㄴ", "type": "ETM", "position": 58, "weight": 0.304215}, 
                {"id": 14, "lemma": "모양", "type": "NNG", "position": 62, "weight": 0.640889}, 
                {"id": 15, "lemma": "을", "type": "JKO", "position": 68, "weight": 0.129611}, 
                {"id": 16, "lemma": "하", "type": "VV", "position": 72, "weight": 0.48169}, 
                {"id": 17, "lemma": "ㄴ", "type": "ETM", "position": 72, "weight": 0.304215}, 
                {"id": 18, "lemma": "육지", "type": "NNG", "position": 76, "weight": 0.9}, 
                {"id": 19, "lemma": "로", "type": "JKB", "position": 82, "weight": 0.153229}, 
                {"id": 20, "lemma": ",", "type": "SP", "position": 85, "weight": 1}, 
                {"id": 21, "lemma": "3", "type": "SN", "position": 87, "weight": 1}, 
                {"id": 22, "lemma": "면", "type": "NNG", "position": 88, "weight": 0.00719582}, 
                {"id": 23, "lemma": "이", "type": "JKS", "position": 91, "weight": 0.0360723}, 
                {"id": 24, "lemma": "물", "type": "NNG", "position": 95, "weight": 0.17895}, 
                {"id": 25, "lemma": "로", "type": "JKB", "position": 98, "weight": 0.153229}, 
                {"id": 26, "lemma": "둘러싸이", "type": "VV", "position": 102, "weight": 0.9}, 
                {"id": 27, "lemma": "ㄴ", "type": "ETM", "position": 111, "weight": 0.304215}, 
                {"id": 28, "lemma": "땅", "type": "NNG", "position": 115, "weight": 0.657479}, 
                {"id": 29, "lemma": "을", "type": "JKO", "position": 118, "weight": 0.129611}, 
                {"id": 30, "lemma": "말", "type": "NNG", "position": 122, "weight": 0.0814073}, 
                {"id": 31, "lemma": "하", "type": "XSV", "position": 125, "weight": 0.0001}, 
                {"id": 32, "lemma": "ㄴ다", "type": "EF", "position": 125, "weight": 0.0449045}, 
                {"id": 33, "lemma": ".", "type": "SF", "position": 131, "weight": 1}
            ], 
            "morp_eval": [], 
            "WSD": [
                {"id": 0, "text": "곶", "type": "NNG", "scode": "020000", "weight": 0.2, "position": 0, "begin": 0, "end": 0}, 
                {"id": 1, "text": "(", "type": "SS", "scode": "000000", "weight": 1, "position": 3, "begin": 1, "end": 1}, 
                {"id": 2, "text": "串", "type": "SH", "scode": "000000", "weight": 1, "position": 4, "begin": 2, "end": 2}, 
                {"id": 3, "text": ",", "type": "SP", "scode": "000000", "weight": 1, "position": 7, "begin": 3, "end": 3}, 
                {"id": 4, "text": "Cape", "type": "SL", "scode": "000000", "weight": 1, "position": 9, "begin": 4, "end": 4}, 
                {"id": 5, "text": ")", "type": "SS", "scode": "000000", "weight": 1, "position": 13, "begin": 5, "end": 5}, 
                {"id": 6, "text": "은", "type": "JX", "scode": "000000", "weight": 1, "position": 14, "begin": 6, "end": 6}, 
                {"id": 7, "text": "바다", "type": "NNG", "scode": "000001", "weight": 0.333333, "position": 18, "begin": 7, "end": 7}, 
                {"id": 8, "text": "또는", "type": "MAJ", "scode": "000000", "weight": 1, "position": 25, "begin": 8, "end": 8}, 
                {"id": 9, "text": "호수", "type": "NNG", "scode": "070000", "weight": 0.0625, "position": 32, "begin": 9, "end": 9}, 
                {"id": 10, "text": "쪽", "type": "NNB", "scode": "050001", "weight": 0.0357143, "position": 39, "begin": 10, "end": 10}, 
                {"id": 11, "text": "으로", "type": "JKB", "scode": "000000", "weight": 1, "position": 42, "begin": 11, "end": 11}, 
                {"id": 12, "text": "튀어나오", "type": "VV", "scode": "000100", "weight": 0.333333, "position": 49, "begin": 12, "end": 12}, 
                {"id": 13, "text": "ㄴ", "type": "ETM", "scode": "000000", "weight": 1, "position": 58, "begin": 13, "end": 13}, 
                {"id": 14, "text": "모양", "type": "NNG", "scode": "020001", "weight": 0.125, "position": 62, "begin": 14, "end": 14}, 
                {"id": 15, "text": "을", "type": "JKO", "scode": "000000", "weight": 1, "position": 68, "begin": 15, "end": 15}, 
                {"id": 16, "text": "하", "type": "VV", "scode": "010101", "weight": 0.02, "position": 72, "begin": 16, "end": 16}, 
                {"id": 17, "text": "ㄴ", "type": "ETM", "scode": "000000", "weight": 1, "position": 72, "begin": 17, "end": 17}, 
                {"id": 18, "text": "육지", "type": "NNG", "scode": "020002", "weight": 0.333333, "position": 76, "begin": 18, "end": 18}, 
                {"id": 19, "text": "로", "type": "JKB", "scode": "000000", "weight": 1, "position": 82, "begin": 19, "end": 19}, 
                {"id": 20, "text": ",", "type": "SP", "scode": "000000", "weight": 1, "position": 85, "begin": 20, "end": 20}, 
                {"id": 21, "text": "3", "type": "SN", "scode": "000000", "weight": 1, "position": 87, "begin": 21, "end": 21}, 
                {"id": 22, "text": "면", "type": "NNG", "scode": "050002", "weight": 0.0555556, "position": 88, "begin": 22, "end": 22}, 
                {"id": 23, "text": "이", "type": "JKS", "scode": "000000", "weight": 1, "position": 91, "begin": 23, "end": 23}, 
                {"id": 24, "text": "물", "type": "NNG", "scode": "010001", "weight": 0.0588235, "position": 95, "begin": 24, "end": 24}, 
                {"id": 25, "text": "로", "type": "JKB", "scode": "000000", "weight": 1, "position": 98, "begin": 25, "end": 25}, 
                {"id": 26, "text": "둘러싸이", "type": "VV", "scode": "000001", "weight": 0.5, "position": 102, "begin": 26, "end": 26}, 
                {"id": 27, "text": "ㄴ", "type": "ETM", "scode": "000000", "weight": 1, "position": 111, "begin": 27, "end": 27}, 
                {"id": 28, "text": "땅", "type": "NNG", "scode": "010001", "weight": 0.125, "position": 115, "begin": 28, "end": 28}, 
                {"id": 29, "text": "을", "type": "JKO", "scode": "000000", "weight": 1, "position": 118, "begin": 29, "end": 29}, 
                {"id": 30, "text": "말하", "type": "VV", "scode": "000101", "weight": 0.125, "position": 122, "begin": 30, "end": 31}, 
                {"id": 31, "text": "ㄴ다", "type": "EF", "scode": "000000", "weight": 1, "position": 125, "begin": 32, "end": 32}, 
                {"id": 32, "text": ".", "type": "SF", "scode": "000000", "weight": 1, "position": 131, "begin": 33, "end": 33}
            ], 
            "word": [
                {"id": 0, "text": "곶(串,", "type": "", "begin": 0, "end": 3}, 
                {"id": 1, "text": "Cape)은", "type": "", "begin": 4, "end": 6}, 
                {"id": 2, "text": "바다", "type": "", "begin": 7, "end": 7}, 
                {"id": 3, "text": "또는", "type": "", "begin": 8, "end": 8}, 
                {"id": 4, "text": "호수", "type": "", "begin": 9, "end": 9}, 
                {"id": 5, "text": "쪽으로", "type": "", "begin": 10, "end": 11}, 
                {"id": 6, "text": "튀어나온", "type": "", "begin": 12, "end": 13}, 
                {"id": 7, "text": "모양을", "type": "", "begin": 14, "end": 15}, 
                {"id": 8, "text": "한", "type": "", "begin": 16, "end": 17}, 
                {"id": 9, "text": "육지로,", "type": "", "begin": 18, "end": 20}, 
                {"id": 10, "text": "3면이", "type": "", "begin": 21, "end": 23}, 
                {"id": 11, "text": "물로", "type": "", "begin": 24, "end": 25}, 
                {"id": 12, "text": "둘러싸인", "type": "", "begin": 26, "end": 27}, 
                {"id": 13, "text": "땅을", "type": "", "begin": 28, "end": 29}, 
                {"id": 14, "text": "말한다.", "type": "", "begin": 30, "end": 33}
            ], 
            "NE": [
                {"id": 0, "text": "3면", "type": "QT_COUNT", "begin": 21, "end": 22, "weight": 0.444787, "common_noun": 0}
            ], 
            "chunk": [], 
            "dependency": [
                {"id": 0, "text": "곶(串,", "head": 1, "label": "NP", "mod": [], "weight": 0.697875}, 
                {"id": 1, "text": "Cape)은", "head": 9, "label": "NP_SBJ", "mod": [0], "weight": 0.681626}, 
                {"id": 2, "text": "바다", "head": 4, "label": "NP_CNJ", "mod": [], "weight": 0.250727}, 
                {"id": 3, "text": "또는", "head": 4, "label": "AP", "mod": [], "weight": 0.376766}, 
                {"id": 4, "text": "호수", "head": 5, "label": "NP", "mod": [2, 3], "weight": 0.785624}, 
                {"id": 5, "text": "쪽으로", "head": 6, "label": "NP_AJT", "mod": [4], "weight": 0.602531}, 
                {"id": 6, "text": "튀어나온", "head": 7, "label": "VP_MOD", "mod": [5], "weight": 0.611389}, 
                {"id": 7, "text": "모양을", "head": 8, "label": "NP_OBJ", "mod": [6], "weight": 0.712988}, 
                {"id": 8, "text": "한", "head": 9, "label": "VP_MOD", "mod": [7], "weight": 0.638004}, 
                {"id": 9, "text": "육지로,", "head": 12, "label": "NP_AJT", "mod": [1, 8], "weight": 0.803332}, 
                {"id": 10, "text": "3면이", "head": 12, "label": "NP_SBJ", "mod": [], "weight": 0.60041}, 
                {"id": 11, "text": "물로", "head": 12, "label": "NP_AJT", "mod": [], "weight": 0.769078}, 
                {"id": 12, "text": "둘러싸인", "head": 13, "label": "VP_MOD", "mod": [10, 11, 9], "weight": 0.769535}, 
                {"id": 13, "text": "땅을", "head": 14, "label": "NP_OBJ", "mod": [12], "weight": 0.8464}, 
                {"id": 14, "text": "말한다.", "head": -1, "label": "VP", "mod": [13], "weight": 0.00125882}
            ], 
            "SRL": [
                {"verb": "튀어나오", "sense": 1, "word_id": 6, "weight": 0.078919, "argument": [
                    {"type": "ARGM-DIR", "word_id": 5, "text": "쪽으로", "weight": 1}, 
                    {"type": "ARG1", "word_id": 9, "text": "육지로,", "weight": 1}
                ]}, 
                {"verb": "하07", "sense": 1, "word_id": 8, "weight": 0, "argument": [
                    {"type": "ARG2", "word_id": 7, "text": "모양을", "weight": 1}, 
                    {"type": "ARG1", "word_id": 9, "text": "육지로,", "weight": 1}
                ]}, 
                {"verb": "둘러싸이", "sense": 1, "word_id": 12, "weight": 0.097488, "argument": [
                    {"type": "ARG1", "word_id": 10, "text": "3면이", "weight": 0.0892656}, 
                    {"type": "ARG2", "word_id": 11, "text": "물로", "weight": 0.0784262}
                ]}, 
                {"verb": "말하", "sense": 1, "word_id": 14, "weight": 0.126518, "argument": [
                    {"type": "ARG1", "word_id": 13, "text": "땅을", "weight": 0.126518}
                ]}
            ], 
            "relation": [], 
            "SA": [], 
            "ZA": []
        }, 
        {
            "id": 1, 
            "reserve_str": "", 
            "text": "갑(岬) 또는 단(端)이라고도 하며, 등대가 설치된 경우가 많다.", 
            "morp": [
                {"id": 0, "lemma": "갑", "type": "NNG", "position": 132, "weight": 0.435367}, 
                {"id": 1, "lemma": "(", "type": "SS", "position": 135, "weight": 1}, 
                {"id": 2, "lemma": "岬", "type": "SH", "position": 136, "weight": 1}, 
                {"id": 3, "lemma": ")", "type": "SS", "position": 139, "weight": 1}, 
                {"id": 4, "lemma": "또는", "type": "MAJ", "position": 141, "weight": 0.00307013}, 
                {"id": 5, "lemma": "단", "type": "NNG", "position": 148, "weight": 0.079506}, 
                {"id": 6, "lemma": "(", "type": "SS", "position": 151, "weight": 1}, 
                {"id": 7, "lemma": "端", "type": "SH", "position": 152, "weight": 1}, 
                {"id": 8, "lemma": ")", "type": "SS", "position": 155, "weight": 1}, 
                {"id": 9, "lemma": "이라고", "type": "JKQ", "position": 156, "weight": 0.0202133}, 
                {"id": 10, "lemma": "도", "type": "JX", "position": 165, "weight": 0.0188913}, 
                {"id": 11, "lemma": "하", "type": "VV", "position": 169, "weight": 0.0910671}, 
                {"id": 12, "lemma": "며", "type": "EC", "position": 172, "weight": 0.429701}, 
                {"id": 13, "lemma": ",", "type": "SP", "position": 175, "weight": 1}, 
                {"id": 14, "lemma": "등대", "type": "NNG", "position": 177, "weight": 0.527908}, 
                {"id": 15, "lemma": "가", "type": "JKS", "position": 183, "weight": 0.066324}, 
                {"id": 16, "lemma": "설치", "type": "NNG", "position": 187, "weight": 0.154717}, 
                {"id": 17, "lemma": "되", "type": "XSV", "position": 193, "weight": 0.000224177}, 
                {"id": 18, "lemma": "ㄴ", "type": "ETM", "position": 193, "weight": 0.392321}, 
                {"id": 19, "lemma": "경우", "type": "NNG", "position": 197, "weight": 0.658545}, 
                {"id": 20, "lemma": "가", "type": "JKS", "position": 203, "weight": 0.066324}, 
                {"id": 21, "lemma": "많", "type": "VA", "position": 207, "weight": 0.249378}, 
                {"id": 22, "lemma": "다", "type": "EF", "position": 210, "weight": 0.132573}, 
                {"id": 23, "lemma": ".", "type": "SF", "position": 213, "weight": 1}
            ], 
            "morp_eval": [], 
            "WSD": [
                {"id": 0, "text": "갑", "type": "NNG", "scode": "060000", "weight": 0.0714286, "position": 132, "begin": 0, "end": 0}, 
                {"id": 1, "text": "(", "type": "SS", "scode": "000000", "weight": 1, "position": 135, "begin": 1, "end": 1}, 
                {"id": 2, "text": "岬", "type": "SH", "scode": "000000", "weight": 1, "position": 136, "begin": 2, "end": 2}, 
                {"id": 3, "text": ")", "type": "SS", "scode": "000000", "weight": 1, "position": 139, "begin": 3, "end": 3}, 
                {"id": 4, "text": "또는", "type": "MAJ", "scode": "000000", "weight": 1, "position": 141, "begin": 4, "end": 4}, 
                {"id": 5, "text": "단", "type": "NNG", "scode": "130000", "weight": 0.0277778, "position": 148, "begin": 5, "end": 5}, 
                {"id": 6, "text": "(", "type": "SS", "scode": "000000", "weight": 1, "position": 151, "begin": 6, "end": 6}, 
                {"id": 7, "text": "端", "type": "SH", "scode": "000000", "weight": 1, "position": 152, "begin": 7, "end": 7}, 
                {"id": 8, "text": ")", "type": "SS", "scode": "000000", "weight": 1, "position": 155, "begin": 8, "end": 8}, 
                {"id": 9, "text": "이라고", "type": "JKQ", "scode": "000000", "weight": 1, "position": 156, "begin": 9, "end": 9}, 
                {"id": 10, "text": "도", "type": "JX", "scode": "000000", "weight": 1, "position": 165, "begin": 10, "end": 10}, 
                {"id": 11, "text": "하", "type": "VV", "scode": "010701", "weight": 0.02, "position": 169, "begin": 11, "end": 11}, 
                {"id": 12, "text": "며", "type": "EC", "scode": "000000", "weight": 1, "position": 172, "begin": 12, "end": 12}, 
                {"id": 13, "text": ",", "type": "SP", "scode": "000000", "weight": 1, "position": 175, "begin": 13, "end": 13}, 
                {"id": 14, "text": "등대", "type": "NNG", "scode": "060001", "weight": 0.111111, "position": 177, "begin": 14, "end": 14}, 
                {"id": 15, "text": "가", "type": "JKS", "scode": "000000", "weight": 1, "position": 183, "begin": 15, "end": 15}, 
                {"id": 16, "text": "설치되", "type": "VV", "scode": "010000", "weight": 0.5, "position": 187, "begin": 16, "end": 17}, 
                {"id": 17, "text": "ㄴ", "type": "ETM", "scode": "000000", "weight": 1, "position": 193, "begin": 18, "end": 18}, 
                {"id": 18, "text": "경우", "type": "NNG", "scode": "030002", "weight": 0.125, "position": 197, "begin": 19, "end": 19}, 
                {"id": 19, "text": "가", "type": "JKS", "scode": "000000", "weight": 1, "position": 203, "begin": 20, "end": 20}, 
                {"id": 20, "text": "많", "type": "VA", "scode": "000000", "weight": 1, "position": 207, "begin": 21, "end": 21}, 
                {"id": 21, "text": "다", "type": "EF", "scode": "000000", "weight": 1, "position": 210, "begin": 22, "end": 22}, 
                {"id": 22, "text": ".", "type": "SF", "scode": "000000", "weight": 1, "position": 213, "begin": 23, "end": 23}
            ], 
            "word": [
                {"id": 0, "text": "갑(岬)", "type": "", "begin": 0, "end": 3}, 
                {"id": 1, "text": "또는", "type": "", "begin": 4, "end": 4}, 
                {"id": 2, "text": "단(端)이라고도", "type": "", "begin": 5, "end": 10}, 
                {"id": 3, "text": "하며,", "type": "", "begin": 11, "end": 13}, 
                {"id": 4, "text": "등대가", "type": "", "begin": 14, "end": 15}, 
                {"id": 5, "text": "설치된", "type": "", "begin": 16, "end": 18}, 
                {"id": 6, "text": "경우가", "type": "", "begin": 19, "end": 20}, 
                {"id": 7, "text": "많다.", "type": "", "begin": 21, "end": 23}
            ], 
            "NE": [], 
            "chunk": [], 
            "dependency": [
                {"id": 0, "text": "갑(岬)", "head": 2, "label": "NP_CNJ", "mod": [], "weight": 0.610953}, 
                {"id": 1, "text": "또는", "head": 2, "label": "AP", "mod": [], "weight": 0.842389}, 
                {"id": 2, "text": "단(端)이라고도", "head": 3, "label": "VNP_CMP", "mod": [0, 1], "weight": 0.465999}, 
                {"id": 3, "text": "하며,", "head": 7, "label": "VP", "mod": [2], "weight": 0.710973}, 
                {"id": 4, "text": "등대가", "head": 5, "label": "NP_SBJ", "mod": [], "weight": 0.792049}, 
                {"id": 5, "text": "설치된", "head": 6, "label": "VP_MOD", "mod": [4], "weight": 0.776727}, 
                {"id": 6, "text": "경우가", "head": 7, "label": "NP_SBJ", "mod": [5], "weight": 0.72653}, 
                {"id": 7, "text": "많다.", "head": -1, "label": "VP", "mod": [3, 6], "weight": 0.0604521}
            ], 
            "SRL": [
                {"verb": "하", "sense": 2, "word_id": 3, "weight": 0.151314, "argument": [
                    {"type": "ARG2", "word_id": 2, "text": "단(端)이라고도", "weight": 1}
                ]}, 
                {"verb": "설치", "sense": 1, "word_id": 5, "weight": 0.172025, "argument": [
                    {"type": "ARG1", "word_id": 4, "text": "등대가", "weight": 0.172025}
                ]}, 
                {"verb": "많", "sense": 1, "word_id": 7, "weight": 0.156837, "argument": [
                    {"type": "ARG1", "word_id": 6, "text": "경우가", "weight": 0.156837}
                ]}
            ], 
            "relation": [], 
            "SA": [], 
            "ZA": []
        }, 
        {
            "id": 2, 
            "reserve_str": "", 
            "text": "그 규모가 크면 반도라고 한다.", 
            "morp": [
                {"id": 0, "lemma": "그", "type": "MM", "position": 214, "weight": 0.026321}, 
                {"id": 1, "lemma": "규모", "type": "NNG", "position": 218, "weight": 0.9}, 
                {"id": 2, "lemma": "가", "type": "JKS", "position": 224, "weight": 0.066324}, 
                {"id": 3, "lemma": "크", "type": "VA", "position": 228, "weight": 0.245792}, 
                {"id": 4, "lemma": "면", "type": "EC", "position": 231, "weight": 0.297479}, 
                {"id": 5, "lemma": "반도", "type": "NNG", "position": 235, "weight": 0.213836}, 
                {"id": 6, "lemma": "이", "type": "VCP", "position": 238, "weight": 0.0177525}, 
                {"id": 7, "lemma": "라고", "type": "EC", "position": 241, "weight": 0.204147}, 
                {"id": 8, "lemma": "하", "type": "VV", "position": 248, "weight": 0.140183}, 
                {"id": 9, "lemma": "ㄴ다", "type": "EF", "position": 248, "weight": 0.0793196}, 
                {"id": 10, "lemma": ".", "type": "SF", "position": 254, "weight": 1}
            ], 
            "morp_eval": [], 
            "WSD": [
                {"id": 0, "text": "그", "type": "MM", "scode": "010102", "weight": 0.142857, "position": 214, "begin": 0, "end": 0}, 
                {"id": 1, "text": "규모", "type": "NNG", "scode": "000002", "weight": 0.333333, "position": 218, "begin": 1, "end": 1}, 
                {"id": 2, "text": "가", "type": "JKS", "scode": "000000", "weight": 1, "position": 224, "begin": 2, "end": 2}, 
                {"id": 3, "text": "크", "type": "VA", "scode": "010001", "weight": 0.0555556, "position": 228, "begin": 3, "end": 3}, 
                {"id": 4, "text": "면", "type": "EC", "scode": "000000", "weight": 1, "position": 231, "begin": 4, "end": 4}, 
                {"id": 5, "text": "반도", "type": "NNG", "scode": "020000", "weight": 0.111111, "position": 235, "begin": 5, "end": 5}, 
                {"id": 6, "text": "이", "type": "VCP", "scode": "000000", "weight": 0.0172414, "position": 238, "begin": 6, "end": 6}, 
                {"id": 7, "text": "라고", "type": "EC", "scode": "000000", "weight": 1, "position": 241, "begin": 7, "end": 7}, 
                {"id": 8, "text": "하", "type": "VV", "scode": "010400", "weight": 0.02, "position": 248, "begin": 8, "end": 8}, 
                {"id": 9, "text": "ㄴ다", "type": "EF", "scode": "000000", "weight": 1, "position": 248, "begin": 9, "end": 9}, 
                {"id": 10, "text": ".", "type": "SF", "scode": "000000", "weight": 1, "position": 254, "begin": 10, "end": 10}
            ], 
            "word": [
                {"id": 0, "text": "그", "type": "", "begin": 0, "end": 0}, 
                {"id": 1, "text": "규모가", "type": "", "begin": 1, "end": 2}, 
                {"id": 2, "text": "크면", "type": "", "begin": 3, "end": 4}, 
                {"id": 3, "text": "반도라고", "type": "", "begin": 5, "end": 7}, 
                {"id": 4, "text": "한다.", "type": "", "begin": 8, "end": 10}
            ], 
            "NE": [], 
            "chunk": [], 
            "dependency": [
                {"id": 0, "text": "그", "head": 1, "label": "DP", "mod": [], "weight": 0.591551}, 
                {"id": 1, "text": "규모가", "head": 2, "label": "NP_SBJ", "mod": [0], "weight": 0.809176}, 
                {"id": 2, "text": "크면", "head": 3, "label": "VP", "mod": [1], "weight": 0.691077}, 
                {"id": 3, "text": "반도라고", "head": 4, "label": "VNP_CMP", "mod": [2], "weight": 0.591529}, 
                {"id": 4, "text": "한다.", "head": -1, "label": "VP", "mod": [3], "weight": 0.167204}
            ], 
            "SRL": [
                {"verb": "크", "sense": 1, "word_id": 2, "weight": 0.332708, "argument": [
                    {"type": "ARG1", "word_id": 1, "text": "규모가", "weight": 0.332708}
                ]}, 
                {"verb": "하", "sense": 2, "word_id": 4, "weight": 0.188637, "argument": [
                    {"type": "ARG2", "word_id": 3, "text": "반도라고", "weight": 1}, 
                    {"type": "ARGM-CND", "word_id": 2, "text": "크면", "weight": 1}
                ]}
            ], 
            "relation": [], 
            "SA": [], 
            "ZA": []
        }
    ], 
    "entity": [
        {"id": 0, "type": "", "number": "singular", "gender": "", "person": "", "animacy": "thing", "mention": [
            {"id": 0, "sent_id": 0, "start_eid": 0, "end_eid": 1, "ne_id": -1, "text": "곶(串, Cape)은", "start_eid_short": 0, "end_eid_short": 0, "text_short": "곶(串,"}, 
            {"id": 1, "sent_id": 0, "start_eid": 2, "end_eid": 9, "ne_id": -1, "text": "바다 또는 호수 쪽으로 튀어나온 모양을 한 육지로,", "start_eid_short": 9, "end_eid_short": 9, "text_short": "육지로,"}, 
            {"id": 10, "sent_id": 1, "start_eid": 0, "end_eid": 2, "ne_id": -1, "text": "갑(岬) 또는 단(端)이라고도", "start_eid_short": 0, "end_eid_short": 0, "text_short": "갑(岬)"}
        ]}, 
        {"id": 1, "type": "", "number": "singular", "gender": "", "person": "", "animacy": "thing", "mention": [
            {"id": 2, "sent_id": 0, "start_eid": 2, "end_eid": 7, "ne_id": -1, "text": "바다 또는 호수 쪽으로 튀어나온 모양을", "start_eid_short": 7, "end_eid_short": 7, "text_short": "모양을"}
        ]}, 
        {"id": 2, "type": "", "number": "singular", "gender": "", "person": "", "animacy": "thing", "mention": [
            {"id": 4, "sent_id": 0, "start_eid": 2, "end_eid": 4, "ne_id": -1, "text": "바다 또는 호수", "start_eid_short": 4, "end_eid_short": 4, "text_short": "호수"}
        ]}, 
        {"id": 3, "type": "", "number": "singular", "gender": "", "person": "", "animacy": "thing", "mention": [
            {"id": 5, "sent_id": 0, "start_eid": 2, "end_eid": 2, "ne_id": -1, "text": "바다", "start_eid_short": 2, "end_eid_short": 2, "text_short": "바다"}
        ]}, 
        {"id": 4, "type": "", "number": "singular", "gender": "", "person": "", "animacy": "thing", "mention": [
            {"id": 6, "sent_id": 0, "start_eid": 4, "end_eid": 4, "ne_id": -1, "text": "호수", "start_eid_short": 4, "end_eid_short": 4, "text_short": "호수"}
        ]}, 
        {"id": 5, "type": "", "number": "singular", "gender": "", "person": "", "animacy": "thing", "mention": [
            {"id": 7, "sent_id": 0, "start_eid": 10, "end_eid": 13, "ne_id": -1, "text": "3면이 물로 둘러싸인 땅을", "start_eid_short": 13, "end_eid_short": 13, "text_short": "땅을"}
        ]}, 
        {"id": 6, "type": "QT_COUNT", "number": "singular", "gender": "", "person": "", "animacy": "thing", "mention": [
            {"id": 8, "sent_id": 0, "start_eid": 10, "end_eid": 10, "ne_id": 0, "text": "3면이", "start_eid_short": 10, "end_eid_short": 10, "text_short": "3면이"}
        ]}, 
        {"id": 7, "type": "", "number": "singular", "gender": "", "person": "", "animacy": "thing", "mention": [
            {"id": 9, "sent_id": 0, "start_eid": 11, "end_eid": 11, "ne_id": -1, "text": "물로", "start_eid_short": 11, "end_eid_short": 11, "text_short": "물로"}
        ]}, 
        {"id": 8, "type": "", "number": "singular", "gender": "", "person": "", "animacy": "thing", "mention": [
            {"id": 13, "sent_id": 1, "start_eid": 4, "end_eid": 6, "ne_id": -1, "text": "등대가 설치된 경우가", "start_eid_short": 6, "end_eid_short": 6, "text_short": "경우가"}
        ]}, 
        {"id": 9, "type": "", "number": "singular", "gender": "", "person": "", "animacy": "thing", "mention": [
            {"id": 14, "sent_id": 1, "start_eid": 4, "end_eid": 4, "ne_id": -1, "text": "등대가", "start_eid_short": 4, "end_eid_short": 4, "text_short": "등대가"}
        ]}, 
        {"id": 10, "type": "", "number": "singular", "gender": "", "person": "", "animacy": "thing", "mention": [
            {"id": 15, "sent_id": 2, "start_eid": 0, "end_eid": 1, "ne_id": -1, "text": "그 규모가", "start_eid_short": 0, "end_eid_short": 1, "text_short": "그 규모가"}
        ]}, 
        {"id": 11, "type": "", "number": "singular", "gender": "", "person": "", "animacy": "thing", "mention": [
            {"id": 3, "sent_id": 0, "start_eid": 2, "end_eid": 5, "ne_id": -1, "text": "바다 또는 호수 쪽으로", "start_eid_short": 4, "end_eid_short": 5, "text_short": "호수 쪽으로"}
        ]}, 
        {"id": 12, "type": "", "number": "singular", "gender": "", "person": "", "animacy": "thing", "mention": [
            {"id": 11, "sent_id": 1, "start_eid": 0, "end_eid": 0, "ne_id": -1, "text": "갑(岬)", "start_eid_short": 0, "end_eid_short": 0, "text_short": "갑(岬)"}
        ]}, 
        {"id": 13, "type": "", "number": "singular", "gender": "", "person": "", "animacy": "thing", "mention": [
            {"id": 12, "sent_id": 1, "start_eid": 2, "end_eid": 2, "ne_id": -1, "text": "단(端)이라고도", "start_eid_short": 2, "end_eid_short": 0, "text_short": ""}
        ]}, 
        {"id": 14, "type": "", "number": "singular", "gender": "", "person": "", "animacy": "thing", "mention": [
            {"id": 16, "sent_id": 2, "start_eid": 3, "end_eid": 3, "ne_id": -1, "text": "반도라고", "start_eid_short": 3, "end_eid_short": 3, "text_short": "반도라고"}
        ]}
    ]
}