{
    "doc_id": "E2016.889.08_A_01.json", 
    "DCT": "", 
    "category": "", 
    "category_weight": 0, 
    "title": {
        "text": "윌리엄 1세 (잉글랜드)", 
        "NE": ""
    }, 
    "metaInfo": {}, 
    "sentence": [
        {
            "id": 0, 
            "reserve_str": "", 
            "text": "그는 노르망디 공국을 서프랑크 왕국(프랑스)과 대등할 정도로 발전시켰다.", 
            "morp": [
                {"id": 0, "lemma": "그", "type": "NP", "position": 0, "weight": 0.0328001}, 
                {"id": 1, "lemma": "는", "type": "JX", "position": 3, "weight": 0.122593}, 
                {"id": 2, "lemma": "노르망디", "type": "NNP", "position": 7, "weight": 0.9}, 
                {"id": 3, "lemma": "공국", "type": "NNG", "position": 20, "weight": 0.9}, 
                {"id": 4, "lemma": "을", "type": "JKO", "position": 26, "weight": 0.129611}, 
                {"id": 5, "lemma": "서프랑크", "type": "NNP", "position": 30, "weight": 0.25}, 
                {"id": 6, "lemma": "왕국", "type": "NNG", "position": 43, "weight": 0.9}, 
                {"id": 7, "lemma": "(", "type": "SS", "position": 49, "weight": 1}, 
                {"id": 8, "lemma": "프랑스", "type": "NNP", "position": 50, "weight": 0.0674443}, 
                {"id": 9, "lemma": ")", "type": "SS", "position": 59, "weight": 1}, 
                {"id": 10, "lemma": "과", "type": "JKB", "position": 60, "weight": 0.0159402}, 
                {"id": 11, "lemma": "대등", "type": "NNG", "position": 64, "weight": 0.65}, 
                {"id": 12, "lemma": "하", "type": "XSA", "position": 70, "weight": 0.0001}, 
                {"id": 13, "lemma": "ㄹ", "type": "ETM", "position": 70, "weight": 0.483205}, 
                {"id": 14, "lemma": "정도", "type": "NNG", "position": 74, "weight": 0.6587}, 
                {"id": 15, "lemma": "로", "type": "JKB", "position": 80, "weight": 0.153229}, 
                {"id": 16, "lemma": "발전", "type": "NNG", "position": 84, "weight": 0.9}, 
                {"id": 17, "lemma": "시키", "type": "XSV", "position": 90, "weight": 0.00340357}, 
                {"id": 18, "lemma": "었", "type": "EP", "position": 93, "weight": 0.9}, 
                {"id": 19, "lemma": "다", "type": "EF", "position": 96, "weight": 0.640954}, 
                {"id": 20, "lemma": ".", "type": "SF", "position": 99, "weight": 1}
            ], 
            "morp_eval": [], 
            "WSD": [
                {"id": 0, "text": "그", "type": "NP", "scode": "010001", "weight": 0.142857, "position": 0, "begin": 0, "end": 0}, 
                {"id": 1, "text": "는", "type": "JX", "scode": "000000", "weight": 1, "position": 3, "begin": 1, "end": 1}, 
                {"id": 2, "text": "노르망디", "type": "NNP", "scode": "000000", "weight": 1, "position": 7, "begin": 2, "end": 2}, 
                {"id": 3, "text": "공국", "type": "NNG", "scode": "010000", "weight": 0.5, "position": 20, "begin": 3, "end": 3}, 
                {"id": 4, "text": "을", "type": "JKO", "scode": "000000", "weight": 1, "position": 26, "begin": 4, "end": 4}, 
                {"id": 5, "text": "서프랑크", "type": "NNP", "scode": "000000", "weight": 0, "position": 30, "begin": 5, "end": 5}, 
                {"id": 6, "text": "왕국", "type": "NNG", "scode": "000001", "weight": 0.5, "position": 43, "begin": 6, "end": 6}, 
                {"id": 7, "text": "(", "type": "SS", "scode": "000000", "weight": 1, "position": 49, "begin": 7, "end": 7}, 
                {"id": 8, "text": "프랑스", "type": "NNP", "scode": "020000", "weight": 0.5, "position": 50, "begin": 8, "end": 8}, 
                {"id": 9, "text": ")", "type": "SS", "scode": "000000", "weight": 1, "position": 59, "begin": 9, "end": 9}, 
                {"id": 10, "text": "과", "type": "JKB", "scode": "000000", "weight": 1, "position": 60, "begin": 10, "end": 10}, 
                {"id": 11, "text": "대등하", "type": "VA", "scode": "020000", "weight": 0.5, "position": 64, "begin": 11, "end": 12}, 
                {"id": 12, "text": "ㄹ", "type": "ETM", "scode": "000000", "weight": 1, "position": 70, "begin": 13, "end": 13}, 
                {"id": 13, "text": "정도", "type": "NNG", "scode": "110003", "weight": 0.0526316, "position": 74, "begin": 14, "end": 14}, 
                {"id": 14, "text": "로", "type": "JKB", "scode": "000000", "weight": 1, "position": 80, "begin": 15, "end": 15}, 
                {"id": 15, "text": "발전", "type": "NNG", "scode": "010001", "weight": 0.25, "position": 84, "begin": 16, "end": 16}, 
                {"id": 16, "text": "시키", "type": "XSV", "scode": "000000", "weight": 0, "position": 90, "begin": 17, "end": 17}, 
                {"id": 17, "text": "었", "type": "EP", "scode": "000000", "weight": 1, "position": 93, "begin": 18, "end": 18}, 
                {"id": 18, "text": "다", "type": "EF", "scode": "000000", "weight": 1, "position": 96, "begin": 19, "end": 19}, 
                {"id": 19, "text": ".", "type": "SF", "scode": "000000", "weight": 1, "position": 99, "begin": 20, "end": 20}
            ], 
            "word": [
                {"id": 0, "text": "그는", "type": "", "begin": 0, "end": 1}, 
                {"id": 1, "text": "노르망디", "type": "", "begin": 2, "end": 2}, 
                {"id": 2, "text": "공국을", "type": "", "begin": 3, "end": 4}, 
                {"id": 3, "text": "서프랑크", "type": "", "begin": 5, "end": 5}, 
                {"id": 4, "text": "왕국(프랑스)과", "type": "", "begin": 6, "end": 10}, 
                {"id": 5, "text": "대등할", "type": "", "begin": 11, "end": 13}, 
                {"id": 6, "text": "정도로", "type": "", "begin": 14, "end": 15}, 
                {"id": 7, "text": "발전시켰다.", "type": "", "begin": 16, "end": 20}
            ], 
            "NE": [
                {"id": 0, "text": "노르망디 공국", "type": "LCP_COUNTRY", "begin": 2, "end": 3, "weight": 0.505832, "common_noun": 0}, 
                {"id": 1, "text": "서프랑크 왕국", "type": "LCP_COUNTRY", "begin": 5, "end": 6, "weight": 0.448716, "common_noun": 0}, 
                {"id": 2, "text": "프랑스", "type": "LCP_COUNTRY", "begin": 8, "end": 8, "weight": 0.764482, "common_noun": 0}
            ], 
            "chunk": [], 
            "dependency": [
                {"id": 0, "text": "그는", "head": 7, "label": "NP_SBJ", "mod": [], "weight": 0.634617}, 
                {"id": 1, "text": "노르망디", "head": 2, "label": "NP", "mod": [], "weight": 0.7245}, 
                {"id": 2, "text": "공국을", "head": 7, "label": "NP_OBJ", "mod": [1], "weight": 0.863436}, 
                {"id": 3, "text": "서프랑크", "head": 4, "label": "NP", "mod": [], "weight": 0.579811}, 
                {"id": 4, "text": "왕국(프랑스)과", "head": 5, "label": "NP_AJT", "mod": [3], "weight": 0.607745}, 
                {"id": 5, "text": "대등할", "head": 6, "label": "VP_MOD", "mod": [4], "weight": 0.750884}, 
                {"id": 6, "text": "정도로", "head": 7, "label": "NP_AJT", "mod": [5], "weight": 0.816579}, 
                {"id": 7, "text": "발전시켰다.", "head": -1, "label": "VP", "mod": [0, 2, 6], "weight": 0.0745491}
            ], 
            "SRL": [
                {"verb": "대등", "sense": 1, "word_id": 5, "weight": 0.115557, "argument": [
                    {"type": "ARG2", "word_id": 4, "text": "왕국(프랑스)과", "weight": 0.115557}, 
                    {"type": "ARG1", "word_id": 2, "text": "공국을", "weight": 1}
                ]}, 
                {"verb": "발전", "sense": 1, "word_id": 7, "weight": 0.133581, "argument": [
                    {"type": "ARG1", "word_id": 2, "text": "공국을", "weight": 0.171152}, 
                    {"type": "ARG2", "word_id": 6, "text": "정도로", "weight": 0.0960092}, 
                    {"type": "ARG0", "word_id": 0, "text": "그는", "weight": 1}
                ]}
            ], 
            "relation": [], 
            "SA": [], 
            "ZA": []
        }, 
        {
            "id": 1, 
            "reserve_str": "", 
            "text": "1066년 도버 해협을 건너 잉글랜드 침략을 개시하여 헤이스팅스 전투에서 잉글랜드 왕 해럴드 2세에게 크게 승리하였다.", 
            "morp": [
                {"id": 0, "lemma": "1066", "type": "SN", "position": 100, "weight": 1}, 
                {"id": 1, "lemma": "년", "type": "NNB", "position": 104, "weight": 0.414343}, 
                {"id": 2, "lemma": "도버", "type": "NNP", "position": 108, "weight": 0.9}, 
                {"id": 3, "lemma": "해협", "type": "NNG", "position": 115, "weight": 0.9}, 
                {"id": 4, "lemma": "을", "type": "JKO", "position": 121, "weight": 0.129611}, 
                {"id": 5, "lemma": "건너", "type": "VV", "position": 125, "weight": 0.626992}, 
                {"id": 6, "lemma": "어", "type": "EC", "position": 128, "weight": 0.41831}, 
                {"id": 7, "lemma": "잉글랜드", "type": "NNP", "position": 132, "weight": 0.9}, 
                {"id": 8, "lemma": "침략", "type": "NNG", "position": 145, "weight": 0.9}, 
                {"id": 9, "lemma": "을", "type": "JKO", "position": 151, "weight": 0.129611}, 
                {"id": 10, "lemma": "개시", "type": "NNG", "position": 155, "weight": 0.9}, 
                {"id": 11, "lemma": "하", "type": "XSV", "position": 161, "weight": 0.0001}, 
                {"id": 12, "lemma": "아", "type": "EC", "position": 164, "weight": 0.361326}, 
                {"id": 13, "lemma": "헤이스팅스", "type": "NNP", "position": 168, "weight": 0.1}, 
                {"id": 14, "lemma": "전투", "type": "NNG", "position": 184, "weight": 0.9}, 
                {"id": 15, "lemma": "에서", "type": "JKB", "position": 190, "weight": 0.153407}, 
                {"id": 16, "lemma": "잉글랜드", "type": "NNP", "position": 197, "weight": 0.9}, 
                {"id": 17, "lemma": "왕", "type": "NNG", "position": 210, "weight": 0.256826}, 
                {"id": 18, "lemma": "해럴드", "type": "NNP", "position": 214, "weight": 0.2}, 
                {"id": 19, "lemma": "2", "type": "SN", "position": 224, "weight": 1}, 
                {"id": 20, "lemma": "세", "type": "NNB", "position": 225, "weight": 0.0850602}, 
                {"id": 21, "lemma": "에게", "type": "JKB", "position": 228, "weight": 0.135552}, 
                {"id": 22, "lemma": "크", "type": "VA", "position": 235, "weight": 0.0717949}, 
                {"id": 23, "lemma": "게", "type": "EC", "position": 238, "weight": 0.31879}, 
                {"id": 24, "lemma": "승리", "type": "NNG", "position": 242, "weight": 0.218863}, 
                {"id": 25, "lemma": "하", "type": "XSV", "position": 248, "weight": 0.0001}, 
                {"id": 26, "lemma": "았", "type": "EP", "position": 251, "weight": 0.9}, 
                {"id": 27, "lemma": "다", "type": "EF", "position": 254, "weight": 0.640954}, 
                {"id": 28, "lemma": ".", "type": "SF", "position": 257, "weight": 1}
            ], 
            "morp_eval": [], 
            "WSD": [
                {"id": 0, "text": "1066", "type": "SN", "scode": "000000", "weight": 1, "position": 100, "begin": 0, "end": 0}, 
                {"id": 1, "text": "년", "type": "NNB", "scode": "020000", "weight": 0.166667, "position": 104, "begin": 1, "end": 1}, 
                {"id": 2, "text": "도버", "type": "NNP", "scode": "010000", "weight": 0.333333, "position": 108, "begin": 2, "end": 2}, 
                {"id": 3, "text": "해협", "type": "NNG", "scode": "000000", "weight": 1, "position": 115, "begin": 3, "end": 3}, 
                {"id": 4, "text": "을", "type": "JKO", "scode": "000000", "weight": 1, "position": 121, "begin": 4, "end": 4}, 
                {"id": 5, "text": "건너", "type": "VV", "scode": "000001", "weight": 0.333333, "position": 125, "begin": 5, "end": 5}, 
                {"id": 6, "text": "어", "type": "EC", "scode": "000000", "weight": 1, "position": 128, "begin": 6, "end": 6}, 
                {"id": 7, "text": "잉글랜드", "type": "NNP", "scode": "000000", "weight": 1, "position": 132, "begin": 7, "end": 7}, 
                {"id": 8, "text": "침략", "type": "NNG", "scode": "020000", "weight": 0.5, "position": 145, "begin": 8, "end": 8}, 
                {"id": 9, "text": "을", "type": "JKO", "scode": "000000", "weight": 1, "position": 151, "begin": 9, "end": 9}, 
                {"id": 10, "text": "개시하", "type": "VV", "scode": "050000", "weight": 0.111111, "position": 155, "begin": 10, "end": 11}, 
                {"id": 11, "text": "아", "type": "EC", "scode": "000000", "weight": 1, "position": 164, "begin": 12, "end": 12}, 
                {"id": 12, "text": "헤이스팅스", "type": "NNP", "scode": "030000", "weight": 0.25, "position": 168, "begin": 13, "end": 13}, 
                {"id": 13, "text": "전투", "type": "NNG", "scode": "000001", "weight": 0.5, "position": 184, "begin": 14, "end": 14}, 
                {"id": 14, "text": "에서", "type": "JKB", "scode": "000000", "weight": 1, "position": 190, "begin": 15, "end": 15}, 
                {"id": 15, "text": "잉글랜드", "type": "NNP", "scode": "000000", "weight": 1, "position": 197, "begin": 16, "end": 16}, 
                {"id": 16, "text": "왕", "type": "NNG", "scode": "040001", "weight": 0.0833333, "position": 210, "begin": 17, "end": 17}, 
                {"id": 17, "text": "해럴드", "type": "NNP", "scode": "000000", "weight": 0, "position": 214, "begin": 18, "end": 18}, 
                {"id": 18, "text": "2", "type": "SN", "scode": "000000", "weight": 1, "position": 224, "begin": 19, "end": 19}, 
                {"id": 19, "text": "세", "type": "NNB", "scode": "070000", "weight": 0.0526316, "position": 225, "begin": 20, "end": 20}, 
                {"id": 20, "text": "에게", "type": "JKB", "scode": "000000", "weight": 1, "position": 228, "begin": 21, "end": 21}, 
                {"id": 21, "text": "크", "type": "VA", "scode": "010003", "weight": 0.0555556, "position": 235, "begin": 22, "end": 22}, 
                {"id": 22, "text": "게", "type": "EC", "scode": "000000", "weight": 1, "position": 238, "begin": 23, "end": 23}, 
                {"id": 23, "text": "승리하", "type": "VV", "scode": "000000", "weight": 1, "position": 242, "begin": 24, "end": 25}, 
                {"id": 24, "text": "았", "type": "EP", "scode": "000000", "weight": 1, "position": 251, "begin": 26, "end": 26}, 
                {"id": 25, "text": "다", "type": "EF", "scode": "000000", "weight": 1, "position": 254, "begin": 27, "end": 27}, 
                {"id": 26, "text": ".", "type": "SF", "scode": "000000", "weight": 1, "position": 257, "begin": 28, "end": 28}
            ], 
            "word": [
                {"id": 0, "text": "1066년", "type": "", "begin": 0, "end": 1}, 
                {"id": 1, "text": "도버", "type": "", "begin": 2, "end": 2}, 
                {"id": 2, "text": "해협을", "type": "", "begin": 3, "end": 4}, 
                {"id": 3, "text": "건너", "type": "", "begin": 5, "end": 6}, 
                {"id": 4, "text": "잉글랜드", "type": "", "begin": 7, "end": 7}, 
                {"id": 5, "text": "침략을", "type": "", "begin": 8, "end": 9}, 
                {"id": 6, "text": "개시하여", "type": "", "begin": 10, "end": 12}, 
                {"id": 7, "text": "헤이스팅스", "type": "", "begin": 13, "end": 13}, 
                {"id": 8, "text": "전투에서", "type": "", "begin": 14, "end": 15}, 
                {"id": 9, "text": "잉글랜드", "type": "", "begin": 16, "end": 16}, 
                {"id": 10, "text": "왕", "type": "", "begin": 17, "end": 17}, 
                {"id": 11, "text": "해럴드", "type": "", "begin": 18, "end": 18}, 
                {"id": 12, "text": "2세에게", "type": "", "begin": 19, "end": 21}, 
                {"id": 13, "text": "크게", "type": "", "begin": 22, "end": 23}, 
                {"id": 14, "text": "승리하였다.", "type": "", "begin": 24, "end": 28}
            ], 
            "NE": [
                {"id": 0, "text": "1066년", "type": "DT_YEAR", "begin": 0, "end": 1, "weight": 0.58767, "common_noun": 0}, 
                {"id": 1, "text": "도버 해협", "type": "LCG_OCEAN", "begin": 2, "end": 3, "weight": 0.348805, "common_noun": 0}, 
                {"id": 2, "text": "잉글랜드", "type": "LCP_COUNTRY", "begin": 7, "end": 7, "weight": 0.755834, "common_noun": 0}, 
                {"id": 3, "text": "헤이스팅스 전투", "type": "EV_WAR_REVOLUTION", "begin": 13, "end": 14, "weight": 0.403179, "common_noun": 0}, 
                {"id": 4, "text": "잉글랜드", "type": "LCP_COUNTRY", "begin": 16, "end": 16, "weight": 0.473574, "common_noun": 0}, 
                {"id": 5, "text": "왕", "type": "CV_POSITION", "begin": 17, "end": 17, "weight": 0.462923, "common_noun": 0}, 
                {"id": 6, "text": "해럴드 2세", "type": "PS_NAME", "begin": 18, "end": 20, "weight": 0.695702, "common_noun": 0}
            ], 
            "chunk": [], 
            "dependency": [
                {"id": 0, "text": "1066년", "head": 3, "label": "NP_AJT", "mod": [], "weight": 0.793981}, 
                {"id": 1, "text": "도버", "head": 2, "label": "NP", "mod": [], "weight": 0.711707}, 
                {"id": 2, "text": "해협을", "head": 3, "label": "NP_OBJ", "mod": [1], "weight": 0.823241}, 
                {"id": 3, "text": "건너", "head": 6, "label": "VP", "mod": [0, 2], "weight": 0.862005}, 
                {"id": 4, "text": "잉글랜드", "head": 5, "label": "NP", "mod": [], "weight": 0.732869}, 
                {"id": 5, "text": "침략을", "head": 6, "label": "NP_OBJ", "mod": [4], "weight": 0.814521}, 
                {"id": 6, "text": "개시하여", "head": 14, "label": "VP", "mod": [3, 5], "weight": 0.823613}, 
                {"id": 7, "text": "헤이스팅스", "head": 8, "label": "NP", "mod": [], "weight": 0.755469}, 
                {"id": 8, "text": "전투에서", "head": 14, "label": "NP_AJT", "mod": [7], "weight": 0.816534}, 
                {"id": 9, "text": "잉글랜드", "head": 10, "label": "NP", "mod": [], "weight": 0.63858}, 
                {"id": 10, "text": "왕", "head": 12, "label": "NP", "mod": [9], "weight": 0.610905}, 
                {"id": 11, "text": "해럴드", "head": 12, "label": "NP", "mod": [], "weight": 0.781633}, 
                {"id": 12, "text": "2세에게", "head": 14, "label": "NP_AJT", "mod": [10, 11], "weight": 0.762279}, 
                {"id": 13, "text": "크게", "head": 14, "label": "VP_AJT", "mod": [], "weight": 0.720594}, 
                {"id": 14, "text": "승리하였다.", "head": -1, "label": "VP", "mod": [6, 8, 12, 13], "weight": 0.0189249}
            ], 
            "SRL": [
                {"verb": "건너", "sense": 1, "word_id": 3, "weight": 0.180031, "argument": [
                    {"type": "ARGM-TMP", "word_id": 0, "text": "1066년", "weight": 0.197681}, 
                    {"type": "ARG1", "word_id": 2, "text": "해협을", "weight": 0.162382}
                ]}, 
                {"verb": "개시", "sense": 1, "word_id": 6, "weight": 0.214952, "argument": [
                    {"type": "ARG1", "word_id": 5, "text": "침략을", "weight": 0.214952}
                ]}, 
                {"verb": "승리", "sense": 1, "word_id": 14, "weight": 0.147153, "argument": [
                    {"type": "ARGM-LOC", "word_id": 8, "text": "전투에서", "weight": 1}, 
                    {"type": "ARG2", "word_id": 12, "text": "2세에게", "weight": 0.13307}, 
                    {"type": "ARGM-ADV", "word_id": 13, "text": "크게", "weight": 1}, 
                    {"type": "ARGM-MNR", "word_id": 6, "text": "개시하여", "weight": 1}
                ]}
            ], 
            "relation": [], 
            "SA": [], 
            "ZA": []
        }, 
        {
            "id": 2, 
            "reserve_str": "", 
            "text": "윌리엄 1세가 잉글랜드를 점령함에 따라 잉글랜드의 왕조는 노르만 왕조가 되었다.", 
            "morp": [
                {"id": 0, "lemma": "윌리엄", "type": "NNP", "position": 258, "weight": 0.9}, 
                {"id": 1, "lemma": "1", "type": "SN", "position": 268, "weight": 1}, 
                {"id": 2, "lemma": "세", "type": "NNB", "position": 269, "weight": 0.0850602}, 
                {"id": 3, "lemma": "가", "type": "JKS", "position": 272, "weight": 0.0691641}, 
                {"id": 4, "lemma": "잉글랜드", "type": "NNP", "position": 276, "weight": 0.9}, 
                {"id": 5, "lemma": "를", "type": "JKO", "position": 288, "weight": 0.0283046}, 
                {"id": 6, "lemma": "점령", "type": "NNG", "position": 292, "weight": 0.9}, 
                {"id": 7, "lemma": "하", "type": "XSV", "position": 298, "weight": 0.0001}, 
                {"id": 8, "lemma": "ㅁ", "type": "ETN", "position": 298, "weight": 0.0575018}, 
                {"id": 9, "lemma": "에", "type": "JKB", "position": 301, "weight": 0.131408}, 
                {"id": 10, "lemma": "따르", "type": "VV", "position": 305, "weight": 0.9}, 
                {"id": 11, "lemma": "아", "type": "EC", "position": 308, "weight": 0.398809}, 
                {"id": 12, "lemma": "잉글랜드", "type": "NNP", "position": 312, "weight": 0.9}, 
                {"id": 13, "lemma": "의", "type": "JKG", "position": 324, "weight": 0.0987295}, 
                {"id": 14, "lemma": "왕조", "type": "NNG", "position": 328, "weight": 0.9}, 
                {"id": 15, "lemma": "는", "type": "JX", "position": 334, "weight": 0.0287565}, 
                {"id": 16, "lemma": "노르만", "type": "NNP", "position": 338, "weight": 0.9}, 
                {"id": 17, "lemma": "왕조", "type": "NNG", "position": 348, "weight": 0.9}, 
                {"id": 18, "lemma": "가", "type": "JKC", "position": 354, "weight": 0.000442184}, 
                {"id": 19, "lemma": "되", "type": "VV", "position": 358, "weight": 0.542406}, 
                {"id": 20, "lemma": "았", "type": "EP", "position": 361, "weight": 0.9}, 
                {"id": 21, "lemma": "다", "type": "EF", "position": 364, "weight": 0.640954}, 
                {"id": 22, "lemma": ".", "type": "SF", "position": 367, "weight": 1}
            ], 
            "morp_eval": [], 
            "WSD": [
                {"id": 0, "text": "윌리엄", "type": "NNP", "scode": "000000", "weight": 0, "position": 258, "begin": 0, "end": 0}, 
                {"id": 1, "text": "1", "type": "SN", "scode": "000000", "weight": 1, "position": 268, "begin": 1, "end": 1}, 
                {"id": 2, "text": "세", "type": "NNB", "scode": "070000", "weight": 0.0526316, "position": 269, "begin": 2, "end": 2}, 
                {"id": 3, "text": "가", "type": "JKS", "scode": "000000", "weight": 1, "position": 272, "begin": 3, "end": 3}, 
                {"id": 4, "text": "잉글랜드", "type": "NNP", "scode": "000000", "weight": 1, "position": 276, "begin": 4, "end": 4}, 
                {"id": 5, "text": "를", "type": "JKO", "scode": "000000", "weight": 1, "position": 288, "begin": 5, "end": 5}, 
                {"id": 6, "text": "점령하", "type": "VV", "scode": "000002", "weight": 0.5, "position": 292, "begin": 6, "end": 7}, 
                {"id": 7, "text": "ㅁ", "type": "ETN", "scode": "000000", "weight": 1, "position": 298, "begin": 8, "end": 8}, 
                {"id": 8, "text": "에", "type": "JKB", "scode": "000000", "weight": 1, "position": 301, "begin": 9, "end": 9}, 
                {"id": 9, "text": "따르", "type": "VV", "scode": "010201", "weight": 0.125, "position": 305, "begin": 10, "end": 10}, 
                {"id": 10, "text": "아", "type": "EC", "scode": "000000", "weight": 1, "position": 308, "begin": 11, "end": 11}, 
                {"id": 11, "text": "잉글랜드", "type": "NNP", "scode": "000000", "weight": 1, "position": 312, "begin": 12, "end": 12}, 
                {"id": 12, "text": "의", "type": "JKG", "scode": "000000", "weight": 1, "position": 324, "begin": 13, "end": 13}, 
                {"id": 13, "text": "왕조", "type": "NNG", "scode": "020001", "weight": 0.333333, "position": 328, "begin": 14, "end": 14}, 
                {"id": 14, "text": "는", "type": "JX", "scode": "000000", "weight": 1, "position": 334, "begin": 15, "end": 15}, 
                {"id": 15, "text": "노르만", "type": "NNP", "scode": "000000", "weight": 0, "position": 338, "begin": 16, "end": 16}, 
                {"id": 16, "text": "왕조", "type": "NNG", "scode": "020001", "weight": 0.333333, "position": 348, "begin": 17, "end": 17}, 
                {"id": 17, "text": "가", "type": "JKC", "scode": "000000", "weight": 1, "position": 354, "begin": 18, "end": 18}, 
                {"id": 18, "text": "되", "type": "VV", "scode": "010102", "weight": 0.03125, "position": 358, "begin": 19, "end": 19}, 
                {"id": 19, "text": "았", "type": "EP", "scode": "000000", "weight": 1, "position": 361, "begin": 20, "end": 20}, 
                {"id": 20, "text": "다", "type": "EF", "scode": "000000", "weight": 1, "position": 364, "begin": 21, "end": 21}, 
                {"id": 21, "text": ".", "type": "SF", "scode": "000000", "weight": 1, "position": 367, "begin": 22, "end": 22}
            ], 
            "word": [
                {"id": 0, "text": "윌리엄", "type": "", "begin": 0, "end": 0}, 
                {"id": 1, "text": "1세가", "type": "", "begin": 1, "end": 3}, 
                {"id": 2, "text": "잉글랜드를", "type": "", "begin": 4, "end": 5}, 
                {"id": 3, "text": "점령함에", "type": "", "begin": 6, "end": 9}, 
                {"id": 4, "text": "따라", "type": "", "begin": 10, "end": 11}, 
                {"id": 5, "text": "잉글랜드의", "type": "", "begin": 12, "end": 13}, 
                {"id": 6, "text": "왕조는", "type": "", "begin": 14, "end": 15}, 
                {"id": 7, "text": "노르만", "type": "", "begin": 16, "end": 16}, 
                {"id": 8, "text": "왕조가", "type": "", "begin": 17, "end": 18}, 
                {"id": 9, "text": "되었다.", "type": "", "begin": 19, "end": 22}
            ], 
            "NE": [
                {"id": 0, "text": "윌리엄 1세", "type": "PS_NAME", "begin": 0, "end": 2, "weight": 0.590852, "common_noun": 0}, 
                {"id": 1, "text": "잉글랜드", "type": "LCP_COUNTRY", "begin": 4, "end": 4, "weight": 0.596511, "common_noun": 0}, 
                {"id": 2, "text": "잉글랜드", "type": "LCP_COUNTRY", "begin": 12, "end": 12, "weight": 0.545027, "common_noun": 0}, 
                {"id": 3, "text": "노르만 왕조", "type": "DT_DYNASTY", "begin": 16, "end": 17, "weight": 0.350279, "common_noun": 0}
            ], 
            "chunk": [], 
            "dependency": [
                {"id": 0, "text": "윌리엄", "head": 1, "label": "NP", "mod": [], "weight": 0.779316}, 
                {"id": 1, "text": "1세가", "head": 3, "label": "NP_SBJ", "mod": [0], "weight": 0.458705}, 
                {"id": 2, "text": "잉글랜드를", "head": 3, "label": "NP_OBJ", "mod": [], "weight": 0.824911}, 
                {"id": 3, "text": "점령함에", "head": 4, "label": "VP_AJT", "mod": [1, 2], "weight": 0.654108}, 
                {"id": 4, "text": "따라", "head": 9, "label": "VP", "mod": [3], "weight": 0.824892}, 
                {"id": 5, "text": "잉글랜드의", "head": 6, "label": "NP_MOD", "mod": [], "weight": 0.672446}, 
                {"id": 6, "text": "왕조는", "head": 9, "label": "NP_SBJ", "mod": [5], "weight": 0.611547}, 
                {"id": 7, "text": "노르만", "head": 8, "label": "NP", "mod": [], "weight": 0.713499}, 
                {"id": 8, "text": "왕조가", "head": 9, "label": "NP_CMP", "mod": [7], "weight": 0.697263}, 
                {"id": 9, "text": "되었다.", "head": -1, "label": "VP", "mod": [4, 6, 8], "weight": 0.0259934}
            ], 
            "SRL": [
                {"verb": "점령", "sense": 1, "word_id": 3, "weight": 0.242786, "argument": [
                    {"type": "ARG0", "word_id": 1, "text": "1세가", "weight": 0.32452}, 
                    {"type": "ARG1", "word_id": 2, "text": "잉글랜드를", "weight": 0.161051}
                ]}, 
                {"verb": "따르", "sense": 2, "word_id": 4, "weight": 0.227041, "argument": [
                    {"type": "ARG2", "word_id": 3, "text": "점령함에", "weight": 0.227041}
                ]}, 
                {"verb": "되", "sense": 1, "word_id": 9, "weight": 0.302112, "argument": [
                    {"type": "ARGM-CAU", "word_id": 4, "text": "따라", "weight": 0.189935}, 
                    {"type": "ARG1", "word_id": 6, "text": "왕조는", "weight": 0.431217}, 
                    {"type": "ARG2", "word_id": 8, "text": "왕조가", "weight": 0.285185}
                ]}
            ], 
            "relation": [], 
            "SA": [], 
            "ZA": []
        }
    ], 
    "entity": [
        {"id": 0, "type": "PS_NAME", "number": "singular", "gender": "", "person": "", "animacy": "human", "mention": [
            {"id": 0, "sent_id": 0, "start_eid": 0, "end_eid": 0, "ne_id": -1, "text": "그는", "start_eid_short": 0, "end_eid_short": 0, "text_short": "그는"}, 
            {"id": 14, "sent_id": 2, "start_eid": 0, "end_eid": 1, "ne_id": 0, "text": "윌리엄 1세가", "start_eid_short": 0, "end_eid_short": 1, "text_short": "윌리엄 1세가"}
        ]}, 
        {"id": 1, "type": "LCP_COUNTRY", "number": "singular", "gender": "", "person": "", "animacy": "place", "mention": [
            {"id": 1, "sent_id": 0, "start_eid": 1, "end_eid": 2, "ne_id": 0, "text": "노르망디 공국을", "start_eid_short": 1, "end_eid_short": 2, "text_short": "노르망디 공국을"}
        ]}, 
        {"id": 2, "type": "", "number": "singular", "gender": "", "person": "", "animacy": "thing", "mention": [
            {"id": 2, "sent_id": 0, "start_eid": 3, "end_eid": 6, "ne_id": -1, "text": "서프랑크 왕국(프랑스)과 대등할 정도로", "start_eid_short": 6, "end_eid_short": 6, "text_short": "정도로"}
        ]}, 
        {"id": 3, "type": "LCP_COUNTRY", "number": "singular", "gender": "", "person": "", "animacy": "place", "mention": [
            {"id": 3, "sent_id": 0, "start_eid": 3, "end_eid": 4, "ne_id": 1, "text": "서프랑크 왕국(프랑스)과", "start_eid_short": 4, "end_eid_short": 4, "text_short": "왕국(프랑스)과"}
        ]}, 
        {"id": 4, "type": "DT_YEAR", "number": "singular", "gender": "", "person": "", "animacy": "time", "mention": [
            {"id": 5, "sent_id": 1, "start_eid": 0, "end_eid": 0, "ne_id": 0, "text": "1066년", "start_eid_short": 0, "end_eid_short": 0, "text_short": "1066년"}
        ]}, 
        {"id": 5, "type": "LCG_OCEAN", "number": "singular", "gender": "", "person": "", "animacy": "place", "mention": [
            {"id": 6, "sent_id": 1, "start_eid": 1, "end_eid": 2, "ne_id": 1, "text": "도버 해협을", "start_eid_short": 1, "end_eid_short": 2, "text_short": "도버 해협을"}
        ]}, 
        {"id": 6, "type": "", "number": "singular", "gender": "", "person": "", "animacy": "thing", "mention": [
            {"id": 4, "sent_id": 1, "start_eid": 0, "end_eid": 5, "ne_id": -1, "text": "1066년 도버 해협을 건너 잉글랜드 침략을", "start_eid_short": 4, "end_eid_short": 5, "text_short": "잉글랜드 침략을"}
        ]}, 
        {"id": 7, "type": "LCP_COUNTRY", "number": "singular", "gender": "", "person": "", "animacy": "place", "mention": [
            {"id": 7, "sent_id": 1, "start_eid": 4, "end_eid": 4, "ne_id": 2, "text": "잉글랜드", "start_eid_short": 4, "end_eid_short": 4, "text_short": "잉글랜드"}, 
            {"id": 11, "sent_id": 1, "start_eid": 9, "end_eid": 9, "ne_id": 4, "text": "잉글랜드", "start_eid_short": 9, "end_eid_short": 9, "text_short": "잉글랜드"}, 
            {"id": 15, "sent_id": 2, "start_eid": 2, "end_eid": 2, "ne_id": 1, "text": "잉글랜드를", "start_eid_short": 2, "end_eid_short": 2, "text_short": "잉글랜드를"}, 
            {"id": 16, "sent_id": 2, "start_eid": 5, "end_eid": 5, "ne_id": 2, "text": "잉글랜드의", "start_eid_short": 5, "end_eid_short": 5, "text_short": "잉글랜드의"}
        ]}, 
        {"id": 8, "type": "EV_WAR_REVOLUTION", "number": "singular", "gender": "", "person": "", "animacy": "thing", "mention": [
            {"id": 8, "sent_id": 1, "start_eid": 7, "end_eid": 8, "ne_id": 3, "text": "헤이스팅스 전투에서", "start_eid_short": 7, "end_eid_short": 8, "text_short": "헤이스팅스 전투에서"}
        ]}, 
        {"id": 9, "type": "PS_NAME", "number": "singular", "gender": "male", "person": "", "animacy": "human", "mention": [
            {"id": 9, "sent_id": 1, "start_eid": 9, "end_eid": 12, "ne_id": 6, "text": "잉글랜드 왕 해럴드 2세에게", "start_eid_short": 9, "end_eid_short": 12, "text_short": "잉글랜드 왕 해럴드 2세에게"}, 
            {"id": 10, "sent_id": 1, "start_eid": 9, "end_eid": 10, "ne_id": 5, "text": "잉글랜드 왕", "start_eid_short": 9, "end_eid_short": 10, "text_short": "잉글랜드 왕"}
        ]}, 
        {"id": 10, "type": "", "number": "singular", "gender": "", "person": "", "animacy": "thing", "mention": [
            {"id": 13, "sent_id": 2, "start_eid": 0, "end_eid": 3, "ne_id": -1, "text": "윌리엄 1세가 잉글랜드를 점령함에", "start_eid_short": 3, "end_eid_short": 3, "text_short": "점령함에"}
        ]}, 
        {"id": 11, "type": "DT_DYNASTY", "number": "singular", "gender": "", "person": "", "animacy": "time", "mention": [
            {"id": 12, "sent_id": 2, "start_eid": 0, "end_eid": 6, "ne_id": -1, "text": "윌리엄 1세가 잉글랜드를 점령함에 따라 잉글랜드의 왕조는", "start_eid_short": 6, "end_eid_short": 6, "text_short": "왕조는"}, 
            {"id": 17, "sent_id": 2, "start_eid": 7, "end_eid": 8, "ne_id": 3, "text": "노르만 왕조가", "start_eid_short": 7, "end_eid_short": 8, "text_short": "노르만 왕조가"}
        ]}
    ]
}