{
    "doc_id": "E2016.836.26_A_01.json", 
    "DCT": "", 
    "category": "", 
    "category_weight": 0, 
    "title": {
        "text": "살라르 데 우유니", 
        "NE": ""
    }, 
    "metaInfo": {}, 
    "sentence": [
        {
            "id": 0, 
            "reserve_str": "", 
            "text": "지각 변동으로 솟아올랐던 바다가 빙하기를 거쳐 2만 년 전 녹기 시작하면서 이 지역에 거대한 호수가 만들어졌는데, 이후 건조한 기후로 물이 모두 증발하고 소금 결정만 남으며 발생했다.", 
            "morp": [
                {"id": 0, "lemma": "지각", "type": "NNG", "position": 0, "weight": 0.9}, 
                {"id": 1, "lemma": "변동", "type": "NNG", "position": 7, "weight": 0.183405}, 
                {"id": 2, "lemma": "으로", "type": "JKB", "position": 13, "weight": 0.153406}, 
                {"id": 3, "lemma": "솟아오르", "type": "VV", "position": 20, "weight": 0.9}, 
                {"id": 4, "lemma": "았", "type": "EP", "position": 26, "weight": 0.9}, 
                {"id": 5, "lemma": "던", "type": "ETM", "position": 32, "weight": 0.107547}, 
                {"id": 6, "lemma": "바다", "type": "NNG", "position": 36, "weight": 0.635269}, 
                {"id": 7, "lemma": "가", "type": "JKS", "position": 42, "weight": 0.066324}, 
                {"id": 8, "lemma": "빙하", "type": "NNG", "position": 46, "weight": 0.9}, 
                {"id": 9, "lemma": "기", "type": "XSN", "position": 52, "weight": 0.000294499}, 
                {"id": 10, "lemma": "를", "type": "JKO", "position": 55, "weight": 0.0870227}, 
                {"id": 11, "lemma": "거치", "type": "VV", "position": 59, "weight": 0.773981}, 
                {"id": 12, "lemma": "어", "type": "EC", "position": 62, "weight": 0.41831}, 
                {"id": 13, "lemma": "2", "type": "SN", "position": 66, "weight": 1}, 
                {"id": 14, "lemma": "만", "type": "NR", "position": 67, "weight": 0.0178717}, 
                {"id": 15, "lemma": "년", "type": "NNB", "position": 71, "weight": 0.382181}, 
                {"id": 16, "lemma": "전", "type": "NNG", "position": 75, "weight": 0.0645237}, 
                {"id": 17, "lemma": "녹", "type": "VV", "position": 79, "weight": 0.0135991}, 
                {"id": 18, "lemma": "기", "type": "ETN", "position": 82, "weight": 0.0380514}, 
                {"id": 19, "lemma": "시작", "type": "NNG", "position": 86, "weight": 0.9}, 
                {"id": 20, "lemma": "하", "type": "XSV", "position": 92, "weight": 0.0001}, 
                {"id": 21, "lemma": "면서", "type": "EC", "position": 95, "weight": 0.370489}, 
                {"id": 22, "lemma": "이", "type": "MM", "position": 102, "weight": 0.000947656}, 
                {"id": 23, "lemma": "지역", "type": "NNG", "position": 106, "weight": 0.9}, 
                {"id": 24, "lemma": "에", "type": "JKB", "position": 112, "weight": 0.153364}, 
                {"id": 25, "lemma": "거대", "type": "NNG", "position": 116, "weight": 0.9}, 
                {"id": 26, "lemma": "하", "type": "XSA", "position": 122, "weight": 0.0001}, 
                {"id": 27, "lemma": "ㄴ", "type": "ETM", "position": 122, "weight": 0.488779}, 
                {"id": 28, "lemma": "호수", "type": "NNG", "position": 126, "weight": 0.658324}, 
                {"id": 29, "lemma": "가", "type": "JKS", "position": 132, "weight": 0.066324}, 
                {"id": 30, "lemma": "만들", "type": "VV", "position": 136, "weight": 0.9}, 
                {"id": 31, "lemma": "어", "type": "EC", "position": 142, "weight": 0.41831}, 
                {"id": 32, "lemma": "지", "type": "VX", "position": 145, "weight": 0.0539764}, 
                {"id": 33, "lemma": "었", "type": "EP", "position": 145, "weight": 0.9}, 
                {"id": 34, "lemma": "는데", "type": "EC", "position": 148, "weight": 0.188154}, 
                {"id": 35, "lemma": ",", "type": "SP", "position": 154, "weight": 1}, 
                {"id": 36, "lemma": "이후", "type": "NNG", "position": 156, "weight": 0.0017249}, 
                {"id": 37, "lemma": "건조", "type": "NNG", "position": 163, "weight": 0.9}, 
                {"id": 38, "lemma": "하", "type": "XSV", "position": 169, "weight": 0.0001}, 
                {"id": 39, "lemma": "ㄴ", "type": "ETM", "position": 169, "weight": 0.392321}, 
                {"id": 40, "lemma": "기후", "type": "NNG", "position": 173, "weight": 0.656428}, 
                {"id": 41, "lemma": "로", "type": "JKB", "position": 179, "weight": 0.153229}, 
                {"id": 42, "lemma": "물", "type": "NNG", "position": 183, "weight": 0.177927}, 
                {"id": 43, "lemma": "이", "type": "JKS", "position": 186, "weight": 0.0360723}, 
                {"id": 44, "lemma": "모두", "type": "MAG", "position": 190, "weight": 0.0929949}, 
                {"id": 45, "lemma": "증발", "type": "NNG", "position": 197, "weight": 0.259892}, 
                {"id": 46, "lemma": "하", "type": "XSV", "position": 203, "weight": 0.0001}, 
                {"id": 47, "lemma": "고", "type": "EC", "position": 206, "weight": 0.359917}, 
                {"id": 48, "lemma": "소금", "type": "NNG", "position": 210, "weight": 0.219244}, 
                {"id": 49, "lemma": "결정", "type": "NNG", "position": 217, "weight": 0.9}, 
                {"id": 50, "lemma": "만", "type": "JX", "position": 223, "weight": 0.0522241}, 
                {"id": 51, "lemma": "남", "type": "VV", "position": 229, "weight": 0.0624723}, 
                {"id": 52, "lemma": "으며", "type": "EC", "position": 230, "weight": 0.431045}, 
                {"id": 53, "lemma": "발생", "type": "NNG", "position": 237, "weight": 0.9}, 
                {"id": 54, "lemma": "하", "type": "XSV", "position": 243, "weight": 0.0001}, 
                {"id": 55, "lemma": "았", "type": "EP", "position": 243, "weight": 0.9}, 
                {"id": 56, "lemma": "다", "type": "EF", "position": 246, "weight": 0.640954}, 
                {"id": 57, "lemma": ".", "type": "SF", "position": 249, "weight": 1}
            ], 
            "morp_eval": [], 
            "WSD": [
                {"id": 0, "text": "지각", "type": "NNG", "scode": "020000", "weight": 0.125, "position": 0, "begin": 0, "end": 0}, 
                {"id": 1, "text": "변동", "type": "NNG", "scode": "000000", "weight": 1, "position": 7, "begin": 1, "end": 1}, 
                {"id": 2, "text": "으로", "type": "JKB", "scode": "000000", "weight": 1, "position": 13, "begin": 2, "end": 2}, 
                {"id": 3, "text": "솟아오르", "type": "VV", "scode": "000001", "weight": 0.5, "position": 20, "begin": 3, "end": 3}, 
                {"id": 4, "text": "았", "type": "EP", "scode": "000000", "weight": 1, "position": 26, "begin": 4, "end": 4}, 
                {"id": 5, "text": "던", "type": "ETM", "scode": "000000", "weight": 1, "position": 32, "begin": 5, "end": 5}, 
                {"id": 6, "text": "바다", "type": "NNG", "scode": "000001", "weight": 0.333333, "position": 36, "begin": 6, "end": 6}, 
                {"id": 7, "text": "가", "type": "JKS", "scode": "000000", "weight": 1, "position": 42, "begin": 7, "end": 7}, 
                {"id": 8, "text": "빙하기", "type": "NNG", "scode": "000000", "weight": 1, "position": 46, "begin": 8, "end": 9}, 
                {"id": 9, "text": "를", "type": "JKO", "scode": "000000", "weight": 1, "position": 55, "begin": 10, "end": 10}, 
                {"id": 10, "text": "거치", "type": "VV", "scode": "010202", "weight": 0.2, "position": 59, "begin": 11, "end": 11}, 
                {"id": 11, "text": "어", "type": "EC", "scode": "000000", "weight": 1, "position": 62, "begin": 12, "end": 12}, 
                {"id": 12, "text": "2", "type": "SN", "scode": "000000", "weight": 1, "position": 66, "begin": 13, "end": 13}, 
                {"id": 13, "text": "만", "type": "NR", "scode": "060000", "weight": 0.0416667, "position": 67, "begin": 14, "end": 14}, 
                {"id": 14, "text": "년", "type": "NNB", "scode": "020000", "weight": 0.166667, "position": 71, "begin": 15, "end": 15}, 
                {"id": 15, "text": "전", "type": "NNG", "scode": "080002", "weight": 0.02, "position": 75, "begin": 16, "end": 16}, 
                {"id": 16, "text": "녹", "type": "VV", "scode": "010101", "weight": 0.0833333, "position": 79, "begin": 17, "end": 17}, 
                {"id": 17, "text": "기", "type": "ETN", "scode": "000000", "weight": 1, "position": 82, "begin": 18, "end": 18}, 
                {"id": 18, "text": "시작하", "type": "VV", "scode": "010001", "weight": 0.25, "position": 86, "begin": 19, "end": 20}, 
                {"id": 19, "text": "면서", "type": "EC", "scode": "000000", "weight": 1, "position": 95, "begin": 21, "end": 21}, 
                {"id": 20, "text": "이", "type": "MM", "scode": "050102", "weight": 0.0172414, "position": 102, "begin": 22, "end": 22}, 
                {"id": 21, "text": "지역", "type": "NNG", "scode": "030001", "weight": 0.2, "position": 106, "begin": 23, "end": 23}, 
                {"id": 22, "text": "에", "type": "JKB", "scode": "000000", "weight": 1, "position": 112, "begin": 24, "end": 24}, 
                {"id": 23, "text": "거대하", "type": "VA", "scode": "000000", "weight": 1, "position": 116, "begin": 25, "end": 26}, 
                {"id": 24, "text": "ㄴ", "type": "ETM", "scode": "000000", "weight": 1, "position": 122, "begin": 27, "end": 27}, 
                {"id": 25, "text": "호수", "type": "NNG", "scode": "070000", "weight": 0.0625, "position": 126, "begin": 28, "end": 28}, 
                {"id": 26, "text": "가", "type": "JKS", "scode": "000000", "weight": 1, "position": 132, "begin": 29, "end": 29}, 
                {"id": 27, "text": "만들", "type": "VV", "scode": "000101", "weight": 0.0769231, "position": 136, "begin": 30, "end": 30}, 
                {"id": 28, "text": "어", "type": "EC", "scode": "000000", "weight": 1, "position": 142, "begin": 31, "end": 31}, 
                {"id": 29, "text": "지", "type": "VX", "scode": "040101", "weight": 0.037037, "position": 145, "begin": 32, "end": 32}, 
                {"id": 30, "text": "었", "type": "EP", "scode": "000000", "weight": 1, "position": 145, "begin": 33, "end": 33}, 
                {"id": 31, "text": "는데", "type": "EC", "scode": "000000", "weight": 1, "position": 148, "begin": 34, "end": 34}, 
                {"id": 32, "text": ",", "type": "SP", "scode": "000000", "weight": 1, "position": 154, "begin": 35, "end": 35}, 
                {"id": 33, "text": "이후", "type": "NNG", "scode": "020002", "weight": 0.166667, "position": 156, "begin": 36, "end": 36}, 
                {"id": 34, "text": "건조하", "type": "VA", "scode": "020001", "weight": 0.25, "position": 163, "begin": 37, "end": 38}, 
                {"id": 35, "text": "ㄴ", "type": "ETM", "scode": "000000", "weight": 1, "position": 169, "begin": 39, "end": 39}, 
                {"id": 36, "text": "기후", "type": "NNG", "scode": "050003", "weight": 0.125, "position": 173, "begin": 40, "end": 40}, 
                {"id": 37, "text": "로", "type": "JKB", "scode": "000000", "weight": 1, "position": 179, "begin": 41, "end": 41}, 
                {"id": 38, "text": "물", "type": "NNG", "scode": "010001", "weight": 0.0588235, "position": 183, "begin": 42, "end": 42}, 
                {"id": 39, "text": "이", "type": "JKS", "scode": "000000", "weight": 1, "position": 186, "begin": 43, "end": 43}, 
                {"id": 40, "text": "모두", "type": "MAG", "scode": "010000", "weight": 0.2, "position": 190, "begin": 44, "end": 44}, 
                {"id": 41, "text": "증발하", "type": "VV", "scode": "010001", "weight": 0.333333, "position": 197, "begin": 45, "end": 46}, 
                {"id": 42, "text": "고", "type": "EC", "scode": "000000", "weight": 1, "position": 206, "begin": 47, "end": 47}, 
                {"id": 43, "text": "소금", "type": "NNG", "scode": "010001", "weight": 0.1, "position": 210, "begin": 48, "end": 48}, 
                {"id": 44, "text": "결정", "type": "NNG", "scode": "020001", "weight": 0.2, "position": 217, "begin": 49, "end": 49}, 
                {"id": 45, "text": "만", "type": "JX", "scode": "000000", "weight": 1, "position": 223, "begin": 50, "end": 50}, 
                {"id": 46, "text": "남", "type": "VV", "scode": "010302", "weight": 0.142857, "position": 229, "begin": 51, "end": 51}, 
                {"id": 47, "text": "으며", "type": "EC", "scode": "000000", "weight": 1, "position": 230, "begin": 52, "end": 52}, 
                {"id": 48, "text": "발생하", "type": "VV", "scode": "000001", "weight": 0.5, "position": 237, "begin": 53, "end": 54}, 
                {"id": 49, "text": "았", "type": "EP", "scode": "000000", "weight": 1, "position": 243, "begin": 55, "end": 55}, 
                {"id": 50, "text": "다", "type": "EF", "scode": "000000", "weight": 1, "position": 246, "begin": 56, "end": 56}, 
                {"id": 51, "text": ".", "type": "SF", "scode": "000000", "weight": 1, "position": 249, "begin": 57, "end": 57}
            ], 
            "word": [
                {"id": 0, "text": "지각", "type": "", "begin": 0, "end": 0}, 
                {"id": 1, "text": "변동으로", "type": "", "begin": 1, "end": 2}, 
                {"id": 2, "text": "솟아올랐던", "type": "", "begin": 3, "end": 5}, 
                {"id": 3, "text": "바다가", "type": "", "begin": 6, "end": 7}, 
                {"id": 4, "text": "빙하기를", "type": "", "begin": 8, "end": 10}, 
                {"id": 5, "text": "거쳐", "type": "", "begin": 11, "end": 12}, 
                {"id": 6, "text": "2만", "type": "", "begin": 13, "end": 14}, 
                {"id": 7, "text": "년", "type": "", "begin": 15, "end": 15}, 
                {"id": 8, "text": "전", "type": "", "begin": 16, "end": 16}, 
                {"id": 9, "text": "녹기", "type": "", "begin": 17, "end": 18}, 
                {"id": 10, "text": "시작하면서", "type": "", "begin": 19, "end": 21}, 
                {"id": 11, "text": "이", "type": "", "begin": 22, "end": 22}, 
                {"id": 12, "text": "지역에", "type": "", "begin": 23, "end": 24}, 
                {"id": 13, "text": "거대한", "type": "", "begin": 25, "end": 27}, 
                {"id": 14, "text": "호수가", "type": "", "begin": 28, "end": 29}, 
                {"id": 15, "text": "만들어졌는데,", "type": "", "begin": 30, "end": 35}, 
                {"id": 16, "text": "이후", "type": "", "begin": 36, "end": 36}, 
                {"id": 17, "text": "건조한", "type": "", "begin": 37, "end": 39}, 
                {"id": 18, "text": "기후로", "type": "", "begin": 40, "end": 41}, 
                {"id": 19, "text": "물이", "type": "", "begin": 42, "end": 43}, 
                {"id": 20, "text": "모두", "type": "", "begin": 44, "end": 44}, 
                {"id": 21, "text": "증발하고", "type": "", "begin": 45, "end": 47}, 
                {"id": 22, "text": "소금", "type": "", "begin": 48, "end": 48}, 
                {"id": 23, "text": "결정만", "type": "", "begin": 49, "end": 50}, 
                {"id": 24, "text": "남으며", "type": "", "begin": 51, "end": 52}, 
                {"id": 25, "text": "발생했다.", "type": "", "begin": 53, "end": 57}
            ], 
            "NE": [
                {"id": 0, "text": "빙하기", "type": "DT_GEOAGE", "begin": 8, "end": 9, "weight": 0.494293, "common_noun": 0}, 
                {"id": 1, "text": "2만 년 전", "type": "DT_OTHERS", "begin": 13, "end": 16, "weight": 0.405874, "common_noun": 0}, 
                {"id": 2, "text": "소금", "type": "CV_FOOD", "begin": 48, "end": 48, "weight": 0.284367, "common_noun": 0}
            ], 
            "chunk": [], 
            "dependency": [
                {"id": 0, "text": "지각", "head": 1, "label": "NP", "mod": [], "weight": 0.597519}, 
                {"id": 1, "text": "변동으로", "head": 2, "label": "NP_AJT", "mod": [0], "weight": 0.813135}, 
                {"id": 2, "text": "솟아올랐던", "head": 3, "label": "VP_MOD", "mod": [1], "weight": 0.54129}, 
                {"id": 3, "text": "바다가", "head": 5, "label": "NP_SBJ", "mod": [2], "weight": 0.605045}, 
                {"id": 4, "text": "빙하기를", "head": 5, "label": "NP_OBJ", "mod": [], "weight": 0.77966}, 
                {"id": 5, "text": "거쳐", "head": 9, "label": "VP", "mod": [3, 4], "weight": 0.685334}, 
                {"id": 6, "text": "2만", "head": 7, "label": "NP", "mod": [], "weight": 0.682312}, 
                {"id": 7, "text": "년", "head": 8, "label": "NP", "mod": [6], "weight": 0.79357}, 
                {"id": 8, "text": "전", "head": 9, "label": "NP_AJT", "mod": [7], "weight": 0.577262}, 
                {"id": 9, "text": "녹기", "head": 10, "label": "VP_OBJ", "mod": [5, 8], "weight": 0.662284}, 
                {"id": 10, "text": "시작하면서", "head": 15, "label": "VP", "mod": [9], "weight": 0.816986}, 
                {"id": 11, "text": "이", "head": 12, "label": "DP", "mod": [], "weight": 0.790539}, 
                {"id": 12, "text": "지역에", "head": 15, "label": "NP_AJT", "mod": [11], "weight": 0.708696}, 
                {"id": 13, "text": "거대한", "head": 14, "label": "VP_MOD", "mod": [], "weight": 0.781911}, 
                {"id": 14, "text": "호수가", "head": 15, "label": "NP_SBJ", "mod": [13], "weight": 0.740158}, 
                {"id": 15, "text": "만들어졌는데,", "head": 21, "label": "VP", "mod": [10, 12, 14], "weight": 0.311564}, 
                {"id": 16, "text": "이후", "head": 21, "label": "NP_AJT", "mod": [], "weight": 0.767699}, 
                {"id": 17, "text": "건조한", "head": 18, "label": "VP_MOD", "mod": [], "weight": 0.624655}, 
                {"id": 18, "text": "기후로", "head": 21, "label": "NP_AJT", "mod": [17], "weight": 0.453614}, 
                {"id": 19, "text": "물이", "head": 21, "label": "NP_SBJ", "mod": [], "weight": 0.690264}, 
                {"id": 20, "text": "모두", "head": 21, "label": "AP", "mod": [], "weight": 0.763115}, 
                {"id": 21, "text": "증발하고", "head": 24, "label": "VP", "mod": [15, 18, 19, 20, 16], "weight": 0.780944}, 
                {"id": 22, "text": "소금", "head": 23, "label": "NP", "mod": [], "weight": 0.737069}, 
                {"id": 23, "text": "결정만", "head": 24, "label": "NP_SBJ", "mod": [22], "weight": 0.594006}, 
                {"id": 24, "text": "남으며", "head": 25, "label": "VP", "mod": [21, 23], "weight": 0.733102}, 
                {"id": 25, "text": "발생했다.", "head": -1, "label": "VP", "mod": [24], "weight": 3.23533e-05}
            ], 
            "SRL": [
                {"verb": "솟아오르", "sense": 1, "word_id": 2, "weight": 0.158369, "argument": [
                    {"type": "ARGM-CAU", "word_id": 1, "text": "변동으로", "weight": 1}, 
                    {"type": "ARG1", "word_id": 3, "text": "바다가", "weight": 0.236546}
                ]}, 
                {"verb": "거치", "sense": 1, "word_id": 5, "weight": 0.20358, "argument": [
                    {"type": "ARG2", "word_id": 4, "text": "빙하기를", "weight": 0.20358}, 
                    {"type": "ARG1", "word_id": 3, "text": "바다가", "weight": 1}
                ]}, 
                {"verb": "녹", "sense": 1, "word_id": 9, "weight": 0.173156, "argument": [
                    {"type": "ARG1", "word_id": 3, "text": "바다가", "weight": 0.169817}, 
                    {"type": "ARGM-TMP", "word_id": 8, "text": "전", "weight": 0.176495}
                ]}, 
                {"verb": "시작", "sense": 1, "word_id": 10, "weight": 0.208434, "argument": [
                    {"type": "ARG0", "word_id": 3, "text": "바다가", "weight": 0.163041}, 
                    {"type": "ARG1", "word_id": 9, "text": "녹기", "weight": 0.172141}
                ]}, 
                {"verb": "거대", "sense": 1, "word_id": 13, "weight": 0.515302, "argument": [
                    {"type": "ARG1", "word_id": 14, "text": "호수가", "weight": 0.515302}
                ]}, 
                {"verb": "만들", "sense": 1, "word_id": 15, "weight": 0.196335, "argument": [
                    {"type": "ARGM-LOC", "word_id": 12, "text": "지역에", "weight": 0.100389}, 
                    {"type": "ARG1", "word_id": 14, "text": "호수가", "weight": 0.292281}, 
                    {"type": "ARGM-CAU", "word_id": 10, "text": "시작하면서", "weight": 1}
                ]}, 
                {"verb": "건조", "sense": 1, "word_id": 17, "weight": 0.162541, "argument": [
                    {"type": "ARG1", "word_id": 18, "text": "기후로", "weight": 0.210974}
                ]}, 
                {"verb": "증발", "sense": 1, "word_id": 21, "weight": 0.206289, "argument": [
                    {"type": "ARG1", "word_id": 19, "text": "물이", "weight": 0.203153}, 
                    {"type": "ARGM-EXT", "word_id": 20, "text": "모두", "weight": 0.209425}, 
                    {"type": "ARGM-CAU", "word_id": 18, "text": "기후로", "weight": 1}, 
                    {"type": "ARGM-TMP", "word_id": 16, "text": "이후", "weight": 1}
                ]}, 
                {"verb": "남", "sense": 1, "word_id": 24, "weight": 0.173032, "argument": [
                    {"type": "ARG1", "word_id": 23, "text": "결정만", "weight": 0.173032}, 
                    {"type": "ARGM-CAU", "word_id": 21, "text": "증발하고", "weight": 1}
                ]}, 
                {"verb": "발생", "sense": 1, "word_id": 25, "weight": 0, "argument": [
                    {"type": "ARGM-CAU", "word_id": 24, "text": "남으며", "weight": 1}
                ]}
            ], 
            "relation": [], 
            "SA": [], 
            "ZA": []
        }
    ], 
    "entity": [
        {"id": 0, "type": "", "number": "singular", "gender": "", "person": "", "animacy": "thing", "mention": [
            {"id": 0, "sent_id": 0, "start_eid": 0, "end_eid": 3, "ne_id": -1, "text": "지각 변동으로 솟아올랐던 바다가", "start_eid_short": 3, "end_eid_short": 3, "text_short": "바다가"}
        ]}, 
        {"id": 1, "type": "", "number": "singular", "gender": "", "person": "", "animacy": "thing", "mention": [
            {"id": 1, "sent_id": 0, "start_eid": 0, "end_eid": 1, "ne_id": -1, "text": "지각 변동으로", "start_eid_short": 0, "end_eid_short": 1, "text_short": "지각 변동으로"}
        ]}, 
        {"id": 2, "type": "", "number": "singular", "gender": "", "person": "", "animacy": "thing", "mention": [
            {"id": 2, "sent_id": 0, "start_eid": 0, "end_eid": 0, "ne_id": -1, "text": "지각", "start_eid_short": 0, "end_eid_short": 0, "text_short": "지각"}
        ]}, 
        {"id": 3, "type": "DT_GEOAGE", "number": "singular", "gender": "", "person": "", "animacy": "time", "mention": [
            {"id": 3, "sent_id": 0, "start_eid": 4, "end_eid": 4, "ne_id": 0, "text": "빙하기를", "start_eid_short": 4, "end_eid_short": 4, "text_short": "빙하기를"}
        ]}, 
        {"id": 4, "type": "DT_OTHERS", "number": "singular", "gender": "", "person": "", "animacy": "time", "mention": [
            {"id": 4, "sent_id": 0, "start_eid": 6, "end_eid": 8, "ne_id": 1, "text": "2만 년 전", "start_eid_short": 6, "end_eid_short": 8, "text_short": "2만 년 전"}
        ]}, 
        {"id": 5, "type": "", "number": "singular", "gender": "", "person": "", "animacy": "thing", "mention": [
            {"id": 5, "sent_id": 0, "start_eid": 11, "end_eid": 12, "ne_id": -1, "text": "이 지역에", "start_eid_short": 11, "end_eid_short": 12, "text_short": "이 지역에"}
        ]}, 
        {"id": 6, "type": "", "number": "singular", "gender": "", "person": "", "animacy": "thing", "mention": [
            {"id": 6, "sent_id": 0, "start_eid": 13, "end_eid": 14, "ne_id": -1, "text": "거대한 호수가", "start_eid_short": 14, "end_eid_short": 14, "text_short": "호수가"}
        ]}, 
        {"id": 7, "type": "", "number": "singular", "gender": "", "person": "", "animacy": "thing", "mention": [
            {"id": 7, "sent_id": 0, "start_eid": 17, "end_eid": 18, "ne_id": -1, "text": "건조한 기후로", "start_eid_short": 18, "end_eid_short": 18, "text_short": "기후로"}
        ]}, 
        {"id": 8, "type": "", "number": "singular", "gender": "", "person": "", "animacy": "thing", "mention": [
            {"id": 8, "sent_id": 0, "start_eid": 19, "end_eid": 19, "ne_id": -1, "text": "물이", "start_eid_short": 19, "end_eid_short": 19, "text_short": "물이"}
        ]}, 
        {"id": 9, "type": "", "number": "singular", "gender": "", "person": "", "animacy": "thing", "mention": [
            {"id": 9, "sent_id": 0, "start_eid": 22, "end_eid": 23, "ne_id": -1, "text": "소금 결정만", "start_eid_short": 22, "end_eid_short": 23, "text_short": "소금 결정만"}
        ]}, 
        {"id": 10, "type": "CV_FOOD", "number": "singular", "gender": "", "person": "", "animacy": "thing", "mention": [
            {"id": 10, "sent_id": 0, "start_eid": 22, "end_eid": 22, "ne_id": 2, "text": "소금", "start_eid_short": 22, "end_eid_short": 22, "text_short": "소금"}
        ]}
    ]
}