{
    "doc_id": "E2016.836.21_A_01.json", 
    "DCT": "", 
    "category": "", 
    "category_weight": 0, 
    "title": {
        "text": "지도", 
        "NE": ""
    }, 
    "metaInfo": {}, 
    "sentence": [
        {
            "id": 0, 
            "reserve_str": "", 
            "text": "지리학자인 프톨레마이오스는 지구를 360도로 나누고 도(度)를 분(分)과 초(秒)로 나누는 위선과 경선을 고안하여 좌표를 바탕으로 세계지도를 제작하였다.", 
            "morp": [
                {"id": 0, "lemma": "지리", "type": "NNG", "position": 0, "weight": 0.415818}, 
                {"id": 1, "lemma": "학자", "type": "NNG", "position": 6, "weight": 0.0233263}, 
                {"id": 2, "lemma": "이", "type": "VCP", "position": 12, "weight": 0.0165001}, 
                {"id": 3, "lemma": "ㄴ", "type": "ETM", "position": 12, "weight": 0.220712}, 
                {"id": 4, "lemma": "프톨레마이오스", "type": "NNP", "position": 16, "weight": 0.9}, 
                {"id": 5, "lemma": "는", "type": "JX", "position": 37, "weight": 0.0332677}, 
                {"id": 6, "lemma": "지구", "type": "NNG", "position": 41, "weight": 0.9}, 
                {"id": 7, "lemma": "를", "type": "JKO", "position": 47, "weight": 0.137686}, 
                {"id": 8, "lemma": "360", "type": "SN", "position": 51, "weight": 1}, 
                {"id": 9, "lemma": "도", "type": "NNB", "position": 54, "weight": 0.00270442}, 
                {"id": 10, "lemma": "로", "type": "JKB", "position": 57, "weight": 0.13544}, 
                {"id": 11, "lemma": "나누", "type": "VV", "position": 61, "weight": 0.9}, 
                {"id": 12, "lemma": "고", "type": "EC", "position": 67, "weight": 0.416679}, 
                {"id": 13, "lemma": "도", "type": "NNG", "position": 71, "weight": 0.00226623}, 
                {"id": 14, "lemma": "(", "type": "SS", "position": 74, "weight": 1}, 
                {"id": 15, "lemma": "度", "type": "SH", "position": 75, "weight": 1}, 
                {"id": 16, "lemma": ")", "type": "SS", "position": 78, "weight": 1}, 
                {"id": 17, "lemma": "를", "type": "JKO", "position": 79, "weight": 0.0357023}, 
                {"id": 18, "lemma": "분", "type": "NNG", "position": 83, "weight": 0.00511248}, 
                {"id": 19, "lemma": "(", "type": "SS", "position": 86, "weight": 1}, 
                {"id": 20, "lemma": "分", "type": "SH", "position": 87, "weight": 1}, 
                {"id": 21, "lemma": ")", "type": "SS", "position": 90, "weight": 1}, 
                {"id": 22, "lemma": "과", "type": "JC", "position": 91, "weight": 0.00441114}, 
                {"id": 23, "lemma": "초", "type": "NNG", "position": 95, "weight": 0.106099}, 
                {"id": 24, "lemma": "(", "type": "SS", "position": 98, "weight": 1}, 
                {"id": 25, "lemma": "秒", "type": "SH", "position": 99, "weight": 1}, 
                {"id": 26, "lemma": ")", "type": "SS", "position": 102, "weight": 1}, 
                {"id": 27, "lemma": "로", "type": "JKB", "position": 103, "weight": 0.0485504}, 
                {"id": 28, "lemma": "나누", "type": "VV", "position": 107, "weight": 0.9}, 
                {"id": 29, "lemma": "는", "type": "ETM", "position": 113, "weight": 0.184941}, 
                {"id": 30, "lemma": "위선", "type": "NNG", "position": 117, "weight": 0.628299}, 
                {"id": 31, "lemma": "과", "type": "JC", "position": 123, "weight": 0.017569}, 
                {"id": 32, "lemma": "경선", "type": "NNG", "position": 127, "weight": 0.770631}, 
                {"id": 33, "lemma": "을", "type": "JKO", "position": 133, "weight": 0.129611}, 
                {"id": 34, "lemma": "고안", "type": "NNG", "position": 137, "weight": 0.0994143}, 
                {"id": 35, "lemma": "하", "type": "XSV", "position": 143, "weight": 0.0001}, 
                {"id": 36, "lemma": "여", "type": "EC", "position": 146, "weight": 0.361326}, 
                {"id": 37, "lemma": "좌표", "type": "NNG", "position": 150, "weight": 0.9}, 
                {"id": 38, "lemma": "를", "type": "JKO", "position": 156, "weight": 0.137686}, 
                {"id": 39, "lemma": "바탕", "type": "NNG", "position": 160, "weight": 0.10118}, 
                {"id": 40, "lemma": "으로", "type": "JKB", "position": 166, "weight": 0.153406}, 
                {"id": 41, "lemma": "세계", "type": "NNG", "position": 173, "weight": 0.9}, 
                {"id": 42, "lemma": "지도", "type": "NNG", "position": 179, "weight": 0.184498}, 
                {"id": 43, "lemma": "를", "type": "JKO", "position": 185, "weight": 0.137686}, 
                {"id": 44, "lemma": "제작", "type": "NNG", "position": 189, "weight": 0.9}, 
                {"id": 45, "lemma": "하", "type": "XSV", "position": 195, "weight": 0.0001}, 
                {"id": 46, "lemma": "였", "type": "EP", "position": 198, "weight": 0.9}, 
                {"id": 47, "lemma": "다", "type": "EF", "position": 201, "weight": 0.640954}, 
                {"id": 48, "lemma": ".", "type": "SF", "position": 204, "weight": 1}
            ], 
            "morp_eval": [], 
            "WSD": [
                {"id": 0, "text": "지리", "type": "NNG", "scode": "030002", "weight": 0.1, "position": 0, "begin": 0, "end": 0}, 
                {"id": 1, "text": "학자", "type": "NNG", "scode": "010001", "weight": 0.333333, "position": 6, "begin": 1, "end": 1}, 
                {"id": 2, "text": "이", "type": "VCP", "scode": "030000", "weight": 0.0172414, "position": 12, "begin": 2, "end": 2}, 
                {"id": 3, "text": "ㄴ", "type": "ETM", "scode": "000000", "weight": 1, "position": 12, "begin": 3, "end": 3}, 
                {"id": 4, "text": "프톨레마이오스", "type": "NNP", "scode": "000000", "weight": 1, "position": 16, "begin": 4, "end": 4}, 
                {"id": 5, "text": "는", "type": "JX", "scode": "000000", "weight": 1, "position": 37, "begin": 5, "end": 5}, 
                {"id": 6, "text": "지구", "type": "NNG", "scode": "040000", "weight": 0.0769231, "position": 41, "begin": 6, "end": 6}, 
                {"id": 7, "text": "를", "type": "JKO", "scode": "000000", "weight": 1, "position": 47, "begin": 7, "end": 7}, 
                {"id": 8, "text": "360", "type": "SN", "scode": "000000", "weight": 1, "position": 51, "begin": 8, "end": 8}, 
                {"id": 9, "text": "도", "type": "NNB", "scode": "050002", "weight": 0.025641, "position": 54, "begin": 9, "end": 9}, 
                {"id": 10, "text": "로", "type": "JKB", "scode": "000000", "weight": 1, "position": 57, "begin": 10, "end": 10}, 
                {"id": 11, "text": "나누", "type": "VV", "scode": "000101", "weight": 0.125, "position": 61, "begin": 11, "end": 11}, 
                {"id": 12, "text": "고", "type": "EC", "scode": "000000", "weight": 1, "position": 67, "begin": 12, "end": 12}, 
                {"id": 13, "text": "도", "type": "NNG", "scode": "050002", "weight": 0.025641, "position": 71, "begin": 13, "end": 13}, 
                {"id": 14, "text": "(", "type": "SS", "scode": "000000", "weight": 1, "position": 74, "begin": 14, "end": 14}, 
                {"id": 15, "text": "度", "type": "SH", "scode": "000000", "weight": 1, "position": 75, "begin": 15, "end": 15}, 
                {"id": 16, "text": ")", "type": "SS", "scode": "000000", "weight": 1, "position": 78, "begin": 16, "end": 16}, 
                {"id": 17, "text": "를", "type": "JKO", "scode": "000000", "weight": 1, "position": 79, "begin": 17, "end": 17}, 
                {"id": 18, "text": "분", "type": "NNG", "scode": "080006", "weight": 0.0384615, "position": 83, "begin": 18, "end": 18}, 
                {"id": 19, "text": "(", "type": "SS", "scode": "000000", "weight": 1, "position": 86, "begin": 19, "end": 19}, 
                {"id": 20, "text": "分", "type": "SH", "scode": "000000", "weight": 1, "position": 87, "begin": 20, "end": 20}, 
                {"id": 21, "text": ")", "type": "SS", "scode": "000000", "weight": 1, "position": 90, "begin": 21, "end": 21}, 
                {"id": 22, "text": "과", "type": "JC", "scode": "000000", "weight": 1, "position": 91, "begin": 22, "end": 22}, 
                {"id": 23, "text": "초", "type": "NNG", "scode": "070003", "weight": 0.0322581, "position": 95, "begin": 23, "end": 23}, 
                {"id": 24, "text": "(", "type": "SS", "scode": "000000", "weight": 1, "position": 98, "begin": 24, "end": 24}, 
                {"id": 25, "text": "秒", "type": "SH", "scode": "000000", "weight": 1, "position": 99, "begin": 25, "end": 25}, 
                {"id": 26, "text": ")", "type": "SS", "scode": "000000", "weight": 1, "position": 102, "begin": 26, "end": 26}, 
                {"id": 27, "text": "로", "type": "JKB", "scode": "000000", "weight": 1, "position": 103, "begin": 27, "end": 27}, 
                {"id": 28, "text": "나누", "type": "VV", "scode": "000101", "weight": 0.125, "position": 107, "begin": 28, "end": 28}, 
                {"id": 29, "text": "는", "type": "ETM", "scode": "000000", "weight": 1, "position": 113, "begin": 29, "end": 29}, 
                {"id": 30, "text": "위선", "type": "NNG", "scode": "050000", "weight": 0.2, "position": 117, "begin": 30, "end": 30}, 
                {"id": 31, "text": "과", "type": "JC", "scode": "000000", "weight": 1, "position": 123, "begin": 31, "end": 31}, 
                {"id": 32, "text": "경선", "type": "NNG", "scode": "040000", "weight": 0.125, "position": 127, "begin": 32, "end": 32}, 
                {"id": 33, "text": "을", "type": "JKO", "scode": "000000", "weight": 1, "position": 133, "begin": 33, "end": 33}, 
                {"id": 34, "text": "고안하", "type": "VV", "scode": "000000", "weight": 1, "position": 137, "begin": 34, "end": 35}, 
                {"id": 35, "text": "여", "type": "EC", "scode": "000000", "weight": 1, "position": 146, "begin": 36, "end": 36}, 
                {"id": 36, "text": "좌표", "type": "NNG", "scode": "000001", "weight": 0.5, "position": 150, "begin": 37, "end": 37}, 
                {"id": 37, "text": "를", "type": "JKO", "scode": "000000", "weight": 1, "position": 156, "begin": 38, "end": 38}, 
                {"id": 38, "text": "바탕", "type": "NNG", "scode": "010002", "weight": 0.142857, "position": 160, "begin": 39, "end": 39}, 
                {"id": 39, "text": "으로", "type": "JKB", "scode": "000000", "weight": 1, "position": 166, "begin": 40, "end": 40}, 
                {"id": 40, "text": "세계지도", "type": "NNG", "scode": "000000", "weight": 1, "position": 173, "begin": 41, "end": 42}, 
                {"id": 41, "text": "를", "type": "JKO", "scode": "000000", "weight": 1, "position": 185, "begin": 43, "end": 43}, 
                {"id": 42, "text": "제작하", "type": "VV", "scode": "020000", "weight": 0.333333, "position": 189, "begin": 44, "end": 45}, 
                {"id": 43, "text": "였", "type": "EP", "scode": "000000", "weight": 1, "position": 198, "begin": 46, "end": 46}, 
                {"id": 44, "text": "다", "type": "EF", "scode": "000000", "weight": 1, "position": 201, "begin": 47, "end": 47}, 
                {"id": 45, "text": ".", "type": "SF", "scode": "000000", "weight": 1, "position": 204, "begin": 48, "end": 48}
            ], 
            "word": [
                {"id": 0, "text": "지리학자인", "type": "", "begin": 0, "end": 3}, 
                {"id": 1, "text": "프톨레마이오스는", "type": "", "begin": 4, "end": 5}, 
                {"id": 2, "text": "지구를", "type": "", "begin": 6, "end": 7}, 
                {"id": 3, "text": "360도로", "type": "", "begin": 8, "end": 10}, 
                {"id": 4, "text": "나누고", "type": "", "begin": 11, "end": 12}, 
                {"id": 5, "text": "도(度)를", "type": "", "begin": 13, "end": 17}, 
                {"id": 6, "text": "분(分)과", "type": "", "begin": 18, "end": 22}, 
                {"id": 7, "text": "초(秒)로", "type": "", "begin": 23, "end": 27}, 
                {"id": 8, "text": "나누는", "type": "", "begin": 28, "end": 29}, 
                {"id": 9, "text": "위선과", "type": "", "begin": 30, "end": 31}, 
                {"id": 10, "text": "경선을", "type": "", "begin": 32, "end": 33}, 
                {"id": 11, "text": "고안하여", "type": "", "begin": 34, "end": 36}, 
                {"id": 12, "text": "좌표를", "type": "", "begin": 37, "end": 38}, 
                {"id": 13, "text": "바탕으로", "type": "", "begin": 39, "end": 40}, 
                {"id": 14, "text": "세계지도를", "type": "", "begin": 41, "end": 43}, 
                {"id": 15, "text": "제작하였다.", "type": "", "begin": 44, "end": 48}
            ], 
            "NE": [
                {"id": 0, "text": "지리학자", "type": "CV_OCCUPATION", "begin": 0, "end": 1, "weight": 0.755296, "common_noun": 0}, 
                {"id": 1, "text": "프톨레마이오스", "type": "PS_NAME", "begin": 4, "end": 4, "weight": 0.35121, "common_noun": 0}, 
                {"id": 2, "text": "지구", "type": "LC_SPACE", "begin": 6, "end": 6, "weight": 0.387865, "common_noun": 0}, 
                {"id": 3, "text": "360도", "type": "QT_OTHERS", "begin": 8, "end": 9, "weight": 0.397355, "common_noun": 0}
            ], 
            "chunk": [], 
            "dependency": [
                {"id": 0, "text": "지리학자인", "head": 1, "label": "VNP_MOD", "mod": [], "weight": 0.590604}, 
                {"id": 1, "text": "프톨레마이오스는", "head": 4, "label": "NP_SBJ", "mod": [0], "weight": 0.630517}, 
                {"id": 2, "text": "지구를", "head": 4, "label": "NP_OBJ", "mod": [], "weight": 0.872376}, 
                {"id": 3, "text": "360도로", "head": 4, "label": "NP_AJT", "mod": [], "weight": 0.49162}, 
                {"id": 4, "text": "나누고", "head": 11, "label": "VP", "mod": [2, 3, 1], "weight": 0.0664748}, 
                {"id": 5, "text": "도(度)를", "head": 8, "label": "NP_OBJ", "mod": [], "weight": 0.649714}, 
                {"id": 6, "text": "분(分)과", "head": 7, "label": "NP_CNJ", "mod": [], "weight": 0.757083}, 
                {"id": 7, "text": "초(秒)로", "head": 8, "label": "NP_AJT", "mod": [6], "weight": 0.7824}, 
                {"id": 8, "text": "나누는", "head": 10, "label": "VP_MOD", "mod": [5, 7], "weight": 0.704009}, 
                {"id": 9, "text": "위선과", "head": 10, "label": "NP_CNJ", "mod": [], "weight": 0.719775}, 
                {"id": 10, "text": "경선을", "head": 11, "label": "NP_OBJ", "mod": [8, 9], "weight": 0.76298}, 
                {"id": 11, "text": "고안하여", "head": 15, "label": "VP", "mod": [10, 4], "weight": 0.766959}, 
                {"id": 12, "text": "좌표를", "head": 13, "label": "NP_OBJ", "mod": [], "weight": 0.49578}, 
                {"id": 13, "text": "바탕으로", "head": 15, "label": "NP_AJT", "mod": [12], "weight": 0.813031}, 
                {"id": 14, "text": "세계지도를", "head": 15, "label": "NP_OBJ", "mod": [], "weight": 0.690687}, 
                {"id": 15, "text": "제작하였다.", "head": -1, "label": "VP", "mod": [11, 13, 14], "weight": 0.000282748}
            ], 
            "SRL": [
                {"verb": "나누", "sense": 1, "word_id": 4, "weight": 0.184307, "argument": [
                    {"type": "ARG1", "word_id": 2, "text": "지구를", "weight": 0.246925}, 
                    {"type": "ARG2", "word_id": 3, "text": "360도로", "weight": 0.12169}
                ]}, 
                {"verb": "나누", "sense": 1, "word_id": 8, "weight": 0.250591, "argument": [
                    {"type": "ARG1", "word_id": 5, "text": "도(度)를", "weight": 0.417356}, 
                    {"type": "ARG2", "word_id": 7, "text": "초(秒)로", "weight": 0.162805}, 
                    {"type": "ARG0", "word_id": 10, "text": "경선을", "weight": 1}
                ]}, 
                {"verb": "고안", "sense": 1, "word_id": 11, "weight": 0.307732, "argument": [
                    {"type": "ARG1", "word_id": 10, "text": "경선을", "weight": 0.307732}, 
                    {"type": "ARG0", "word_id": 1, "text": "프톨레마이오스는", "weight": 1}
                ]}, 
                {"verb": "제작", "sense": 1, "word_id": 15, "weight": 0.132631, "argument": [
                    {"type": "ARG0", "word_id": 1, "text": "프톨레마이오스는", "weight": 0.180643}, 
                    {"type": "ARGM-MNR", "word_id": 13, "text": "바탕으로", "weight": 0.0769273}, 
                    {"type": "ARG1", "word_id": 14, "text": "세계지도를", "weight": 0.140324}
                ]}
            ], 
            "relation": [], 
            "SA": [], 
            "ZA": []
        }, 
        {
            "id": 1, 
            "reserve_str": "", 
            "text": "프톨레마이오스가 저술한 『지리학(Geographia)』(AD 150년경)에 수록된 지도는 간단한 원추 도형법에 기초하고 있다.", 
            "morp": [
                {"id": 0, "lemma": "프톨레마이오스", "type": "NNP", "position": 205, "weight": 0.9}, 
                {"id": 1, "lemma": "가", "type": "JKS", "position": 226, "weight": 0.0431193}, 
                {"id": 2, "lemma": "저술", "type": "NNG", "position": 230, "weight": 0.9}, 
                {"id": 3, "lemma": "하", "type": "XSV", "position": 236, "weight": 0.0001}, 
                {"id": 4, "lemma": "ㄴ", "type": "ETM", "position": 236, "weight": 0.392321}, 
                {"id": 5, "lemma": "『", "type": "SS", "position": 240, "weight": 1}, 
                {"id": 6, "lemma": "지리", "type": "NNG", "position": 243, "weight": 0.189894}, 
                {"id": 7, "lemma": "학", "type": "XSN", "position": 249, "weight": 0.0233263}, 
                {"id": 8, "lemma": "(", "type": "SS", "position": 252, "weight": 1}, 
                {"id": 9, "lemma": "Geographia", "type": "SL", "position": 253, "weight": 1}, 
                {"id": 10, "lemma": ")", "type": "SS", "position": 263, "weight": 1}, 
                {"id": 11, "lemma": "』", "type": "SS", "position": 264, "weight": 1}, 
                {"id": 12, "lemma": "(", "type": "SS", "position": 267, "weight": 1}, 
                {"id": 13, "lemma": "AD", "type": "SL", "position": 268, "weight": 1}, 
                {"id": 14, "lemma": "150", "type": "SN", "position": 271, "weight": 1}, 
                {"id": 15, "lemma": "년", "type": "NNB", "position": 274, "weight": 0.414343}, 
                {"id": 16, "lemma": "경", "type": "XSN", "position": 277, "weight": 0.0160459}, 
                {"id": 17, "lemma": ")", "type": "SS", "position": 280, "weight": 1}, 
                {"id": 18, "lemma": "에", "type": "JKB", "position": 281, "weight": 0.048593}, 
                {"id": 19, "lemma": "수록", "type": "NNG", "position": 285, "weight": 0.205116}, 
                {"id": 20, "lemma": "되", "type": "XSV", "position": 291, "weight": 0.000224177}, 
                {"id": 21, "lemma": "ㄴ", "type": "ETM", "position": 291, "weight": 0.392321}, 
                {"id": 22, "lemma": "지도", "type": "NNG", "position": 295, "weight": 0.657622}, 
                {"id": 23, "lemma": "는", "type": "JX", "position": 301, "weight": 0.0287565}, 
                {"id": 24, "lemma": "간단", "type": "NNG", "position": 305, "weight": 0.9}, 
                {"id": 25, "lemma": "하", "type": "XSA", "position": 311, "weight": 0.0001}, 
                {"id": 26, "lemma": "ㄴ", "type": "ETM", "position": 311, "weight": 0.488779}, 
                {"id": 27, "lemma": "원추", "type": "NNG", "position": 315, "weight": 0.656869}, 
                {"id": 28, "lemma": "도형법", "type": "NNG", "position": 322, "weight": 0.6}, 
                {"id": 29, "lemma": "에", "type": "JKB", "position": 331, "weight": 0.0823628}, 
                {"id": 30, "lemma": "기초", "type": "NNG", "position": 335, "weight": 0.9}, 
                {"id": 31, "lemma": "하", "type": "XSV", "position": 341, "weight": 0.0001}, 
                {"id": 32, "lemma": "고", "type": "EC", "position": 344, "weight": 0.359917}, 
                {"id": 33, "lemma": "있", "type": "VX", "position": 348, "weight": 0.125953}, 
                {"id": 34, "lemma": "다", "type": "EF", "position": 351, "weight": 0.180366}, 
                {"id": 35, "lemma": ".", "type": "SF", "position": 354, "weight": 1}
            ], 
            "morp_eval": [], 
            "WSD": [
                {"id": 0, "text": "프톨레마이오스", "type": "NNP", "scode": "000000", "weight": 1, "position": 205, "begin": 0, "end": 0}, 
                {"id": 1, "text": "가", "type": "JKS", "scode": "000000", "weight": 1, "position": 226, "begin": 1, "end": 1}, 
                {"id": 2, "text": "저술하", "type": "VV", "scode": "000000", "weight": 1, "position": 230, "begin": 2, "end": 3}, 
                {"id": 3, "text": "ㄴ", "type": "ETM", "scode": "000000", "weight": 1, "position": 236, "begin": 4, "end": 4}, 
                {"id": 4, "text": "『", "type": "SS", "scode": "000000", "weight": 1, "position": 240, "begin": 5, "end": 5}, 
                {"id": 5, "text": "지리학", "type": "NNG", "scode": "000000", "weight": 1, "position": 243, "begin": 6, "end": 7}, 
                {"id": 6, "text": "(", "type": "SS", "scode": "000000", "weight": 1, "position": 252, "begin": 8, "end": 8}, 
                {"id": 7, "text": "Geographia", "type": "SL", "scode": "000000", "weight": 1, "position": 253, "begin": 9, "end": 9}, 
                {"id": 8, "text": ")", "type": "SS", "scode": "000000", "weight": 1, "position": 263, "begin": 10, "end": 10}, 
                {"id": 9, "text": "』", "type": "SS", "scode": "000000", "weight": 1, "position": 264, "begin": 11, "end": 11}, 
                {"id": 10, "text": "(", "type": "SS", "scode": "000000", "weight": 1, "position": 267, "begin": 12, "end": 12}, 
                {"id": 11, "text": "AD", "type": "SL", "scode": "000000", "weight": 1, "position": 268, "begin": 13, "end": 13}, 
                {"id": 12, "text": "150", "type": "SN", "scode": "000000", "weight": 1, "position": 271, "begin": 14, "end": 14}, 
                {"id": 13, "text": "년", "type": "NNB", "scode": "020000", "weight": 0.166667, "position": 274, "begin": 15, "end": 15}, 
                {"id": 14, "text": "경", "type": "XSN", "scode": "250001", "weight": 0.0217391, "position": 277, "begin": 16, "end": 16}, 
                {"id": 15, "text": ")", "type": "SS", "scode": "000000", "weight": 1, "position": 280, "begin": 17, "end": 17}, 
                {"id": 16, "text": "에", "type": "JKB", "scode": "000000", "weight": 1, "position": 281, "begin": 18, "end": 18}, 
                {"id": 17, "text": "수록되", "type": "VV", "scode": "020002", "weight": 0.25, "position": 285, "begin": 19, "end": 20}, 
                {"id": 18, "text": "ㄴ", "type": "ETM", "scode": "000000", "weight": 1, "position": 291, "begin": 21, "end": 21}, 
                {"id": 19, "text": "지도", "type": "NNG", "scode": "030000", "weight": 0.0833333, "position": 295, "begin": 22, "end": 22}, 
                {"id": 20, "text": "는", "type": "JX", "scode": "000000", "weight": 1, "position": 301, "begin": 23, "end": 23}, 
                {"id": 21, "text": "간단하", "type": "VA", "scode": "020101", "weight": 0.2, "position": 305, "begin": 24, "end": 25}, 
                {"id": 22, "text": "ㄴ", "type": "ETM", "scode": "000000", "weight": 1, "position": 311, "begin": 26, "end": 26}, 
                {"id": 23, "text": "원추", "type": "NNG", "scode": "020000", "weight": 0.5, "position": 315, "begin": 27, "end": 27}, 
                {"id": 24, "text": "도형법", "type": "NNG", "scode": "000000", "weight": 0, "position": 322, "begin": 28, "end": 28}, 
                {"id": 25, "text": "에", "type": "JKB", "scode": "000000", "weight": 1, "position": 331, "begin": 29, "end": 29}, 
                {"id": 26, "text": "기초하", "type": "VV", "scode": "030000", "weight": 0.333333, "position": 335, "begin": 30, "end": 31}, 
                {"id": 27, "text": "고", "type": "EC", "scode": "000000", "weight": 1, "position": 344, "begin": 32, "end": 32}, 
                {"id": 28, "text": "있", "type": "VX", "scode": "010901", "weight": 0.0416667, "position": 348, "begin": 33, "end": 33}, 
                {"id": 29, "text": "다", "type": "EF", "scode": "000000", "weight": 1, "position": 351, "begin": 34, "end": 34}, 
                {"id": 30, "text": ".", "type": "SF", "scode": "000000", "weight": 1, "position": 354, "begin": 35, "end": 35}
            ], 
            "word": [
                {"id": 0, "text": "프톨레마이오스가", "type": "", "begin": 0, "end": 1}, 
                {"id": 1, "text": "저술한", "type": "", "begin": 2, "end": 4}, 
                {"id": 2, "text": "『지리학(Geographia)』(AD", "type": "", "begin": 5, "end": 13}, 
                {"id": 3, "text": "150년경)에", "type": "", "begin": 14, "end": 18}, 
                {"id": 4, "text": "수록된", "type": "", "begin": 19, "end": 21}, 
                {"id": 5, "text": "지도는", "type": "", "begin": 22, "end": 23}, 
                {"id": 6, "text": "간단한", "type": "", "begin": 24, "end": 26}, 
                {"id": 7, "text": "원추", "type": "", "begin": 27, "end": 27}, 
                {"id": 8, "text": "도형법에", "type": "", "begin": 28, "end": 29}, 
                {"id": 9, "text": "기초하고", "type": "", "begin": 30, "end": 32}, 
                {"id": 10, "text": "있다.", "type": "", "begin": 33, "end": 35}
            ], 
            "NE": [
                {"id": 0, "text": "프톨레마이오스", "type": "PS_NAME", "begin": 0, "end": 0, "weight": 0.420653, "common_noun": 0}, 
                {"id": 1, "text": "지리학", "type": "AFW_DOCUMENT", "begin": 6, "end": 7, "weight": 0.438265, "common_noun": 0}, 
                {"id": 2, "text": "Geographia", "type": "AFW_DOCUMENT", "begin": 9, "end": 9, "weight": 0.083836, "common_noun": 0}, 
                {"id": 3, "text": "AD 150년경", "type": "DT_YEAR", "begin": 13, "end": 16, "weight": 0.733795, "common_noun": 0}, 
                {"id": 4, "text": "원추 도형법", "type": "TR_SCIENCE", "begin": 27, "end": 28, "weight": 0.0837113, "common_noun": 0}
            ], 
            "chunk": [], 
            "dependency": [
                {"id": 0, "text": "프톨레마이오스가", "head": 1, "label": "NP_SBJ", "mod": [], "weight": 0.759587}, 
                {"id": 1, "text": "저술한", "head": 3, "label": "VP_MOD", "mod": [0], "weight": 0.316165}, 
                {"id": 2, "text": "『지리학(Geographia)』(AD", "head": 3, "label": "NP", "mod": [], "weight": 0.668053}, 
                {"id": 3, "text": "150년경)에", "head": 4, "label": "NP_AJT", "mod": [1, 2], "weight": 0.621522}, 
                {"id": 4, "text": "수록된", "head": 5, "label": "VP_MOD", "mod": [3], "weight": 0.725384}, 
                {"id": 5, "text": "지도는", "head": 9, "label": "NP_SBJ", "mod": [4], "weight": 0.738615}, 
                {"id": 6, "text": "간단한", "head": 8, "label": "VP_MOD", "mod": [], "weight": 0.696789}, 
                {"id": 7, "text": "원추", "head": 8, "label": "NP", "mod": [], "weight": 0.692567}, 
                {"id": 8, "text": "도형법에", "head": 9, "label": "NP_AJT", "mod": [6, 7], "weight": 0.703448}, 
                {"id": 9, "text": "기초하고", "head": 10, "label": "VP", "mod": [5, 8], "weight": 0.787408}, 
                {"id": 10, "text": "있다.", "head": -1, "label": "VP", "mod": [9], "weight": 0.0111707}
            ], 
            "SRL": [
                {"verb": "저술", "sense": 1, "word_id": 1, "weight": 0.41029, "argument": [
                    {"type": "ARG0", "word_id": 0, "text": "프톨레마이오스가", "weight": 0.41029}, 
                    {"type": "ARG1", "word_id": 3, "text": "150년경)에", "weight": 1}
                ]}, 
                {"verb": "수록", "sense": 1, "word_id": 4, "weight": 0.224975, "argument": [
                    {"type": "ARG1", "word_id": 3, "text": "150년경)에", "weight": 1}, 
                    {"type": "ARG2", "word_id": 5, "text": "지도는", "weight": 1}
                ]}, 
                {"verb": "간단", "sense": 1, "word_id": 6, "weight": 0.235387, "argument": [
                    {"type": "ARG1", "word_id": 8, "text": "도형법에", "weight": 0.235387}
                ]}, 
                {"verb": "기초", "sense": 1, "word_id": 9, "weight": 0.171528, "argument": [
                    {"type": "ARG1", "word_id": 5, "text": "지도는", "weight": 0.108894}, 
                    {"type": "ARG2", "word_id": 8, "text": "도형법에", "weight": 0.165092}, 
                    {"type": "AUX", "word_id": 10, "text": "있다.", "weight": 0.240599}
                ]}
            ], 
            "relation": [], 
            "SA": [], 
            "ZA": []
        }, 
        {
            "id": 2, 
            "reserve_str": "", 
            "text": "비록 천동설에 입각한 오류를 빚고 있으나 근대 지도의 기초를 이룬 지도로 평가받고 있다.", 
            "morp": [
                {"id": 0, "lemma": "비록", "type": "MAG", "position": 355, "weight": 0.0653953}, 
                {"id": 1, "lemma": "천동", "type": "NNG", "position": 362, "weight": 0.05}, 
                {"id": 2, "lemma": "설", "type": "XSN", "position": 368, "weight": 0.0177073}, 
                {"id": 3, "lemma": "에", "type": "JKB", "position": 371, "weight": 0.121683}, 
                {"id": 4, "lemma": "입각", "type": "NNG", "position": 375, "weight": 0.9}, 
                {"id": 5, "lemma": "하", "type": "XSV", "position": 381, "weight": 0.0001}, 
                {"id": 6, "lemma": "ㄴ", "type": "ETM", "position": 381, "weight": 0.392321}, 
                {"id": 7, "lemma": "오류", "type": "NNG", "position": 385, "weight": 0.655689}, 
                {"id": 8, "lemma": "를", "type": "JKO", "position": 391, "weight": 0.137686}, 
                {"id": 9, "lemma": "빚", "type": "VV", "position": 395, "weight": 0.443699}, 
                {"id": 10, "lemma": "고", "type": "EC", "position": 398, "weight": 0.416679}, 
                {"id": 11, "lemma": "있", "type": "VX", "position": 402, "weight": 0.125953}, 
                {"id": 12, "lemma": "으나", "type": "EC", "position": 405, "weight": 0.26557}, 
                {"id": 13, "lemma": "근대", "type": "NNG", "position": 412, "weight": 0.21925}, 
                {"id": 14, "lemma": "지도", "type": "NNG", "position": 419, "weight": 0.184498}, 
                {"id": 15, "lemma": "의", "type": "JKG", "position": 425, "weight": 0.0694213}, 
                {"id": 16, "lemma": "기초", "type": "NNG", "position": 429, "weight": 0.9}, 
                {"id": 17, "lemma": "를", "type": "JKO", "position": 435, "weight": 0.137686}, 
                {"id": 18, "lemma": "이루", "type": "VV", "position": 439, "weight": 0.760047}, 
                {"id": 19, "lemma": "ㄴ", "type": "ETM", "position": 442, "weight": 0.304215}, 
                {"id": 20, "lemma": "지도", "type": "NNG", "position": 446, "weight": 0.657622}, 
                {"id": 21, "lemma": "로", "type": "JKB", "position": 452, "weight": 0.153229}, 
                {"id": 22, "lemma": "평가", "type": "NNG", "position": 456, "weight": 0.9}, 
                {"id": 23, "lemma": "받", "type": "VV", "position": 462, "weight": 0.0147799}, 
                {"id": 24, "lemma": "고", "type": "EC", "position": 465, "weight": 0.416679}, 
                {"id": 25, "lemma": "있", "type": "VX", "position": 469, "weight": 0.125953}, 
                {"id": 26, "lemma": "다", "type": "EF", "position": 472, "weight": 0.180366}, 
                {"id": 27, "lemma": ".", "type": "SF", "position": 475, "weight": 1}
            ], 
            "morp_eval": [], 
            "WSD": [
                {"id": 0, "text": "비록", "type": "MAG", "scode": "010000", "weight": 0.25, "position": 355, "begin": 0, "end": 0}, 
                {"id": 1, "text": "천동설", "type": "NNG", "scode": "000000", "weight": 1, "position": 362, "begin": 1, "end": 2}, 
                {"id": 2, "text": "에", "type": "JKB", "scode": "000000", "weight": 1, "position": 371, "begin": 3, "end": 3}, 
                {"id": 3, "text": "입각하", "type": "VV", "scode": "020000", "weight": 0.5, "position": 375, "begin": 4, "end": 5}, 
                {"id": 4, "text": "ㄴ", "type": "ETM", "scode": "000000", "weight": 1, "position": 381, "begin": 6, "end": 6}, 
                {"id": 5, "text": "오류", "type": "NNG", "scode": "030001", "weight": 0.166667, "position": 385, "begin": 7, "end": 7}, 
                {"id": 6, "text": "를", "type": "JKO", "scode": "000000", "weight": 1, "position": 391, "begin": 8, "end": 8}, 
                {"id": 7, "text": "빚", "type": "VV", "scode": "000004", "weight": 0.25, "position": 395, "begin": 9, "end": 9}, 
                {"id": 8, "text": "고", "type": "EC", "scode": "000000", "weight": 1, "position": 398, "begin": 10, "end": 10}, 
                {"id": 9, "text": "있", "type": "VX", "scode": "010902", "weight": 0.0416667, "position": 402, "begin": 11, "end": 11}, 
                {"id": 10, "text": "으나", "type": "EC", "scode": "000000", "weight": 1, "position": 405, "begin": 12, "end": 12}, 
                {"id": 11, "text": "근대", "type": "NNG", "scode": "030002", "weight": 0.25, "position": 412, "begin": 13, "end": 13}, 
                {"id": 12, "text": "지도", "type": "NNG", "scode": "030000", "weight": 0.0833333, "position": 419, "begin": 14, "end": 14}, 
                {"id": 13, "text": "의", "type": "JKG", "scode": "000000", "weight": 1, "position": 425, "begin": 15, "end": 15}, 
                {"id": 14, "text": "기초", "type": "NNG", "scode": "060001", "weight": 0.111111, "position": 429, "begin": 16, "end": 16}, 
                {"id": 15, "text": "를", "type": "JKO", "scode": "000000", "weight": 1, "position": 435, "begin": 17, "end": 17}, 
                {"id": 16, "text": "이루", "type": "VV", "scode": "010103", "weight": 0.2, "position": 439, "begin": 18, "end": 18}, 
                {"id": 17, "text": "ㄴ", "type": "ETM", "scode": "000000", "weight": 1, "position": 442, "begin": 19, "end": 19}, 
                {"id": 18, "text": "지도", "type": "NNG", "scode": "030000", "weight": 0.0833333, "position": 446, "begin": 20, "end": 20}, 
                {"id": 19, "text": "로", "type": "JKB", "scode": "000000", "weight": 1, "position": 452, "begin": 21, "end": 21}, 
                {"id": 20, "text": "평가", "type": "NNG", "scode": "030002", "weight": 0.166667, "position": 456, "begin": 22, "end": 22}, 
                {"id": 21, "text": "받", "type": "VV", "scode": "010103", "weight": 0.037037, "position": 462, "begin": 23, "end": 23}, 
                {"id": 22, "text": "고", "type": "EC", "scode": "000000", "weight": 1, "position": 465, "begin": 24, "end": 24}, 
                {"id": 23, "text": "있", "type": "VX", "scode": "010902", "weight": 0.0416667, "position": 469, "begin": 25, "end": 25}, 
                {"id": 24, "text": "다", "type": "EF", "scode": "000000", "weight": 1, "position": 472, "begin": 26, "end": 26}, 
                {"id": 25, "text": ".", "type": "SF", "scode": "000000", "weight": 1, "position": 475, "begin": 27, "end": 27}
            ], 
            "word": [
                {"id": 0, "text": "비록", "type": "", "begin": 0, "end": 0}, 
                {"id": 1, "text": "천동설에", "type": "", "begin": 1, "end": 3}, 
                {"id": 2, "text": "입각한", "type": "", "begin": 4, "end": 6}, 
                {"id": 3, "text": "오류를", "type": "", "begin": 7, "end": 8}, 
                {"id": 4, "text": "빚고", "type": "", "begin": 9, "end": 10}, 
                {"id": 5, "text": "있으나", "type": "", "begin": 11, "end": 12}, 
                {"id": 6, "text": "근대", "type": "", "begin": 13, "end": 13}, 
                {"id": 7, "text": "지도의", "type": "", "begin": 14, "end": 15}, 
                {"id": 8, "text": "기초를", "type": "", "begin": 16, "end": 17}, 
                {"id": 9, "text": "이룬", "type": "", "begin": 18, "end": 19}, 
                {"id": 10, "text": "지도로", "type": "", "begin": 20, "end": 21}, 
                {"id": 11, "text": "평가받고", "type": "", "begin": 22, "end": 24}, 
                {"id": 12, "text": "있다.", "type": "", "begin": 25, "end": 27}
            ], 
            "NE": [
                {"id": 0, "text": "천동설", "type": "TR_SCIENCE", "begin": 1, "end": 2, "weight": 0.489068, "common_noun": 0}, 
                {"id": 1, "text": "근대", "type": "DT_OTHERS", "begin": 13, "end": 13, "weight": 0.557477, "common_noun": 0}
            ], 
            "chunk": [], 
            "dependency": [
                {"id": 0, "text": "비록", "head": 4, "label": "AP", "mod": [], "weight": 0.526975}, 
                {"id": 1, "text": "천동설에", "head": 2, "label": "NP_AJT", "mod": [], "weight": 0.559153}, 
                {"id": 2, "text": "입각한", "head": 3, "label": "VP_MOD", "mod": [1], "weight": 0.719139}, 
                {"id": 3, "text": "오류를", "head": 4, "label": "NP_OBJ", "mod": [2], "weight": 0.824913}, 
                {"id": 4, "text": "빚고", "head": 5, "label": "VP", "mod": [0, 3], "weight": 0.876161}, 
                {"id": 5, "text": "있으나", "head": 11, "label": "VP", "mod": [4], "weight": 0.819051}, 
                {"id": 6, "text": "근대", "head": 7, "label": "NP", "mod": [], "weight": 0.674568}, 
                {"id": 7, "text": "지도의", "head": 8, "label": "NP_MOD", "mod": [6], "weight": 0.672391}, 
                {"id": 8, "text": "기초를", "head": 9, "label": "NP_OBJ", "mod": [7], "weight": 0.593371}, 
                {"id": 9, "text": "이룬", "head": 10, "label": "VP_MOD", "mod": [8], "weight": 0.577402}, 
                {"id": 10, "text": "지도로", "head": 11, "label": "NP_AJT", "mod": [9], "weight": 0.73882}, 
                {"id": 11, "text": "평가받고", "head": 12, "label": "VP", "mod": [5, 10], "weight": 0.781762}, 
                {"id": 12, "text": "있다.", "head": -1, "label": "VP", "mod": [11], "weight": 0.00855548}
            ], 
            "SRL": [
                {"verb": "입각", "sense": 1, "word_id": 2, "weight": 0.1237, "argument": [
                    {"type": "ARG2", "word_id": 1, "text": "천동설에", "weight": 0.119442}, 
                    {"type": "ARG1", "word_id": 3, "text": "오류를", "weight": 0.127957}
                ]}, 
                {"verb": "빚", "sense": 1, "word_id": 4, "weight": 0.262855, "argument": [
                    {"type": "ARG1", "word_id": 3, "text": "오류를", "weight": 0.252849}, 
                    {"type": "AUX", "word_id": 5, "text": "있으나", "weight": 0.419967}
                ]}, 
                {"verb": "이루", "sense": 2, "word_id": 9, "weight": 0.189947, "argument": [
                    {"type": "ARG1", "word_id": 8, "text": "기초를", "weight": 0.189947}, 
                    {"type": "ARGM-TMP", "word_id": 6, "text": "근대", "weight": 1}
                ]}, 
                {"verb": "평가받", "sense": 1, "word_id": 11, "weight": 0.273116, "argument": [
                    {"type": "ARG2", "word_id": 10, "text": "지도로", "weight": 1}, 
                    {"type": "AUX", "word_id": 12, "text": "있다.", "weight": 0.454021}
                ]}
            ], 
            "relation": [], 
            "SA": [], 
            "ZA": []
        }
    ], 
    "entity": [
        {"id": 0, "type": "CV_OCCUPATION", "number": "singular", "gender": "", "person": "", "animacy": "thing", "mention": [
            {"id": 0, "sent_id": 0, "start_eid": 0, "end_eid": 1, "ne_id": 1, "text": "지리학자인 프톨레마이오스는", "start_eid_short": 1, "end_eid_short": 1, "text_short": "프톨레마이오스는"}, 
            {"id": 1, "sent_id": 0, "start_eid": 0, "end_eid": 0, "ne_id": 0, "text": "지리학자인", "start_eid_short": 0, "end_eid_short": 0, "text_short": "지리학자인"}, 
            {"id": 16, "sent_id": 1, "start_eid": 0, "end_eid": 0, "ne_id": 0, "text": "프톨레마이오스가", "start_eid_short": 0, "end_eid_short": 0, "text_short": "프톨레마이오스가"}
        ]}, 
        {"id": 1, "type": "LC_SPACE", "number": "singular", "gender": "", "person": "", "animacy": "place", "mention": [
            {"id": 2, "sent_id": 0, "start_eid": 2, "end_eid": 2, "ne_id": 2, "text": "지구를", "start_eid_short": 2, "end_eid_short": 2, "text_short": "지구를"}
        ]}, 
        {"id": 2, "type": "QT_OTHERS", "number": "singular", "gender": "", "person": "", "animacy": "thing", "mention": [
            {"id": 3, "sent_id": 0, "start_eid": 3, "end_eid": 3, "ne_id": 3, "text": "360도로", "start_eid_short": 3, "end_eid_short": 3, "text_short": "360도로"}
        ]}, 
        {"id": 3, "type": "", "number": "plural", "gender": "", "person": "", "animacy": "thing", "mention": [
            {"id": 4, "sent_id": 0, "start_eid": 5, "end_eid": 10, "ne_id": -1, "text": "도(度)를 분(分)과 초(秒)로 나누는 위선과 경선을", "start_eid_short": 10, "end_eid_short": 0, "text_short": ""}
        ]}, 
        {"id": 4, "type": "", "number": "singular", "gender": "", "person": "", "animacy": "thing", "mention": [
            {"id": 9, "sent_id": 0, "start_eid": 9, "end_eid": 9, "ne_id": -1, "text": "위선과", "start_eid_short": 9, "end_eid_short": 9, "text_short": "위선과"}
        ]}, 
        {"id": 5, "type": "", "number": "singular", "gender": "", "person": "", "animacy": "thing", "mention": [
            {"id": 11, "sent_id": 0, "start_eid": 12, "end_eid": 13, "ne_id": -1, "text": "좌표를 바탕으로", "start_eid_short": 13, "end_eid_short": 13, "text_short": "바탕으로"}
        ]}, 
        {"id": 6, "type": "", "number": "singular", "gender": "", "person": "", "animacy": "thing", "mention": [
            {"id": 12, "sent_id": 0, "start_eid": 12, "end_eid": 12, "ne_id": -1, "text": "좌표를", "start_eid_short": 12, "end_eid_short": 12, "text_short": "좌표를"}
        ]}, 
        {"id": 7, "type": "", "number": "singular", "gender": "", "person": "", "animacy": "thing", "mention": [
            {"id": 13, "sent_id": 0, "start_eid": 14, "end_eid": 14, "ne_id": -1, "text": "세계지도를", "start_eid_short": 14, "end_eid_short": 14, "text_short": "세계지도를"}
        ]}, 
        {"id": 8, "type": "", "number": "singular", "gender": "", "person": "", "animacy": "thing", "mention": [
            {"id": 14, "sent_id": 1, "start_eid": 0, "end_eid": 5, "ne_id": -1, "text": "프톨레마이오스가 저술한 『지리학(Geographia)』(AD 150년경)에 수록된 지도는", "start_eid_short": 5, "end_eid_short": 5, "text_short": "지도는"}, 
            {"id": 21, "sent_id": 2, "start_eid": 6, "end_eid": 10, "ne_id": -1, "text": "근대 지도의 기초를 이룬 지도로", "start_eid_short": 10, "end_eid_short": 10, "text_short": "지도로"}
        ]}, 
        {"id": 9, "type": "DT_YEAR", "number": "singular", "gender": "", "person": "", "animacy": "time", "mention": [
            {"id": 15, "sent_id": 1, "start_eid": 0, "end_eid": 3, "ne_id": 3, "text": "프톨레마이오스가 저술한 『지리학(Geographia)』(AD 150년경)에", "start_eid_short": 3, "end_eid_short": 3, "text_short": "150년경)에"}
        ]}, 
        {"id": 10, "type": "", "number": "singular", "gender": "", "person": "", "animacy": "thing", "mention": [
            {"id": 17, "sent_id": 1, "start_eid": 6, "end_eid": 8, "ne_id": -1, "text": "간단한 원추 도형법에", "start_eid_short": 7, "end_eid_short": 8, "text_short": "원추 도형법에"}
        ]}, 
        {"id": 11, "type": "", "number": "singular", "gender": "", "person": "", "animacy": "thing", "mention": [
            {"id": 18, "sent_id": 1, "start_eid": 7, "end_eid": 7, "ne_id": -1, "text": "원추", "start_eid_short": 7, "end_eid_short": 7, "text_short": "원추"}
        ]}, 
        {"id": 12, "type": "", "number": "singular", "gender": "", "person": "", "animacy": "thing", "mention": [
            {"id": 19, "sent_id": 2, "start_eid": 1, "end_eid": 3, "ne_id": -1, "text": "천동설에 입각한 오류를", "start_eid_short": 3, "end_eid_short": 3, "text_short": "오류를"}
        ]}, 
        {"id": 13, "type": "TR_SCIENCE", "number": "singular", "gender": "", "person": "", "animacy": "thing", "mention": [
            {"id": 20, "sent_id": 2, "start_eid": 1, "end_eid": 1, "ne_id": 0, "text": "천동설에", "start_eid_short": 1, "end_eid_short": 1, "text_short": "천동설에"}
        ]}, 
        {"id": 14, "type": "DT_OTHERS", "number": "singular", "gender": "", "person": "", "animacy": "time", "mention": [
            {"id": 24, "sent_id": 2, "start_eid": 6, "end_eid": 6, "ne_id": 1, "text": "근대", "start_eid_short": 6, "end_eid_short": 6, "text_short": "근대"}
        ]}, 
        {"id": 15, "type": "", "number": "singular", "gender": "", "person": "", "animacy": "thing", "mention": [
            {"id": 22, "sent_id": 2, "start_eid": 6, "end_eid": 8, "ne_id": -1, "text": "근대 지도의 기초를", "start_eid_short": 8, "end_eid_short": 8, "text_short": "기초를"}
        ]}, 
        {"id": 16, "type": "", "number": "singular", "gender": "", "person": "", "animacy": "thing", "mention": [
            {"id": 10, "sent_id": 0, "start_eid": 10, "end_eid": 10, "ne_id": -1, "text": "경선을", "start_eid_short": 10, "end_eid_short": 10, "text_short": "경선을"}
        ]}, 
        {"id": 17, "type": "", "number": "singular", "gender": "", "person": "", "animacy": "thing", "mention": [
            {"id": 5, "sent_id": 0, "start_eid": 5, "end_eid": 5, "ne_id": -1, "text": "도(度)를", "start_eid_short": 5, "end_eid_short": 0, "text_short": ""}
        ]}, 
        {"id": 18, "type": "", "number": "singular", "gender": "", "person": "", "animacy": "thing", "mention": [
            {"id": 6, "sent_id": 0, "start_eid": 6, "end_eid": 7, "ne_id": -1, "text": "분(分)과 초(秒)로", "start_eid_short": 7, "end_eid_short": 0, "text_short": ""}
        ]}, 
        {"id": 19, "type": "", "number": "singular", "gender": "", "person": "", "animacy": "thing", "mention": [
            {"id": 7, "sent_id": 0, "start_eid": 6, "end_eid": 6, "ne_id": -1, "text": "분(分)과", "start_eid_short": 6, "end_eid_short": 0, "text_short": ""}
        ]}, 
        {"id": 20, "type": "", "number": "singular", "gender": "", "person": "", "animacy": "thing", "mention": [
            {"id": 8, "sent_id": 0, "start_eid": 7, "end_eid": 7, "ne_id": -1, "text": "초(秒)로", "start_eid_short": 7, "end_eid_short": 0, "text_short": ""}
        ]}, 
        {"id": 21, "type": "", "number": "singular", "gender": "", "person": "", "animacy": "thing", "mention": [
            {"id": 23, "sent_id": 2, "start_eid": 6, "end_eid": 7, "ne_id": -1, "text": "근대 지도의", "start_eid_short": 6, "end_eid_short": 7, "text_short": "근대 지도의"}
        ]}
    ]
}