{
    "doc_id": "E2016.788.07_Q_01.json", 
    "DCT": "", 
    "category": "", 
    "category_weight": 0, 
    "title": {
        "text": "", 
        "NE": ""
    }, 
    "metaInfo": {}, 
    "sentence": [
        {
            "id": 0, 
            "reserve_str": "", 
            "text": "역대 왕조 중 마지막 왕이 아닌 사람은?", 
            "morp": [
                {"id": 0, "lemma": "역대", "type": "NNG", "position": 0, "weight": 0.9}, 
                {"id": 1, "lemma": "왕조", "type": "NNG", "position": 7, "weight": 0.9}, 
                {"id": 2, "lemma": "중", "type": "NNB", "position": 14, "weight": 0.013531}, 
                {"id": 3, "lemma": "마지막", "type": "NNG", "position": 18, "weight": 0.9}, 
                {"id": 4, "lemma": "왕", "type": "NNG", "position": 28, "weight": 0.168345}, 
                {"id": 5, "lemma": "이", "type": "JKC", "position": 31, "weight": 0.000287945}, 
                {"id": 6, "lemma": "아니", "type": "VCN", "position": 35, "weight": 0.354175}, 
                {"id": 7, "lemma": "ㄴ", "type": "ETM", "position": 38, "weight": 0.144018}, 
                {"id": 8, "lemma": "사람", "type": "NNG", "position": 42, "weight": 0.658826}, 
                {"id": 9, "lemma": "은", "type": "JX", "position": 48, "weight": 0.0449928}, 
                {"id": 10, "lemma": "?", "type": "SF", "position": 51, "weight": 1}
            ], 
            "morp_eval": [], 
            "WSD": [
                {"id": 0, "text": "역대", "type": "NNG", "scode": "020000", "weight": 0.5, "position": 0, "begin": 0, "end": 0}, 
                {"id": 1, "text": "왕조", "type": "NNG", "scode": "020001", "weight": 0.333333, "position": 7, "begin": 1, "end": 1}, 
                {"id": 2, "text": "중", "type": "NNB", "scode": "040101", "weight": 0.0526316, "position": 14, "begin": 2, "end": 2}, 
                {"id": 3, "text": "마지막", "type": "NNG", "scode": "000000", "weight": 1, "position": 18, "begin": 3, "end": 3}, 
                {"id": 4, "text": "왕", "type": "NNG", "scode": "040001", "weight": 0.0833333, "position": 28, "begin": 4, "end": 4}, 
                {"id": 5, "text": "이", "type": "JKC", "scode": "000000", "weight": 1, "position": 31, "begin": 5, "end": 5}, 
                {"id": 6, "text": "아니", "type": "VCN", "scode": "000001", "weight": 0.2, "position": 35, "begin": 6, "end": 6}, 
                {"id": 7, "text": "ㄴ", "type": "ETM", "scode": "000000", "weight": 1, "position": 38, "begin": 7, "end": 7}, 
                {"id": 8, "text": "사람", "type": "NNG", "scode": "000001", "weight": 0.0909091, "position": 42, "begin": 8, "end": 8}, 
                {"id": 9, "text": "은", "type": "JX", "scode": "000000", "weight": 1, "position": 48, "begin": 9, "end": 9}, 
                {"id": 10, "text": "?", "type": "SF", "scode": "000000", "weight": 1, "position": 51, "begin": 10, "end": 10}
            ], 
            "word": [
                {"id": 0, "text": "역대", "type": "", "begin": 0, "end": 0}, 
                {"id": 1, "text": "왕조", "type": "", "begin": 1, "end": 1}, 
                {"id": 2, "text": "중", "type": "", "begin": 2, "end": 2}, 
                {"id": 3, "text": "마지막", "type": "", "begin": 3, "end": 3}, 
                {"id": 4, "text": "왕이", "type": "", "begin": 4, "end": 5}, 
                {"id": 5, "text": "아닌", "type": "", "begin": 6, "end": 7}, 
                {"id": 6, "text": "사람은?", "type": "", "begin": 8, "end": 10}
            ], 
            "NE": [
                {"id": 0, "text": "왕", "type": "CV_POSITION", "begin": 4, "end": 4, "weight": 0.28886, "common_noun": 0}
            ], 
            "chunk": [], 
            "dependency": [
                {"id": 0, "text": "역대", "head": 1, "label": "NP", "mod": [], "weight": 0.731964}, 
                {"id": 1, "text": "왕조", "head": 2, "label": "NP", "mod": [0], "weight": 0.874396}, 
                {"id": 2, "text": "중", "head": 5, "label": "NP_AJT", "mod": [1], "weight": 0.391679}, 
                {"id": 3, "text": "마지막", "head": 4, "label": "NP", "mod": [], "weight": 0.738618}, 
                {"id": 4, "text": "왕이", "head": 5, "label": "NP_CMP", "mod": [3], "weight": 0.715659}, 
                {"id": 5, "text": "아닌", "head": 6, "label": "VP_MOD", "mod": [2, 4], "weight": 0.759056}, 
                {"id": 6, "text": "사람은?", "head": -1, "label": "NP_SBJ", "mod": [5], "weight": 0.0366739}
            ], 
            "SRL": [
                {"verb": "아니", "sense": 1, "word_id": 5, "weight": 0.24818, "argument": [
                    {"type": "ARG2", "word_id": 4, "text": "왕이", "weight": 0.280313}, 
                    {"type": "ARG1", "word_id": 6, "text": "사람은?", "weight": 0.216047}
                ]}
            ], 
            "relation": [], 
            "SA": [], 
            "ZA": []
        }
    ], 
    "entity": [
        {"id": 0, "type": "", "number": "singular", "gender": "", "person": "", "animacy": "thing", "mention": [
            {"id": 0, "sent_id": 0, "start_eid": 0, "end_eid": 6, "ne_id": -1, "text": "역대 왕조 중 마지막 왕이 아닌 사람은?", "start_eid_short": 6, "end_eid_short": 6, "text_short": "사람은?"}
        ]}, 
        {"id": 1, "type": "", "number": "singular", "gender": "", "person": "", "animacy": "thing", "mention": [
            {"id": 2, "sent_id": 0, "start_eid": 0, "end_eid": 1, "ne_id": -1, "text": "역대 왕조", "start_eid_short": 0, "end_eid_short": 1, "text_short": "역대 왕조"}
        ]}, 
        {"id": 2, "type": "", "number": "singular", "gender": "", "person": "", "animacy": "thing", "mention": [
            {"id": 3, "sent_id": 0, "start_eid": 0, "end_eid": 0, "ne_id": -1, "text": "역대", "start_eid_short": 0, "end_eid_short": 0, "text_short": "역대"}
        ]}, 
        {"id": 3, "type": "CV_POSITION", "number": "singular", "gender": "", "person": "", "animacy": "human", "mention": [
            {"id": 1, "sent_id": 0, "start_eid": 0, "end_eid": 4, "ne_id": 0, "text": "역대 왕조 중 마지막 왕이", "start_eid_short": 0, "end_eid_short": 4, "text_short": "역대 왕조 중 마지막 왕이"}
        ]}, 
        {"id": 4, "type": "", "number": "singular", "gender": "", "person": "", "animacy": "thing", "mention": [
            {"id": 4, "sent_id": 0, "start_eid": 3, "end_eid": 3, "ne_id": -1, "text": "마지막", "start_eid_short": 3, "end_eid_short": 3, "text_short": "마지막"}
        ]}
    ]
}