{
    "doc_id": "E2016.790.07_A_01.json", 
    "DCT": "", 
    "category": "", 
    "category_weight": 0, 
    "title": {
        "text": "삼라만상", 
        "NE": ""
    }, 
    "metaInfo": {}, 
    "sentence": [
        {
            "id": 0, 
            "reserve_str": "", 
            "text": "삼라만상 森羅萬象", 
            "morp": [
                {"id": 0, "lemma": "삼라만상", "type": "NNG", "position": 0, "weight": 0.109487}, 
                {"id": 1, "lemma": "森羅萬象", "type": "SH", "position": 13, "weight": 1}
            ], 
            "morp_eval": [], 
            "WSD": [
                {"id": 0, "text": "삼라만상", "type": "NNG", "scode": "000000", "weight": 1, "position": 0, "begin": 0, "end": 0}, 
                {"id": 1, "text": "森羅萬象", "type": "SH", "scode": "000000", "weight": 1, "position": 13, "begin": 1, "end": 1}
            ], 
            "word": [
                {"id": 0, "text": "삼라만상", "type": "", "begin": 0, "end": 0}, 
                {"id": 1, "text": "森羅萬象", "type": "", "begin": 1, "end": 1}
            ], 
            "NE": [], 
            "chunk": [], 
            "dependency": [
                {"id": 0, "text": "삼라만상", "head": 1, "label": "NP", "mod": [], "weight": 0.720051}, 
                {"id": 1, "text": "森羅萬象", "head": -1, "label": "NP", "mod": [0], "weight": 0.586381}
            ], 
            "SRL": [], 
            "relation": [], 
            "SA": [], 
            "ZA": []
        }
    ], 
    "entity": [
        {"id": 0, "type": "", "number": "singular", "gender": "", "person": "", "animacy": "thing", "mention": [
            {"id": 0, "sent_id": 0, "start_eid": 0, "end_eid": 1, "ne_id": -1, "text": "삼라만상 森羅萬象", "start_eid_short": 0, "end_eid_short": 1, "text_short": "삼라만상 森羅萬象"}, 
            {"id": 1, "sent_id": 0, "start_eid": 0, "end_eid": 0, "ne_id": -1, "text": "삼라만상", "start_eid_short": 0, "end_eid_short": 0, "text_short": "삼라만상"}
        ]}
    ]
}