{
    "doc_id": "E2016.788.09_Q_01.json", 
    "DCT": "", 
    "category": "", 
    "category_weight": 0, 
    "title": {
        "text": "", 
        "NE": ""
    }, 
    "metaInfo": {}, 
    "sentence": [
        {
            "id": 0, 
            "reserve_str": "", 
            "text": "개의 한 품종인 이것은 사자와 곰을 닮아 '사자견'이라고 불리며, 중국이 원산지이다.", 
            "morp": [
                {"id": 0, "lemma": "개", "type": "NNG", "position": 0, "weight": 0.0467855}, 
                {"id": 1, "lemma": "의", "type": "JKG", "position": 3, "weight": 0.0694213}, 
                {"id": 2, "lemma": "한", "type": "MM", "position": 7, "weight": 0.0231003}, 
                {"id": 3, "lemma": "품종", "type": "NNG", "position": 11, "weight": 0.9}, 
                {"id": 4, "lemma": "이", "type": "VCP", "position": 17, "weight": 0.0177525}, 
                {"id": 5, "lemma": "ㄴ", "type": "ETM", "position": 17, "weight": 0.220712}, 
                {"id": 6, "lemma": "이것", "type": "NP", "position": 21, "weight": 0.0102992}, 
                {"id": 7, "lemma": "은", "type": "JX", "position": 27, "weight": 0.191811}, 
                {"id": 8, "lemma": "사자", "type": "NNG", "position": 31, "weight": 0.9}, 
                {"id": 9, "lemma": "와", "type": "JKB", "position": 37, "weight": 0.0567862}, 
                {"id": 10, "lemma": "곰", "type": "NNG", "position": 41, "weight": 0.206138}, 
                {"id": 11, "lemma": "을", "type": "JKO", "position": 44, "weight": 0.129611}, 
                {"id": 12, "lemma": "닮", "type": "VV", "position": 48, "weight": 0.9}, 
                {"id": 13, "lemma": "아", "type": "EC", "position": 51, "weight": 0.398809}, 
                {"id": 14, "lemma": "'", "type": "SS", "position": 55, "weight": 1}, 
                {"id": 15, "lemma": "사자견", "type": "NNG", "position": 56, "weight": 0.6}, 
                {"id": 16, "lemma": "'", "type": "SS", "position": 65, "weight": 1}, 
                {"id": 17, "lemma": "이라고", "type": "JKQ", "position": 66, "weight": 0.0202133}, 
                {"id": 18, "lemma": "불리", "type": "VV", "position": 76, "weight": 0.837908}, 
                {"id": 19, "lemma": "며", "type": "EC", "position": 82, "weight": 0.429701}, 
                {"id": 20, "lemma": ",", "type": "SP", "position": 85, "weight": 1}, 
                {"id": 21, "lemma": "중국", "type": "NNP", "position": 87, "weight": 0.12376}, 
                {"id": 22, "lemma": "이", "type": "JKS", "position": 93, "weight": 0.0234517}, 
                {"id": 23, "lemma": "원산", "type": "NNG", "position": 97, "weight": 0.057983}, 
                {"id": 24, "lemma": "지", "type": "XSN", "position": 103, "weight": 0.000168337}, 
                {"id": 25, "lemma": "이", "type": "VCP", "position": 106, "weight": 0.0165001}, 
                {"id": 26, "lemma": "다", "type": "EF", "position": 109, "weight": 0.353579}, 
                {"id": 27, "lemma": ".", "type": "SF", "position": 112, "weight": 1}
            ], 
            "morp_eval": [], 
            "WSD": [
                {"id": 0, "text": "개", "type": "NNG", "scode": "030001", "weight": 0.0454545, "position": 0, "begin": 0, "end": 0}, 
                {"id": 1, "text": "의", "type": "JKG", "scode": "000000", "weight": 1, "position": 3, "begin": 1, "end": 1}, 
                {"id": 2, "text": "한", "type": "MM", "scode": "010001", "weight": 0.0357143, "position": 7, "begin": 2, "end": 2}, 
                {"id": 3, "text": "품종", "type": "NNG", "scode": "000002", "weight": 0.333333, "position": 11, "begin": 3, "end": 3}, 
                {"id": 4, "text": "이", "type": "VCP", "scode": "000000", "weight": 0.0172414, "position": 17, "begin": 4, "end": 4}, 
                {"id": 5, "text": "ㄴ", "type": "ETM", "scode": "000000", "weight": 1, "position": 17, "begin": 5, "end": 5}, 
                {"id": 6, "text": "이것", "type": "NP", "scode": "000001", "weight": 0.25, "position": 21, "begin": 6, "end": 6}, 
                {"id": 7, "text": "은", "type": "JX", "scode": "000000", "weight": 1, "position": 27, "begin": 7, "end": 7}, 
                {"id": 8, "text": "사자", "type": "NNG", "scode": "110000", "weight": 0.0555556, "position": 31, "begin": 8, "end": 8}, 
                {"id": 9, "text": "와", "type": "JKB", "scode": "000000", "weight": 1, "position": 37, "begin": 9, "end": 9}, 
                {"id": 10, "text": "곰", "type": "NNG", "scode": "030001", "weight": 0.1, "position": 41, "begin": 10, "end": 10}, 
                {"id": 11, "text": "을", "type": "JKO", "scode": "000000", "weight": 1, "position": 44, "begin": 11, "end": 11}, 
                {"id": 12, "text": "닮", "type": "VV", "scode": "000001", "weight": 0.5, "position": 48, "begin": 12, "end": 12}, 
                {"id": 13, "text": "아", "type": "EC", "scode": "000000", "weight": 1, "position": 51, "begin": 13, "end": 13}, 
                {"id": 14, "text": "'", "type": "SS", "scode": "000000", "weight": 1, "position": 55, "begin": 14, "end": 14}, 
                {"id": 15, "text": "사자견", "type": "NNG", "scode": "000000", "weight": 0, "position": 56, "begin": 15, "end": 15}, 
                {"id": 16, "text": "'", "type": "SS", "scode": "000000", "weight": 1, "position": 65, "begin": 16, "end": 16}, 
                {"id": 17, "text": "이라고", "type": "JKQ", "scode": "000000", "weight": 1, "position": 66, "begin": 17, "end": 17}, 
                {"id": 18, "text": "불리", "type": "VV", "scode": "040300", "weight": 0.0714286, "position": 76, "begin": 18, "end": 18}, 
                {"id": 19, "text": "며", "type": "EC", "scode": "000000", "weight": 1, "position": 82, "begin": 19, "end": 19}, 
                {"id": 20, "text": ",", "type": "SP", "scode": "000000", "weight": 1, "position": 85, "begin": 20, "end": 20}, 
                {"id": 21, "text": "중국", "type": "NNP", "scode": "010000", "weight": 0.5, "position": 87, "begin": 21, "end": 21}, 
                {"id": 22, "text": "이", "type": "JKS", "scode": "000000", "weight": 1, "position": 93, "begin": 22, "end": 22}, 
                {"id": 23, "text": "원산지", "type": "NNG", "scode": "000002", "weight": 0.5, "position": 97, "begin": 23, "end": 24}, 
                {"id": 24, "text": "이", "type": "VCP", "scode": "030000", "weight": 0.0172414, "position": 106, "begin": 25, "end": 25}, 
                {"id": 25, "text": "다", "type": "EF", "scode": "000000", "weight": 1, "position": 109, "begin": 26, "end": 26}, 
                {"id": 26, "text": ".", "type": "SF", "scode": "000000", "weight": 1, "position": 112, "begin": 27, "end": 27}
            ], 
            "word": [
                {"id": 0, "text": "개의", "type": "", "begin": 0, "end": 1}, 
                {"id": 1, "text": "한", "type": "", "begin": 2, "end": 2}, 
                {"id": 2, "text": "품종인", "type": "", "begin": 3, "end": 5}, 
                {"id": 3, "text": "이것은", "type": "", "begin": 6, "end": 7}, 
                {"id": 4, "text": "사자와", "type": "", "begin": 8, "end": 9}, 
                {"id": 5, "text": "곰을", "type": "", "begin": 10, "end": 11}, 
                {"id": 6, "text": "닮아", "type": "", "begin": 12, "end": 13}, 
                {"id": 7, "text": "'사자견'이라고", "type": "", "begin": 14, "end": 17}, 
                {"id": 8, "text": "불리며,", "type": "", "begin": 18, "end": 20}, 
                {"id": 9, "text": "중국이", "type": "", "begin": 21, "end": 22}, 
                {"id": 10, "text": "원산지이다.", "type": "", "begin": 23, "end": 27}
            ], 
            "NE": [
                {"id": 0, "text": "개", "type": "AM_MAMMALIA", "begin": 0, "end": 0, "weight": 0.361927, "common_noun": 0}, 
                {"id": 1, "text": "사자", "type": "AM_MAMMALIA", "begin": 8, "end": 8, "weight": 0.443791, "common_noun": 0}, 
                {"id": 2, "text": "곰", "type": "AM_MAMMALIA", "begin": 10, "end": 10, "weight": 0.572539, "common_noun": 0}, 
                {"id": 3, "text": "사자견", "type": "AM_MAMMALIA", "begin": 15, "end": 15, "weight": 0.194085, "common_noun": 0}, 
                {"id": 4, "text": "중국", "type": "LCP_COUNTRY", "begin": 21, "end": 21, "weight": 0.710933, "common_noun": 0}
            ], 
            "chunk": [], 
            "dependency": [
                {"id": 0, "text": "개의", "head": 2, "label": "NP_MOD", "mod": [], "weight": 0.786392}, 
                {"id": 1, "text": "한", "head": 2, "label": "DP", "mod": [], "weight": 0.736339}, 
                {"id": 2, "text": "품종인", "head": 3, "label": "VNP_MOD", "mod": [0, 1], "weight": 0.542156}, 
                {"id": 3, "text": "이것은", "head": 6, "label": "NP_SBJ", "mod": [2], "weight": 0.44546}, 
                {"id": 4, "text": "사자와", "head": 5, "label": "NP_CNJ", "mod": [], "weight": 0.593555}, 
                {"id": 5, "text": "곰을", "head": 6, "label": "NP_OBJ", "mod": [4], "weight": 0.374023}, 
                {"id": 6, "text": "닮아", "head": 8, "label": "VP", "mod": [5, 3], "weight": 0.0690448}, 
                {"id": 7, "text": "'사자견'이라고", "head": 8, "label": "NP_CMP", "mod": [], "weight": 0.0215424}, 
                {"id": 8, "text": "불리며,", "head": 10, "label": "VP", "mod": [7, 6], "weight": 0.776389}, 
                {"id": 9, "text": "중국이", "head": 10, "label": "NP_SBJ", "mod": [], "weight": 0.666327}, 
                {"id": 10, "text": "원산지이다.", "head": -1, "label": "VNP", "mod": [8, 9], "weight": 1.63445e-05}
            ], 
            "SRL": [
                {"verb": "닮", "sense": 1, "word_id": 6, "weight": 0.147733, "argument": [
                    {"type": "ARG2", "word_id": 5, "text": "곰을", "weight": 0.147733}, 
                    {"type": "ARG1", "word_id": 3, "text": "이것은", "weight": 1}
                ]}, 
                {"verb": "불리", "sense": 2, "word_id": 8, "weight": 0.130524, "argument": [
                    {"type": "ARG1", "word_id": 3, "text": "이것은", "weight": 0.148543}, 
                    {"type": "ARG2", "word_id": 7, "text": "'사자견'이라고", "weight": 0.112505}
                ]}
            ], 
            "relation": [], 
            "SA": [], 
            "ZA": []
        }, 
        {
            "id": 1, 
            "reserve_str": "", 
            "text": "일반적으로는 혀의 색깔이 검정이나 파란색 계통을 띠며, 흔히 '썰매를 끄는 개'로 알려져 있는 4음절의 이 개는 무엇일까?", 
            "morp": [
                {"id": 0, "lemma": "일반", "type": "NNG", "position": 113, "weight": 0.9}, 
                {"id": 1, "lemma": "적", "type": "XSN", "position": 119, "weight": 0.0168756}, 
                {"id": 2, "lemma": "으로", "type": "JKB", "position": 122, "weight": 0.121717}, 
                {"id": 3, "lemma": "는", "type": "JX", "position": 128, "weight": 0.0387928}, 
                {"id": 4, "lemma": "혀", "type": "NNG", "position": 132, "weight": 0.319254}, 
                {"id": 5, "lemma": "의", "type": "JKG", "position": 135, "weight": 0.0694213}, 
                {"id": 6, "lemma": "색깔", "type": "NNG", "position": 139, "weight": 0.9}, 
                {"id": 7, "lemma": "이", "type": "JKS", "position": 145, "weight": 0.0360723}, 
                {"id": 8, "lemma": "검정", "type": "NNG", "position": 149, "weight": 0.9}, 
                {"id": 9, "lemma": "이나", "type": "JC", "position": 155, "weight": 0.0238189}, 
                {"id": 10, "lemma": "파란", "type": "NNG", "position": 162, "weight": 0.9}, 
                {"id": 11, "lemma": "색", "type": "XSN", "position": 168, "weight": 0}, 
                {"id": 12, "lemma": "계통", "type": "NNG", "position": 172, "weight": 0.9}, 
                {"id": 13, "lemma": "을", "type": "JKO", "position": 178, "weight": 0.129611}, 
                {"id": 14, "lemma": "띠", "type": "VV", "position": 182, "weight": 0.644999}, 
                {"id": 15, "lemma": "며", "type": "EC", "position": 185, "weight": 0.429701}, 
                {"id": 16, "lemma": ",", "type": "SP", "position": 188, "weight": 1}, 
                {"id": 17, "lemma": "흔히", "type": "MAG", "position": 190, "weight": 0.9}, 
                {"id": 18, "lemma": "'", "type": "SS", "position": 197, "weight": 1}, 
                {"id": 19, "lemma": "썰매", "type": "NNG", "position": 198, "weight": 0.9}, 
                {"id": 20, "lemma": "를", "type": "JKO", "position": 204, "weight": 0.137686}, 
                {"id": 21, "lemma": "끌", "type": "VV", "position": 208, "weight": 0.757568}, 
                {"id": 22, "lemma": "는", "type": "ETM", "position": 211, "weight": 0.184941}, 
                {"id": 23, "lemma": "개", "type": "NNG", "position": 215, "weight": 0.0703832}, 
                {"id": 24, "lemma": "'", "type": "SS", "position": 218, "weight": 1}, 
                {"id": 25, "lemma": "로", "type": "JKB", "position": 219, "weight": 0.0485504}, 
                {"id": 26, "lemma": "알려지", "type": "VV", "position": 223, "weight": 0.9}, 
                {"id": 27, "lemma": "어", "type": "EC", "position": 229, "weight": 0.41831}, 
                {"id": 28, "lemma": "있", "type": "VX", "position": 233, "weight": 0.125953}, 
                {"id": 29, "lemma": "는", "type": "ETM", "position": 236, "weight": 0.183966}, 
                {"id": 30, "lemma": "4", "type": "SN", "position": 240, "weight": 1}, 
                {"id": 31, "lemma": "음절", "type": "NNG", "position": 241, "weight": 0.9}, 
                {"id": 32, "lemma": "의", "type": "JKG", "position": 247, "weight": 0.0694213}, 
                {"id": 33, "lemma": "이", "type": "MM", "position": 251, "weight": 0.00105968}, 
                {"id": 34, "lemma": "개", "type": "NNG", "position": 255, "weight": 0.0787812}, 
                {"id": 35, "lemma": "는", "type": "JX", "position": 258, "weight": 0.0287565}, 
                {"id": 36, "lemma": "무엇", "type": "NP", "position": 262, "weight": 0.9}, 
                {"id": 37, "lemma": "이", "type": "VCP", "position": 268, "weight": 0.0175768}, 
                {"id": 38, "lemma": "ㄹ까", "type": "EF", "position": 268, "weight": 0.258243}, 
                {"id": 39, "lemma": "?", "type": "SF", "position": 274, "weight": 1}
            ], 
            "morp_eval": [], 
            "WSD": [
                {"id": 0, "text": "일반적", "type": "NNG", "scode": "000001", "weight": 0.5, "position": 113, "begin": 0, "end": 1}, 
                {"id": 1, "text": "으로", "type": "JKB", "scode": "000000", "weight": 1, "position": 122, "begin": 2, "end": 2}, 
                {"id": 2, "text": "는", "type": "JX", "scode": "000000", "weight": 1, "position": 128, "begin": 3, "end": 3}, 
                {"id": 3, "text": "혀", "type": "NNG", "scode": "010001", "weight": 0.0909091, "position": 132, "begin": 4, "end": 4}, 
                {"id": 4, "text": "의", "type": "JKG", "scode": "000000", "weight": 1, "position": 135, "begin": 5, "end": 5}, 
                {"id": 5, "text": "색깔", "type": "NNG", "scode": "000001", "weight": 0.5, "position": 139, "begin": 6, "end": 6}, 
                {"id": 6, "text": "이", "type": "JKS", "scode": "000000", "weight": 1, "position": 145, "begin": 7, "end": 7}, 
                {"id": 7, "text": "검정", "type": "NNG", "scode": "010000", "weight": 0.2, "position": 149, "begin": 8, "end": 8}, 
                {"id": 8, "text": "이나", "type": "JC", "scode": "000000", "weight": 1, "position": 155, "begin": 9, "end": 9}, 
                {"id": 9, "text": "파란색", "type": "NNG", "scode": "000000", "weight": 1, "position": 162, "begin": 10, "end": 11}, 
                {"id": 10, "text": "계통", "type": "NNG", "scode": "010004", "weight": 0.125, "position": 172, "begin": 12, "end": 12}, 
                {"id": 11, "text": "을", "type": "JKO", "scode": "000000", "weight": 1, "position": 178, "begin": 13, "end": 13}, 
                {"id": 12, "text": "띠", "type": "VV", "scode": "010203", "weight": 0.142857, "position": 182, "begin": 14, "end": 14}, 
                {"id": 13, "text": "며", "type": "EC", "scode": "000000", "weight": 1, "position": 185, "begin": 15, "end": 15}, 
                {"id": 14, "text": ",", "type": "SP", "scode": "000000", "weight": 1, "position": 188, "begin": 16, "end": 16}, 
                {"id": 15, "text": "흔히", "type": "MAG", "scode": "000000", "weight": 1, "position": 190, "begin": 17, "end": 17}, 
                {"id": 16, "text": "'", "type": "SS", "scode": "000000", "weight": 1, "position": 197, "begin": 18, "end": 18}, 
                {"id": 17, "text": "썰매", "type": "NNG", "scode": "000002", "weight": 0.5, "position": 198, "begin": 19, "end": 19}, 
                {"id": 18, "text": "를", "type": "JKO", "scode": "000000", "weight": 1, "position": 204, "begin": 20, "end": 20}, 
                {"id": 19, "text": "끌", "type": "VV", "scode": "000101", "weight": 0.111111, "position": 208, "begin": 21, "end": 21}, 
                {"id": 20, "text": "는", "type": "ETM", "scode": "000000", "weight": 1, "position": 211, "begin": 22, "end": 22}, 
                {"id": 21, "text": "개", "type": "NNG", "scode": "030001", "weight": 0.0454545, "position": 215, "begin": 23, "end": 23}, 
                {"id": 22, "text": "'", "type": "SS", "scode": "000000", "weight": 1, "position": 218, "begin": 24, "end": 24}, 
                {"id": 23, "text": "로", "type": "JKB", "scode": "000000", "weight": 1, "position": 219, "begin": 25, "end": 25}, 
                {"id": 24, "text": "알려지", "type": "VV", "scode": "000002", "weight": 0.5, "position": 223, "begin": 26, "end": 26}, 
                {"id": 25, "text": "어", "type": "EC", "scode": "000000", "weight": 1, "position": 229, "begin": 27, "end": 27}, 
                {"id": 26, "text": "있", "type": "VX", "scode": "010901", "weight": 0.0416667, "position": 233, "begin": 28, "end": 28}, 
                {"id": 27, "text": "는", "type": "ETM", "scode": "000000", "weight": 1, "position": 236, "begin": 29, "end": 29}, 
                {"id": 28, "text": "4", "type": "SN", "scode": "000000", "weight": 1, "position": 240, "begin": 30, "end": 30}, 
                {"id": 29, "text": "음절", "type": "NNG", "scode": "000001", "weight": 0.5, "position": 241, "begin": 31, "end": 31}, 
                {"id": 30, "text": "의", "type": "JKG", "scode": "000000", "weight": 1, "position": 247, "begin": 32, "end": 32}, 
                {"id": 31, "text": "이", "type": "MM", "scode": "050002", "weight": 0.0172414, "position": 251, "begin": 33, "end": 33}, 
                {"id": 32, "text": "개", "type": "NNG", "scode": "030001", "weight": 0.0454545, "position": 255, "begin": 34, "end": 34}, 
                {"id": 33, "text": "는", "type": "JX", "scode": "000000", "weight": 1, "position": 258, "begin": 35, "end": 35}, 
                {"id": 34, "text": "무엇", "type": "NP", "scode": "000001", "weight": 0.5, "position": 262, "begin": 36, "end": 36}, 
                {"id": 35, "text": "이", "type": "VCP", "scode": "030000", "weight": 0.0172414, "position": 268, "begin": 37, "end": 37}, 
                {"id": 36, "text": "ㄹ까", "type": "EF", "scode": "000000", "weight": 1, "position": 268, "begin": 38, "end": 38}, 
                {"id": 37, "text": "?", "type": "SF", "scode": "000000", "weight": 1, "position": 274, "begin": 39, "end": 39}
            ], 
            "word": [
                {"id": 0, "text": "일반적으로는", "type": "", "begin": 0, "end": 3}, 
                {"id": 1, "text": "혀의", "type": "", "begin": 4, "end": 5}, 
                {"id": 2, "text": "색깔이", "type": "", "begin": 6, "end": 7}, 
                {"id": 3, "text": "검정이나", "type": "", "begin": 8, "end": 9}, 
                {"id": 4, "text": "파란색", "type": "", "begin": 10, "end": 11}, 
                {"id": 5, "text": "계통을", "type": "", "begin": 12, "end": 13}, 
                {"id": 6, "text": "띠며,", "type": "", "begin": 14, "end": 16}, 
                {"id": 7, "text": "흔히", "type": "", "begin": 17, "end": 17}, 
                {"id": 8, "text": "'썰매를", "type": "", "begin": 18, "end": 20}, 
                {"id": 9, "text": "끄는", "type": "", "begin": 21, "end": 22}, 
                {"id": 10, "text": "개'로", "type": "", "begin": 23, "end": 25}, 
                {"id": 11, "text": "알려져", "type": "", "begin": 26, "end": 27}, 
                {"id": 12, "text": "있는", "type": "", "begin": 28, "end": 29}, 
                {"id": 13, "text": "4음절의", "type": "", "begin": 30, "end": 32}, 
                {"id": 14, "text": "이", "type": "", "begin": 33, "end": 33}, 
                {"id": 15, "text": "개는", "type": "", "begin": 34, "end": 35}, 
                {"id": 16, "text": "무엇일까?", "type": "", "begin": 36, "end": 39}
            ], 
            "NE": [
                {"id": 0, "text": "혀", "type": "AM_PART", "begin": 4, "end": 4, "weight": 0.522764, "common_noun": 0}, 
                {"id": 1, "text": "검정", "type": "TM_COLOR", "begin": 8, "end": 8, "weight": 0.312173, "common_noun": 0}, 
                {"id": 2, "text": "파란색", "type": "TM_COLOR", "begin": 10, "end": 11, "weight": 0.633989, "common_noun": 0}, 
                {"id": 3, "text": "썰매", "type": "CV_SPORTS_INST", "begin": 19, "end": 19, "weight": 0.172477, "common_noun": 0}, 
                {"id": 4, "text": "개", "type": "AM_MAMMALIA", "begin": 23, "end": 23, "weight": 0.40061, "common_noun": 0}, 
                {"id": 5, "text": "4음절", "type": "QT_COUNT", "begin": 30, "end": 31, "weight": 0.58229, "common_noun": 0}, 
                {"id": 6, "text": "개", "type": "AM_MAMMALIA", "begin": 34, "end": 34, "weight": 0.501429, "common_noun": 0}
            ], 
            "chunk": [], 
            "dependency": [
                {"id": 0, "text": "일반적으로는", "head": 6, "label": "NP_AJT", "mod": [], "weight": 0.490101}, 
                {"id": 1, "text": "혀의", "head": 2, "label": "NP_MOD", "mod": [], "weight": 0.724348}, 
                {"id": 2, "text": "색깔이", "head": 6, "label": "NP_SBJ", "mod": [1], "weight": 0.789124}, 
                {"id": 3, "text": "검정이나", "head": 4, "label": "NP_CNJ", "mod": [], "weight": 0.744279}, 
                {"id": 4, "text": "파란색", "head": 5, "label": "NP", "mod": [3], "weight": 0.523885}, 
                {"id": 5, "text": "계통을", "head": 6, "label": "NP_OBJ", "mod": [4], "weight": 0.777654}, 
                {"id": 6, "text": "띠며,", "head": 11, "label": "VP", "mod": [0, 2, 5], "weight": 0.635489}, 
                {"id": 7, "text": "흔히", "head": 11, "label": "AP", "mod": [], "weight": 0.77836}, 
                {"id": 8, "text": "'썰매를", "head": 9, "label": "NP_OBJ", "mod": [], "weight": 0.592403}, 
                {"id": 9, "text": "끄는", "head": 10, "label": "VP_MOD", "mod": [8], "weight": 0.770671}, 
                {"id": 10, "text": "개'로", "head": 11, "label": "NP_AJT", "mod": [9], "weight": 0.46164}, 
                {"id": 11, "text": "알려져", "head": 12, "label": "VP", "mod": [10, 7, 6], "weight": 0.866053}, 
                {"id": 12, "text": "있는", "head": 15, "label": "VP_MOD", "mod": [11], "weight": 0.0404995}, 
                {"id": 13, "text": "4음절의", "head": 15, "label": "NP_MOD", "mod": [], "weight": 0.655542}, 
                {"id": 14, "text": "이", "head": 15, "label": "DP", "mod": [], "weight": 0.724454}, 
                {"id": 15, "text": "개는", "head": 16, "label": "NP_SBJ", "mod": [13, 14, 12], "weight": 0.854369}, 
                {"id": 16, "text": "무엇일까?", "head": -1, "label": "VNP", "mod": [15], "weight": 0.000109213}
            ], 
            "SRL": [
                {"verb": "띠", "sense": 1, "word_id": 6, "weight": 0.174404, "argument": [
                    {"type": "ARGM-CND", "word_id": 0, "text": "일반적으로는", "weight": 0.132969}, 
                    {"type": "ARG0", "word_id": 2, "text": "색깔이", "weight": 0.219444}, 
                    {"type": "ARG1", "word_id": 5, "text": "계통을", "weight": 0.170798}
                ]}, 
                {"verb": "끌", "sense": 1, "word_id": 9, "weight": 0.186289, "argument": [
                    {"type": "ARG1", "word_id": 8, "text": "'썰매를", "weight": 0.228644}, 
                    {"type": "ARG0", "word_id": 10, "text": "개'로", "weight": 0.143934}
                ]}, 
                {"verb": "알려지", "sense": 1, "word_id": 11, "weight": 0.230036, "argument": [
                    {"type": "ARG2", "word_id": 10, "text": "개'로", "weight": 1}, 
                    {"type": "AUX", "word_id": 12, "text": "있는", "weight": 0.412301}, 
                    {"type": "ARG1", "word_id": 15, "text": "개는", "weight": 1}
                ]}
            ], 
            "relation": [], 
            "SA": [], 
            "ZA": []
        }
    ], 
    "entity": [
        {"id": 0, "type": "LCP_CITY", "number": "singular", "gender": "", "person": "", "animacy": "place", "mention": [
            {"id": 2, "sent_id": 0, "start_eid": 3, "end_eid": 3, "ne_id": -1, "text": "이것은", "start_eid_short": 3, "end_eid_short": 3, "text_short": "이것은"}, 
            {"id": 3, "sent_id": 0, "start_eid": 4, "end_eid": 10, "ne_id": 4, "text": "사자와 곰을 닮아 '사자견'이라고 불리며, 중국이 원산지이다.", "start_eid_short": 10, "end_eid_short": 10, "text_short": "원산지이다."}, 
            {"id": 16, "sent_id": 1, "start_eid": 8, "end_eid": 10, "ne_id": 3, "text": "'썰매를 끄는 개'로", "start_eid_short": 10, "end_eid_short": 10, "text_short": "개'로"}, 
            {"id": 18, "sent_id": 1, "start_eid": 14, "end_eid": 15, "ne_id": 5, "text": "이 개는", "start_eid_short": 14, "end_eid_short": 15, "text_short": "이 개는"}, 
            {"id": 19, "sent_id": 1, "start_eid": 16, "end_eid": 16, "ne_id": -1, "text": "무엇일까?", "start_eid_short": 16, "end_eid_short": 16, "text_short": "무엇일까?"}
        ]}, 
        {"id": 1, "type": "AM_MAMMALIA", "number": "singular", "gender": "", "person": "", "animacy": "animal", "mention": [
            {"id": 1, "sent_id": 0, "start_eid": 0, "end_eid": 0, "ne_id": 0, "text": "개의", "start_eid_short": 0, "end_eid_short": 0, "text_short": "개의"}
        ]}, 
        {"id": 2, "type": "AM_MAMMALIA", "number": "singular", "gender": "", "person": "", "animacy": "animal", "mention": [
            {"id": 6, "sent_id": 0, "start_eid": 5, "end_eid": 5, "ne_id": 2, "text": "곰을", "start_eid_short": 5, "end_eid_short": 5, "text_short": "곰을"}
        ]}, 
        {"id": 3, "type": "LCP_COUNTRY", "number": "singular", "gender": "", "person": "", "animacy": "place", "mention": [
            {"id": 8, "sent_id": 0, "start_eid": 9, "end_eid": 9, "ne_id": 3, "text": "중국이", "start_eid_short": 9, "end_eid_short": 9, "text_short": "중국이"}
        ]}, 
        {"id": 4, "type": "", "number": "singular", "gender": "", "person": "", "animacy": "thing", "mention": [
            {"id": 9, "sent_id": 1, "start_eid": 0, "end_eid": 0, "ne_id": -1, "text": "일반적으로는", "start_eid_short": 0, "end_eid_short": 0, "text_short": "일반적으로는"}
        ]}, 
        {"id": 5, "type": "", "number": "singular", "gender": "", "person": "", "animacy": "thing", "mention": [
            {"id": 10, "sent_id": 1, "start_eid": 1, "end_eid": 2, "ne_id": -1, "text": "혀의 색깔이", "start_eid_short": 2, "end_eid_short": 2, "text_short": "색깔이"}
        ]}, 
        {"id": 6, "type": "AM_PART", "number": "singular", "gender": "", "person": "", "animacy": "animal", "mention": [
            {"id": 11, "sent_id": 1, "start_eid": 1, "end_eid": 1, "ne_id": 0, "text": "혀의", "start_eid_short": 1, "end_eid_short": 1, "text_short": "혀의"}
        ]}, 
        {"id": 7, "type": "TM_COLOR", "number": "singular", "gender": "", "person": "", "animacy": "thing", "mention": [
            {"id": 13, "sent_id": 1, "start_eid": 3, "end_eid": 4, "ne_id": 2, "text": "검정이나 파란색", "start_eid_short": 4, "end_eid_short": 4, "text_short": "파란색"}
        ]}, 
        {"id": 8, "type": "", "number": "singular", "gender": "", "person": "", "animacy": "thing", "mention": [
            {"id": 12, "sent_id": 1, "start_eid": 3, "end_eid": 5, "ne_id": -1, "text": "검정이나 파란색 계통을", "start_eid_short": 4, "end_eid_short": 5, "text_short": "파란색 계통을"}
        ]}, 
        {"id": 9, "type": "QT_COUNT", "number": "singular", "gender": "", "person": "", "animacy": "thing", "mention": [
            {"id": 17, "sent_id": 1, "start_eid": 13, "end_eid": 13, "ne_id": 4, "text": "4음절의", "start_eid_short": 13, "end_eid_short": 13, "text_short": "4음절의"}
        ]}, 
        {"id": 10, "type": "", "number": "singular", "gender": "", "person": "", "animacy": "thing", "mention": [
            {"id": 0, "sent_id": 0, "start_eid": 0, "end_eid": 2, "ne_id": -1, "text": "개의 한 품종인", "start_eid_short": 2, "end_eid_short": 2, "text_short": "품종인"}
        ]}, 
        {"id": 11, "type": "AM_MAMMALIA", "number": "singular", "gender": "", "person": "", "animacy": "animal", "mention": [
            {"id": 4, "sent_id": 0, "start_eid": 4, "end_eid": 5, "ne_id": 2, "text": "사자와 곰을", "start_eid_short": 5, "end_eid_short": 5, "text_short": "곰을"}
        ]}, 
        {"id": 12, "type": "AM_MAMMALIA", "number": "singular", "gender": "", "person": "", "animacy": "animal", "mention": [
            {"id": 5, "sent_id": 0, "start_eid": 4, "end_eid": 4, "ne_id": 1, "text": "사자와", "start_eid_short": 4, "end_eid_short": 4, "text_short": "사자와"}
        ]}, 
        {"id": 13, "type": "", "number": "singular", "gender": "", "person": "", "animacy": "thing", "mention": [
            {"id": 7, "sent_id": 0, "start_eid": 7, "end_eid": 7, "ne_id": -1, "text": "'사자견'이라고", "start_eid_short": 7, "end_eid_short": 7, "text_short": "'사자견'이라고"}
        ]}, 
        {"id": 14, "type": "TM_COLOR", "number": "singular", "gender": "", "person": "", "animacy": "thing", "mention": [
            {"id": 14, "sent_id": 1, "start_eid": 3, "end_eid": 3, "ne_id": 1, "text": "검정이나", "start_eid_short": 3, "end_eid_short": 3, "text_short": "검정이나"}
        ]}, 
        {"id": 15, "type": "TM_COLOR", "number": "singular", "gender": "", "person": "", "animacy": "thing", "mention": [
            {"id": 15, "sent_id": 1, "start_eid": 4, "end_eid": 4, "ne_id": 2, "text": "파란색", "start_eid_short": 4, "end_eid_short": 4, "text_short": "파란색"}
        ]}
    ]
}