{
    "doc_id": "E2016.836.23_A_02.json", 
    "DCT": "", 
    "category": "", 
    "category_weight": 0, 
    "title": {
        "text": "툰드라", 
        "NE": ""
    }, 
    "metaInfo": {}, 
    "sentence": [
        {
            "id": 0, 
            "reserve_str": "", 
            "text": "나무를 찾아볼 수 없고, 가장 따뜻한 날도 기온이 10도가 되지 않는다.", 
            "morp": [
                {"id": 0, "lemma": "나무", "type": "NNG", "position": 0, "weight": 0.437893}, 
                {"id": 1, "lemma": "를", "type": "JKO", "position": 6, "weight": 0.137686}, 
                {"id": 2, "lemma": "찾아보", "type": "VV", "position": 10, "weight": 0.9}, 
                {"id": 3, "lemma": "ㄹ", "type": "ETM", "position": 16, "weight": 0.300746}, 
                {"id": 4, "lemma": "수", "type": "NNB", "position": 20, "weight": 0.215617}, 
                {"id": 5, "lemma": "없", "type": "VA", "position": 24, "weight": 0.101269}, 
                {"id": 6, "lemma": "고", "type": "EC", "position": 27, "weight": 0.310376}, 
                {"id": 7, "lemma": ",", "type": "SP", "position": 30, "weight": 1}, 
                {"id": 8, "lemma": "가장", "type": "MAG", "position": 32, "weight": 0.0564166}, 
                {"id": 9, "lemma": "따뜻하", "type": "VA", "position": 39, "weight": 0.9}, 
                {"id": 10, "lemma": "ㄴ", "type": "ETM", "position": 45, "weight": 0.430446}, 
                {"id": 11, "lemma": "날", "type": "NNG", "position": 49, "weight": 0.59791}, 
                {"id": 12, "lemma": "도", "type": "JX", "position": 52, "weight": 0.0676272}, 
                {"id": 13, "lemma": "기온", "type": "NNG", "position": 56, "weight": 0.9}, 
                {"id": 14, "lemma": "이", "type": "JKS", "position": 62, "weight": 0.0360723}, 
                {"id": 15, "lemma": "10", "type": "SN", "position": 66, "weight": 1}, 
                {"id": 16, "lemma": "도", "type": "NNB", "position": 68, "weight": 0.00270442}, 
                {"id": 17, "lemma": "가", "type": "JKC", "position": 71, "weight": 0.00066923}, 
                {"id": 18, "lemma": "되", "type": "VV", "position": 75, "weight": 0.542406}, 
                {"id": 19, "lemma": "지", "type": "EC", "position": 78, "weight": 0.301842}, 
                {"id": 20, "lemma": "않", "type": "VX", "position": 82, "weight": 0.256301}, 
                {"id": 21, "lemma": "는다", "type": "EF", "position": 85, "weight": 0.181907}, 
                {"id": 22, "lemma": ".", "type": "SF", "position": 91, "weight": 1}
            ], 
            "morp_eval": [], 
            "WSD": [
                {"id": 0, "text": "나무", "type": "NNG", "scode": "010001", "weight": 0.142857, "position": 0, "begin": 0, "end": 0}, 
                {"id": 1, "text": "를", "type": "JKO", "scode": "000000", "weight": 1, "position": 6, "begin": 1, "end": 1}, 
                {"id": 2, "text": "찾아보", "type": "VV", "scode": "000002", "weight": 0.5, "position": 10, "begin": 2, "end": 2}, 
                {"id": 3, "text": "ㄹ", "type": "ETM", "scode": "000000", "weight": 1, "position": 16, "begin": 3, "end": 3}, 
                {"id": 4, "text": "수", "type": "NNB", "scode": "020100", "weight": 0.02, "position": 20, "begin": 4, "end": 4}, 
                {"id": 5, "text": "없", "type": "VA", "scode": "010106", "weight": 0.0588235, "position": 24, "begin": 5, "end": 5}, 
                {"id": 6, "text": "고", "type": "EC", "scode": "000000", "weight": 1, "position": 27, "begin": 6, "end": 6}, 
                {"id": 7, "text": ",", "type": "SP", "scode": "000000", "weight": 1, "position": 30, "begin": 7, "end": 7}, 
                {"id": 8, "text": "가장", "type": "MAG", "scode": "010000", "weight": 0.0555556, "position": 32, "begin": 8, "end": 8}, 
                {"id": 9, "text": "따뜻하", "type": "VA", "scode": "000001", "weight": 0.5, "position": 39, "begin": 9, "end": 9}, 
                {"id": 10, "text": "ㄴ", "type": "ETM", "scode": "000000", "weight": 1, "position": 45, "begin": 10, "end": 10}, 
                {"id": 11, "text": "날", "type": "NNG", "scode": "010001", "weight": 0.0666667, "position": 49, "begin": 11, "end": 11}, 
                {"id": 12, "text": "도", "type": "JX", "scode": "000000", "weight": 1, "position": 52, "begin": 12, "end": 12}, 
                {"id": 13, "text": "기온", "type": "NNG", "scode": "000000", "weight": 1, "position": 56, "begin": 13, "end": 13}, 
                {"id": 14, "text": "이", "type": "JKS", "scode": "000000", "weight": 1, "position": 62, "begin": 14, "end": 14}, 
                {"id": 15, "text": "10", "type": "SN", "scode": "000000", "weight": 1, "position": 66, "begin": 15, "end": 15}, 
                {"id": 16, "text": "도", "type": "NNB", "scode": "050001", "weight": 0.025641, "position": 68, "begin": 16, "end": 16}, 
                {"id": 17, "text": "가", "type": "JKC", "scode": "000000", "weight": 1, "position": 71, "begin": 17, "end": 17}, 
                {"id": 18, "text": "되", "type": "VV", "scode": "010103", "weight": 0.03125, "position": 75, "begin": 18, "end": 18}, 
                {"id": 19, "text": "지", "type": "EC", "scode": "000000", "weight": 1, "position": 78, "begin": 19, "end": 19}, 
                {"id": 20, "text": "않", "type": "VX", "scode": "000200", "weight": 0.333333, "position": 82, "begin": 20, "end": 20}, 
                {"id": 21, "text": "는다", "type": "EF", "scode": "000000", "weight": 1, "position": 85, "begin": 21, "end": 21}, 
                {"id": 22, "text": ".", "type": "SF", "scode": "000000", "weight": 1, "position": 91, "begin": 22, "end": 22}
            ], 
            "word": [
                {"id": 0, "text": "나무를", "type": "", "begin": 0, "end": 1}, 
                {"id": 1, "text": "찾아볼", "type": "", "begin": 2, "end": 3}, 
                {"id": 2, "text": "수", "type": "", "begin": 4, "end": 4}, 
                {"id": 3, "text": "없고,", "type": "", "begin": 5, "end": 7}, 
                {"id": 4, "text": "가장", "type": "", "begin": 8, "end": 8}, 
                {"id": 5, "text": "따뜻한", "type": "", "begin": 9, "end": 10}, 
                {"id": 6, "text": "날도", "type": "", "begin": 11, "end": 12}, 
                {"id": 7, "text": "기온이", "type": "", "begin": 13, "end": 14}, 
                {"id": 8, "text": "10도가", "type": "", "begin": 15, "end": 17}, 
                {"id": 9, "text": "되지", "type": "", "begin": 18, "end": 19}, 
                {"id": 10, "text": "않는다.", "type": "", "begin": 20, "end": 22}
            ], 
            "NE": [
                {"id": 0, "text": "10도", "type": "QT_TEMPERATURE", "begin": 15, "end": 16, "weight": 0.655797, "common_noun": 0}
            ], 
            "chunk": [], 
            "dependency": [
                {"id": 0, "text": "나무를", "head": 1, "label": "NP_OBJ", "mod": [], "weight": 0.798176}, 
                {"id": 1, "text": "찾아볼", "head": 2, "label": "VP_MOD", "mod": [0], "weight": 0.845661}, 
                {"id": 2, "text": "수", "head": 3, "label": "NP_SBJ", "mod": [1], "weight": 0.804587}, 
                {"id": 3, "text": "없고,", "head": 9, "label": "VP", "mod": [2], "weight": 0.68267}, 
                {"id": 4, "text": "가장", "head": 5, "label": "AP", "mod": [], "weight": 0.777085}, 
                {"id": 5, "text": "따뜻한", "head": 6, "label": "VP_MOD", "mod": [4], "weight": 0.727979}, 
                {"id": 6, "text": "날도", "head": 9, "label": "NP_SBJ", "mod": [5], "weight": 0.409545}, 
                {"id": 7, "text": "기온이", "head": 9, "label": "NP_SBJ", "mod": [], "weight": 0.707935}, 
                {"id": 8, "text": "10도가", "head": 9, "label": "NP_CMP", "mod": [], "weight": 0.78005}, 
                {"id": 9, "text": "되지", "head": 10, "label": "VP", "mod": [3, 6, 7, 8], "weight": 0.744422}, 
                {"id": 10, "text": "않는다.", "head": -1, "label": "VP", "mod": [9], "weight": 0.030867}
            ], 
            "SRL": [
                {"verb": "찾아보", "sense": 1, "word_id": 1, "weight": 0.188402, "argument": [
                    {"type": "ARG1", "word_id": 0, "text": "나무를", "weight": 0.175088}, 
                    {"type": "ARGM-NEG", "word_id": 3, "text": "없고,", "weight": 0.201717}
                ]}, 
                {"verb": "따뜻하", "sense": 1, "word_id": 5, "weight": 0.208761, "argument": [
                    {"type": "ARGM-EXT", "word_id": 4, "text": "가장", "weight": 0.272844}, 
                    {"type": "ARG1", "word_id": 6, "text": "날도", "weight": 0.144678}
                ]}, 
                {"verb": "되", "sense": 1, "word_id": 9, "weight": 0.233189, "argument": [
                    {"type": "ARG1", "word_id": 7, "text": "기온이", "weight": 0.180027}, 
                    {"type": "ARG2", "word_id": 8, "text": "10도가", "weight": 0.181811}, 
                    {"type": "ARGM-NEG", "word_id": 10, "text": "않는다.", "weight": 0.498826}
                ]}
            ], 
            "relation": [], 
            "SA": [], 
            "ZA": []
        }, 
        {
            "id": 1, 
            "reserve_str": "", 
            "text": "여름 두 달 동안만 이끼류나 풀이 자란다.", 
            "morp": [
                {"id": 0, "lemma": "여름", "type": "NNG", "position": 92, "weight": 0.9}, 
                {"id": 1, "lemma": "두", "type": "MM", "position": 99, "weight": 0.00195503}, 
                {"id": 2, "lemma": "달", "type": "NNB", "position": 103, "weight": 0.0510728}, 
                {"id": 3, "lemma": "동안", "type": "NNG", "position": 107, "weight": 0.110562}, 
                {"id": 4, "lemma": "만", "type": "JX", "position": 113, "weight": 0.0522241}, 
                {"id": 5, "lemma": "이끼류", "type": "NNG", "position": 117, "weight": 0.9}, 
                {"id": 6, "lemma": "나", "type": "JC", "position": 126, "weight": 0.00543468}, 
                {"id": 7, "lemma": "풀", "type": "NNG", "position": 130, "weight": 0.281029}, 
                {"id": 8, "lemma": "이", "type": "JKS", "position": 133, "weight": 0.0360723}, 
                {"id": 9, "lemma": "자라", "type": "VV", "position": 137, "weight": 0.310338}, 
                {"id": 10, "lemma": "ㄴ다", "type": "EF", "position": 140, "weight": 0.0793196}, 
                {"id": 11, "lemma": ".", "type": "SF", "position": 146, "weight": 1}
            ], 
            "morp_eval": [], 
            "WSD": [
                {"id": 0, "text": "여름", "type": "NNG", "scode": "010000", "weight": 0.333333, "position": 92, "begin": 0, "end": 0}, 
                {"id": 1, "text": "두", "type": "MM", "scode": "010000", "weight": 0.0909091, "position": 99, "begin": 1, "end": 1}, 
                {"id": 2, "text": "달", "type": "NNB", "scode": "050000", "weight": 0.0833333, "position": 103, "begin": 2, "end": 2}, 
                {"id": 3, "text": "동안", "type": "NNG", "scode": "010001", "weight": 0.142857, "position": 107, "begin": 3, "end": 3}, 
                {"id": 4, "text": "만", "type": "JX", "scode": "000000", "weight": 1, "position": 113, "begin": 4, "end": 4}, 
                {"id": 5, "text": "이끼류", "type": "NNG", "scode": "000000", "weight": 1, "position": 117, "begin": 5, "end": 5}, 
                {"id": 6, "text": "나", "type": "JC", "scode": "000000", "weight": 1, "position": 126, "begin": 6, "end": 6}, 
                {"id": 7, "text": "풀", "type": "NNG", "scode": "020001", "weight": 0.0909091, "position": 130, "begin": 7, "end": 7}, 
                {"id": 8, "text": "이", "type": "JKS", "scode": "000000", "weight": 1, "position": 133, "begin": 8, "end": 8}, 
                {"id": 9, "text": "자라", "type": "VV", "scode": "010102", "weight": 0.142857, "position": 137, "begin": 9, "end": 9}, 
                {"id": 10, "text": "ㄴ다", "type": "EF", "scode": "000000", "weight": 1, "position": 140, "begin": 10, "end": 10}, 
                {"id": 11, "text": ".", "type": "SF", "scode": "000000", "weight": 1, "position": 146, "begin": 11, "end": 11}
            ], 
            "word": [
                {"id": 0, "text": "여름", "type": "", "begin": 0, "end": 0}, 
                {"id": 1, "text": "두", "type": "", "begin": 1, "end": 1}, 
                {"id": 2, "text": "달", "type": "", "begin": 2, "end": 2}, 
                {"id": 3, "text": "동안만", "type": "", "begin": 3, "end": 4}, 
                {"id": 4, "text": "이끼류나", "type": "", "begin": 5, "end": 6}, 
                {"id": 5, "text": "풀이", "type": "", "begin": 7, "end": 8}, 
                {"id": 6, "text": "자란다.", "type": "", "begin": 9, "end": 11}
            ], 
            "NE": [
                {"id": 0, "text": "여름", "type": "DT_SEASON", "begin": 0, "end": 0, "weight": 0.770695, "common_noun": 0}, 
                {"id": 1, "text": "두 달 동안", "type": "DT_DURATION", "begin": 1, "end": 3, "weight": 0.837282, "common_noun": 0}, 
                {"id": 2, "text": "이끼류", "type": "PT_TYPE", "begin": 5, "end": 5, "weight": 0.323749, "common_noun": 0}
            ], 
            "chunk": [], 
            "dependency": [
                {"id": 0, "text": "여름", "head": 3, "label": "NP", "mod": [], "weight": 0.630444}, 
                {"id": 1, "text": "두", "head": 2, "label": "DP", "mod": [], "weight": 0.530041}, 
                {"id": 2, "text": "달", "head": 3, "label": "NP", "mod": [1], "weight": 0.83435}, 
                {"id": 3, "text": "동안만", "head": 6, "label": "NP_AJT", "mod": [0, 2], "weight": 0.628186}, 
                {"id": 4, "text": "이끼류나", "head": 5, "label": "NP_CNJ", "mod": [], "weight": 0.776413}, 
                {"id": 5, "text": "풀이", "head": 6, "label": "NP_SBJ", "mod": [4], "weight": 0.855854}, 
                {"id": 6, "text": "자란다.", "head": -1, "label": "VP", "mod": [3, 5], "weight": 0.0987123}
            ], 
            "SRL": [
                {"verb": "자라", "sense": 1, "word_id": 6, "weight": 0.163362, "argument": [
                    {"type": "ARGM-TMP", "word_id": 3, "text": "동안만", "weight": 0.2049}, 
                    {"type": "ARG0", "word_id": 5, "text": "풀이", "weight": 0.121824}
                ]}
            ], 
            "relation": [], 
            "SA": [], 
            "ZA": []
        }, 
        {
            "id": 2, 
            "reserve_str": "", 
            "text": "여름 동안 자라는 이끼류와 풀은 순록의 먹이가 된다.", 
            "morp": [
                {"id": 0, "lemma": "여름", "type": "NNG", "position": 147, "weight": 0.9}, 
                {"id": 1, "lemma": "동안", "type": "NNG", "position": 154, "weight": 0.184748}, 
                {"id": 2, "lemma": "자라", "type": "VV", "position": 161, "weight": 0.0148185}, 
                {"id": 3, "lemma": "는", "type": "ETM", "position": 167, "weight": 0.184941}, 
                {"id": 4, "lemma": "이끼류", "type": "NNG", "position": 171, "weight": 0.9}, 
                {"id": 5, "lemma": "와", "type": "JC", "position": 180, "weight": 0.0169714}, 
                {"id": 6, "lemma": "풀", "type": "NNG", "position": 184, "weight": 0.281029}, 
                {"id": 7, "lemma": "은", "type": "JX", "position": 187, "weight": 0.0449928}, 
                {"id": 8, "lemma": "순록", "type": "NNG", "position": 191, "weight": 0.9}, 
                {"id": 9, "lemma": "의", "type": "JKG", "position": 197, "weight": 0.0694213}, 
                {"id": 10, "lemma": "먹이", "type": "NNG", "position": 201, "weight": 0.323197}, 
                {"id": 11, "lemma": "가", "type": "JKC", "position": 207, "weight": 0.000442184}, 
                {"id": 12, "lemma": "되", "type": "VV", "position": 211, "weight": 0.542406}, 
                {"id": 13, "lemma": "ㄴ다", "type": "EF", "position": 211, "weight": 0.0793196}, 
                {"id": 14, "lemma": ".", "type": "SF", "position": 217, "weight": 1}
            ], 
            "morp_eval": [], 
            "WSD": [
                {"id": 0, "text": "여름", "type": "NNG", "scode": "010000", "weight": 0.333333, "position": 147, "begin": 0, "end": 0}, 
                {"id": 1, "text": "동안", "type": "NNG", "scode": "010001", "weight": 0.142857, "position": 154, "begin": 1, "end": 1}, 
                {"id": 2, "text": "자라", "type": "VV", "scode": "010102", "weight": 0.142857, "position": 161, "begin": 2, "end": 2}, 
                {"id": 3, "text": "는", "type": "ETM", "scode": "000000", "weight": 1, "position": 167, "begin": 3, "end": 3}, 
                {"id": 4, "text": "이끼류", "type": "NNG", "scode": "000000", "weight": 1, "position": 171, "begin": 4, "end": 4}, 
                {"id": 5, "text": "와", "type": "JC", "scode": "000000", "weight": 1, "position": 180, "begin": 5, "end": 5}, 
                {"id": 6, "text": "풀", "type": "NNG", "scode": "020001", "weight": 0.0909091, "position": 184, "begin": 6, "end": 6}, 
                {"id": 7, "text": "은", "type": "JX", "scode": "000000", "weight": 1, "position": 187, "begin": 7, "end": 7}, 
                {"id": 8, "text": "순록", "type": "NNG", "scode": "000000", "weight": 1, "position": 191, "begin": 8, "end": 8}, 
                {"id": 9, "text": "의", "type": "JKG", "scode": "000000", "weight": 1, "position": 197, "begin": 9, "end": 9}, 
                {"id": 10, "text": "먹이", "type": "NNG", "scode": "000000", "weight": 1, "position": 201, "begin": 10, "end": 10}, 
                {"id": 11, "text": "가", "type": "JKC", "scode": "000000", "weight": 1, "position": 207, "begin": 11, "end": 11}, 
                {"id": 12, "text": "되", "type": "VV", "scode": "010401", "weight": 0.03125, "position": 211, "begin": 12, "end": 12}, 
                {"id": 13, "text": "ㄴ다", "type": "EF", "scode": "000000", "weight": 1, "position": 211, "begin": 13, "end": 13}, 
                {"id": 14, "text": ".", "type": "SF", "scode": "000000", "weight": 1, "position": 217, "begin": 14, "end": 14}
            ], 
            "word": [
                {"id": 0, "text": "여름", "type": "", "begin": 0, "end": 0}, 
                {"id": 1, "text": "동안", "type": "", "begin": 1, "end": 1}, 
                {"id": 2, "text": "자라는", "type": "", "begin": 2, "end": 3}, 
                {"id": 3, "text": "이끼류와", "type": "", "begin": 4, "end": 5}, 
                {"id": 4, "text": "풀은", "type": "", "begin": 6, "end": 7}, 
                {"id": 5, "text": "순록의", "type": "", "begin": 8, "end": 9}, 
                {"id": 6, "text": "먹이가", "type": "", "begin": 10, "end": 11}, 
                {"id": 7, "text": "된다.", "type": "", "begin": 12, "end": 14}
            ], 
            "NE": [
                {"id": 0, "text": "여름", "type": "DT_SEASON", "begin": 0, "end": 0, "weight": 0.613488, "common_noun": 0}, 
                {"id": 1, "text": "이끼류", "type": "PT_TYPE", "begin": 4, "end": 4, "weight": 0.319378, "common_noun": 0}, 
                {"id": 2, "text": "순록", "type": "AM_MAMMALIA", "begin": 8, "end": 8, "weight": 0.269707, "common_noun": 0}
            ], 
            "chunk": [], 
            "dependency": [
                {"id": 0, "text": "여름", "head": 1, "label": "NP", "mod": [], "weight": 0.610843}, 
                {"id": 1, "text": "동안", "head": 2, "label": "NP_AJT", "mod": [0], "weight": 0.427227}, 
                {"id": 2, "text": "자라는", "head": 4, "label": "VP_MOD", "mod": [1], "weight": 0.767117}, 
                {"id": 3, "text": "이끼류와", "head": 4, "label": "NP_CNJ", "mod": [], "weight": 0.733312}, 
                {"id": 4, "text": "풀은", "head": 7, "label": "NP_SBJ", "mod": [2, 3], "weight": 0.824402}, 
                {"id": 5, "text": "순록의", "head": 6, "label": "NP_MOD", "mod": [], "weight": 0.584733}, 
                {"id": 6, "text": "먹이가", "head": 7, "label": "NP_CMP", "mod": [5], "weight": 0.588612}, 
                {"id": 7, "text": "된다.", "head": -1, "label": "VP", "mod": [4, 6], "weight": 0.0310146}
            ], 
            "SRL": [
                {"verb": "자라", "sense": 1, "word_id": 2, "weight": 0.144192, "argument": [
                    {"type": "ARGM-TMP", "word_id": 1, "text": "동안", "weight": 0.154674}, 
                    {"type": "ARG0", "word_id": 4, "text": "풀은", "weight": 1}
                ]}, 
                {"verb": "되", "sense": 1, "word_id": 7, "weight": 0.280894, "argument": [
                    {"type": "ARG1", "word_id": 4, "text": "풀은", "weight": 0.239251}, 
                    {"type": "ARG2", "word_id": 6, "text": "먹이가", "weight": 0.322536}
                ]}
            ], 
            "relation": [], 
            "SA": [], 
            "ZA": []
        }, 
        {
            "id": 3, 
            "reserve_str": "", 
            "text": "시베리아의 사모예드족이나, 알래스카의 에스키모는 이때 순록을 방목하기도 한다.", 
            "morp": [
                {"id": 0, "lemma": "시베리아", "type": "NNP", "position": 217, "weight": 0.9}, 
                {"id": 1, "lemma": "의", "type": "JKG", "position": 229, "weight": 0.0987295}, 
                {"id": 2, "lemma": "사모예드족", "type": "NNP", "position": 233, "weight": 0.653582}, 
                {"id": 3, "lemma": "이나", "type": "JC", "position": 248, "weight": 0.0131102}, 
                {"id": 4, "lemma": ",", "type": "SP", "position": 254, "weight": 1}, 
                {"id": 5, "lemma": "알래스카", "type": "NNP", "position": 256, "weight": 0.122612}, 
                {"id": 6, "lemma": "의", "type": "JKG", "position": 268, "weight": 0.0987295}, 
                {"id": 7, "lemma": "에스키모", "type": "NNP", "position": 272, "weight": 0.9}, 
                {"id": 8, "lemma": "는", "type": "JX", "position": 284, "weight": 0.0332677}, 
                {"id": 9, "lemma": "이때", "type": "NNG", "position": 288, "weight": 0.9}, 
                {"id": 10, "lemma": "순록", "type": "NNG", "position": 295, "weight": 0.9}, 
                {"id": 11, "lemma": "을", "type": "JKO", "position": 301, "weight": 0.129611}, 
                {"id": 12, "lemma": "방목", "type": "NNG", "position": 305, "weight": 0.9}, 
                {"id": 13, "lemma": "하", "type": "XSV", "position": 311, "weight": 0.0001}, 
                {"id": 14, "lemma": "기", "type": "ETN", "position": 314, "weight": 0.0556099}, 
                {"id": 15, "lemma": "도", "type": "JX", "position": 317, "weight": 0.147715}, 
                {"id": 16, "lemma": "하", "type": "VX", "position": 321, "weight": 0.00978548}, 
                {"id": 17, "lemma": "ㄴ다", "type": "EF", "position": 321, "weight": 0.184394}, 
                {"id": 18, "lemma": ".", "type": "SF", "position": 327, "weight": 1}
            ], 
            "morp_eval": [], 
            "WSD": [
                {"id": 0, "text": "시베리아", "type": "NNP", "scode": "000000", "weight": 1, "position": 217, "begin": 0, "end": 0}, 
                {"id": 1, "text": "의", "type": "JKG", "scode": "000000", "weight": 1, "position": 229, "begin": 1, "end": 1}, 
                {"id": 2, "text": "사모예드족", "type": "NNP", "scode": "000000", "weight": 1, "position": 233, "begin": 2, "end": 2}, 
                {"id": 3, "text": "이나", "type": "JC", "scode": "000000", "weight": 1, "position": 248, "begin": 3, "end": 3}, 
                {"id": 4, "text": ",", "type": "SP", "scode": "000000", "weight": 1, "position": 254, "begin": 4, "end": 4}, 
                {"id": 5, "text": "알래스카", "type": "NNP", "scode": "000000", "weight": 0, "position": 256, "begin": 5, "end": 5}, 
                {"id": 6, "text": "의", "type": "JKG", "scode": "000000", "weight": 1, "position": 268, "begin": 6, "end": 6}, 
                {"id": 7, "text": "에스키모", "type": "NNP", "scode": "020000", "weight": 0.5, "position": 272, "begin": 7, "end": 7}, 
                {"id": 8, "text": "는", "type": "JX", "scode": "000000", "weight": 1, "position": 284, "begin": 8, "end": 8}, 
                {"id": 9, "text": "이때", "type": "NNG", "scode": "000000", "weight": 1, "position": 288, "begin": 9, "end": 9}, 
                {"id": 10, "text": "순록", "type": "NNG", "scode": "000000", "weight": 1, "position": 295, "begin": 10, "end": 10}, 
                {"id": 11, "text": "을", "type": "JKO", "scode": "000000", "weight": 1, "position": 301, "begin": 11, "end": 11}, 
                {"id": 12, "text": "방목하", "type": "VV", "scode": "000000", "weight": 1, "position": 305, "begin": 12, "end": 13}, 
                {"id": 13, "text": "기", "type": "ETN", "scode": "000000", "weight": 1, "position": 314, "begin": 14, "end": 14}, 
                {"id": 14, "text": "도", "type": "JX", "scode": "000000", "weight": 1, "position": 317, "begin": 15, "end": 15}, 
                {"id": 15, "text": "하", "type": "VX", "scode": "011105", "weight": 0.02, "position": 321, "begin": 16, "end": 16}, 
                {"id": 16, "text": "ㄴ다", "type": "EF", "scode": "000000", "weight": 1, "position": 321, "begin": 17, "end": 17}, 
                {"id": 17, "text": ".", "type": "SF", "scode": "000000", "weight": 1, "position": 327, "begin": 18, "end": 18}
            ], 
            "word": [
                {"id": 0, "text": "시베리아의", "type": "", "begin": 0, "end": 1}, 
                {"id": 1, "text": "사모예드족이나,", "type": "", "begin": 2, "end": 4}, 
                {"id": 2, "text": "알래스카의", "type": "", "begin": 5, "end": 6}, 
                {"id": 3, "text": "에스키모는", "type": "", "begin": 7, "end": 8}, 
                {"id": 4, "text": "이때", "type": "", "begin": 9, "end": 9}, 
                {"id": 5, "text": "순록을", "type": "", "begin": 10, "end": 11}, 
                {"id": 6, "text": "방목하기도", "type": "", "begin": 12, "end": 15}, 
                {"id": 7, "text": "한다.", "type": "", "begin": 16, "end": 18}
            ], 
            "NE": [
                {"id": 0, "text": "시베리아", "type": "LC_OTHERS", "begin": 0, "end": 0, "weight": 0.816048, "common_noun": 0}, 
                {"id": 1, "text": "사모예드족", "type": "CV_TRIBE", "begin": 2, "end": 2, "weight": 0.329512, "common_noun": 0}, 
                {"id": 2, "text": "알래스카", "type": "LCP_PROVINCE", "begin": 5, "end": 5, "weight": 0.648851, "common_noun": 0}, 
                {"id": 3, "text": "에스키모", "type": "CV_TRIBE", "begin": 7, "end": 7, "weight": 0.223827, "common_noun": 0}, 
                {"id": 4, "text": "순록", "type": "AM_MAMMALIA", "begin": 10, "end": 10, "weight": 0.287603, "common_noun": 0}
            ], 
            "chunk": [], 
            "dependency": [
                {"id": 0, "text": "시베리아의", "head": 1, "label": "NP_MOD", "mod": [], "weight": 0.696834}, 
                {"id": 1, "text": "사모예드족이나,", "head": 3, "label": "NP_CNJ", "mod": [0], "weight": 0.187673}, 
                {"id": 2, "text": "알래스카의", "head": 3, "label": "NP_MOD", "mod": [], "weight": 0.53156}, 
                {"id": 3, "text": "에스키모는", "head": 6, "label": "NP_SBJ", "mod": [1, 2], "weight": 0.684633}, 
                {"id": 4, "text": "이때", "head": 6, "label": "NP_AJT", "mod": [], "weight": 0.702617}, 
                {"id": 5, "text": "순록을", "head": 6, "label": "NP_OBJ", "mod": [], "weight": 0.832674}, 
                {"id": 6, "text": "방목하기도", "head": 7, "label": "VP", "mod": [3, 4, 5], "weight": 0.668531}, 
                {"id": 7, "text": "한다.", "head": -1, "label": "VP", "mod": [6], "weight": 0.0151995}
            ], 
            "SRL": [
                {"verb": "방목", "sense": 1, "word_id": 6, "weight": 0.190293, "argument": [
                    {"type": "ARG0", "word_id": 3, "text": "에스키모는", "weight": 0.12239}, 
                    {"type": "ARGM-TMP", "word_id": 4, "text": "이때", "weight": 0.112673}, 
                    {"type": "ARG1", "word_id": 5, "text": "순록을", "weight": 0.21117}, 
                    {"type": "AUX", "word_id": 7, "text": "한다.", "weight": 0.314942}
                ]}
            ], 
            "relation": [], 
            "SA": [], 
            "ZA": []
        }
    ], 
    "entity": [
        {"id": 0, "type": "", "number": "singular", "gender": "", "person": "", "animacy": "thing", "mention": [
            {"id": 0, "sent_id": 0, "start_eid": 0, "end_eid": 0, "ne_id": -1, "text": "나무를", "start_eid_short": 0, "end_eid_short": 0, "text_short": "나무를"}
        ]}, 
        {"id": 1, "type": "", "number": "singular", "gender": "", "person": "", "animacy": "thing", "mention": [
            {"id": 1, "sent_id": 0, "start_eid": 4, "end_eid": 6, "ne_id": -1, "text": "가장 따뜻한 날도", "start_eid_short": 6, "end_eid_short": 6, "text_short": "날도"}
        ]}, 
        {"id": 2, "type": "", "number": "singular", "gender": "", "person": "", "animacy": "thing", "mention": [
            {"id": 2, "sent_id": 0, "start_eid": 7, "end_eid": 7, "ne_id": -1, "text": "기온이", "start_eid_short": 7, "end_eid_short": 7, "text_short": "기온이"}
        ]}, 
        {"id": 3, "type": "QT_TEMPERATURE", "number": "singular", "gender": "", "person": "", "animacy": "thing", "mention": [
            {"id": 3, "sent_id": 0, "start_eid": 8, "end_eid": 8, "ne_id": 0, "text": "10도가", "start_eid_short": 8, "end_eid_short": 8, "text_short": "10도가"}
        ]}, 
        {"id": 4, "type": "DT_DURATION", "number": "singular", "gender": "", "person": "", "animacy": "time", "mention": [
            {"id": 4, "sent_id": 1, "start_eid": 0, "end_eid": 3, "ne_id": 1, "text": "여름 두 달 동안만", "start_eid_short": 2, "end_eid_short": 3, "text_short": "달 동안만"}
        ]}, 
        {"id": 5, "type": "DT_SEASON", "number": "singular", "gender": "", "person": "", "animacy": "time", "mention": [
            {"id": 5, "sent_id": 1, "start_eid": 0, "end_eid": 0, "ne_id": 0, "text": "여름", "start_eid_short": 0, "end_eid_short": 0, "text_short": "여름"}, 
            {"id": 11, "sent_id": 2, "start_eid": 0, "end_eid": 0, "ne_id": 0, "text": "여름", "start_eid_short": 0, "end_eid_short": 0, "text_short": "여름"}, 
            {"id": 21, "sent_id": 3, "start_eid": 4, "end_eid": 4, "ne_id": -1, "text": "이때", "start_eid_short": 4, "end_eid_short": 4, "text_short": "이때"}
        ]}, 
        {"id": 6, "type": "", "number": "plural", "gender": "", "person": "", "animacy": "thing", "mention": [
            {"id": 6, "sent_id": 1, "start_eid": 4, "end_eid": 5, "ne_id": -1, "text": "이끼류나 풀이", "start_eid_short": 5, "end_eid_short": 5, "text_short": "풀이"}, 
            {"id": 9, "sent_id": 2, "start_eid": 0, "end_eid": 4, "ne_id": -1, "text": "여름 동안 자라는 이끼류와 풀은", "start_eid_short": 4, "end_eid_short": 4, "text_short": "풀은"}
        ]}, 
        {"id": 7, "type": "PT_TYPE", "number": "singular", "gender": "", "person": "", "animacy": "plant", "mention": [
            {"id": 7, "sent_id": 1, "start_eid": 4, "end_eid": 4, "ne_id": 2, "text": "이끼류나", "start_eid_short": 4, "end_eid_short": 4, "text_short": "이끼류나"}, 
            {"id": 12, "sent_id": 2, "start_eid": 3, "end_eid": 3, "ne_id": 1, "text": "이끼류와", "start_eid_short": 3, "end_eid_short": 3, "text_short": "이끼류와"}
        ]}, 
        {"id": 8, "type": "", "number": "singular", "gender": "", "person": "", "animacy": "thing", "mention": [
            {"id": 10, "sent_id": 2, "start_eid": 0, "end_eid": 1, "ne_id": -1, "text": "여름 동안", "start_eid_short": 0, "end_eid_short": 1, "text_short": "여름 동안"}
        ]}, 
        {"id": 9, "type": "", "number": "singular", "gender": "", "person": "", "animacy": "thing", "mention": [
            {"id": 14, "sent_id": 2, "start_eid": 5, "end_eid": 6, "ne_id": -1, "text": "순록의 먹이가", "start_eid_short": 6, "end_eid_short": 6, "text_short": "먹이가"}
        ]}, 
        {"id": 10, "type": "AM_MAMMALIA", "number": "singular", "gender": "", "person": "", "animacy": "animal", "mention": [
            {"id": 15, "sent_id": 2, "start_eid": 5, "end_eid": 5, "ne_id": 2, "text": "순록의", "start_eid_short": 5, "end_eid_short": 5, "text_short": "순록의"}, 
            {"id": 22, "sent_id": 3, "start_eid": 5, "end_eid": 5, "ne_id": 4, "text": "순록을", "start_eid_short": 5, "end_eid_short": 5, "text_short": "순록을"}
        ]}, 
        {"id": 11, "type": "CV_TRIBE", "number": "singular", "gender": "", "person": "", "animacy": "thing", "mention": [
            {"id": 17, "sent_id": 3, "start_eid": 0, "end_eid": 1, "ne_id": 1, "text": "시베리아의 사모예드족이나,", "start_eid_short": 1, "end_eid_short": 1, "text_short": "사모예드족이나,"}
        ]}, 
        {"id": 12, "type": "LC_OTHERS", "number": "singular", "gender": "", "person": "", "animacy": "place", "mention": [
            {"id": 18, "sent_id": 3, "start_eid": 0, "end_eid": 0, "ne_id": 0, "text": "시베리아의", "start_eid_short": 0, "end_eid_short": 0, "text_short": "시베리아의"}
        ]}, 
        {"id": 13, "type": "CV_TRIBE", "number": "singular", "gender": "", "person": "", "animacy": "thing", "mention": [
            {"id": 16, "sent_id": 3, "start_eid": 0, "end_eid": 3, "ne_id": 3, "text": "시베리아의 사모예드족이나, 알래스카의 에스키모는", "start_eid_short": 3, "end_eid_short": 3, "text_short": "에스키모는"}
        ]}, 
        {"id": 14, "type": "LCP_PROVINCE", "number": "singular", "gender": "", "person": "", "animacy": "place", "mention": [
            {"id": 20, "sent_id": 3, "start_eid": 2, "end_eid": 2, "ne_id": 2, "text": "알래스카의", "start_eid_short": 2, "end_eid_short": 2, "text_short": "알래스카의"}
        ]}, 
        {"id": 15, "type": "", "number": "singular", "gender": "", "person": "", "animacy": "thing", "mention": [
            {"id": 8, "sent_id": 1, "start_eid": 5, "end_eid": 5, "ne_id": -1, "text": "풀이", "start_eid_short": 5, "end_eid_short": 5, "text_short": "풀이"}, 
            {"id": 13, "sent_id": 2, "start_eid": 4, "end_eid": 4, "ne_id": -1, "text": "풀은", "start_eid_short": 4, "end_eid_short": 4, "text_short": "풀은"}
        ]}, 
        {"id": 16, "type": "CV_TRIBE", "number": "singular", "gender": "", "person": "", "animacy": "thing", "mention": [
            {"id": 19, "sent_id": 3, "start_eid": 2, "end_eid": 3, "ne_id": 3, "text": "알래스카의 에스키모는", "start_eid_short": 3, "end_eid_short": 3, "text_short": "에스키모는"}
        ]}
    ]
}