{
    "doc_id": "E2016.887.02_A_01.json", 
    "DCT": "", 
    "category": "", 
    "category_weight": 0, 
    "title": {
        "text": "우주론", 
        "NE": ""
    }, 
    "metaInfo": {}, 
    "sentence": [
        {
            "id": 0, 
            "reserve_str": "", 
            "text": "프리드만 방정식은 아인슈타인 방정식의 단순한 해이다.", 
            "morp": [
                {"id": 0, "lemma": "프리드만", "type": "NNP", "position": 0, "weight": 0.6}, 
                {"id": 1, "lemma": "방정", "type": "NNG", "position": 13, "weight": 0.9}, 
                {"id": 2, "lemma": "식", "type": "NNG", "position": 19, "weight": 0.0207313}, 
                {"id": 3, "lemma": "은", "type": "JX", "position": 22, "weight": 0.0449928}, 
                {"id": 4, "lemma": "아인슈타인", "type": "NNP", "position": 26, "weight": 0.9}, 
                {"id": 5, "lemma": "방정", "type": "NNG", "position": 42, "weight": 0.9}, 
                {"id": 6, "lemma": "식", "type": "NNG", "position": 48, "weight": 0.0207313}, 
                {"id": 7, "lemma": "의", "type": "JKG", "position": 51, "weight": 0.0694213}, 
                {"id": 8, "lemma": "단순", "type": "NNG", "position": 55, "weight": 0.9}, 
                {"id": 9, "lemma": "하", "type": "XSA", "position": 61, "weight": 0.0001}, 
                {"id": 10, "lemma": "ㄴ", "type": "ETM", "position": 61, "weight": 0.488779}, 
                {"id": 11, "lemma": "해", "type": "NNG", "position": 65, "weight": 0.442025}, 
                {"id": 12, "lemma": "이", "type": "VCP", "position": 68, "weight": 0.0177525}, 
                {"id": 13, "lemma": "다", "type": "EF", "position": 71, "weight": 0.353579}, 
                {"id": 14, "lemma": ".", "type": "SF", "position": 74, "weight": 1}
            ], 
            "morp_eval": [], 
            "WSD": [
                {"id": 0, "text": "프리드만", "type": "NNP", "scode": "000000", "weight": 0, "position": 0, "begin": 0, "end": 0}, 
                {"id": 1, "text": "방정식", "type": "NNG", "scode": "000000", "weight": 1, "position": 13, "begin": 1, "end": 2}, 
                {"id": 2, "text": "은", "type": "JX", "scode": "000000", "weight": 1, "position": 22, "begin": 3, "end": 3}, 
                {"id": 3, "text": "아인슈타인", "type": "NNP", "scode": "010000", "weight": 0.333333, "position": 26, "begin": 4, "end": 4}, 
                {"id": 4, "text": "방정식", "type": "NNG", "scode": "000000", "weight": 1, "position": 42, "begin": 5, "end": 6}, 
                {"id": 5, "text": "의", "type": "JKG", "scode": "000000", "weight": 1, "position": 51, "begin": 7, "end": 7}, 
                {"id": 6, "text": "단순하", "type": "VA", "scode": "000001", "weight": 0.5, "position": 55, "begin": 8, "end": 9}, 
                {"id": 7, "text": "ㄴ", "type": "ETM", "scode": "000000", "weight": 1, "position": 61, "begin": 10, "end": 10}, 
                {"id": 8, "text": "해", "type": "NNG", "scode": "140003", "weight": 0.0333333, "position": 65, "begin": 11, "end": 11}, 
                {"id": 9, "text": "이", "type": "VCP", "scode": "030000", "weight": 0.0172414, "position": 68, "begin": 12, "end": 12}, 
                {"id": 10, "text": "다", "type": "EF", "scode": "000000", "weight": 1, "position": 71, "begin": 13, "end": 13}, 
                {"id": 11, "text": ".", "type": "SF", "scode": "000000", "weight": 1, "position": 74, "begin": 14, "end": 14}
            ], 
            "word": [
                {"id": 0, "text": "프리드만", "type": "", "begin": 0, "end": 0}, 
                {"id": 1, "text": "방정식은", "type": "", "begin": 1, "end": 3}, 
                {"id": 2, "text": "아인슈타인", "type": "", "begin": 4, "end": 4}, 
                {"id": 3, "text": "방정식의", "type": "", "begin": 5, "end": 7}, 
                {"id": 4, "text": "단순한", "type": "", "begin": 8, "end": 10}, 
                {"id": 5, "text": "해이다.", "type": "", "begin": 11, "end": 14}
            ], 
            "NE": [
                {"id": 0, "text": "프리드만 방정식", "type": "TR_SCIENCE", "begin": 0, "end": 2, "weight": 0.167814, "common_noun": 0}, 
                {"id": 1, "text": "아인슈타인 방정식", "type": "TR_SCIENCE", "begin": 4, "end": 6, "weight": 0.255774, "common_noun": 0}
            ], 
            "chunk": [], 
            "dependency": [
                {"id": 0, "text": "프리드만", "head": 1, "label": "NP", "mod": [], "weight": 0.720423}, 
                {"id": 1, "text": "방정식은", "head": 5, "label": "NP_SBJ", "mod": [0], "weight": 0.581441}, 
                {"id": 2, "text": "아인슈타인", "head": 3, "label": "NP", "mod": [], "weight": 0.844838}, 
                {"id": 3, "text": "방정식의", "head": 5, "label": "NP_MOD", "mod": [2], "weight": 0.726838}, 
                {"id": 4, "text": "단순한", "head": 5, "label": "VP_MOD", "mod": [], "weight": 0.710022}, 
                {"id": 5, "text": "해이다.", "head": -1, "label": "VNP", "mod": [4, 1, 3], "weight": 0.160511}
            ], 
            "SRL": [
                {"verb": "단순", "sense": 1, "word_id": 4, "weight": 0, "argument": [
                    {"type": "ARG1", "word_id": 5, "text": "해이다.", "weight": 1}
                ]}
            ], 
            "relation": [], 
            "SA": [], 
            "ZA": []
        }
    ], 
    "entity": [
        {"id": 0, "type": "", "number": "singular", "gender": "", "person": "", "animacy": "thing", "mention": [
            {"id": 0, "sent_id": 0, "start_eid": 0, "end_eid": 1, "ne_id": -1, "text": "프리드만 방정식은", "start_eid_short": 0, "end_eid_short": 1, "text_short": "프리드만 방정식은"}, 
            {"id": 2, "sent_id": 0, "start_eid": 2, "end_eid": 5, "ne_id": -1, "text": "아인슈타인 방정식의 단순한 해이다.", "start_eid_short": 5, "end_eid_short": 5, "text_short": "해이다."}
        ]}, 
        {"id": 1, "type": "", "number": "singular", "gender": "", "person": "", "animacy": "thing", "mention": [
            {"id": 1, "sent_id": 0, "start_eid": 0, "end_eid": 0, "ne_id": -1, "text": "프리드만", "start_eid_short": 0, "end_eid_short": 0, "text_short": "프리드만"}
        ]}, 
        {"id": 2, "type": "PS_NAME", "number": "singular", "gender": "", "person": "", "animacy": "human", "mention": [
            {"id": 4, "sent_id": 0, "start_eid": 2, "end_eid": 2, "ne_id": 0, "text": "아인슈타인", "start_eid_short": 2, "end_eid_short": 2, "text_short": "아인슈타인"}
        ]}, 
        {"id": 3, "type": "", "number": "singular", "gender": "", "person": "", "animacy": "thing", "mention": [
            {"id": 3, "sent_id": 0, "start_eid": 2, "end_eid": 3, "ne_id": -1, "text": "아인슈타인 방정식의", "start_eid_short": 2, "end_eid_short": 3, "text_short": "아인슈타인 방정식의"}
        ]}
    ]
}