{
    "doc_id": "E2016.887.10_Q_01.json", 
    "DCT": "", 
    "category": "", 
    "category_weight": 0, 
    "title": {
        "text": "", 
        "NE": ""
    }, 
    "metaInfo": {}, 
    "sentence": [
        {
            "id": 0, 
            "reserve_str": "", 
            "text": "이것은 본래 거문고의 줄을 팽팽하게 고쳐 맨다는 뜻의 한자어로 사회적 정치적으로 묵은 제도를 고쳐 새롭게 하는 것을 의미한다.", 
            "morp": [
                {"id": 0, "lemma": "이것", "type": "NP", "position": 0, "weight": 0.0733657}, 
                {"id": 1, "lemma": "은", "type": "JX", "position": 6, "weight": 0.191811}, 
                {"id": 2, "lemma": "본래", "type": "MAG", "position": 10, "weight": 0.9}, 
                {"id": 3, "lemma": "거문고", "type": "NNG", "position": 17, "weight": 0.1}, 
                {"id": 4, "lemma": "의", "type": "JKG", "position": 26, "weight": 0.0694213}, 
                {"id": 5, "lemma": "줄", "type": "NNG", "position": 30, "weight": 0.330778}, 
                {"id": 6, "lemma": "을", "type": "JKO", "position": 33, "weight": 0.129611}, 
                {"id": 7, "lemma": "팽팽하", "type": "VA", "position": 37, "weight": 0.0357559}, 
                {"id": 8, "lemma": "게", "type": "EC", "position": 46, "weight": 0.362254}, 
                {"id": 9, "lemma": "고치", "type": "VV", "position": 50, "weight": 0.210737}, 
                {"id": 10, "lemma": "어", "type": "EC", "position": 53, "weight": 0.41831}, 
                {"id": 11, "lemma": "매", "type": "VV", "position": 57, "weight": 0.13049}, 
                {"id": 12, "lemma": "ㄴ다는", "type": "ETM", "position": 57, "weight": 0.317555}, 
                {"id": 13, "lemma": "뜻", "type": "NNG", "position": 67, "weight": 0.9}, 
                {"id": 14, "lemma": "의", "type": "JKG", "position": 70, "weight": 0.0694213}, 
                {"id": 15, "lemma": "한자", "type": "NNG", "position": 74, "weight": 0.8673}, 
                {"id": 16, "lemma": "어", "type": "XSN", "position": 80, "weight": 0.0001}, 
                {"id": 17, "lemma": "로", "type": "JKB", "position": 83, "weight": 0.121577}, 
                {"id": 18, "lemma": "사회", "type": "NNG", "position": 87, "weight": 0.208008}, 
                {"id": 19, "lemma": "적", "type": "XSN", "position": 93, "weight": 0.0168756}, 
                {"id": 20, "lemma": "정치", "type": "NNG", "position": 97, "weight": 0.9}, 
                {"id": 21, "lemma": "적", "type": "XSN", "position": 103, "weight": 0.0168756}, 
                {"id": 22, "lemma": "으로", "type": "JKB", "position": 106, "weight": 0.121717}, 
                {"id": 23, "lemma": "묵", "type": "VV", "position": 113, "weight": 0.405166}, 
                {"id": 24, "lemma": "은", "type": "ETM", "position": 116, "weight": 0.109632}, 
                {"id": 25, "lemma": "제도", "type": "NNG", "position": 120, "weight": 0.9}, 
                {"id": 26, "lemma": "를", "type": "JKO", "position": 126, "weight": 0.137686}, 
                {"id": 27, "lemma": "고치", "type": "VV", "position": 130, "weight": 0.724125}, 
                {"id": 28, "lemma": "어", "type": "EC", "position": 133, "weight": 0.41831}, 
                {"id": 29, "lemma": "새롭", "type": "VA", "position": 137, "weight": 0.9}, 
                {"id": 30, "lemma": "게", "type": "EC", "position": 143, "weight": 0.31879}, 
                {"id": 31, "lemma": "하", "type": "VX", "position": 147, "weight": 0.0899221}, 
                {"id": 32, "lemma": "는", "type": "ETM", "position": 150, "weight": 0.183966}, 
                {"id": 33, "lemma": "것", "type": "NNB", "position": 154, "weight": 0.228788}, 
                {"id": 34, "lemma": "을", "type": "JKO", "position": 157, "weight": 0.0630104}, 
                {"id": 35, "lemma": "의미", "type": "NNG", "position": 161, "weight": 0.9}, 
                {"id": 36, "lemma": "하", "type": "XSV", "position": 167, "weight": 0.0001}, 
                {"id": 37, "lemma": "ㄴ다", "type": "EF", "position": 167, "weight": 0.0449045}, 
                {"id": 38, "lemma": ".", "type": "SF", "position": 173, "weight": 1}
            ], 
            "morp_eval": [], 
            "WSD": [
                {"id": 0, "text": "이것", "type": "NP", "scode": "000001", "weight": 0.25, "position": 0, "begin": 0, "end": 0}, 
                {"id": 1, "text": "은", "type": "JX", "scode": "000000", "weight": 1, "position": 6, "begin": 1, "end": 1}, 
                {"id": 2, "text": "본래", "type": "MAG", "scode": "000000", "weight": 1, "position": 10, "begin": 2, "end": 2}, 
                {"id": 3, "text": "거문고", "type": "NNG", "scode": "000000", "weight": 1, "position": 17, "begin": 3, "end": 3}, 
                {"id": 4, "text": "의", "type": "JKG", "scode": "000000", "weight": 1, "position": 26, "begin": 4, "end": 4}, 
                {"id": 5, "text": "줄", "type": "NNG", "scode": "010001", "weight": 0.0454545, "position": 30, "begin": 5, "end": 5}, 
                {"id": 6, "text": "을", "type": "JKO", "scode": "000000", "weight": 1, "position": 33, "begin": 6, "end": 6}, 
                {"id": 7, "text": "팽팽하", "type": "VA", "scode": "020001", "weight": 0.111111, "position": 37, "begin": 7, "end": 7}, 
                {"id": 8, "text": "게", "type": "EC", "scode": "000000", "weight": 1, "position": 46, "begin": 8, "end": 8}, 
                {"id": 9, "text": "고치", "type": "VV", "scode": "010101", "weight": 0.125, "position": 50, "begin": 9, "end": 9}, 
                {"id": 10, "text": "어", "type": "EC", "scode": "000000", "weight": 1, "position": 53, "begin": 10, "end": 10}, 
                {"id": 11, "text": "매", "type": "VV", "scode": "010101", "weight": 0.0833333, "position": 57, "begin": 11, "end": 11}, 
                {"id": 12, "text": "ㄴ다는", "type": "ETM", "scode": "000000", "weight": 1, "position": 57, "begin": 12, "end": 12}, 
                {"id": 13, "text": "뜻", "type": "NNG", "scode": "000002", "weight": 0.333333, "position": 67, "begin": 13, "end": 13}, 
                {"id": 14, "text": "의", "type": "JKG", "scode": "000000", "weight": 1, "position": 70, "begin": 14, "end": 14}, 
                {"id": 15, "text": "한자어", "type": "NNG", "scode": "000000", "weight": 1, "position": 74, "begin": 15, "end": 16}, 
                {"id": 16, "text": "로", "type": "JKB", "scode": "000000", "weight": 1, "position": 83, "begin": 17, "end": 17}, 
                {"id": 17, "text": "사회적", "type": "NNG", "scode": "000000", "weight": 1, "position": 87, "begin": 18, "end": 19}, 
                {"id": 18, "text": "정치적", "type": "NNG", "scode": "000002", "weight": 0.5, "position": 97, "begin": 20, "end": 21}, 
                {"id": 19, "text": "으로", "type": "JKB", "scode": "000000", "weight": 1, "position": 106, "begin": 22, "end": 22}, 
                {"id": 20, "text": "묵", "type": "VV", "scode": "010001", "weight": 0.25, "position": 113, "begin": 23, "end": 23}, 
                {"id": 21, "text": "은", "type": "ETM", "scode": "000000", "weight": 1, "position": 116, "begin": 24, "end": 24}, 
                {"id": 22, "text": "제도", "type": "NNG", "scode": "010000", "weight": 0.0769231, "position": 120, "begin": 25, "end": 25}, 
                {"id": 23, "text": "를", "type": "JKO", "scode": "000000", "weight": 1, "position": 126, "begin": 26, "end": 26}, 
                {"id": 24, "text": "고치", "type": "VV", "scode": "010202", "weight": 0.125, "position": 130, "begin": 27, "end": 27}, 
                {"id": 25, "text": "어", "type": "EC", "scode": "000000", "weight": 1, "position": 133, "begin": 28, "end": 28}, 
                {"id": 26, "text": "새롭", "type": "VA", "scode": "000001", "weight": 0.333333, "position": 137, "begin": 29, "end": 29}, 
                {"id": 27, "text": "게", "type": "EC", "scode": "000000", "weight": 1, "position": 143, "begin": 30, "end": 30}, 
                {"id": 28, "text": "하", "type": "VX", "scode": "011101", "weight": 0.02, "position": 147, "begin": 31, "end": 31}, 
                {"id": 29, "text": "는", "type": "ETM", "scode": "000000", "weight": 1, "position": 150, "begin": 32, "end": 32}, 
                {"id": 30, "text": "것", "type": "NNB", "scode": "010001", "weight": 0.125, "position": 154, "begin": 33, "end": 33}, 
                {"id": 31, "text": "을", "type": "JKO", "scode": "000000", "weight": 1, "position": 157, "begin": 34, "end": 34}, 
                {"id": 32, "text": "의미하", "type": "VV", "scode": "020001", "weight": 0.333333, "position": 161, "begin": 35, "end": 36}, 
                {"id": 33, "text": "ㄴ다", "type": "EF", "scode": "000000", "weight": 1, "position": 167, "begin": 37, "end": 37}, 
                {"id": 34, "text": ".", "type": "SF", "scode": "000000", "weight": 1, "position": 173, "begin": 38, "end": 38}
            ], 
            "word": [
                {"id": 0, "text": "이것은", "type": "", "begin": 0, "end": 1}, 
                {"id": 1, "text": "본래", "type": "", "begin": 2, "end": 2}, 
                {"id": 2, "text": "거문고의", "type": "", "begin": 3, "end": 4}, 
                {"id": 3, "text": "줄을", "type": "", "begin": 5, "end": 6}, 
                {"id": 4, "text": "팽팽하게", "type": "", "begin": 7, "end": 8}, 
                {"id": 5, "text": "고쳐", "type": "", "begin": 9, "end": 10}, 
                {"id": 6, "text": "맨다는", "type": "", "begin": 11, "end": 12}, 
                {"id": 7, "text": "뜻의", "type": "", "begin": 13, "end": 14}, 
                {"id": 8, "text": "한자어로", "type": "", "begin": 15, "end": 17}, 
                {"id": 9, "text": "사회적", "type": "", "begin": 18, "end": 19}, 
                {"id": 10, "text": "정치적으로", "type": "", "begin": 20, "end": 22}, 
                {"id": 11, "text": "묵은", "type": "", "begin": 23, "end": 24}, 
                {"id": 12, "text": "제도를", "type": "", "begin": 25, "end": 26}, 
                {"id": 13, "text": "고쳐", "type": "", "begin": 27, "end": 28}, 
                {"id": 14, "text": "새롭게", "type": "", "begin": 29, "end": 30}, 
                {"id": 15, "text": "하는", "type": "", "begin": 31, "end": 32}, 
                {"id": 16, "text": "것을", "type": "", "begin": 33, "end": 34}, 
                {"id": 17, "text": "의미한다.", "type": "", "begin": 35, "end": 38}
            ], 
            "NE": [
                {"id": 0, "text": "거문고", "type": "AF_MUSICAL_INSTRUMENT", "begin": 3, "end": 3, "weight": 0.312177, "common_noun": 0}, 
                {"id": 1, "text": "한자어", "type": "CV_LANGUAGE", "begin": 15, "end": 16, "weight": 0.67715, "common_noun": 0}
            ], 
            "chunk": [], 
            "dependency": [
                {"id": 0, "text": "이것은", "head": 8, "label": "NP_SBJ", "mod": [], "weight": 0.756044}, 
                {"id": 1, "text": "본래", "head": 8, "label": "NP_AJT", "mod": [], "weight": 0.389609}, 
                {"id": 2, "text": "거문고의", "head": 3, "label": "NP_MOD", "mod": [], "weight": 0.707902}, 
                {"id": 3, "text": "줄을", "head": 5, "label": "NP_OBJ", "mod": [2], "weight": 0.749355}, 
                {"id": 4, "text": "팽팽하게", "head": 5, "label": "VP_AJT", "mod": [], "weight": 0.604549}, 
                {"id": 5, "text": "고쳐", "head": 6, "label": "VP", "mod": [3, 4], "weight": 0.768473}, 
                {"id": 6, "text": "맨다는", "head": 7, "label": "VP_MOD", "mod": [5], "weight": 0.135812}, 
                {"id": 7, "text": "뜻의", "head": 8, "label": "NP_MOD", "mod": [6], "weight": 0.731107}, 
                {"id": 8, "text": "한자어로", "head": 17, "label": "NP_AJT", "mod": [7, 0, 1], "weight": 0.766616}, 
                {"id": 9, "text": "사회적", "head": 10, "label": "NP", "mod": [], "weight": 0.408403}, 
                {"id": 10, "text": "정치적으로", "head": 11, "label": "NP_AJT", "mod": [9], "weight": 0.269671}, 
                {"id": 11, "text": "묵은", "head": 12, "label": "VP_MOD", "mod": [10], "weight": 0.540577}, 
                {"id": 12, "text": "제도를", "head": 13, "label": "NP_OBJ", "mod": [11], "weight": 0.83805}, 
                {"id": 13, "text": "고쳐", "head": 15, "label": "VP", "mod": [12], "weight": 0.290449}, 
                {"id": 14, "text": "새롭게", "head": 15, "label": "VP_AJT", "mod": [], "weight": 0.452324}, 
                {"id": 15, "text": "하는", "head": 16, "label": "VP_MOD", "mod": [13, 14], "weight": 0.851168}, 
                {"id": 16, "text": "것을", "head": 17, "label": "NP_OBJ", "mod": [15], "weight": 0.75084}, 
                {"id": 17, "text": "의미한다.", "head": -1, "label": "VP", "mod": [16, 8], "weight": 2.09086e-05}
            ], 
            "SRL": [
                {"verb": "팽팽하", "sense": 1, "word_id": 4, "weight": 0, "argument": [
                    {"type": "ARG1", "word_id": 3, "text": "줄을", "weight": 1}
                ]}, 
                {"verb": "고치", "sense": 1, "word_id": 5, "weight": 0.215104, "argument": [
                    {"type": "ARG1", "word_id": 3, "text": "줄을", "weight": 0.282371}, 
                    {"type": "ARGM-MNR", "word_id": 4, "text": "팽팽하게", "weight": 0.147838}
                ]}, 
                {"verb": "매", "sense": 1, "word_id": 6, "weight": 0.0661401, "argument": [
                    {"type": "ARGM-MNR", "word_id": 5, "text": "고쳐", "weight": 0.0661401}, 
                    {"type": "ARG1", "word_id": 3, "text": "줄을", "weight": 1}
                ]}, 
                {"verb": "묵", "sense": 1, "word_id": 11, "weight": 0.0944149, "argument": [
                    {"type": "ARGM-PRD", "word_id": 10, "text": "정치적으로", "weight": 1}, 
                    {"type": "ARG1", "word_id": 12, "text": "제도를", "weight": 1}
                ]}, 
                {"verb": "고치", "sense": 1, "word_id": 13, "weight": 0.222534, "argument": [
                    {"type": "ARG1", "word_id": 12, "text": "제도를", "weight": 0.316585}
                ]}, 
                {"verb": "하", "sense": 4, "word_id": 15, "weight": 0.123744, "argument": [
                    {"type": "ARGM-MNR", "word_id": 13, "text": "고쳐", "weight": 1}, 
                    {"type": "ARG1", "word_id": 14, "text": "새롭게", "weight": 0.113085}
                ]}, 
                {"verb": "의미", "sense": 1, "word_id": 17, "weight": 0.253979, "argument": [
                    {"type": "ARG1", "word_id": 0, "text": "이것은", "weight": 0.171563}, 
                    {"type": "ARG2", "word_id": 16, "text": "것을", "weight": 0.336394}, 
                    {"type": "ARGM-MNR", "word_id": 8, "text": "한자어로", "weight": 1}
                ]}
            ], 
            "relation": [], 
            "SA": [], 
            "ZA": []
        }, 
        {
            "id": 1, 
            "reserve_str": "", 
            "text": "1894년 갑오개혁을 갑오 ‘이것’이라고도 하는데 이것은 무엇일까? ", 
            "morp": [
                {"id": 0, "lemma": "1894", "type": "SN", "position": 174, "weight": 1}, 
                {"id": 1, "lemma": "년", "type": "NNB", "position": 178, "weight": 0.414343}, 
                {"id": 2, "lemma": "갑오", "type": "NNG", "position": 182, "weight": 0.9}, 
                {"id": 3, "lemma": "개혁", "type": "NNG", "position": 188, "weight": 0.9}, 
                {"id": 4, "lemma": "을", "type": "JKO", "position": 194, "weight": 0.129611}, 
                {"id": 5, "lemma": "갑오", "type": "NNG", "position": 198, "weight": 0.9}, 
                {"id": 6, "lemma": "‘", "type": "SS", "position": 205, "weight": 1}, 
                {"id": 7, "lemma": "이것", "type": "NP", "position": 208, "weight": 0.0186277}, 
                {"id": 8, "lemma": "’", "type": "SS", "position": 214, "weight": 1}, 
                {"id": 9, "lemma": "이라고", "type": "JKQ", "position": 217, "weight": 0.0202133}, 
                {"id": 10, "lemma": "도", "type": "JX", "position": 226, "weight": 0.0188913}, 
                {"id": 11, "lemma": "하", "type": "VV", "position": 230, "weight": 0.0910671}, 
                {"id": 12, "lemma": "는데", "type": "EC", "position": 233, "weight": 0.410685}, 
                {"id": 13, "lemma": "이것", "type": "NP", "position": 240, "weight": 0.0259829}, 
                {"id": 14, "lemma": "은", "type": "JX", "position": 246, "weight": 0.191811}, 
                {"id": 15, "lemma": "무엇", "type": "NP", "position": 250, "weight": 0.9}, 
                {"id": 16, "lemma": "이", "type": "VCP", "position": 256, "weight": 0.0175768}, 
                {"id": 17, "lemma": "ㄹ까", "type": "EF", "position": 256, "weight": 0.258243}, 
                {"id": 18, "lemma": "?", "type": "SF", "position": 262, "weight": 1}
            ], 
            "morp_eval": [], 
            "WSD": [
                {"id": 0, "text": "1894", "type": "SN", "scode": "000000", "weight": 1, "position": 174, "begin": 0, "end": 0}, 
                {"id": 1, "text": "년", "type": "NNB", "scode": "020000", "weight": 0.166667, "position": 178, "begin": 1, "end": 1}, 
                {"id": 2, "text": "갑오개혁", "type": "NNG", "scode": "000000", "weight": 1, "position": 182, "begin": 2, "end": 3}, 
                {"id": 3, "text": "을", "type": "JKO", "scode": "000000", "weight": 1, "position": 194, "begin": 4, "end": 4}, 
                {"id": 4, "text": "갑오", "type": "NNG", "scode": "000000", "weight": 1, "position": 198, "begin": 5, "end": 5}, 
                {"id": 5, "text": "‘", "type": "SS", "scode": "000000", "weight": 1, "position": 205, "begin": 6, "end": 6}, 
                {"id": 6, "text": "이것", "type": "NP", "scode": "000001", "weight": 0.25, "position": 208, "begin": 7, "end": 7}, 
                {"id": 7, "text": "’", "type": "SS", "scode": "000000", "weight": 1, "position": 214, "begin": 8, "end": 8}, 
                {"id": 8, "text": "이라고", "type": "JKQ", "scode": "000000", "weight": 1, "position": 217, "begin": 9, "end": 9}, 
                {"id": 9, "text": "도", "type": "JX", "scode": "000000", "weight": 1, "position": 226, "begin": 10, "end": 10}, 
                {"id": 10, "text": "하", "type": "VV", "scode": "010101", "weight": 0.02, "position": 230, "begin": 11, "end": 11}, 
                {"id": 11, "text": "는데", "type": "EC", "scode": "000000", "weight": 1, "position": 233, "begin": 12, "end": 12}, 
                {"id": 12, "text": "이것", "type": "NP", "scode": "000001", "weight": 0.25, "position": 240, "begin": 13, "end": 13}, 
                {"id": 13, "text": "은", "type": "JX", "scode": "000000", "weight": 1, "position": 246, "begin": 14, "end": 14}, 
                {"id": 14, "text": "무엇", "type": "NP", "scode": "000001", "weight": 0.5, "position": 250, "begin": 15, "end": 15}, 
                {"id": 15, "text": "이", "type": "VCP", "scode": "030000", "weight": 0.0172414, "position": 256, "begin": 16, "end": 16}, 
                {"id": 16, "text": "ㄹ까", "type": "EF", "scode": "000000", "weight": 1, "position": 256, "begin": 17, "end": 17}, 
                {"id": 17, "text": "?", "type": "SF", "scode": "000000", "weight": 1, "position": 262, "begin": 18, "end": 18}
            ], 
            "word": [
                {"id": 0, "text": "1894년", "type": "", "begin": 0, "end": 1}, 
                {"id": 1, "text": "갑오개혁을", "type": "", "begin": 2, "end": 4}, 
                {"id": 2, "text": "갑오", "type": "", "begin": 5, "end": 5}, 
                {"id": 3, "text": "‘이것’이라고도", "type": "", "begin": 6, "end": 10}, 
                {"id": 4, "text": "하는데", "type": "", "begin": 11, "end": 12}, 
                {"id": 5, "text": "이것은", "type": "", "begin": 13, "end": 14}, 
                {"id": 6, "text": "무엇일까?", "type": "", "begin": 15, "end": 18}
            ], 
            "NE": [
                {"id": 0, "text": "1894년", "type": "DT_YEAR", "begin": 0, "end": 1, "weight": 0.782294, "common_noun": 0}, 
                {"id": 1, "text": "갑오개혁", "type": "EV_ACTIVITY", "begin": 2, "end": 3, "weight": 0.557249, "common_noun": 0}
            ], 
            "chunk": [], 
            "dependency": [
                {"id": 0, "text": "1894년", "head": 1, "label": "NP", "mod": [], "weight": 0.0825663}, 
                {"id": 1, "text": "갑오개혁을", "head": 4, "label": "NP_OBJ", "mod": [0], "weight": 0.797087}, 
                {"id": 2, "text": "갑오", "head": 3, "label": "NP", "mod": [], "weight": 0.027521}, 
                {"id": 3, "text": "‘이것’이라고도", "head": 4, "label": "VNP_CMP", "mod": [2], "weight": 0.205653}, 
                {"id": 4, "text": "하는데", "head": 6, "label": "VP", "mod": [1, 3], "weight": 0.772043}, 
                {"id": 5, "text": "이것은", "head": 6, "label": "NP_SBJ", "mod": [], "weight": 0.826106}, 
                {"id": 6, "text": "무엇일까?", "head": -1, "label": "VNP", "mod": [4, 5], "weight": 0.000191839}
            ], 
            "SRL": [
                {"verb": "하", "sense": 2, "word_id": 4, "weight": 0.153998, "argument": [
                    {"type": "ARG1", "word_id": 1, "text": "갑오개혁을", "weight": 0.19199}, 
                    {"type": "ARG2", "word_id": 3, "text": "‘이것’이라고도", "weight": 1}, 
                    {"type": "ARGM-TMP", "word_id": 0, "text": "1894년", "weight": 1}
                ]}
            ], 
            "relation": [], 
            "SA": [], 
            "ZA": []
        }
    ], 
    "entity": [
        {"id": 0, "type": "CV_LANGUAGE", "number": "singular", "gender": "", "person": "", "animacy": "thing", "mention": [
            {"id": 0, "sent_id": 0, "start_eid": 0, "end_eid": 0, "ne_id": -1, "text": "이것은", "start_eid_short": 0, "end_eid_short": 0, "text_short": "이것은"}, 
            {"id": 1, "sent_id": 0, "start_eid": 1, "end_eid": 8, "ne_id": 1, "text": "본래 거문고의 줄을 팽팽하게 고쳐 맨다는 뜻의 한자어로", "start_eid_short": 8, "end_eid_short": 8, "text_short": "한자어로"}, 
            {"id": 2, "sent_id": 0, "start_eid": 1, "end_eid": 7, "ne_id": -1, "text": "본래 거문고의 줄을 팽팽하게 고쳐 맨다는 뜻의", "start_eid_short": 7, "end_eid_short": 7, "text_short": "뜻의"}, 
            {"id": 5, "sent_id": 0, "start_eid": 9, "end_eid": 16, "ne_id": -1, "text": "사회적 정치적으로 묵은 제도를 고쳐 새롭게 하는 것을", "start_eid_short": 16, "end_eid_short": 16, "text_short": "것을"}, 
            {"id": 12, "sent_id": 1, "start_eid": 3, "end_eid": 3, "ne_id": -1, "text": "‘이것’이라고도", "start_eid_short": 3, "end_eid_short": 3, "text_short": "‘이것’이라고도"}, 
            {"id": 13, "sent_id": 1, "start_eid": 5, "end_eid": 5, "ne_id": -1, "text": "이것은", "start_eid_short": 5, "end_eid_short": 5, "text_short": "이것은"}, 
            {"id": 14, "sent_id": 1, "start_eid": 6, "end_eid": 6, "ne_id": -1, "text": "무엇일까?", "start_eid_short": 6, "end_eid_short": 6, "text_short": "무엇일까?"}
        ]}, 
        {"id": 1, "type": "", "number": "singular", "gender": "", "person": "", "animacy": "thing", "mention": [
            {"id": 3, "sent_id": 0, "start_eid": 2, "end_eid": 3, "ne_id": -1, "text": "거문고의 줄을", "start_eid_short": 3, "end_eid_short": 3, "text_short": "줄을"}
        ]}, 
        {"id": 2, "type": "AF_MUSICAL_INSTRUMENT", "number": "singular", "gender": "", "person": "", "animacy": "thing", "mention": [
            {"id": 4, "sent_id": 0, "start_eid": 2, "end_eid": 2, "ne_id": 0, "text": "거문고의", "start_eid_short": 2, "end_eid_short": 2, "text_short": "거문고의"}
        ]}, 
        {"id": 3, "type": "", "number": "singular", "gender": "", "person": "", "animacy": "thing", "mention": [
            {"id": 6, "sent_id": 0, "start_eid": 9, "end_eid": 12, "ne_id": -1, "text": "사회적 정치적으로 묵은 제도를", "start_eid_short": 12, "end_eid_short": 12, "text_short": "제도를"}
        ]}, 
        {"id": 4, "type": "", "number": "singular", "gender": "", "person": "", "animacy": "thing", "mention": [
            {"id": 7, "sent_id": 0, "start_eid": 9, "end_eid": 10, "ne_id": -1, "text": "사회적 정치적으로", "start_eid_short": 9, "end_eid_short": 10, "text_short": "사회적 정치적으로"}
        ]}, 
        {"id": 5, "type": "", "number": "singular", "gender": "", "person": "", "animacy": "thing", "mention": [
            {"id": 8, "sent_id": 0, "start_eid": 9, "end_eid": 9, "ne_id": -1, "text": "사회적", "start_eid_short": 9, "end_eid_short": 9, "text_short": "사회적"}
        ]}, 
        {"id": 6, "type": "EV_ACTIVITY", "number": "singular", "gender": "", "person": "", "animacy": "thing", "mention": [
            {"id": 9, "sent_id": 1, "start_eid": 0, "end_eid": 1, "ne_id": 1, "text": "1894년 갑오개혁을", "start_eid_short": 0, "end_eid_short": 1, "text_short": "1894년 갑오개혁을"}
        ]}, 
        {"id": 7, "type": "DT_YEAR", "number": "singular", "gender": "", "person": "", "animacy": "time", "mention": [
            {"id": 10, "sent_id": 1, "start_eid": 0, "end_eid": 0, "ne_id": 0, "text": "1894년", "start_eid_short": 0, "end_eid_short": 0, "text_short": "1894년"}
        ]}, 
        {"id": 8, "type": "DT_YEAR", "number": "singular", "gender": "", "person": "", "animacy": "time", "mention": [
            {"id": 11, "sent_id": 1, "start_eid": 2, "end_eid": 2, "ne_id": 2, "text": "갑오", "start_eid_short": 2, "end_eid_short": 2, "text_short": "갑오"}
        ]}
    ]
}