{
    "doc_id": "E2016.788.19_A_02.json", 
    "DCT": "", 
    "category": "", 
    "category_weight": 0, 
    "title": {
        "text": "열국지", 
        "NE": ""
    }, 
    "metaInfo": {}, 
    "sentence": [
        {
            "id": 0, 
            "reserve_str": "", 
            "text": "명나라 말기의 문장가 풍몽룡(馮夢龍)이 민간에 전해져오던 판본을 개작해 현재의 형태로 완성했다.", 
            "morp": [
                {"id": 0, "lemma": "명", "type": "NNP", "position": 0, "weight": 0.0136623}, 
                {"id": 1, "lemma": "나라", "type": "NNG", "position": 0, "weight": 0.0136623}, 
                {"id": 2, "lemma": "말기", "type": "NNG", "position": 10, "weight": 0.9}, 
                {"id": 3, "lemma": "의", "type": "JKG", "position": 16, "weight": 0.0694213}, 
                {"id": 4, "lemma": "문장", "type": "NNG", "position": 20, "weight": 0.869434}, 
                {"id": 5, "lemma": "가", "type": "XSN", "position": 26, "weight": 0.000115417}, 
                {"id": 6, "lemma": "풍몽룡", "type": "NNP", "position": 30, "weight": 0.05}, 
                {"id": 7, "lemma": "(", "type": "SS", "position": 39, "weight": 1}, 
                {"id": 8, "lemma": "馮夢龍", "type": "SH", "position": 40, "weight": 1}, 
                {"id": 9, "lemma": ")", "type": "SS", "position": 49, "weight": 1}, 
                {"id": 10, "lemma": "이", "type": "JKS", "position": 50, "weight": 0.00786134}, 
                {"id": 11, "lemma": "민간", "type": "NNG", "position": 54, "weight": 0.9}, 
                {"id": 12, "lemma": "에", "type": "JKB", "position": 60, "weight": 0.153364}, 
                {"id": 13, "lemma": "전하", "type": "VV", "position": 64, "weight": 0.420227}, 
                {"id": 14, "lemma": "여", "type": "EC", "position": 67, "weight": 0.41831}, 
                {"id": 15, "lemma": "지", "type": "VX", "position": 67, "weight": 0.0539764}, 
                {"id": 16, "lemma": "어", "type": "EC", "position": 67, "weight": 0.257443}, 
                {"id": 17, "lemma": "오", "type": "VX", "position": 73, "weight": 0.0910275}, 
                {"id": 18, "lemma": "던", "type": "ETM", "position": 76, "weight": 0.315776}, 
                {"id": 19, "lemma": "판본", "type": "NNG", "position": 80, "weight": 0.9}, 
                {"id": 20, "lemma": "을", "type": "JKO", "position": 86, "weight": 0.129611}, 
                {"id": 21, "lemma": "개작", "type": "NNG", "position": 90, "weight": 0.9}, 
                {"id": 22, "lemma": "하", "type": "XSV", "position": 96, "weight": 0.0001}, 
                {"id": 23, "lemma": "아", "type": "EC", "position": 96, "weight": 0.361326}, 
                {"id": 24, "lemma": "현재", "type": "NNG", "position": 100, "weight": 0.0882271}, 
                {"id": 25, "lemma": "의", "type": "JKG", "position": 106, "weight": 0.0694213}, 
                {"id": 26, "lemma": "형태", "type": "NNG", "position": 110, "weight": 0.869758}, 
                {"id": 27, "lemma": "로", "type": "JKB", "position": 116, "weight": 0.153229}, 
                {"id": 28, "lemma": "완성", "type": "NNG", "position": 120, "weight": 0.9}, 
                {"id": 29, "lemma": "하", "type": "XSV", "position": 126, "weight": 0.0001}, 
                {"id": 30, "lemma": "았", "type": "EP", "position": 126, "weight": 0.9}, 
                {"id": 31, "lemma": "다", "type": "EF", "position": 129, "weight": 0.640954}, 
                {"id": 32, "lemma": ".", "type": "SF", "position": 132, "weight": 1}
            ], 
            "morp_eval": [], 
            "WSD": [
                {"id": 0, "text": "명나라", "type": "NNP", "scode": "000000", "weight": 1, "position": 0, "begin": 0, "end": 1}, 
                {"id": 1, "text": "말기", "type": "NNG", "scode": "050000", "weight": 0.2, "position": 10, "begin": 2, "end": 2}, 
                {"id": 2, "text": "의", "type": "JKG", "scode": "000000", "weight": 1, "position": 16, "begin": 3, "end": 3}, 
                {"id": 3, "text": "문장가", "type": "NNG", "scode": "000000", "weight": 1, "position": 20, "begin": 4, "end": 5}, 
                {"id": 4, "text": "풍몽룡", "type": "NNP", "scode": "000000", "weight": 0, "position": 30, "begin": 6, "end": 6}, 
                {"id": 5, "text": "(", "type": "SS", "scode": "000000", "weight": 1, "position": 39, "begin": 7, "end": 7}, 
                {"id": 6, "text": "馮夢龍", "type": "SH", "scode": "000000", "weight": 1, "position": 40, "begin": 8, "end": 8}, 
                {"id": 7, "text": ")", "type": "SS", "scode": "000000", "weight": 1, "position": 49, "begin": 9, "end": 9}, 
                {"id": 8, "text": "이", "type": "JKS", "scode": "000000", "weight": 1, "position": 50, "begin": 10, "end": 10}, 
                {"id": 9, "text": "민간", "type": "NNG", "scode": "000001", "weight": 0.5, "position": 54, "begin": 11, "end": 11}, 
                {"id": 10, "text": "에", "type": "JKB", "scode": "000000", "weight": 1, "position": 60, "begin": 12, "end": 12}, 
                {"id": 11, "text": "전하", "type": "VV", "scode": "000100", "weight": 0.25, "position": 64, "begin": 13, "end": 13}, 
                {"id": 12, "text": "여", "type": "EC", "scode": "000000", "weight": 1, "position": 67, "begin": 14, "end": 14}, 
                {"id": 13, "text": "지", "type": "VX", "scode": "040101", "weight": 0.037037, "position": 67, "begin": 15, "end": 15}, 
                {"id": 14, "text": "어", "type": "EC", "scode": "000000", "weight": 1, "position": 67, "begin": 16, "end": 16}, 
                {"id": 15, "text": "오", "type": "VX", "scode": "010900", "weight": 0.0384615, "position": 73, "begin": 17, "end": 17}, 
                {"id": 16, "text": "던", "type": "ETM", "scode": "000000", "weight": 1, "position": 76, "begin": 18, "end": 18}, 
                {"id": 17, "text": "판본", "type": "NNG", "scode": "000000", "weight": 1, "position": 80, "begin": 19, "end": 19}, 
                {"id": 18, "text": "을", "type": "JKO", "scode": "000000", "weight": 1, "position": 86, "begin": 20, "end": 20}, 
                {"id": 19, "text": "개작하", "type": "VV", "scode": "010000", "weight": 0.5, "position": 90, "begin": 21, "end": 22}, 
                {"id": 20, "text": "아", "type": "EC", "scode": "000000", "weight": 1, "position": 96, "begin": 23, "end": 23}, 
                {"id": 21, "text": "현재", "type": "NNG", "scode": "020001", "weight": 0.0909091, "position": 100, "begin": 24, "end": 24}, 
                {"id": 22, "text": "의", "type": "JKG", "scode": "000000", "weight": 1, "position": 106, "begin": 25, "end": 25}, 
                {"id": 23, "text": "형태", "type": "NNG", "scode": "000002", "weight": 0.25, "position": 110, "begin": 26, "end": 26}, 
                {"id": 24, "text": "로", "type": "JKB", "scode": "000000", "weight": 1, "position": 116, "begin": 27, "end": 27}, 
                {"id": 25, "text": "완성하", "type": "VV", "scode": "010000", "weight": 0.5, "position": 120, "begin": 28, "end": 29}, 
                {"id": 26, "text": "았", "type": "EP", "scode": "000000", "weight": 1, "position": 126, "begin": 30, "end": 30}, 
                {"id": 27, "text": "다", "type": "EF", "scode": "000000", "weight": 1, "position": 129, "begin": 31, "end": 31}, 
                {"id": 28, "text": ".", "type": "SF", "scode": "000000", "weight": 1, "position": 132, "begin": 32, "end": 32}
            ], 
            "word": [
                {"id": 0, "text": "명나라", "type": "", "begin": 0, "end": 1}, 
                {"id": 1, "text": "말기의", "type": "", "begin": 2, "end": 3}, 
                {"id": 2, "text": "문장가", "type": "", "begin": 4, "end": 5}, 
                {"id": 3, "text": "풍몽룡(馮夢龍)이", "type": "", "begin": 6, "end": 10}, 
                {"id": 4, "text": "민간에", "type": "", "begin": 11, "end": 12}, 
                {"id": 5, "text": "전해져오던", "type": "", "begin": 13, "end": 18}, 
                {"id": 6, "text": "판본을", "type": "", "begin": 19, "end": 20}, 
                {"id": 7, "text": "개작해", "type": "", "begin": 21, "end": 23}, 
                {"id": 8, "text": "현재의", "type": "", "begin": 24, "end": 25}, 
                {"id": 9, "text": "형태로", "type": "", "begin": 26, "end": 27}, 
                {"id": 10, "text": "완성했다.", "type": "", "begin": 28, "end": 32}
            ], 
            "NE": [
                {"id": 0, "text": "명나라 말기", "type": "DT_DYNASTY", "begin": 0, "end": 2, "weight": 0.858219, "common_noun": 0}, 
                {"id": 1, "text": "문장가", "type": "CV_OCCUPATION", "begin": 4, "end": 5, "weight": 0.571418, "common_noun": 0}, 
                {"id": 2, "text": "풍몽룡", "type": "PS_NAME", "begin": 6, "end": 6, "weight": 0.411376, "common_noun": 0}, 
                {"id": 3, "text": "馮夢龍", "type": "PS_NAME", "begin": 8, "end": 8, "weight": 1, "common_noun": 0}
            ], 
            "chunk": [], 
            "dependency": [
                {"id": 0, "text": "명나라", "head": 1, "label": "NP", "mod": [], "weight": 0.601285}, 
                {"id": 1, "text": "말기의", "head": 2, "label": "NP_MOD", "mod": [0], "weight": 0.562022}, 
                {"id": 2, "text": "문장가", "head": 3, "label": "NP", "mod": [1], "weight": 0.700405}, 
                {"id": 3, "text": "풍몽룡(馮夢龍)이", "head": 7, "label": "NP_SBJ", "mod": [2], "weight": 0.281159}, 
                {"id": 4, "text": "민간에", "head": 5, "label": "NP_AJT", "mod": [], "weight": 0.81967}, 
                {"id": 5, "text": "전해져오던", "head": 6, "label": "VP_MOD", "mod": [4], "weight": 0.833426}, 
                {"id": 6, "text": "판본을", "head": 7, "label": "NP_OBJ", "mod": [5], "weight": 0.895819}, 
                {"id": 7, "text": "개작해", "head": 10, "label": "VP", "mod": [6, 3], "weight": 0.795995}, 
                {"id": 8, "text": "현재의", "head": 9, "label": "NP_MOD", "mod": [], "weight": 0.695075}, 
                {"id": 9, "text": "형태로", "head": 10, "label": "NP_AJT", "mod": [8], "weight": 0.819348}, 
                {"id": 10, "text": "완성했다.", "head": -1, "label": "VP", "mod": [7, 9], "weight": 0.015918}
            ], 
            "SRL": [
                {"verb": "전하", "sense": 1, "word_id": 5, "weight": 0.174041, "argument": [
                    {"type": "ARG2", "word_id": 4, "text": "민간에", "weight": 0.0971552}, 
                    {"type": "ARG1", "word_id": 6, "text": "판본을", "weight": 0.178629}
                ]}, 
                {"verb": "개작", "sense": 1, "word_id": 7, "weight": 0.267165, "argument": [
                    {"type": "ARG1", "word_id": 6, "text": "판본을", "weight": 0.267165}, 
                    {"type": "ARG0", "word_id": 3, "text": "풍몽룡(馮夢龍)이", "weight": 1}
                ]}, 
                {"verb": "완성", "sense": 1, "word_id": 10, "weight": 0.105956, "argument": [
                    {"type": "ARGM-PRD", "word_id": 9, "text": "형태로", "weight": 0.105956}, 
                    {"type": "ARG0", "word_id": 3, "text": "풍몽룡(馮夢龍)이", "weight": 1}
                ]}
            ], 
            "relation": [], 
            "SA": [], 
            "ZA": []
        }
    ], 
    "entity": [
        {"id": 0, "type": "CV_OCCUPATION", "number": "singular", "gender": "", "person": "", "animacy": "thing", "mention": [
            {"id": 0, "sent_id": 0, "start_eid": 0, "end_eid": 3, "ne_id": 2, "text": "명나라 말기의 문장가 풍몽룡(馮夢龍)이", "start_eid_short": 3, "end_eid_short": 3, "text_short": "풍몽룡(馮夢龍)이"}, 
            {"id": 1, "sent_id": 0, "start_eid": 0, "end_eid": 2, "ne_id": 1, "text": "명나라 말기의 문장가", "start_eid_short": 2, "end_eid_short": 2, "text_short": "문장가"}
        ]}, 
        {"id": 1, "type": "DT_DYNASTY", "number": "singular", "gender": "", "person": "", "animacy": "time", "mention": [
            {"id": 2, "sent_id": 0, "start_eid": 0, "end_eid": 1, "ne_id": 0, "text": "명나라 말기의", "start_eid_short": 0, "end_eid_short": 1, "text_short": "명나라 말기의"}
        ]}, 
        {"id": 2, "type": "", "number": "singular", "gender": "", "person": "", "animacy": "thing", "mention": [
            {"id": 3, "sent_id": 0, "start_eid": 4, "end_eid": 6, "ne_id": -1, "text": "민간에 전해져오던 판본을", "start_eid_short": 6, "end_eid_short": 6, "text_short": "판본을"}
        ]}, 
        {"id": 3, "type": "", "number": "singular", "gender": "", "person": "", "animacy": "thing", "mention": [
            {"id": 4, "sent_id": 0, "start_eid": 4, "end_eid": 4, "ne_id": -1, "text": "민간에", "start_eid_short": 4, "end_eid_short": 4, "text_short": "민간에"}
        ]}, 
        {"id": 4, "type": "", "number": "singular", "gender": "", "person": "", "animacy": "thing", "mention": [
            {"id": 5, "sent_id": 0, "start_eid": 8, "end_eid": 9, "ne_id": -1, "text": "현재의 형태로", "start_eid_short": 9, "end_eid_short": 9, "text_short": "형태로"}
        ]}, 
        {"id": 5, "type": "", "number": "singular", "gender": "", "person": "", "animacy": "thing", "mention": [
            {"id": 6, "sent_id": 0, "start_eid": 8, "end_eid": 8, "ne_id": -1, "text": "현재의", "start_eid_short": 8, "end_eid_short": 8, "text_short": "현재의"}
        ]}
    ]
}