{
    "doc_id": "E2016.837.08_Q_01.json", 
    "DCT": "", 
    "category": "", 
    "category_weight": 0, 
    "title": {
        "text": "", 
        "NE": ""
    }, 
    "metaInfo": {}, 
    "sentence": [
        {
            "id": 0, 
            "reserve_str": "", 
            "text": "하늘의 북극 가까이에 있어 예로부터 북쪽 방위를 찾는 길잡이 구실을 해왔다.", 
            "morp": [
                {"id": 0, "lemma": "하늘", "type": "NNG", "position": 0, "weight": 0.437876}, 
                {"id": 1, "lemma": "의", "type": "JKG", "position": 6, "weight": 0.0694213}, 
                {"id": 2, "lemma": "북극", "type": "NNG", "position": 10, "weight": 0.781293}, 
                {"id": 3, "lemma": "가까이", "type": "NNG", "position": 17, "weight": 0.0496584}, 
                {"id": 4, "lemma": "에", "type": "JKB", "position": 26, "weight": 0.153364}, 
                {"id": 5, "lemma": "있", "type": "VA", "position": 30, "weight": 0.037292}, 
                {"id": 6, "lemma": "어", "type": "EC", "position": 33, "weight": 0.311591}, 
                {"id": 7, "lemma": "예", "type": "NNG", "position": 37, "weight": 0.183297}, 
                {"id": 8, "lemma": "로부터", "type": "JKB", "position": 40, "weight": 0.151826}, 
                {"id": 9, "lemma": "북쪽", "type": "NNG", "position": 50, "weight": 0.9}, 
                {"id": 10, "lemma": "방위", "type": "NNG", "position": 57, "weight": 0.9}, 
                {"id": 11, "lemma": "를", "type": "JKO", "position": 63, "weight": 0.137686}, 
                {"id": 12, "lemma": "찾", "type": "VV", "position": 67, "weight": 0.778495}, 
                {"id": 13, "lemma": "는", "type": "ETM", "position": 70, "weight": 0.184941}, 
                {"id": 14, "lemma": "길", "type": "NNG", "position": 74, "weight": 0.369575}, 
                {"id": 15, "lemma": "잡이", "type": "XSN", "position": 77, "weight": 0.0323134}, 
                {"id": 16, "lemma": "구실", "type": "NNG", "position": 84, "weight": 0.9}, 
                {"id": 17, "lemma": "을", "type": "JKO", "position": 90, "weight": 0.129611}, 
                {"id": 18, "lemma": "하", "type": "VV", "position": 94, "weight": 0.48169}, 
                {"id": 19, "lemma": "아", "type": "EC", "position": 94, "weight": 0.41831}, 
                {"id": 20, "lemma": "오", "type": "VX", "position": 94, "weight": 0.0910275}, 
                {"id": 21, "lemma": "았", "type": "EP", "position": 94, "weight": 0.9}, 
                {"id": 22, "lemma": "다", "type": "EF", "position": 100, "weight": 0.640954}, 
                {"id": 23, "lemma": ".", "type": "SF", "position": 103, "weight": 1}
            ], 
            "morp_eval": [], 
            "WSD": [
                {"id": 0, "text": "하늘", "type": "NNG", "scode": "010001", "weight": 0.142857, "position": 0, "begin": 0, "end": 0}, 
                {"id": 1, "text": "의", "type": "JKG", "scode": "000000", "weight": 1, "position": 6, "begin": 1, "end": 1}, 
                {"id": 2, "text": "북극", "type": "NNG", "scode": "010002", "weight": 0.25, "position": 10, "begin": 2, "end": 2}, 
                {"id": 3, "text": "가까이", "type": "NNG", "scode": "000200", "weight": 0.25, "position": 17, "begin": 3, "end": 3}, 
                {"id": 4, "text": "에", "type": "JKB", "scode": "000000", "weight": 1, "position": 26, "begin": 4, "end": 4}, 
                {"id": 5, "text": "있", "type": "VA", "scode": "010301", "weight": 0.0416667, "position": 30, "begin": 5, "end": 5}, 
                {"id": 6, "text": "어", "type": "EC", "scode": "000000", "weight": 1, "position": 33, "begin": 6, "end": 6}, 
                {"id": 7, "text": "예", "type": "NNG", "scode": "010000", "weight": 0.037037, "position": 37, "begin": 7, "end": 7}, 
                {"id": 8, "text": "로부터", "type": "JKB", "scode": "000000", "weight": 1, "position": 40, "begin": 8, "end": 8}, 
                {"id": 9, "text": "북쪽", "type": "NNG", "scode": "000001", "weight": 0.5, "position": 50, "begin": 9, "end": 9}, 
                {"id": 10, "text": "방위", "type": "NNG", "scode": "010001", "weight": 0.2, "position": 57, "begin": 10, "end": 10}, 
                {"id": 11, "text": "를", "type": "JKO", "scode": "000000", "weight": 1, "position": 63, "begin": 11, "end": 11}, 
                {"id": 12, "text": "찾", "type": "VV", "scode": "000101", "weight": 0.125, "position": 67, "begin": 12, "end": 12}, 
                {"id": 13, "text": "는", "type": "ETM", "scode": "000000", "weight": 1, "position": 70, "begin": 13, "end": 13}, 
                {"id": 14, "text": "길잡이", "type": "NNG", "scode": "000001", "weight": 0.5, "position": 74, "begin": 14, "end": 15}, 
                {"id": 15, "text": "구실", "type": "NNG", "scode": "010001", "weight": 0.142857, "position": 84, "begin": 16, "end": 16}, 
                {"id": 16, "text": "을", "type": "JKO", "scode": "000000", "weight": 1, "position": 90, "begin": 17, "end": 17}, 
                {"id": 17, "text": "하", "type": "VV", "scode": "010101", "weight": 0.02, "position": 94, "begin": 18, "end": 18}, 
                {"id": 18, "text": "아", "type": "EC", "scode": "000000", "weight": 1, "position": 94, "begin": 19, "end": 19}, 
                {"id": 19, "text": "오", "type": "VX", "scode": "010900", "weight": 0.0384615, "position": 94, "begin": 20, "end": 20}, 
                {"id": 20, "text": "았", "type": "EP", "scode": "000000", "weight": 1, "position": 94, "begin": 21, "end": 21}, 
                {"id": 21, "text": "다", "type": "EF", "scode": "000000", "weight": 1, "position": 100, "begin": 22, "end": 22}, 
                {"id": 22, "text": ".", "type": "SF", "scode": "000000", "weight": 1, "position": 103, "begin": 23, "end": 23}
            ], 
            "word": [
                {"id": 0, "text": "하늘의", "type": "", "begin": 0, "end": 1}, 
                {"id": 1, "text": "북극", "type": "", "begin": 2, "end": 2}, 
                {"id": 2, "text": "가까이에", "type": "", "begin": 3, "end": 4}, 
                {"id": 3, "text": "있어", "type": "", "begin": 5, "end": 6}, 
                {"id": 4, "text": "예로부터", "type": "", "begin": 7, "end": 8}, 
                {"id": 5, "text": "북쪽", "type": "", "begin": 9, "end": 9}, 
                {"id": 6, "text": "방위를", "type": "", "begin": 10, "end": 11}, 
                {"id": 7, "text": "찾는", "type": "", "begin": 12, "end": 13}, 
                {"id": 8, "text": "길잡이", "type": "", "begin": 14, "end": 15}, 
                {"id": 9, "text": "구실을", "type": "", "begin": 16, "end": 17}, 
                {"id": 10, "text": "해왔다.", "type": "", "begin": 18, "end": 23}
            ], 
            "NE": [
                {"id": 0, "text": "북극", "type": "LCG_CONTINENT", "begin": 2, "end": 2, "weight": 0.497212, "common_noun": 0}, 
                {"id": 1, "text": "북쪽", "type": "TM_DIRECTION", "begin": 9, "end": 9, "weight": 0.606318, "common_noun": 0}
            ], 
            "chunk": [], 
            "dependency": [
                {"id": 0, "text": "하늘의", "head": 1, "label": "NP_MOD", "mod": [], "weight": 0.365557}, 
                {"id": 1, "text": "북극", "head": 2, "label": "NP", "mod": [0], "weight": 0.72173}, 
                {"id": 2, "text": "가까이에", "head": 3, "label": "NP_AJT", "mod": [1], "weight": 0.804533}, 
                {"id": 3, "text": "있어", "head": 10, "label": "VP", "mod": [2], "weight": 0.0635551}, 
                {"id": 4, "text": "예로부터", "head": 10, "label": "NP_AJT", "mod": [], "weight": 0.0802407}, 
                {"id": 5, "text": "북쪽", "head": 6, "label": "NP", "mod": [], "weight": 0.763617}, 
                {"id": 6, "text": "방위를", "head": 7, "label": "NP_OBJ", "mod": [5], "weight": 0.712278}, 
                {"id": 7, "text": "찾는", "head": 8, "label": "VP_MOD", "mod": [6], "weight": 0.65638}, 
                {"id": 8, "text": "길잡이", "head": 9, "label": "NP", "mod": [7], "weight": 0.696123}, 
                {"id": 9, "text": "구실을", "head": 10, "label": "NP_OBJ", "mod": [8], "weight": 0.752713}, 
                {"id": 10, "text": "해왔다.", "head": -1, "label": "VP", "mod": [9, 3, 4], "weight": 0.000128504}
            ], 
            "SRL": [
                {"verb": "있", "sense": 1, "word_id": 3, "weight": 0.224284, "argument": [
                    {"type": "ARG2", "word_id": 2, "text": "가까이에", "weight": 0.224284}
                ]}, 
                {"verb": "찾", "sense": 1, "word_id": 7, "weight": 0.239212, "argument": [
                    {"type": "ARG1", "word_id": 6, "text": "방위를", "weight": 0.239212}, 
                    {"type": "ARGM-TMP", "word_id": 4, "text": "예로부터", "weight": 1}, 
                    {"type": "ARGM-CAU", "word_id": 3, "text": "있어", "weight": 1}
                ]}, 
                {"verb": "하", "sense": 1, "word_id": 10, "weight": 0.216912, "argument": [
                    {"type": "ARG1", "word_id": 9, "text": "구실을", "weight": 0.203337}
                ]}
            ], 
            "relation": [], 
            "SA": [], 
            "ZA": []
        }, 
        {
            "id": 1, 
            "reserve_str": "", 
            "text": "작은곰자리에 속해 있는 별로 '폴라리스'라고도 불리는 이 별은?", 
            "morp": [
                {"id": 0, "lemma": "작은곰자리", "type": "NNG", "position": 104, "weight": 0.55}, 
                {"id": 1, "lemma": "에", "type": "JKB", "position": 119, "weight": 0.153364}, 
                {"id": 2, "lemma": "속하", "type": "VV", "position": 123, "weight": 0.205064}, 
                {"id": 3, "lemma": "아", "type": "EC", "position": 126, "weight": 0.361326}, 
                {"id": 4, "lemma": "있", "type": "VX", "position": 130, "weight": 0.125953}, 
                {"id": 5, "lemma": "는", "type": "ETM", "position": 133, "weight": 0.183966}, 
                {"id": 6, "lemma": "별", "type": "NNG", "position": 137, "weight": 0.00263463}, 
                {"id": 7, "lemma": "로", "type": "JKB", "position": 137, "weight": 0.00263463}, 
                {"id": 8, "lemma": "'", "type": "SS", "position": 144, "weight": 1}, 
                {"id": 9, "lemma": "폴라리스", "type": "NNG", "position": 145, "weight": 0.1}, 
                {"id": 10, "lemma": "'", "type": "SS", "position": 157, "weight": 1}, 
                {"id": 11, "lemma": "라고", "type": "JKQ", "position": 158, "weight": 0.00318431}, 
                {"id": 12, "lemma": "도", "type": "JX", "position": 164, "weight": 0.0188913}, 
                {"id": 13, "lemma": "불리", "type": "VV", "position": 168, "weight": 0.145182}, 
                {"id": 14, "lemma": "는", "type": "ETM", "position": 174, "weight": 0.184941}, 
                {"id": 15, "lemma": "이", "type": "MM", "position": 178, "weight": 0.00060084}, 
                {"id": 16, "lemma": "별", "type": "NNG", "position": 182, "weight": 0.239741}, 
                {"id": 17, "lemma": "은", "type": "JX", "position": 185, "weight": 0.0449928}, 
                {"id": 18, "lemma": "?", "type": "SF", "position": 188, "weight": 1}
            ], 
            "morp_eval": [], 
            "WSD": [
                {"id": 0, "text": "작은곰자리", "type": "NNG", "scode": "000000", "weight": 1, "position": 104, "begin": 0, "end": 0}, 
                {"id": 1, "text": "에", "type": "JKB", "scode": "000000", "weight": 1, "position": 119, "begin": 1, "end": 1}, 
                {"id": 2, "text": "속하", "type": "VV", "scode": "020001", "weight": 0.25, "position": 123, "begin": 2, "end": 2}, 
                {"id": 3, "text": "아", "type": "EC", "scode": "000000", "weight": 1, "position": 126, "begin": 3, "end": 3}, 
                {"id": 4, "text": "있", "type": "VX", "scode": "010901", "weight": 0.0416667, "position": 130, "begin": 4, "end": 4}, 
                {"id": 5, "text": "는", "type": "ETM", "scode": "000000", "weight": 1, "position": 133, "begin": 5, "end": 5}, 
                {"id": 6, "text": "별", "type": "NNG", "scode": "010001", "weight": 0.125, "position": 137, "begin": 6, "end": 6}, 
                {"id": 7, "text": "로", "type": "JKB", "scode": "000000", "weight": 1, "position": 137, "begin": 7, "end": 7}, 
                {"id": 8, "text": "'", "type": "SS", "scode": "000000", "weight": 1, "position": 144, "begin": 8, "end": 8}, 
                {"id": 9, "text": "폴라리스", "type": "NNG", "scode": "000000", "weight": 1, "position": 145, "begin": 9, "end": 9}, 
                {"id": 10, "text": "'", "type": "SS", "scode": "000000", "weight": 1, "position": 157, "begin": 10, "end": 10}, 
                {"id": 11, "text": "라고", "type": "JKQ", "scode": "000000", "weight": 1, "position": 158, "begin": 11, "end": 11}, 
                {"id": 12, "text": "도", "type": "JX", "scode": "000000", "weight": 1, "position": 164, "begin": 12, "end": 12}, 
                {"id": 13, "text": "불리", "type": "VV", "scode": "040300", "weight": 0.0714286, "position": 168, "begin": 13, "end": 13}, 
                {"id": 14, "text": "는", "type": "ETM", "scode": "000000", "weight": 1, "position": 174, "begin": 14, "end": 14}, 
                {"id": 15, "text": "이", "type": "MM", "scode": "050102", "weight": 0.0172414, "position": 178, "begin": 15, "end": 15}, 
                {"id": 16, "text": "별", "type": "NNG", "scode": "010001", "weight": 0.125, "position": 182, "begin": 16, "end": 16}, 
                {"id": 17, "text": "은", "type": "JX", "scode": "000000", "weight": 1, "position": 185, "begin": 17, "end": 17}, 
                {"id": 18, "text": "?", "type": "SF", "scode": "000000", "weight": 1, "position": 188, "begin": 18, "end": 18}
            ], 
            "word": [
                {"id": 0, "text": "작은곰자리에", "type": "", "begin": 0, "end": 1}, 
                {"id": 1, "text": "속해", "type": "", "begin": 2, "end": 3}, 
                {"id": 2, "text": "있는", "type": "", "begin": 4, "end": 5}, 
                {"id": 3, "text": "별로", "type": "", "begin": 6, "end": 7}, 
                {"id": 4, "text": "'폴라리스'라고도", "type": "", "begin": 8, "end": 12}, 
                {"id": 5, "text": "불리는", "type": "", "begin": 13, "end": 14}, 
                {"id": 6, "text": "이", "type": "", "begin": 15, "end": 15}, 
                {"id": 7, "text": "별은?", "type": "", "begin": 16, "end": 18}
            ], 
            "NE": [
                {"id": 0, "text": "작은곰자리", "type": "LC_SPACE", "begin": 0, "end": 0, "weight": 0.132972, "common_noun": 0}, 
                {"id": 1, "text": "폴라리스", "type": "LC_SPACE", "begin": 9, "end": 9, "weight": 0.088393, "common_noun": 0}
            ], 
            "chunk": [], 
            "dependency": [
                {"id": 0, "text": "작은곰자리에", "head": 1, "label": "NP_AJT", "mod": [], "weight": 0.647444}, 
                {"id": 1, "text": "속해", "head": 2, "label": "VP", "mod": [0], "weight": 0.681499}, 
                {"id": 2, "text": "있는", "head": 3, "label": "VP_MOD", "mod": [1], "weight": 0.739528}, 
                {"id": 3, "text": "별로", "head": 5, "label": "NP_AJT", "mod": [2], "weight": 0.755355}, 
                {"id": 4, "text": "'폴라리스'라고도", "head": 5, "label": "VNP_CMP", "mod": [], "weight": 0.246516}, 
                {"id": 5, "text": "불리는", "head": 7, "label": "VP_MOD", "mod": [3, 4], "weight": 0.832762}, 
                {"id": 6, "text": "이", "head": 7, "label": "DP", "mod": [], "weight": 0.696106}, 
                {"id": 7, "text": "별은?", "head": -1, "label": "NP_SBJ", "mod": [5, 6], "weight": 0.0210829}
            ], 
            "SRL": [
                {"verb": "속하", "sense": 1, "word_id": 1, "weight": 0.214213, "argument": [
                    {"type": "ARG2", "word_id": 0, "text": "작은곰자리에", "weight": 0.114403}, 
                    {"type": "AUX", "word_id": 2, "text": "있는", "weight": 0.406242}, 
                    {"type": "ARG1", "word_id": 3, "text": "별로", "weight": 0.121995}
                ]}, 
                {"verb": "부르", "sense": 2, "word_id": 5, "weight": 0.22049, "argument": [
                    {"type": "ARG2", "word_id": 4, "text": "'폴라리스'라고도", "weight": 0.250414}, 
                    {"type": "ARG1", "word_id": 7, "text": "별은?", "weight": 0.190566}
                ]}
            ], 
            "relation": [], 
            "SA": [], 
            "ZA": []
        }
    ], 
    "entity": [
        {"id": 0, "type": "LCG_CONTINENT", "number": "singular", "gender": "", "person": "", "animacy": "place", "mention": [
            {"id": 1, "sent_id": 0, "start_eid": 0, "end_eid": 1, "ne_id": 0, "text": "하늘의 북극", "start_eid_short": 1, "end_eid_short": 1, "text_short": "북극"}
        ]}, 
        {"id": 1, "type": "", "number": "singular", "gender": "", "person": "", "animacy": "thing", "mention": [
            {"id": 2, "sent_id": 0, "start_eid": 0, "end_eid": 0, "ne_id": -1, "text": "하늘의", "start_eid_short": 0, "end_eid_short": 0, "text_short": "하늘의"}
        ]}, 
        {"id": 2, "type": "", "number": "singular", "gender": "", "person": "", "animacy": "thing", "mention": [
            {"id": 0, "sent_id": 0, "start_eid": 0, "end_eid": 2, "ne_id": -1, "text": "하늘의 북극 가까이에", "start_eid_short": 1, "end_eid_short": 2, "text_short": "북극 가까이에"}
        ]}, 
        {"id": 3, "type": "", "number": "singular", "gender": "", "person": "", "animacy": "thing", "mention": [
            {"id": 3, "sent_id": 0, "start_eid": 4, "end_eid": 4, "ne_id": -1, "text": "예로부터", "start_eid_short": 4, "end_eid_short": 4, "text_short": "예로부터"}
        ]}, 
        {"id": 4, "type": "", "number": "singular", "gender": "", "person": "", "animacy": "thing", "mention": [
            {"id": 5, "sent_id": 0, "start_eid": 5, "end_eid": 8, "ne_id": -1, "text": "북쪽 방위를 찾는 길잡이", "start_eid_short": 8, "end_eid_short": 8, "text_short": "길잡이"}
        ]}, 
        {"id": 5, "type": "", "number": "singular", "gender": "", "person": "", "animacy": "thing", "mention": [
            {"id": 6, "sent_id": 0, "start_eid": 5, "end_eid": 6, "ne_id": -1, "text": "북쪽 방위를", "start_eid_short": 5, "end_eid_short": 6, "text_short": "북쪽 방위를"}
        ]}, 
        {"id": 6, "type": "TM_DIRECTION", "number": "singular", "gender": "", "person": "", "animacy": "thing", "mention": [
            {"id": 7, "sent_id": 0, "start_eid": 5, "end_eid": 5, "ne_id": 1, "text": "북쪽", "start_eid_short": 5, "end_eid_short": 5, "text_short": "북쪽"}
        ]}, 
        {"id": 7, "type": "", "number": "singular", "gender": "", "person": "", "animacy": "thing", "mention": [
            {"id": 4, "sent_id": 0, "start_eid": 5, "end_eid": 9, "ne_id": -1, "text": "북쪽 방위를 찾는 길잡이 구실을", "start_eid_short": 8, "end_eid_short": 9, "text_short": "길잡이 구실을"}
        ]}, 
        {"id": 8, "type": "LC_SPACE", "number": "singular", "gender": "", "person": "", "animacy": "place", "mention": [
            {"id": 10, "sent_id": 1, "start_eid": 4, "end_eid": 4, "ne_id": 1, "text": "'폴라리스'라고도", "start_eid_short": 4, "end_eid_short": 4, "text_short": "'폴라리스'라고도"}, 
            {"id": 11, "sent_id": 1, "start_eid": 6, "end_eid": 7, "ne_id": -1, "text": "이 별은?", "start_eid_short": 7, "end_eid_short": 7, "text_short": "별은?"}
        ]}, 
        {"id": 9, "type": "", "number": "singular", "gender": "", "person": "", "animacy": "thing", "mention": [
            {"id": 8, "sent_id": 1, "start_eid": 0, "end_eid": 3, "ne_id": -1, "text": "작은곰자리에 속해 있는 별로", "start_eid_short": 3, "end_eid_short": 3, "text_short": "별로"}
        ]}, 
        {"id": 10, "type": "LC_SPACE", "number": "singular", "gender": "", "person": "", "animacy": "place", "mention": [
            {"id": 9, "sent_id": 1, "start_eid": 0, "end_eid": 0, "ne_id": 0, "text": "작은곰자리에", "start_eid_short": 0, "end_eid_short": 0, "text_short": "작은곰자리에"}
        ]}
    ]
}