{
    "doc_id": "E2016.790.06_A_01.json", 
    "DCT": "", 
    "category": "", 
    "category_weight": 0, 
    "title": {
        "text": "리골레토", 
        "NE": ""
    }, 
    "metaInfo": {}, 
    "sentence": [
        {
            "id": 0, 
            "reserve_str": "", 
            "text": "리골레토 - 만토바 공작의 어릿광대", 
            "morp": [
                {"id": 0, "lemma": "리골레토", "type": "NNP", "position": 0, "weight": 0.0686918}, 
                {"id": 1, "lemma": "-", "type": "SS", "position": 13, "weight": 1}, 
                {"id": 2, "lemma": "만토바", "type": "NNP", "position": 15, "weight": 0.1}, 
                {"id": 3, "lemma": "공작", "type": "NNG", "position": 25, "weight": 0.9}, 
                {"id": 4, "lemma": "의", "type": "JKG", "position": 31, "weight": 0.0694213}, 
                {"id": 5, "lemma": "어릿광대", "type": "NNG", "position": 35, "weight": 0.9}
            ], 
            "morp_eval": [], 
            "WSD": [
                {"id": 0, "text": "리골레토", "type": "NNP", "scode": "020000", "weight": 0.5, "position": 0, "begin": 0, "end": 0}, 
                {"id": 1, "text": "-", "type": "SS", "scode": "000000", "weight": 1, "position": 13, "begin": 1, "end": 1}, 
                {"id": 2, "text": "만토바", "type": "NNP", "scode": "000000", "weight": 0, "position": 15, "begin": 2, "end": 2}, 
                {"id": 3, "text": "공작", "type": "NNG", "scode": "030001", "weight": 0.142857, "position": 25, "begin": 3, "end": 3}, 
                {"id": 4, "text": "의", "type": "JKG", "scode": "000000", "weight": 1, "position": 31, "begin": 4, "end": 4}, 
                {"id": 5, "text": "어릿광대", "type": "NNG", "scode": "000001", "weight": 0.333333, "position": 35, "begin": 5, "end": 5}
            ], 
            "word": [
                {"id": 0, "text": "리골레토", "type": "", "begin": 0, "end": 0}, 
                {"id": 1, "text": "-", "type": "", "begin": 1, "end": 1}, 
                {"id": 2, "text": "만토바", "type": "", "begin": 2, "end": 2}, 
                {"id": 3, "text": "공작의", "type": "", "begin": 3, "end": 4}, 
                {"id": 4, "text": "어릿광대", "type": "", "begin": 5, "end": 5}
            ], 
            "NE": [
                {"id": 0, "text": "리골레토", "type": "AFW_MUSIC", "begin": 0, "end": 0, "weight": 0.177383, "common_noun": 0}, 
                {"id": 1, "text": "만토바", "type": "PS_NAME", "begin": 2, "end": 2, "weight": 0.368485, "common_noun": 0}, 
                {"id": 2, "text": "공작", "type": "CV_POSITION", "begin": 3, "end": 3, "weight": 0.291788, "common_noun": 0}, 
                {"id": 3, "text": "어릿광대", "type": "CV_OCCUPATION", "begin": 5, "end": 5, "weight": 0.213813, "common_noun": 0}
            ], 
            "chunk": [], 
            "dependency": [
                {"id": 0, "text": "리골레토", "head": 1, "label": "NP", "mod": [], "weight": 0.62833}, 
                {"id": 1, "text": "-", "head": 4, "label": "X", "mod": [0], "weight": 0.112306}, 
                {"id": 2, "text": "만토바", "head": 3, "label": "NP", "mod": [], "weight": 0.683607}, 
                {"id": 3, "text": "공작의", "head": 4, "label": "NP_MOD", "mod": [2], "weight": 0.758275}, 
                {"id": 4, "text": "어릿광대", "head": -1, "label": "NP", "mod": [1, 3], "weight": 0.028944}
            ], 
            "SRL": [], 
            "relation": [], 
            "SA": [], 
            "ZA": []
        }
    ], 
    "entity": [
        {"id": 0, "type": "CV_OCCUPATION", "number": "singular", "gender": "", "person": "", "animacy": "thing", "mention": [
            {"id": 0, "sent_id": 0, "start_eid": 0, "end_eid": 4, "ne_id": 2, "text": "리골레토 - 만토바 공작의 어릿광대", "start_eid_short": 4, "end_eid_short": 4, "text_short": "어릿광대"}
        ]}, 
        {"id": 1, "type": "", "number": "singular", "gender": "", "person": "", "animacy": "thing", "mention": [
            {"id": 1, "sent_id": 0, "start_eid": 0, "end_eid": 3, "ne_id": -1, "text": "리골레토 - 만토바 공작의", "start_eid_short": 2, "end_eid_short": 3, "text_short": "만토바 공작의"}
        ]}, 
        {"id": 2, "type": "PS_NAME", "number": "singular", "gender": "", "person": "", "animacy": "human", "mention": [
            {"id": 3, "sent_id": 0, "start_eid": 2, "end_eid": 2, "ne_id": 1, "text": "만토바", "start_eid_short": 2, "end_eid_short": 2, "text_short": "만토바"}
        ]}, 
        {"id": 3, "type": "PS_NAME", "number": "singular", "gender": "", "person": "", "animacy": "human", "mention": [
            {"id": 2, "sent_id": 0, "start_eid": 0, "end_eid": 0, "ne_id": 0, "text": "리골레토", "start_eid_short": 0, "end_eid_short": 0, "text_short": "리골레토"}
        ]}
    ]
}