{
    "doc_id": "E2016.835.23_A_01.json", 
    "DCT": "", 
    "category": "", 
    "category_weight": 0, 
    "title": {
        "text": "미셸 드 몽테뉴", 
        "NE": ""
    }, 
    "metaInfo": {}, 
    "sentence": [
        {
            "id": 0, 
            "reserve_str": "", 
            "text": "미셸 에켐 드 몽테뉴(Michel Eyquem de Montaigne 1533년 2월 28일 - 1592년 9월 13일)는 프랑스 철학자, 사상가, 수필가이다.", 
            "morp": [
                {"id": 0, "lemma": "미셸", "type": "NNP", "position": 0, "weight": 0.9}, 
                {"id": 1, "lemma": "에켐", "type": "NNP", "position": 7, "weight": 0.6}, 
                {"id": 2, "lemma": "드", "type": "NNP", "position": 14, "weight": 0.068295}, 
                {"id": 3, "lemma": "몽테뉴", "type": "NNP", "position": 18, "weight": 0.85}, 
                {"id": 4, "lemma": "(", "type": "SS", "position": 27, "weight": 1}, 
                {"id": 5, "lemma": "Michel", "type": "SL", "position": 28, "weight": 1}, 
                {"id": 6, "lemma": "Eyquem", "type": "SL", "position": 35, "weight": 1}, 
                {"id": 7, "lemma": "de", "type": "SL", "position": 42, "weight": 1}, 
                {"id": 8, "lemma": "Montaigne", "type": "SL", "position": 45, "weight": 1}, 
                {"id": 9, "lemma": "1533", "type": "SN", "position": 55, "weight": 1}, 
                {"id": 10, "lemma": "년", "type": "NNB", "position": 59, "weight": 0.414343}, 
                {"id": 11, "lemma": "2", "type": "SN", "position": 63, "weight": 1}, 
                {"id": 12, "lemma": "월", "type": "NNB", "position": 64, "weight": 0.408539}, 
                {"id": 13, "lemma": "28", "type": "SN", "position": 68, "weight": 1}, 
                {"id": 14, "lemma": "일", "type": "NNB", "position": 70, "weight": 0.126777}, 
                {"id": 15, "lemma": "-", "type": "SO", "position": 74, "weight": 1}, 
                {"id": 16, "lemma": "1592", "type": "SN", "position": 76, "weight": 1}, 
                {"id": 17, "lemma": "년", "type": "NNB", "position": 80, "weight": 0.414343}, 
                {"id": 18, "lemma": "9", "type": "SN", "position": 84, "weight": 1}, 
                {"id": 19, "lemma": "월", "type": "NNB", "position": 85, "weight": 0.408539}, 
                {"id": 20, "lemma": "13", "type": "SN", "position": 89, "weight": 1}, 
                {"id": 21, "lemma": "일", "type": "NNB", "position": 91, "weight": 0.126777}, 
                {"id": 22, "lemma": ")", "type": "SS", "position": 94, "weight": 1}, 
                {"id": 23, "lemma": "는", "type": "JX", "position": 95, "weight": 0.00823314}, 
                {"id": 24, "lemma": "프랑스", "type": "NNP", "position": 99, "weight": 0.0448604}, 
                {"id": 25, "lemma": "철학", "type": "NNG", "position": 109, "weight": 0.9}, 
                {"id": 26, "lemma": "자", "type": "XSN", "position": 115, "weight": 0.00398741}, 
                {"id": 27, "lemma": ",", "type": "SP", "position": 118, "weight": 1}, 
                {"id": 28, "lemma": "사상", "type": "NNG", "position": 120, "weight": 0.529615}, 
                {"id": 29, "lemma": "가", "type": "XSN", "position": 126, "weight": 0.000115417}, 
                {"id": 30, "lemma": ",", "type": "SP", "position": 129, "weight": 1}, 
                {"id": 31, "lemma": "수필", "type": "NNG", "position": 131, "weight": 0.528246}, 
                {"id": 32, "lemma": "가", "type": "XSN", "position": 137, "weight": 0.000115417}, 
                {"id": 33, "lemma": "이", "type": "VCP", "position": 140, "weight": 0.0165001}, 
                {"id": 34, "lemma": "다", "type": "EF", "position": 143, "weight": 0.353579}, 
                {"id": 35, "lemma": ".", "type": "SF", "position": 146, "weight": 1}
            ], 
            "morp_eval": [], 
            "WSD": [
                {"id": 0, "text": "미셸", "type": "NNP", "scode": "000000", "weight": 0, "position": 0, "begin": 0, "end": 0}, 
                {"id": 1, "text": "에켐", "type": "NNP", "scode": "000000", "weight": 0, "position": 7, "begin": 1, "end": 1}, 
                {"id": 2, "text": "드", "type": "NNP", "scode": "000000", "weight": 0.333333, "position": 14, "begin": 2, "end": 2}, 
                {"id": 3, "text": "몽테뉴", "type": "NNP", "scode": "000000", "weight": 1, "position": 18, "begin": 3, "end": 3}, 
                {"id": 4, "text": "(", "type": "SS", "scode": "000000", "weight": 1, "position": 27, "begin": 4, "end": 4}, 
                {"id": 5, "text": "Michel", "type": "SL", "scode": "000000", "weight": 1, "position": 28, "begin": 5, "end": 5}, 
                {"id": 6, "text": "Eyquem", "type": "SL", "scode": "000000", "weight": 1, "position": 35, "begin": 6, "end": 6}, 
                {"id": 7, "text": "de", "type": "SL", "scode": "000000", "weight": 1, "position": 42, "begin": 7, "end": 7}, 
                {"id": 8, "text": "Montaigne", "type": "SL", "scode": "000000", "weight": 1, "position": 45, "begin": 8, "end": 8}, 
                {"id": 9, "text": "1533", "type": "SN", "scode": "000000", "weight": 1, "position": 55, "begin": 9, "end": 9}, 
                {"id": 10, "text": "년", "type": "NNB", "scode": "020000", "weight": 0.166667, "position": 59, "begin": 10, "end": 10}, 
                {"id": 11, "text": "2", "type": "SN", "scode": "000000", "weight": 1, "position": 63, "begin": 11, "end": 11}, 
                {"id": 12, "text": "월", "type": "NNB", "scode": "020100", "weight": 0.125, "position": 64, "begin": 12, "end": 12}, 
                {"id": 13, "text": "28", "type": "SN", "scode": "000000", "weight": 1, "position": 68, "begin": 13, "end": 13}, 
                {"id": 14, "text": "일", "type": "NNB", "scode": "070100", "weight": 0.04, "position": 70, "begin": 14, "end": 14}, 
                {"id": 15, "text": "-", "type": "SO", "scode": "000000", "weight": 1, "position": 74, "begin": 15, "end": 15}, 
                {"id": 16, "text": "1592", "type": "SN", "scode": "000000", "weight": 1, "position": 76, "begin": 16, "end": 16}, 
                {"id": 17, "text": "년", "type": "NNB", "scode": "020000", "weight": 0.166667, "position": 80, "begin": 17, "end": 17}, 
                {"id": 18, "text": "9", "type": "SN", "scode": "000000", "weight": 1, "position": 84, "begin": 18, "end": 18}, 
                {"id": 19, "text": "월", "type": "NNB", "scode": "020100", "weight": 0.125, "position": 85, "begin": 19, "end": 19}, 
                {"id": 20, "text": "13", "type": "SN", "scode": "000000", "weight": 1, "position": 89, "begin": 20, "end": 20}, 
                {"id": 21, "text": "일", "type": "NNB", "scode": "070100", "weight": 0.04, "position": 91, "begin": 21, "end": 21}, 
                {"id": 22, "text": ")", "type": "SS", "scode": "000000", "weight": 1, "position": 94, "begin": 22, "end": 22}, 
                {"id": 23, "text": "는", "type": "JX", "scode": "000000", "weight": 1, "position": 95, "begin": 23, "end": 23}, 
                {"id": 24, "text": "프랑스", "type": "NNP", "scode": "020000", "weight": 0.5, "position": 99, "begin": 24, "end": 24}, 
                {"id": 25, "text": "철학자", "type": "NNG", "scode": "000000", "weight": 1, "position": 109, "begin": 25, "end": 26}, 
                {"id": 26, "text": ",", "type": "SP", "scode": "000000", "weight": 1, "position": 118, "begin": 27, "end": 27}, 
                {"id": 27, "text": "사상가", "type": "NNG", "scode": "000000", "weight": 1, "position": 120, "begin": 28, "end": 29}, 
                {"id": 28, "text": ",", "type": "SP", "scode": "000000", "weight": 1, "position": 129, "begin": 30, "end": 30}, 
                {"id": 29, "text": "수필가", "type": "NNG", "scode": "000000", "weight": 1, "position": 131, "begin": 31, "end": 32}, 
                {"id": 30, "text": "이", "type": "VCP", "scode": "030000", "weight": 0.0172414, "position": 140, "begin": 33, "end": 33}, 
                {"id": 31, "text": "다", "type": "EF", "scode": "000000", "weight": 1, "position": 143, "begin": 34, "end": 34}, 
                {"id": 32, "text": ".", "type": "SF", "scode": "000000", "weight": 1, "position": 146, "begin": 35, "end": 35}
            ], 
            "word": [
                {"id": 0, "text": "미셸", "type": "", "begin": 0, "end": 0}, 
                {"id": 1, "text": "에켐", "type": "", "begin": 1, "end": 1}, 
                {"id": 2, "text": "드", "type": "", "begin": 2, "end": 2}, 
                {"id": 3, "text": "몽테뉴(Michel", "type": "", "begin": 3, "end": 5}, 
                {"id": 4, "text": "Eyquem", "type": "", "begin": 6, "end": 6}, 
                {"id": 5, "text": "de", "type": "", "begin": 7, "end": 7}, 
                {"id": 6, "text": "Montaigne", "type": "", "begin": 8, "end": 8}, 
                {"id": 7, "text": "1533년", "type": "", "begin": 9, "end": 10}, 
                {"id": 8, "text": "2월", "type": "", "begin": 11, "end": 12}, 
                {"id": 9, "text": "28일", "type": "", "begin": 13, "end": 14}, 
                {"id": 10, "text": "-", "type": "", "begin": 15, "end": 15}, 
                {"id": 11, "text": "1592년", "type": "", "begin": 16, "end": 17}, 
                {"id": 12, "text": "9월", "type": "", "begin": 18, "end": 19}, 
                {"id": 13, "text": "13일)는", "type": "", "begin": 20, "end": 23}, 
                {"id": 14, "text": "프랑스", "type": "", "begin": 24, "end": 24}, 
                {"id": 15, "text": "철학자,", "type": "", "begin": 25, "end": 27}, 
                {"id": 16, "text": "사상가,", "type": "", "begin": 28, "end": 30}, 
                {"id": 17, "text": "수필가이다.", "type": "", "begin": 31, "end": 35}
            ], 
            "NE": [
                {"id": 0, "text": "미셸 에켐 드 몽테뉴", "type": "PS_NAME", "begin": 0, "end": 3, "weight": 0.176647, "common_noun": 0}, 
                {"id": 1, "text": "Michel Eyquem de Montaigne", "type": "PS_NAME", "begin": 5, "end": 8, "weight": 0.154077, "common_noun": 0}, 
                {"id": 2, "text": "1533년 2월 28일 - 1592년 9월 13일", "type": "DT_DURATION", "begin": 9, "end": 21, "weight": 0.804636, "common_noun": 0}, 
                {"id": 3, "text": "프랑스", "type": "LCP_COUNTRY", "begin": 24, "end": 24, "weight": 0.258635, "common_noun": 0}, 
                {"id": 4, "text": "철학자", "type": "CV_OCCUPATION", "begin": 25, "end": 26, "weight": 0.669851, "common_noun": 0}, 
                {"id": 5, "text": "사상가", "type": "CV_OCCUPATION", "begin": 28, "end": 29, "weight": 0.590885, "common_noun": 0}, 
                {"id": 6, "text": "수필가", "type": "CV_OCCUPATION", "begin": 31, "end": 32, "weight": 0.674504, "common_noun": 0}
            ], 
            "chunk": [], 
            "dependency": [
                {"id": 0, "text": "미셸", "head": 1, "label": "NP", "mod": [], "weight": 0.548911}, 
                {"id": 1, "text": "에켐", "head": 2, "label": "NP", "mod": [0], "weight": 0.325579}, 
                {"id": 2, "text": "드", "head": 3, "label": "NP", "mod": [1], "weight": 0.613711}, 
                {"id": 3, "text": "몽테뉴(Michel", "head": 4, "label": "NP", "mod": [2], "weight": 0.47666}, 
                {"id": 4, "text": "Eyquem", "head": 5, "label": "NP", "mod": [3], "weight": 0.548011}, 
                {"id": 5, "text": "de", "head": 6, "label": "NP", "mod": [4], "weight": 0.841748}, 
                {"id": 6, "text": "Montaigne", "head": 13, "label": "NP", "mod": [5], "weight": 0.594412}, 
                {"id": 7, "text": "1533년", "head": 8, "label": "NP", "mod": [], "weight": 0.543204}, 
                {"id": 8, "text": "2월", "head": 9, "label": "NP", "mod": [7], "weight": 0.666255}, 
                {"id": 9, "text": "28일", "head": 10, "label": "NP", "mod": [8], "weight": 0.514424}, 
                {"id": 10, "text": "-", "head": 11, "label": "X", "mod": [9], "weight": 0.425893}, 
                {"id": 11, "text": "1592년", "head": 12, "label": "NP", "mod": [10], "weight": 0.696487}, 
                {"id": 12, "text": "9월", "head": 13, "label": "NP", "mod": [11], "weight": 0.791596}, 
                {"id": 13, "text": "13일)는", "head": 17, "label": "NP_SBJ", "mod": [6, 12], "weight": 0.772471}, 
                {"id": 14, "text": "프랑스", "head": 17, "label": "NP", "mod": [], "weight": 0.527204}, 
                {"id": 15, "text": "철학자,", "head": 17, "label": "NP_CNJ", "mod": [], "weight": 0.760132}, 
                {"id": 16, "text": "사상가,", "head": 17, "label": "NP_CNJ", "mod": [], "weight": 0.763151}, 
                {"id": 17, "text": "수필가이다.", "head": -1, "label": "VNP", "mod": [13, 15, 16, 14], "weight": 0.000130515}
            ], 
            "SRL": [], 
            "relation": [], 
            "SA": [], 
            "ZA": []
        }, 
        {
            "id": 1, 
            "reserve_str": "", 
            "text": "1580년 유명한 <수상록>을 완성시켰는데, 그는 이 책에서 인간의 거짓 없는 모습을 그렸다.", 
            "morp": [
                {"id": 0, "lemma": "1580", "type": "SN", "position": 147, "weight": 1}, 
                {"id": 1, "lemma": "년", "type": "NNB", "position": 151, "weight": 0.414343}, 
                {"id": 2, "lemma": "유명", "type": "NNG", "position": 155, "weight": 0.9}, 
                {"id": 3, "lemma": "하", "type": "XSA", "position": 161, "weight": 0.0001}, 
                {"id": 4, "lemma": "ㄴ", "type": "ETM", "position": 161, "weight": 0.488779}, 
                {"id": 5, "lemma": "<", "type": "SS", "position": 165, "weight": 1}, 
                {"id": 6, "lemma": "수상록", "type": "NNP", "position": 166, "weight": 0.9}, 
                {"id": 7, "lemma": ">", "type": "SS", "position": 175, "weight": 1}, 
                {"id": 8, "lemma": "을", "type": "JKO", "position": 176, "weight": 0.0336085}, 
                {"id": 9, "lemma": "완성", "type": "NNG", "position": 180, "weight": 0.9}, 
                {"id": 10, "lemma": "시키", "type": "XSV", "position": 186, "weight": 0.00340357}, 
                {"id": 11, "lemma": "었", "type": "EP", "position": 189, "weight": 0.9}, 
                {"id": 12, "lemma": "는데", "type": "EC", "position": 192, "weight": 0.188154}, 
                {"id": 13, "lemma": ",", "type": "SP", "position": 198, "weight": 1}, 
                {"id": 14, "lemma": "그", "type": "NP", "position": 200, "weight": 0.0222156}, 
                {"id": 15, "lemma": "는", "type": "JX", "position": 203, "weight": 0.122593}, 
                {"id": 16, "lemma": "이", "type": "MM", "position": 207, "weight": 0.00176496}, 
                {"id": 17, "lemma": "책", "type": "NNG", "position": 211, "weight": 0.718743}, 
                {"id": 18, "lemma": "에서", "type": "JKB", "position": 214, "weight": 0.153407}, 
                {"id": 19, "lemma": "인간", "type": "NNG", "position": 221, "weight": 0.9}, 
                {"id": 20, "lemma": "의", "type": "JKG", "position": 227, "weight": 0.0694213}, 
                {"id": 21, "lemma": "거짓", "type": "NNG", "position": 231, "weight": 0.6}, 
                {"id": 22, "lemma": "없", "type": "VA", "position": 231, "weight": 0.6}, 
                {"id": 23, "lemma": "는", "type": "ETM", "position": 240, "weight": 0.0001}, 
                {"id": 24, "lemma": "모습", "type": "NNG", "position": 244, "weight": 0.9}, 
                {"id": 25, "lemma": "을", "type": "JKO", "position": 250, "weight": 0.129611}, 
                {"id": 26, "lemma": "그리", "type": "VV", "position": 254, "weight": 0.604417}, 
                {"id": 27, "lemma": "었", "type": "EP", "position": 257, "weight": 0.9}, 
                {"id": 28, "lemma": "다", "type": "EF", "position": 260, "weight": 0.640954}, 
                {"id": 29, "lemma": ".", "type": "SF", "position": 263, "weight": 1}
            ], 
            "morp_eval": [], 
            "WSD": [
                {"id": 0, "text": "1580", "type": "SN", "scode": "000000", "weight": 1, "position": 147, "begin": 0, "end": 0}, 
                {"id": 1, "text": "년", "type": "NNB", "scode": "020000", "weight": 0.166667, "position": 151, "begin": 1, "end": 1}, 
                {"id": 2, "text": "유명하", "type": "VA", "scode": "010000", "weight": 0.5, "position": 155, "begin": 2, "end": 3}, 
                {"id": 3, "text": "ㄴ", "type": "ETM", "scode": "000000", "weight": 1, "position": 161, "begin": 4, "end": 4}, 
                {"id": 4, "text": "<", "type": "SS", "scode": "000000", "weight": 1, "position": 165, "begin": 5, "end": 5}, 
                {"id": 5, "text": "수상록", "type": "NNP", "scode": "020000", "weight": 0.5, "position": 166, "begin": 6, "end": 6}, 
                {"id": 6, "text": ">", "type": "SS", "scode": "000000", "weight": 1, "position": 175, "begin": 7, "end": 7}, 
                {"id": 7, "text": "을", "type": "JKO", "scode": "000000", "weight": 1, "position": 176, "begin": 8, "end": 8}, 
                {"id": 8, "text": "완성", "type": "NNG", "scode": "010000", "weight": 0.333333, "position": 180, "begin": 9, "end": 9}, 
                {"id": 9, "text": "시키", "type": "XSV", "scode": "000000", "weight": 0, "position": 186, "begin": 10, "end": 10}, 
                {"id": 10, "text": "었", "type": "EP", "scode": "000000", "weight": 1, "position": 189, "begin": 11, "end": 11}, 
                {"id": 11, "text": "는데", "type": "EC", "scode": "000000", "weight": 1, "position": 192, "begin": 12, "end": 12}, 
                {"id": 12, "text": ",", "type": "SP", "scode": "000000", "weight": 1, "position": 198, "begin": 13, "end": 13}, 
                {"id": 13, "text": "그", "type": "NP", "scode": "010001", "weight": 0.142857, "position": 200, "begin": 14, "end": 14}, 
                {"id": 14, "text": "는", "type": "JX", "scode": "000000", "weight": 1, "position": 203, "begin": 15, "end": 15}, 
                {"id": 15, "text": "이", "type": "MM", "scode": "050102", "weight": 0.0172414, "position": 207, "begin": 16, "end": 16}, 
                {"id": 16, "text": "책", "type": "NNG", "scode": "010002", "weight": 0.0714286, "position": 211, "begin": 17, "end": 17}, 
                {"id": 17, "text": "에서", "type": "JKB", "scode": "000000", "weight": 1, "position": 214, "begin": 18, "end": 18}, 
                {"id": 18, "text": "인간", "type": "NNG", "scode": "010001", "weight": 0.142857, "position": 221, "begin": 19, "end": 19}, 
                {"id": 19, "text": "의", "type": "JKG", "scode": "000000", "weight": 1, "position": 227, "begin": 20, "end": 20}, 
                {"id": 20, "text": "거짓", "type": "NNG", "scode": "000001", "weight": 0.5, "position": 231, "begin": 21, "end": 21}, 
                {"id": 21, "text": "없", "type": "VA", "scode": "010102", "weight": 0.0588235, "position": 231, "begin": 22, "end": 22}, 
                {"id": 22, "text": "는", "type": "ETM", "scode": "000000", "weight": 1, "position": 240, "begin": 23, "end": 23}, 
                {"id": 23, "text": "모습", "type": "NNG", "scode": "010002", "weight": 0.2, "position": 244, "begin": 24, "end": 24}, 
                {"id": 24, "text": "을", "type": "JKO", "scode": "000000", "weight": 1, "position": 250, "begin": 25, "end": 25}, 
                {"id": 25, "text": "그리", "type": "VV", "scode": "020002", "weight": 0.166667, "position": 254, "begin": 26, "end": 26}, 
                {"id": 26, "text": "었", "type": "EP", "scode": "000000", "weight": 1, "position": 257, "begin": 27, "end": 27}, 
                {"id": 27, "text": "다", "type": "EF", "scode": "000000", "weight": 1, "position": 260, "begin": 28, "end": 28}, 
                {"id": 28, "text": ".", "type": "SF", "scode": "000000", "weight": 1, "position": 263, "begin": 29, "end": 29}
            ], 
            "word": [
                {"id": 0, "text": "1580년", "type": "", "begin": 0, "end": 1}, 
                {"id": 1, "text": "유명한", "type": "", "begin": 2, "end": 4}, 
                {"id": 2, "text": "<수상록>을", "type": "", "begin": 5, "end": 8}, 
                {"id": 3, "text": "완성시켰는데,", "type": "", "begin": 9, "end": 13}, 
                {"id": 4, "text": "그는", "type": "", "begin": 14, "end": 15}, 
                {"id": 5, "text": "이", "type": "", "begin": 16, "end": 16}, 
                {"id": 6, "text": "책에서", "type": "", "begin": 17, "end": 18}, 
                {"id": 7, "text": "인간의", "type": "", "begin": 19, "end": 20}, 
                {"id": 8, "text": "거짓", "type": "", "begin": 21, "end": 21}, 
                {"id": 9, "text": "없는", "type": "", "begin": 22, "end": 23}, 
                {"id": 10, "text": "모습을", "type": "", "begin": 24, "end": 25}, 
                {"id": 11, "text": "그렸다.", "type": "", "begin": 26, "end": 29}
            ], 
            "NE": [
                {"id": 0, "text": "1580년", "type": "DT_YEAR", "begin": 0, "end": 1, "weight": 0.588312, "common_noun": 0}, 
                {"id": 1, "text": "수상록", "type": "AFW_DOCUMENT", "begin": 6, "end": 6, "weight": 0.324118, "common_noun": 0}
            ], 
            "chunk": [], 
            "dependency": [
                {"id": 0, "text": "1580년", "head": 3, "label": "NP_AJT", "mod": [], "weight": 0.0243304}, 
                {"id": 1, "text": "유명한", "head": 2, "label": "VP_MOD", "mod": [], "weight": 0.611823}, 
                {"id": 2, "text": "<수상록>을", "head": 3, "label": "NP_OBJ", "mod": [1], "weight": 0.720269}, 
                {"id": 3, "text": "완성시켰는데,", "head": 11, "label": "VP", "mod": [2, 0], "weight": 0.760059}, 
                {"id": 4, "text": "그는", "head": 11, "label": "NP_SBJ", "mod": [], "weight": 0.839349}, 
                {"id": 5, "text": "이", "head": 6, "label": "DP", "mod": [], "weight": 0.798817}, 
                {"id": 6, "text": "책에서", "head": 11, "label": "NP_AJT", "mod": [5], "weight": 0.810538}, 
                {"id": 7, "text": "인간의", "head": 10, "label": "NP_MOD", "mod": [], "weight": 0.772913}, 
                {"id": 8, "text": "거짓", "head": 9, "label": "NP_SBJ", "mod": [], "weight": 0.704135}, 
                {"id": 9, "text": "없는", "head": 10, "label": "VP_MOD", "mod": [8], "weight": 0.797721}, 
                {"id": 10, "text": "모습을", "head": 11, "label": "NP_OBJ", "mod": [7, 9], "weight": 0.816729}, 
                {"id": 11, "text": "그렸다.", "head": -1, "label": "VP", "mod": [3, 4, 6, 10], "weight": 0.00118021}
            ], 
            "SRL": [
                {"verb": "유명", "sense": 1, "word_id": 1, "weight": 0.157483, "argument": [
                    {"type": "ARG1", "word_id": 2, "text": "<수상록>을", "weight": 0.129035}
                ]}, 
                {"verb": "완성", "sense": 1, "word_id": 3, "weight": 0.260544, "argument": [
                    {"type": "ARG1", "word_id": 2, "text": "<수상록>을", "weight": 0.260544}, 
                    {"type": "ARGM-TMP", "word_id": 0, "text": "1580년", "weight": 1}
                ]}, 
                {"verb": "없", "sense": 1, "word_id": 9, "weight": 0.160794, "argument": [
                    {"type": "ARG1", "word_id": 8, "text": "거짓", "weight": 0.162154}
                ]}, 
                {"verb": "그리", "sense": 1, "word_id": 11, "weight": 0.195138, "argument": [
                    {"type": "ARG0", "word_id": 4, "text": "그는", "weight": 0.214331}, 
                    {"type": "ARGM-LOC", "word_id": 6, "text": "책에서", "weight": 0.0967126}, 
                    {"type": "ARG1", "word_id": 10, "text": "모습을", "weight": 0.274369}
                ]}
            ], 
            "relation": [], 
            "SA": [], 
            "ZA": []
        }
    ], 
    "entity": [
        {"id": 0, "type": "DT_DURATION", "number": "singular", "gender": "", "person": "", "animacy": "time", "mention": [
            {"id": 0, "sent_id": 0, "start_eid": 0, "end_eid": 13, "ne_id": 2, "text": "미셸 에켐 드 몽테뉴(Michel Eyquem de Montaigne 1533년 2월 28일 - 1592년 9월 13일)는", "start_eid_short": 13, "end_eid_short": 13, "text_short": "13일)는"}, 
            {"id": 1, "sent_id": 0, "start_eid": 14, "end_eid": 17, "ne_id": 6, "text": "프랑스 철학자, 사상가, 수필가이다.", "start_eid_short": 17, "end_eid_short": 17, "text_short": "수필가이다."}, 
            {"id": 8, "sent_id": 1, "start_eid": 4, "end_eid": 4, "ne_id": -1, "text": "그는", "start_eid_short": 4, "end_eid_short": 4, "text_short": "그는"}
        ]}, 
        {"id": 1, "type": "LCP_COUNTRY", "number": "singular", "gender": "", "person": "", "animacy": "place", "mention": [
            {"id": 2, "sent_id": 0, "start_eid": 14, "end_eid": 14, "ne_id": 3, "text": "프랑스", "start_eid_short": 14, "end_eid_short": 14, "text_short": "프랑스"}
        ]}, 
        {"id": 2, "type": "CV_OCCUPATION", "number": "singular", "gender": "", "person": "", "animacy": "thing", "mention": [
            {"id": 3, "sent_id": 0, "start_eid": 15, "end_eid": 15, "ne_id": 4, "text": "철학자,", "start_eid_short": 15, "end_eid_short": 15, "text_short": "철학자,"}
        ]}, 
        {"id": 3, "type": "CV_OCCUPATION", "number": "singular", "gender": "", "person": "", "animacy": "thing", "mention": [
            {"id": 4, "sent_id": 0, "start_eid": 16, "end_eid": 16, "ne_id": 5, "text": "사상가,", "start_eid_short": 16, "end_eid_short": 16, "text_short": "사상가,"}
        ]}, 
        {"id": 4, "type": "CV_OCCUPATION", "number": "singular", "gender": "", "person": "", "animacy": "thing", "mention": [
            {"id": 5, "sent_id": 0, "start_eid": 17, "end_eid": 17, "ne_id": 6, "text": "수필가이다.", "start_eid_short": 17, "end_eid_short": 17, "text_short": "수필가이다."}
        ]}, 
        {"id": 5, "type": "DT_YEAR", "number": "singular", "gender": "", "person": "", "animacy": "time", "mention": [
            {"id": 6, "sent_id": 1, "start_eid": 0, "end_eid": 0, "ne_id": 0, "text": "1580년", "start_eid_short": 0, "end_eid_short": 0, "text_short": "1580년"}
        ]}, 
        {"id": 6, "type": "AFW_DOCUMENT", "number": "singular", "gender": "", "person": "", "animacy": "thing", "mention": [
            {"id": 7, "sent_id": 1, "start_eid": 1, "end_eid": 2, "ne_id": 1, "text": "유명한 <수상록>을", "start_eid_short": 2, "end_eid_short": 2, "text_short": "<수상록>을"}, 
            {"id": 9, "sent_id": 1, "start_eid": 5, "end_eid": 6, "ne_id": -1, "text": "이 책에서", "start_eid_short": 5, "end_eid_short": 6, "text_short": "이 책에서"}
        ]}, 
        {"id": 7, "type": "", "number": "singular", "gender": "", "person": "", "animacy": "thing", "mention": [
            {"id": 10, "sent_id": 1, "start_eid": 7, "end_eid": 10, "ne_id": -1, "text": "인간의 거짓 없는 모습을", "start_eid_short": 10, "end_eid_short": 10, "text_short": "모습을"}
        ]}, 
        {"id": 8, "type": "", "number": "singular", "gender": "", "person": "", "animacy": "thing", "mention": [
            {"id": 11, "sent_id": 1, "start_eid": 7, "end_eid": 7, "ne_id": -1, "text": "인간의", "start_eid_short": 7, "end_eid_short": 7, "text_short": "인간의"}
        ]}, 
        {"id": 9, "type": "", "number": "singular", "gender": "", "person": "", "animacy": "thing", "mention": [
            {"id": 12, "sent_id": 1, "start_eid": 8, "end_eid": 8, "ne_id": -1, "text": "거짓", "start_eid_short": 8, "end_eid_short": 8, "text_short": "거짓"}
        ]}
    ]
}