{
    "doc_id": "E2016.835.24_A_01.json", 
    "DCT": "", 
    "category": "", 
    "category_weight": 0, 
    "title": {
        "text": "아치", 
        "NE": ""
    }, 
    "metaInfo": {}, 
    "sentence": [
        {
            "id": 0, 
            "reserve_str": "", 
            "text": "아치(arch, 홍예[虹蜺])는 개구부를 확보하며 상당한 하중을 압축 응력으로 지지할 수 있도록 만든 곡선 형태의 구조물이다.", 
            "morp": [
                {"id": 0, "lemma": "아치", "type": "NNG", "position": 0, "weight": 0.416321}, 
                {"id": 1, "lemma": "(", "type": "SS", "position": 6, "weight": 1}, 
                {"id": 2, "lemma": "arch", "type": "SL", "position": 7, "weight": 1}, 
                {"id": 3, "lemma": ",", "type": "SP", "position": 11, "weight": 1}, 
                {"id": 4, "lemma": "홍예", "type": "NNG", "position": 13, "weight": 0.25}, 
                {"id": 5, "lemma": "[", "type": "SS", "position": 19, "weight": 1}, 
                {"id": 6, "lemma": "虹蜺", "type": "SH", "position": 20, "weight": 1}, 
                {"id": 7, "lemma": "]", "type": "SS", "position": 26, "weight": 1}, 
                {"id": 8, "lemma": ")", "type": "SS", "position": 27, "weight": 1}, 
                {"id": 9, "lemma": "는", "type": "JX", "position": 28, "weight": 0.00823314}, 
                {"id": 10, "lemma": "개구", "type": "NNG", "position": 32, "weight": 0.3}, 
                {"id": 11, "lemma": "부", "type": "XSN", "position": 38, "weight": 0.0112289}, 
                {"id": 12, "lemma": "를", "type": "JKO", "position": 41, "weight": 0.0870227}, 
                {"id": 13, "lemma": "확보", "type": "NNG", "position": 45, "weight": 0.9}, 
                {"id": 14, "lemma": "하", "type": "XSV", "position": 51, "weight": 0.0001}, 
                {"id": 15, "lemma": "며", "type": "EC", "position": 54, "weight": 0.371165}, 
                {"id": 16, "lemma": "상당", "type": "NNG", "position": 58, "weight": 0.218644}, 
                {"id": 17, "lemma": "하", "type": "XSA", "position": 64, "weight": 0.0001}, 
                {"id": 18, "lemma": "ㄴ", "type": "ETM", "position": 64, "weight": 0.488779}, 
                {"id": 19, "lemma": "하중", "type": "NNG", "position": 68, "weight": 0.9}, 
                {"id": 20, "lemma": "을", "type": "JKO", "position": 74, "weight": 0.129611}, 
                {"id": 21, "lemma": "압축", "type": "NNG", "position": 78, "weight": 0.9}, 
                {"id": 22, "lemma": "응력", "type": "NNG", "position": 85, "weight": 0.9}, 
                {"id": 23, "lemma": "으로", "type": "JKB", "position": 91, "weight": 0.153406}, 
                {"id": 24, "lemma": "지지", "type": "NNG", "position": 98, "weight": 0.157103}, 
                {"id": 25, "lemma": "하", "type": "XSV", "position": 104, "weight": 0.0001}, 
                {"id": 26, "lemma": "ㄹ", "type": "ETM", "position": 104, "weight": 0.387847}, 
                {"id": 27, "lemma": "수", "type": "NNB", "position": 108, "weight": 0.215617}, 
                {"id": 28, "lemma": "있", "type": "VA", "position": 112, "weight": 0.0518488}, 
                {"id": 29, "lemma": "도록", "type": "EC", "position": 115, "weight": 0.319723}, 
                {"id": 30, "lemma": "만들", "type": "VV", "position": 122, "weight": 0.9}, 
                {"id": 31, "lemma": "ㄴ", "type": "ETM", "position": 125, "weight": 0.304215}, 
                {"id": 32, "lemma": "곡선", "type": "NNG", "position": 129, "weight": 0.9}, 
                {"id": 33, "lemma": "형태", "type": "NNG", "position": 136, "weight": 0.184483}, 
                {"id": 34, "lemma": "의", "type": "JKG", "position": 142, "weight": 0.0694213}, 
                {"id": 35, "lemma": "구조", "type": "NNG", "position": 146, "weight": 0.9}, 
                {"id": 36, "lemma": "물", "type": "XSN", "position": 152, "weight": 0.00142289}, 
                {"id": 37, "lemma": "이", "type": "VCP", "position": 155, "weight": 0.0165001}, 
                {"id": 38, "lemma": "다", "type": "EF", "position": 158, "weight": 0.353579}, 
                {"id": 39, "lemma": ".", "type": "SF", "position": 161, "weight": 1}
            ], 
            "morp_eval": [], 
            "WSD": [
                {"id": 0, "text": "아치", "type": "NNG", "scode": "070002", "weight": 0.0909091, "position": 0, "begin": 0, "end": 0}, 
                {"id": 1, "text": "(", "type": "SS", "scode": "000000", "weight": 1, "position": 6, "begin": 1, "end": 1}, 
                {"id": 2, "text": "arch", "type": "SL", "scode": "000000", "weight": 1, "position": 7, "begin": 2, "end": 2}, 
                {"id": 3, "text": ",", "type": "SP", "scode": "000000", "weight": 1, "position": 11, "begin": 3, "end": 3}, 
                {"id": 4, "text": "홍예", "type": "NNG", "scode": "000002", "weight": 0.5, "position": 13, "begin": 4, "end": 4}, 
                {"id": 5, "text": "[", "type": "SS", "scode": "000000", "weight": 1, "position": 19, "begin": 5, "end": 5}, 
                {"id": 6, "text": "虹蜺", "type": "SH", "scode": "000000", "weight": 1, "position": 20, "begin": 6, "end": 6}, 
                {"id": 7, "text": "]", "type": "SS", "scode": "000000", "weight": 1, "position": 26, "begin": 7, "end": 7}, 
                {"id": 8, "text": ")", "type": "SS", "scode": "000000", "weight": 1, "position": 27, "begin": 8, "end": 8}, 
                {"id": 9, "text": "는", "type": "JX", "scode": "000000", "weight": 1, "position": 28, "begin": 9, "end": 9}, 
                {"id": 10, "text": "개구부", "type": "NNG", "scode": "000000", "weight": 1, "position": 32, "begin": 10, "end": 11}, 
                {"id": 11, "text": "를", "type": "JKO", "scode": "000000", "weight": 1, "position": 41, "begin": 12, "end": 12}, 
                {"id": 12, "text": "확보하", "type": "VV", "scode": "010000", "weight": 0.5, "position": 45, "begin": 13, "end": 14}, 
                {"id": 13, "text": "며", "type": "EC", "scode": "000000", "weight": 1, "position": 54, "begin": 15, "end": 15}, 
                {"id": 14, "text": "상당하", "type": "VA", "scode": "020202", "weight": 0.166667, "position": 58, "begin": 16, "end": 17}, 
                {"id": 15, "text": "ㄴ", "type": "ETM", "scode": "000000", "weight": 1, "position": 64, "begin": 18, "end": 18}, 
                {"id": 16, "text": "하중", "type": "NNG", "scode": "020002", "weight": 0.333333, "position": 68, "begin": 19, "end": 19}, 
                {"id": 17, "text": "을", "type": "JKO", "scode": "000000", "weight": 1, "position": 74, "begin": 20, "end": 20}, 
                {"id": 18, "text": "압축", "type": "NNG", "scode": "020001", "weight": 0.166667, "position": 78, "begin": 21, "end": 21}, 
                {"id": 19, "text": "응력", "type": "NNG", "scode": "020000", "weight": 0.5, "position": 85, "begin": 22, "end": 22}, 
                {"id": 20, "text": "으로", "type": "JKB", "scode": "000000", "weight": 1, "position": 91, "begin": 23, "end": 23}, 
                {"id": 21, "text": "지지하", "type": "VV", "scode": "030002", "weight": 0.125, "position": 98, "begin": 24, "end": 25}, 
                {"id": 22, "text": "ㄹ", "type": "ETM", "scode": "000000", "weight": 1, "position": 104, "begin": 26, "end": 26}, 
                {"id": 23, "text": "수", "type": "NNB", "scode": "020100", "weight": 0.02, "position": 108, "begin": 27, "end": 27}, 
                {"id": 24, "text": "있", "type": "VA", "scode": "010301", "weight": 0.0416667, "position": 112, "begin": 28, "end": 28}, 
                {"id": 25, "text": "도록", "type": "EC", "scode": "000000", "weight": 1, "position": 115, "begin": 29, "end": 29}, 
                {"id": 26, "text": "만들", "type": "VV", "scode": "000101", "weight": 0.0769231, "position": 122, "begin": 30, "end": 30}, 
                {"id": 27, "text": "ㄴ", "type": "ETM", "scode": "000000", "weight": 1, "position": 125, "begin": 31, "end": 31}, 
                {"id": 28, "text": "곡선", "type": "NNG", "scode": "020001", "weight": 0.25, "position": 129, "begin": 32, "end": 32}, 
                {"id": 29, "text": "형태", "type": "NNG", "scode": "000001", "weight": 0.25, "position": 136, "begin": 33, "end": 33}, 
                {"id": 30, "text": "의", "type": "JKG", "scode": "000000", "weight": 1, "position": 142, "begin": 34, "end": 34}, 
                {"id": 31, "text": "구조물", "type": "NNG", "scode": "000000", "weight": 1, "position": 146, "begin": 35, "end": 36}, 
                {"id": 32, "text": "이", "type": "VCP", "scode": "030000", "weight": 0.0172414, "position": 155, "begin": 37, "end": 37}, 
                {"id": 33, "text": "다", "type": "EF", "scode": "000000", "weight": 1, "position": 158, "begin": 38, "end": 38}, 
                {"id": 34, "text": ".", "type": "SF", "scode": "000000", "weight": 1, "position": 161, "begin": 39, "end": 39}
            ], 
            "word": [
                {"id": 0, "text": "아치(arch,", "type": "", "begin": 0, "end": 3}, 
                {"id": 1, "text": "홍예[虹蜺])는", "type": "", "begin": 4, "end": 9}, 
                {"id": 2, "text": "개구부를", "type": "", "begin": 10, "end": 12}, 
                {"id": 3, "text": "확보하며", "type": "", "begin": 13, "end": 15}, 
                {"id": 4, "text": "상당한", "type": "", "begin": 16, "end": 18}, 
                {"id": 5, "text": "하중을", "type": "", "begin": 19, "end": 20}, 
                {"id": 6, "text": "압축", "type": "", "begin": 21, "end": 21}, 
                {"id": 7, "text": "응력으로", "type": "", "begin": 22, "end": 23}, 
                {"id": 8, "text": "지지할", "type": "", "begin": 24, "end": 26}, 
                {"id": 9, "text": "수", "type": "", "begin": 27, "end": 27}, 
                {"id": 10, "text": "있도록", "type": "", "begin": 28, "end": 29}, 
                {"id": 11, "text": "만든", "type": "", "begin": 30, "end": 31}, 
                {"id": 12, "text": "곡선", "type": "", "begin": 32, "end": 32}, 
                {"id": 13, "text": "형태의", "type": "", "begin": 33, "end": 34}, 
                {"id": 14, "text": "구조물이다.", "type": "", "begin": 35, "end": 39}
            ], 
            "NE": [], 
            "chunk": [], 
            "dependency": [
                {"id": 0, "text": "아치(arch,", "head": 1, "label": "NP", "mod": [], "weight": 0.347604}, 
                {"id": 1, "text": "홍예[虹蜺])는", "head": 14, "label": "NP_SBJ", "mod": [0], "weight": 0.506076}, 
                {"id": 2, "text": "개구부를", "head": 3, "label": "NP_OBJ", "mod": [], "weight": 0.74041}, 
                {"id": 3, "text": "확보하며", "head": 8, "label": "VP", "mod": [2], "weight": 0.733437}, 
                {"id": 4, "text": "상당한", "head": 5, "label": "VP_MOD", "mod": [], "weight": 0.743262}, 
                {"id": 5, "text": "하중을", "head": 8, "label": "NP_OBJ", "mod": [4], "weight": 0.765038}, 
                {"id": 6, "text": "압축", "head": 7, "label": "NP", "mod": [], "weight": 0.633825}, 
                {"id": 7, "text": "응력으로", "head": 8, "label": "NP_AJT", "mod": [6], "weight": 0.887485}, 
                {"id": 8, "text": "지지할", "head": 9, "label": "VP_MOD", "mod": [3, 5, 7], "weight": 0.807987}, 
                {"id": 9, "text": "수", "head": 10, "label": "NP_SBJ", "mod": [8], "weight": 0.774974}, 
                {"id": 10, "text": "있도록", "head": 11, "label": "VP", "mod": [9], "weight": 0.614559}, 
                {"id": 11, "text": "만든", "head": 14, "label": "VP_MOD", "mod": [10], "weight": 0.753074}, 
                {"id": 12, "text": "곡선", "head": 13, "label": "NP", "mod": [], "weight": 0.695457}, 
                {"id": 13, "text": "형태의", "head": 14, "label": "NP_MOD", "mod": [12], "weight": 0.827587}, 
                {"id": 14, "text": "구조물이다.", "head": -1, "label": "VNP", "mod": [11, 13, 1], "weight": 0.00452883}
            ], 
            "SRL": [
                {"verb": "확보", "sense": 1, "word_id": 3, "weight": 0.203223, "argument": [
                    {"type": "ARG1", "word_id": 2, "text": "개구부를", "weight": 0.203223}
                ]}, 
                {"verb": "상당", "sense": 1, "word_id": 4, "weight": 0.380352, "argument": [
                    {"type": "ARG1", "word_id": 5, "text": "하중을", "weight": 0.380352}
                ]}, 
                {"verb": "지지", "sense": 1, "word_id": 8, "weight": 0.250799, "argument": [
                    {"type": "ARG1", "word_id": 5, "text": "하중을", "weight": 0.257825}, 
                    {"type": "ARGM-MNR", "word_id": 7, "text": "응력으로", "weight": 0.0582044}, 
                    {"type": "AUX", "word_id": 10, "text": "있도록", "weight": 0.559093}, 
                    {"type": "ARG0", "word_id": 14, "text": "구조물이다.", "weight": 1}
                ]}, 
                {"verb": "만들", "sense": 1, "word_id": 11, "weight": 0.19251, "argument": [
                    {"type": "ARGM-PRP", "word_id": 10, "text": "있도록", "weight": 0.19251}, 
                    {"type": "ARG1", "word_id": 14, "text": "구조물이다.", "weight": 1}
                ]}
            ], 
            "relation": [], 
            "SA": [], 
            "ZA": []
        }, 
        {
            "id": 1, 
            "reserve_str": "", 
            "text": "아치는 기원전 2500년 경 인더스 문명에서 최초로 사용되었고 그 후 메소포타미아, 이집트, 아시리아, 에트루리아에서도 사용되었으며, 고대 로마에서 더욱 다듬어졌다.", 
            "morp": [
                {"id": 0, "lemma": "아치", "type": "NNG", "position": 162, "weight": 0.416321}, 
                {"id": 1, "lemma": "는", "type": "JX", "position": 168, "weight": 0.0287565}, 
                {"id": 2, "lemma": "기원", "type": "NNG", "position": 172, "weight": 0.320238}, 
                {"id": 3, "lemma": "전", "type": "NNG", "position": 178, "weight": 0.107818}, 
                {"id": 4, "lemma": "2500", "type": "SN", "position": 182, "weight": 1}, 
                {"id": 5, "lemma": "년", "type": "NNB", "position": 186, "weight": 0.414343}, 
                {"id": 6, "lemma": "경", "type": "XSN", "position": 190, "weight": 0.0160459}, 
                {"id": 7, "lemma": "인더스", "type": "NNP", "position": 194, "weight": 0.9}, 
                {"id": 8, "lemma": "문명", "type": "NNG", "position": 204, "weight": 0.281829}, 
                {"id": 9, "lemma": "에서", "type": "JKB", "position": 210, "weight": 0.153407}, 
                {"id": 10, "lemma": "최초", "type": "NNG", "position": 217, "weight": 0.9}, 
                {"id": 11, "lemma": "로", "type": "JKB", "position": 223, "weight": 0.153229}, 
                {"id": 12, "lemma": "사용", "type": "NNG", "position": 227, "weight": 0.9}, 
                {"id": 13, "lemma": "되", "type": "XSV", "position": 233, "weight": 0.000224177}, 
                {"id": 14, "lemma": "었", "type": "EP", "position": 236, "weight": 0.9}, 
                {"id": 15, "lemma": "고", "type": "EC", "position": 239, "weight": 0.190901}, 
                {"id": 16, "lemma": "그", "type": "MM", "position": 243, "weight": 0.0123347}, 
                {"id": 17, "lemma": "후", "type": "NNG", "position": 247, "weight": 0.734062}, 
                {"id": 18, "lemma": "메소포타미아", "type": "NNP", "position": 251, "weight": 0.9}, 
                {"id": 19, "lemma": ",", "type": "SP", "position": 269, "weight": 1}, 
                {"id": 20, "lemma": "이집트", "type": "NNP", "position": 271, "weight": 0.9}, 
                {"id": 21, "lemma": ",", "type": "SP", "position": 280, "weight": 1}, 
                {"id": 22, "lemma": "아시리아", "type": "NNP", "position": 282, "weight": 0.3544}, 
                {"id": 23, "lemma": ",", "type": "SP", "position": 294, "weight": 1}, 
                {"id": 24, "lemma": "에트루리아", "type": "NNP", "position": 296, "weight": 0.3}, 
                {"id": 25, "lemma": "에서", "type": "JKB", "position": 311, "weight": 0.0823859}, 
                {"id": 26, "lemma": "도", "type": "JX", "position": 317, "weight": 0.0912297}, 
                {"id": 27, "lemma": "사용", "type": "NNG", "position": 321, "weight": 0.9}, 
                {"id": 28, "lemma": "되", "type": "XSV", "position": 327, "weight": 0.000224177}, 
                {"id": 29, "lemma": "었", "type": "EP", "position": 330, "weight": 0.9}, 
                {"id": 30, "lemma": "으며", "type": "EC", "position": 333, "weight": 0.197482}, 
                {"id": 31, "lemma": ",", "type": "SP", "position": 339, "weight": 1}, 
                {"id": 32, "lemma": "고대", "type": "NNG", "position": 341, "weight": 0.514947}, 
                {"id": 33, "lemma": "로마", "type": "NNP", "position": 348, "weight": 0.102856}, 
                {"id": 34, "lemma": "에서", "type": "JKB", "position": 354, "weight": 0.153407}, 
                {"id": 35, "lemma": "더욱", "type": "MAG", "position": 361, "weight": 0.9}, 
                {"id": 36, "lemma": "다듬", "type": "VV", "position": 368, "weight": 0.389793}, 
                {"id": 37, "lemma": "어", "type": "EC", "position": 374, "weight": 0.41831}, 
                {"id": 38, "lemma": "지", "type": "VX", "position": 377, "weight": 0.0539764}, 
                {"id": 39, "lemma": "었", "type": "EP", "position": 377, "weight": 0.9}, 
                {"id": 40, "lemma": "다", "type": "EF", "position": 380, "weight": 0.640954}, 
                {"id": 41, "lemma": ".", "type": "SF", "position": 383, "weight": 1}
            ], 
            "morp_eval": [], 
            "WSD": [
                {"id": 0, "text": "아치", "type": "NNG", "scode": "070002", "weight": 0.0909091, "position": 162, "begin": 0, "end": 0}, 
                {"id": 1, "text": "는", "type": "JX", "scode": "000000", "weight": 1, "position": 168, "begin": 1, "end": 1}, 
                {"id": 2, "text": "기원전", "type": "NNG", "scode": "000000", "weight": 1, "position": 172, "begin": 2, "end": 3}, 
                {"id": 3, "text": "2500", "type": "SN", "scode": "000000", "weight": 1, "position": 182, "begin": 4, "end": 4}, 
                {"id": 4, "text": "년", "type": "NNB", "scode": "020000", "weight": 0.166667, "position": 186, "begin": 5, "end": 5}, 
                {"id": 5, "text": "경", "type": "XSN", "scode": "250001", "weight": 0.0217391, "position": 190, "begin": 6, "end": 6}, 
                {"id": 6, "text": "인더스", "type": "NNP", "scode": "000000", "weight": 0, "position": 194, "begin": 7, "end": 7}, 
                {"id": 7, "text": "문명", "type": "NNG", "scode": "030000", "weight": 0.142857, "position": 204, "begin": 8, "end": 8}, 
                {"id": 8, "text": "에서", "type": "JKB", "scode": "000000", "weight": 1, "position": 210, "begin": 9, "end": 9}, 
                {"id": 9, "text": "최초", "type": "NNG", "scode": "000000", "weight": 1, "position": 217, "begin": 10, "end": 10}, 
                {"id": 10, "text": "로", "type": "JKB", "scode": "000000", "weight": 1, "position": 223, "begin": 11, "end": 11}, 
                {"id": 11, "text": "사용되", "type": "VV", "scode": "000001", "weight": 0.5, "position": 227, "begin": 12, "end": 13}, 
                {"id": 12, "text": "었", "type": "EP", "scode": "000000", "weight": 1, "position": 236, "begin": 14, "end": 14}, 
                {"id": 13, "text": "고", "type": "EC", "scode": "000000", "weight": 1, "position": 239, "begin": 15, "end": 15}, 
                {"id": 14, "text": "그", "type": "MM", "scode": "010102", "weight": 0.142857, "position": 243, "begin": 16, "end": 16}, 
                {"id": 15, "text": "후", "type": "NNG", "scode": "080001", "weight": 0.0666667, "position": 247, "begin": 17, "end": 17}, 
                {"id": 16, "text": "메소포타미아", "type": "NNP", "scode": "000000", "weight": 1, "position": 251, "begin": 18, "end": 18}, 
                {"id": 17, "text": ",", "type": "SP", "scode": "000000", "weight": 1, "position": 269, "begin": 19, "end": 19}, 
                {"id": 18, "text": "이집트", "type": "NNP", "scode": "000000", "weight": 1, "position": 271, "begin": 20, "end": 20}, 
                {"id": 19, "text": ",", "type": "SP", "scode": "000000", "weight": 1, "position": 280, "begin": 21, "end": 21}, 
                {"id": 20, "text": "아시리아", "type": "NNP", "scode": "000001", "weight": 0.5, "position": 282, "begin": 22, "end": 22}, 
                {"id": 21, "text": ",", "type": "SP", "scode": "000000", "weight": 1, "position": 294, "begin": 23, "end": 23}, 
                {"id": 22, "text": "에트루리아", "type": "NNP", "scode": "000000", "weight": 1, "position": 296, "begin": 24, "end": 24}, 
                {"id": 23, "text": "에서", "type": "JKB", "scode": "000000", "weight": 1, "position": 311, "begin": 25, "end": 25}, 
                {"id": 24, "text": "도", "type": "JX", "scode": "000000", "weight": 1, "position": 317, "begin": 26, "end": 26}, 
                {"id": 25, "text": "사용되", "type": "VV", "scode": "000001", "weight": 0.5, "position": 321, "begin": 27, "end": 28}, 
                {"id": 26, "text": "었", "type": "EP", "scode": "000000", "weight": 1, "position": 330, "begin": 29, "end": 29}, 
                {"id": 27, "text": "으며", "type": "EC", "scode": "000000", "weight": 1, "position": 333, "begin": 30, "end": 30}, 
                {"id": 28, "text": ",", "type": "SP", "scode": "000000", "weight": 1, "position": 339, "begin": 31, "end": 31}, 
                {"id": 29, "text": "고대", "type": "NNG", "scode": "040002", "weight": 0.0833333, "position": 341, "begin": 32, "end": 32}, 
                {"id": 30, "text": "로마", "type": "NNP", "scode": "020003", "weight": 0.2, "position": 348, "begin": 33, "end": 33}, 
                {"id": 31, "text": "에서", "type": "JKB", "scode": "000000", "weight": 1, "position": 354, "begin": 34, "end": 34}, 
                {"id": 32, "text": "더욱", "type": "MAG", "scode": "000000", "weight": 1, "position": 361, "begin": 35, "end": 35}, 
                {"id": 33, "text": "다듬", "type": "VV", "scode": "000004", "weight": 0.166667, "position": 368, "begin": 36, "end": 36}, 
                {"id": 34, "text": "어", "type": "EC", "scode": "000000", "weight": 1, "position": 374, "begin": 37, "end": 37}, 
                {"id": 35, "text": "지", "type": "VX", "scode": "040101", "weight": 0.037037, "position": 377, "begin": 38, "end": 38}, 
                {"id": 36, "text": "었", "type": "EP", "scode": "000000", "weight": 1, "position": 377, "begin": 39, "end": 39}, 
                {"id": 37, "text": "다", "type": "EF", "scode": "000000", "weight": 1, "position": 380, "begin": 40, "end": 40}, 
                {"id": 38, "text": ".", "type": "SF", "scode": "000000", "weight": 1, "position": 383, "begin": 41, "end": 41}
            ], 
            "word": [
                {"id": 0, "text": "아치는", "type": "", "begin": 0, "end": 1}, 
                {"id": 1, "text": "기원전", "type": "", "begin": 2, "end": 3}, 
                {"id": 2, "text": "2500년", "type": "", "begin": 4, "end": 5}, 
                {"id": 3, "text": "경", "type": "", "begin": 6, "end": 6}, 
                {"id": 4, "text": "인더스", "type": "", "begin": 7, "end": 7}, 
                {"id": 5, "text": "문명에서", "type": "", "begin": 8, "end": 9}, 
                {"id": 6, "text": "최초로", "type": "", "begin": 10, "end": 11}, 
                {"id": 7, "text": "사용되었고", "type": "", "begin": 12, "end": 15}, 
                {"id": 8, "text": "그", "type": "", "begin": 16, "end": 16}, 
                {"id": 9, "text": "후", "type": "", "begin": 17, "end": 17}, 
                {"id": 10, "text": "메소포타미아,", "type": "", "begin": 18, "end": 19}, 
                {"id": 11, "text": "이집트,", "type": "", "begin": 20, "end": 21}, 
                {"id": 12, "text": "아시리아,", "type": "", "begin": 22, "end": 23}, 
                {"id": 13, "text": "에트루리아에서도", "type": "", "begin": 24, "end": 26}, 
                {"id": 14, "text": "사용되었으며,", "type": "", "begin": 27, "end": 31}, 
                {"id": 15, "text": "고대", "type": "", "begin": 32, "end": 32}, 
                {"id": 16, "text": "로마에서", "type": "", "begin": 33, "end": 34}, 
                {"id": 17, "text": "더욱", "type": "", "begin": 35, "end": 35}, 
                {"id": 18, "text": "다듬어졌다.", "type": "", "begin": 36, "end": 41}
            ], 
            "NE": [
                {"id": 0, "text": "기원전 2500년 경", "type": "DT_OTHERS", "begin": 2, "end": 6, "weight": 0.712768, "common_noun": 0}, 
                {"id": 1, "text": "인더스 문명", "type": "CV_NAME", "begin": 7, "end": 8, "weight": 0.160094, "common_noun": 0}, 
                {"id": 2, "text": "메소포타미아", "type": "LC_OTHERS", "begin": 18, "end": 18, "weight": 0.328288, "common_noun": 0}, 
                {"id": 3, "text": "이집트", "type": "LCP_COUNTRY", "begin": 20, "end": 20, "weight": 0.537076, "common_noun": 0}, 
                {"id": 4, "text": "아시리아", "type": "LCP_COUNTRY", "begin": 22, "end": 22, "weight": 0.40188, "common_noun": 0}, 
                {"id": 5, "text": "에트루리아", "type": "LCP_COUNTRY", "begin": 24, "end": 24, "weight": 0.266688, "common_noun": 0}, 
                {"id": 6, "text": "고대 로마", "type": "DT_DYNASTY", "begin": 32, "end": 33, "weight": 0.596787, "common_noun": 0}
            ], 
            "chunk": [], 
            "dependency": [
                {"id": 0, "text": "아치는", "head": 7, "label": "NP_SBJ", "mod": [], "weight": 0.582108}, 
                {"id": 1, "text": "기원전", "head": 2, "label": "NP", "mod": [], "weight": 0.385815}, 
                {"id": 2, "text": "2500년", "head": 3, "label": "NP", "mod": [1], "weight": 0.706319}, 
                {"id": 3, "text": "경", "head": 7, "label": "NP_AJT", "mod": [2], "weight": 0.265641}, 
                {"id": 4, "text": "인더스", "head": 5, "label": "NP", "mod": [], "weight": 0.704748}, 
                {"id": 5, "text": "문명에서", "head": 7, "label": "NP_AJT", "mod": [4], "weight": 0.718895}, 
                {"id": 6, "text": "최초로", "head": 7, "label": "NP_AJT", "mod": [], "weight": 0.821543}, 
                {"id": 7, "text": "사용되었고", "head": 14, "label": "VP", "mod": [0, 3, 5, 6], "weight": 0.817199}, 
                {"id": 8, "text": "그", "head": 9, "label": "DP", "mod": [], "weight": 0.633813}, 
                {"id": 9, "text": "후", "head": 14, "label": "NP_AJT", "mod": [8], "weight": 0.878871}, 
                {"id": 10, "text": "메소포타미아,", "head": 13, "label": "NP_CNJ", "mod": [], "weight": 0.712117}, 
                {"id": 11, "text": "이집트,", "head": 13, "label": "NP_CNJ", "mod": [], "weight": 0.783503}, 
                {"id": 12, "text": "아시리아,", "head": 13, "label": "NP_CNJ", "mod": [], "weight": 0.577515}, 
                {"id": 13, "text": "에트루리아에서도", "head": 14, "label": "NP_AJT", "mod": [10, 11, 12], "weight": 0.841805}, 
                {"id": 14, "text": "사용되었으며,", "head": 18, "label": "VP", "mod": [7, 9, 13], "weight": 0.751492}, 
                {"id": 15, "text": "고대", "head": 16, "label": "NP", "mod": [], "weight": 0.54703}, 
                {"id": 16, "text": "로마에서", "head": 18, "label": "NP_AJT", "mod": [15], "weight": 0.78114}, 
                {"id": 17, "text": "더욱", "head": 18, "label": "AP", "mod": [], "weight": 0.78764}, 
                {"id": 18, "text": "다듬어졌다.", "head": -1, "label": "VP", "mod": [14, 16, 17], "weight": 0.000424908}
            ], 
            "SRL": [
                {"verb": "사용", "sense": 1, "word_id": 7, "weight": 0.1273, "argument": [
                    {"type": "ARG1", "word_id": 0, "text": "아치는", "weight": 0.093949}, 
                    {"type": "ARGM-TMP", "word_id": 3, "text": "경", "weight": 0.134892}, 
                    {"type": "ARGM-LOC", "word_id": 5, "text": "문명에서", "weight": 1}, 
                    {"type": "ARGM-PRD", "word_id": 6, "text": "최초로", "weight": 1}
                ]}, 
                {"verb": "사용", "sense": 1, "word_id": 14, "weight": 0.148259, "argument": [
                    {"type": "ARGM-TMP", "word_id": 9, "text": "후", "weight": 0.143622}, 
                    {"type": "ARGM-LOC", "word_id": 13, "text": "에트루리아에서도", "weight": 1}, 
                    {"type": "ARG1", "word_id": 0, "text": "아치는", "weight": 1}
                ]}, 
                {"verb": "다듬", "sense": 1, "word_id": 18, "weight": 0.135186, "argument": [
                    {"type": "ARGM-LOC", "word_id": 16, "text": "로마에서", "weight": 0.160035}, 
                    {"type": "ARGM-EXT", "word_id": 17, "text": "더욱", "weight": 0.110337}, 
                    {"type": "ARG1", "word_id": 0, "text": "아치는", "weight": 1}
                ]}
            ], 
            "relation": [], 
            "SA": [], 
            "ZA": []
        }
    ], 
    "entity": [
        {"id": 0, "type": "", "number": "singular", "gender": "", "person": "", "animacy": "thing", "mention": [
            {"id": 0, "sent_id": 0, "start_eid": 0, "end_eid": 1, "ne_id": -1, "text": "아치(arch, 홍예[虹蜺])는", "start_eid_short": 0, "end_eid_short": 0, "text_short": "아치(arch,"}, 
            {"id": 1, "sent_id": 0, "start_eid": 2, "end_eid": 14, "ne_id": -1, "text": "개구부를 확보하며 상당한 하중을 압축 응력으로 지지할 수 있도록 만든 곡선 형태의 구조물이다.", "start_eid_short": 14, "end_eid_short": 14, "text_short": "구조물이다."}, 
            {"id": 8, "sent_id": 1, "start_eid": 0, "end_eid": 0, "ne_id": -1, "text": "아치는", "start_eid_short": 0, "end_eid_short": 0, "text_short": "아치는"}
        ]}, 
        {"id": 1, "type": "", "number": "singular", "gender": "", "person": "", "animacy": "thing", "mention": [
            {"id": 3, "sent_id": 0, "start_eid": 4, "end_eid": 5, "ne_id": -1, "text": "상당한 하중을", "start_eid_short": 5, "end_eid_short": 5, "text_short": "하중을"}
        ]}, 
        {"id": 2, "type": "", "number": "singular", "gender": "", "person": "", "animacy": "thing", "mention": [
            {"id": 4, "sent_id": 0, "start_eid": 6, "end_eid": 7, "ne_id": -1, "text": "압축 응력으로", "start_eid_short": 6, "end_eid_short": 7, "text_short": "압축 응력으로"}
        ]}, 
        {"id": 3, "type": "", "number": "singular", "gender": "", "person": "", "animacy": "thing", "mention": [
            {"id": 5, "sent_id": 0, "start_eid": 6, "end_eid": 6, "ne_id": -1, "text": "압축", "start_eid_short": 6, "end_eid_short": 6, "text_short": "압축"}
        ]}, 
        {"id": 4, "type": "", "number": "singular", "gender": "", "person": "", "animacy": "thing", "mention": [
            {"id": 6, "sent_id": 0, "start_eid": 12, "end_eid": 13, "ne_id": -1, "text": "곡선 형태의", "start_eid_short": 12, "end_eid_short": 13, "text_short": "곡선 형태의"}
        ]}, 
        {"id": 5, "type": "", "number": "singular", "gender": "", "person": "", "animacy": "thing", "mention": [
            {"id": 7, "sent_id": 0, "start_eid": 12, "end_eid": 12, "ne_id": -1, "text": "곡선", "start_eid_short": 12, "end_eid_short": 12, "text_short": "곡선"}
        ]}, 
        {"id": 6, "type": "", "number": "singular", "gender": "", "person": "", "animacy": "thing", "mention": [
            {"id": 10, "sent_id": 1, "start_eid": 4, "end_eid": 5, "ne_id": -1, "text": "인더스 문명에서", "start_eid_short": 4, "end_eid_short": 5, "text_short": "인더스 문명에서"}
        ]}, 
        {"id": 7, "type": "CV_NAME", "number": "singular", "gender": "", "person": "", "animacy": "human", "mention": [
            {"id": 11, "sent_id": 1, "start_eid": 4, "end_eid": 4, "ne_id": 1, "text": "인더스", "start_eid_short": 4, "end_eid_short": 4, "text_short": "인더스"}
        ]}, 
        {"id": 8, "type": "", "number": "singular", "gender": "", "person": "", "animacy": "thing", "mention": [
            {"id": 12, "sent_id": 1, "start_eid": 6, "end_eid": 6, "ne_id": -1, "text": "최초로", "start_eid_short": 6, "end_eid_short": 6, "text_short": "최초로"}
        ]}, 
        {"id": 9, "type": "LCP_CITY", "number": "singular", "gender": "", "person": "", "animacy": "place", "mention": [
            {"id": 14, "sent_id": 1, "start_eid": 10, "end_eid": 13, "ne_id": 5, "text": "메소포타미아, 이집트, 아시리아, 에트루리아에서도", "start_eid_short": 13, "end_eid_short": 13, "text_short": "에트루리아에서도"}
        ]}, 
        {"id": 10, "type": "LC_OTHERS", "number": "singular", "gender": "", "person": "", "animacy": "place", "mention": [
            {"id": 15, "sent_id": 1, "start_eid": 10, "end_eid": 10, "ne_id": 2, "text": "메소포타미아,", "start_eid_short": 10, "end_eid_short": 10, "text_short": "메소포타미아,"}
        ]}, 
        {"id": 11, "type": "LCP_COUNTRY", "number": "singular", "gender": "", "person": "", "animacy": "place", "mention": [
            {"id": 16, "sent_id": 1, "start_eid": 11, "end_eid": 11, "ne_id": 3, "text": "이집트,", "start_eid_short": 11, "end_eid_short": 11, "text_short": "이집트,"}
        ]}, 
        {"id": 12, "type": "LCP_COUNTRY", "number": "singular", "gender": "", "person": "", "animacy": "place", "mention": [
            {"id": 17, "sent_id": 1, "start_eid": 12, "end_eid": 12, "ne_id": 4, "text": "아시리아,", "start_eid_short": 12, "end_eid_short": 12, "text_short": "아시리아,"}
        ]}, 
        {"id": 13, "type": "DT_DYNASTY", "number": "singular", "gender": "", "person": "", "animacy": "time", "mention": [
            {"id": 19, "sent_id": 1, "start_eid": 15, "end_eid": 16, "ne_id": 6, "text": "고대 로마에서", "start_eid_short": 15, "end_eid_short": 16, "text_short": "고대 로마에서"}
        ]}, 
        {"id": 14, "type": "", "number": "singular", "gender": "", "person": "", "animacy": "thing", "mention": [
            {"id": 2, "sent_id": 0, "start_eid": 2, "end_eid": 2, "ne_id": -1, "text": "개구부를", "start_eid_short": 2, "end_eid_short": 2, "text_short": "개구부를"}
        ]}, 
        {"id": 15, "type": "DT_OTHERS", "number": "singular", "gender": "", "person": "", "animacy": "time", "mention": [
            {"id": 9, "sent_id": 1, "start_eid": 1, "end_eid": 3, "ne_id": 0, "text": "기원전 2500년 경", "start_eid_short": 1, "end_eid_short": 3, "text_short": "기원전 2500년 경"}
        ]}, 
        {"id": 16, "type": "", "number": "singular", "gender": "", "person": "", "animacy": "thing", "mention": [
            {"id": 13, "sent_id": 1, "start_eid": 8, "end_eid": 8, "ne_id": -1, "text": "그", "start_eid_short": 8, "end_eid_short": 8, "text_short": "그"}
        ]}, 
        {"id": 17, "type": "LCP_CITY", "number": "singular", "gender": "", "person": "", "animacy": "place", "mention": [
            {"id": 18, "sent_id": 1, "start_eid": 13, "end_eid": 13, "ne_id": 5, "text": "에트루리아에서도", "start_eid_short": 13, "end_eid_short": 13, "text_short": "에트루리아에서도"}
        ]}
    ]
}