{
    "doc_id": "E2016.789.17_A_02.json", 
    "DCT": "", 
    "category": "", 
    "category_weight": 0, 
    "title": {
        "text": "아르곤", 
        "NE": ""
    }, 
    "metaInfo": {}, 
    "sentence": [
        {
            "id": 0, 
            "reserve_str": "", 
            "text": "다른 물질과 반응하는 일이 거의 없어 게으른 것이라는 그리스어 argos로부터 아르곤(argon)이라는 이름이 붙여졌다.", 
            "morp": [
                {"id": 0, "lemma": "다른", "type": "MM", "position": 0, "weight": 0.9}, 
                {"id": 1, "lemma": "물질", "type": "NNG", "position": 7, "weight": 0.9}, 
                {"id": 2, "lemma": "과", "type": "JKB", "position": 13, "weight": 0.0503087}, 
                {"id": 3, "lemma": "반응", "type": "NNG", "position": 17, "weight": 0.9}, 
                {"id": 4, "lemma": "하", "type": "XSV", "position": 23, "weight": 0.0001}, 
                {"id": 5, "lemma": "는", "type": "ETM", "position": 26, "weight": 0.238503}, 
                {"id": 6, "lemma": "일", "type": "NNG", "position": 30, "weight": 0.421798}, 
                {"id": 7, "lemma": "이", "type": "JKS", "position": 33, "weight": 0.0360723}, 
                {"id": 8, "lemma": "거의", "type": "MAG", "position": 37, "weight": 0.114926}, 
                {"id": 9, "lemma": "없", "type": "VA", "position": 44, "weight": 0.133265}, 
                {"id": 10, "lemma": "어", "type": "EC", "position": 47, "weight": 0.311591}, 
                {"id": 11, "lemma": "게으르", "type": "VA", "position": 51, "weight": 0.9}, 
                {"id": 12, "lemma": "ㄴ", "type": "ETM", "position": 57, "weight": 0.430446}, 
                {"id": 13, "lemma": "것", "type": "NNB", "position": 61, "weight": 0.228788}, 
                {"id": 14, "lemma": "이", "type": "VCP", "position": 64, "weight": 0.0607843}, 
                {"id": 15, "lemma": "라는", "type": "ETM", "position": 67, "weight": 0.230361}, 
                {"id": 16, "lemma": "그리스어", "type": "NNP", "position": 74, "weight": 0.9}, 
                {"id": 17, "lemma": "argos", "type": "SL", "position": 87, "weight": 1}, 
                {"id": 18, "lemma": "로부터", "type": "JKB", "position": 92, "weight": 0.0324585}, 
                {"id": 19, "lemma": "아르곤", "type": "NNG", "position": 102, "weight": 0.9}, 
                {"id": 20, "lemma": "(", "type": "SS", "position": 111, "weight": 1}, 
                {"id": 21, "lemma": "argon", "type": "SL", "position": 112, "weight": 1}, 
                {"id": 22, "lemma": ")", "type": "SS", "position": 117, "weight": 1}, 
                {"id": 23, "lemma": "이", "type": "VCP", "position": 118, "weight": 0.00747344}, 
                {"id": 24, "lemma": "라는", "type": "ETM", "position": 121, "weight": 0.230361}, 
                {"id": 25, "lemma": "이름", "type": "NNG", "position": 128, "weight": 0.9}, 
                {"id": 26, "lemma": "이", "type": "JKS", "position": 134, "weight": 0.0360723}, 
                {"id": 27, "lemma": "붙이", "type": "VV", "position": 138, "weight": 0.313199}, 
                {"id": 28, "lemma": "어", "type": "EC", "position": 141, "weight": 0.41831}, 
                {"id": 29, "lemma": "지", "type": "VX", "position": 141, "weight": 0.0539764}, 
                {"id": 30, "lemma": "었", "type": "EP", "position": 141, "weight": 0.9}, 
                {"id": 31, "lemma": "다", "type": "EF", "position": 147, "weight": 0.640954}, 
                {"id": 32, "lemma": ".", "type": "SF", "position": 150, "weight": 1}
            ], 
            "morp_eval": [], 
            "WSD": [
                {"id": 0, "text": "다른", "type": "MM", "scode": "000000", "weight": 1, "position": 0, "begin": 0, "end": 0}, 
                {"id": 1, "text": "물질", "type": "NNG", "scode": "020003", "weight": 0.2, "position": 7, "begin": 1, "end": 1}, 
                {"id": 2, "text": "과", "type": "JKB", "scode": "000000", "weight": 1, "position": 13, "begin": 2, "end": 2}, 
                {"id": 3, "text": "반응하", "type": "VV", "scode": "000200", "weight": 0.25, "position": 17, "begin": 3, "end": 4}, 
                {"id": 4, "text": "는", "type": "ETM", "scode": "000000", "weight": 1, "position": 26, "begin": 5, "end": 5}, 
                {"id": 5, "text": "일", "type": "NNG", "scode": "010010", "weight": 0.04, "position": 30, "begin": 6, "end": 6}, 
                {"id": 6, "text": "이", "type": "JKS", "scode": "000000", "weight": 1, "position": 33, "begin": 7, "end": 7}, 
                {"id": 7, "text": "거의", "type": "MAG", "scode": "010100", "weight": 0.25, "position": 37, "begin": 8, "end": 8}, 
                {"id": 8, "text": "없", "type": "VA", "scode": "010102", "weight": 0.0588235, "position": 44, "begin": 9, "end": 9}, 
                {"id": 9, "text": "어", "type": "EC", "scode": "000000", "weight": 1, "position": 47, "begin": 10, "end": 10}, 
                {"id": 10, "text": "게으르", "type": "VA", "scode": "000000", "weight": 1, "position": 51, "begin": 11, "end": 11}, 
                {"id": 11, "text": "ㄴ", "type": "ETM", "scode": "000000", "weight": 1, "position": 57, "begin": 12, "end": 12}, 
                {"id": 12, "text": "것", "type": "NNB", "scode": "010001", "weight": 0.125, "position": 61, "begin": 13, "end": 13}, 
                {"id": 13, "text": "이", "type": "VCP", "scode": "030000", "weight": 0.0172414, "position": 64, "begin": 14, "end": 14}, 
                {"id": 14, "text": "라는", "type": "ETM", "scode": "000000", "weight": 1, "position": 67, "begin": 15, "end": 15}, 
                {"id": 15, "text": "그리스어", "type": "NNP", "scode": "000000", "weight": 1, "position": 74, "begin": 16, "end": 16}, 
                {"id": 16, "text": "argos", "type": "SL", "scode": "000000", "weight": 1, "position": 87, "begin": 17, "end": 17}, 
                {"id": 17, "text": "로부터", "type": "JKB", "scode": "000000", "weight": 1, "position": 92, "begin": 18, "end": 18}, 
                {"id": 18, "text": "아르곤", "type": "NNG", "scode": "000000", "weight": 1, "position": 102, "begin": 19, "end": 19}, 
                {"id": 19, "text": "(", "type": "SS", "scode": "000000", "weight": 1, "position": 111, "begin": 20, "end": 20}, 
                {"id": 20, "text": "argon", "type": "SL", "scode": "000000", "weight": 1, "position": 112, "begin": 21, "end": 21}, 
                {"id": 21, "text": ")", "type": "SS", "scode": "000000", "weight": 1, "position": 117, "begin": 22, "end": 22}, 
                {"id": 22, "text": "이", "type": "VCP", "scode": "030000", "weight": 0.0172414, "position": 118, "begin": 23, "end": 23}, 
                {"id": 23, "text": "라는", "type": "ETM", "scode": "000000", "weight": 1, "position": 121, "begin": 24, "end": 24}, 
                {"id": 24, "text": "이름", "type": "NNG", "scode": "000001", "weight": 0.111111, "position": 128, "begin": 25, "end": 25}, 
                {"id": 25, "text": "이", "type": "JKS", "scode": "000000", "weight": 1, "position": 134, "begin": 26, "end": 26}, 
                {"id": 26, "text": "붙이", "type": "VV", "scode": "000204", "weight": 0.0454545, "position": 138, "begin": 27, "end": 27}, 
                {"id": 27, "text": "어", "type": "EC", "scode": "000000", "weight": 1, "position": 141, "begin": 28, "end": 28}, 
                {"id": 28, "text": "지", "type": "VX", "scode": "040101", "weight": 0.037037, "position": 141, "begin": 29, "end": 29}, 
                {"id": 29, "text": "었", "type": "EP", "scode": "000000", "weight": 1, "position": 141, "begin": 30, "end": 30}, 
                {"id": 30, "text": "다", "type": "EF", "scode": "000000", "weight": 1, "position": 147, "begin": 31, "end": 31}, 
                {"id": 31, "text": ".", "type": "SF", "scode": "000000", "weight": 1, "position": 150, "begin": 32, "end": 32}
            ], 
            "word": [
                {"id": 0, "text": "다른", "type": "", "begin": 0, "end": 0}, 
                {"id": 1, "text": "물질과", "type": "", "begin": 1, "end": 2}, 
                {"id": 2, "text": "반응하는", "type": "", "begin": 3, "end": 5}, 
                {"id": 3, "text": "일이", "type": "", "begin": 6, "end": 7}, 
                {"id": 4, "text": "거의", "type": "", "begin": 8, "end": 8}, 
                {"id": 5, "text": "없어", "type": "", "begin": 9, "end": 10}, 
                {"id": 6, "text": "게으른", "type": "", "begin": 11, "end": 12}, 
                {"id": 7, "text": "것이라는", "type": "", "begin": 13, "end": 15}, 
                {"id": 8, "text": "그리스어", "type": "", "begin": 16, "end": 16}, 
                {"id": 9, "text": "argos로부터", "type": "", "begin": 17, "end": 18}, 
                {"id": 10, "text": "아르곤(argon)이라는", "type": "", "begin": 19, "end": 24}, 
                {"id": 11, "text": "이름이", "type": "", "begin": 25, "end": 26}, 
                {"id": 12, "text": "붙여졌다.", "type": "", "begin": 27, "end": 32}
            ], 
            "NE": [
                {"id": 0, "text": "그리스어", "type": "CV_LANGUAGE", "begin": 16, "end": 16, "weight": 0.476298, "common_noun": 0}, 
                {"id": 1, "text": "아르곤", "type": "MT_ELEMENT", "begin": 19, "end": 19, "weight": 1, "common_noun": 0}, 
                {"id": 2, "text": "argon", "type": "MT_ELEMENT", "begin": 21, "end": 21, "weight": 1, "common_noun": 0}
            ], 
            "chunk": [], 
            "dependency": [
                {"id": 0, "text": "다른", "head": 1, "label": "DP", "mod": [], "weight": 0.701261}, 
                {"id": 1, "text": "물질과", "head": 2, "label": "NP_AJT", "mod": [0], "weight": 0.706909}, 
                {"id": 2, "text": "반응하는", "head": 3, "label": "VP_MOD", "mod": [1], "weight": 0.727654}, 
                {"id": 3, "text": "일이", "head": 5, "label": "NP_SBJ", "mod": [2], "weight": 0.725913}, 
                {"id": 4, "text": "거의", "head": 5, "label": "AP", "mod": [], "weight": 0.594154}, 
                {"id": 5, "text": "없어", "head": 12, "label": "VP", "mod": [3, 4], "weight": 0.612398}, 
                {"id": 6, "text": "게으른", "head": 7, "label": "VP_MOD", "mod": [], "weight": 0.853499}, 
                {"id": 7, "text": "것이라는", "head": 9, "label": "VNP_MOD", "mod": [6], "weight": 0.54328}, 
                {"id": 8, "text": "그리스어", "head": 9, "label": "NP", "mod": [], "weight": 0.666364}, 
                {"id": 9, "text": "argos로부터", "head": 12, "label": "NP_AJT", "mod": [8, 7], "weight": 0.29232}, 
                {"id": 10, "text": "아르곤(argon)이라는", "head": 11, "label": "VNP_MOD", "mod": [], "weight": 0.384692}, 
                {"id": 11, "text": "이름이", "head": 12, "label": "NP_SBJ", "mod": [10], "weight": 0.853182}, 
                {"id": 12, "text": "붙여졌다.", "head": -1, "label": "VP", "mod": [11, 9, 5], "weight": 0.00216512}
            ], 
            "SRL": [
                {"verb": "반응", "sense": 1, "word_id": 2, "weight": 0.227785, "argument": [
                    {"type": "ARG2", "word_id": 1, "text": "물질과", "weight": 0.21031}
                ]}, 
                {"verb": "없", "sense": 1, "word_id": 5, "weight": 0.27849, "argument": [
                    {"type": "ARG1", "word_id": 3, "text": "일이", "weight": 0.349204}, 
                    {"type": "ARGM-EXT", "word_id": 4, "text": "거의", "weight": 1}
                ]}, 
                {"verb": "게으르", "sense": 1, "word_id": 6, "weight": 0.189724, "argument": [
                    {"type": "ARG1", "word_id": 7, "text": "것이라는", "weight": 0.189724}
                ]}, 
                {"verb": "붙이", "sense": 1, "word_id": 12, "weight": 0.235022, "argument": [
                    {"type": "ARG1", "word_id": 11, "text": "이름이", "weight": 0.235022}, 
                    {"type": "ARGM-PRD", "word_id": 9, "text": "argos로부터", "weight": 1}, 
                    {"type": "ARG2", "word_id": 10, "text": "아르곤(argon)이라는", "weight": 1}, 
                    {"type": "ARGM-CAU", "word_id": 5, "text": "없어", "weight": 1}
                ]}
            ], 
            "relation": [], 
            "SA": [], 
            "ZA": []
        }
    ], 
    "entity": [
        {"id": 0, "type": "", "number": "singular", "gender": "", "person": "", "animacy": "thing", "mention": [
            {"id": 0, "sent_id": 0, "start_eid": 0, "end_eid": 3, "ne_id": -1, "text": "다른 물질과 반응하는 일이", "start_eid_short": 3, "end_eid_short": 3, "text_short": "일이"}
        ]}, 
        {"id": 1, "type": "", "number": "singular", "gender": "", "person": "", "animacy": "thing", "mention": [
            {"id": 1, "sent_id": 0, "start_eid": 0, "end_eid": 1, "ne_id": -1, "text": "다른 물질과", "start_eid_short": 0, "end_eid_short": 1, "text_short": "다른 물질과"}
        ]}, 
        {"id": 2, "type": "", "number": "singular", "gender": "", "person": "", "animacy": "thing", "mention": [
            {"id": 4, "sent_id": 0, "start_eid": 6, "end_eid": 7, "ne_id": -1, "text": "게으른 것이라는", "start_eid_short": 7, "end_eid_short": 7, "text_short": "것이라는"}
        ]}, 
        {"id": 3, "type": "MT_ELEMENT", "number": "singular", "gender": "", "person": "", "animacy": "thing", "mention": [
            {"id": 5, "sent_id": 0, "start_eid": 10, "end_eid": 11, "ne_id": -1, "text": "아르곤(argon)이라는 이름이", "start_eid_short": 11, "end_eid_short": 0, "text_short": ""}, 
            {"id": 6, "sent_id": 0, "start_eid": 10, "end_eid": 10, "ne_id": 1, "text": "아르곤(argon)이라는", "start_eid_short": 10, "end_eid_short": 0, "text_short": ""}
        ]}, 
        {"id": 4, "type": "CV_LANGUAGE", "number": "singular", "gender": "", "person": "", "animacy": "thing", "mention": [
            {"id": 2, "sent_id": 0, "start_eid": 6, "end_eid": 9, "ne_id": -1, "text": "게으른 것이라는 그리스어 argos로부터", "start_eid_short": 9, "end_eid_short": 9, "text_short": "argos로부터"}, 
            {"id": 3, "sent_id": 0, "start_eid": 6, "end_eid": 8, "ne_id": 0, "text": "게으른 것이라는 그리스어", "start_eid_short": 8, "end_eid_short": 8, "text_short": "그리스어"}
        ]}
    ]
}