{
    "doc_id": "E2016.837.29_A_02.json", 
    "DCT": "", 
    "category": "", 
    "category_weight": 0, 
    "title": {
        "text": "불비불명", 
        "NE": ""
    }, 
    "metaInfo": {}, 
    "sentence": [
        {
            "id": 0, 
            "reserve_str": "", 
            "text": "복룡봉추(伏龍鳳雛:엎드려 있는 용과 봉황의 새라는 뜻으로, 초야에 숨어 있는 훌륭한 인재를 말함), 와룡봉추(臥龍鳳雛:누워 있는 용과 봉황의 병아리), 용구봉추(龍駒鳳雛:뛰어난 말과 봉황의 병아리) 등도 인재가 때를 기다린다는 뜻도 있으므로 불비불명과 비슷한 고사성어이다.", 
            "morp": [
                {"id": 0, "lemma": "복룡봉추", "type": "NNG", "position": 0, "weight": 0.6}, 
                {"id": 1, "lemma": "(", "type": "SS", "position": 12, "weight": 1}, 
                {"id": 2, "lemma": "伏龍鳳雛", "type": "SH", "position": 13, "weight": 1}, 
                {"id": 3, "lemma": ":", "type": "SP", "position": 25, "weight": 1}, 
                {"id": 4, "lemma": "엎드리", "type": "VV", "position": 26, "weight": 0.9}, 
                {"id": 5, "lemma": "어", "type": "EC", "position": 32, "weight": 0.41831}, 
                {"id": 6, "lemma": "있", "type": "VX", "position": 36, "weight": 0.125953}, 
                {"id": 7, "lemma": "는", "type": "ETM", "position": 39, "weight": 0.183966}, 
                {"id": 8, "lemma": "용", "type": "NNG", "position": 43, "weight": 0.0724547}, 
                {"id": 9, "lemma": "과", "type": "JC", "position": 46, "weight": 0.017569}, 
                {"id": 10, "lemma": "봉황", "type": "NNG", "position": 50, "weight": 0.9}, 
                {"id": 11, "lemma": "의", "type": "JKG", "position": 56, "weight": 0.0694213}, 
                {"id": 12, "lemma": "새", "type": "NNG", "position": 60, "weight": 0.337397}, 
                {"id": 13, "lemma": "이", "type": "VCP", "position": 60, "weight": 0.0177525}, 
                {"id": 14, "lemma": "라는", "type": "ETM", "position": 63, "weight": 0.230361}, 
                {"id": 15, "lemma": "뜻", "type": "NNG", "position": 70, "weight": 0.9}, 
                {"id": 16, "lemma": "으로", "type": "JKB", "position": 73, "weight": 0.153406}, 
                {"id": 17, "lemma": ",", "type": "SP", "position": 79, "weight": 1}, 
                {"id": 18, "lemma": "초야", "type": "NNG", "position": 81, "weight": 0.9}, 
                {"id": 19, "lemma": "에", "type": "JKB", "position": 87, "weight": 0.153364}, 
                {"id": 20, "lemma": "숨", "type": "VV", "position": 91, "weight": 0.156007}, 
                {"id": 21, "lemma": "어", "type": "EC", "position": 94, "weight": 0.41831}, 
                {"id": 22, "lemma": "있", "type": "VX", "position": 98, "weight": 0.125953}, 
                {"id": 23, "lemma": "는", "type": "ETM", "position": 101, "weight": 0.183966}, 
                {"id": 24, "lemma": "훌륭하", "type": "VA", "position": 105, "weight": 0.9}, 
                {"id": 25, "lemma": "ㄴ", "type": "ETM", "position": 111, "weight": 0.430446}, 
                {"id": 26, "lemma": "인재", "type": "NNG", "position": 115, "weight": 0.618911}, 
                {"id": 27, "lemma": "를", "type": "JKO", "position": 121, "weight": 0.137686}, 
                {"id": 28, "lemma": "말", "type": "NNG", "position": 125, "weight": 0.0814073}, 
                {"id": 29, "lemma": "하", "type": "XSV", "position": 128, "weight": 0.0001}, 
                {"id": 30, "lemma": "ㅁ", "type": "ETN", "position": 128, "weight": 0.0575018}, 
                {"id": 31, "lemma": ")", "type": "SS", "position": 131, "weight": 1}, 
                {"id": 32, "lemma": ",", "type": "SP", "position": 132, "weight": 1}, 
                {"id": 33, "lemma": "와룡봉추", "type": "NNG", "position": 134, "weight": 0.6}, 
                {"id": 34, "lemma": "(", "type": "SS", "position": 146, "weight": 1}, 
                {"id": 35, "lemma": "臥龍鳳雛", "type": "SH", "position": 147, "weight": 1}, 
                {"id": 36, "lemma": ":", "type": "SP", "position": 159, "weight": 1}, 
                {"id": 37, "lemma": "눕", "type": "VV", "position": 160, "weight": 0.9}, 
                {"id": 38, "lemma": "어", "type": "EC", "position": 160, "weight": 0.41831}, 
                {"id": 39, "lemma": "있", "type": "VX", "position": 167, "weight": 0.125953}, 
                {"id": 40, "lemma": "는", "type": "ETM", "position": 170, "weight": 0.183966}, 
                {"id": 41, "lemma": "용", "type": "NNG", "position": 174, "weight": 0.0724547}, 
                {"id": 42, "lemma": "과", "type": "JC", "position": 177, "weight": 0.017569}, 
                {"id": 43, "lemma": "봉황", "type": "NNG", "position": 181, "weight": 0.9}, 
                {"id": 44, "lemma": "의", "type": "JKG", "position": 187, "weight": 0.0694213}, 
                {"id": 45, "lemma": "병아리", "type": "NNG", "position": 191, "weight": 0.9}, 
                {"id": 46, "lemma": ")", "type": "SS", "position": 200, "weight": 1}, 
                {"id": 47, "lemma": ",", "type": "SP", "position": 201, "weight": 1}, 
                {"id": 48, "lemma": "용구봉추", "type": "NNG", "position": 203, "weight": 0.6}, 
                {"id": 49, "lemma": "(", "type": "SS", "position": 215, "weight": 1}, 
                {"id": 50, "lemma": "龍駒鳳雛", "type": "SH", "position": 216, "weight": 1}, 
                {"id": 51, "lemma": ":", "type": "SP", "position": 228, "weight": 1}, 
                {"id": 52, "lemma": "뛰어나", "type": "VA", "position": 229, "weight": 0.9}, 
                {"id": 53, "lemma": "ㄴ", "type": "ETM", "position": 235, "weight": 0.430446}, 
                {"id": 54, "lemma": "말", "type": "NNG", "position": 239, "weight": 0.528926}, 
                {"id": 55, "lemma": "과", "type": "JC", "position": 242, "weight": 0.017569}, 
                {"id": 56, "lemma": "봉황", "type": "NNG", "position": 246, "weight": 0.9}, 
                {"id": 57, "lemma": "의", "type": "JKG", "position": 252, "weight": 0.0694213}, 
                {"id": 58, "lemma": "병아리", "type": "NNG", "position": 256, "weight": 0.9}, 
                {"id": 59, "lemma": ")", "type": "SS", "position": 265, "weight": 1}, 
                {"id": 60, "lemma": "등", "type": "NNB", "position": 267, "weight": 0.0121753}, 
                {"id": 61, "lemma": "도", "type": "JX", "position": 270, "weight": 0.103448}, 
                {"id": 62, "lemma": "인재", "type": "NNG", "position": 274, "weight": 0.30523}, 
                {"id": 63, "lemma": "가", "type": "JKS", "position": 280, "weight": 0.066324}, 
                {"id": 64, "lemma": "때", "type": "NNG", "position": 284, "weight": 0.208507}, 
                {"id": 65, "lemma": "를", "type": "JKO", "position": 287, "weight": 0.137686}, 
                {"id": 66, "lemma": "기다리", "type": "VV", "position": 291, "weight": 0.9}, 
                {"id": 67, "lemma": "ㄴ다는", "type": "ETM", "position": 297, "weight": 0.317555}, 
                {"id": 68, "lemma": "뜻", "type": "NNG", "position": 307, "weight": 0.9}, 
                {"id": 69, "lemma": "도", "type": "JX", "position": 310, "weight": 0.0676272}, 
                {"id": 70, "lemma": "있", "type": "VA", "position": 314, "weight": 0.0558599}, 
                {"id": 71, "lemma": "으므로", "type": "EC", "position": 317, "weight": 0.312517}, 
                {"id": 72, "lemma": "불비불명", "type": "NNG", "position": 327, "weight": 0.9}, 
                {"id": 73, "lemma": "과", "type": "JKB", "position": 339, "weight": 0.0503087}, 
                {"id": 74, "lemma": "비슷하", "type": "VA", "position": 343, "weight": 0.9}, 
                {"id": 75, "lemma": "ㄴ", "type": "ETM", "position": 349, "weight": 0.430446}, 
                {"id": 76, "lemma": "고사", "type": "NNG", "position": 353, "weight": 0.9}, 
                {"id": 77, "lemma": "성어", "type": "NNG", "position": 359, "weight": 0.9}, 
                {"id": 78, "lemma": "이", "type": "VCP", "position": 365, "weight": 0.0177525}, 
                {"id": 79, "lemma": "다", "type": "EF", "position": 368, "weight": 0.353579}, 
                {"id": 80, "lemma": ".", "type": "SF", "position": 371, "weight": 1}
            ], 
            "morp_eval": [], 
            "WSD": [
                {"id": 0, "text": "복룡봉추", "type": "NNG", "scode": "000000", "weight": 0, "position": 0, "begin": 0, "end": 0}, 
                {"id": 1, "text": "(", "type": "SS", "scode": "000000", "weight": 1, "position": 12, "begin": 1, "end": 1}, 
                {"id": 2, "text": "伏龍鳳雛", "type": "SH", "scode": "000000", "weight": 1, "position": 13, "begin": 2, "end": 2}, 
                {"id": 3, "text": ":", "type": "SP", "scode": "000000", "weight": 1, "position": 25, "begin": 3, "end": 3}, 
                {"id": 4, "text": "엎드리", "type": "VV", "scode": "000001", "weight": 0.333333, "position": 26, "begin": 4, "end": 4}, 
                {"id": 5, "text": "어", "type": "EC", "scode": "000000", "weight": 1, "position": 32, "begin": 5, "end": 5}, 
                {"id": 6, "text": "있", "type": "VX", "scode": "010901", "weight": 0.0416667, "position": 36, "begin": 6, "end": 6}, 
                {"id": 7, "text": "는", "type": "ETM", "scode": "000000", "weight": 1, "position": 39, "begin": 7, "end": 7}, 
                {"id": 8, "text": "용", "type": "NNG", "scode": "090000", "weight": 0.0909091, "position": 43, "begin": 8, "end": 8}, 
                {"id": 9, "text": "과", "type": "JC", "scode": "000000", "weight": 1, "position": 46, "begin": 9, "end": 9}, 
                {"id": 10, "text": "봉황", "type": "NNG", "scode": "000000", "weight": 1, "position": 50, "begin": 10, "end": 10}, 
                {"id": 11, "text": "의", "type": "JKG", "scode": "000000", "weight": 1, "position": 56, "begin": 11, "end": 11}, 
                {"id": 12, "text": "새", "type": "NNG", "scode": "030001", "weight": 0.0384615, "position": 60, "begin": 12, "end": 12}, 
                {"id": 13, "text": "이", "type": "VCP", "scode": "030000", "weight": 0.0172414, "position": 60, "begin": 13, "end": 13}, 
                {"id": 14, "text": "라는", "type": "ETM", "scode": "000000", "weight": 1, "position": 63, "begin": 14, "end": 14}, 
                {"id": 15, "text": "뜻", "type": "NNG", "scode": "000002", "weight": 0.333333, "position": 70, "begin": 15, "end": 15}, 
                {"id": 16, "text": "으로", "type": "JKB", "scode": "000000", "weight": 1, "position": 73, "begin": 16, "end": 16}, 
                {"id": 17, "text": ",", "type": "SP", "scode": "000000", "weight": 1, "position": 79, "begin": 17, "end": 17}, 
                {"id": 18, "text": "초야", "type": "NNG", "scode": "030001", "weight": 0.166667, "position": 81, "begin": 18, "end": 18}, 
                {"id": 19, "text": "에", "type": "JKB", "scode": "000000", "weight": 1, "position": 87, "begin": 19, "end": 19}, 
                {"id": 20, "text": "숨", "type": "VV", "scode": "010001", "weight": 0.333333, "position": 91, "begin": 20, "end": 20}, 
                {"id": 21, "text": "어", "type": "EC", "scode": "000000", "weight": 1, "position": 94, "begin": 21, "end": 21}, 
                {"id": 22, "text": "있", "type": "VX", "scode": "010901", "weight": 0.0416667, "position": 98, "begin": 22, "end": 22}, 
                {"id": 23, "text": "는", "type": "ETM", "scode": "000000", "weight": 1, "position": 101, "begin": 23, "end": 23}, 
                {"id": 24, "text": "훌륭하", "type": "VA", "scode": "000000", "weight": 1, "position": 105, "begin": 24, "end": 24}, 
                {"id": 25, "text": "ㄴ", "type": "ETM", "scode": "000000", "weight": 1, "position": 111, "begin": 25, "end": 25}, 
                {"id": 26, "text": "인재", "type": "NNG", "scode": "020000", "weight": 0.25, "position": 115, "begin": 26, "end": 26}, 
                {"id": 27, "text": "를", "type": "JKO", "scode": "000000", "weight": 1, "position": 121, "begin": 27, "end": 27}, 
                {"id": 28, "text": "말하", "type": "VV", "scode": "000300", "weight": 0.125, "position": 125, "begin": 28, "end": 29}, 
                {"id": 29, "text": "ㅁ", "type": "ETN", "scode": "000000", "weight": 1, "position": 128, "begin": 30, "end": 30}, 
                {"id": 30, "text": ")", "type": "SS", "scode": "000000", "weight": 1, "position": 131, "begin": 31, "end": 31}, 
                {"id": 31, "text": ",", "type": "SP", "scode": "000000", "weight": 1, "position": 132, "begin": 32, "end": 32}, 
                {"id": 32, "text": "와룡봉추", "type": "NNG", "scode": "000000", "weight": 0, "position": 134, "begin": 33, "end": 33}, 
                {"id": 33, "text": "(", "type": "SS", "scode": "000000", "weight": 1, "position": 146, "begin": 34, "end": 34}, 
                {"id": 34, "text": "臥龍鳳雛", "type": "SH", "scode": "000000", "weight": 1, "position": 147, "begin": 35, "end": 35}, 
                {"id": 35, "text": ":", "type": "SP", "scode": "000000", "weight": 1, "position": 159, "begin": 36, "end": 36}, 
                {"id": 36, "text": "눕", "type": "VV", "scode": "010001", "weight": 0.2, "position": 160, "begin": 37, "end": 37}, 
                {"id": 37, "text": "어", "type": "EC", "scode": "000000", "weight": 1, "position": 160, "begin": 38, "end": 38}, 
                {"id": 38, "text": "있", "type": "VX", "scode": "010901", "weight": 0.0416667, "position": 167, "begin": 39, "end": 39}, 
                {"id": 39, "text": "는", "type": "ETM", "scode": "000000", "weight": 1, "position": 170, "begin": 40, "end": 40}, 
                {"id": 40, "text": "용", "type": "NNG", "scode": "090000", "weight": 0.0909091, "position": 174, "begin": 41, "end": 41}, 
                {"id": 41, "text": "과", "type": "JC", "scode": "000000", "weight": 1, "position": 177, "begin": 42, "end": 42}, 
                {"id": 42, "text": "봉황", "type": "NNG", "scode": "000000", "weight": 1, "position": 181, "begin": 43, "end": 43}, 
                {"id": 43, "text": "의", "type": "JKG", "scode": "000000", "weight": 1, "position": 187, "begin": 44, "end": 44}, 
                {"id": 44, "text": "병아리", "type": "NNG", "scode": "000001", "weight": 0.5, "position": 191, "begin": 45, "end": 45}, 
                {"id": 45, "text": ")", "type": "SS", "scode": "000000", "weight": 1, "position": 200, "begin": 46, "end": 46}, 
                {"id": 46, "text": ",", "type": "SP", "scode": "000000", "weight": 1, "position": 201, "begin": 47, "end": 47}, 
                {"id": 47, "text": "용구봉추", "type": "NNG", "scode": "000000", "weight": 0, "position": 203, "begin": 48, "end": 48}, 
                {"id": 48, "text": "(", "type": "SS", "scode": "000000", "weight": 1, "position": 215, "begin": 49, "end": 49}, 
                {"id": 49, "text": "龍駒鳳雛", "type": "SH", "scode": "000000", "weight": 1, "position": 216, "begin": 50, "end": 50}, 
                {"id": 50, "text": ":", "type": "SP", "scode": "000000", "weight": 1, "position": 228, "begin": 51, "end": 51}, 
                {"id": 51, "text": "뛰어나", "type": "VA", "scode": "000000", "weight": 1, "position": 229, "begin": 52, "end": 52}, 
                {"id": 52, "text": "ㄴ", "type": "ETM", "scode": "000000", "weight": 1, "position": 235, "begin": 53, "end": 53}, 
                {"id": 53, "text": "말", "type": "NNG", "scode": "050000", "weight": 0.0384615, "position": 239, "begin": 54, "end": 54}, 
                {"id": 54, "text": "과", "type": "JC", "scode": "000000", "weight": 1, "position": 242, "begin": 55, "end": 55}, 
                {"id": 55, "text": "봉황", "type": "NNG", "scode": "000000", "weight": 1, "position": 246, "begin": 56, "end": 56}, 
                {"id": 56, "text": "의", "type": "JKG", "scode": "000000", "weight": 1, "position": 252, "begin": 57, "end": 57}, 
                {"id": 57, "text": "병아리", "type": "NNG", "scode": "000001", "weight": 0.5, "position": 256, "begin": 58, "end": 58}, 
                {"id": 58, "text": ")", "type": "SS", "scode": "000000", "weight": 1, "position": 265, "begin": 59, "end": 59}, 
                {"id": 59, "text": "등", "type": "NNB", "scode": "050001", "weight": 0.0526316, "position": 267, "begin": 60, "end": 60}, 
                {"id": 60, "text": "도", "type": "JX", "scode": "000000", "weight": 1, "position": 270, "begin": 61, "end": 61}, 
                {"id": 61, "text": "인재", "type": "NNG", "scode": "020000", "weight": 0.25, "position": 274, "begin": 62, "end": 62}, 
                {"id": 62, "text": "가", "type": "JKS", "scode": "000000", "weight": 1, "position": 280, "begin": 63, "end": 63}, 
                {"id": 63, "text": "때", "type": "NNG", "scode": "010005", "weight": 0.0666667, "position": 284, "begin": 64, "end": 64}, 
                {"id": 64, "text": "를", "type": "JKO", "scode": "000000", "weight": 1, "position": 287, "begin": 65, "end": 65}, 
                {"id": 65, "text": "기다리", "type": "VV", "scode": "000000", "weight": 1, "position": 291, "begin": 66, "end": 66}, 
                {"id": 66, "text": "ㄴ다는", "type": "ETM", "scode": "000000", "weight": 1, "position": 297, "begin": 67, "end": 67}, 
                {"id": 67, "text": "뜻", "type": "NNG", "scode": "000002", "weight": 0.333333, "position": 307, "begin": 68, "end": 68}, 
                {"id": 68, "text": "도", "type": "JX", "scode": "000000", "weight": 1, "position": 310, "begin": 69, "end": 69}, 
                {"id": 69, "text": "있", "type": "VA", "scode": "010302", "weight": 0.0416667, "position": 314, "begin": 70, "end": 70}, 
                {"id": 70, "text": "으므로", "type": "EC", "scode": "000000", "weight": 1, "position": 317, "begin": 71, "end": 71}, 
                {"id": 71, "text": "불비불명", "type": "NNG", "scode": "000000", "weight": 0, "position": 327, "begin": 72, "end": 72}, 
                {"id": 72, "text": "과", "type": "JKB", "scode": "000000", "weight": 1, "position": 339, "begin": 73, "end": 73}, 
                {"id": 73, "text": "비슷하", "type": "VA", "scode": "020202", "weight": 0.25, "position": 343, "begin": 74, "end": 74}, 
                {"id": 74, "text": "ㄴ", "type": "ETM", "scode": "000000", "weight": 1, "position": 349, "begin": 75, "end": 75}, 
                {"id": 75, "text": "고사성어", "type": "NNG", "scode": "000000", "weight": 1, "position": 353, "begin": 76, "end": 77}, 
                {"id": 76, "text": "이", "type": "VCP", "scode": "030000", "weight": 0.0172414, "position": 365, "begin": 78, "end": 78}, 
                {"id": 77, "text": "다", "type": "EF", "scode": "000000", "weight": 1, "position": 368, "begin": 79, "end": 79}, 
                {"id": 78, "text": ".", "type": "SF", "scode": "000000", "weight": 1, "position": 371, "begin": 80, "end": 80}
            ], 
            "word": [
                {"id": 0, "text": "복룡봉추(伏龍鳳雛:엎드려", "type": "", "begin": 0, "end": 5}, 
                {"id": 1, "text": "있는", "type": "", "begin": 6, "end": 7}, 
                {"id": 2, "text": "용과", "type": "", "begin": 8, "end": 9}, 
                {"id": 3, "text": "봉황의", "type": "", "begin": 10, "end": 11}, 
                {"id": 4, "text": "새라는", "type": "", "begin": 12, "end": 14}, 
                {"id": 5, "text": "뜻으로,", "type": "", "begin": 15, "end": 17}, 
                {"id": 6, "text": "초야에", "type": "", "begin": 18, "end": 19}, 
                {"id": 7, "text": "숨어", "type": "", "begin": 20, "end": 21}, 
                {"id": 8, "text": "있는", "type": "", "begin": 22, "end": 23}, 
                {"id": 9, "text": "훌륭한", "type": "", "begin": 24, "end": 25}, 
                {"id": 10, "text": "인재를", "type": "", "begin": 26, "end": 27}, 
                {"id": 11, "text": "말함),", "type": "", "begin": 28, "end": 32}, 
                {"id": 12, "text": "와룡봉추(臥龍鳳雛:누워", "type": "", "begin": 33, "end": 38}, 
                {"id": 13, "text": "있는", "type": "", "begin": 39, "end": 40}, 
                {"id": 14, "text": "용과", "type": "", "begin": 41, "end": 42}, 
                {"id": 15, "text": "봉황의", "type": "", "begin": 43, "end": 44}, 
                {"id": 16, "text": "병아리),", "type": "", "begin": 45, "end": 47}, 
                {"id": 17, "text": "용구봉추(龍駒鳳雛:뛰어난", "type": "", "begin": 48, "end": 53}, 
                {"id": 18, "text": "말과", "type": "", "begin": 54, "end": 55}, 
                {"id": 19, "text": "봉황의", "type": "", "begin": 56, "end": 57}, 
                {"id": 20, "text": "병아리)", "type": "", "begin": 58, "end": 59}, 
                {"id": 21, "text": "등도", "type": "", "begin": 60, "end": 61}, 
                {"id": 22, "text": "인재가", "type": "", "begin": 62, "end": 63}, 
                {"id": 23, "text": "때를", "type": "", "begin": 64, "end": 65}, 
                {"id": 24, "text": "기다린다는", "type": "", "begin": 66, "end": 67}, 
                {"id": 25, "text": "뜻도", "type": "", "begin": 68, "end": 69}, 
                {"id": 26, "text": "있으므로", "type": "", "begin": 70, "end": 71}, 
                {"id": 27, "text": "불비불명과", "type": "", "begin": 72, "end": 73}, 
                {"id": 28, "text": "비슷한", "type": "", "begin": 74, "end": 75}, 
                {"id": 29, "text": "고사성어이다.", "type": "", "begin": 76, "end": 80}
            ], 
            "NE": [
                {"id": 0, "text": "용", "type": "AM_REPTILIA", "begin": 8, "end": 8, "weight": 0.278214, "common_noun": 0}, 
                {"id": 1, "text": "봉황", "type": "AM_BIRD", "begin": 10, "end": 10, "weight": 0.643052, "common_noun": 0}, 
                {"id": 2, "text": "새", "type": "AM_TYPE", "begin": 12, "end": 12, "weight": 0.259012, "common_noun": 0}, 
                {"id": 3, "text": "용", "type": "AM_REPTILIA", "begin": 41, "end": 41, "weight": 0.278082, "common_noun": 0}, 
                {"id": 4, "text": "봉황", "type": "AM_BIRD", "begin": 43, "end": 43, "weight": 0.622632, "common_noun": 0}, 
                {"id": 5, "text": "병아리", "type": "AM_BIRD", "begin": 45, "end": 45, "weight": 0.432628, "common_noun": 0}, 
                {"id": 6, "text": "말", "type": "AM_MAMMALIA", "begin": 54, "end": 54, "weight": 0.615332, "common_noun": 0}, 
                {"id": 7, "text": "봉황", "type": "AM_BIRD", "begin": 56, "end": 56, "weight": 0.730488, "common_noun": 0}, 
                {"id": 8, "text": "병아리", "type": "AM_BIRD", "begin": 58, "end": 58, "weight": 0.404411, "common_noun": 0}
            ], 
            "chunk": [], 
            "dependency": [
                {"id": 0, "text": "복룡봉추(伏龍鳳雛:엎드려", "head": 1, "label": "NP", "mod": [], "weight": 0.838799}, 
                {"id": 1, "text": "있는", "head": 3, "label": "VP_MOD", "mod": [0], "weight": 0.716829}, 
                {"id": 2, "text": "용과", "head": 3, "label": "NP_CNJ", "mod": [], "weight": 0.449761}, 
                {"id": 3, "text": "봉황의", "head": 4, "label": "NP_MOD", "mod": [2, 1], "weight": 0.827291}, 
                {"id": 4, "text": "새라는", "head": 5, "label": "VNP_MOD", "mod": [3], "weight": 0.642904}, 
                {"id": 5, "text": "뜻으로,", "head": 11, "label": "NP_AJT", "mod": [4], "weight": 0.699921}, 
                {"id": 6, "text": "초야에", "head": 7, "label": "NP_AJT", "mod": [], "weight": 0.780261}, 
                {"id": 7, "text": "숨어", "head": 8, "label": "VP", "mod": [6], "weight": 0.869707}, 
                {"id": 8, "text": "있는", "head": 11, "label": "VP_MOD", "mod": [7], "weight": 0.533154}, 
                {"id": 9, "text": "훌륭한", "head": 10, "label": "VP_MOD", "mod": [], "weight": 0.658922}, 
                {"id": 10, "text": "인재를", "head": 11, "label": "NP_OBJ", "mod": [9], "weight": 0.106811}, 
                {"id": 11, "text": "말함),", "head": 20, "label": "VP_CNJ", "mod": [5, 8, 10], "weight": 0.517491}, 
                {"id": 12, "text": "와룡봉추(臥龍鳳雛:누워", "head": 13, "label": "NP", "mod": [], "weight": 0.802458}, 
                {"id": 13, "text": "있는", "head": 15, "label": "VP_MOD", "mod": [12], "weight": 0.561521}, 
                {"id": 14, "text": "용과", "head": 15, "label": "NP_CNJ", "mod": [], "weight": 0.210376}, 
                {"id": 15, "text": "봉황의", "head": 16, "label": "NP_MOD", "mod": [14, 13], "weight": 0.687002}, 
                {"id": 16, "text": "병아리),", "head": 20, "label": "NP_CNJ", "mod": [15], "weight": 0.452239}, 
                {"id": 17, "text": "용구봉추(龍駒鳳雛:뛰어난", "head": 18, "label": "NP_MOD", "mod": [], "weight": 0.191355}, 
                {"id": 18, "text": "말과", "head": 20, "label": "NP_CNJ", "mod": [17], "weight": 0.714987}, 
                {"id": 19, "text": "봉황의", "head": 20, "label": "NP_MOD", "mod": [], "weight": 0.727618}, 
                {"id": 20, "text": "병아리)", "head": 21, "label": "NP", "mod": [11, 16, 18, 19], "weight": 0.563036}, 
                {"id": 21, "text": "등도", "head": 26, "label": "NP_AJT", "mod": [20], "weight": 0.238902}, 
                {"id": 22, "text": "인재가", "head": 24, "label": "NP_SBJ", "mod": [], "weight": 0.874395}, 
                {"id": 23, "text": "때를", "head": 24, "label": "NP_OBJ", "mod": [], "weight": 0.620887}, 
                {"id": 24, "text": "기다린다는", "head": 25, "label": "VP_MOD", "mod": [22, 23], "weight": 0.841787}, 
                {"id": 25, "text": "뜻도", "head": 26, "label": "NP_SBJ", "mod": [24], "weight": 0.638705}, 
                {"id": 26, "text": "있으므로", "head": 28, "label": "VP", "mod": [21, 25], "weight": 0.219247}, 
                {"id": 27, "text": "불비불명과", "head": 28, "label": "NP_AJT", "mod": [], "weight": 0.830276}, 
                {"id": 28, "text": "비슷한", "head": 29, "label": "VP_MOD", "mod": [26, 27], "weight": 0.710855}, 
                {"id": 29, "text": "고사성어이다.", "head": -1, "label": "VNP", "mod": [28], "weight": 1.70334e-08}
            ], 
            "SRL": [
                {"verb": "엎드리", "sense": 1, "word_id": 0, "weight": 0.255727, "argument": [
                    {"type": "AUX", "word_id": 1, "text": "있는", "weight": 0.343956}, 
                    {"type": "ARG0", "word_id": 3, "text": "봉황의", "weight": 1}
                ]}, 
                {"verb": "숨", "sense": 1, "word_id": 7, "weight": 0.174786, "argument": [
                    {"type": "ARG2", "word_id": 6, "text": "초야에", "weight": 0.091736}, 
                    {"type": "AUX", "word_id": 8, "text": "있는", "weight": 0.257836}, 
                    {"type": "ARG0", "word_id": 10, "text": "인재를", "weight": 1}
                ]}, 
                {"verb": "훌륭하", "sense": 1, "word_id": 9, "weight": 0.310341, "argument": [
                    {"type": "ARG1", "word_id": 10, "text": "인재를", "weight": 0.310341}
                ]}, 
                {"verb": "눕", "sense": 1, "word_id": 12, "weight": 0.239662, "argument": [
                    {"type": "AUX", "word_id": 13, "text": "있는", "weight": 0.35932}, 
                    {"type": "ARG0", "word_id": 15, "text": "봉황의", "weight": 1}
                ]}, 
                {"verb": "뛰어나", "sense": 1, "word_id": 17, "weight": 0.294009, "argument": [
                    {"type": "ARG1", "word_id": 21, "text": "등도", "weight": 1}
                ]}, 
                {"verb": "기다리", "sense": 1, "word_id": 24, "weight": 0.18588, "argument": [
                    {"type": "ARG0", "word_id": 22, "text": "인재가", "weight": 0.268604}, 
                    {"type": "ARG1", "word_id": 23, "text": "때를", "weight": 0.103155}
                ]}, 
                {"verb": "있", "sense": 1, "word_id": 26, "weight": 0.149388, "argument": [
                    {"type": "ARG1", "word_id": 25, "text": "뜻도", "weight": 0.149388}, 
                    {"type": "ARG2", "word_id": 21, "text": "등도", "weight": 1}
                ]}, 
                {"verb": "비슷하", "sense": 1, "word_id": 28, "weight": 0.159758, "argument": [
                    {"type": "ARG2", "word_id": 27, "text": "불비불명과", "weight": 0.214726}, 
                    {"type": "ARG1", "word_id": 29, "text": "고사성어이다.", "weight": 0.104789}
                ]}
            ], 
            "relation": [], 
            "SA": [], 
            "ZA": []
        }
    ], 
    "entity": [
        {"id": 0, "type": "CV_SPORTS_INST", "number": "singular", "gender": "", "person": "", "animacy": "thing", "mention": [
            {"id": 1, "sent_id": 0, "start_eid": 0, "end_eid": 11, "ne_id": 0, "text": "복룡봉추(伏龍鳳雛:엎드려 있는 용과 봉황의 새라는 뜻으로, 초야에 숨어 있는 훌륭한 인재를 말함),", "start_eid_short": 11, "end_eid_short": 0, "text_short": ""}
        ]}, 
        {"id": 1, "type": "", "number": "singular", "gender": "", "person": "", "animacy": "thing", "mention": [
            {"id": 4, "sent_id": 0, "start_eid": 22, "end_eid": 25, "ne_id": -1, "text": "인재가 때를 기다린다는 뜻도", "start_eid_short": 25, "end_eid_short": 25, "text_short": "뜻도"}
        ]}, 
        {"id": 2, "type": "", "number": "singular", "gender": "", "person": "", "animacy": "thing", "mention": [
            {"id": 5, "sent_id": 0, "start_eid": 22, "end_eid": 22, "ne_id": -1, "text": "인재가", "start_eid_short": 22, "end_eid_short": 22, "text_short": "인재가"}
        ]}, 
        {"id": 3, "type": "AM_BIRD", "number": "singular", "gender": "", "person": "", "animacy": "animal", "mention": [
            {"id": 2, "sent_id": 0, "start_eid": 12, "end_eid": 16, "ne_id": 4, "text": "와룡봉추(臥龍鳳雛:누워 있는 용과 봉황의 병아리),", "start_eid_short": 15, "end_eid_short": 0, "text_short": ""}
        ]}, 
        {"id": 4, "type": "AM_BIRD", "number": "singular", "gender": "", "person": "", "animacy": "animal", "mention": [
            {"id": 3, "sent_id": 0, "start_eid": 17, "end_eid": 20, "ne_id": 8, "text": "용구봉추(龍駒鳳雛:뛰어난 말과 봉황의 병아리)", "start_eid_short": 19, "end_eid_short": 0, "text_short": ""}
        ]}, 
        {"id": 5, "type": "", "number": "singular", "gender": "", "person": "", "animacy": "thing", "mention": [
            {"id": 0, "sent_id": 0, "start_eid": 0, "end_eid": 21, "ne_id": -1, "text": "복룡봉추(伏龍鳳雛:엎드려 있는 용과 봉황의 새라는 뜻으로, 초야에 숨어 있는 훌륭한 인재를 말함), 와룡봉추(臥龍鳳雛:누워 있는 용과 봉황의 병아리), 용구봉추(龍駒鳳雛:뛰어난 말과 봉황의 병아리) 등도", "start_eid_short": 19, "end_eid_short": 0, "text_short": ""}
        ]}, 
        {"id": 6, "type": "", "number": "singular", "gender": "", "person": "", "animacy": "thing", "mention": [
            {"id": 6, "sent_id": 0, "start_eid": 23, "end_eid": 23, "ne_id": -1, "text": "때를", "start_eid_short": 23, "end_eid_short": 23, "text_short": "때를"}
        ]}, 
        {"id": 7, "type": "", "number": "singular", "gender": "", "person": "", "animacy": "thing", "mention": [
            {"id": 8, "sent_id": 0, "start_eid": 27, "end_eid": 27, "ne_id": -1, "text": "불비불명과", "start_eid_short": 27, "end_eid_short": 27, "text_short": "불비불명과"}
        ]}, 
        {"id": 8, "type": "", "number": "singular", "gender": "", "person": "", "animacy": "thing", "mention": [
            {"id": 7, "sent_id": 0, "start_eid": 27, "end_eid": 29, "ne_id": -1, "text": "불비불명과 비슷한 고사성어이다.", "start_eid_short": 29, "end_eid_short": 29, "text_short": "고사성어이다."}
        ]}
    ]
}