{
    "doc_id": "E2016.837.14_A_02.json", 
    "DCT": "", 
    "category": "", 
    "category_weight": 0, 
    "title": {
        "text": "모나리자", 
        "NE": ""
    }, 
    "metaInfo": {}, 
    "sentence": [
        {
            "id": 0, 
            "reserve_str": "", 
            "text": "<미술> 이탈리아의 화가 레오나르도 다빈치가 피렌체의 부호 프란체스코 데 조콘다의 부인 엘리자베타를 그린 초상화.", 
            "morp": [
                {"id": 0, "lemma": "<", "type": "SS", "position": 0, "weight": 1}, 
                {"id": 1, "lemma": "미술", "type": "NNG", "position": 1, "weight": 0.9}, 
                {"id": 2, "lemma": ">", "type": "SS", "position": 7, "weight": 1}, 
                {"id": 3, "lemma": "이탈리아", "type": "NNP", "position": 9, "weight": 0.9}, 
                {"id": 4, "lemma": "의", "type": "JKG", "position": 21, "weight": 0.0987295}, 
                {"id": 5, "lemma": "화가", "type": "NNG", "position": 25, "weight": 0.9}, 
                {"id": 6, "lemma": "레오나르도", "type": "NNP", "position": 32, "weight": 0.9}, 
                {"id": 7, "lemma": "다빈치", "type": "NNP", "position": 48, "weight": 0.9}, 
                {"id": 8, "lemma": "가", "type": "JKS", "position": 57, "weight": 0.0431193}, 
                {"id": 9, "lemma": "피렌체", "type": "NNP", "position": 61, "weight": 0.9}, 
                {"id": 10, "lemma": "의", "type": "JKG", "position": 70, "weight": 0.0987295}, 
                {"id": 11, "lemma": "부호", "type": "NNG", "position": 74, "weight": 0.9}, 
                {"id": 12, "lemma": "프란체스코", "type": "NNP", "position": 81, "weight": 0.9}, 
                {"id": 13, "lemma": "데", "type": "NNP", "position": 97, "weight": 0.000128028}, 
                {"id": 14, "lemma": "조콘다", "type": "NNP", "position": 101, "weight": 0.05}, 
                {"id": 15, "lemma": "의", "type": "JKG", "position": 110, "weight": 0.0694213}, 
                {"id": 16, "lemma": "부인", "type": "NNG", "position": 114, "weight": 0.9}, 
                {"id": 17, "lemma": "엘리자베타", "type": "NNP", "position": 121, "weight": 0.1}, 
                {"id": 18, "lemma": "를", "type": "JKO", "position": 136, "weight": 0.0283046}, 
                {"id": 19, "lemma": "그리", "type": "VV", "position": 140, "weight": 0.604417}, 
                {"id": 20, "lemma": "ㄴ", "type": "ETM", "position": 143, "weight": 0.304215}, 
                {"id": 21, "lemma": "초상", "type": "NNG", "position": 147, "weight": 0.9}, 
                {"id": 22, "lemma": "화", "type": "XSN", "position": 153, "weight": 0.0240371}, 
                {"id": 23, "lemma": ".", "type": "SF", "position": 156, "weight": 1}
            ], 
            "morp_eval": [], 
            "WSD": [
                {"id": 0, "text": "<", "type": "SS", "scode": "000000", "weight": 1, "position": 0, "begin": 0, "end": 0}, 
                {"id": 1, "text": "미술", "type": "NNG", "scode": "000000", "weight": 1, "position": 1, "begin": 1, "end": 1}, 
                {"id": 2, "text": ">", "type": "SS", "scode": "000000", "weight": 1, "position": 7, "begin": 2, "end": 2}, 
                {"id": 3, "text": "이탈리아", "type": "NNP", "scode": "000000", "weight": 1, "position": 9, "begin": 3, "end": 3}, 
                {"id": 4, "text": "의", "type": "JKG", "scode": "000000", "weight": 1, "position": 21, "begin": 4, "end": 4}, 
                {"id": 5, "text": "화가", "type": "NNG", "scode": "030000", "weight": 0.333333, "position": 25, "begin": 5, "end": 5}, 
                {"id": 6, "text": "레오나르도", "type": "NNP", "scode": "000000", "weight": 0, "position": 32, "begin": 6, "end": 6}, 
                {"id": 7, "text": "다빈치", "type": "NNP", "scode": "000000", "weight": 1, "position": 48, "begin": 7, "end": 7}, 
                {"id": 8, "text": "가", "type": "JKS", "scode": "000000", "weight": 1, "position": 57, "begin": 8, "end": 8}, 
                {"id": 9, "text": "피렌체", "type": "NNP", "scode": "000000", "weight": 1, "position": 61, "begin": 9, "end": 9}, 
                {"id": 10, "text": "의", "type": "JKG", "scode": "000000", "weight": 1, "position": 70, "begin": 10, "end": 10}, 
                {"id": 11, "text": "부호", "type": "NNG", "scode": "050000", "weight": 0.142857, "position": 74, "begin": 11, "end": 11}, 
                {"id": 12, "text": "프란체스코", "type": "NNP", "scode": "000000", "weight": 1, "position": 81, "begin": 12, "end": 12}, 
                {"id": 13, "text": "데", "type": "NNP", "scode": "888888", "weight": 0.1, "position": 97, "begin": 13, "end": 13}, 
                {"id": 14, "text": "조콘다", "type": "NNP", "scode": "000000", "weight": 0, "position": 101, "begin": 14, "end": 14}, 
                {"id": 15, "text": "의", "type": "JKG", "scode": "000000", "weight": 1, "position": 110, "begin": 15, "end": 15}, 
                {"id": 16, "text": "부인", "type": "NNG", "scode": "010001", "weight": 0.0833333, "position": 114, "begin": 16, "end": 16}, 
                {"id": 17, "text": "엘리자베타", "type": "NNP", "scode": "000000", "weight": 0, "position": 121, "begin": 17, "end": 17}, 
                {"id": 18, "text": "를", "type": "JKO", "scode": "000000", "weight": 1, "position": 136, "begin": 18, "end": 18}, 
                {"id": 19, "text": "그리", "type": "VV", "scode": "020001", "weight": 0.166667, "position": 140, "begin": 19, "end": 19}, 
                {"id": 20, "text": "ㄴ", "type": "ETM", "scode": "000000", "weight": 1, "position": 143, "begin": 20, "end": 20}, 
                {"id": 21, "text": "초상화", "type": "NNG", "scode": "000000", "weight": 1, "position": 147, "begin": 21, "end": 22}, 
                {"id": 22, "text": ".", "type": "SF", "scode": "000000", "weight": 1, "position": 156, "begin": 23, "end": 23}
            ], 
            "word": [
                {"id": 0, "text": "<미술>", "type": "", "begin": 0, "end": 2}, 
                {"id": 1, "text": "이탈리아의", "type": "", "begin": 3, "end": 4}, 
                {"id": 2, "text": "화가", "type": "", "begin": 5, "end": 5}, 
                {"id": 3, "text": "레오나르도", "type": "", "begin": 6, "end": 6}, 
                {"id": 4, "text": "다빈치가", "type": "", "begin": 7, "end": 8}, 
                {"id": 5, "text": "피렌체의", "type": "", "begin": 9, "end": 10}, 
                {"id": 6, "text": "부호", "type": "", "begin": 11, "end": 11}, 
                {"id": 7, "text": "프란체스코", "type": "", "begin": 12, "end": 12}, 
                {"id": 8, "text": "데", "type": "", "begin": 13, "end": 13}, 
                {"id": 9, "text": "조콘다의", "type": "", "begin": 14, "end": 15}, 
                {"id": 10, "text": "부인", "type": "", "begin": 16, "end": 16}, 
                {"id": 11, "text": "엘리자베타를", "type": "", "begin": 17, "end": 18}, 
                {"id": 12, "text": "그린", "type": "", "begin": 19, "end": 20}, 
                {"id": 13, "text": "초상화.", "type": "", "begin": 21, "end": 23}
            ], 
            "NE": [
                {"id": 0, "text": "미술", "type": "FD_ART", "begin": 1, "end": 1, "weight": 0.561112, "common_noun": 0}, 
                {"id": 1, "text": "이탈리아", "type": "LCP_COUNTRY", "begin": 3, "end": 3, "weight": 0.585539, "common_noun": 0}, 
                {"id": 2, "text": "화가", "type": "CV_OCCUPATION", "begin": 5, "end": 5, "weight": 0.606739, "common_noun": 0}, 
                {"id": 3, "text": "레오나르도 다빈치", "type": "PS_NAME", "begin": 6, "end": 7, "weight": 0.939896, "common_noun": 0}, 
                {"id": 4, "text": "피렌체", "type": "LCP_CITY", "begin": 9, "end": 9, "weight": 0.337199, "common_noun": 0}, 
                {"id": 5, "text": "프란체스코 데 조콘다", "type": "PS_NAME", "begin": 12, "end": 14, "weight": 0.216443, "common_noun": 0}, 
                {"id": 6, "text": "부인", "type": "CV_RELATION", "begin": 16, "end": 16, "weight": 0.839474, "common_noun": 0}, 
                {"id": 7, "text": "엘리자베타", "type": "PS_NAME", "begin": 17, "end": 17, "weight": 0.494667, "common_noun": 0}, 
                {"id": 8, "text": "초상화", "type": "FD_ART", "begin": 21, "end": 22, "weight": 0.717218, "common_noun": 0}
            ], 
            "chunk": [], 
            "dependency": [
                {"id": 0, "text": "<미술>", "head": 13, "label": "NP", "mod": [], "weight": 0.826784}, 
                {"id": 1, "text": "이탈리아의", "head": 2, "label": "NP_MOD", "mod": [], "weight": 0.72037}, 
                {"id": 2, "text": "화가", "head": 4, "label": "NP", "mod": [1], "weight": 0.573038}, 
                {"id": 3, "text": "레오나르도", "head": 4, "label": "NP", "mod": [], "weight": 0.89227}, 
                {"id": 4, "text": "다빈치가", "head": 12, "label": "NP_SBJ", "mod": [2, 3], "weight": 0.185795}, 
                {"id": 5, "text": "피렌체의", "head": 6, "label": "NP_MOD", "mod": [], "weight": 0.427213}, 
                {"id": 6, "text": "부호", "head": 9, "label": "NP", "mod": [5], "weight": 0.0684249}, 
                {"id": 7, "text": "프란체스코", "head": 8, "label": "NP", "mod": [], "weight": 0.72799}, 
                {"id": 8, "text": "데", "head": 9, "label": "NP", "mod": [7], "weight": 0.45481}, 
                {"id": 9, "text": "조콘다의", "head": 10, "label": "NP_MOD", "mod": [8, 6], "weight": 0.422375}, 
                {"id": 10, "text": "부인", "head": 11, "label": "NP", "mod": [9], "weight": 0.361531}, 
                {"id": 11, "text": "엘리자베타를", "head": 12, "label": "NP_OBJ", "mod": [10], "weight": 0.631753}, 
                {"id": 12, "text": "그린", "head": 13, "label": "VP_MOD", "mod": [4, 11], "weight": 0.829097}, 
                {"id": 13, "text": "초상화.", "head": -1, "label": "NP", "mod": [0, 12], "weight": 3.4583e-05}
            ], 
            "SRL": [
                {"verb": "그리", "sense": 1, "word_id": 12, "weight": 0.221114, "argument": [
                    {"type": "ARG0", "word_id": 4, "text": "다빈치가", "weight": 0.357099}, 
                    {"type": "ARG1", "word_id": 11, "text": "엘리자베타를", "weight": 0.217769}
                ]}
            ], 
            "relation": [], 
            "SA": [], 
            "ZA": []
        }, 
        {
            "id": 1, 
            "reserve_str": "", 
            "text": "정숙한 여인의 신비스러운 미소로 유명하다.", 
            "morp": [
                {"id": 0, "lemma": "정숙", "type": "NNG", "position": 157, "weight": 0.257617}, 
                {"id": 1, "lemma": "하", "type": "XSA", "position": 163, "weight": 0.0001}, 
                {"id": 2, "lemma": "ㄴ", "type": "ETM", "position": 163, "weight": 0.488779}, 
                {"id": 3, "lemma": "여인", "type": "NNG", "position": 167, "weight": 0.658517}, 
                {"id": 4, "lemma": "의", "type": "JKG", "position": 173, "weight": 0.0694213}, 
                {"id": 5, "lemma": "신비", "type": "NNG", "position": 177, "weight": 0.9}, 
                {"id": 6, "lemma": "스럽", "type": "XSA", "position": 183, "weight": 0.9}, 
                {"id": 7, "lemma": "ㄴ", "type": "ETM", "position": 186, "weight": 0.488779}, 
                {"id": 8, "lemma": "미소", "type": "NNG", "position": 193, "weight": 0.637543}, 
                {"id": 9, "lemma": "로", "type": "JKB", "position": 199, "weight": 0.153229}, 
                {"id": 10, "lemma": "유명", "type": "NNG", "position": 203, "weight": 0.9}, 
                {"id": 11, "lemma": "하", "type": "XSA", "position": 209, "weight": 0.0001}, 
                {"id": 12, "lemma": "다", "type": "EF", "position": 212, "weight": 0.0497538}, 
                {"id": 13, "lemma": ".", "type": "SF", "position": 215, "weight": 1}
            ], 
            "morp_eval": [], 
            "WSD": [
                {"id": 0, "text": "정숙하", "type": "VA", "scode": "010000", "weight": 0.166667, "position": 157, "begin": 0, "end": 1}, 
                {"id": 1, "text": "ㄴ", "type": "ETM", "scode": "000000", "weight": 1, "position": 163, "begin": 2, "end": 2}, 
                {"id": 2, "text": "여인", "type": "NNG", "scode": "010000", "weight": 0.2, "position": 167, "begin": 3, "end": 3}, 
                {"id": 3, "text": "의", "type": "JKG", "scode": "000000", "weight": 1, "position": 173, "begin": 4, "end": 4}, 
                {"id": 4, "text": "신비스럽", "type": "VA", "scode": "000000", "weight": 1, "position": 177, "begin": 5, "end": 6}, 
                {"id": 5, "text": "ㄴ", "type": "ETM", "scode": "000000", "weight": 1, "position": 186, "begin": 7, "end": 7}, 
                {"id": 6, "text": "미소", "type": "NNG", "scode": "050000", "weight": 0.2, "position": 193, "begin": 8, "end": 8}, 
                {"id": 7, "text": "로", "type": "JKB", "scode": "000000", "weight": 1, "position": 199, "begin": 9, "end": 9}, 
                {"id": 8, "text": "유명하", "type": "VA", "scode": "010000", "weight": 0.5, "position": 203, "begin": 10, "end": 11}, 
                {"id": 9, "text": "다", "type": "EF", "scode": "000000", "weight": 1, "position": 212, "begin": 12, "end": 12}, 
                {"id": 10, "text": ".", "type": "SF", "scode": "000000", "weight": 1, "position": 215, "begin": 13, "end": 13}
            ], 
            "word": [
                {"id": 0, "text": "정숙한", "type": "", "begin": 0, "end": 2}, 
                {"id": 1, "text": "여인의", "type": "", "begin": 3, "end": 4}, 
                {"id": 2, "text": "신비스러운", "type": "", "begin": 5, "end": 7}, 
                {"id": 3, "text": "미소로", "type": "", "begin": 8, "end": 9}, 
                {"id": 4, "text": "유명하다.", "type": "", "begin": 10, "end": 13}
            ], 
            "NE": [], 
            "chunk": [], 
            "dependency": [
                {"id": 0, "text": "정숙한", "head": 1, "label": "VP_MOD", "mod": [], "weight": 0.689297}, 
                {"id": 1, "text": "여인의", "head": 3, "label": "NP_MOD", "mod": [0], "weight": 0.622155}, 
                {"id": 2, "text": "신비스러운", "head": 3, "label": "VP_MOD", "mod": [], "weight": 0.712037}, 
                {"id": 3, "text": "미소로", "head": 4, "label": "NP_AJT", "mod": [1, 2], "weight": 0.780348}, 
                {"id": 4, "text": "유명하다.", "head": -1, "label": "VP", "mod": [3], "weight": 0.20995}
            ], 
            "SRL": [
                {"verb": "정숙", "sense": 1, "word_id": 0, "weight": 0.218616, "argument": [
                    {"type": "ARG1", "word_id": 1, "text": "여인의", "weight": 0.218616}
                ]}, 
                {"verb": "신비", "sense": 1, "word_id": 2, "weight": 0.273561, "argument": [
                    {"type": "ARG1", "word_id": 3, "text": "미소로", "weight": 0.273561}
                ]}, 
                {"verb": "유명", "sense": 1, "word_id": 4, "weight": 0.185429, "argument": [
                    {"type": "ARG2", "word_id": 3, "text": "미소로", "weight": 0.185429}
                ]}
            ], 
            "relation": [], 
            "SA": [], 
            "ZA": []
        }
    ], 
    "entity": [
        {"id": 0, "type": "PS_NAME", "number": "singular", "gender": "", "person": "", "animacy": "human", "mention": [
            {"id": 2, "sent_id": 0, "start_eid": 1, "end_eid": 4, "ne_id": 2, "text": "이탈리아의 화가 레오나르도 다빈치가", "start_eid_short": 2, "end_eid_short": 4, "text_short": "화가 레오나르도 다빈치가"}, 
            {"id": 3, "sent_id": 0, "start_eid": 1, "end_eid": 2, "ne_id": 1, "text": "이탈리아의 화가", "start_eid_short": 2, "end_eid_short": 2, "text_short": "화가"}
        ]}, 
        {"id": 1, "type": "LCP_COUNTRY", "number": "singular", "gender": "", "person": "", "animacy": "place", "mention": [
            {"id": 4, "sent_id": 0, "start_eid": 1, "end_eid": 1, "ne_id": 0, "text": "이탈리아의", "start_eid_short": 1, "end_eid_short": 1, "text_short": "이탈리아의"}
        ]}, 
        {"id": 2, "type": "LCP_CITY", "number": "singular", "gender": "", "person": "", "animacy": "place", "mention": [
            {"id": 9, "sent_id": 0, "start_eid": 5, "end_eid": 5, "ne_id": 3, "text": "피렌체의", "start_eid_short": 5, "end_eid_short": 5, "text_short": "피렌체의"}
        ]}, 
        {"id": 3, "type": "PS_NAME", "number": "singular", "gender": "", "person": "", "animacy": "human", "mention": [
            {"id": 7, "sent_id": 0, "start_eid": 5, "end_eid": 9, "ne_id": 4, "text": "피렌체의 부호 프란체스코 데 조콘다의", "start_eid_short": 6, "end_eid_short": 9, "text_short": "부호 프란체스코 데 조콘다의"}, 
            {"id": 8, "sent_id": 0, "start_eid": 5, "end_eid": 6, "ne_id": -1, "text": "피렌체의 부호", "start_eid_short": 6, "end_eid_short": 6, "text_short": "부호"}
        ]}, 
        {"id": 4, "type": "CV_RELATION", "number": "singular", "gender": "", "person": "", "animacy": "human", "mention": [
            {"id": 5, "sent_id": 0, "start_eid": 5, "end_eid": 11, "ne_id": 6, "text": "피렌체의 부호 프란체스코 데 조콘다의 부인 엘리자베타를", "start_eid_short": 10, "end_eid_short": 11, "text_short": "부인 엘리자베타를"}, 
            {"id": 6, "sent_id": 0, "start_eid": 5, "end_eid": 10, "ne_id": 5, "text": "피렌체의 부호 프란체스코 데 조콘다의 부인", "start_eid_short": 10, "end_eid_short": 10, "text_short": "부인"}
        ]}, 
        {"id": 5, "type": "FD_ART", "number": "singular", "gender": "", "person": "", "animacy": "thing", "mention": [
            {"id": 0, "sent_id": 0, "start_eid": 0, "end_eid": 13, "ne_id": 7, "text": "<미술> 이탈리아의 화가 레오나르도 다빈치가 피렌체의 부호 프란체스코 데 조콘다의 부인 엘리자베타를 그린 초상화.", "start_eid_short": 13, "end_eid_short": 13, "text_short": "초상화."}
        ]}, 
        {"id": 6, "type": "", "number": "singular", "gender": "", "person": "", "animacy": "thing", "mention": [
            {"id": 10, "sent_id": 1, "start_eid": 0, "end_eid": 3, "ne_id": -1, "text": "정숙한 여인의 신비스러운 미소로", "start_eid_short": 3, "end_eid_short": 3, "text_short": "미소로"}
        ]}, 
        {"id": 7, "type": "", "number": "singular", "gender": "", "person": "", "animacy": "thing", "mention": [
            {"id": 11, "sent_id": 1, "start_eid": 1, "end_eid": 1, "ne_id": -1, "text": "여인의", "start_eid_short": 1, "end_eid_short": 1, "text_short": "여인의"}
        ]}, 
        {"id": 8, "type": "", "number": "singular", "gender": "", "person": "", "animacy": "thing", "mention": [
            {"id": 1, "sent_id": 0, "start_eid": 0, "end_eid": 0, "ne_id": -1, "text": "<미술>", "start_eid_short": 0, "end_eid_short": 0, "text_short": "<미술>"}
        ]}
    ]
}