{
    "doc_id": "E2016.887.13_Q_01.json", 
    "DCT": "", 
    "category": "", 
    "category_weight": 0, 
    "title": {
        "text": "", 
        "NE": ""
    }, 
    "metaInfo": {}, 
    "sentence": [
        {
            "id": 0, 
            "reserve_str": "", 
            "text": "이 사람은 필리핀 막탄 섬의 왕으로 1521년 허락 없이 상륙한 스페인 침략자들을 격퇴하고 지휘관 마젤란을 살해했다.", 
            "morp": [
                {"id": 0, "lemma": "이", "type": "MM", "position": 0, "weight": 0.0020222}, 
                {"id": 1, "lemma": "사람", "type": "NNG", "position": 4, "weight": 0.737436}, 
                {"id": 2, "lemma": "은", "type": "JX", "position": 10, "weight": 0.0449928}, 
                {"id": 3, "lemma": "필리핀", "type": "NNP", "position": 14, "weight": 0.9}, 
                {"id": 4, "lemma": "막탄", "type": "NNP", "position": 24, "weight": 0.6}, 
                {"id": 5, "lemma": "섬", "type": "NNG", "position": 31, "weight": 0.251941}, 
                {"id": 6, "lemma": "의", "type": "JKG", "position": 34, "weight": 0.0694213}, 
                {"id": 7, "lemma": "왕", "type": "NNG", "position": 38, "weight": 0.793674}, 
                {"id": 8, "lemma": "으로", "type": "JKB", "position": 41, "weight": 0.153406}, 
                {"id": 9, "lemma": "1521", "type": "SN", "position": 48, "weight": 1}, 
                {"id": 10, "lemma": "년", "type": "NNB", "position": 52, "weight": 0.414343}, 
                {"id": 11, "lemma": "허락", "type": "NNG", "position": 56, "weight": 0.9}, 
                {"id": 12, "lemma": "없이", "type": "MAG", "position": 63, "weight": 0.9}, 
                {"id": 13, "lemma": "상륙", "type": "NNG", "position": 70, "weight": 0.9}, 
                {"id": 14, "lemma": "하", "type": "XSV", "position": 76, "weight": 0.0001}, 
                {"id": 15, "lemma": "ㄴ", "type": "ETM", "position": 76, "weight": 0.392321}, 
                {"id": 16, "lemma": "스페인", "type": "NNP", "position": 80, "weight": 0.9}, 
                {"id": 17, "lemma": "침략", "type": "NNG", "position": 90, "weight": 0.9}, 
                {"id": 18, "lemma": "자", "type": "XSN", "position": 96, "weight": 0.00398741}, 
                {"id": 19, "lemma": "들", "type": "XSN", "position": 99, "weight": 0.0103232}, 
                {"id": 20, "lemma": "을", "type": "JKO", "position": 102, "weight": 0.0819193}, 
                {"id": 21, "lemma": "격퇴", "type": "NNG", "position": 106, "weight": 0.65}, 
                {"id": 22, "lemma": "하", "type": "XSV", "position": 112, "weight": 0.0001}, 
                {"id": 23, "lemma": "고", "type": "EC", "position": 115, "weight": 0.359917}, 
                {"id": 24, "lemma": "지휘", "type": "NNG", "position": 119, "weight": 0.9}, 
                {"id": 25, "lemma": "관", "type": "XSN", "position": 125, "weight": 0.0123777}, 
                {"id": 26, "lemma": "마젤란", "type": "NNP", "position": 129, "weight": 0.75}, 
                {"id": 27, "lemma": "을", "type": "JKO", "position": 138, "weight": 0.0266447}, 
                {"id": 28, "lemma": "살해", "type": "NNG", "position": 142, "weight": 0.9}, 
                {"id": 29, "lemma": "하", "type": "XSV", "position": 148, "weight": 0.0001}, 
                {"id": 30, "lemma": "았", "type": "EP", "position": 148, "weight": 0.9}, 
                {"id": 31, "lemma": "다", "type": "EF", "position": 151, "weight": 0.640954}, 
                {"id": 32, "lemma": ".", "type": "SF", "position": 154, "weight": 1}
            ], 
            "morp_eval": [], 
            "WSD": [
                {"id": 0, "text": "이", "type": "MM", "scode": "050102", "weight": 0.0172414, "position": 0, "begin": 0, "end": 0}, 
                {"id": 1, "text": "사람", "type": "NNG", "scode": "000001", "weight": 0.0909091, "position": 4, "begin": 1, "end": 1}, 
                {"id": 2, "text": "은", "type": "JX", "scode": "000000", "weight": 1, "position": 10, "begin": 2, "end": 2}, 
                {"id": 3, "text": "필리핀", "type": "NNP", "scode": "000000", "weight": 1, "position": 14, "begin": 3, "end": 3}, 
                {"id": 4, "text": "막탄", "type": "NNP", "scode": "000000", "weight": 0, "position": 24, "begin": 4, "end": 4}, 
                {"id": 5, "text": "섬", "type": "NNG", "scode": "030000", "weight": 0.111111, "position": 31, "begin": 5, "end": 5}, 
                {"id": 6, "text": "의", "type": "JKG", "scode": "000000", "weight": 1, "position": 34, "begin": 6, "end": 6}, 
                {"id": 7, "text": "왕", "type": "NNG", "scode": "040001", "weight": 0.0833333, "position": 38, "begin": 7, "end": 7}, 
                {"id": 8, "text": "으로", "type": "JKB", "scode": "000000", "weight": 1, "position": 41, "begin": 8, "end": 8}, 
                {"id": 9, "text": "1521", "type": "SN", "scode": "000000", "weight": 1, "position": 48, "begin": 9, "end": 9}, 
                {"id": 10, "text": "년", "type": "NNB", "scode": "020000", "weight": 0.166667, "position": 52, "begin": 10, "end": 10}, 
                {"id": 11, "text": "허락", "type": "NNG", "scode": "000000", "weight": 1, "position": 56, "begin": 11, "end": 11}, 
                {"id": 12, "text": "없이", "type": "MAG", "scode": "000001", "weight": 0.1, "position": 63, "begin": 12, "end": 12}, 
                {"id": 13, "text": "상륙하", "type": "VV", "scode": "000000", "weight": 1, "position": 70, "begin": 13, "end": 14}, 
                {"id": 14, "text": "ㄴ", "type": "ETM", "scode": "000000", "weight": 1, "position": 76, "begin": 15, "end": 15}, 
                {"id": 15, "text": "스페인", "type": "NNP", "scode": "000000", "weight": 1, "position": 80, "begin": 16, "end": 16}, 
                {"id": 16, "text": "침략자", "type": "NNG", "scode": "000000", "weight": 1, "position": 90, "begin": 17, "end": 18}, 
                {"id": 17, "text": "들", "type": "XSN", "scode": "090000", "weight": 0.0909091, "position": 99, "begin": 19, "end": 19}, 
                {"id": 18, "text": "을", "type": "JKO", "scode": "000000", "weight": 1, "position": 102, "begin": 20, "end": 20}, 
                {"id": 19, "text": "격퇴하", "type": "VV", "scode": "000000", "weight": 1, "position": 106, "begin": 21, "end": 22}, 
                {"id": 20, "text": "고", "type": "EC", "scode": "000000", "weight": 1, "position": 115, "begin": 23, "end": 23}, 
                {"id": 21, "text": "지휘관", "type": "NNG", "scode": "000000", "weight": 1, "position": 119, "begin": 24, "end": 25}, 
                {"id": 22, "text": "마젤란", "type": "NNP", "scode": "000000", "weight": 1, "position": 129, "begin": 26, "end": 26}, 
                {"id": 23, "text": "을", "type": "JKO", "scode": "000000", "weight": 1, "position": 138, "begin": 27, "end": 27}, 
                {"id": 24, "text": "살해하", "type": "VV", "scode": "000000", "weight": 1, "position": 142, "begin": 28, "end": 29}, 
                {"id": 25, "text": "았", "type": "EP", "scode": "000000", "weight": 1, "position": 148, "begin": 30, "end": 30}, 
                {"id": 26, "text": "다", "type": "EF", "scode": "000000", "weight": 1, "position": 151, "begin": 31, "end": 31}, 
                {"id": 27, "text": ".", "type": "SF", "scode": "000000", "weight": 1, "position": 154, "begin": 32, "end": 32}
            ], 
            "word": [
                {"id": 0, "text": "이", "type": "", "begin": 0, "end": 0}, 
                {"id": 1, "text": "사람은", "type": "", "begin": 1, "end": 2}, 
                {"id": 2, "text": "필리핀", "type": "", "begin": 3, "end": 3}, 
                {"id": 3, "text": "막탄", "type": "", "begin": 4, "end": 4}, 
                {"id": 4, "text": "섬의", "type": "", "begin": 5, "end": 6}, 
                {"id": 5, "text": "왕으로", "type": "", "begin": 7, "end": 8}, 
                {"id": 6, "text": "1521년", "type": "", "begin": 9, "end": 10}, 
                {"id": 7, "text": "허락", "type": "", "begin": 11, "end": 11}, 
                {"id": 8, "text": "없이", "type": "", "begin": 12, "end": 12}, 
                {"id": 9, "text": "상륙한", "type": "", "begin": 13, "end": 15}, 
                {"id": 10, "text": "스페인", "type": "", "begin": 16, "end": 16}, 
                {"id": 11, "text": "침략자들을", "type": "", "begin": 17, "end": 20}, 
                {"id": 12, "text": "격퇴하고", "type": "", "begin": 21, "end": 23}, 
                {"id": 13, "text": "지휘관", "type": "", "begin": 24, "end": 25}, 
                {"id": 14, "text": "마젤란을", "type": "", "begin": 26, "end": 27}, 
                {"id": 15, "text": "살해했다.", "type": "", "begin": 28, "end": 32}
            ], 
            "NE": [
                {"id": 0, "text": "필리핀", "type": "LCP_COUNTRY", "begin": 3, "end": 3, "weight": 0.607097, "common_noun": 0}, 
                {"id": 1, "text": "막탄 섬", "type": "LCG_ISLAND", "begin": 4, "end": 5, "weight": 0.293735, "common_noun": 0}, 
                {"id": 2, "text": "왕", "type": "CV_POSITION", "begin": 7, "end": 7, "weight": 0.373437, "common_noun": 0}, 
                {"id": 3, "text": "1521년", "type": "DT_YEAR", "begin": 9, "end": 10, "weight": 0.669503, "common_noun": 0}, 
                {"id": 4, "text": "스페인", "type": "LCP_COUNTRY", "begin": 16, "end": 16, "weight": 0.524575, "common_noun": 0}, 
                {"id": 5, "text": "지휘관", "type": "CV_POSITION", "begin": 24, "end": 25, "weight": 0.556638, "common_noun": 0}, 
                {"id": 6, "text": "마젤란", "type": "PS_NAME", "begin": 26, "end": 26, "weight": 0.674159, "common_noun": 0}
            ], 
            "chunk": [], 
            "dependency": [
                {"id": 0, "text": "이", "head": 1, "label": "DP", "mod": [], "weight": 0.68293}, 
                {"id": 1, "text": "사람은", "head": 5, "label": "NP_SBJ", "mod": [0], "weight": 0.554644}, 
                {"id": 2, "text": "필리핀", "head": 4, "label": "NP", "mod": [], "weight": 0.767964}, 
                {"id": 3, "text": "막탄", "head": 4, "label": "NP", "mod": [], "weight": 0.748121}, 
                {"id": 4, "text": "섬의", "head": 5, "label": "NP_MOD", "mod": [2, 3], "weight": 0.740401}, 
                {"id": 5, "text": "왕으로", "head": 12, "label": "NP_AJT", "mod": [4, 1], "weight": 0.852458}, 
                {"id": 6, "text": "1521년", "head": 9, "label": "NP_AJT", "mod": [], "weight": 0.386309}, 
                {"id": 7, "text": "허락", "head": 8, "label": "NP_SBJ", "mod": [], "weight": 0.65702}, 
                {"id": 8, "text": "없이", "head": 9, "label": "AP", "mod": [7], "weight": 0.531748}, 
                {"id": 9, "text": "상륙한", "head": 11, "label": "VP_MOD", "mod": [6, 8], "weight": 0.566599}, 
                {"id": 10, "text": "스페인", "head": 11, "label": "NP", "mod": [], "weight": 0.637849}, 
                {"id": 11, "text": "침략자들을", "head": 12, "label": "NP_OBJ", "mod": [9, 10], "weight": 0.777742}, 
                {"id": 12, "text": "격퇴하고", "head": 15, "label": "VP", "mod": [5, 11], "weight": 0.814735}, 
                {"id": 13, "text": "지휘관", "head": 14, "label": "NP", "mod": [], "weight": 0.576952}, 
                {"id": 14, "text": "마젤란을", "head": 15, "label": "NP_OBJ", "mod": [13], "weight": 0.827304}, 
                {"id": 15, "text": "살해했다.", "head": -1, "label": "VP", "mod": [12, 14], "weight": 0.00169098}
            ], 
            "SRL": [
                {"verb": "상륙", "sense": 1, "word_id": 9, "weight": 0.13371, "argument": [
                    {"type": "ARGM-TMP", "word_id": 6, "text": "1521년", "weight": 0.196875}, 
                    {"type": "ARGM-MNR", "word_id": 8, "text": "없이", "weight": 0.070545}, 
                    {"type": "ARG0", "word_id": 11, "text": "침략자들을", "weight": 1}
                ]}, 
                {"verb": "격퇴", "sense": 1, "word_id": 12, "weight": 0.175939, "argument": [
                    {"type": "ARGM-PRD", "word_id": 5, "text": "왕으로", "weight": 1}, 
                    {"type": "ARG1", "word_id": 11, "text": "침략자들을", "weight": 0.275236}, 
                    {"type": "ARG0", "word_id": 1, "text": "사람은", "weight": 1}
                ]}, 
                {"verb": "살해", "sense": 1, "word_id": 15, "weight": 0.16226, "argument": [
                    {"type": "ARG1", "word_id": 14, "text": "마젤란을", "weight": 0.16226}, 
                    {"type": "ARG0", "word_id": 1, "text": "사람은", "weight": 1}
                ]}
            ], 
            "relation": [], 
            "SA": [], 
            "ZA": []
        }, 
        {
            "id": 1, 
            "reserve_str": "", 
            "text": "이 사람은 누구일까?", 
            "morp": [
                {"id": 0, "lemma": "이", "type": "MM", "position": 155, "weight": 0.0020222}, 
                {"id": 1, "lemma": "사람", "type": "NNG", "position": 159, "weight": 0.737436}, 
                {"id": 2, "lemma": "은", "type": "JX", "position": 165, "weight": 0.0449928}, 
                {"id": 3, "lemma": "누구", "type": "NP", "position": 169, "weight": 0.9}, 
                {"id": 4, "lemma": "이", "type": "VCP", "position": 175, "weight": 0.0175768}, 
                {"id": 5, "lemma": "ㄹ까", "type": "EF", "position": 175, "weight": 0.258243}, 
                {"id": 6, "lemma": "?", "type": "SF", "position": 181, "weight": 1}
            ], 
            "morp_eval": [], 
            "WSD": [
                {"id": 0, "text": "이", "type": "MM", "scode": "050101", "weight": 0.0172414, "position": 155, "begin": 0, "end": 0}, 
                {"id": 1, "text": "사람", "type": "NNG", "scode": "000001", "weight": 0.0909091, "position": 159, "begin": 1, "end": 1}, 
                {"id": 2, "text": "은", "type": "JX", "scode": "000000", "weight": 1, "position": 165, "begin": 2, "end": 2}, 
                {"id": 3, "text": "누구", "type": "NP", "scode": "000001", "weight": 0.333333, "position": 169, "begin": 3, "end": 3}, 
                {"id": 4, "text": "이", "type": "VCP", "scode": "030000", "weight": 0.0172414, "position": 175, "begin": 4, "end": 4}, 
                {"id": 5, "text": "ㄹ까", "type": "EF", "scode": "000000", "weight": 1, "position": 175, "begin": 5, "end": 5}, 
                {"id": 6, "text": "?", "type": "SF", "scode": "000000", "weight": 1, "position": 181, "begin": 6, "end": 6}
            ], 
            "word": [
                {"id": 0, "text": "이", "type": "", "begin": 0, "end": 0}, 
                {"id": 1, "text": "사람은", "type": "", "begin": 1, "end": 2}, 
                {"id": 2, "text": "누구일까?", "type": "", "begin": 3, "end": 6}
            ], 
            "NE": [], 
            "chunk": [], 
            "dependency": [
                {"id": 0, "text": "이", "head": 1, "label": "DP", "mod": [], "weight": 0.632189}, 
                {"id": 1, "text": "사람은", "head": 2, "label": "NP_SBJ", "mod": [0], "weight": 0.833212}, 
                {"id": 2, "text": "누구일까?", "head": -1, "label": "VNP", "mod": [1], "weight": 0.456321}
            ], 
            "SRL": [], 
            "relation": [], 
            "SA": [], 
            "ZA": []
        }
    ], 
    "entity": [
        {"id": 0, "type": "CV_POSITION", "number": "singular", "gender": "", "person": "", "animacy": "human", "mention": [
            {"id": 0, "sent_id": 0, "start_eid": 0, "end_eid": 1, "ne_id": -1, "text": "이 사람은", "start_eid_short": 0, "end_eid_short": 1, "text_short": "이 사람은"}, 
            {"id": 1, "sent_id": 0, "start_eid": 2, "end_eid": 5, "ne_id": 2, "text": "필리핀 막탄 섬의 왕으로", "start_eid_short": 5, "end_eid_short": 5, "text_short": "왕으로"}, 
            {"id": 10, "sent_id": 1, "start_eid": 0, "end_eid": 1, "ne_id": -1, "text": "이 사람은", "start_eid_short": 0, "end_eid_short": 1, "text_short": "이 사람은"}, 
            {"id": 11, "sent_id": 1, "start_eid": 2, "end_eid": 2, "ne_id": -1, "text": "누구일까?", "start_eid_short": 2, "end_eid_short": 2, "text_short": "누구일까?"}
        ]}, 
        {"id": 1, "type": "LCG_ISLAND", "number": "singular", "gender": "", "person": "", "animacy": "place", "mention": [
            {"id": 2, "sent_id": 0, "start_eid": 2, "end_eid": 4, "ne_id": 1, "text": "필리핀 막탄 섬의", "start_eid_short": 2, "end_eid_short": 4, "text_short": "필리핀 막탄 섬의"}
        ]}, 
        {"id": 2, "type": "LCP_COUNTRY", "number": "singular", "gender": "", "person": "", "animacy": "place", "mention": [
            {"id": 3, "sent_id": 0, "start_eid": 2, "end_eid": 2, "ne_id": 0, "text": "필리핀", "start_eid_short": 2, "end_eid_short": 2, "text_short": "필리핀"}
        ]}, 
        {"id": 3, "type": "", "number": "singular", "gender": "", "person": "", "animacy": "thing", "mention": [
            {"id": 4, "sent_id": 0, "start_eid": 6, "end_eid": 11, "ne_id": -1, "text": "1521년 허락 없이 상륙한 스페인 침략자들을", "start_eid_short": 10, "end_eid_short": 11, "text_short": "스페인 침략자들을"}
        ]}, 
        {"id": 4, "type": "DT_YEAR", "number": "singular", "gender": "", "person": "", "animacy": "time", "mention": [
            {"id": 5, "sent_id": 0, "start_eid": 6, "end_eid": 6, "ne_id": 3, "text": "1521년", "start_eid_short": 6, "end_eid_short": 6, "text_short": "1521년"}
        ]}, 
        {"id": 5, "type": "", "number": "singular", "gender": "", "person": "", "animacy": "thing", "mention": [
            {"id": 6, "sent_id": 0, "start_eid": 7, "end_eid": 7, "ne_id": -1, "text": "허락", "start_eid_short": 7, "end_eid_short": 7, "text_short": "허락"}
        ]}, 
        {"id": 6, "type": "LCP_COUNTRY", "number": "singular", "gender": "", "person": "", "animacy": "place", "mention": [
            {"id": 7, "sent_id": 0, "start_eid": 10, "end_eid": 10, "ne_id": 4, "text": "스페인", "start_eid_short": 10, "end_eid_short": 10, "text_short": "스페인"}
        ]}, 
        {"id": 7, "type": "CV_POSITION", "number": "singular", "gender": "", "person": "", "animacy": "human", "mention": [
            {"id": 8, "sent_id": 0, "start_eid": 13, "end_eid": 14, "ne_id": 6, "text": "지휘관 마젤란을", "start_eid_short": 13, "end_eid_short": 14, "text_short": "지휘관 마젤란을"}, 
            {"id": 9, "sent_id": 0, "start_eid": 13, "end_eid": 13, "ne_id": 5, "text": "지휘관", "start_eid_short": 13, "end_eid_short": 13, "text_short": "지휘관"}
        ]}
    ]
}