{
    "doc_id": "E2016.788.07_A_01.json", 
    "DCT": "", 
    "category": "", 
    "category_weight": 0, 
    "title": {
        "text": "고려 공양왕", 
        "NE": ""
    }, 
    "metaInfo": {}, 
    "sentence": [
        {
            "id": 0, 
            "reserve_str": "", 
            "text": "공양왕(恭讓王, 1345년 3월 9일 (음력 2월 5일) ~ 1394년5월 17일 (음력 4월 17일), 재위: 1389년 ~ 1392년)은 고려의 제34대 국왕이자 마지막 국왕으로, 고려의 제20대 국왕인 신종의 둘째 아들 양양공의 7대손이며 정원부원군 왕균과 충렬왕의 서장자 강양공 자(滋)의 손녀 국대비 왕씨의 차남이다.", 
            "morp": [
                {"id": 0, "lemma": "공양왕", "type": "NNP", "position": 0, "weight": 0.9}, 
                {"id": 1, "lemma": "(", "type": "SS", "position": 9, "weight": 1}, 
                {"id": 2, "lemma": "恭讓王", "type": "SH", "position": 10, "weight": 1}, 
                {"id": 3, "lemma": ",", "type": "SP", "position": 19, "weight": 1}, 
                {"id": 4, "lemma": "1345", "type": "SN", "position": 21, "weight": 1}, 
                {"id": 5, "lemma": "년", "type": "NNB", "position": 25, "weight": 0.414343}, 
                {"id": 6, "lemma": "3", "type": "SN", "position": 29, "weight": 1}, 
                {"id": 7, "lemma": "월", "type": "NNB", "position": 30, "weight": 0.408539}, 
                {"id": 8, "lemma": "9", "type": "SN", "position": 34, "weight": 1}, 
                {"id": 9, "lemma": "일", "type": "NNB", "position": 35, "weight": 0.126777}, 
                {"id": 10, "lemma": "(", "type": "SS", "position": 39, "weight": 1}, 
                {"id": 11, "lemma": "음력", "type": "NNG", "position": 40, "weight": 0.9}, 
                {"id": 12, "lemma": "2", "type": "SN", "position": 47, "weight": 1}, 
                {"id": 13, "lemma": "월", "type": "NNB", "position": 48, "weight": 0.408539}, 
                {"id": 14, "lemma": "5", "type": "SN", "position": 52, "weight": 1}, 
                {"id": 15, "lemma": "일", "type": "NNB", "position": 53, "weight": 0.126777}, 
                {"id": 16, "lemma": ")", "type": "SS", "position": 56, "weight": 1}, 
                {"id": 17, "lemma": "~", "type": "SO", "position": 58, "weight": 1}, 
                {"id": 18, "lemma": "1394", "type": "SN", "position": 60, "weight": 1}, 
                {"id": 19, "lemma": "년", "type": "NNB", "position": 64, "weight": 0.414343}, 
                {"id": 20, "lemma": "5", "type": "SN", "position": 67, "weight": 1}, 
                {"id": 21, "lemma": "월", "type": "NNB", "position": 68, "weight": 0.408539}, 
                {"id": 22, "lemma": "17", "type": "SN", "position": 72, "weight": 1}, 
                {"id": 23, "lemma": "일", "type": "NNB", "position": 74, "weight": 0.126777}, 
                {"id": 24, "lemma": "(", "type": "SS", "position": 78, "weight": 1}, 
                {"id": 25, "lemma": "음력", "type": "NNG", "position": 79, "weight": 0.9}, 
                {"id": 26, "lemma": "4", "type": "SN", "position": 86, "weight": 1}, 
                {"id": 27, "lemma": "월", "type": "NNB", "position": 87, "weight": 0.408539}, 
                {"id": 28, "lemma": "17", "type": "SN", "position": 91, "weight": 1}, 
                {"id": 29, "lemma": "일", "type": "NNB", "position": 93, "weight": 0.126777}, 
                {"id": 30, "lemma": ")", "type": "SS", "position": 96, "weight": 1}, 
                {"id": 31, "lemma": ",", "type": "SP", "position": 97, "weight": 1}, 
                {"id": 32, "lemma": "재위", "type": "NNG", "position": 99, "weight": 0.9}, 
                {"id": 33, "lemma": ":", "type": "SP", "position": 105, "weight": 1}, 
                {"id": 34, "lemma": "1389", "type": "SN", "position": 107, "weight": 1}, 
                {"id": 35, "lemma": "년", "type": "NNB", "position": 111, "weight": 0.414343}, 
                {"id": 36, "lemma": "~", "type": "SO", "position": 115, "weight": 1}, 
                {"id": 37, "lemma": "1392", "type": "SN", "position": 117, "weight": 1}, 
                {"id": 38, "lemma": "년", "type": "NNB", "position": 121, "weight": 0.414343}, 
                {"id": 39, "lemma": ")", "type": "SS", "position": 124, "weight": 1}, 
                {"id": 40, "lemma": "은", "type": "JX", "position": 125, "weight": 0.0128817}, 
                {"id": 41, "lemma": "고려", "type": "NNP", "position": 129, "weight": 0.042748}, 
                {"id": 42, "lemma": "의", "type": "JKG", "position": 135, "weight": 0.0987295}, 
                {"id": 43, "lemma": "제", "type": "XPN", "position": 139, "weight": 0.00193141}, 
                {"id": 44, "lemma": "34", "type": "SN", "position": 142, "weight": 1}, 
                {"id": 45, "lemma": "대", "type": "NNB", "position": 144, "weight": 0.147138}, 
                {"id": 46, "lemma": "국왕", "type": "NNG", "position": 148, "weight": 0.9}, 
                {"id": 47, "lemma": "이", "type": "VCP", "position": 154, "weight": 0.0177525}, 
                {"id": 48, "lemma": "자", "type": "EC", "position": 157, "weight": 0.109096}, 
                {"id": 49, "lemma": "마지막", "type": "NNG", "position": 161, "weight": 0.9}, 
                {"id": 50, "lemma": "국왕", "type": "NNG", "position": 171, "weight": 0.9}, 
                {"id": 51, "lemma": "으로", "type": "JKB", "position": 177, "weight": 0.153406}, 
                {"id": 52, "lemma": ",", "type": "SP", "position": 183, "weight": 1}, 
                {"id": 53, "lemma": "고려", "type": "NNP", "position": 185, "weight": 0.11795}, 
                {"id": 54, "lemma": "의", "type": "JKG", "position": 191, "weight": 0.0987295}, 
                {"id": 55, "lemma": "제", "type": "XPN", "position": 195, "weight": 0.00193141}, 
                {"id": 56, "lemma": "20", "type": "SN", "position": 198, "weight": 1}, 
                {"id": 57, "lemma": "대", "type": "NNB", "position": 200, "weight": 0.147138}, 
                {"id": 58, "lemma": "국왕", "type": "NNG", "position": 204, "weight": 0.9}, 
                {"id": 59, "lemma": "이", "type": "VCP", "position": 210, "weight": 0.0177525}, 
                {"id": 60, "lemma": "ㄴ", "type": "ETM", "position": 210, "weight": 0.220712}, 
                {"id": 61, "lemma": "신종", "type": "NNP", "position": 214, "weight": 0.530045}, 
                {"id": 62, "lemma": "의", "type": "JKG", "position": 220, "weight": 0.0694213}, 
                {"id": 63, "lemma": "둘째", "type": "NR", "position": 224, "weight": 0.00251961}, 
                {"id": 64, "lemma": "아들", "type": "NNG", "position": 231, "weight": 0.108544}, 
                {"id": 65, "lemma": "양양공", "type": "NNP", "position": 238, "weight": 0.6}, 
                {"id": 66, "lemma": "의", "type": "JKG", "position": 247, "weight": 0.0987295}, 
                {"id": 67, "lemma": "7", "type": "SN", "position": 251, "weight": 1}, 
                {"id": 68, "lemma": "대손", "type": "NNG", "position": 252, "weight": 0.9}, 
                {"id": 69, "lemma": "이", "type": "VCP", "position": 258, "weight": 0.0177525}, 
                {"id": 70, "lemma": "며", "type": "EC", "position": 261, "weight": 0.250555}, 
                {"id": 71, "lemma": "정원", "type": "NNP", "position": 265, "weight": 0.00011338}, 
                {"id": 72, "lemma": "부원군", "type": "NNG", "position": 271, "weight": 0.9}, 
                {"id": 73, "lemma": "왕균", "type": "NNP", "position": 281, "weight": 0.6}, 
                {"id": 74, "lemma": "과", "type": "JC", "position": 287, "weight": 0.0108215}, 
                {"id": 75, "lemma": "충렬왕", "type": "NNP", "position": 291, "weight": 0.9}, 
                {"id": 76, "lemma": "의", "type": "JKG", "position": 300, "weight": 0.0987295}, 
                {"id": 77, "lemma": "서", "type": "XPN", "position": 304, "weight": 0.6}, 
                {"id": 78, "lemma": "장자", "type": "NNG", "position": 304, "weight": 0.6}, 
                {"id": 79, "lemma": "강양공", "type": "NNP", "position": 314, "weight": 0.6}, 
                {"id": 80, "lemma": "자", "type": "NNG", "position": 324, "weight": 0.0338478}, 
                {"id": 81, "lemma": "(", "type": "SS", "position": 327, "weight": 1}, 
                {"id": 82, "lemma": "滋", "type": "SH", "position": 328, "weight": 1}, 
                {"id": 83, "lemma": ")", "type": "SS", "position": 331, "weight": 1}, 
                {"id": 84, "lemma": "의", "type": "JKG", "position": 332, "weight": 0.0878251}, 
                {"id": 85, "lemma": "손녀", "type": "NNG", "position": 336, "weight": 0.9}, 
                {"id": 86, "lemma": "국대비", "type": "NNG", "position": 343, "weight": 0.6}, 
                {"id": 87, "lemma": "왕", "type": "NNP", "position": 353, "weight": 0.256826}, 
                {"id": 88, "lemma": "씨", "type": "XSN", "position": 356, "weight": 0.0011393}, 
                {"id": 89, "lemma": "의", "type": "JKG", "position": 359, "weight": 0.120732}, 
                {"id": 90, "lemma": "차남", "type": "NNG", "position": 363, "weight": 0.9}, 
                {"id": 91, "lemma": "이", "type": "VCP", "position": 369, "weight": 0.0177525}, 
                {"id": 92, "lemma": "다", "type": "EF", "position": 372, "weight": 0.353579}, 
                {"id": 93, "lemma": ".", "type": "SF", "position": 375, "weight": 1}
            ], 
            "morp_eval": [], 
            "WSD": [
                {"id": 0, "text": "공양왕", "type": "NNP", "scode": "000000", "weight": 1, "position": 0, "begin": 0, "end": 0}, 
                {"id": 1, "text": "(", "type": "SS", "scode": "000000", "weight": 1, "position": 9, "begin": 1, "end": 1}, 
                {"id": 2, "text": "恭讓王", "type": "SH", "scode": "000000", "weight": 1, "position": 10, "begin": 2, "end": 2}, 
                {"id": 3, "text": ",", "type": "SP", "scode": "000000", "weight": 1, "position": 19, "begin": 3, "end": 3}, 
                {"id": 4, "text": "1345", "type": "SN", "scode": "000000", "weight": 1, "position": 21, "begin": 4, "end": 4}, 
                {"id": 5, "text": "년", "type": "NNB", "scode": "020000", "weight": 0.166667, "position": 25, "begin": 5, "end": 5}, 
                {"id": 6, "text": "3", "type": "SN", "scode": "000000", "weight": 1, "position": 29, "begin": 6, "end": 6}, 
                {"id": 7, "text": "월", "type": "NNB", "scode": "020100", "weight": 0.125, "position": 30, "begin": 7, "end": 7}, 
                {"id": 8, "text": "9", "type": "SN", "scode": "000000", "weight": 1, "position": 34, "begin": 8, "end": 8}, 
                {"id": 9, "text": "일", "type": "NNB", "scode": "070100", "weight": 0.04, "position": 35, "begin": 9, "end": 9}, 
                {"id": 10, "text": "(", "type": "SS", "scode": "000000", "weight": 1, "position": 39, "begin": 10, "end": 10}, 
                {"id": 11, "text": "음력", "type": "NNG", "scode": "020000", "weight": 0.5, "position": 40, "begin": 11, "end": 11}, 
                {"id": 12, "text": "2", "type": "SN", "scode": "000000", "weight": 1, "position": 47, "begin": 12, "end": 12}, 
                {"id": 13, "text": "월", "type": "NNB", "scode": "020100", "weight": 0.125, "position": 48, "begin": 13, "end": 13}, 
                {"id": 14, "text": "5", "type": "SN", "scode": "000000", "weight": 1, "position": 52, "begin": 14, "end": 14}, 
                {"id": 15, "text": "일", "type": "NNB", "scode": "070100", "weight": 0.04, "position": 53, "begin": 15, "end": 15}, 
                {"id": 16, "text": ")", "type": "SS", "scode": "000000", "weight": 1, "position": 56, "begin": 16, "end": 16}, 
                {"id": 17, "text": "~", "type": "SO", "scode": "000000", "weight": 1, "position": 58, "begin": 17, "end": 17}, 
                {"id": 18, "text": "1394", "type": "SN", "scode": "000000", "weight": 1, "position": 60, "begin": 18, "end": 18}, 
                {"id": 19, "text": "년", "type": "NNB", "scode": "020000", "weight": 0.166667, "position": 64, "begin": 19, "end": 19}, 
                {"id": 20, "text": "5", "type": "SN", "scode": "000000", "weight": 1, "position": 67, "begin": 20, "end": 20}, 
                {"id": 21, "text": "월", "type": "NNB", "scode": "020100", "weight": 0.125, "position": 68, "begin": 21, "end": 21}, 
                {"id": 22, "text": "17", "type": "SN", "scode": "000000", "weight": 1, "position": 72, "begin": 22, "end": 22}, 
                {"id": 23, "text": "일", "type": "NNB", "scode": "070100", "weight": 0.04, "position": 74, "begin": 23, "end": 23}, 
                {"id": 24, "text": "(", "type": "SS", "scode": "000000", "weight": 1, "position": 78, "begin": 24, "end": 24}, 
                {"id": 25, "text": "음력", "type": "NNG", "scode": "020000", "weight": 0.5, "position": 79, "begin": 25, "end": 25}, 
                {"id": 26, "text": "4", "type": "SN", "scode": "000000", "weight": 1, "position": 86, "begin": 26, "end": 26}, 
                {"id": 27, "text": "월", "type": "NNB", "scode": "020100", "weight": 0.125, "position": 87, "begin": 27, "end": 27}, 
                {"id": 28, "text": "17", "type": "SN", "scode": "000000", "weight": 1, "position": 91, "begin": 28, "end": 28}, 
                {"id": 29, "text": "일", "type": "NNB", "scode": "070100", "weight": 0.04, "position": 93, "begin": 29, "end": 29}, 
                {"id": 30, "text": ")", "type": "SS", "scode": "000000", "weight": 1, "position": 96, "begin": 30, "end": 30}, 
                {"id": 31, "text": ",", "type": "SP", "scode": "000000", "weight": 1, "position": 97, "begin": 31, "end": 31}, 
                {"id": 32, "text": "재위", "type": "NNG", "scode": "000000", "weight": 1, "position": 99, "begin": 32, "end": 32}, 
                {"id": 33, "text": ":", "type": "SP", "scode": "000000", "weight": 1, "position": 105, "begin": 33, "end": 33}, 
                {"id": 34, "text": "1389", "type": "SN", "scode": "000000", "weight": 1, "position": 107, "begin": 34, "end": 34}, 
                {"id": 35, "text": "년", "type": "NNB", "scode": "020000", "weight": 0.166667, "position": 111, "begin": 35, "end": 35}, 
                {"id": 36, "text": "~", "type": "SO", "scode": "000000", "weight": 1, "position": 115, "begin": 36, "end": 36}, 
                {"id": 37, "text": "1392", "type": "SN", "scode": "000000", "weight": 1, "position": 117, "begin": 37, "end": 37}, 
                {"id": 38, "text": "년", "type": "NNB", "scode": "020000", "weight": 0.166667, "position": 121, "begin": 38, "end": 38}, 
                {"id": 39, "text": ")", "type": "SS", "scode": "000000", "weight": 1, "position": 124, "begin": 39, "end": 39}, 
                {"id": 40, "text": "은", "type": "JX", "scode": "000000", "weight": 1, "position": 125, "begin": 40, "end": 40}, 
                {"id": 41, "text": "고려", "type": "NNP", "scode": "050001", "weight": 0.0833333, "position": 129, "begin": 41, "end": 41}, 
                {"id": 42, "text": "의", "type": "JKG", "scode": "000000", "weight": 1, "position": 135, "begin": 42, "end": 42}, 
                {"id": 43, "text": "제", "type": "XPN", "scode": "210000", "weight": 0.0322581, "position": 139, "begin": 43, "end": 43}, 
                {"id": 44, "text": "34", "type": "SN", "scode": "000000", "weight": 1, "position": 142, "begin": 44, "end": 44}, 
                {"id": 45, "text": "대", "type": "NNB", "scode": "060102", "weight": 0.0232558, "position": 144, "begin": 45, "end": 45}, 
                {"id": 46, "text": "국왕", "type": "NNG", "scode": "000000", "weight": 1, "position": 148, "begin": 46, "end": 46}, 
                {"id": 47, "text": "이", "type": "VCP", "scode": "030000", "weight": 0.0172414, "position": 154, "begin": 47, "end": 47}, 
                {"id": 48, "text": "자", "type": "EC", "scode": "000000", "weight": 1, "position": 157, "begin": 48, "end": 48}, 
                {"id": 49, "text": "마지막", "type": "NNG", "scode": "000000", "weight": 1, "position": 161, "begin": 49, "end": 49}, 
                {"id": 50, "text": "국왕", "type": "NNG", "scode": "000000", "weight": 1, "position": 171, "begin": 50, "end": 50}, 
                {"id": 51, "text": "으로", "type": "JKB", "scode": "000000", "weight": 1, "position": 177, "begin": 51, "end": 51}, 
                {"id": 52, "text": ",", "type": "SP", "scode": "000000", "weight": 1, "position": 183, "begin": 52, "end": 52}, 
                {"id": 53, "text": "고려", "type": "NNP", "scode": "050001", "weight": 0.0833333, "position": 185, "begin": 53, "end": 53}, 
                {"id": 54, "text": "의", "type": "JKG", "scode": "000000", "weight": 1, "position": 191, "begin": 54, "end": 54}, 
                {"id": 55, "text": "제", "type": "XPN", "scode": "210000", "weight": 0.0322581, "position": 195, "begin": 55, "end": 55}, 
                {"id": 56, "text": "20", "type": "SN", "scode": "000000", "weight": 1, "position": 198, "begin": 56, "end": 56}, 
                {"id": 57, "text": "대", "type": "NNB", "scode": "060102", "weight": 0.0232558, "position": 200, "begin": 57, "end": 57}, 
                {"id": 58, "text": "국왕", "type": "NNG", "scode": "000000", "weight": 1, "position": 204, "begin": 58, "end": 58}, 
                {"id": 59, "text": "이", "type": "VCP", "scode": "030000", "weight": 0.0172414, "position": 210, "begin": 59, "end": 59}, 
                {"id": 60, "text": "ㄴ", "type": "ETM", "scode": "000000", "weight": 1, "position": 210, "begin": 60, "end": 60}, 
                {"id": 61, "text": "신종", "type": "NNP", "scode": "040000", "weight": 0.1, "position": 214, "begin": 61, "end": 61}, 
                {"id": 62, "text": "의", "type": "JKG", "scode": "000000", "weight": 1, "position": 220, "begin": 62, "end": 62}, 
                {"id": 63, "text": "둘째", "type": "NR", "scode": "000100", "weight": 0.5, "position": 224, "begin": 63, "end": 63}, 
                {"id": 64, "text": "아들", "type": "NNG", "scode": "000000", "weight": 1, "position": 231, "begin": 64, "end": 64}, 
                {"id": 65, "text": "양양공", "type": "NNP", "scode": "000000", "weight": 0, "position": 238, "begin": 65, "end": 65}, 
                {"id": 66, "text": "의", "type": "JKG", "scode": "000000", "weight": 1, "position": 247, "begin": 66, "end": 66}, 
                {"id": 67, "text": "7", "type": "SN", "scode": "000000", "weight": 1, "position": 251, "begin": 67, "end": 67}, 
                {"id": 68, "text": "대손", "type": "NNG", "scode": "020000", "weight": 0.333333, "position": 252, "begin": 68, "end": 68}, 
                {"id": 69, "text": "이", "type": "VCP", "scode": "030000", "weight": 0.0172414, "position": 258, "begin": 69, "end": 69}, 
                {"id": 70, "text": "며", "type": "EC", "scode": "000000", "weight": 1, "position": 261, "begin": 70, "end": 70}, 
                {"id": 71, "text": "정원", "type": "NNP", "scode": "000000", "weight": 0.111111, "position": 265, "begin": 71, "end": 71}, 
                {"id": 72, "text": "부원군", "type": "NNG", "scode": "000000", "weight": 1, "position": 271, "begin": 72, "end": 72}, 
                {"id": 73, "text": "왕균", "type": "NNP", "scode": "000000", "weight": 0, "position": 281, "begin": 73, "end": 73}, 
                {"id": 74, "text": "과", "type": "JC", "scode": "000000", "weight": 1, "position": 287, "begin": 74, "end": 74}, 
                {"id": 75, "text": "충렬왕", "type": "NNP", "scode": "000000", "weight": 1, "position": 291, "begin": 75, "end": 75}, 
                {"id": 76, "text": "의", "type": "JKG", "scode": "000000", "weight": 1, "position": 300, "begin": 76, "end": 76}, 
                {"id": 77, "text": "서", "type": "XPN", "scode": "180000", "weight": 0.047619, "position": 304, "begin": 77, "end": 77}, 
                {"id": 78, "text": "장자", "type": "NNG", "scode": "020000", "weight": 0.0909091, "position": 304, "begin": 78, "end": 78}, 
                {"id": 79, "text": "강양공", "type": "NNP", "scode": "000000", "weight": 0, "position": 314, "begin": 79, "end": 79}, 
                {"id": 80, "text": "자", "type": "NNG", "scode": "000000", "weight": 0.0217391, "position": 324, "begin": 80, "end": 80}, 
                {"id": 81, "text": "(", "type": "SS", "scode": "000000", "weight": 1, "position": 327, "begin": 81, "end": 81}, 
                {"id": 82, "text": "滋", "type": "SH", "scode": "000000", "weight": 1, "position": 328, "begin": 82, "end": 82}, 
                {"id": 83, "text": ")", "type": "SS", "scode": "000000", "weight": 1, "position": 331, "begin": 83, "end": 83}, 
                {"id": 84, "text": "의", "type": "JKG", "scode": "000000", "weight": 1, "position": 332, "begin": 84, "end": 84}, 
                {"id": 85, "text": "손녀", "type": "NNG", "scode": "000000", "weight": 1, "position": 336, "begin": 85, "end": 85}, 
                {"id": 86, "text": "국대비", "type": "NNG", "scode": "000000", "weight": 0, "position": 343, "begin": 86, "end": 86}, 
                {"id": 87, "text": "왕", "type": "NNP", "scode": "050000", "weight": 0.0833333, "position": 353, "begin": 87, "end": 87}, 
                {"id": 88, "text": "씨", "type": "XSN", "scode": "090000", "weight": 0.0714286, "position": 356, "begin": 88, "end": 88}, 
                {"id": 89, "text": "의", "type": "JKG", "scode": "000000", "weight": 1, "position": 359, "begin": 89, "end": 89}, 
                {"id": 90, "text": "차남", "type": "NNG", "scode": "020000", "weight": 0.5, "position": 363, "begin": 90, "end": 90}, 
                {"id": 91, "text": "이", "type": "VCP", "scode": "000000", "weight": 0.0172414, "position": 369, "begin": 91, "end": 91}, 
                {"id": 92, "text": "다", "type": "EF", "scode": "000000", "weight": 1, "position": 372, "begin": 92, "end": 92}, 
                {"id": 93, "text": ".", "type": "SF", "scode": "000000", "weight": 1, "position": 375, "begin": 93, "end": 93}
            ], 
            "word": [
                {"id": 0, "text": "공양왕(恭讓王,", "type": "", "begin": 0, "end": 3}, 
                {"id": 1, "text": "1345년", "type": "", "begin": 4, "end": 5}, 
                {"id": 2, "text": "3월", "type": "", "begin": 6, "end": 7}, 
                {"id": 3, "text": "9일", "type": "", "begin": 8, "end": 9}, 
                {"id": 4, "text": "(음력", "type": "", "begin": 10, "end": 11}, 
                {"id": 5, "text": "2월", "type": "", "begin": 12, "end": 13}, 
                {"id": 6, "text": "5일)", "type": "", "begin": 14, "end": 16}, 
                {"id": 7, "text": "~", "type": "", "begin": 17, "end": 17}, 
                {"id": 8, "text": "1394년5월", "type": "", "begin": 18, "end": 21}, 
                {"id": 9, "text": "17일", "type": "", "begin": 22, "end": 23}, 
                {"id": 10, "text": "(음력", "type": "", "begin": 24, "end": 25}, 
                {"id": 11, "text": "4월", "type": "", "begin": 26, "end": 27}, 
                {"id": 12, "text": "17일),", "type": "", "begin": 28, "end": 31}, 
                {"id": 13, "text": "재위:", "type": "", "begin": 32, "end": 33}, 
                {"id": 14, "text": "1389년", "type": "", "begin": 34, "end": 35}, 
                {"id": 15, "text": "~", "type": "", "begin": 36, "end": 36}, 
                {"id": 16, "text": "1392년)은", "type": "", "begin": 37, "end": 40}, 
                {"id": 17, "text": "고려의", "type": "", "begin": 41, "end": 42}, 
                {"id": 18, "text": "제34대", "type": "", "begin": 43, "end": 45}, 
                {"id": 19, "text": "국왕이자", "type": "", "begin": 46, "end": 48}, 
                {"id": 20, "text": "마지막", "type": "", "begin": 49, "end": 49}, 
                {"id": 21, "text": "국왕으로,", "type": "", "begin": 50, "end": 52}, 
                {"id": 22, "text": "고려의", "type": "", "begin": 53, "end": 54}, 
                {"id": 23, "text": "제20대", "type": "", "begin": 55, "end": 57}, 
                {"id": 24, "text": "국왕인", "type": "", "begin": 58, "end": 60}, 
                {"id": 25, "text": "신종의", "type": "", "begin": 61, "end": 62}, 
                {"id": 26, "text": "둘째", "type": "", "begin": 63, "end": 63}, 
                {"id": 27, "text": "아들", "type": "", "begin": 64, "end": 64}, 
                {"id": 28, "text": "양양공의", "type": "", "begin": 65, "end": 66}, 
                {"id": 29, "text": "7대손이며", "type": "", "begin": 67, "end": 70}, 
                {"id": 30, "text": "정원부원군", "type": "", "begin": 71, "end": 72}, 
                {"id": 31, "text": "왕균과", "type": "", "begin": 73, "end": 74}, 
                {"id": 32, "text": "충렬왕의", "type": "", "begin": 75, "end": 76}, 
                {"id": 33, "text": "서장자", "type": "", "begin": 77, "end": 78}, 
                {"id": 34, "text": "강양공", "type": "", "begin": 79, "end": 79}, 
                {"id": 35, "text": "자(滋)의", "type": "", "begin": 80, "end": 84}, 
                {"id": 36, "text": "손녀", "type": "", "begin": 85, "end": 85}, 
                {"id": 37, "text": "국대비", "type": "", "begin": 86, "end": 86}, 
                {"id": 38, "text": "왕씨의", "type": "", "begin": 87, "end": 89}, 
                {"id": 39, "text": "차남이다.", "type": "", "begin": 90, "end": 93}
            ], 
            "NE": [
                {"id": 0, "text": "공양왕", "type": "PS_NAME", "begin": 0, "end": 0, "weight": 0.287747, "common_noun": 0}, 
                {"id": 1, "text": "恭讓王", "type": "PS_NAME", "begin": 2, "end": 2, "weight": 1, "common_noun": 0}, 
                {"id": 2, "text": "1345년 3월 9일 (음력 2월 5일) ~ 1394년5월 17일 (음력 4월 17일)", "type": "DT_DURATION", "begin": 4, "end": 30, "weight": 1, "common_noun": 0}, 
                {"id": 3, "text": "1389년 ~ 1392년", "type": "DT_DURATION", "begin": 34, "end": 38, "weight": 0.885101, "common_noun": 0}, 
                {"id": 4, "text": "고려", "type": "LCP_COUNTRY", "begin": 41, "end": 41, "weight": 0.668677, "common_noun": 0}, 
                {"id": 5, "text": "제34대", "type": "QT_ORDER", "begin": 43, "end": 45, "weight": 0.613099, "common_noun": 0}, 
                {"id": 6, "text": "국왕", "type": "CV_POSITION", "begin": 46, "end": 46, "weight": 0.855515, "common_noun": 0}, 
                {"id": 7, "text": "국왕", "type": "CV_POSITION", "begin": 50, "end": 50, "weight": 0.689566, "common_noun": 0}, 
                {"id": 8, "text": "고려", "type": "LCP_COUNTRY", "begin": 53, "end": 53, "weight": 0.675686, "common_noun": 0}, 
                {"id": 9, "text": "제20대", "type": "QT_ORDER", "begin": 55, "end": 57, "weight": 0.831368, "common_noun": 0}, 
                {"id": 10, "text": "국왕", "type": "CV_POSITION", "begin": 58, "end": 58, "weight": 0.784097, "common_noun": 0}, 
                {"id": 11, "text": "신종", "type": "PS_NAME", "begin": 61, "end": 61, "weight": 0.247321, "common_noun": 0}, 
                {"id": 12, "text": "둘째", "type": "QT_ORDER", "begin": 63, "end": 63, "weight": 0.532793, "common_noun": 0}, 
                {"id": 13, "text": "아들", "type": "CV_RELATION", "begin": 64, "end": 64, "weight": 0.641638, "common_noun": 0}, 
                {"id": 14, "text": "양양공", "type": "PS_NAME", "begin": 65, "end": 65, "weight": 0.601945, "common_noun": 0}, 
                {"id": 15, "text": "7대손", "type": "QT_ORDER", "begin": 67, "end": 68, "weight": 0.494287, "common_noun": 0}, 
                {"id": 16, "text": "정원부원군", "type": "PS_NAME", "begin": 71, "end": 72, "weight": 0.347732, "common_noun": 0}, 
                {"id": 17, "text": "왕균", "type": "PS_NAME", "begin": 73, "end": 73, "weight": 0.602629, "common_noun": 0}, 
                {"id": 18, "text": "충렬왕", "type": "PS_NAME", "begin": 75, "end": 75, "weight": 0.544437, "common_noun": 0}, 
                {"id": 19, "text": "서장자", "type": "CV_RELATION", "begin": 77, "end": 78, "weight": 0.156948, "common_noun": 0}, 
                {"id": 20, "text": "강양공", "type": "PS_NAME", "begin": 79, "end": 79, "weight": 0.280545, "common_noun": 0}, 
                {"id": 21, "text": "자", "type": "PS_NAME", "begin": 80, "end": 80, "weight": 0.136378, "common_noun": 0}, 
                {"id": 22, "text": "滋", "type": "PS_NAME", "begin": 82, "end": 82, "weight": 0.332231, "common_noun": 0}, 
                {"id": 23, "text": "손녀", "type": "CV_RELATION", "begin": 85, "end": 85, "weight": 0.359397, "common_noun": 0}, 
                {"id": 24, "text": "국대비", "type": "CV_POSITION", "begin": 86, "end": 86, "weight": 0.303832, "common_noun": 0}, 
                {"id": 25, "text": "왕", "type": "PS_NAME", "begin": 87, "end": 87, "weight": 0.420057, "common_noun": 0}, 
                {"id": 26, "text": "차남", "type": "CV_RELATION", "begin": 90, "end": 90, "weight": 0.294494, "common_noun": 0}
            ], 
            "chunk": [], 
            "dependency": [
                {"id": 0, "text": "공양왕(恭讓王,", "head": 12, "label": "NP", "mod": [], "weight": 0.357423}, 
                {"id": 1, "text": "1345년", "head": 2, "label": "NP", "mod": [], "weight": 0.69073}, 
                {"id": 2, "text": "3월", "head": 3, "label": "NP", "mod": [1], "weight": 0.601881}, 
                {"id": 3, "text": "9일", "head": 6, "label": "NP", "mod": [2], "weight": 0.576132}, 
                {"id": 4, "text": "(음력", "head": 5, "label": "NP", "mod": [], "weight": 0.698235}, 
                {"id": 5, "text": "2월", "head": 6, "label": "NP", "mod": [4], "weight": 0.792113}, 
                {"id": 6, "text": "5일)", "head": 7, "label": "NP", "mod": [5, 3], "weight": 0.227948}, 
                {"id": 7, "text": "~", "head": 12, "label": "X", "mod": [6], "weight": 0.34557}, 
                {"id": 8, "text": "1394년5월", "head": 9, "label": "NP", "mod": [], "weight": 0.518328}, 
                {"id": 9, "text": "17일", "head": 12, "label": "NP", "mod": [8], "weight": 0.738752}, 
                {"id": 10, "text": "(음력", "head": 11, "label": "NP", "mod": [], "weight": 0.546484}, 
                {"id": 11, "text": "4월", "head": 12, "label": "NP", "mod": [10], "weight": 0.872077}, 
                {"id": 12, "text": "17일),", "head": 16, "label": "NP_CNJ", "mod": [0, 11, 9, 7], "weight": 0.556568}, 
                {"id": 13, "text": "재위:", "head": 16, "label": "NP", "mod": [], "weight": 0.698848}, 
                {"id": 14, "text": "1389년", "head": 15, "label": "NP", "mod": [], "weight": 0.595363}, 
                {"id": 15, "text": "~", "head": 16, "label": "X", "mod": [14], "weight": 0.631538}, 
                {"id": 16, "text": "1392년)은", "head": 19, "label": "NP_SBJ", "mod": [12, 13, 15], "weight": 0.29735}, 
                {"id": 17, "text": "고려의", "head": 18, "label": "NP_MOD", "mod": [], "weight": 0.0577877}, 
                {"id": 18, "text": "제34대", "head": 19, "label": "NP", "mod": [17], "weight": 0.778638}, 
                {"id": 19, "text": "국왕이자", "head": 21, "label": "VNP", "mod": [16, 18], "weight": 0.644828}, 
                {"id": 20, "text": "마지막", "head": 21, "label": "NP", "mod": [], "weight": 0.699727}, 
                {"id": 21, "text": "국왕으로,", "head": 29, "label": "NP_AJT", "mod": [19, 20], "weight": 0.379732}, 
                {"id": 22, "text": "고려의", "head": 23, "label": "NP_MOD", "mod": [], "weight": 0.80595}, 
                {"id": 23, "text": "제20대", "head": 24, "label": "NP", "mod": [22], "weight": 0.703592}, 
                {"id": 24, "text": "국왕인", "head": 25, "label": "VNP_MOD", "mod": [23], "weight": 0.106261}, 
                {"id": 25, "text": "신종의", "head": 27, "label": "NP_MOD", "mod": [24], "weight": 0.43915}, 
                {"id": 26, "text": "둘째", "head": 27, "label": "NP", "mod": [], "weight": 0.652573}, 
                {"id": 27, "text": "아들", "head": 28, "label": "NP", "mod": [25, 26], "weight": 0.708884}, 
                {"id": 28, "text": "양양공의", "head": 29, "label": "NP_MOD", "mod": [27], "weight": 0.87116}, 
                {"id": 29, "text": "7대손이며", "head": 39, "label": "VNP", "mod": [21, 28], "weight": 0.859712}, 
                {"id": 30, "text": "정원부원군", "head": 31, "label": "NP", "mod": [], "weight": 0.539046}, 
                {"id": 31, "text": "왕균과", "head": 38, "label": "NP_CNJ", "mod": [30], "weight": 0.217201}, 
                {"id": 32, "text": "충렬왕의", "head": 33, "label": "NP_MOD", "mod": [], "weight": 0.268283}, 
                {"id": 33, "text": "서장자", "head": 34, "label": "NP", "mod": [32], "weight": 0.182912}, 
                {"id": 34, "text": "강양공", "head": 35, "label": "NP", "mod": [33], "weight": 0.648179}, 
                {"id": 35, "text": "자(滋)의", "head": 36, "label": "NP_MOD", "mod": [34], "weight": 0.194366}, 
                {"id": 36, "text": "손녀", "head": 37, "label": "NP", "mod": [35], "weight": 0.278793}, 
                {"id": 37, "text": "국대비", "head": 38, "label": "NP", "mod": [36], "weight": 0.390893}, 
                {"id": 38, "text": "왕씨의", "head": 39, "label": "NP_MOD", "mod": [37, 31], "weight": 0.793787}, 
                {"id": 39, "text": "차남이다.", "head": -1, "label": "VNP", "mod": [29, 38], "weight": 1.15474e-13}
            ], 
            "SRL": [], 
            "relation": [], 
            "SA": [], 
            "ZA": []
        }
    ], 
    "entity": [
        {"id": 0, "type": "DT_DURATION", "number": "singular", "gender": "", "person": "", "animacy": "time", "mention": [
            {"id": 0, "sent_id": 0, "start_eid": 0, "end_eid": 16, "ne_id": 5, "text": "공양왕(恭讓王, 1345년 3월 9일 (음력 2월 5일) ~ 1394년5월 17일 (음력 4월 17일), 재위: 1389년 ~ 1392년)은", "start_eid_short": 0, "end_eid_short": 0, "text_short": "공양왕(恭讓王,"}, 
            {"id": 1, "sent_id": 0, "start_eid": 17, "end_eid": 21, "ne_id": 9, "text": "고려의 제34대 국왕이자 마지막 국왕으로,", "start_eid_short": 21, "end_eid_short": 21, "text_short": "국왕으로,"}, 
            {"id": 2, "sent_id": 0, "start_eid": 17, "end_eid": 19, "ne_id": 8, "text": "고려의 제34대 국왕이자", "start_eid_short": 19, "end_eid_short": 19, "text_short": "국왕이자"}, 
            {"id": 6, "sent_id": 0, "start_eid": 22, "end_eid": 29, "ne_id": 16, "text": "고려의 제20대 국왕인 신종의 둘째 아들 양양공의 7대손이며", "start_eid_short": 29, "end_eid_short": 29, "text_short": "7대손이며"}, 
            {"id": 14, "sent_id": 0, "start_eid": 30, "end_eid": 39, "ne_id": 26, "text": "정원부원군 왕균과 충렬왕의 서장자 강양공 자(滋)의 손녀 국대비 왕씨의 차남이다.", "start_eid_short": 39, "end_eid_short": 39, "text_short": "차남이다."}
        ]}, 
        {"id": 1, "type": "QT_ORDER", "number": "singular", "gender": "", "person": "", "animacy": "thing", "mention": [
            {"id": 4, "sent_id": 0, "start_eid": 18, "end_eid": 18, "ne_id": 7, "text": "제34대", "start_eid_short": 18, "end_eid_short": 18, "text_short": "제34대"}
        ]}, 
        {"id": 2, "type": "LCP_COUNTRY", "number": "singular", "gender": "", "person": "", "animacy": "place", "mention": [
            {"id": 3, "sent_id": 0, "start_eid": 17, "end_eid": 17, "ne_id": 6, "text": "고려의", "start_eid_short": 17, "end_eid_short": 17, "text_short": "고려의"}, 
            {"id": 11, "sent_id": 0, "start_eid": 22, "end_eid": 22, "ne_id": 10, "text": "고려의", "start_eid_short": 22, "end_eid_short": 22, "text_short": "고려의"}
        ]}, 
        {"id": 3, "type": "CV_POSITION", "number": "singular", "gender": "", "person": "", "animacy": "human", "mention": [
            {"id": 5, "sent_id": 0, "start_eid": 20, "end_eid": 21, "ne_id": 9, "text": "마지막 국왕으로,", "start_eid_short": 21, "end_eid_short": 21, "text_short": "국왕으로,"}
        ]}, 
        {"id": 4, "type": "QT_ORDER", "number": "singular", "gender": "", "person": "", "animacy": "thing", "mention": [
            {"id": 12, "sent_id": 0, "start_eid": 23, "end_eid": 23, "ne_id": 11, "text": "제20대", "start_eid_short": 23, "end_eid_short": 23, "text_short": "제20대"}
        ]}, 
        {"id": 5, "type": "CV_POSITION", "number": "singular", "gender": "", "person": "", "animacy": "human", "mention": [
            {"id": 9, "sent_id": 0, "start_eid": 22, "end_eid": 25, "ne_id": -1, "text": "고려의 제20대 국왕인 신종의", "start_eid_short": 25, "end_eid_short": 25, "text_short": "신종의"}, 
            {"id": 10, "sent_id": 0, "start_eid": 22, "end_eid": 24, "ne_id": 12, "text": "고려의 제20대 국왕인", "start_eid_short": 24, "end_eid_short": 24, "text_short": "국왕인"}
        ]}, 
        {"id": 6, "type": "CV_RELATION", "number": "singular", "gender": "male", "person": "", "animacy": "human", "mention": [
            {"id": 7, "sent_id": 0, "start_eid": 22, "end_eid": 28, "ne_id": 15, "text": "고려의 제20대 국왕인 신종의 둘째 아들 양양공의", "start_eid_short": 26, "end_eid_short": 28, "text_short": "둘째 아들 양양공의"}, 
            {"id": 8, "sent_id": 0, "start_eid": 22, "end_eid": 27, "ne_id": 14, "text": "고려의 제20대 국왕인 신종의 둘째 아들", "start_eid_short": 26, "end_eid_short": 27, "text_short": "둘째 아들"}
        ]}, 
        {"id": 7, "type": "QT_ORDER", "number": "singular", "gender": "", "person": "", "animacy": "thing", "mention": [
            {"id": 13, "sent_id": 0, "start_eid": 26, "end_eid": 26, "ne_id": 13, "text": "둘째", "start_eid_short": 26, "end_eid_short": 26, "text_short": "둘째"}
        ]}, 
        {"id": 8, "type": "CV_RELATION", "number": "singular", "gender": "", "person": "", "animacy": "human", "mention": [
            {"id": 15, "sent_id": 0, "start_eid": 30, "end_eid": 31, "ne_id": 18, "text": "정원부원군 왕균과", "start_eid_short": 30, "end_eid_short": 31, "text_short": "정원부원군 왕균과"}, 
            {"id": 16, "sent_id": 0, "start_eid": 30, "end_eid": 30, "ne_id": 17, "text": "정원부원군", "start_eid_short": 30, "end_eid_short": 30, "text_short": "정원부원군"}
        ]}, 
        {"id": 9, "type": "CV_RELATION", "number": "singular", "gender": "", "person": "", "animacy": "human", "mention": [
            {"id": 21, "sent_id": 0, "start_eid": 32, "end_eid": 34, "ne_id": 21, "text": "충렬왕의 서장자 강양공", "start_eid_short": 33, "end_eid_short": 34, "text_short": "서장자 강양공"}, 
            {"id": 22, "sent_id": 0, "start_eid": 32, "end_eid": 33, "ne_id": 20, "text": "충렬왕의 서장자", "start_eid_short": 33, "end_eid_short": 33, "text_short": "서장자"}
        ]}, 
        {"id": 10, "type": "PS_NAME", "number": "singular", "gender": "", "person": "", "animacy": "human", "mention": [
            {"id": 23, "sent_id": 0, "start_eid": 32, "end_eid": 32, "ne_id": 19, "text": "충렬왕의", "start_eid_short": 32, "end_eid_short": 32, "text_short": "충렬왕의"}
        ]}, 
        {"id": 11, "type": "CV_RELATION", "number": "singular", "gender": "", "person": "", "animacy": "human", "mention": [
            {"id": 19, "sent_id": 0, "start_eid": 32, "end_eid": 36, "ne_id": 23, "text": "충렬왕의 서장자 강양공 자(滋)의 손녀", "start_eid_short": 36, "end_eid_short": 36, "text_short": "손녀"}
        ]}, 
        {"id": 12, "type": "PS_NAME", "number": "singular", "gender": "", "person": "", "animacy": "human", "mention": [
            {"id": 20, "sent_id": 0, "start_eid": 32, "end_eid": 35, "ne_id": 22, "text": "충렬왕의 서장자 강양공 자(滋)의", "start_eid_short": 35, "end_eid_short": 35, "text_short": "자(滋)의"}
        ]}, 
        {"id": 13, "type": "CV_POSITION", "number": "singular", "gender": "", "person": "", "animacy": "human", "mention": [
            {"id": 17, "sent_id": 0, "start_eid": 32, "end_eid": 38, "ne_id": 25, "text": "충렬왕의 서장자 강양공 자(滋)의 손녀 국대비 왕씨의", "start_eid_short": 36, "end_eid_short": 38, "text_short": "손녀 국대비 왕씨의"}, 
            {"id": 18, "sent_id": 0, "start_eid": 32, "end_eid": 37, "ne_id": 24, "text": "충렬왕의 서장자 강양공 자(滋)의 손녀 국대비", "start_eid_short": 36, "end_eid_short": 37, "text_short": "손녀 국대비"}
        ]}
    ]
}