{
    "doc_id": "E2016.889.05_A_02.json", 
    "DCT": "", 
    "category": "", 
    "category_weight": 0, 
    "title": {
        "text": "감마선", 
        "NE": ""
    }, 
    "metaInfo": {}, 
    "sentence": [
        {
            "id": 0, 
            "reserve_str": "", 
            "text": "<물리> 방사성 물질에서 나오는 방사선의 하나.", 
            "morp": [
                {"id": 0, "lemma": "<", "type": "SS", "position": 0, "weight": 1}, 
                {"id": 1, "lemma": "물리", "type": "NNG", "position": 1, "weight": 0.0570303}, 
                {"id": 2, "lemma": ">", "type": "SS", "position": 7, "weight": 1}, 
                {"id": 3, "lemma": "방사", "type": "NNG", "position": 9, "weight": 0.198262}, 
                {"id": 4, "lemma": "성", "type": "XSN", "position": 15, "weight": 0.0161708}, 
                {"id": 5, "lemma": "물질", "type": "NNG", "position": 19, "weight": 0.9}, 
                {"id": 6, "lemma": "에서", "type": "JKB", "position": 25, "weight": 0.153407}, 
                {"id": 7, "lemma": "나오", "type": "VV", "position": 32, "weight": 0.9}, 
                {"id": 8, "lemma": "는", "type": "ETM", "position": 38, "weight": 0.184941}, 
                {"id": 9, "lemma": "방사", "type": "NNG", "position": 42, "weight": 0.653112}, 
                {"id": 10, "lemma": "선", "type": "NNG", "position": 48, "weight": 0.164164}, 
                {"id": 11, "lemma": "의", "type": "JKG", "position": 51, "weight": 0.0694213}, 
                {"id": 12, "lemma": "하나", "type": "NNG", "position": 55, "weight": 0.000723053}, 
                {"id": 13, "lemma": ".", "type": "SF", "position": 61, "weight": 0.000723053}
            ], 
            "morp_eval": [], 
            "WSD": [
                {"id": 0, "text": "<", "type": "SS", "scode": "000000", "weight": 1, "position": 0, "begin": 0, "end": 0}, 
                {"id": 1, "text": "물리", "type": "NNG", "scode": "020003", "weight": 0.25, "position": 1, "begin": 1, "end": 1}, 
                {"id": 2, "text": ">", "type": "SS", "scode": "000000", "weight": 1, "position": 7, "begin": 2, "end": 2}, 
                {"id": 3, "text": "방사성", "type": "NNG", "scode": "000000", "weight": 1, "position": 9, "begin": 3, "end": 4}, 
                {"id": 4, "text": "물질", "type": "NNG", "scode": "020003", "weight": 0.2, "position": 19, "begin": 5, "end": 5}, 
                {"id": 5, "text": "에서", "type": "JKB", "scode": "000000", "weight": 1, "position": 25, "begin": 6, "end": 6}, 
                {"id": 6, "text": "나오", "type": "VV", "scode": "000102", "weight": 0.0384615, "position": 32, "begin": 7, "end": 7}, 
                {"id": 7, "text": "는", "type": "ETM", "scode": "000000", "weight": 1, "position": 38, "begin": 8, "end": 8}, 
                {"id": 8, "text": "방사선", "type": "NNG", "scode": "000000", "weight": 1, "position": 42, "begin": 9, "end": 10}, 
                {"id": 9, "text": "의", "type": "JKG", "scode": "000000", "weight": 1, "position": 51, "begin": 11, "end": 11}, 
                {"id": 10, "text": "하나", "type": "NNG", "scode": "000202", "weight": 0.166667, "position": 55, "begin": 12, "end": 12}, 
                {"id": 11, "text": ".", "type": "SF", "scode": "000000", "weight": 1, "position": 61, "begin": 13, "end": 13}
            ], 
            "word": [
                {"id": 0, "text": "<물리>", "type": "", "begin": 0, "end": 2}, 
                {"id": 1, "text": "방사성", "type": "", "begin": 3, "end": 4}, 
                {"id": 2, "text": "물질에서", "type": "", "begin": 5, "end": 6}, 
                {"id": 3, "text": "나오는", "type": "", "begin": 7, "end": 8}, 
                {"id": 4, "text": "방사선의", "type": "", "begin": 9, "end": 11}, 
                {"id": 5, "text": "하나.", "type": "", "begin": 12, "end": 13}
            ], 
            "NE": [
                {"id": 0, "text": "물리", "type": "FD_SCIENCE", "begin": 1, "end": 1, "weight": 0.4917, "common_noun": 0}, 
                {"id": 1, "text": "하나", "type": "QT_COUNT", "begin": 12, "end": 12, "weight": 0.609682, "common_noun": 0}
            ], 
            "chunk": [], 
            "dependency": [
                {"id": 0, "text": "<물리>", "head": 5, "label": "NP", "mod": [], "weight": 0.874777}, 
                {"id": 1, "text": "방사성", "head": 2, "label": "NP", "mod": [], "weight": 0.767509}, 
                {"id": 2, "text": "물질에서", "head": 3, "label": "NP_AJT", "mod": [1], "weight": 0.76505}, 
                {"id": 3, "text": "나오는", "head": 4, "label": "VP_MOD", "mod": [2], "weight": 0.197881}, 
                {"id": 4, "text": "방사선의", "head": 5, "label": "NP_MOD", "mod": [3], "weight": 0.837633}, 
                {"id": 5, "text": "하나.", "head": -1, "label": "NP", "mod": [0, 4], "weight": 0.0681529}
            ], 
            "SRL": [
                {"verb": "나오", "sense": 1, "word_id": 3, "weight": 0.166218, "argument": [
                    {"type": "ARG2", "word_id": 2, "text": "물질에서", "weight": 0.15079}, 
                    {"type": "ARG0", "word_id": 4, "text": "방사선의", "weight": 0.181645}
                ]}
            ], 
            "relation": [], 
            "SA": [], 
            "ZA": []
        }, 
        {
            "id": 1, 
            "reserve_str": "", 
            "text": "파장이 극히 짧고 물질 투과성이 강한 전자기파로 금속의 내부 결함을 탐지하거나 암을 치료하는 데에 널리 쓴다.", 
            "morp": [
                {"id": 0, "lemma": "파장", "type": "NNG", "position": 63, "weight": 0.00251703}, 
                {"id": 1, "lemma": "이", "type": "JKS", "position": 69, "weight": 0.0360723}, 
                {"id": 2, "lemma": "극히", "type": "MAG", "position": 73, "weight": 0.9}, 
                {"id": 3, "lemma": "짧", "type": "VA", "position": 80, "weight": 0.9}, 
                {"id": 4, "lemma": "고", "type": "EC", "position": 83, "weight": 0.310376}, 
                {"id": 5, "lemma": "물질", "type": "NNG", "position": 87, "weight": 0.9}, 
                {"id": 6, "lemma": "투과", "type": "NNG", "position": 94, "weight": 0.9}, 
                {"id": 7, "lemma": "성", "type": "XSN", "position": 100, "weight": 0.0161708}, 
                {"id": 8, "lemma": "이", "type": "JKS", "position": 103, "weight": 0.0731805}, 
                {"id": 9, "lemma": "강하", "type": "VA", "position": 107, "weight": 0.177101}, 
                {"id": 10, "lemma": "ㄴ", "type": "ETM", "position": 110, "weight": 0.488779}, 
                {"id": 11, "lemma": "전자기", "type": "NNG", "position": 114, "weight": 0.9}, 
                {"id": 12, "lemma": "파", "type": "XSN", "position": 123, "weight": 0.000623483}, 
                {"id": 13, "lemma": "로", "type": "JKB", "position": 126, "weight": 0.121577}, 
                {"id": 14, "lemma": "금속", "type": "NNG", "position": 130, "weight": 0.9}, 
                {"id": 15, "lemma": "의", "type": "JKG", "position": 136, "weight": 0.0694213}, 
                {"id": 16, "lemma": "내부", "type": "NNG", "position": 140, "weight": 0.9}, 
                {"id": 17, "lemma": "결함", "type": "NNG", "position": 147, "weight": 0.9}, 
                {"id": 18, "lemma": "을", "type": "JKO", "position": 153, "weight": 0.129611}, 
                {"id": 19, "lemma": "탐지", "type": "NNG", "position": 157, "weight": 0.9}, 
                {"id": 20, "lemma": "하", "type": "XSV", "position": 163, "weight": 0.0001}, 
                {"id": 21, "lemma": "거나", "type": "EC", "position": 166, "weight": 0.364324}, 
                {"id": 22, "lemma": "암", "type": "NNG", "position": 173, "weight": 0.193149}, 
                {"id": 23, "lemma": "을", "type": "JKO", "position": 176, "weight": 0.129611}, 
                {"id": 24, "lemma": "치료", "type": "NNG", "position": 180, "weight": 0.9}, 
                {"id": 25, "lemma": "하", "type": "XSV", "position": 186, "weight": 0.0001}, 
                {"id": 26, "lemma": "는", "type": "ETM", "position": 189, "weight": 0.238503}, 
                {"id": 27, "lemma": "데", "type": "NNB", "position": 193, "weight": 0.226476}, 
                {"id": 28, "lemma": "에", "type": "JKB", "position": 196, "weight": 0.135559}, 
                {"id": 29, "lemma": "널리", "type": "MAG", "position": 200, "weight": 0.0472919}, 
                {"id": 30, "lemma": "쓰", "type": "VV", "position": 207, "weight": 0.386944}, 
                {"id": 31, "lemma": "ㄴ다", "type": "EF", "position": 207, "weight": 0.0793196}, 
                {"id": 32, "lemma": ".", "type": "SF", "position": 213, "weight": 1}
            ], 
            "morp_eval": [], 
            "WSD": [
                {"id": 0, "text": "파장", "type": "NNG", "scode": "020001", "weight": 0.2, "position": 63, "begin": 0, "end": 0}, 
                {"id": 1, "text": "이", "type": "JKS", "scode": "000000", "weight": 1, "position": 69, "begin": 1, "end": 1}, 
                {"id": 2, "text": "극히", "type": "MAG", "scode": "000000", "weight": 1, "position": 73, "begin": 2, "end": 2}, 
                {"id": 3, "text": "짧", "type": "VA", "scode": "000001", "weight": 0.25, "position": 80, "begin": 3, "end": 3}, 
                {"id": 4, "text": "고", "type": "EC", "scode": "000000", "weight": 1, "position": 83, "begin": 4, "end": 4}, 
                {"id": 5, "text": "물질", "type": "NNG", "scode": "020003", "weight": 0.2, "position": 87, "begin": 5, "end": 5}, 
                {"id": 6, "text": "투과성", "type": "NNG", "scode": "000000", "weight": 1, "position": 94, "begin": 6, "end": 7}, 
                {"id": 7, "text": "이", "type": "JKS", "scode": "000000", "weight": 1, "position": 103, "begin": 8, "end": 8}, 
                {"id": 8, "text": "강하", "type": "VA", "scode": "020200", "weight": 0.125, "position": 107, "begin": 9, "end": 9}, 
                {"id": 9, "text": "ㄴ", "type": "ETM", "scode": "000000", "weight": 1, "position": 110, "begin": 10, "end": 10}, 
                {"id": 10, "text": "전자기파", "type": "NNG", "scode": "000000", "weight": 1, "position": 114, "begin": 11, "end": 12}, 
                {"id": 11, "text": "로", "type": "JKB", "scode": "000000", "weight": 1, "position": 126, "begin": 13, "end": 13}, 
                {"id": 12, "text": "금속", "type": "NNG", "scode": "010001", "weight": 0.25, "position": 130, "begin": 14, "end": 14}, 
                {"id": 13, "text": "의", "type": "JKG", "scode": "000000", "weight": 1, "position": 136, "begin": 15, "end": 15}, 
                {"id": 14, "text": "내부", "type": "NNG", "scode": "040001", "weight": 0.0833333, "position": 140, "begin": 16, "end": 16}, 
                {"id": 15, "text": "결함", "type": "NNG", "scode": "010000", "weight": 0.5, "position": 147, "begin": 17, "end": 17}, 
                {"id": 16, "text": "을", "type": "JKO", "scode": "000000", "weight": 1, "position": 153, "begin": 18, "end": 18}, 
                {"id": 17, "text": "탐지하", "type": "VV", "scode": "000000", "weight": 1, "position": 157, "begin": 19, "end": 20}, 
                {"id": 18, "text": "거나", "type": "EC", "scode": "000000", "weight": 1, "position": 166, "begin": 21, "end": 21}, 
                {"id": 19, "text": "암", "type": "NNG", "scode": "080001", "weight": 0.0666667, "position": 173, "begin": 22, "end": 22}, 
                {"id": 20, "text": "을", "type": "JKO", "scode": "000000", "weight": 1, "position": 176, "begin": 23, "end": 23}, 
                {"id": 21, "text": "치료하", "type": "VV", "scode": "000000", "weight": 1, "position": 180, "begin": 24, "end": 25}, 
                {"id": 22, "text": "는", "type": "ETM", "scode": "000000", "weight": 1, "position": 189, "begin": 26, "end": 26}, 
                {"id": 23, "text": "데", "type": "NNB", "scode": "010002", "weight": 0.1, "position": 193, "begin": 27, "end": 27}, 
                {"id": 24, "text": "에", "type": "JKB", "scode": "000000", "weight": 1, "position": 196, "begin": 28, "end": 28}, 
                {"id": 25, "text": "널리", "type": "MAG", "scode": "000001", "weight": 0.5, "position": 200, "begin": 29, "end": 29}, 
                {"id": 26, "text": "쓰", "type": "VV", "scode": "030101", "weight": 0.0384615, "position": 207, "begin": 30, "end": 30}, 
                {"id": 27, "text": "ㄴ다", "type": "EF", "scode": "000000", "weight": 1, "position": 207, "begin": 31, "end": 31}, 
                {"id": 28, "text": ".", "type": "SF", "scode": "000000", "weight": 1, "position": 213, "begin": 32, "end": 32}
            ], 
            "word": [
                {"id": 0, "text": "파장이", "type": "", "begin": 0, "end": 1}, 
                {"id": 1, "text": "극히", "type": "", "begin": 2, "end": 2}, 
                {"id": 2, "text": "짧고", "type": "", "begin": 3, "end": 4}, 
                {"id": 3, "text": "물질", "type": "", "begin": 5, "end": 5}, 
                {"id": 4, "text": "투과성이", "type": "", "begin": 6, "end": 8}, 
                {"id": 5, "text": "강한", "type": "", "begin": 9, "end": 10}, 
                {"id": 6, "text": "전자기파로", "type": "", "begin": 11, "end": 13}, 
                {"id": 7, "text": "금속의", "type": "", "begin": 14, "end": 15}, 
                {"id": 8, "text": "내부", "type": "", "begin": 16, "end": 16}, 
                {"id": 9, "text": "결함을", "type": "", "begin": 17, "end": 18}, 
                {"id": 10, "text": "탐지하거나", "type": "", "begin": 19, "end": 21}, 
                {"id": 11, "text": "암을", "type": "", "begin": 22, "end": 23}, 
                {"id": 12, "text": "치료하는", "type": "", "begin": 24, "end": 26}, 
                {"id": 13, "text": "데에", "type": "", "begin": 27, "end": 28}, 
                {"id": 14, "text": "널리", "type": "", "begin": 29, "end": 29}, 
                {"id": 15, "text": "쓴다.", "type": "", "begin": 30, "end": 32}
            ], 
            "NE": [
                {"id": 0, "text": "암", "type": "TMM_DISEASE", "begin": 22, "end": 22, "weight": 0.466413, "common_noun": 0}
            ], 
            "chunk": [], 
            "dependency": [
                {"id": 0, "text": "파장이", "head": 2, "label": "NP_SBJ", "mod": [], "weight": 0.828213}, 
                {"id": 1, "text": "극히", "head": 2, "label": "AP", "mod": [], "weight": 0.722324}, 
                {"id": 2, "text": "짧고", "head": 5, "label": "VP", "mod": [0, 1], "weight": 0.0784001}, 
                {"id": 3, "text": "물질", "head": 4, "label": "NP", "mod": [], "weight": 0.545874}, 
                {"id": 4, "text": "투과성이", "head": 5, "label": "NP_SBJ", "mod": [3], "weight": 0.375265}, 
                {"id": 5, "text": "강한", "head": 6, "label": "VP_MOD", "mod": [2, 4], "weight": 0.73234}, 
                {"id": 6, "text": "전자기파로", "head": 15, "label": "NP_AJT", "mod": [5], "weight": 0.0657737}, 
                {"id": 7, "text": "금속의", "head": 9, "label": "NP_MOD", "mod": [], "weight": 0.643908}, 
                {"id": 8, "text": "내부", "head": 9, "label": "NP", "mod": [], "weight": 0.70457}, 
                {"id": 9, "text": "결함을", "head": 10, "label": "NP_OBJ", "mod": [7, 8], "weight": 0.499088}, 
                {"id": 10, "text": "탐지하거나", "head": 12, "label": "VP", "mod": [9], "weight": 0.67297}, 
                {"id": 11, "text": "암을", "head": 12, "label": "NP_OBJ", "mod": [], "weight": 0.779689}, 
                {"id": 12, "text": "치료하는", "head": 13, "label": "VP_MOD", "mod": [10, 11], "weight": 0.812602}, 
                {"id": 13, "text": "데에", "head": 15, "label": "NP_AJT", "mod": [12], "weight": 0.835593}, 
                {"id": 14, "text": "널리", "head": 15, "label": "AP", "mod": [], "weight": 0.734271}, 
                {"id": 15, "text": "쓴다.", "head": -1, "label": "VP", "mod": [13, 14, 6], "weight": 2.2731e-05}
            ], 
            "SRL": [
                {"verb": "짧", "sense": 1, "word_id": 2, "weight": 0.302784, "argument": [
                    {"type": "ARG1", "word_id": 0, "text": "파장이", "weight": 0.350757}, 
                    {"type": "ARGM-EXT", "word_id": 1, "text": "극히", "weight": 0.254812}
                ]}, 
                {"verb": "강하", "sense": 1, "word_id": 5, "weight": 0.263522, "argument": [
                    {"type": "ARG1", "word_id": 4, "text": "투과성이", "weight": 0.212811}
                ]}, 
                {"verb": "탐지", "sense": 1, "word_id": 10, "weight": 0.323132, "argument": [
                    {"type": "ARG1", "word_id": 9, "text": "결함을", "weight": 0.323132}
                ]}, 
                {"verb": "치료", "sense": 1, "word_id": 12, "weight": 0.181127, "argument": [
                    {"type": "ARG1", "word_id": 11, "text": "암을", "weight": 0.250946}
                ]}, 
                {"verb": "쓰", "sense": 1, "word_id": 15, "weight": 0.116922, "argument": [
                    {"type": "ARG2", "word_id": 13, "text": "데에", "weight": 0.142802}, 
                    {"type": "ARGM-ADV", "word_id": 14, "text": "널리", "weight": 0.0910406}, 
                    {"type": "ARG1", "word_id": 6, "text": "전자기파로", "weight": 1}
                ]}
            ], 
            "relation": [], 
            "SA": [], 
            "ZA": []
        }
    ], 
    "entity": [
        {"id": 0, "type": "FD_SCIENCE", "number": "singular", "gender": "", "person": "", "animacy": "thing", "mention": [
            {"id": 1, "sent_id": 0, "start_eid": 0, "end_eid": 0, "ne_id": 0, "text": "<물리>", "start_eid_short": 0, "end_eid_short": 0, "text_short": "<물리>"}
        ]}, 
        {"id": 1, "type": "", "number": "singular", "gender": "", "person": "", "animacy": "thing", "mention": [
            {"id": 2, "sent_id": 0, "start_eid": 1, "end_eid": 4, "ne_id": -1, "text": "방사성 물질에서 나오는 방사선의", "start_eid_short": 4, "end_eid_short": 4, "text_short": "방사선의"}
        ]}, 
        {"id": 2, "type": "", "number": "singular", "gender": "", "person": "", "animacy": "thing", "mention": [
            {"id": 3, "sent_id": 0, "start_eid": 1, "end_eid": 2, "ne_id": -1, "text": "방사성 물질에서", "start_eid_short": 1, "end_eid_short": 2, "text_short": "방사성 물질에서"}
        ]}, 
        {"id": 3, "type": "", "number": "singular", "gender": "", "person": "", "animacy": "thing", "mention": [
            {"id": 4, "sent_id": 0, "start_eid": 1, "end_eid": 1, "ne_id": -1, "text": "방사성", "start_eid_short": 1, "end_eid_short": 1, "text_short": "방사성"}
        ]}, 
        {"id": 4, "type": "", "number": "singular", "gender": "", "person": "", "animacy": "thing", "mention": [
            {"id": 5, "sent_id": 1, "start_eid": 0, "end_eid": 6, "ne_id": -1, "text": "파장이 극히 짧고 물질 투과성이 강한 전자기파로", "start_eid_short": 6, "end_eid_short": 6, "text_short": "전자기파로"}
        ]}, 
        {"id": 5, "type": "", "number": "singular", "gender": "", "person": "", "animacy": "thing", "mention": [
            {"id": 6, "sent_id": 1, "start_eid": 0, "end_eid": 0, "ne_id": -1, "text": "파장이", "start_eid_short": 0, "end_eid_short": 0, "text_short": "파장이"}
        ]}, 
        {"id": 6, "type": "", "number": "singular", "gender": "", "person": "", "animacy": "thing", "mention": [
            {"id": 7, "sent_id": 1, "start_eid": 3, "end_eid": 4, "ne_id": -1, "text": "물질 투과성이", "start_eid_short": 3, "end_eid_short": 4, "text_short": "물질 투과성이"}
        ]}, 
        {"id": 7, "type": "", "number": "singular", "gender": "", "person": "", "animacy": "thing", "mention": [
            {"id": 9, "sent_id": 1, "start_eid": 7, "end_eid": 9, "ne_id": -1, "text": "금속의 내부 결함을", "start_eid_short": 8, "end_eid_short": 9, "text_short": "내부 결함을"}
        ]}, 
        {"id": 8, "type": "", "number": "singular", "gender": "", "person": "", "animacy": "thing", "mention": [
            {"id": 10, "sent_id": 1, "start_eid": 7, "end_eid": 7, "ne_id": -1, "text": "금속의", "start_eid_short": 7, "end_eid_short": 7, "text_short": "금속의"}
        ]}, 
        {"id": 9, "type": "", "number": "singular", "gender": "", "person": "", "animacy": "thing", "mention": [
            {"id": 11, "sent_id": 1, "start_eid": 8, "end_eid": 8, "ne_id": -1, "text": "내부", "start_eid_short": 8, "end_eid_short": 8, "text_short": "내부"}
        ]}, 
        {"id": 10, "type": "TMM_DISEASE", "number": "singular", "gender": "", "person": "", "animacy": "thing", "mention": [
            {"id": 12, "sent_id": 1, "start_eid": 11, "end_eid": 11, "ne_id": 0, "text": "암을", "start_eid_short": 11, "end_eid_short": 11, "text_short": "암을"}
        ]}, 
        {"id": 11, "type": "", "number": "singular", "gender": "", "person": "", "animacy": "thing", "mention": [
            {"id": 8, "sent_id": 1, "start_eid": 3, "end_eid": 3, "ne_id": -1, "text": "물질", "start_eid_short": 3, "end_eid_short": 3, "text_short": "물질"}
        ]}, 
        {"id": 12, "type": "QT_COUNT", "number": "singular", "gender": "", "person": "", "animacy": "thing", "mention": [
            {"id": 0, "sent_id": 0, "start_eid": 0, "end_eid": 5, "ne_id": 1, "text": "<물리> 방사성 물질에서 나오는 방사선의 하나.", "start_eid_short": 5, "end_eid_short": 5, "text_short": "하나."}
        ]}
    ]
}