{
    "doc_id": "E2016.887.16_Q_01.json", 
    "DCT": "", 
    "category": "", 
    "category_weight": 0, 
    "title": {
        "text": "", 
        "NE": ""
    }, 
    "metaInfo": {}, 
    "sentence": [
        {
            "id": 0, 
            "reserve_str": "", 
            "text": "이것은 1917년 영국의 외상이 팔레스타인 지역에 유대인 국가 건설을 약속하며 발표한 선언이다.", 
            "morp": [
                {"id": 0, "lemma": "이것", "type": "NP", "position": 0, "weight": 0.0733657}, 
                {"id": 1, "lemma": "은", "type": "JX", "position": 6, "weight": 0.191811}, 
                {"id": 2, "lemma": "1917", "type": "SN", "position": 10, "weight": 1}, 
                {"id": 3, "lemma": "년", "type": "NNB", "position": 14, "weight": 0.414343}, 
                {"id": 4, "lemma": "영국", "type": "NNP", "position": 18, "weight": 0.9}, 
                {"id": 5, "lemma": "의", "type": "JKG", "position": 24, "weight": 0.0987295}, 
                {"id": 6, "lemma": "외상", "type": "NNG", "position": 28, "weight": 0.9}, 
                {"id": 7, "lemma": "이", "type": "JKS", "position": 34, "weight": 0.0360723}, 
                {"id": 8, "lemma": "팔레스타인", "type": "NNP", "position": 38, "weight": 0.9}, 
                {"id": 9, "lemma": "지역", "type": "NNG", "position": 54, "weight": 0.9}, 
                {"id": 10, "lemma": "에", "type": "JKB", "position": 60, "weight": 0.153364}, 
                {"id": 11, "lemma": "유대", "type": "NNG", "position": 64, "weight": 0.175555}, 
                {"id": 12, "lemma": "인", "type": "XSN", "position": 70, "weight": 0.0198339}, 
                {"id": 13, "lemma": "국가", "type": "NNG", "position": 74, "weight": 0.13126}, 
                {"id": 14, "lemma": "건설", "type": "NNG", "position": 81, "weight": 0.9}, 
                {"id": 15, "lemma": "을", "type": "JKO", "position": 87, "weight": 0.129611}, 
                {"id": 16, "lemma": "약속", "type": "NNG", "position": 91, "weight": 0.9}, 
                {"id": 17, "lemma": "하", "type": "XSV", "position": 97, "weight": 0.0001}, 
                {"id": 18, "lemma": "며", "type": "EC", "position": 100, "weight": 0.371165}, 
                {"id": 19, "lemma": "발표", "type": "NNG", "position": 104, "weight": 0.9}, 
                {"id": 20, "lemma": "하", "type": "XSV", "position": 110, "weight": 0.0001}, 
                {"id": 21, "lemma": "ㄴ", "type": "ETM", "position": 110, "weight": 0.392321}, 
                {"id": 22, "lemma": "선언", "type": "NNG", "position": 114, "weight": 0.658173}, 
                {"id": 23, "lemma": "이", "type": "VCP", "position": 120, "weight": 0.0177525}, 
                {"id": 24, "lemma": "다", "type": "EF", "position": 123, "weight": 0.353579}, 
                {"id": 25, "lemma": ".", "type": "SF", "position": 126, "weight": 1}
            ], 
            "morp_eval": [], 
            "WSD": [
                {"id": 0, "text": "이것", "type": "NP", "scode": "000001", "weight": 0.25, "position": 0, "begin": 0, "end": 0}, 
                {"id": 1, "text": "은", "type": "JX", "scode": "000000", "weight": 1, "position": 6, "begin": 1, "end": 1}, 
                {"id": 2, "text": "1917", "type": "SN", "scode": "000000", "weight": 1, "position": 10, "begin": 2, "end": 2}, 
                {"id": 3, "text": "년", "type": "NNB", "scode": "020000", "weight": 0.166667, "position": 14, "begin": 3, "end": 3}, 
                {"id": 4, "text": "영국", "type": "NNP", "scode": "010000", "weight": 0.5, "position": 18, "begin": 4, "end": 4}, 
                {"id": 5, "text": "의", "type": "JKG", "scode": "000000", "weight": 1, "position": 24, "begin": 5, "end": 5}, 
                {"id": 6, "text": "외상", "type": "NNG", "scode": "030001", "weight": 0.125, "position": 28, "begin": 6, "end": 6}, 
                {"id": 7, "text": "이", "type": "JKS", "scode": "000000", "weight": 1, "position": 34, "begin": 7, "end": 7}, 
                {"id": 8, "text": "팔레스타인", "type": "NNP", "scode": "000000", "weight": 1, "position": 38, "begin": 8, "end": 8}, 
                {"id": 9, "text": "지역", "type": "NNG", "scode": "030001", "weight": 0.2, "position": 54, "begin": 9, "end": 9}, 
                {"id": 10, "text": "에", "type": "JKB", "scode": "000000", "weight": 1, "position": 60, "begin": 10, "end": 10}, 
                {"id": 11, "text": "유대인", "type": "NNG", "scode": "000000", "weight": 1, "position": 64, "begin": 11, "end": 12}, 
                {"id": 12, "text": "국가", "type": "NNG", "scode": "010000", "weight": 0.5, "position": 74, "begin": 13, "end": 13}, 
                {"id": 13, "text": "건설", "type": "NNG", "scode": "000002", "weight": 0.5, "position": 81, "begin": 14, "end": 14}, 
                {"id": 14, "text": "을", "type": "JKO", "scode": "000000", "weight": 1, "position": 87, "begin": 15, "end": 15}, 
                {"id": 15, "text": "약속하", "type": "VV", "scode": "000000", "weight": 1, "position": 91, "begin": 16, "end": 17}, 
                {"id": 16, "text": "며", "type": "EC", "scode": "000000", "weight": 1, "position": 100, "begin": 18, "end": 18}, 
                {"id": 17, "text": "발표하", "type": "VV", "scode": "000000", "weight": 1, "position": 104, "begin": 19, "end": 20}, 
                {"id": 18, "text": "ㄴ", "type": "ETM", "scode": "000000", "weight": 1, "position": 110, "begin": 21, "end": 21}, 
                {"id": 19, "text": "선언", "type": "NNG", "scode": "010002", "weight": 0.2, "position": 114, "begin": 22, "end": 22}, 
                {"id": 20, "text": "이", "type": "VCP", "scode": "030000", "weight": 0.0172414, "position": 120, "begin": 23, "end": 23}, 
                {"id": 21, "text": "다", "type": "EF", "scode": "000000", "weight": 1, "position": 123, "begin": 24, "end": 24}, 
                {"id": 22, "text": ".", "type": "SF", "scode": "000000", "weight": 1, "position": 126, "begin": 25, "end": 25}
            ], 
            "word": [
                {"id": 0, "text": "이것은", "type": "", "begin": 0, "end": 1}, 
                {"id": 1, "text": "1917년", "type": "", "begin": 2, "end": 3}, 
                {"id": 2, "text": "영국의", "type": "", "begin": 4, "end": 5}, 
                {"id": 3, "text": "외상이", "type": "", "begin": 6, "end": 7}, 
                {"id": 4, "text": "팔레스타인", "type": "", "begin": 8, "end": 8}, 
                {"id": 5, "text": "지역에", "type": "", "begin": 9, "end": 10}, 
                {"id": 6, "text": "유대인", "type": "", "begin": 11, "end": 12}, 
                {"id": 7, "text": "국가", "type": "", "begin": 13, "end": 13}, 
                {"id": 8, "text": "건설을", "type": "", "begin": 14, "end": 15}, 
                {"id": 9, "text": "약속하며", "type": "", "begin": 16, "end": 18}, 
                {"id": 10, "text": "발표한", "type": "", "begin": 19, "end": 21}, 
                {"id": 11, "text": "선언이다.", "type": "", "begin": 22, "end": 25}
            ], 
            "NE": [
                {"id": 0, "text": "1917년", "type": "DT_YEAR", "begin": 2, "end": 3, "weight": 0.872375, "common_noun": 0}, 
                {"id": 1, "text": "영국", "type": "LCP_COUNTRY", "begin": 4, "end": 4, "weight": 0.624939, "common_noun": 0}, 
                {"id": 2, "text": "외상", "type": "CV_POSITION", "begin": 6, "end": 6, "weight": 0.445802, "common_noun": 0}, 
                {"id": 3, "text": "팔레스타인", "type": "LCP_COUNTRY", "begin": 8, "end": 8, "weight": 0.65422, "common_noun": 0}, 
                {"id": 4, "text": "유대인", "type": "CV_TRIBE", "begin": 11, "end": 12, "weight": 0.399348, "common_noun": 0}
            ], 
            "chunk": [], 
            "dependency": [
                {"id": 0, "text": "이것은", "head": 11, "label": "NP_SBJ", "mod": [], "weight": 0.0371102}, 
                {"id": 1, "text": "1917년", "head": 9, "label": "NP_AJT", "mod": [], "weight": 0.508515}, 
                {"id": 2, "text": "영국의", "head": 3, "label": "NP_MOD", "mod": [], "weight": 0.738575}, 
                {"id": 3, "text": "외상이", "head": 9, "label": "NP_SBJ", "mod": [2], "weight": 0.854953}, 
                {"id": 4, "text": "팔레스타인", "head": 5, "label": "NP", "mod": [], "weight": 0.805514}, 
                {"id": 5, "text": "지역에", "head": 9, "label": "NP_AJT", "mod": [4], "weight": 0.799987}, 
                {"id": 6, "text": "유대인", "head": 7, "label": "NP", "mod": [], "weight": 0.0738341}, 
                {"id": 7, "text": "국가", "head": 8, "label": "NP", "mod": [6], "weight": 0.625815}, 
                {"id": 8, "text": "건설을", "head": 9, "label": "NP_OBJ", "mod": [7], "weight": 0.793071}, 
                {"id": 9, "text": "약속하며", "head": 10, "label": "VP", "mod": [1, 3, 5, 8], "weight": 0.621736}, 
                {"id": 10, "text": "발표한", "head": 11, "label": "VP_MOD", "mod": [9], "weight": 0.743811}, 
                {"id": 11, "text": "선언이다.", "head": -1, "label": "VNP", "mod": [10, 0], "weight": 0.000104085}
            ], 
            "SRL": [
                {"verb": "약속", "sense": 1, "word_id": 9, "weight": 0.193461, "argument": [
                    {"type": "ARG0", "word_id": 3, "text": "외상이", "weight": 0.161801}, 
                    {"type": "ARG2", "word_id": 5, "text": "지역에", "weight": 0.114536}, 
                    {"type": "ARG1", "word_id": 8, "text": "건설을", "weight": 0.304046}, 
                    {"type": "ARGM-TMP", "word_id": 1, "text": "1917년", "weight": 1}
                ]}, 
                {"verb": "발표", "sense": 1, "word_id": 10, "weight": 0.230237, "argument": [
                    {"type": "ARG0", "word_id": 3, "text": "외상이", "weight": 0.207135}, 
                    {"type": "ARG1", "word_id": 11, "text": "선언이다.", "weight": 1}
                ]}
            ], 
            "relation": [], 
            "SA": [], 
            "ZA": []
        }, 
        {
            "id": 1, 
            "reserve_str": "", 
            "text": "이 선언은 무엇일까?", 
            "morp": [
                {"id": 0, "lemma": "이", "type": "MM", "position": 127, "weight": 0.0020222}, 
                {"id": 1, "lemma": "선언", "type": "NNG", "position": 131, "weight": 0.736705}, 
                {"id": 2, "lemma": "은", "type": "JX", "position": 137, "weight": 0.0449928}, 
                {"id": 3, "lemma": "무엇", "type": "NP", "position": 141, "weight": 0.9}, 
                {"id": 4, "lemma": "이", "type": "VCP", "position": 147, "weight": 0.0175768}, 
                {"id": 5, "lemma": "ㄹ까", "type": "EF", "position": 147, "weight": 0.258243}, 
                {"id": 6, "lemma": "?", "type": "SF", "position": 153, "weight": 1}
            ], 
            "morp_eval": [], 
            "WSD": [
                {"id": 0, "text": "이", "type": "MM", "scode": "050101", "weight": 0.0172414, "position": 127, "begin": 0, "end": 0}, 
                {"id": 1, "text": "선언", "type": "NNG", "scode": "010002", "weight": 0.2, "position": 131, "begin": 1, "end": 1}, 
                {"id": 2, "text": "은", "type": "JX", "scode": "000000", "weight": 1, "position": 137, "begin": 2, "end": 2}, 
                {"id": 3, "text": "무엇", "type": "NP", "scode": "000001", "weight": 0.5, "position": 141, "begin": 3, "end": 3}, 
                {"id": 4, "text": "이", "type": "VCP", "scode": "030000", "weight": 0.0172414, "position": 147, "begin": 4, "end": 4}, 
                {"id": 5, "text": "ㄹ까", "type": "EF", "scode": "000000", "weight": 1, "position": 147, "begin": 5, "end": 5}, 
                {"id": 6, "text": "?", "type": "SF", "scode": "000000", "weight": 1, "position": 153, "begin": 6, "end": 6}
            ], 
            "word": [
                {"id": 0, "text": "이", "type": "", "begin": 0, "end": 0}, 
                {"id": 1, "text": "선언은", "type": "", "begin": 1, "end": 2}, 
                {"id": 2, "text": "무엇일까?", "type": "", "begin": 3, "end": 6}
            ], 
            "NE": [], 
            "chunk": [], 
            "dependency": [
                {"id": 0, "text": "이", "head": 1, "label": "DP", "mod": [], "weight": 0.698403}, 
                {"id": 1, "text": "선언은", "head": 2, "label": "NP_SBJ", "mod": [0], "weight": 0.86727}, 
                {"id": 2, "text": "무엇일까?", "head": -1, "label": "VNP", "mod": [1], "weight": 0.534106}
            ], 
            "SRL": [], 
            "relation": [], 
            "SA": [], 
            "ZA": []
        }
    ], 
    "entity": [
        {"id": 0, "type": "", "number": "singular", "gender": "", "person": "", "animacy": "thing", "mention": [
            {"id": 0, "sent_id": 0, "start_eid": 0, "end_eid": 0, "ne_id": -1, "text": "이것은", "start_eid_short": 0, "end_eid_short": 0, "text_short": "이것은"}, 
            {"id": 1, "sent_id": 0, "start_eid": 1, "end_eid": 11, "ne_id": -1, "text": "1917년 영국의 외상이 팔레스타인 지역에 유대인 국가 건설을 약속하며 발표한 선언이다.", "start_eid_short": 11, "end_eid_short": 11, "text_short": "선언이다."}, 
            {"id": 10, "sent_id": 1, "start_eid": 0, "end_eid": 1, "ne_id": -1, "text": "이 선언은", "start_eid_short": 0, "end_eid_short": 1, "text_short": "이 선언은"}, 
            {"id": 11, "sent_id": 1, "start_eid": 2, "end_eid": 2, "ne_id": -1, "text": "무엇일까?", "start_eid_short": 2, "end_eid_short": 2, "text_short": "무엇일까?"}
        ]}, 
        {"id": 1, "type": "DT_YEAR", "number": "singular", "gender": "", "person": "", "animacy": "time", "mention": [
            {"id": 2, "sent_id": 0, "start_eid": 1, "end_eid": 1, "ne_id": 0, "text": "1917년", "start_eid_short": 1, "end_eid_short": 1, "text_short": "1917년"}
        ]}, 
        {"id": 2, "type": "", "number": "singular", "gender": "", "person": "", "animacy": "thing", "mention": [
            {"id": 3, "sent_id": 0, "start_eid": 2, "end_eid": 3, "ne_id": -1, "text": "영국의 외상이", "start_eid_short": 3, "end_eid_short": 3, "text_short": "외상이"}
        ]}, 
        {"id": 3, "type": "LCP_COUNTRY", "number": "singular", "gender": "", "person": "", "animacy": "place", "mention": [
            {"id": 4, "sent_id": 0, "start_eid": 2, "end_eid": 2, "ne_id": 1, "text": "영국의", "start_eid_short": 2, "end_eid_short": 2, "text_short": "영국의"}
        ]}, 
        {"id": 4, "type": "", "number": "singular", "gender": "", "person": "", "animacy": "thing", "mention": [
            {"id": 5, "sent_id": 0, "start_eid": 4, "end_eid": 5, "ne_id": -1, "text": "팔레스타인 지역에", "start_eid_short": 4, "end_eid_short": 5, "text_short": "팔레스타인 지역에"}
        ]}, 
        {"id": 5, "type": "LCP_COUNTRY", "number": "singular", "gender": "", "person": "", "animacy": "place", "mention": [
            {"id": 6, "sent_id": 0, "start_eid": 4, "end_eid": 4, "ne_id": 2, "text": "팔레스타인", "start_eid_short": 4, "end_eid_short": 4, "text_short": "팔레스타인"}
        ]}, 
        {"id": 6, "type": "", "number": "singular", "gender": "", "person": "", "animacy": "thing", "mention": [
            {"id": 7, "sent_id": 0, "start_eid": 6, "end_eid": 7, "ne_id": -1, "text": "유대인 국가", "start_eid_short": 6, "end_eid_short": 7, "text_short": "유대인 국가"}
        ]}, 
        {"id": 7, "type": "CV_TRIBE", "number": "singular", "gender": "", "person": "", "animacy": "thing", "mention": [
            {"id": 8, "sent_id": 0, "start_eid": 6, "end_eid": 6, "ne_id": 3, "text": "유대인", "start_eid_short": 6, "end_eid_short": 6, "text_short": "유대인"}
        ]}, 
        {"id": 8, "type": "", "number": "singular", "gender": "", "person": "", "animacy": "thing", "mention": [
            {"id": 9, "sent_id": 0, "start_eid": 7, "end_eid": 8, "ne_id": -1, "text": "국가 건설을", "start_eid_short": 7, "end_eid_short": 8, "text_short": "국가 건설을"}
        ]}
    ]
}