{
    "doc_id": "E2016.790.09_A_02.json", 
    "DCT": "", 
    "category": "", 
    "category_weight": 0, 
    "title": {
        "text": "세한삼우", 
        "NE": ""
    }, 
    "metaInfo": {}, 
    "sentence": [
        {
            "id": 0, 
            "reserve_str": "", 
            "text": "추위에 강한 소나무, 대나무, 매화나무를 가리킴.", 
            "morp": [
                {"id": 0, "lemma": "추위", "type": "NNG", "position": 0, "weight": 0.9}, 
                {"id": 1, "lemma": "에", "type": "JKB", "position": 6, "weight": 0.153364}, 
                {"id": 2, "lemma": "강하", "type": "VA", "position": 10, "weight": 0.176088}, 
                {"id": 3, "lemma": "ㄴ", "type": "ETM", "position": 13, "weight": 0.488779}, 
                {"id": 4, "lemma": "소나무", "type": "NNG", "position": 17, "weight": 0.27568}, 
                {"id": 5, "lemma": ",", "type": "SP", "position": 26, "weight": 1}, 
                {"id": 6, "lemma": "대나무", "type": "NNG", "position": 28, "weight": 0.0799447}, 
                {"id": 7, "lemma": ",", "type": "SP", "position": 37, "weight": 1}, 
                {"id": 8, "lemma": "매화", "type": "NNG", "position": 39, "weight": 0.9}, 
                {"id": 9, "lemma": "나무", "type": "NNG", "position": 45, "weight": 0.184816}, 
                {"id": 10, "lemma": "를", "type": "JKO", "position": 51, "weight": 0.137686}, 
                {"id": 11, "lemma": "가리키", "type": "VV", "position": 55, "weight": 0.9}, 
                {"id": 12, "lemma": "ㅁ", "type": "ETN", "position": 61, "weight": 0.0393459}, 
                {"id": 13, "lemma": ".", "type": "SF", "position": 64, "weight": 1}
            ], 
            "morp_eval": [], 
            "WSD": [
                {"id": 0, "text": "추위", "type": "NNG", "scode": "010000", "weight": 0.333333, "position": 0, "begin": 0, "end": 0}, 
                {"id": 1, "text": "에", "type": "JKB", "scode": "000000", "weight": 1, "position": 6, "begin": 1, "end": 1}, 
                {"id": 2, "text": "강하", "type": "VA", "scode": "020200", "weight": 0.125, "position": 10, "begin": 2, "end": 2}, 
                {"id": 3, "text": "ㄴ", "type": "ETM", "scode": "000000", "weight": 1, "position": 13, "begin": 3, "end": 3}, 
                {"id": 4, "text": "소나무", "type": "NNG", "scode": "000002", "weight": 0.5, "position": 17, "begin": 4, "end": 4}, 
                {"id": 5, "text": ",", "type": "SP", "scode": "000000", "weight": 1, "position": 26, "begin": 5, "end": 5}, 
                {"id": 6, "text": "대나무", "type": "NNG", "scode": "000000", "weight": 1, "position": 28, "begin": 6, "end": 6}, 
                {"id": 7, "text": ",", "type": "SP", "scode": "000000", "weight": 1, "position": 37, "begin": 7, "end": 7}, 
                {"id": 8, "text": "매화나무", "type": "NNG", "scode": "000000", "weight": 1, "position": 39, "begin": 8, "end": 9}, 
                {"id": 9, "text": "를", "type": "JKO", "scode": "000000", "weight": 1, "position": 51, "begin": 10, "end": 10}, 
                {"id": 10, "text": "가리키", "type": "VV", "scode": "010002", "weight": 0.333333, "position": 55, "begin": 11, "end": 11}, 
                {"id": 11, "text": "ㅁ", "type": "ETN", "scode": "000000", "weight": 1, "position": 61, "begin": 12, "end": 12}, 
                {"id": 12, "text": ".", "type": "SF", "scode": "000000", "weight": 1, "position": 64, "begin": 13, "end": 13}
            ], 
            "word": [
                {"id": 0, "text": "추위에", "type": "", "begin": 0, "end": 1}, 
                {"id": 1, "text": "강한", "type": "", "begin": 2, "end": 3}, 
                {"id": 2, "text": "소나무,", "type": "", "begin": 4, "end": 5}, 
                {"id": 3, "text": "대나무,", "type": "", "begin": 6, "end": 7}, 
                {"id": 4, "text": "매화나무를", "type": "", "begin": 8, "end": 10}, 
                {"id": 5, "text": "가리킴.", "type": "", "begin": 11, "end": 13}
            ], 
            "NE": [
                {"id": 0, "text": "소나무", "type": "PT_TREE", "begin": 4, "end": 4, "weight": 0.310739, "common_noun": 0}, 
                {"id": 1, "text": "대나무", "type": "PT_TREE", "begin": 6, "end": 6, "weight": 0.538848, "common_noun": 0}, 
                {"id": 2, "text": "매화나무", "type": "PT_TREE", "begin": 8, "end": 9, "weight": 0.534598, "common_noun": 0}
            ], 
            "chunk": [], 
            "dependency": [
                {"id": 0, "text": "추위에", "head": 1, "label": "NP_AJT", "mod": [], "weight": 0.0732471}, 
                {"id": 1, "text": "강한", "head": 4, "label": "VP_MOD", "mod": [0], "weight": 0.792154}, 
                {"id": 2, "text": "소나무,", "head": 4, "label": "NP_CNJ", "mod": [], "weight": 0.584713}, 
                {"id": 3, "text": "대나무,", "head": 4, "label": "NP_CNJ", "mod": [], "weight": 0.573756}, 
                {"id": 4, "text": "매화나무를", "head": 5, "label": "NP_OBJ", "mod": [1, 2, 3], "weight": 0.70951}, 
                {"id": 5, "text": "가리킴.", "head": -1, "label": "VP", "mod": [4], "weight": 0.0109974}
            ], 
            "SRL": [
                {"verb": "강하", "sense": 1, "word_id": 1, "weight": 0.0793002, "argument": [
                    {"type": "ARGM-CND", "word_id": 0, "text": "추위에", "weight": 1}, 
                    {"type": "ARG1", "word_id": 4, "text": "매화나무를", "weight": 1}
                ]}, 
                {"verb": "가리키", "sense": 1, "word_id": 5, "weight": 0.206804, "argument": [
                    {"type": "ARG1", "word_id": 4, "text": "매화나무를", "weight": 0.206804}
                ]}
            ], 
            "relation": [], 
            "SA": [], 
            "ZA": []
        }
    ], 
    "entity": [
        {"id": 0, "type": "PT_TREE", "number": "singular", "gender": "", "person": "", "animacy": "plant", "mention": [
            {"id": 0, "sent_id": 0, "start_eid": 0, "end_eid": 4, "ne_id": 2, "text": "추위에 강한 소나무, 대나무, 매화나무를", "start_eid_short": 4, "end_eid_short": 4, "text_short": "매화나무를"}
        ]}, 
        {"id": 1, "type": "", "number": "singular", "gender": "", "person": "", "animacy": "thing", "mention": [
            {"id": 1, "sent_id": 0, "start_eid": 0, "end_eid": 0, "ne_id": -1, "text": "추위에", "start_eid_short": 0, "end_eid_short": 0, "text_short": "추위에"}
        ]}, 
        {"id": 2, "type": "PT_TREE", "number": "singular", "gender": "", "person": "", "animacy": "plant", "mention": [
            {"id": 2, "sent_id": 0, "start_eid": 2, "end_eid": 2, "ne_id": 0, "text": "소나무,", "start_eid_short": 2, "end_eid_short": 2, "text_short": "소나무,"}
        ]}, 
        {"id": 3, "type": "PT_TREE", "number": "singular", "gender": "", "person": "", "animacy": "plant", "mention": [
            {"id": 3, "sent_id": 0, "start_eid": 3, "end_eid": 3, "ne_id": 1, "text": "대나무,", "start_eid_short": 3, "end_eid_short": 3, "text_short": "대나무,"}
        ]}, 
        {"id": 4, "type": "PT_TREE", "number": "singular", "gender": "", "person": "", "animacy": "plant", "mention": [
            {"id": 4, "sent_id": 0, "start_eid": 4, "end_eid": 4, "ne_id": 2, "text": "매화나무를", "start_eid_short": 4, "end_eid_short": 4, "text_short": "매화나무를"}
        ]}
    ]
}