{
    "doc_id": "E2016.790.25_A_01.json", 
    "DCT": "", 
    "category": "", 
    "category_weight": 0, 
    "title": {
        "text": "자기장", 
        "NE": ""
    }, 
    "metaInfo": {}, 
    "sentence": [
        {
            "id": 0, 
            "reserve_str": "", 
            "text": "<물리> 자석의 주위, 전류의 주위, 지구의 표면 따위와 같이 자기의 작용이 미치는 공간.", 
            "morp": [
                {"id": 0, "lemma": "<", "type": "SS", "position": 0, "weight": 1}, 
                {"id": 1, "lemma": "물리", "type": "NNG", "position": 1, "weight": 0.0570303}, 
                {"id": 2, "lemma": ">", "type": "SS", "position": 7, "weight": 1}, 
                {"id": 3, "lemma": "자석", "type": "NNG", "position": 9, "weight": 0.9}, 
                {"id": 4, "lemma": "의", "type": "JKG", "position": 15, "weight": 0.0694213}, 
                {"id": 5, "lemma": "주위", "type": "NNG", "position": 19, "weight": 0.9}, 
                {"id": 6, "lemma": ",", "type": "SP", "position": 25, "weight": 1}, 
                {"id": 7, "lemma": "전류", "type": "NNG", "position": 27, "weight": 0.9}, 
                {"id": 8, "lemma": "의", "type": "JKG", "position": 33, "weight": 0.0694213}, 
                {"id": 9, "lemma": "주위", "type": "NNG", "position": 37, "weight": 0.9}, 
                {"id": 10, "lemma": ",", "type": "SP", "position": 43, "weight": 1}, 
                {"id": 11, "lemma": "지구", "type": "NNG", "position": 45, "weight": 0.9}, 
                {"id": 12, "lemma": "의", "type": "JKG", "position": 51, "weight": 0.0694213}, 
                {"id": 13, "lemma": "표면", "type": "NNG", "position": 55, "weight": 0.9}, 
                {"id": 14, "lemma": "따위", "type": "NNB", "position": 62, "weight": 0.9}, 
                {"id": 15, "lemma": "와", "type": "JKB", "position": 68, "weight": 0.0501937}, 
                {"id": 16, "lemma": "같이", "type": "MAG", "position": 72, "weight": 0.0382452}, 
                {"id": 17, "lemma": "자기", "type": "NNG", "position": 79, "weight": 0.0916114}, 
                {"id": 18, "lemma": "의", "type": "JKG", "position": 85, "weight": 0.0694213}, 
                {"id": 19, "lemma": "작용", "type": "NNG", "position": 89, "weight": 0.9}, 
                {"id": 20, "lemma": "이", "type": "JKS", "position": 95, "weight": 0.0360723}, 
                {"id": 21, "lemma": "미치", "type": "VV", "position": 99, "weight": 0.314416}, 
                {"id": 22, "lemma": "는", "type": "ETM", "position": 105, "weight": 0.184941}, 
                {"id": 23, "lemma": "공간", "type": "NNG", "position": 109, "weight": 0.65865}, 
                {"id": 24, "lemma": ".", "type": "SF", "position": 115, "weight": 1}
            ], 
            "morp_eval": [], 
            "WSD": [
                {"id": 0, "text": "<", "type": "SS", "scode": "000000", "weight": 1, "position": 0, "begin": 0, "end": 0}, 
                {"id": 1, "text": "물리", "type": "NNG", "scode": "020003", "weight": 0.25, "position": 1, "begin": 1, "end": 1}, 
                {"id": 2, "text": ">", "type": "SS", "scode": "000000", "weight": 1, "position": 7, "begin": 2, "end": 2}, 
                {"id": 3, "text": "자석", "type": "NNG", "scode": "040002", "weight": 0.1, "position": 9, "begin": 3, "end": 3}, 
                {"id": 4, "text": "의", "type": "JKG", "scode": "000000", "weight": 1, "position": 15, "begin": 4, "end": 4}, 
                {"id": 5, "text": "주위", "type": "NNG", "scode": "020002", "weight": 0.166667, "position": 19, "begin": 5, "end": 5}, 
                {"id": 6, "text": ",", "type": "SP", "scode": "000000", "weight": 1, "position": 25, "begin": 6, "end": 6}, 
                {"id": 7, "text": "전류", "type": "NNG", "scode": "020000", "weight": 0.333333, "position": 27, "begin": 7, "end": 7}, 
                {"id": 8, "text": "의", "type": "JKG", "scode": "000000", "weight": 1, "position": 33, "begin": 8, "end": 8}, 
                {"id": 9, "text": "주위", "type": "NNG", "scode": "020002", "weight": 0.166667, "position": 37, "begin": 9, "end": 9}, 
                {"id": 10, "text": ",", "type": "SP", "scode": "000000", "weight": 1, "position": 43, "begin": 10, "end": 10}, 
                {"id": 11, "text": "지구", "type": "NNG", "scode": "040000", "weight": 0.0769231, "position": 45, "begin": 11, "end": 11}, 
                {"id": 12, "text": "의", "type": "JKG", "scode": "000000", "weight": 1, "position": 51, "begin": 12, "end": 12}, 
                {"id": 13, "text": "표면", "type": "NNG", "scode": "000001", "weight": 0.5, "position": 55, "begin": 13, "end": 13}, 
                {"id": 14, "text": "따위", "type": "NNB", "scode": "000001", "weight": 0.5, "position": 62, "begin": 14, "end": 14}, 
                {"id": 15, "text": "와", "type": "JKB", "scode": "000000", "weight": 1, "position": 68, "begin": 15, "end": 15}, 
                {"id": 16, "text": "같이", "type": "MAG", "scode": "000002", "weight": 0.25, "position": 72, "begin": 16, "end": 16}, 
                {"id": 17, "text": "자기", "type": "NNG", "scode": "120000", "weight": 0.0526316, "position": 79, "begin": 17, "end": 17}, 
                {"id": 18, "text": "의", "type": "JKG", "scode": "000000", "weight": 1, "position": 85, "begin": 18, "end": 18}, 
                {"id": 19, "text": "작용", "type": "NNG", "scode": "010002", "weight": 0.25, "position": 89, "begin": 19, "end": 19}, 
                {"id": 20, "text": "이", "type": "JKS", "scode": "000000", "weight": 1, "position": 95, "begin": 20, "end": 20}, 
                {"id": 21, "text": "미치", "type": "VV", "scode": "020200", "weight": 0.166667, "position": 99, "begin": 21, "end": 21}, 
                {"id": 22, "text": "는", "type": "ETM", "scode": "000000", "weight": 1, "position": 105, "begin": 22, "end": 22}, 
                {"id": 23, "text": "공간", "type": "NNG", "scode": "050004", "weight": 0.0769231, "position": 109, "begin": 23, "end": 23}, 
                {"id": 24, "text": ".", "type": "SF", "scode": "000000", "weight": 1, "position": 115, "begin": 24, "end": 24}
            ], 
            "word": [
                {"id": 0, "text": "<물리>", "type": "", "begin": 0, "end": 2}, 
                {"id": 1, "text": "자석의", "type": "", "begin": 3, "end": 4}, 
                {"id": 2, "text": "주위,", "type": "", "begin": 5, "end": 6}, 
                {"id": 3, "text": "전류의", "type": "", "begin": 7, "end": 8}, 
                {"id": 4, "text": "주위,", "type": "", "begin": 9, "end": 10}, 
                {"id": 5, "text": "지구의", "type": "", "begin": 11, "end": 12}, 
                {"id": 6, "text": "표면", "type": "", "begin": 13, "end": 13}, 
                {"id": 7, "text": "따위와", "type": "", "begin": 14, "end": 15}, 
                {"id": 8, "text": "같이", "type": "", "begin": 16, "end": 16}, 
                {"id": 9, "text": "자기의", "type": "", "begin": 17, "end": 18}, 
                {"id": 10, "text": "작용이", "type": "", "begin": 19, "end": 20}, 
                {"id": 11, "text": "미치는", "type": "", "begin": 21, "end": 22}, 
                {"id": 12, "text": "공간.", "type": "", "begin": 23, "end": 24}
            ], 
            "NE": [
                {"id": 0, "text": "물리", "type": "FD_SCIENCE", "begin": 1, "end": 1, "weight": 0.396364, "common_noun": 0}, 
                {"id": 1, "text": "지구", "type": "LC_SPACE", "begin": 11, "end": 11, "weight": 0.401581, "common_noun": 0}
            ], 
            "chunk": [], 
            "dependency": [
                {"id": 0, "text": "<물리>", "head": 12, "label": "NP", "mod": [], "weight": 0.880189}, 
                {"id": 1, "text": "자석의", "head": 2, "label": "NP_MOD", "mod": [], "weight": 0.705086}, 
                {"id": 2, "text": "주위,", "head": 6, "label": "NP_CNJ", "mod": [1], "weight": 0.633284}, 
                {"id": 3, "text": "전류의", "head": 4, "label": "NP_MOD", "mod": [], "weight": 0.771397}, 
                {"id": 4, "text": "주위,", "head": 6, "label": "NP_CNJ", "mod": [3], "weight": 0.480638}, 
                {"id": 5, "text": "지구의", "head": 6, "label": "NP_MOD", "mod": [], "weight": 0.756869}, 
                {"id": 6, "text": "표면", "head": 7, "label": "NP", "mod": [2, 4, 5], "weight": 0.782275}, 
                {"id": 7, "text": "따위와", "head": 8, "label": "NP_AJT", "mod": [6], "weight": 0.793544}, 
                {"id": 8, "text": "같이", "head": 11, "label": "AP", "mod": [7], "weight": 0.461539}, 
                {"id": 9, "text": "자기의", "head": 10, "label": "NP_MOD", "mod": [], "weight": 0.682787}, 
                {"id": 10, "text": "작용이", "head": 11, "label": "NP_SBJ", "mod": [9], "weight": 0.824072}, 
                {"id": 11, "text": "미치는", "head": 12, "label": "VP_MOD", "mod": [8, 10], "weight": 0.852596}, 
                {"id": 12, "text": "공간.", "head": -1, "label": "NP", "mod": [0, 11], "weight": 0.0126254}
            ], 
            "SRL": [
                {"verb": "미치", "sense": 1, "word_id": 11, "weight": 0.19509, "argument": [
                    {"type": "ARG1", "word_id": 10, "text": "작용이", "weight": 0.19509}, 
                    {"type": "ARGM-ADV", "word_id": 8, "text": "같이", "weight": 1}
                ]}
            ], 
            "relation": [], 
            "SA": [], 
            "ZA": []
        }
    ], 
    "entity": [
        {"id": 0, "type": "FD_SCIENCE", "number": "singular", "gender": "", "person": "", "animacy": "thing", "mention": [
            {"id": 0, "sent_id": 0, "start_eid": 0, "end_eid": 0, "ne_id": 0, "text": "<물리>", "start_eid_short": 0, "end_eid_short": 0, "text_short": "<물리>"}
        ]}, 
        {"id": 1, "type": "", "number": "singular", "gender": "", "person": "", "animacy": "thing", "mention": [
            {"id": 4, "sent_id": 0, "start_eid": 1, "end_eid": 1, "ne_id": -1, "text": "자석의", "start_eid_short": 1, "end_eid_short": 1, "text_short": "자석의"}
        ]}, 
        {"id": 2, "type": "", "number": "singular", "gender": "", "person": "", "animacy": "thing", "mention": [
            {"id": 5, "sent_id": 0, "start_eid": 3, "end_eid": 4, "ne_id": -1, "text": "전류의 주위,", "start_eid_short": 4, "end_eid_short": 4, "text_short": "주위,"}
        ]}, 
        {"id": 3, "type": "", "number": "singular", "gender": "", "person": "", "animacy": "thing", "mention": [
            {"id": 6, "sent_id": 0, "start_eid": 3, "end_eid": 3, "ne_id": -1, "text": "전류의", "start_eid_short": 3, "end_eid_short": 3, "text_short": "전류의"}
        ]}, 
        {"id": 4, "type": "LC_SPACE", "number": "singular", "gender": "", "person": "", "animacy": "place", "mention": [
            {"id": 8, "sent_id": 0, "start_eid": 5, "end_eid": 5, "ne_id": 1, "text": "지구의", "start_eid_short": 5, "end_eid_short": 5, "text_short": "지구의"}
        ]}, 
        {"id": 5, "type": "", "number": "singular", "gender": "", "person": "", "animacy": "thing", "mention": [
            {"id": 2, "sent_id": 0, "start_eid": 1, "end_eid": 7, "ne_id": -1, "text": "자석의 주위, 전류의 주위, 지구의 표면 따위와", "start_eid_short": 6, "end_eid_short": 7, "text_short": "표면 따위와"}
        ]}, 
        {"id": 6, "type": "", "number": "singular", "gender": "", "person": "", "animacy": "thing", "mention": [
            {"id": 9, "sent_id": 0, "start_eid": 9, "end_eid": 10, "ne_id": -1, "text": "자기의 작용이", "start_eid_short": 10, "end_eid_short": 10, "text_short": "작용이"}
        ]}, 
        {"id": 7, "type": "", "number": "singular", "gender": "", "person": "", "animacy": "thing", "mention": [
            {"id": 10, "sent_id": 0, "start_eid": 9, "end_eid": 9, "ne_id": -1, "text": "자기의", "start_eid_short": 9, "end_eid_short": 9, "text_short": "자기의"}
        ]}, 
        {"id": 8, "type": "", "number": "singular", "gender": "", "person": "", "animacy": "thing", "mention": [
            {"id": 3, "sent_id": 0, "start_eid": 1, "end_eid": 2, "ne_id": -1, "text": "자석의 주위,", "start_eid_short": 2, "end_eid_short": 2, "text_short": "주위,"}
        ]}, 
        {"id": 9, "type": "", "number": "singular", "gender": "", "person": "", "animacy": "thing", "mention": [
            {"id": 7, "sent_id": 0, "start_eid": 5, "end_eid": 6, "ne_id": -1, "text": "지구의 표면", "start_eid_short": 6, "end_eid_short": 6, "text_short": "표면"}
        ]}, 
        {"id": 10, "type": "", "number": "singular", "gender": "", "person": "", "animacy": "thing", "mention": [
            {"id": 1, "sent_id": 0, "start_eid": 1, "end_eid": 12, "ne_id": -1, "text": "자석의 주위, 전류의 주위, 지구의 표면 따위와 같이 자기의 작용이 미치는 공간.", "start_eid_short": 12, "end_eid_short": 12, "text_short": "공간."}
        ]}
    ]
}