{
    "doc_id": "E2016.836.08_Q_01.json", 
    "DCT": "", 
    "category": "", 
    "category_weight": 0, 
    "title": {
        "text": "", 
        "NE": ""
    }, 
    "metaInfo": {}, 
    "sentence": [
        {
            "id": 0, 
            "reserve_str": "", 
            "text": "1997년 우리 경제가 외자 조달에 어려움을 겪으면서 정부의 외환보유고가 바닥을 드러내자 우리나라에 구제 금융을 제공해 준 국제기구는?", 
            "morp": [
                {"id": 0, "lemma": "1997", "type": "SN", "position": 0, "weight": 1}, 
                {"id": 1, "lemma": "년", "type": "NNB", "position": 4, "weight": 0.414343}, 
                {"id": 2, "lemma": "우리", "type": "NP", "position": 8, "weight": 0.00239264}, 
                {"id": 3, "lemma": "경제", "type": "NNG", "position": 15, "weight": 0.0705193}, 
                {"id": 4, "lemma": "가", "type": "JKS", "position": 21, "weight": 0.066324}, 
                {"id": 5, "lemma": "외자", "type": "NNG", "position": 25, "weight": 0.9}, 
                {"id": 6, "lemma": "조달", "type": "NNG", "position": 32, "weight": 0.9}, 
                {"id": 7, "lemma": "에", "type": "JKB", "position": 38, "weight": 0.153364}, 
                {"id": 8, "lemma": "어려움", "type": "NNG", "position": 42, "weight": 0.9}, 
                {"id": 9, "lemma": "을", "type": "JKO", "position": 51, "weight": 0.129611}, 
                {"id": 10, "lemma": "겪", "type": "VV", "position": 55, "weight": 0.9}, 
                {"id": 11, "lemma": "으면서", "type": "EC", "position": 58, "weight": 0.428734}, 
                {"id": 12, "lemma": "정부", "type": "NNG", "position": 68, "weight": 0.219393}, 
                {"id": 13, "lemma": "의", "type": "JKG", "position": 74, "weight": 0.0694213}, 
                {"id": 14, "lemma": "외환", "type": "NNG", "position": 78, "weight": 0.806232}, 
                {"id": 15, "lemma": "보유", "type": "NNG", "position": 84, "weight": 0.9}, 
                {"id": 16, "lemma": "고", "type": "XSN", "position": 90, "weight": 0.0001}, 
                {"id": 17, "lemma": "가", "type": "JKS", "position": 93, "weight": 0.134553}, 
                {"id": 18, "lemma": "바닥", "type": "NNG", "position": 97, "weight": 0.9}, 
                {"id": 19, "lemma": "을", "type": "JKO", "position": 103, "weight": 0.129611}, 
                {"id": 20, "lemma": "드러내", "type": "VV", "position": 107, "weight": 0.9}, 
                {"id": 21, "lemma": "자", "type": "EC", "position": 116, "weight": 0.187099}, 
                {"id": 22, "lemma": "우리", "type": "NNG", "position": 120, "weight": 0.0007654}, 
                {"id": 23, "lemma": "나라", "type": "NNG", "position": 126, "weight": 0.184431}, 
                {"id": 24, "lemma": "에", "type": "JKB", "position": 132, "weight": 0.153364}, 
                {"id": 25, "lemma": "구제", "type": "NNG", "position": 136, "weight": 0.9}, 
                {"id": 26, "lemma": "금융", "type": "NNG", "position": 143, "weight": 0.9}, 
                {"id": 27, "lemma": "을", "type": "JKO", "position": 149, "weight": 0.129611}, 
                {"id": 28, "lemma": "제공", "type": "NNG", "position": 153, "weight": 0.101045}, 
                {"id": 29, "lemma": "하", "type": "XSV", "position": 159, "weight": 0.0001}, 
                {"id": 30, "lemma": "아", "type": "EC", "position": 159, "weight": 0.361326}, 
                {"id": 31, "lemma": "주", "type": "VX", "position": 163, "weight": 0.161283}, 
                {"id": 32, "lemma": "ㄴ", "type": "ETM", "position": 163, "weight": 0.302612}, 
                {"id": 33, "lemma": "국제", "type": "NNG", "position": 167, "weight": 0.655952}, 
                {"id": 34, "lemma": "기구", "type": "NNG", "position": 173, "weight": 0.9}, 
                {"id": 35, "lemma": "는", "type": "JX", "position": 179, "weight": 0.0287565}, 
                {"id": 36, "lemma": "?", "type": "SF", "position": 182, "weight": 1}
            ], 
            "morp_eval": [], 
            "WSD": [
                {"id": 0, "text": "1997", "type": "SN", "scode": "000000", "weight": 1, "position": 0, "begin": 0, "end": 0}, 
                {"id": 1, "text": "년", "type": "NNB", "scode": "020000", "weight": 0.166667, "position": 4, "begin": 1, "end": 1}, 
                {"id": 2, "text": "우리", "type": "NP", "scode": "030001", "weight": 0.142857, "position": 8, "begin": 2, "end": 2}, 
                {"id": 3, "text": "경제", "type": "NNG", "scode": "040001", "weight": 0.111111, "position": 15, "begin": 3, "end": 3}, 
                {"id": 4, "text": "가", "type": "JKS", "scode": "000000", "weight": 1, "position": 21, "begin": 4, "end": 4}, 
                {"id": 5, "text": "외자", "type": "NNG", "scode": "070001", "weight": 0.0909091, "position": 25, "begin": 5, "end": 5}, 
                {"id": 6, "text": "조달", "type": "NNG", "scode": "030000", "weight": 0.166667, "position": 32, "begin": 6, "end": 6}, 
                {"id": 7, "text": "에", "type": "JKB", "scode": "000000", "weight": 1, "position": 38, "begin": 7, "end": 7}, 
                {"id": 8, "text": "어려움", "type": "NNG", "scode": "000000", "weight": 1, "position": 42, "begin": 8, "end": 8}, 
                {"id": 9, "text": "을", "type": "JKO", "scode": "000000", "weight": 1, "position": 51, "begin": 9, "end": 9}, 
                {"id": 10, "text": "겪", "type": "VV", "scode": "000001", "weight": 0.333333, "position": 55, "begin": 10, "end": 10}, 
                {"id": 11, "text": "으면서", "type": "EC", "scode": "000000", "weight": 1, "position": 58, "begin": 11, "end": 11}, 
                {"id": 12, "text": "정부", "type": "NNG", "scode": "080001", "weight": 0.0666667, "position": 68, "begin": 12, "end": 12}, 
                {"id": 13, "text": "의", "type": "JKG", "scode": "000000", "weight": 1, "position": 74, "begin": 13, "end": 13}, 
                {"id": 14, "text": "외환", "type": "NNG", "scode": "020000", "weight": 0.333333, "position": 78, "begin": 14, "end": 14}, 
                {"id": 15, "text": "보유고", "type": "NNG", "scode": "000000", "weight": 1, "position": 84, "begin": 15, "end": 16}, 
                {"id": 16, "text": "가", "type": "JKS", "scode": "000000", "weight": 1, "position": 93, "begin": 17, "end": 17}, 
                {"id": 17, "text": "바닥", "type": "NNG", "scode": "010003", "weight": 0.111111, "position": 97, "begin": 18, "end": 18}, 
                {"id": 18, "text": "을", "type": "JKO", "scode": "000000", "weight": 1, "position": 103, "begin": 19, "end": 19}, 
                {"id": 19, "text": "드러내", "type": "VV", "scode": "000101", "weight": 0.5, "position": 107, "begin": 20, "end": 20}, 
                {"id": 20, "text": "자", "type": "EC", "scode": "000000", "weight": 1, "position": 116, "begin": 21, "end": 21}, 
                {"id": 21, "text": "우리나라", "type": "NNG", "scode": "000000", "weight": 1, "position": 120, "begin": 22, "end": 23}, 
                {"id": 22, "text": "에", "type": "JKB", "scode": "000000", "weight": 1, "position": 132, "begin": 24, "end": 24}, 
                {"id": 23, "text": "구제", "type": "NNG", "scode": "010000", "weight": 0.166667, "position": 136, "begin": 25, "end": 25}, 
                {"id": 24, "text": "금융", "type": "NNG", "scode": "000000", "weight": 1, "position": 143, "begin": 26, "end": 26}, 
                {"id": 25, "text": "을", "type": "JKO", "scode": "000000", "weight": 1, "position": 149, "begin": 27, "end": 27}, 
                {"id": 26, "text": "제공하", "type": "VV", "scode": "020000", "weight": 0.5, "position": 153, "begin": 28, "end": 29}, 
                {"id": 27, "text": "아", "type": "EC", "scode": "000000", "weight": 1, "position": 159, "begin": 30, "end": 30}, 
                {"id": 28, "text": "주", "type": "VX", "scode": "010300", "weight": 0.0714286, "position": 163, "begin": 31, "end": 31}, 
                {"id": 29, "text": "ㄴ", "type": "ETM", "scode": "000000", "weight": 1, "position": 163, "begin": 32, "end": 32}, 
                {"id": 30, "text": "국제기구", "type": "NNG", "scode": "000000", "weight": 1, "position": 167, "begin": 33, "end": 34}, 
                {"id": 31, "text": "는", "type": "JX", "scode": "000000", "weight": 1, "position": 179, "begin": 35, "end": 35}, 
                {"id": 32, "text": "?", "type": "SF", "scode": "000000", "weight": 1, "position": 182, "begin": 36, "end": 36}
            ], 
            "word": [
                {"id": 0, "text": "1997년", "type": "", "begin": 0, "end": 1}, 
                {"id": 1, "text": "우리", "type": "", "begin": 2, "end": 2}, 
                {"id": 2, "text": "경제가", "type": "", "begin": 3, "end": 4}, 
                {"id": 3, "text": "외자", "type": "", "begin": 5, "end": 5}, 
                {"id": 4, "text": "조달에", "type": "", "begin": 6, "end": 7}, 
                {"id": 5, "text": "어려움을", "type": "", "begin": 8, "end": 9}, 
                {"id": 6, "text": "겪으면서", "type": "", "begin": 10, "end": 11}, 
                {"id": 7, "text": "정부의", "type": "", "begin": 12, "end": 13}, 
                {"id": 8, "text": "외환보유고가", "type": "", "begin": 14, "end": 17}, 
                {"id": 9, "text": "바닥을", "type": "", "begin": 18, "end": 19}, 
                {"id": 10, "text": "드러내자", "type": "", "begin": 20, "end": 21}, 
                {"id": 11, "text": "우리나라에", "type": "", "begin": 22, "end": 24}, 
                {"id": 12, "text": "구제", "type": "", "begin": 25, "end": 25}, 
                {"id": 13, "text": "금융을", "type": "", "begin": 26, "end": 27}, 
                {"id": 14, "text": "제공해", "type": "", "begin": 28, "end": 30}, 
                {"id": 15, "text": "준", "type": "", "begin": 31, "end": 32}, 
                {"id": 16, "text": "국제기구는?", "type": "", "begin": 33, "end": 36}
            ], 
            "NE": [
                {"id": 0, "text": "1997년", "type": "DT_YEAR", "begin": 0, "end": 1, "weight": 0.7776, "common_noun": 0}, 
                {"id": 1, "text": "정부", "type": "OGG_POLITICS", "begin": 12, "end": 12, "weight": 0.536647, "common_noun": 0}
            ], 
            "chunk": [], 
            "dependency": [
                {"id": 0, "text": "1997년", "head": 6, "label": "NP_AJT", "mod": [], "weight": 0.751233}, 
                {"id": 1, "text": "우리", "head": 2, "label": "NP", "mod": [], "weight": 0.604688}, 
                {"id": 2, "text": "경제가", "head": 6, "label": "NP_SBJ", "mod": [1], "weight": 0.880256}, 
                {"id": 3, "text": "외자", "head": 4, "label": "NP", "mod": [], "weight": 0.466655}, 
                {"id": 4, "text": "조달에", "head": 6, "label": "NP_AJT", "mod": [3], "weight": 0.749312}, 
                {"id": 5, "text": "어려움을", "head": 6, "label": "NP_OBJ", "mod": [], "weight": 0.818977}, 
                {"id": 6, "text": "겪으면서", "head": 10, "label": "VP", "mod": [0, 2, 4, 5], "weight": 0.719105}, 
                {"id": 7, "text": "정부의", "head": 8, "label": "NP_MOD", "mod": [], "weight": 0.659533}, 
                {"id": 8, "text": "외환보유고가", "head": 10, "label": "NP_SBJ", "mod": [7], "weight": 0.755447}, 
                {"id": 9, "text": "바닥을", "head": 10, "label": "NP_OBJ", "mod": [], "weight": 0.815963}, 
                {"id": 10, "text": "드러내자", "head": 14, "label": "VP", "mod": [6, 8, 9], "weight": 0.437474}, 
                {"id": 11, "text": "우리나라에", "head": 14, "label": "NP_AJT", "mod": [], "weight": 0.758391}, 
                {"id": 12, "text": "구제", "head": 13, "label": "NP", "mod": [], "weight": 0.778033}, 
                {"id": 13, "text": "금융을", "head": 14, "label": "NP_OBJ", "mod": [12], "weight": 0.800561}, 
                {"id": 14, "text": "제공해", "head": 15, "label": "VP", "mod": [10, 11, 13], "weight": 0.856007}, 
                {"id": 15, "text": "준", "head": 16, "label": "VP_MOD", "mod": [14], "weight": 0.58413}, 
                {"id": 16, "text": "국제기구는?", "head": -1, "label": "NP", "mod": [15], "weight": 0.00225991}
            ], 
            "SRL": [
                {"verb": "겪", "sense": 1, "word_id": 6, "weight": 0.153108, "argument": [
                    {"type": "ARGM-PRD", "word_id": 4, "text": "조달에", "weight": 1}, 
                    {"type": "ARG2", "word_id": 5, "text": "어려움을", "weight": 0.226279}, 
                    {"type": "ARG1", "word_id": 2, "text": "경제가", "weight": 1}, 
                    {"type": "ARGM-TMP", "word_id": 0, "text": "1997년", "weight": 1}
                ]}, 
                {"verb": "드러내", "sense": 1, "word_id": 10, "weight": 0.110635, "argument": [
                    {"type": "ARG0", "word_id": 8, "text": "외환보유고가", "weight": 0.0762746}, 
                    {"type": "ARG1", "word_id": 9, "text": "바닥을", "weight": 0.144996}
                ]}, 
                {"verb": "제공", "sense": 1, "word_id": 14, "weight": 0.24398, "argument": [
                    {"type": "ARG2", "word_id": 11, "text": "우리나라에", "weight": 0.117494}, 
                    {"type": "ARG1", "word_id": 13, "text": "금융을", "weight": 0.212754}, 
                    {"type": "AUX", "word_id": 15, "text": "준", "weight": 0.479545}, 
                    {"type": "ARG0", "word_id": 16, "text": "국제기구는?", "weight": 0.166126}
                ]}
            ], 
            "relation": [], 
            "SA": [], 
            "ZA": []
        }
    ], 
    "entity": [
        {"id": 0, "type": "", "number": "singular", "gender": "", "person": "", "animacy": "thing", "mention": [
            {"id": 0, "sent_id": 0, "start_eid": 0, "end_eid": 16, "ne_id": -1, "text": "1997년 우리 경제가 외자 조달에 어려움을 겪으면서 정부의 외환보유고가 바닥을 드러내자 우리나라에 구제 금융을 제공해 준 국제기구는?", "start_eid_short": 16, "end_eid_short": 16, "text_short": "국제기구는?"}
        ]}, 
        {"id": 1, "type": "DT_YEAR", "number": "singular", "gender": "", "person": "", "animacy": "time", "mention": [
            {"id": 1, "sent_id": 0, "start_eid": 0, "end_eid": 0, "ne_id": 0, "text": "1997년", "start_eid_short": 0, "end_eid_short": 0, "text_short": "1997년"}
        ]}, 
        {"id": 2, "type": "", "number": "singular", "gender": "", "person": "", "animacy": "thing", "mention": [
            {"id": 2, "sent_id": 0, "start_eid": 1, "end_eid": 2, "ne_id": -1, "text": "우리 경제가", "start_eid_short": 1, "end_eid_short": 2, "text_short": "우리 경제가"}
        ]}, 
        {"id": 3, "type": "", "number": "singular", "gender": "", "person": "", "animacy": "thing", "mention": [
            {"id": 3, "sent_id": 0, "start_eid": 1, "end_eid": 1, "ne_id": -1, "text": "우리", "start_eid_short": 1, "end_eid_short": 1, "text_short": "우리"}
        ]}, 
        {"id": 4, "type": "", "number": "singular", "gender": "", "person": "", "animacy": "thing", "mention": [
            {"id": 4, "sent_id": 0, "start_eid": 3, "end_eid": 4, "ne_id": -1, "text": "외자 조달에", "start_eid_short": 3, "end_eid_short": 4, "text_short": "외자 조달에"}
        ]}, 
        {"id": 5, "type": "", "number": "singular", "gender": "", "person": "", "animacy": "thing", "mention": [
            {"id": 5, "sent_id": 0, "start_eid": 3, "end_eid": 3, "ne_id": -1, "text": "외자", "start_eid_short": 3, "end_eid_short": 3, "text_short": "외자"}
        ]}, 
        {"id": 6, "type": "", "number": "singular", "gender": "", "person": "", "animacy": "thing", "mention": [
            {"id": 6, "sent_id": 0, "start_eid": 7, "end_eid": 8, "ne_id": -1, "text": "정부의 외환보유고가", "start_eid_short": 8, "end_eid_short": 8, "text_short": "외환보유고가"}
        ]}, 
        {"id": 7, "type": "OGG_POLITICS", "number": "singular", "gender": "", "person": "", "animacy": "thing", "mention": [
            {"id": 7, "sent_id": 0, "start_eid": 7, "end_eid": 7, "ne_id": 1, "text": "정부의", "start_eid_short": 7, "end_eid_short": 7, "text_short": "정부의"}
        ]}, 
        {"id": 8, "type": "", "number": "singular", "gender": "", "person": "", "animacy": "thing", "mention": [
            {"id": 8, "sent_id": 0, "start_eid": 9, "end_eid": 9, "ne_id": -1, "text": "바닥을", "start_eid_short": 9, "end_eid_short": 9, "text_short": "바닥을"}
        ]}, 
        {"id": 9, "type": "", "number": "singular", "gender": "", "person": "", "animacy": "thing", "mention": [
            {"id": 9, "sent_id": 0, "start_eid": 11, "end_eid": 11, "ne_id": -1, "text": "우리나라에", "start_eid_short": 11, "end_eid_short": 11, "text_short": "우리나라에"}
        ]}, 
        {"id": 10, "type": "", "number": "singular", "gender": "", "person": "", "animacy": "thing", "mention": [
            {"id": 10, "sent_id": 0, "start_eid": 12, "end_eid": 13, "ne_id": -1, "text": "구제 금융을", "start_eid_short": 12, "end_eid_short": 13, "text_short": "구제 금융을"}
        ]}, 
        {"id": 11, "type": "", "number": "singular", "gender": "", "person": "", "animacy": "thing", "mention": [
            {"id": 11, "sent_id": 0, "start_eid": 12, "end_eid": 12, "ne_id": -1, "text": "구제", "start_eid_short": 12, "end_eid_short": 12, "text_short": "구제"}
        ]}
    ]
}