{
    "doc_id": "E2016.887.17_Q_01.json", 
    "DCT": "", 
    "category": "", 
    "category_weight": 0, 
    "title": {
        "text": "", 
        "NE": ""
    }, 
    "metaInfo": {}, 
    "sentence": [
        {
            "id": 0, 
            "reserve_str": "", 
            "text": "파노라마와 유사한 이것은 배경 위에 미니어처와 같은 축소 모형을 설치해 하나의 장면을 만드는 것이다.", 
            "morp": [
                {"id": 0, "lemma": "파노라마", "type": "NNG", "position": 0, "weight": 0.9}, 
                {"id": 1, "lemma": "와", "type": "JKB", "position": 12, "weight": 0.0567862}, 
                {"id": 2, "lemma": "유사", "type": "NNG", "position": 16, "weight": 0.205413}, 
                {"id": 3, "lemma": "하", "type": "XSA", "position": 22, "weight": 0.0001}, 
                {"id": 4, "lemma": "ㄴ", "type": "ETM", "position": 22, "weight": 0.488779}, 
                {"id": 5, "lemma": "이것", "type": "NP", "position": 26, "weight": 0.0102992}, 
                {"id": 6, "lemma": "은", "type": "JX", "position": 32, "weight": 0.191811}, 
                {"id": 7, "lemma": "배경", "type": "NNG", "position": 36, "weight": 0.9}, 
                {"id": 8, "lemma": "위", "type": "NNG", "position": 43, "weight": 0.165604}, 
                {"id": 9, "lemma": "에", "type": "JKB", "position": 46, "weight": 0.153364}, 
                {"id": 10, "lemma": "미니어처", "type": "NNG", "position": 50, "weight": 0.9}, 
                {"id": 11, "lemma": "와", "type": "JC", "position": 62, "weight": 0.0169714}, 
                {"id": 12, "lemma": "같", "type": "VA", "position": 66, "weight": 0.0236937}, 
                {"id": 13, "lemma": "은", "type": "ETM", "position": 69, "weight": 0.155123}, 
                {"id": 14, "lemma": "축소", "type": "NNG", "position": 73, "weight": 0.9}, 
                {"id": 15, "lemma": "모형", "type": "NNG", "position": 80, "weight": 0.184449}, 
                {"id": 16, "lemma": "을", "type": "JKO", "position": 86, "weight": 0.129611}, 
                {"id": 17, "lemma": "설치", "type": "NNG", "position": 90, "weight": 0.0749782}, 
                {"id": 18, "lemma": "하", "type": "XSV", "position": 96, "weight": 0.0001}, 
                {"id": 19, "lemma": "아", "type": "EC", "position": 96, "weight": 0.361326}, 
                {"id": 20, "lemma": "하나", "type": "NNG", "position": 100, "weight": 0.156194}, 
                {"id": 21, "lemma": "의", "type": "JKG", "position": 106, "weight": 0.0694213}, 
                {"id": 22, "lemma": "장면", "type": "NNG", "position": 110, "weight": 0.863847}, 
                {"id": 23, "lemma": "을", "type": "JKO", "position": 116, "weight": 0.129611}, 
                {"id": 24, "lemma": "만들", "type": "VV", "position": 120, "weight": 0.9}, 
                {"id": 25, "lemma": "는", "type": "ETM", "position": 126, "weight": 0.184941}, 
                {"id": 26, "lemma": "것", "type": "NNB", "position": 130, "weight": 0.228788}, 
                {"id": 27, "lemma": "이", "type": "VCP", "position": 133, "weight": 0.0607843}, 
                {"id": 28, "lemma": "다", "type": "EF", "position": 136, "weight": 0.353579}, 
                {"id": 29, "lemma": ".", "type": "SF", "position": 139, "weight": 1}
            ], 
            "morp_eval": [], 
            "WSD": [
                {"id": 0, "text": "파노라마", "type": "NNG", "scode": "000001", "weight": 0.5, "position": 0, "begin": 0, "end": 0}, 
                {"id": 1, "text": "와", "type": "JKB", "scode": "000000", "weight": 1, "position": 12, "begin": 1, "end": 1}, 
                {"id": 2, "text": "유사하", "type": "VA", "scode": "030000", "weight": 0.333333, "position": 16, "begin": 2, "end": 3}, 
                {"id": 3, "text": "ㄴ", "type": "ETM", "scode": "000000", "weight": 1, "position": 22, "begin": 4, "end": 4}, 
                {"id": 4, "text": "이것", "type": "NP", "scode": "000001", "weight": 0.25, "position": 26, "begin": 5, "end": 5}, 
                {"id": 5, "text": "은", "type": "JX", "scode": "000000", "weight": 1, "position": 32, "begin": 6, "end": 6}, 
                {"id": 6, "text": "배경", "type": "NNG", "scode": "010001", "weight": 0.142857, "position": 36, "begin": 7, "end": 7}, 
                {"id": 7, "text": "위", "type": "NNG", "scode": "010003", "weight": 0.0285714, "position": 43, "begin": 8, "end": 8}, 
                {"id": 8, "text": "에", "type": "JKB", "scode": "000000", "weight": 1, "position": 46, "begin": 9, "end": 9}, 
                {"id": 9, "text": "미니어처", "type": "NNG", "scode": "000000", "weight": 1, "position": 50, "begin": 10, "end": 10}, 
                {"id": 10, "text": "와", "type": "JC", "scode": "000000", "weight": 1, "position": 62, "begin": 11, "end": 11}, 
                {"id": 11, "text": "같", "type": "VA", "scode": "000201", "weight": 0.125, "position": 66, "begin": 12, "end": 12}, 
                {"id": 12, "text": "은", "type": "ETM", "scode": "000000", "weight": 1, "position": 69, "begin": 13, "end": 13}, 
                {"id": 13, "text": "축소", "type": "NNG", "scode": "020000", "weight": 0.5, "position": 73, "begin": 14, "end": 14}, 
                {"id": 14, "text": "모형", "type": "NNG", "scode": "050002", "weight": 0.142857, "position": 80, "begin": 15, "end": 15}, 
                {"id": 15, "text": "을", "type": "JKO", "scode": "000000", "weight": 1, "position": 86, "begin": 16, "end": 16}, 
                {"id": 16, "text": "설치하", "type": "VV", "scode": "010000", "weight": 0.25, "position": 90, "begin": 17, "end": 18}, 
                {"id": 17, "text": "아", "type": "EC", "scode": "000000", "weight": 1, "position": 96, "begin": 19, "end": 19}, 
                {"id": 18, "text": "하나", "type": "NNG", "scode": "000202", "weight": 0.166667, "position": 100, "begin": 20, "end": 20}, 
                {"id": 19, "text": "의", "type": "JKG", "scode": "000000", "weight": 1, "position": 106, "begin": 21, "end": 21}, 
                {"id": 20, "text": "장면", "type": "NNG", "scode": "040002", "weight": 0.142857, "position": 110, "begin": 22, "end": 22}, 
                {"id": 21, "text": "을", "type": "JKO", "scode": "000000", "weight": 1, "position": 116, "begin": 23, "end": 23}, 
                {"id": 22, "text": "만들", "type": "VV", "scode": "000101", "weight": 0.0769231, "position": 120, "begin": 24, "end": 24}, 
                {"id": 23, "text": "는", "type": "ETM", "scode": "000000", "weight": 1, "position": 126, "begin": 25, "end": 25}, 
                {"id": 24, "text": "것", "type": "NNB", "scode": "010001", "weight": 0.125, "position": 130, "begin": 26, "end": 26}, 
                {"id": 25, "text": "이", "type": "VCP", "scode": "030000", "weight": 0.0172414, "position": 133, "begin": 27, "end": 27}, 
                {"id": 26, "text": "다", "type": "EF", "scode": "000000", "weight": 1, "position": 136, "begin": 28, "end": 28}, 
                {"id": 27, "text": ".", "type": "SF", "scode": "000000", "weight": 1, "position": 139, "begin": 29, "end": 29}
            ], 
            "word": [
                {"id": 0, "text": "파노라마와", "type": "", "begin": 0, "end": 1}, 
                {"id": 1, "text": "유사한", "type": "", "begin": 2, "end": 4}, 
                {"id": 2, "text": "이것은", "type": "", "begin": 5, "end": 6}, 
                {"id": 3, "text": "배경", "type": "", "begin": 7, "end": 7}, 
                {"id": 4, "text": "위에", "type": "", "begin": 8, "end": 9}, 
                {"id": 5, "text": "미니어처와", "type": "", "begin": 10, "end": 11}, 
                {"id": 6, "text": "같은", "type": "", "begin": 12, "end": 13}, 
                {"id": 7, "text": "축소", "type": "", "begin": 14, "end": 14}, 
                {"id": 8, "text": "모형을", "type": "", "begin": 15, "end": 16}, 
                {"id": 9, "text": "설치해", "type": "", "begin": 17, "end": 19}, 
                {"id": 10, "text": "하나의", "type": "", "begin": 20, "end": 21}, 
                {"id": 11, "text": "장면을", "type": "", "begin": 22, "end": 23}, 
                {"id": 12, "text": "만드는", "type": "", "begin": 24, "end": 25}, 
                {"id": 13, "text": "것이다.", "type": "", "begin": 26, "end": 29}
            ], 
            "NE": [
                {"id": 0, "text": "하나", "type": "QT_COUNT", "begin": 20, "end": 20, "weight": 0.560313, "common_noun": 0}
            ], 
            "chunk": [], 
            "dependency": [
                {"id": 0, "text": "파노라마와", "head": 1, "label": "NP_AJT", "mod": [], "weight": 0.595145}, 
                {"id": 1, "text": "유사한", "head": 2, "label": "VP_MOD", "mod": [0], "weight": 0.443139}, 
                {"id": 2, "text": "이것은", "head": 9, "label": "NP_SBJ", "mod": [1], "weight": 0.474069}, 
                {"id": 3, "text": "배경", "head": 4, "label": "NP", "mod": [], "weight": 0.671775}, 
                {"id": 4, "text": "위에", "head": 9, "label": "NP_AJT", "mod": [3], "weight": 0.722867}, 
                {"id": 5, "text": "미니어처와", "head": 6, "label": "NP_AJT", "mod": [], "weight": 0.718235}, 
                {"id": 6, "text": "같은", "head": 8, "label": "VP_MOD", "mod": [5], "weight": 0.771555}, 
                {"id": 7, "text": "축소", "head": 8, "label": "NP", "mod": [], "weight": 0.60937}, 
                {"id": 8, "text": "모형을", "head": 9, "label": "NP_OBJ", "mod": [6, 7], "weight": 0.720237}, 
                {"id": 9, "text": "설치해", "head": 12, "label": "VP", "mod": [2, 4, 8], "weight": 0.753204}, 
                {"id": 10, "text": "하나의", "head": 11, "label": "NP_MOD", "mod": [], "weight": 0.711563}, 
                {"id": 11, "text": "장면을", "head": 12, "label": "NP_OBJ", "mod": [10], "weight": 0.787665}, 
                {"id": 12, "text": "만드는", "head": 13, "label": "VP_MOD", "mod": [9, 11], "weight": 0.775173}, 
                {"id": 13, "text": "것이다.", "head": -1, "label": "VNP", "mod": [12], "weight": 0.00362078}
            ], 
            "SRL": [
                {"verb": "유사", "sense": 1, "word_id": 1, "weight": 0.215736, "argument": [
                    {"type": "ARG2", "word_id": 0, "text": "파노라마와", "weight": 0.172054}, 
                    {"type": "ARG1", "word_id": 2, "text": "이것은", "weight": 0.259419}
                ]}, 
                {"verb": "같", "sense": 1, "word_id": 6, "weight": 0.344491, "argument": [
                    {"type": "ARG2", "word_id": 5, "text": "미니어처와", "weight": 0.372987}, 
                    {"type": "ARG1", "word_id": 8, "text": "모형을", "weight": 0.315995}
                ]}, 
                {"verb": "설치", "sense": 1, "word_id": 9, "weight": 0.235324, "argument": [
                    {"type": "ARG2", "word_id": 4, "text": "위에", "weight": 0.161158}, 
                    {"type": "ARG1", "word_id": 8, "text": "모형을", "weight": 0.309489}
                ]}, 
                {"verb": "만들", "sense": 1, "word_id": 12, "weight": 0.191523, "argument": [
                    {"type": "ARGM-MNR", "word_id": 9, "text": "설치해", "weight": 0.127805}, 
                    {"type": "ARG1", "word_id": 11, "text": "장면을", "weight": 0.255242}
                ]}
            ], 
            "relation": [], 
            "SA": [], 
            "ZA": []
        }, 
        {
            "id": 1, 
            "reserve_str": "", 
            "text": "전시물의 입체감을 현장성에 충실하도록 표현해 하나의 사실 또는 주제의 시간 상황을 고정시켜 연출하는 이것은 무엇일까?", 
            "morp": [
                {"id": 0, "lemma": "전시", "type": "NNG", "position": 140, "weight": 0.437325}, 
                {"id": 1, "lemma": "물", "type": "XSN", "position": 146, "weight": 0.00142289}, 
                {"id": 2, "lemma": "의", "type": "JKG", "position": 149, "weight": 0.120732}, 
                {"id": 3, "lemma": "입체", "type": "NNG", "position": 153, "weight": 0.9}, 
                {"id": 4, "lemma": "감", "type": "XSN", "position": 159, "weight": 0.00406989}, 
                {"id": 5, "lemma": "을", "type": "JKO", "position": 162, "weight": 0.0819193}, 
                {"id": 6, "lemma": "현장", "type": "NNG", "position": 166, "weight": 0.6}, 
                {"id": 7, "lemma": "성", "type": "XSN", "position": 166, "weight": 0.6}, 
                {"id": 8, "lemma": "에", "type": "JKB", "position": 175, "weight": 0.0823628}, 
                {"id": 9, "lemma": "충실", "type": "NNG", "position": 179, "weight": 0.9}, 
                {"id": 10, "lemma": "하", "type": "XSA", "position": 185, "weight": 0.0001}, 
                {"id": 11, "lemma": "도록", "type": "EC", "position": 188, "weight": 0.363315}, 
                {"id": 12, "lemma": "표현", "type": "NNG", "position": 195, "weight": 0.9}, 
                {"id": 13, "lemma": "하", "type": "XSV", "position": 201, "weight": 0.0001}, 
                {"id": 14, "lemma": "아", "type": "EC", "position": 201, "weight": 0.361326}, 
                {"id": 15, "lemma": "하나", "type": "NNG", "position": 205, "weight": 0.156194}, 
                {"id": 16, "lemma": "의", "type": "JKG", "position": 211, "weight": 0.0694213}, 
                {"id": 17, "lemma": "사실", "type": "NNG", "position": 215, "weight": 0.75107}, 
                {"id": 18, "lemma": "또는", "type": "MAJ", "position": 222, "weight": 0.0017557}, 
                {"id": 19, "lemma": "주제", "type": "NNG", "position": 229, "weight": 0.9}, 
                {"id": 20, "lemma": "의", "type": "JKG", "position": 235, "weight": 0.0694213}, 
                {"id": 21, "lemma": "시간", "type": "NNG", "position": 239, "weight": 0.757014}, 
                {"id": 22, "lemma": "상황", "type": "NNG", "position": 246, "weight": 0.9}, 
                {"id": 23, "lemma": "을", "type": "JKO", "position": 252, "weight": 0.129611}, 
                {"id": 24, "lemma": "고정", "type": "NNG", "position": 256, "weight": 0.101076}, 
                {"id": 25, "lemma": "시키", "type": "XSV", "position": 262, "weight": 0.00340357}, 
                {"id": 26, "lemma": "어", "type": "EC", "position": 265, "weight": 0.361326}, 
                {"id": 27, "lemma": "연출", "type": "NNG", "position": 269, "weight": 0.9}, 
                {"id": 28, "lemma": "하", "type": "XSV", "position": 275, "weight": 0.0001}, 
                {"id": 29, "lemma": "는", "type": "ETM", "position": 278, "weight": 0.238503}, 
                {"id": 30, "lemma": "이것", "type": "NP", "position": 282, "weight": 0.0102992}, 
                {"id": 31, "lemma": "은", "type": "JX", "position": 288, "weight": 0.191811}, 
                {"id": 32, "lemma": "무엇", "type": "NP", "position": 292, "weight": 0.9}, 
                {"id": 33, "lemma": "이", "type": "VCP", "position": 298, "weight": 0.0175768}, 
                {"id": 34, "lemma": "ㄹ까", "type": "EF", "position": 298, "weight": 0.258243}, 
                {"id": 35, "lemma": "?", "type": "SF", "position": 304, "weight": 1}
            ], 
            "morp_eval": [], 
            "WSD": [
                {"id": 0, "text": "전시물", "type": "NNG", "scode": "000000", "weight": 1, "position": 140, "begin": 0, "end": 1}, 
                {"id": 1, "text": "의", "type": "JKG", "scode": "000000", "weight": 1, "position": 149, "begin": 2, "end": 2}, 
                {"id": 2, "text": "입체감", "type": "NNG", "scode": "000000", "weight": 1, "position": 153, "begin": 3, "end": 4}, 
                {"id": 3, "text": "을", "type": "JKO", "scode": "000000", "weight": 1, "position": 162, "begin": 5, "end": 5}, 
                {"id": 4, "text": "현장", "type": "NNG", "scode": "030003", "weight": 0.111111, "position": 166, "begin": 6, "end": 6}, 
                {"id": 5, "text": "성", "type": "XSN", "scode": "170000", "weight": 0.0344828, "position": 166, "begin": 7, "end": 7}, 
                {"id": 6, "text": "에", "type": "JKB", "scode": "000000", "weight": 1, "position": 175, "begin": 8, "end": 8}, 
                {"id": 7, "text": "충실하", "type": "VA", "scode": "010001", "weight": 0.333333, "position": 179, "begin": 9, "end": 10}, 
                {"id": 8, "text": "도록", "type": "EC", "scode": "000000", "weight": 1, "position": 188, "begin": 11, "end": 11}, 
                {"id": 9, "text": "표현하", "type": "VV", "scode": "000000", "weight": 1, "position": 195, "begin": 12, "end": 13}, 
                {"id": 10, "text": "아", "type": "EC", "scode": "000000", "weight": 1, "position": 201, "begin": 14, "end": 14}, 
                {"id": 11, "text": "하나", "type": "NNG", "scode": "000202", "weight": 0.166667, "position": 205, "begin": 15, "end": 15}, 
                {"id": 12, "text": "의", "type": "JKG", "scode": "000000", "weight": 1, "position": 211, "begin": 16, "end": 16}, 
                {"id": 13, "text": "사실", "type": "NNG", "scode": "040001", "weight": 0.111111, "position": 215, "begin": 17, "end": 17}, 
                {"id": 14, "text": "또는", "type": "MAJ", "scode": "000000", "weight": 1, "position": 222, "begin": 18, "end": 18}, 
                {"id": 15, "text": "주제", "type": "NNG", "scode": "040002", "weight": 0.0909091, "position": 229, "begin": 19, "end": 19}, 
                {"id": 16, "text": "의", "type": "JKG", "scode": "000000", "weight": 1, "position": 235, "begin": 20, "end": 20}, 
                {"id": 17, "text": "시간", "type": "NNG", "scode": "040001", "weight": 0.0666667, "position": 239, "begin": 21, "end": 21}, 
                {"id": 18, "text": "상황", "type": "NNG", "scode": "020000", "weight": 0.2, "position": 246, "begin": 22, "end": 22}, 
                {"id": 19, "text": "을", "type": "JKO", "scode": "000000", "weight": 1, "position": 252, "begin": 23, "end": 23}, 
                {"id": 20, "text": "고정", "type": "NNG", "scode": "060002", "weight": 0.05, "position": 256, "begin": 24, "end": 24}, 
                {"id": 21, "text": "시키", "type": "XSV", "scode": "000000", "weight": 0, "position": 262, "begin": 25, "end": 25}, 
                {"id": 22, "text": "어", "type": "EC", "scode": "000000", "weight": 1, "position": 265, "begin": 26, "end": 26}, 
                {"id": 23, "text": "연출하", "type": "VV", "scode": "000001", "weight": 0.333333, "position": 269, "begin": 27, "end": 28}, 
                {"id": 24, "text": "는", "type": "ETM", "scode": "000000", "weight": 1, "position": 278, "begin": 29, "end": 29}, 
                {"id": 25, "text": "이것", "type": "NP", "scode": "000001", "weight": 0.25, "position": 282, "begin": 30, "end": 30}, 
                {"id": 26, "text": "은", "type": "JX", "scode": "000000", "weight": 1, "position": 288, "begin": 31, "end": 31}, 
                {"id": 27, "text": "무엇", "type": "NP", "scode": "000001", "weight": 0.5, "position": 292, "begin": 32, "end": 32}, 
                {"id": 28, "text": "이", "type": "VCP", "scode": "030000", "weight": 0.0172414, "position": 298, "begin": 33, "end": 33}, 
                {"id": 29, "text": "ㄹ까", "type": "EF", "scode": "000000", "weight": 1, "position": 298, "begin": 34, "end": 34}, 
                {"id": 30, "text": "?", "type": "SF", "scode": "000000", "weight": 1, "position": 304, "begin": 35, "end": 35}
            ], 
            "word": [
                {"id": 0, "text": "전시물의", "type": "", "begin": 0, "end": 2}, 
                {"id": 1, "text": "입체감을", "type": "", "begin": 3, "end": 5}, 
                {"id": 2, "text": "현장성에", "type": "", "begin": 6, "end": 8}, 
                {"id": 3, "text": "충실하도록", "type": "", "begin": 9, "end": 11}, 
                {"id": 4, "text": "표현해", "type": "", "begin": 12, "end": 14}, 
                {"id": 5, "text": "하나의", "type": "", "begin": 15, "end": 16}, 
                {"id": 6, "text": "사실", "type": "", "begin": 17, "end": 17}, 
                {"id": 7, "text": "또는", "type": "", "begin": 18, "end": 18}, 
                {"id": 8, "text": "주제의", "type": "", "begin": 19, "end": 20}, 
                {"id": 9, "text": "시간", "type": "", "begin": 21, "end": 21}, 
                {"id": 10, "text": "상황을", "type": "", "begin": 22, "end": 23}, 
                {"id": 11, "text": "고정시켜", "type": "", "begin": 24, "end": 26}, 
                {"id": 12, "text": "연출하는", "type": "", "begin": 27, "end": 29}, 
                {"id": 13, "text": "이것은", "type": "", "begin": 30, "end": 31}, 
                {"id": 14, "text": "무엇일까?", "type": "", "begin": 32, "end": 35}
            ], 
            "NE": [
                {"id": 0, "text": "하나", "type": "QT_COUNT", "begin": 15, "end": 15, "weight": 0.555458, "common_noun": 0}
            ], 
            "chunk": [], 
            "dependency": [
                {"id": 0, "text": "전시물의", "head": 1, "label": "NP_MOD", "mod": [], "weight": 0.658592}, 
                {"id": 1, "text": "입체감을", "head": 4, "label": "NP_OBJ", "mod": [0], "weight": 0.687962}, 
                {"id": 2, "text": "현장성에", "head": 3, "label": "NP_AJT", "mod": [], "weight": 0.666273}, 
                {"id": 3, "text": "충실하도록", "head": 4, "label": "VP_AJT", "mod": [2], "weight": 0.195901}, 
                {"id": 4, "text": "표현해", "head": 11, "label": "VP", "mod": [1, 3], "weight": 0.41085}, 
                {"id": 5, "text": "하나의", "head": 8, "label": "NP_MOD", "mod": [], "weight": 0.772317}, 
                {"id": 6, "text": "사실", "head": 8, "label": "NP_CNJ", "mod": [], "weight": 0.43496}, 
                {"id": 7, "text": "또는", "head": 8, "label": "AP", "mod": [], "weight": 0.479772}, 
                {"id": 8, "text": "주제의", "head": 10, "label": "NP_MOD", "mod": [5, 6, 7], "weight": 0.704378}, 
                {"id": 9, "text": "시간", "head": 10, "label": "NP", "mod": [], "weight": 0.559744}, 
                {"id": 10, "text": "상황을", "head": 11, "label": "NP_OBJ", "mod": [8, 9], "weight": 0.722999}, 
                {"id": 11, "text": "고정시켜", "head": 12, "label": "VP", "mod": [4, 10], "weight": 0.769802}, 
                {"id": 12, "text": "연출하는", "head": 13, "label": "VP_MOD", "mod": [11], "weight": 0.691106}, 
                {"id": 13, "text": "이것은", "head": 14, "label": "NP_SBJ", "mod": [12], "weight": 0.701396}, 
                {"id": 14, "text": "무엇일까?", "head": -1, "label": "VNP", "mod": [13], "weight": 0.000345366}
            ], 
            "SRL": [
                {"verb": "충실", "sense": 1, "word_id": 3, "weight": 0, "argument": [
                    {"type": "ARG2", "word_id": 2, "text": "현장성에", "weight": 1}
                ]}, 
                {"verb": "표현", "sense": 1, "word_id": 4, "weight": 0.150075, "argument": [
                    {"type": "ARG1", "word_id": 1, "text": "입체감을", "weight": 0.185259}, 
                    {"type": "ARGM-PRP", "word_id": 3, "text": "충실하도록", "weight": 1}
                ]}, 
                {"verb": "고정", "sense": 1, "word_id": 11, "weight": 0.202781, "argument": [
                    {"type": "ARG1", "word_id": 10, "text": "상황을", "weight": 0.202781}, 
                    {"type": "ARGM-MNR", "word_id": 4, "text": "표현해", "weight": 1}, 
                    {"type": "ARG0", "word_id": 13, "text": "이것은", "weight": 1}
                ]}, 
                {"verb": "연출", "sense": 1, "word_id": 12, "weight": 0.14105, "argument": [
                    {"type": "ARG0", "word_id": 13, "text": "이것은", "weight": 0.14105}, 
                    {"type": "ARG1", "word_id": 10, "text": "상황을", "weight": 1}
                ]}
            ], 
            "relation": [], 
            "SA": [], 
            "ZA": []
        }
    ], 
    "entity": [
        {"id": 0, "type": "", "number": "singular", "gender": "", "person": "", "animacy": "thing", "mention": [
            {"id": 1, "sent_id": 0, "start_eid": 2, "end_eid": 2, "ne_id": -1, "text": "이것은", "start_eid_short": 2, "end_eid_short": 2, "text_short": "이것은"}, 
            {"id": 2, "sent_id": 0, "start_eid": 3, "end_eid": 13, "ne_id": -1, "text": "배경 위에 미니어처와 같은 축소 모형을 설치해 하나의 장면을 만드는 것이다.", "start_eid_short": 13, "end_eid_short": 13, "text_short": "것이다."}, 
            {"id": 19, "sent_id": 1, "start_eid": 13, "end_eid": 13, "ne_id": -1, "text": "이것은", "start_eid_short": 13, "end_eid_short": 13, "text_short": "이것은"}, 
            {"id": 20, "sent_id": 1, "start_eid": 14, "end_eid": 14, "ne_id": -1, "text": "무엇일까?", "start_eid_short": 14, "end_eid_short": 14, "text_short": "무엇일까?"}
        ]}, 
        {"id": 1, "type": "", "number": "singular", "gender": "", "person": "", "animacy": "thing", "mention": [
            {"id": 0, "sent_id": 0, "start_eid": 0, "end_eid": 0, "ne_id": -1, "text": "파노라마와", "start_eid_short": 0, "end_eid_short": 0, "text_short": "파노라마와"}
        ]}, 
        {"id": 2, "type": "", "number": "singular", "gender": "", "person": "", "animacy": "thing", "mention": [
            {"id": 3, "sent_id": 0, "start_eid": 3, "end_eid": 4, "ne_id": -1, "text": "배경 위에", "start_eid_short": 3, "end_eid_short": 4, "text_short": "배경 위에"}
        ]}, 
        {"id": 3, "type": "", "number": "singular", "gender": "", "person": "", "animacy": "thing", "mention": [
            {"id": 4, "sent_id": 0, "start_eid": 3, "end_eid": 3, "ne_id": -1, "text": "배경", "start_eid_short": 3, "end_eid_short": 3, "text_short": "배경"}
        ]}, 
        {"id": 4, "type": "", "number": "singular", "gender": "", "person": "", "animacy": "thing", "mention": [
            {"id": 5, "sent_id": 0, "start_eid": 5, "end_eid": 8, "ne_id": -1, "text": "미니어처와 같은 축소 모형을", "start_eid_short": 7, "end_eid_short": 8, "text_short": "축소 모형을"}
        ]}, 
        {"id": 5, "type": "", "number": "singular", "gender": "", "person": "", "animacy": "thing", "mention": [
            {"id": 6, "sent_id": 0, "start_eid": 5, "end_eid": 5, "ne_id": -1, "text": "미니어처와", "start_eid_short": 5, "end_eid_short": 5, "text_short": "미니어처와"}
        ]}, 
        {"id": 6, "type": "", "number": "singular", "gender": "", "person": "", "animacy": "thing", "mention": [
            {"id": 7, "sent_id": 0, "start_eid": 7, "end_eid": 7, "ne_id": -1, "text": "축소", "start_eid_short": 7, "end_eid_short": 7, "text_short": "축소"}
        ]}, 
        {"id": 7, "type": "", "number": "singular", "gender": "", "person": "", "animacy": "thing", "mention": [
            {"id": 8, "sent_id": 0, "start_eid": 10, "end_eid": 11, "ne_id": -1, "text": "하나의 장면을", "start_eid_short": 11, "end_eid_short": 11, "text_short": "장면을"}
        ]}, 
        {"id": 8, "type": "QT_COUNT", "number": "singular", "gender": "", "person": "", "animacy": "thing", "mention": [
            {"id": 9, "sent_id": 0, "start_eid": 10, "end_eid": 10, "ne_id": 0, "text": "하나의", "start_eid_short": 10, "end_eid_short": 10, "text_short": "하나의"}
        ]}, 
        {"id": 9, "type": "", "number": "singular", "gender": "", "person": "", "animacy": "thing", "mention": [
            {"id": 10, "sent_id": 1, "start_eid": 0, "end_eid": 1, "ne_id": -1, "text": "전시물의 입체감을", "start_eid_short": 1, "end_eid_short": 1, "text_short": "입체감을"}
        ]}, 
        {"id": 10, "type": "", "number": "singular", "gender": "", "person": "", "animacy": "thing", "mention": [
            {"id": 11, "sent_id": 1, "start_eid": 0, "end_eid": 0, "ne_id": -1, "text": "전시물의", "start_eid_short": 0, "end_eid_short": 0, "text_short": "전시물의"}
        ]}, 
        {"id": 11, "type": "", "number": "singular", "gender": "", "person": "", "animacy": "thing", "mention": [
            {"id": 12, "sent_id": 1, "start_eid": 2, "end_eid": 2, "ne_id": -1, "text": "현장성에", "start_eid_short": 2, "end_eid_short": 2, "text_short": "현장성에"}
        ]}, 
        {"id": 12, "type": "", "number": "singular", "gender": "", "person": "", "animacy": "thing", "mention": [
            {"id": 17, "sent_id": 1, "start_eid": 8, "end_eid": 8, "ne_id": -1, "text": "주제의", "start_eid_short": 8, "end_eid_short": 8, "text_short": "주제의"}
        ]}, 
        {"id": 13, "type": "QT_COUNT", "number": "singular", "gender": "", "person": "", "animacy": "thing", "mention": [
            {"id": 15, "sent_id": 1, "start_eid": 5, "end_eid": 5, "ne_id": 0, "text": "하나의", "start_eid_short": 5, "end_eid_short": 5, "text_short": "하나의"}
        ]}, 
        {"id": 14, "type": "", "number": "singular", "gender": "", "person": "", "animacy": "thing", "mention": [
            {"id": 14, "sent_id": 1, "start_eid": 5, "end_eid": 6, "ne_id": -1, "text": "하나의 사실", "start_eid_short": 6, "end_eid_short": 6, "text_short": "사실"}
        ]}, 
        {"id": 15, "type": "", "number": "singular", "gender": "", "person": "", "animacy": "thing", "mention": [
            {"id": 13, "sent_id": 1, "start_eid": 5, "end_eid": 10, "ne_id": -1, "text": "하나의 사실 또는 주제의 시간 상황을", "start_eid_short": 9, "end_eid_short": 10, "text_short": "시간 상황을"}
        ]}, 
        {"id": 16, "type": "", "number": "singular", "gender": "", "person": "", "animacy": "thing", "mention": [
            {"id": 18, "sent_id": 1, "start_eid": 9, "end_eid": 9, "ne_id": -1, "text": "시간", "start_eid_short": 9, "end_eid_short": 9, "text_short": "시간"}
        ]}, 
        {"id": 17, "type": "", "number": "singular", "gender": "", "person": "", "animacy": "thing", "mention": [
            {"id": 16, "sent_id": 1, "start_eid": 8, "end_eid": 10, "ne_id": -1, "text": "주제의 시간 상황을", "start_eid_short": 9, "end_eid_short": 10, "text_short": "시간 상황을"}
        ]}
    ]
}