{
    "doc_id": "E2016.836.22_A_02.json", 
    "DCT": "", 
    "category": "", 
    "category_weight": 0, 
    "title": {
        "text": "북회귀선", 
        "NE": ""
    }, 
    "metaInfo": {}, 
    "sentence": [
        {
            "id": 0, 
            "reserve_str": "", 
            "text": "<지리> 북위 23도 27분의 위도를 연결한 선.", 
            "morp": [
                {"id": 0, "lemma": "<", "type": "SS", "position": 0, "weight": 1}, 
                {"id": 1, "lemma": "지리", "type": "NNG", "position": 1, "weight": 0.00107644}, 
                {"id": 2, "lemma": ">", "type": "SS", "position": 7, "weight": 1}, 
                {"id": 3, "lemma": "북위", "type": "NNG", "position": 9, "weight": 0.187598}, 
                {"id": 4, "lemma": "23", "type": "SN", "position": 16, "weight": 1}, 
                {"id": 5, "lemma": "도", "type": "NNB", "position": 18, "weight": 0.00270442}, 
                {"id": 6, "lemma": "27", "type": "SN", "position": 22, "weight": 1}, 
                {"id": 7, "lemma": "분", "type": "NNB", "position": 24, "weight": 0.322424}, 
                {"id": 8, "lemma": "의", "type": "JKG", "position": 27, "weight": 0.0520933}, 
                {"id": 9, "lemma": "위도", "type": "NNG", "position": 31, "weight": 0.762512}, 
                {"id": 10, "lemma": "를", "type": "JKO", "position": 37, "weight": 0.137686}, 
                {"id": 11, "lemma": "연결", "type": "NNG", "position": 41, "weight": 0.9}, 
                {"id": 12, "lemma": "하", "type": "XSV", "position": 47, "weight": 0.0001}, 
                {"id": 13, "lemma": "ㄴ", "type": "ETM", "position": 47, "weight": 0.392321}, 
                {"id": 14, "lemma": "선", "type": "NNG", "position": 51, "weight": 0.585143}, 
                {"id": 15, "lemma": ".", "type": "SF", "position": 54, "weight": 1}
            ], 
            "morp_eval": [], 
            "WSD": [
                {"id": 0, "text": "<", "type": "SS", "scode": "000000", "weight": 1, "position": 0, "begin": 0, "end": 0}, 
                {"id": 1, "text": "지리", "type": "NNG", "scode": "030002", "weight": 0.1, "position": 1, "begin": 1, "end": 1}, 
                {"id": 2, "text": ">", "type": "SS", "scode": "000000", "weight": 1, "position": 7, "begin": 2, "end": 2}, 
                {"id": 3, "text": "북위", "type": "NNG", "scode": "010000", "weight": 0.5, "position": 9, "begin": 3, "end": 3}, 
                {"id": 4, "text": "23", "type": "SN", "scode": "000000", "weight": 1, "position": 16, "begin": 4, "end": 4}, 
                {"id": 5, "text": "도", "type": "NNB", "scode": "050004", "weight": 0.025641, "position": 18, "begin": 5, "end": 5}, 
                {"id": 6, "text": "27", "type": "SN", "scode": "000000", "weight": 1, "position": 22, "begin": 6, "end": 6}, 
                {"id": 7, "text": "분", "type": "NNB", "scode": "080006", "weight": 0.0384615, "position": 24, "begin": 7, "end": 7}, 
                {"id": 8, "text": "의", "type": "JKG", "scode": "000000", "weight": 1, "position": 27, "begin": 8, "end": 8}, 
                {"id": 9, "text": "위도", "type": "NNG", "scode": "020000", "weight": 0.5, "position": 31, "begin": 9, "end": 9}, 
                {"id": 10, "text": "를", "type": "JKO", "scode": "000000", "weight": 1, "position": 37, "begin": 10, "end": 10}, 
                {"id": 11, "text": "연결하", "type": "VV", "scode": "010001", "weight": 0.333333, "position": 41, "begin": 11, "end": 12}, 
                {"id": 12, "text": "ㄴ", "type": "ETM", "scode": "000000", "weight": 1, "position": 47, "begin": 13, "end": 13}, 
                {"id": 13, "text": "선", "type": "NNG", "scode": "140001", "weight": 0.025, "position": 51, "begin": 14, "end": 14}, 
                {"id": 14, "text": ".", "type": "SF", "scode": "000000", "weight": 1, "position": 54, "begin": 15, "end": 15}
            ], 
            "word": [
                {"id": 0, "text": "<지리>", "type": "", "begin": 0, "end": 2}, 
                {"id": 1, "text": "북위", "type": "", "begin": 3, "end": 3}, 
                {"id": 2, "text": "23도", "type": "", "begin": 4, "end": 5}, 
                {"id": 3, "text": "27분의", "type": "", "begin": 6, "end": 8}, 
                {"id": 4, "text": "위도를", "type": "", "begin": 9, "end": 10}, 
                {"id": 5, "text": "연결한", "type": "", "begin": 11, "end": 13}, 
                {"id": 6, "text": "선.", "type": "", "begin": 14, "end": 15}
            ], 
            "NE": [
                {"id": 0, "text": "지리", "type": "FD_SOCIAL_SCIENCE", "begin": 1, "end": 1, "weight": 0.207915, "common_noun": 0}, 
                {"id": 1, "text": "북위 23도 27분", "type": "QT_OTHERS", "begin": 3, "end": 7, "weight": 0.226433, "common_noun": 0}
            ], 
            "chunk": [], 
            "dependency": [
                {"id": 0, "text": "<지리>", "head": 6, "label": "NP", "mod": [], "weight": 0.89787}, 
                {"id": 1, "text": "북위", "head": 2, "label": "NP", "mod": [], "weight": 0.617695}, 
                {"id": 2, "text": "23도", "head": 3, "label": "NP", "mod": [1], "weight": 0.758922}, 
                {"id": 3, "text": "27분의", "head": 4, "label": "NP_MOD", "mod": [2], "weight": 0.713487}, 
                {"id": 4, "text": "위도를", "head": 5, "label": "NP_OBJ", "mod": [3], "weight": 0.662615}, 
                {"id": 5, "text": "연결한", "head": 6, "label": "VP_MOD", "mod": [4], "weight": 0.730912}, 
                {"id": 6, "text": "선.", "head": -1, "label": "NP", "mod": [0, 5], "weight": 0.121007}
            ], 
            "SRL": [
                {"verb": "연결", "sense": 1, "word_id": 5, "weight": 0.187934, "argument": [
                    {"type": "ARG1", "word_id": 4, "text": "위도를", "weight": 1}, 
                    {"type": "ARG0", "word_id": 6, "text": "선.", "weight": 1}
                ]}
            ], 
            "relation": [], 
            "SA": [], 
            "ZA": []
        }, 
        {
            "id": 1, 
            "reserve_str": "", 
            "text": "춘분에 적도에 있던 해가 점점 북으로 올라가 하지에 이 선을 통과하고, 다시 남으로 내려간다.", 
            "morp": [
                {"id": 0, "lemma": "춘분", "type": "NNG", "position": 55, "weight": 0.9}, 
                {"id": 1, "lemma": "에", "type": "JKB", "position": 61, "weight": 0.153364}, 
                {"id": 2, "lemma": "적도", "type": "NNG", "position": 65, "weight": 0.9}, 
                {"id": 3, "lemma": "에", "type": "JKB", "position": 71, "weight": 0.153364}, 
                {"id": 4, "lemma": "있", "type": "VA", "position": 75, "weight": 0.037292}, 
                {"id": 5, "lemma": "던", "type": "ETM", "position": 78, "weight": 0.449171}, 
                {"id": 6, "lemma": "해", "type": "NNG", "position": 82, "weight": 0.442025}, 
                {"id": 7, "lemma": "가", "type": "JKS", "position": 85, "weight": 0.066324}, 
                {"id": 8, "lemma": "점점", "type": "MAG", "position": 89, "weight": 0.117185}, 
                {"id": 9, "lemma": "북", "type": "NNG", "position": 96, "weight": 0.135575}, 
                {"id": 10, "lemma": "으로", "type": "JKB", "position": 99, "weight": 0.153406}, 
                {"id": 11, "lemma": "올라가", "type": "VV", "position": 106, "weight": 0.9}, 
                {"id": 12, "lemma": "아", "type": "EC", "position": 112, "weight": 0.398809}, 
                {"id": 13, "lemma": "하지", "type": "NNG", "position": 116, "weight": 0.20317}, 
                {"id": 14, "lemma": "에", "type": "JKB", "position": 122, "weight": 0.153364}, 
                {"id": 15, "lemma": "이", "type": "MM", "position": 126, "weight": 0.000780002}, 
                {"id": 16, "lemma": "선", "type": "NNG", "position": 130, "weight": 0.654962}, 
                {"id": 17, "lemma": "을", "type": "JKO", "position": 133, "weight": 0.129611}, 
                {"id": 18, "lemma": "통과", "type": "NNG", "position": 137, "weight": 0.9}, 
                {"id": 19, "lemma": "하", "type": "XSV", "position": 143, "weight": 0.0001}, 
                {"id": 20, "lemma": "고", "type": "EC", "position": 146, "weight": 0.359917}, 
                {"id": 21, "lemma": ",", "type": "SP", "position": 149, "weight": 1}, 
                {"id": 22, "lemma": "다시", "type": "MAG", "position": 151, "weight": 0.0572153}, 
                {"id": 23, "lemma": "남", "type": "NNG", "position": 158, "weight": 0.131474}, 
                {"id": 24, "lemma": "으로", "type": "JKB", "position": 161, "weight": 0.153406}, 
                {"id": 25, "lemma": "내려가", "type": "VV", "position": 168, "weight": 0.9}, 
                {"id": 26, "lemma": "ㄴ다", "type": "EF", "position": 174, "weight": 0.0793196}, 
                {"id": 27, "lemma": ".", "type": "SF", "position": 180, "weight": 1}
            ], 
            "morp_eval": [], 
            "WSD": [
                {"id": 0, "text": "춘분", "type": "NNG", "scode": "000000", "weight": 1, "position": 55, "begin": 0, "end": 0}, 
                {"id": 1, "text": "에", "type": "JKB", "scode": "000000", "weight": 1, "position": 61, "begin": 1, "end": 1}, 
                {"id": 2, "text": "적도", "type": "NNG", "scode": "020001", "weight": 0.125, "position": 65, "begin": 2, "end": 2}, 
                {"id": 3, "text": "에", "type": "JKB", "scode": "000000", "weight": 1, "position": 71, "begin": 3, "end": 3}, 
                {"id": 4, "text": "있", "type": "VA", "scode": "010401", "weight": 0.0416667, "position": 75, "begin": 4, "end": 4}, 
                {"id": 5, "text": "던", "type": "ETM", "scode": "000000", "weight": 1, "position": 78, "begin": 5, "end": 5}, 
                {"id": 6, "text": "해", "type": "NNG", "scode": "010001", "weight": 0.0333333, "position": 82, "begin": 6, "end": 6}, 
                {"id": 7, "text": "가", "type": "JKS", "scode": "000000", "weight": 1, "position": 85, "begin": 7, "end": 7}, 
                {"id": 8, "text": "점점", "type": "MAG", "scode": "010000", "weight": 0.333333, "position": 89, "begin": 8, "end": 8}, 
                {"id": 9, "text": "북", "type": "NNG", "scode": "070001", "weight": 0.0833333, "position": 96, "begin": 9, "end": 9}, 
                {"id": 10, "text": "으로", "type": "JKB", "scode": "000000", "weight": 1, "position": 99, "begin": 10, "end": 10}, 
                {"id": 11, "text": "올라가", "type": "VV", "scode": "000101", "weight": 0.0625, "position": 106, "begin": 11, "end": 11}, 
                {"id": 12, "text": "아", "type": "EC", "scode": "000000", "weight": 1, "position": 112, "begin": 12, "end": 12}, 
                {"id": 13, "text": "하지", "type": "NNG", "scode": "080000", "weight": 0.0909091, "position": 116, "begin": 13, "end": 13}, 
                {"id": 14, "text": "에", "type": "JKB", "scode": "000000", "weight": 1, "position": 122, "begin": 14, "end": 14}, 
                {"id": 15, "text": "이", "type": "MM", "scode": "050102", "weight": 0.0172414, "position": 126, "begin": 15, "end": 15}, 
                {"id": 16, "text": "선", "type": "NNG", "scode": "140001", "weight": 0.025, "position": 130, "begin": 16, "end": 16}, 
                {"id": 17, "text": "을", "type": "JKO", "scode": "000000", "weight": 1, "position": 133, "begin": 17, "end": 17}, 
                {"id": 18, "text": "통과하", "type": "VV", "scode": "000101", "weight": 0.2, "position": 137, "begin": 18, "end": 19}, 
                {"id": 19, "text": "고", "type": "EC", "scode": "000000", "weight": 1, "position": 146, "begin": 20, "end": 20}, 
                {"id": 20, "text": ",", "type": "SP", "scode": "000000", "weight": 1, "position": 149, "begin": 21, "end": 21}, 
                {"id": 21, "text": "다시", "type": "MAG", "scode": "010001", "weight": 0.1, "position": 151, "begin": 22, "end": 22}, 
                {"id": 22, "text": "남", "type": "NNG", "scode": "040001", "weight": 0.0769231, "position": 158, "begin": 23, "end": 23}, 
                {"id": 23, "text": "으로", "type": "JKB", "scode": "000000", "weight": 1, "position": 161, "begin": 24, "end": 24}, 
                {"id": 24, "text": "내려가", "type": "VV", "scode": "000101", "weight": 0.1, "position": 168, "begin": 25, "end": 25}, 
                {"id": 25, "text": "ㄴ다", "type": "EF", "scode": "000000", "weight": 1, "position": 174, "begin": 26, "end": 26}, 
                {"id": 26, "text": ".", "type": "SF", "scode": "000000", "weight": 1, "position": 180, "begin": 27, "end": 27}
            ], 
            "word": [
                {"id": 0, "text": "춘분에", "type": "", "begin": 0, "end": 1}, 
                {"id": 1, "text": "적도에", "type": "", "begin": 2, "end": 3}, 
                {"id": 2, "text": "있던", "type": "", "begin": 4, "end": 5}, 
                {"id": 3, "text": "해가", "type": "", "begin": 6, "end": 7}, 
                {"id": 4, "text": "점점", "type": "", "begin": 8, "end": 8}, 
                {"id": 5, "text": "북으로", "type": "", "begin": 9, "end": 10}, 
                {"id": 6, "text": "올라가", "type": "", "begin": 11, "end": 12}, 
                {"id": 7, "text": "하지에", "type": "", "begin": 13, "end": 14}, 
                {"id": 8, "text": "이", "type": "", "begin": 15, "end": 15}, 
                {"id": 9, "text": "선을", "type": "", "begin": 16, "end": 17}, 
                {"id": 10, "text": "통과하고,", "type": "", "begin": 18, "end": 21}, 
                {"id": 11, "text": "다시", "type": "", "begin": 22, "end": 22}, 
                {"id": 12, "text": "남으로", "type": "", "begin": 23, "end": 24}, 
                {"id": 13, "text": "내려간다.", "type": "", "begin": 25, "end": 27}
            ], 
            "NE": [
                {"id": 0, "text": "춘분", "type": "DT_DAY", "begin": 0, "end": 0, "weight": 0.601639, "common_noun": 0}, 
                {"id": 1, "text": "적도", "type": "LC_OTHERS", "begin": 2, "end": 2, "weight": 0.219926, "common_noun": 0}, 
                {"id": 2, "text": "북", "type": "TM_DIRECTION", "begin": 9, "end": 9, "weight": 0.266117, "common_noun": 0}, 
                {"id": 3, "text": "하지", "type": "DT_DAY", "begin": 13, "end": 13, "weight": 0.601639, "common_noun": 0}, 
                {"id": 4, "text": "남", "type": "TM_DIRECTION", "begin": 23, "end": 23, "weight": 0.266117, "common_noun": 0}
            ], 
            "chunk": [], 
            "dependency": [
                {"id": 0, "text": "춘분에", "head": 6, "label": "NP_AJT", "mod": [], "weight": 0.705787}, 
                {"id": 1, "text": "적도에", "head": 2, "label": "NP_AJT", "mod": [], "weight": 0.537816}, 
                {"id": 2, "text": "있던", "head": 3, "label": "VP_MOD", "mod": [1], "weight": 0.815117}, 
                {"id": 3, "text": "해가", "head": 6, "label": "NP_SBJ", "mod": [2], "weight": 0.806107}, 
                {"id": 4, "text": "점점", "head": 6, "label": "AP", "mod": [], "weight": 0.850438}, 
                {"id": 5, "text": "북으로", "head": 6, "label": "NP_AJT", "mod": [], "weight": 0.822594}, 
                {"id": 6, "text": "올라가", "head": 10, "label": "VP", "mod": [0, 3, 4, 5], "weight": 0.828488}, 
                {"id": 7, "text": "하지에", "head": 10, "label": "NP_AJT", "mod": [], "weight": 0.658278}, 
                {"id": 8, "text": "이", "head": 9, "label": "DP", "mod": [], "weight": 0.692129}, 
                {"id": 9, "text": "선을", "head": 10, "label": "NP_OBJ", "mod": [8], "weight": 0.810925}, 
                {"id": 10, "text": "통과하고,", "head": 13, "label": "VP", "mod": [6, 7, 9], "weight": 0.809294}, 
                {"id": 11, "text": "다시", "head": 13, "label": "AP", "mod": [], "weight": 0.722234}, 
                {"id": 12, "text": "남으로", "head": 13, "label": "NP_AJT", "mod": [], "weight": 0.865806}, 
                {"id": 13, "text": "내려간다.", "head": -1, "label": "VP", "mod": [10, 11, 12], "weight": 0.0237196}
            ], 
            "SRL": [
                {"verb": "있", "sense": 1, "word_id": 2, "weight": 0.210111, "argument": [
                    {"type": "ARG2", "word_id": 1, "text": "적도에", "weight": 0.136842}, 
                    {"type": "ARG1", "word_id": 3, "text": "해가", "weight": 0.28338}
                ]}, 
                {"verb": "올라가", "sense": 1, "word_id": 6, "weight": 0.130669, "argument": [
                    {"type": "ARG0", "word_id": 3, "text": "해가", "weight": 0.127743}, 
                    {"type": "ARG3", "word_id": 5, "text": "북으로", "weight": 0.150964}, 
                    {"type": "ARG2", "word_id": 1, "text": "적도에", "weight": 1}, 
                    {"type": "ARGM-TMP", "word_id": 0, "text": "춘분에", "weight": 1}, 
                    {"type": "ARGM-ADV", "word_id": 4, "text": "점점", "weight": 1}
                ]}, 
                {"verb": "통과", "sense": 1, "word_id": 10, "weight": 0.151623, "argument": [
                    {"type": "ARGM-TMP", "word_id": 7, "text": "하지에", "weight": 1}, 
                    {"type": "ARG1", "word_id": 9, "text": "선을", "weight": 0.2151}, 
                    {"type": "ARG0", "word_id": 3, "text": "해가", "weight": 1}
                ]}, 
                {"verb": "내려가", "sense": 1, "word_id": 13, "weight": 0.131539, "argument": [
                    {"type": "ARG3", "word_id": 12, "text": "남으로", "weight": 0.0895277}, 
                    {"type": "ARG0", "word_id": 3, "text": "해가", "weight": 1}
                ]}
            ], 
            "relation": [], 
            "SA": [], 
            "ZA": []
        }
    ], 
    "entity": [
        {"id": 0, "type": "TI_DURATION", "number": "singular", "gender": "", "person": "", "animacy": "time", "mention": [
            {"id": 2, "sent_id": 0, "start_eid": 1, "end_eid": 3, "ne_id": 1, "text": "북위 23도 27분의", "start_eid_short": 1, "end_eid_short": 3, "text_short": "북위 23도 27분의"}
        ]}, 
        {"id": 1, "type": "QT_OTHERS", "number": "singular", "gender": "", "person": "", "animacy": "thing", "mention": [
            {"id": 3, "sent_id": 0, "start_eid": 1, "end_eid": 2, "ne_id": 0, "text": "북위 23도", "start_eid_short": 1, "end_eid_short": 2, "text_short": "북위 23도"}
        ]}, 
        {"id": 2, "type": "", "number": "singular", "gender": "", "person": "", "animacy": "thing", "mention": [
            {"id": 1, "sent_id": 0, "start_eid": 1, "end_eid": 4, "ne_id": -1, "text": "북위 23도 27분의 위도를", "start_eid_short": 4, "end_eid_short": 4, "text_short": "위도를"}
        ]}, 
        {"id": 3, "type": "DT_OTHERS", "number": "singular", "gender": "", "person": "", "animacy": "time", "mention": [
            {"id": 4, "sent_id": 1, "start_eid": 0, "end_eid": 0, "ne_id": 0, "text": "춘분에", "start_eid_short": 0, "end_eid_short": 0, "text_short": "춘분에"}
        ]}, 
        {"id": 4, "type": "", "number": "singular", "gender": "", "person": "", "animacy": "thing", "mention": [
            {"id": 5, "sent_id": 1, "start_eid": 1, "end_eid": 3, "ne_id": -1, "text": "적도에 있던 해가", "start_eid_short": 3, "end_eid_short": 3, "text_short": "해가"}
        ]}, 
        {"id": 5, "type": "", "number": "singular", "gender": "", "person": "", "animacy": "thing", "mention": [
            {"id": 6, "sent_id": 1, "start_eid": 1, "end_eid": 1, "ne_id": -1, "text": "적도에", "start_eid_short": 1, "end_eid_short": 1, "text_short": "적도에"}
        ]}, 
        {"id": 6, "type": "TM_DIRECTION", "number": "singular", "gender": "", "person": "", "animacy": "thing", "mention": [
            {"id": 7, "sent_id": 1, "start_eid": 5, "end_eid": 5, "ne_id": 1, "text": "북으로", "start_eid_short": 5, "end_eid_short": 5, "text_short": "북으로"}
        ]}, 
        {"id": 7, "type": "", "number": "singular", "gender": "", "person": "", "animacy": "thing", "mention": [
            {"id": 8, "sent_id": 1, "start_eid": 7, "end_eid": 7, "ne_id": -1, "text": "하지에", "start_eid_short": 7, "end_eid_short": 7, "text_short": "하지에"}
        ]}, 
        {"id": 8, "type": "", "number": "singular", "gender": "", "person": "", "animacy": "thing", "mention": [
            {"id": 10, "sent_id": 1, "start_eid": 12, "end_eid": 12, "ne_id": -1, "text": "남으로", "start_eid_short": 12, "end_eid_short": 12, "text_short": "남으로"}
        ]}, 
        {"id": 9, "type": "", "number": "singular", "gender": "", "person": "", "animacy": "thing", "mention": [
            {"id": 0, "sent_id": 0, "start_eid": 1, "end_eid": 6, "ne_id": -1, "text": "북위 23도 27분의 위도를 연결한 선.", "start_eid_short": 6, "end_eid_short": 6, "text_short": "선."}, 
            {"id": 9, "sent_id": 1, "start_eid": 8, "end_eid": 9, "ne_id": -1, "text": "이 선을", "start_eid_short": 8, "end_eid_short": 9, "text_short": "이 선을"}
        ]}
    ]
}