{
    "doc_id": "E2016.835.14_Q_01.json", 
    "DCT": "", 
    "category": "", 
    "category_weight": 0, 
    "title": {
        "text": "", 
        "NE": ""
    }, 
    "metaInfo": {}, 
    "sentence": [
        {
            "id": 0, 
            "reserve_str": "", 
            "text": "이것은 소규모 수공업 생산에서 대량생산이 가능한 공장제 공업으로 전환된 산업의 변화를 말한다.", 
            "morp": [
                {"id": 0, "lemma": "이것", "type": "NP", "position": 0, "weight": 0.0733657}, 
                {"id": 1, "lemma": "은", "type": "JX", "position": 6, "weight": 0.191811}, 
                {"id": 2, "lemma": "소", "type": "XPN", "position": 10, "weight": 0.0001}, 
                {"id": 3, "lemma": "규모", "type": "NNG", "position": 13, "weight": 0.9}, 
                {"id": 4, "lemma": "수공", "type": "NNG", "position": 20, "weight": 0.9}, 
                {"id": 5, "lemma": "업", "type": "XSN", "position": 26, "weight": 0.0115253}, 
                {"id": 6, "lemma": "생산", "type": "NNG", "position": 30, "weight": 0.9}, 
                {"id": 7, "lemma": "에서", "type": "JKB", "position": 36, "weight": 0.153407}, 
                {"id": 8, "lemma": "대량", "type": "NNG", "position": 43, "weight": 0.9}, 
                {"id": 9, "lemma": "생산", "type": "NNG", "position": 49, "weight": 0.9}, 
                {"id": 10, "lemma": "이", "type": "JKS", "position": 55, "weight": 0.0360723}, 
                {"id": 11, "lemma": "가능", "type": "NNG", "position": 59, "weight": 0.208321}, 
                {"id": 12, "lemma": "하", "type": "XSA", "position": 65, "weight": 0.0001}, 
                {"id": 13, "lemma": "ㄴ", "type": "ETM", "position": 65, "weight": 0.488779}, 
                {"id": 14, "lemma": "공장", "type": "NNG", "position": 69, "weight": 0.9}, 
                {"id": 15, "lemma": "제", "type": "XSN", "position": 75, "weight": 0.00596315}, 
                {"id": 16, "lemma": "공업", "type": "NNG", "position": 79, "weight": 0.9}, 
                {"id": 17, "lemma": "으로", "type": "JKB", "position": 85, "weight": 0.153406}, 
                {"id": 18, "lemma": "전환", "type": "NNG", "position": 92, "weight": 0.9}, 
                {"id": 19, "lemma": "되", "type": "XSV", "position": 98, "weight": 0.000224177}, 
                {"id": 20, "lemma": "ㄴ", "type": "ETM", "position": 98, "weight": 0.392321}, 
                {"id": 21, "lemma": "산업", "type": "NNG", "position": 102, "weight": 0.658532}, 
                {"id": 22, "lemma": "의", "type": "JKG", "position": 108, "weight": 0.0694213}, 
                {"id": 23, "lemma": "변화", "type": "NNG", "position": 112, "weight": 0.9}, 
                {"id": 24, "lemma": "를", "type": "JKO", "position": 118, "weight": 0.137686}, 
                {"id": 25, "lemma": "말", "type": "NNG", "position": 122, "weight": 0.0814073}, 
                {"id": 26, "lemma": "하", "type": "XSV", "position": 125, "weight": 0.0001}, 
                {"id": 27, "lemma": "ㄴ다", "type": "EF", "position": 125, "weight": 0.0449045}, 
                {"id": 28, "lemma": ".", "type": "SF", "position": 131, "weight": 1}
            ], 
            "morp_eval": [], 
            "WSD": [
                {"id": 0, "text": "이것", "type": "NP", "scode": "000001", "weight": 0.25, "position": 0, "begin": 0, "end": 0}, 
                {"id": 1, "text": "은", "type": "JX", "scode": "000000", "weight": 1, "position": 6, "begin": 1, "end": 1}, 
                {"id": 2, "text": "소규모", "type": "NNG", "scode": "000000", "weight": 1, "position": 10, "begin": 2, "end": 3}, 
                {"id": 3, "text": "수공업", "type": "NNG", "scode": "000000", "weight": 1, "position": 20, "begin": 4, "end": 5}, 
                {"id": 4, "text": "생산", "type": "NNG", "scode": "000001", "weight": 0.5, "position": 30, "begin": 6, "end": 6}, 
                {"id": 5, "text": "에서", "type": "JKB", "scode": "000000", "weight": 1, "position": 36, "begin": 7, "end": 7}, 
                {"id": 6, "text": "대량생산", "type": "NNG", "scode": "000000", "weight": 1, "position": 43, "begin": 8, "end": 9}, 
                {"id": 7, "text": "이", "type": "JKS", "scode": "000000", "weight": 1, "position": 55, "begin": 10, "end": 10}, 
                {"id": 8, "text": "가능하", "type": "VA", "scode": "000000", "weight": 1, "position": 59, "begin": 11, "end": 12}, 
                {"id": 9, "text": "ㄴ", "type": "ETM", "scode": "000000", "weight": 1, "position": 65, "begin": 13, "end": 13}, 
                {"id": 10, "text": "공장", "type": "NNG", "scode": "020000", "weight": 0.1, "position": 69, "begin": 14, "end": 14}, 
                {"id": 11, "text": "제", "type": "XSN", "scode": "190000", "weight": 0.0322581, "position": 75, "begin": 15, "end": 15}, 
                {"id": 12, "text": "공업", "type": "NNG", "scode": "010000", "weight": 0.333333, "position": 79, "begin": 16, "end": 16}, 
                {"id": 13, "text": "으로", "type": "JKB", "scode": "000000", "weight": 1, "position": 85, "begin": 17, "end": 17}, 
                {"id": 14, "text": "전환되", "type": "VV", "scode": "000000", "weight": 1, "position": 92, "begin": 18, "end": 19}, 
                {"id": 15, "text": "ㄴ", "type": "ETM", "scode": "000000", "weight": 1, "position": 98, "begin": 20, "end": 20}, 
                {"id": 16, "text": "산업", "type": "NNG", "scode": "000000", "weight": 1, "position": 102, "begin": 21, "end": 21}, 
                {"id": 17, "text": "의", "type": "JKG", "scode": "000000", "weight": 1, "position": 108, "begin": 22, "end": 22}, 
                {"id": 18, "text": "변화", "type": "NNG", "scode": "000000", "weight": 1, "position": 112, "begin": 23, "end": 23}, 
                {"id": 19, "text": "를", "type": "JKO", "scode": "000000", "weight": 1, "position": 118, "begin": 24, "end": 24}, 
                {"id": 20, "text": "말하", "type": "VV", "scode": "000101", "weight": 0.125, "position": 122, "begin": 25, "end": 26}, 
                {"id": 21, "text": "ㄴ다", "type": "EF", "scode": "000000", "weight": 1, "position": 125, "begin": 27, "end": 27}, 
                {"id": 22, "text": ".", "type": "SF", "scode": "000000", "weight": 1, "position": 131, "begin": 28, "end": 28}
            ], 
            "word": [
                {"id": 0, "text": "이것은", "type": "", "begin": 0, "end": 1}, 
                {"id": 1, "text": "소규모", "type": "", "begin": 2, "end": 3}, 
                {"id": 2, "text": "수공업", "type": "", "begin": 4, "end": 5}, 
                {"id": 3, "text": "생산에서", "type": "", "begin": 6, "end": 7}, 
                {"id": 4, "text": "대량생산이", "type": "", "begin": 8, "end": 10}, 
                {"id": 5, "text": "가능한", "type": "", "begin": 11, "end": 13}, 
                {"id": 6, "text": "공장제", "type": "", "begin": 14, "end": 15}, 
                {"id": 7, "text": "공업으로", "type": "", "begin": 16, "end": 17}, 
                {"id": 8, "text": "전환된", "type": "", "begin": 18, "end": 20}, 
                {"id": 9, "text": "산업의", "type": "", "begin": 21, "end": 22}, 
                {"id": 10, "text": "변화를", "type": "", "begin": 23, "end": 24}, 
                {"id": 11, "text": "말한다.", "type": "", "begin": 25, "end": 28}
            ], 
            "NE": [], 
            "chunk": [], 
            "dependency": [
                {"id": 0, "text": "이것은", "head": 11, "label": "NP_SBJ", "mod": [], "weight": 0.779874}, 
                {"id": 1, "text": "소규모", "head": 3, "label": "NP", "mod": [], "weight": 0.318605}, 
                {"id": 2, "text": "수공업", "head": 3, "label": "NP", "mod": [], "weight": 0.754886}, 
                {"id": 3, "text": "생산에서", "head": 7, "label": "NP_AJT", "mod": [1, 2], "weight": 0.335424}, 
                {"id": 4, "text": "대량생산이", "head": 5, "label": "NP_SBJ", "mod": [], "weight": 0.553147}, 
                {"id": 5, "text": "가능한", "head": 7, "label": "VP_MOD", "mod": [4], "weight": 0.523692}, 
                {"id": 6, "text": "공장제", "head": 7, "label": "NP", "mod": [], "weight": 0.534995}, 
                {"id": 7, "text": "공업으로", "head": 8, "label": "NP_AJT", "mod": [5, 6, 3], "weight": 0.740937}, 
                {"id": 8, "text": "전환된", "head": 10, "label": "VP_MOD", "mod": [7], "weight": 0.705319}, 
                {"id": 9, "text": "산업의", "head": 10, "label": "NP_MOD", "mod": [], "weight": 0.678721}, 
                {"id": 10, "text": "변화를", "head": 11, "label": "NP_OBJ", "mod": [8, 9], "weight": 0.809308}, 
                {"id": 11, "text": "말한다.", "head": -1, "label": "VP", "mod": [0, 10], "weight": 0.00233433}
            ], 
            "SRL": [
                {"verb": "가능", "sense": 1, "word_id": 5, "weight": 0.0984815, "argument": [
                    {"type": "ARG1", "word_id": 4, "text": "대량생산이", "weight": 0.0984815}
                ]}, 
                {"verb": "전환", "sense": 1, "word_id": 8, "weight": 0.1327, "argument": [
                    {"type": "ARG3", "word_id": 7, "text": "공업으로", "weight": 0.131714}, 
                    {"type": "ARG2", "word_id": 3, "text": "생산에서", "weight": 1}
                ]}, 
                {"verb": "말하", "sense": 1, "word_id": 11, "weight": 0.137327, "argument": [
                    {"type": "ARG1", "word_id": 10, "text": "변화를", "weight": 0.137327}
                ]}
            ], 
            "relation": [], 
            "SA": [], 
            "ZA": []
        }, 
        {
            "id": 1, 
            "reserve_str": "", 
            "text": "방직기계의 등장으로 영국에서 제일 먼저 일어났는데 이 혁명은?", 
            "morp": [
                {"id": 0, "lemma": "방직", "type": "NNG", "position": 132, "weight": 0.9}, 
                {"id": 1, "lemma": "기계", "type": "NNG", "position": 138, "weight": 0.184799}, 
                {"id": 2, "lemma": "의", "type": "JKG", "position": 144, "weight": 0.0694213}, 
                {"id": 3, "lemma": "등장", "type": "NNG", "position": 148, "weight": 0.9}, 
                {"id": 4, "lemma": "으로", "type": "JKB", "position": 154, "weight": 0.153406}, 
                {"id": 5, "lemma": "영국", "type": "NNP", "position": 161, "weight": 0.9}, 
                {"id": 6, "lemma": "에서", "type": "JKB", "position": 167, "weight": 0.0823859}, 
                {"id": 7, "lemma": "제일", "type": "MAG", "position": 174, "weight": 0.0285313}, 
                {"id": 8, "lemma": "먼저", "type": "MAG", "position": 181, "weight": 0.0440203}, 
                {"id": 9, "lemma": "일어나", "type": "VV", "position": 188, "weight": 0.9}, 
                {"id": 10, "lemma": "았", "type": "EP", "position": 194, "weight": 0.9}, 
                {"id": 11, "lemma": "는데", "type": "EC", "position": 197, "weight": 0.188154}, 
                {"id": 12, "lemma": "이", "type": "MM", "position": 204, "weight": 0.000947656}, 
                {"id": 13, "lemma": "혁명", "type": "NNG", "position": 208, "weight": 0.9}, 
                {"id": 14, "lemma": "은", "type": "JX", "position": 214, "weight": 0.0449928}, 
                {"id": 15, "lemma": "?", "type": "SF", "position": 217, "weight": 1}
            ], 
            "morp_eval": [], 
            "WSD": [
                {"id": 0, "text": "방직기계", "type": "NNG", "scode": "000000", "weight": 1, "position": 132, "begin": 0, "end": 1}, 
                {"id": 1, "text": "의", "type": "JKG", "scode": "000000", "weight": 1, "position": 144, "begin": 2, "end": 2}, 
                {"id": 2, "text": "등장", "type": "NNG", "scode": "010002", "weight": 0.2, "position": 148, "begin": 3, "end": 3}, 
                {"id": 3, "text": "으로", "type": "JKB", "scode": "000000", "weight": 1, "position": 154, "begin": 4, "end": 4}, 
                {"id": 4, "text": "영국", "type": "NNP", "scode": "010000", "weight": 0.5, "position": 161, "begin": 5, "end": 5}, 
                {"id": 5, "text": "에서", "type": "JKB", "scode": "000000", "weight": 1, "position": 167, "begin": 6, "end": 6}, 
                {"id": 6, "text": "제일", "type": "MAG", "scode": "040000", "weight": 0.2, "position": 174, "begin": 7, "end": 7}, 
                {"id": 7, "text": "먼저", "type": "MAG", "scode": "000200", "weight": 0.5, "position": 181, "begin": 8, "end": 8}, 
                {"id": 8, "text": "일어나", "type": "VV", "scode": "000207", "weight": 0.0909091, "position": 188, "begin": 9, "end": 9}, 
                {"id": 9, "text": "았", "type": "EP", "scode": "000000", "weight": 1, "position": 194, "begin": 10, "end": 10}, 
                {"id": 10, "text": "는데", "type": "EC", "scode": "000000", "weight": 1, "position": 197, "begin": 11, "end": 11}, 
                {"id": 11, "text": "이", "type": "MM", "scode": "050102", "weight": 0.0172414, "position": 204, "begin": 12, "end": 12}, 
                {"id": 12, "text": "혁명", "type": "NNG", "scode": "000003", "weight": 0.333333, "position": 208, "begin": 13, "end": 13}, 
                {"id": 13, "text": "은", "type": "JX", "scode": "000000", "weight": 1, "position": 214, "begin": 14, "end": 14}, 
                {"id": 14, "text": "?", "type": "SF", "scode": "000000", "weight": 1, "position": 217, "begin": 15, "end": 15}
            ], 
            "word": [
                {"id": 0, "text": "방직기계의", "type": "", "begin": 0, "end": 2}, 
                {"id": 1, "text": "등장으로", "type": "", "begin": 3, "end": 4}, 
                {"id": 2, "text": "영국에서", "type": "", "begin": 5, "end": 6}, 
                {"id": 3, "text": "제일", "type": "", "begin": 7, "end": 7}, 
                {"id": 4, "text": "먼저", "type": "", "begin": 8, "end": 8}, 
                {"id": 5, "text": "일어났는데", "type": "", "begin": 9, "end": 11}, 
                {"id": 6, "text": "이", "type": "", "begin": 12, "end": 12}, 
                {"id": 7, "text": "혁명은?", "type": "", "begin": 13, "end": 15}
            ], 
            "NE": [
                {"id": 0, "text": "영국", "type": "LCP_COUNTRY", "begin": 5, "end": 5, "weight": 0.644083, "common_noun": 0}
            ], 
            "chunk": [], 
            "dependency": [
                {"id": 0, "text": "방직기계의", "head": 1, "label": "NP_MOD", "mod": [], "weight": 0.78034}, 
                {"id": 1, "text": "등장으로", "head": 5, "label": "NP_AJT", "mod": [0], "weight": 0.715124}, 
                {"id": 2, "text": "영국에서", "head": 5, "label": "NP_AJT", "mod": [], "weight": 0.755304}, 
                {"id": 3, "text": "제일", "head": 4, "label": "NP_AJT", "mod": [], "weight": 0.204766}, 
                {"id": 4, "text": "먼저", "head": 5, "label": "AP", "mod": [3], "weight": 0.693351}, 
                {"id": 5, "text": "일어났는데", "head": 7, "label": "VP", "mod": [1, 2, 4], "weight": 0.7412}, 
                {"id": 6, "text": "이", "head": 7, "label": "DP", "mod": [], "weight": 0.855388}, 
                {"id": 7, "text": "혁명은?", "head": -1, "label": "NP_SBJ", "mod": [5, 6], "weight": 0.0185326}
            ], 
            "SRL": [
                {"verb": "일어나", "sense": 1, "word_id": 5, "weight": 0.108612, "argument": [
                    {"type": "ARGM-CAU", "word_id": 1, "text": "등장으로", "weight": 1}, 
                    {"type": "ARGM-LOC", "word_id": 2, "text": "영국에서", "weight": 0.143562}, 
                    {"type": "ARG1", "word_id": 7, "text": "혁명은?", "weight": 1}, 
                    {"type": "ARGM-ADV", "word_id": 4, "text": "먼저", "weight": 1}
                ]}
            ], 
            "relation": [], 
            "SA": [], 
            "ZA": []
        }
    ], 
    "entity": [
        {"id": 0, "type": "", "number": "singular", "gender": "", "person": "", "animacy": "thing", "mention": [
            {"id": 0, "sent_id": 0, "start_eid": 0, "end_eid": 0, "ne_id": -1, "text": "이것은", "start_eid_short": 0, "end_eid_short": 0, "text_short": "이것은"}, 
            {"id": 1, "sent_id": 0, "start_eid": 1, "end_eid": 10, "ne_id": -1, "text": "소규모 수공업 생산에서 대량생산이 가능한 공장제 공업으로 전환된 산업의 변화를", "start_eid_short": 10, "end_eid_short": 10, "text_short": "변화를"}, 
            {"id": 12, "sent_id": 1, "start_eid": 6, "end_eid": 7, "ne_id": -1, "text": "이 혁명은?", "start_eid_short": 7, "end_eid_short": 7, "text_short": "혁명은?"}
        ]}, 
        {"id": 1, "type": "", "number": "singular", "gender": "", "person": "", "animacy": "thing", "mention": [
            {"id": 2, "sent_id": 0, "start_eid": 1, "end_eid": 3, "ne_id": -1, "text": "소규모 수공업 생산에서", "start_eid_short": 1, "end_eid_short": 3, "text_short": "소규모 수공업 생산에서"}
        ]}, 
        {"id": 2, "type": "", "number": "singular", "gender": "", "person": "", "animacy": "thing", "mention": [
            {"id": 3, "sent_id": 0, "start_eid": 1, "end_eid": 1, "ne_id": -1, "text": "소규모", "start_eid_short": 1, "end_eid_short": 1, "text_short": "소규모"}
        ]}, 
        {"id": 3, "type": "", "number": "singular", "gender": "", "person": "", "animacy": "thing", "mention": [
            {"id": 4, "sent_id": 0, "start_eid": 2, "end_eid": 2, "ne_id": -1, "text": "수공업", "start_eid_short": 2, "end_eid_short": 2, "text_short": "수공업"}
        ]}, 
        {"id": 4, "type": "", "number": "singular", "gender": "", "person": "", "animacy": "thing", "mention": [
            {"id": 5, "sent_id": 0, "start_eid": 4, "end_eid": 7, "ne_id": -1, "text": "대량생산이 가능한 공장제 공업으로", "start_eid_short": 6, "end_eid_short": 7, "text_short": "공장제 공업으로"}
        ]}, 
        {"id": 5, "type": "", "number": "singular", "gender": "", "person": "", "animacy": "thing", "mention": [
            {"id": 6, "sent_id": 0, "start_eid": 4, "end_eid": 4, "ne_id": -1, "text": "대량생산이", "start_eid_short": 4, "end_eid_short": 4, "text_short": "대량생산이"}
        ]}, 
        {"id": 6, "type": "", "number": "singular", "gender": "", "person": "", "animacy": "thing", "mention": [
            {"id": 7, "sent_id": 0, "start_eid": 6, "end_eid": 6, "ne_id": -1, "text": "공장제", "start_eid_short": 6, "end_eid_short": 6, "text_short": "공장제"}
        ]}, 
        {"id": 7, "type": "", "number": "singular", "gender": "", "person": "", "animacy": "thing", "mention": [
            {"id": 8, "sent_id": 0, "start_eid": 9, "end_eid": 9, "ne_id": -1, "text": "산업의", "start_eid_short": 9, "end_eid_short": 9, "text_short": "산업의"}
        ]}, 
        {"id": 8, "type": "", "number": "singular", "gender": "", "person": "", "animacy": "thing", "mention": [
            {"id": 9, "sent_id": 1, "start_eid": 0, "end_eid": 1, "ne_id": -1, "text": "방직기계의 등장으로", "start_eid_short": 1, "end_eid_short": 1, "text_short": "등장으로"}
        ]}, 
        {"id": 9, "type": "", "number": "singular", "gender": "", "person": "", "animacy": "thing", "mention": [
            {"id": 10, "sent_id": 1, "start_eid": 0, "end_eid": 0, "ne_id": -1, "text": "방직기계의", "start_eid_short": 0, "end_eid_short": 0, "text_short": "방직기계의"}
        ]}, 
        {"id": 10, "type": "LCP_COUNTRY", "number": "singular", "gender": "", "person": "", "animacy": "place", "mention": [
            {"id": 11, "sent_id": 1, "start_eid": 2, "end_eid": 2, "ne_id": 0, "text": "영국에서", "start_eid_short": 2, "end_eid_short": 2, "text_short": "영국에서"}
        ]}
    ]
}