{
    "doc_id": "E2016.835.09_Q_01.json", 
    "DCT": "", 
    "category": "", 
    "category_weight": 0, 
    "title": {
        "text": "", 
        "NE": ""
    }, 
    "metaInfo": {}, 
    "sentence": [
        {
            "id": 0, 
            "reserve_str": "", 
            "text": "이탈리아 로마에 있는 로마 제정 시대의 건축물로 정식명칭은 '플라비우스 원형경기장'이다.", 
            "morp": [
                {"id": 0, "lemma": "이탈리아", "type": "NNP", "position": 0, "weight": 0.9}, 
                {"id": 1, "lemma": "로마", "type": "NNP", "position": 13, "weight": 0.0359125}, 
                {"id": 2, "lemma": "에", "type": "JKB", "position": 19, "weight": 0.0823628}, 
                {"id": 3, "lemma": "있", "type": "VA", "position": 23, "weight": 0.037292}, 
                {"id": 4, "lemma": "는", "type": "ETM", "position": 26, "weight": 0.26168}, 
                {"id": 5, "lemma": "로마", "type": "NNP", "position": 30, "weight": 0.36662}, 
                {"id": 6, "lemma": "제정", "type": "NNG", "position": 37, "weight": 0.184625}, 
                {"id": 7, "lemma": "시대", "type": "NNG", "position": 44, "weight": 0.9}, 
                {"id": 8, "lemma": "의", "type": "JKG", "position": 50, "weight": 0.0694213}, 
                {"id": 9, "lemma": "건축", "type": "NNG", "position": 54, "weight": 0.9}, 
                {"id": 10, "lemma": "물", "type": "XSN", "position": 60, "weight": 0.00142289}, 
                {"id": 11, "lemma": "로", "type": "JKB", "position": 63, "weight": 0.121577}, 
                {"id": 12, "lemma": "정식", "type": "NNG", "position": 67, "weight": 0.205986}, 
                {"id": 13, "lemma": "명칭", "type": "NNG", "position": 73, "weight": 0.9}, 
                {"id": 14, "lemma": "은", "type": "JX", "position": 79, "weight": 0.0449928}, 
                {"id": 15, "lemma": "'", "type": "SS", "position": 83, "weight": 1}, 
                {"id": 16, "lemma": "플라비우스", "type": "NNP", "position": 84, "weight": 0.6}, 
                {"id": 17, "lemma": "원형", "type": "NNG", "position": 100, "weight": 0.281022}, 
                {"id": 18, "lemma": "경기", "type": "NNG", "position": 106, "weight": 0.135556}, 
                {"id": 19, "lemma": "장", "type": "XSN", "position": 112, "weight": 0.0110513}, 
                {"id": 20, "lemma": "'", "type": "SS", "position": 115, "weight": 1}, 
                {"id": 21, "lemma": "이", "type": "VCP", "position": 116, "weight": 0.00747344}, 
                {"id": 22, "lemma": "다", "type": "EF", "position": 119, "weight": 0.353579}, 
                {"id": 23, "lemma": ".", "type": "SF", "position": 122, "weight": 1}
            ], 
            "morp_eval": [], 
            "WSD": [
                {"id": 0, "text": "이탈리아", "type": "NNP", "scode": "000000", "weight": 1, "position": 0, "begin": 0, "end": 0}, 
                {"id": 1, "text": "로마", "type": "NNP", "scode": "020003", "weight": 0.2, "position": 13, "begin": 1, "end": 1}, 
                {"id": 2, "text": "에", "type": "JKB", "scode": "000000", "weight": 1, "position": 19, "begin": 2, "end": 2}, 
                {"id": 3, "text": "있", "type": "VA", "scode": "010301", "weight": 0.0416667, "position": 23, "begin": 3, "end": 3}, 
                {"id": 4, "text": "는", "type": "ETM", "scode": "000000", "weight": 1, "position": 26, "begin": 4, "end": 4}, 
                {"id": 5, "text": "로마", "type": "NNP", "scode": "020003", "weight": 0.2, "position": 30, "begin": 5, "end": 5}, 
                {"id": 6, "text": "제정", "type": "NNG", "scode": "020001", "weight": 0.142857, "position": 37, "begin": 6, "end": 6}, 
                {"id": 7, "text": "시대", "type": "NNG", "scode": "020001", "weight": 0.333333, "position": 44, "begin": 7, "end": 7}, 
                {"id": 8, "text": "의", "type": "JKG", "scode": "000000", "weight": 1, "position": 50, "begin": 8, "end": 8}, 
                {"id": 9, "text": "건축물", "type": "NNG", "scode": "000000", "weight": 1, "position": 54, "begin": 9, "end": 10}, 
                {"id": 10, "text": "로", "type": "JKB", "scode": "000000", "weight": 1, "position": 63, "begin": 11, "end": 11}, 
                {"id": 11, "text": "정식", "type": "NNG", "scode": "010000", "weight": 0.0666667, "position": 67, "begin": 12, "end": 12}, 
                {"id": 12, "text": "명칭", "type": "NNG", "scode": "020000", "weight": 0.5, "position": 73, "begin": 13, "end": 13}, 
                {"id": 13, "text": "은", "type": "JX", "scode": "000000", "weight": 1, "position": 79, "begin": 14, "end": 14}, 
                {"id": 14, "text": "'", "type": "SS", "scode": "000000", "weight": 1, "position": 83, "begin": 15, "end": 15}, 
                {"id": 15, "text": "플라비우스", "type": "NNP", "scode": "000000", "weight": 0, "position": 84, "begin": 16, "end": 16}, 
                {"id": 16, "text": "원형경기장", "type": "NNG", "scode": "000000", "weight": 1, "position": 100, "begin": 17, "end": 19}, 
                {"id": 17, "text": "'", "type": "SS", "scode": "000000", "weight": 1, "position": 115, "begin": 20, "end": 20}, 
                {"id": 18, "text": "이", "type": "VCP", "scode": "030000", "weight": 0.0172414, "position": 116, "begin": 21, "end": 21}, 
                {"id": 19, "text": "다", "type": "EF", "scode": "000000", "weight": 1, "position": 119, "begin": 22, "end": 22}, 
                {"id": 20, "text": ".", "type": "SF", "scode": "000000", "weight": 1, "position": 122, "begin": 23, "end": 23}
            ], 
            "word": [
                {"id": 0, "text": "이탈리아", "type": "", "begin": 0, "end": 0}, 
                {"id": 1, "text": "로마에", "type": "", "begin": 1, "end": 2}, 
                {"id": 2, "text": "있는", "type": "", "begin": 3, "end": 4}, 
                {"id": 3, "text": "로마", "type": "", "begin": 5, "end": 5}, 
                {"id": 4, "text": "제정", "type": "", "begin": 6, "end": 6}, 
                {"id": 5, "text": "시대의", "type": "", "begin": 7, "end": 8}, 
                {"id": 6, "text": "건축물로", "type": "", "begin": 9, "end": 11}, 
                {"id": 7, "text": "정식명칭은", "type": "", "begin": 12, "end": 14}, 
                {"id": 8, "text": "'플라비우스", "type": "", "begin": 15, "end": 16}, 
                {"id": 9, "text": "원형경기장'이다.", "type": "", "begin": 17, "end": 23}
            ], 
            "NE": [
                {"id": 0, "text": "이탈리아", "type": "LCP_COUNTRY", "begin": 0, "end": 0, "weight": 0.630839, "common_noun": 0}, 
                {"id": 1, "text": "로마", "type": "LCP_CAPITALCITY", "begin": 1, "end": 1, "weight": 0.499003, "common_noun": 0}, 
                {"id": 2, "text": "로마 제정 시대", "type": "DT_DYNASTY", "begin": 5, "end": 7, "weight": 0.441285, "common_noun": 0}, 
                {"id": 3, "text": "플라비우스 원형경기장", "type": "AF_CULTURAL_ASSET", "begin": 16, "end": 19, "weight": 0.125305, "common_noun": 0}
            ], 
            "chunk": [], 
            "dependency": [
                {"id": 0, "text": "이탈리아", "head": 1, "label": "NP", "mod": [], "weight": 0.702032}, 
                {"id": 1, "text": "로마에", "head": 2, "label": "NP_AJT", "mod": [0], "weight": 0.76459}, 
                {"id": 2, "text": "있는", "head": 6, "label": "VP_MOD", "mod": [1], "weight": 0.807284}, 
                {"id": 3, "text": "로마", "head": 4, "label": "NP", "mod": [], "weight": 0.43012}, 
                {"id": 4, "text": "제정", "head": 5, "label": "NP", "mod": [3], "weight": 0.771794}, 
                {"id": 5, "text": "시대의", "head": 6, "label": "NP_MOD", "mod": [4], "weight": 0.777888}, 
                {"id": 6, "text": "건축물로", "head": 9, "label": "NP_AJT", "mod": [2, 5], "weight": 0.842746}, 
                {"id": 7, "text": "정식명칭은", "head": 9, "label": "NP_SBJ", "mod": [], "weight": 0.795166}, 
                {"id": 8, "text": "'플라비우스", "head": 9, "label": "NP", "mod": [], "weight": 0.796266}, 
                {"id": 9, "text": "원형경기장'이다.", "head": -1, "label": "VNP", "mod": [6, 7, 8], "weight": 0.0323077}
            ], 
            "SRL": [
                {"verb": "있", "sense": 1, "word_id": 2, "weight": 0.215432, "argument": [
                    {"type": "ARG2", "word_id": 1, "text": "로마에", "weight": 0.179795}, 
                    {"type": "ARG1", "word_id": 6, "text": "건축물로", "weight": 0.251069}
                ]}
            ], 
            "relation": [], 
            "SA": [], 
            "ZA": []
        }, 
        {
            "id": 1, 
            "reserve_str": "", 
            "text": "검투사들의 시합이나 각종 공연이 펼쳐졌던 이 건축물은?", 
            "morp": [
                {"id": 0, "lemma": "검", "type": "NNG", "position": 123, "weight": 0.0150982}, 
                {"id": 1, "lemma": "투사", "type": "NNG", "position": 126, "weight": 0.9}, 
                {"id": 2, "lemma": "들", "type": "XSN", "position": 132, "weight": 0.0299841}, 
                {"id": 3, "lemma": "의", "type": "JKG", "position": 135, "weight": 0.120732}, 
                {"id": 4, "lemma": "시합", "type": "NNG", "position": 139, "weight": 0.9}, 
                {"id": 5, "lemma": "이나", "type": "JC", "position": 145, "weight": 0.0238189}, 
                {"id": 6, "lemma": "각종", "type": "NNG", "position": 152, "weight": 0.9}, 
                {"id": 7, "lemma": "공연", "type": "NNG", "position": 159, "weight": 0.9}, 
                {"id": 8, "lemma": "이", "type": "JKS", "position": 165, "weight": 0.0360723}, 
                {"id": 9, "lemma": "펼쳐지", "type": "VV", "position": 169, "weight": 0.9}, 
                {"id": 10, "lemma": "었", "type": "EP", "position": 175, "weight": 0.9}, 
                {"id": 11, "lemma": "던", "type": "ETM", "position": 178, "weight": 0.107547}, 
                {"id": 12, "lemma": "이", "type": "MM", "position": 182, "weight": 0.00060084}, 
                {"id": 13, "lemma": "건축", "type": "NNG", "position": 186, "weight": 0.9}, 
                {"id": 14, "lemma": "물", "type": "XSN", "position": 192, "weight": 0.00142289}, 
                {"id": 15, "lemma": "은", "type": "JX", "position": 195, "weight": 0.100393}, 
                {"id": 16, "lemma": "?", "type": "SF", "position": 198, "weight": 1}
            ], 
            "morp_eval": [], 
            "WSD": [
                {"id": 0, "text": "검투사", "type": "NNG", "scode": "000000", "weight": 1, "position": 123, "begin": 0, "end": 1}, 
                {"id": 1, "text": "들", "type": "XSN", "scode": "090000", "weight": 0.0909091, "position": 132, "begin": 2, "end": 2}, 
                {"id": 2, "text": "의", "type": "JKG", "scode": "000000", "weight": 1, "position": 135, "begin": 3, "end": 3}, 
                {"id": 3, "text": "시합", "type": "NNG", "scode": "010000", "weight": 0.5, "position": 139, "begin": 4, "end": 4}, 
                {"id": 4, "text": "이나", "type": "JC", "scode": "000000", "weight": 1, "position": 145, "begin": 5, "end": 5}, 
                {"id": 5, "text": "각종", "type": "NNG", "scode": "000000", "weight": 1, "position": 152, "begin": 6, "end": 6}, 
                {"id": 6, "text": "공연", "type": "NNG", "scode": "020000", "weight": 0.25, "position": 159, "begin": 7, "end": 7}, 
                {"id": 7, "text": "이", "type": "JKS", "scode": "000000", "weight": 1, "position": 165, "begin": 8, "end": 8}, 
                {"id": 8, "text": "펼쳐지", "type": "VV", "scode": "000003", "weight": 0.333333, "position": 169, "begin": 9, "end": 9}, 
                {"id": 9, "text": "었", "type": "EP", "scode": "000000", "weight": 1, "position": 175, "begin": 10, "end": 10}, 
                {"id": 10, "text": "던", "type": "ETM", "scode": "000000", "weight": 1, "position": 178, "begin": 11, "end": 11}, 
                {"id": 11, "text": "이", "type": "MM", "scode": "050102", "weight": 0.0172414, "position": 182, "begin": 12, "end": 12}, 
                {"id": 12, "text": "건축물", "type": "NNG", "scode": "000000", "weight": 1, "position": 186, "begin": 13, "end": 14}, 
                {"id": 13, "text": "은", "type": "JX", "scode": "000000", "weight": 1, "position": 195, "begin": 15, "end": 15}, 
                {"id": 14, "text": "?", "type": "SF", "scode": "000000", "weight": 1, "position": 198, "begin": 16, "end": 16}
            ], 
            "word": [
                {"id": 0, "text": "검투사들의", "type": "", "begin": 0, "end": 3}, 
                {"id": 1, "text": "시합이나", "type": "", "begin": 4, "end": 5}, 
                {"id": 2, "text": "각종", "type": "", "begin": 6, "end": 6}, 
                {"id": 3, "text": "공연이", "type": "", "begin": 7, "end": 8}, 
                {"id": 4, "text": "펼쳐졌던", "type": "", "begin": 9, "end": 11}, 
                {"id": 5, "text": "이", "type": "", "begin": 12, "end": 12}, 
                {"id": 6, "text": "건축물은?", "type": "", "begin": 13, "end": 16}
            ], 
            "NE": [
                {"id": 0, "text": "검투사", "type": "CV_OCCUPATION", "begin": 0, "end": 1, "weight": 0.254625, "common_noun": 0}
            ], 
            "chunk": [], 
            "dependency": [
                {"id": 0, "text": "검투사들의", "head": 1, "label": "NP_MOD", "mod": [], "weight": 0.168021}, 
                {"id": 1, "text": "시합이나", "head": 3, "label": "NP_CNJ", "mod": [0], "weight": 0.571121}, 
                {"id": 2, "text": "각종", "head": 3, "label": "NP", "mod": [], "weight": 0.699945}, 
                {"id": 3, "text": "공연이", "head": 4, "label": "NP_SBJ", "mod": [1, 2], "weight": 0.845037}, 
                {"id": 4, "text": "펼쳐졌던", "head": 6, "label": "VP_MOD", "mod": [3], "weight": 0.707713}, 
                {"id": 5, "text": "이", "head": 6, "label": "DP", "mod": [], "weight": 0.659522}, 
                {"id": 6, "text": "건축물은?", "head": -1, "label": "NP_SBJ", "mod": [4, 5], "weight": 0.0120992}
            ], 
            "SRL": [
                {"verb": "펼쳐지", "sense": 1, "word_id": 4, "weight": 0.136188, "argument": [
                    {"type": "ARG1", "word_id": 3, "text": "공연이", "weight": 0.136188}, 
                    {"type": "ARGM-LOC", "word_id": 6, "text": "건축물은?", "weight": 1}
                ]}
            ], 
            "relation": [], 
            "SA": [], 
            "ZA": []
        }
    ], 
    "entity": [
        {"id": 0, "type": "", "number": "singular", "gender": "", "person": "", "animacy": "thing", "mention": [
            {"id": 0, "sent_id": 0, "start_eid": 0, "end_eid": 6, "ne_id": -1, "text": "이탈리아 로마에 있는 로마 제정 시대의 건축물로", "start_eid_short": 6, "end_eid_short": 6, "text_short": "건축물로"}
        ]}, 
        {"id": 1, "type": "LCP_CAPITALCITY", "number": "singular", "gender": "", "person": "", "animacy": "place", "mention": [
            {"id": 1, "sent_id": 0, "start_eid": 0, "end_eid": 1, "ne_id": 1, "text": "이탈리아 로마에", "start_eid_short": 0, "end_eid_short": 1, "text_short": "이탈리아 로마에"}
        ]}, 
        {"id": 2, "type": "LCP_COUNTRY", "number": "singular", "gender": "", "person": "", "animacy": "place", "mention": [
            {"id": 2, "sent_id": 0, "start_eid": 0, "end_eid": 0, "ne_id": 0, "text": "이탈리아", "start_eid_short": 0, "end_eid_short": 0, "text_short": "이탈리아"}
        ]}, 
        {"id": 3, "type": "DT_DYNASTY", "number": "singular", "gender": "", "person": "", "animacy": "time", "mention": [
            {"id": 3, "sent_id": 0, "start_eid": 3, "end_eid": 5, "ne_id": 2, "text": "로마 제정 시대의", "start_eid_short": 3, "end_eid_short": 5, "text_short": "로마 제정 시대의"}
        ]}, 
        {"id": 4, "type": "", "number": "singular", "gender": "", "person": "", "animacy": "thing", "mention": [
            {"id": 4, "sent_id": 0, "start_eid": 7, "end_eid": 7, "ne_id": -1, "text": "정식명칭은", "start_eid_short": 7, "end_eid_short": 7, "text_short": "정식명칭은"}
        ]}, 
        {"id": 5, "type": "AF_BUILDING", "number": "singular", "gender": "", "person": "", "animacy": "thing", "mention": [
            {"id": 5, "sent_id": 0, "start_eid": 8, "end_eid": 9, "ne_id": 3, "text": "'플라비우스 원형경기장'이다.", "start_eid_short": 9, "end_eid_short": 9, "text_short": "원형경기장'이다."}, 
            {"id": 11, "sent_id": 1, "start_eid": 5, "end_eid": 6, "ne_id": -1, "text": "이 건축물은?", "start_eid_short": 6, "end_eid_short": 6, "text_short": "건축물은?"}
        ]}, 
        {"id": 6, "type": "CV_OCCUPATION", "number": "singular", "gender": "", "person": "", "animacy": "thing", "mention": [
            {"id": 7, "sent_id": 1, "start_eid": 0, "end_eid": 0, "ne_id": 0, "text": "검투사들의", "start_eid_short": 0, "end_eid_short": 0, "text_short": "검투사들의"}
        ]}, 
        {"id": 7, "type": "", "number": "singular", "gender": "", "person": "", "animacy": "thing", "mention": [
            {"id": 6, "sent_id": 1, "start_eid": 0, "end_eid": 3, "ne_id": -1, "text": "검투사들의 시합이나 각종 공연이", "start_eid_short": 2, "end_eid_short": 3, "text_short": "각종 공연이"}
        ]}, 
        {"id": 8, "type": "", "number": "singular", "gender": "", "person": "", "animacy": "thing", "mention": [
            {"id": 10, "sent_id": 1, "start_eid": 2, "end_eid": 2, "ne_id": -1, "text": "각종", "start_eid_short": 2, "end_eid_short": 2, "text_short": "각종"}
        ]}, 
        {"id": 9, "type": "", "number": "singular", "gender": "", "person": "", "animacy": "thing", "mention": [
            {"id": 9, "sent_id": 1, "start_eid": 2, "end_eid": 3, "ne_id": -1, "text": "각종 공연이", "start_eid_short": 2, "end_eid_short": 3, "text_short": "각종 공연이"}
        ]}, 
        {"id": 10, "type": "", "number": "singular", "gender": "", "person": "", "animacy": "thing", "mention": [
            {"id": 8, "sent_id": 1, "start_eid": 1, "end_eid": 1, "ne_id": -1, "text": "시합이나", "start_eid_short": 1, "end_eid_short": 1, "text_short": "시합이나"}
        ]}
    ]
}