{
    "doc_id": "E2016.789.03_A_01.json", 
    "DCT": "", 
    "category": "", 
    "category_weight": 0, 
    "title": {
        "text": "벨로드롬", 
        "NE": ""
    }, 
    "metaInfo": {}, 
    "sentence": [
        {
            "id": 0, 
            "reserve_str": "", 
            "text": "벨로드롬(영어: velodrome)은 트랙 자전거를 위한 경기장을 말한다.", 
            "morp": [
                {"id": 0, "lemma": "벨로드롬", "type": "NNG", "position": 0, "weight": 0.05}, 
                {"id": 1, "lemma": "(", "type": "SS", "position": 12, "weight": 1}, 
                {"id": 2, "lemma": "영어", "type": "NNP", "position": 13, "weight": 0.0568092}, 
                {"id": 3, "lemma": ":", "type": "SP", "position": 19, "weight": 1}, 
                {"id": 4, "lemma": "velodrome", "type": "SL", "position": 21, "weight": 1}, 
                {"id": 5, "lemma": ")", "type": "SS", "position": 30, "weight": 1}, 
                {"id": 6, "lemma": "은", "type": "JX", "position": 31, "weight": 0.0128817}, 
                {"id": 7, "lemma": "트랙", "type": "NNG", "position": 35, "weight": 0.9}, 
                {"id": 8, "lemma": "자전거", "type": "NNG", "position": 42, "weight": 0.180574}, 
                {"id": 9, "lemma": "를", "type": "JKO", "position": 51, "weight": 0.137686}, 
                {"id": 10, "lemma": "위하", "type": "VV", "position": 55, "weight": 0.778555}, 
                {"id": 11, "lemma": "ㄴ", "type": "ETM", "position": 58, "weight": 0.304215}, 
                {"id": 12, "lemma": "경기", "type": "NNG", "position": 62, "weight": 0.483174}, 
                {"id": 13, "lemma": "장", "type": "XSN", "position": 68, "weight": 0.0110513}, 
                {"id": 14, "lemma": "을", "type": "JKO", "position": 71, "weight": 0.0819193}, 
                {"id": 15, "lemma": "말", "type": "NNG", "position": 75, "weight": 0.0814073}, 
                {"id": 16, "lemma": "하", "type": "XSV", "position": 78, "weight": 0.0001}, 
                {"id": 17, "lemma": "ㄴ다", "type": "EF", "position": 78, "weight": 0.0449045}, 
                {"id": 18, "lemma": ".", "type": "SF", "position": 84, "weight": 1}
            ], 
            "morp_eval": [], 
            "WSD": [
                {"id": 0, "text": "벨로드롬", "type": "NNG", "scode": "000000", "weight": 0, "position": 0, "begin": 0, "end": 0}, 
                {"id": 1, "text": "(", "type": "SS", "scode": "000000", "weight": 1, "position": 12, "begin": 1, "end": 1}, 
                {"id": 2, "text": "영어", "type": "NNP", "scode": "020000", "weight": 0.2, "position": 13, "begin": 2, "end": 2}, 
                {"id": 3, "text": ":", "type": "SP", "scode": "000000", "weight": 1, "position": 19, "begin": 3, "end": 3}, 
                {"id": 4, "text": "velodrome", "type": "SL", "scode": "000000", "weight": 1, "position": 21, "begin": 4, "end": 4}, 
                {"id": 5, "text": ")", "type": "SS", "scode": "000000", "weight": 1, "position": 30, "begin": 5, "end": 5}, 
                {"id": 6, "text": "은", "type": "JX", "scode": "000000", "weight": 1, "position": 31, "begin": 6, "end": 6}, 
                {"id": 7, "text": "트랙", "type": "NNG", "scode": "010001", "weight": 0.333333, "position": 35, "begin": 7, "end": 7}, 
                {"id": 8, "text": "자전거", "type": "NNG", "scode": "000000", "weight": 1, "position": 42, "begin": 8, "end": 8}, 
                {"id": 9, "text": "를", "type": "JKO", "scode": "000000", "weight": 1, "position": 51, "begin": 9, "end": 9}, 
                {"id": 10, "text": "위하", "type": "VV", "scode": "010003", "weight": 0.25, "position": 55, "begin": 10, "end": 10}, 
                {"id": 11, "text": "ㄴ", "type": "ETM", "scode": "000000", "weight": 1, "position": 58, "begin": 11, "end": 11}, 
                {"id": 12, "text": "경기장", "type": "NNG", "scode": "000000", "weight": 1, "position": 62, "begin": 12, "end": 13}, 
                {"id": 13, "text": "을", "type": "JKO", "scode": "000000", "weight": 1, "position": 71, "begin": 14, "end": 14}, 
                {"id": 14, "text": "말하", "type": "VV", "scode": "000101", "weight": 0.125, "position": 75, "begin": 15, "end": 16}, 
                {"id": 15, "text": "ㄴ다", "type": "EF", "scode": "000000", "weight": 1, "position": 78, "begin": 17, "end": 17}, 
                {"id": 16, "text": ".", "type": "SF", "scode": "000000", "weight": 1, "position": 84, "begin": 18, "end": 18}
            ], 
            "word": [
                {"id": 0, "text": "벨로드롬(영어:", "type": "", "begin": 0, "end": 3}, 
                {"id": 1, "text": "velodrome)은", "type": "", "begin": 4, "end": 6}, 
                {"id": 2, "text": "트랙", "type": "", "begin": 7, "end": 7}, 
                {"id": 3, "text": "자전거를", "type": "", "begin": 8, "end": 9}, 
                {"id": 4, "text": "위한", "type": "", "begin": 10, "end": 11}, 
                {"id": 5, "text": "경기장을", "type": "", "begin": 12, "end": 14}, 
                {"id": 6, "text": "말한다.", "type": "", "begin": 15, "end": 18}
            ], 
            "NE": [
                {"id": 0, "text": "벨로드롬", "type": "AF_BUILDING", "begin": 0, "end": 0, "weight": 0.224303, "common_noun": 0}, 
                {"id": 1, "text": "영어", "type": "CV_LANGUAGE", "begin": 2, "end": 2, "weight": 0.465645, "common_noun": 0}, 
                {"id": 2, "text": "velodrome", "type": "AF_BUILDING", "begin": 4, "end": 4, "weight": 0.0888782, "common_noun": 0}, 
                {"id": 3, "text": "트랙 자전거", "type": "AF_TRANSPORT", "begin": 7, "end": 8, "weight": 0.435242, "common_noun": 0}
            ], 
            "chunk": [], 
            "dependency": [
                {"id": 0, "text": "벨로드롬(영어:", "head": 1, "label": "NP", "mod": [], "weight": 0.795449}, 
                {"id": 1, "text": "velodrome)은", "head": 6, "label": "NP_SBJ", "mod": [0], "weight": 0.849224}, 
                {"id": 2, "text": "트랙", "head": 3, "label": "NP", "mod": [], "weight": 0.573393}, 
                {"id": 3, "text": "자전거를", "head": 4, "label": "NP_OBJ", "mod": [2], "weight": 0.80383}, 
                {"id": 4, "text": "위한", "head": 5, "label": "VP_MOD", "mod": [3], "weight": 0.811607}, 
                {"id": 5, "text": "경기장을", "head": 6, "label": "NP_OBJ", "mod": [4], "weight": 0.842754}, 
                {"id": 6, "text": "말한다.", "head": -1, "label": "VP", "mod": [1, 5], "weight": 0.192979}
            ], 
            "SRL": [
                {"verb": "위하", "sense": 1, "word_id": 4, "weight": 0.201602, "argument": [
                    {"type": "ARG1", "word_id": 3, "text": "자전거를", "weight": 0.186224}, 
                    {"type": "ARG0", "word_id": 5, "text": "경기장을", "weight": 1}
                ]}, 
                {"verb": "말하", "sense": 1, "word_id": 6, "weight": 0.107248, "argument": [
                    {"type": "ARG1", "word_id": 1, "text": "velodrome)은", "weight": 1}, 
                    {"type": "ARG2", "word_id": 5, "text": "경기장을", "weight": 0.124387}
                ]}
            ], 
            "relation": [], 
            "SA": [], 
            "ZA": []
        }
    ], 
    "entity": [
        {"id": 0, "type": "TM_CELL_TISSUE", "number": "singular", "gender": "", "person": "", "animacy": "thing", "mention": [
            {"id": 0, "sent_id": 0, "start_eid": 0, "end_eid": 1, "ne_id": 2, "text": "벨로드롬(영어: velodrome)은", "start_eid_short": 0, "end_eid_short": 0, "text_short": "벨로드롬(영어:"}, 
            {"id": 1, "sent_id": 0, "start_eid": 2, "end_eid": 5, "ne_id": -1, "text": "트랙 자전거를 위한 경기장을", "start_eid_short": 5, "end_eid_short": 5, "text_short": "경기장을"}
        ]}, 
        {"id": 1, "type": "AF_TRANSPORT", "number": "singular", "gender": "", "person": "", "animacy": "thing", "mention": [
            {"id": 2, "sent_id": 0, "start_eid": 2, "end_eid": 3, "ne_id": 3, "text": "트랙 자전거를", "start_eid_short": 2, "end_eid_short": 3, "text_short": "트랙 자전거를"}
        ]}, 
        {"id": 2, "type": "", "number": "singular", "gender": "", "person": "", "animacy": "thing", "mention": [
            {"id": 3, "sent_id": 0, "start_eid": 2, "end_eid": 2, "ne_id": -1, "text": "트랙", "start_eid_short": 2, "end_eid_short": 2, "text_short": "트랙"}
        ]}
    ]
}