{
    "doc_id": "E2016.790.02_A_02.json", 
    "DCT": "", 
    "category": "", 
    "category_weight": 0, 
    "title": {
        "text": "1960년 하계 올림픽", 
        "NE": ""
    }, 
    "metaInfo": {}, 
    "sentence": [
        {
            "id": 0, 
            "reserve_str": "", 
            "text": "1960년 하계 올림픽(영어: 1960 Summer Olympics, Games of the XVII Olympiad, 이탈리아어: Giochi della XVII Olimpiade)은 이탈리아 로마에서 8월 25일부터 9월 11일까지 개최된 제17회 하계 올림픽이다.", 
            "morp": [
                {"id": 0, "lemma": "1960", "type": "SN", "position": 0, "weight": 1}, 
                {"id": 1, "lemma": "년", "type": "NNB", "position": 4, "weight": 0.414343}, 
                {"id": 2, "lemma": "하계", "type": "NNG", "position": 8, "weight": 0.10535}, 
                {"id": 3, "lemma": "올림픽", "type": "NNG", "position": 15, "weight": 0.9}, 
                {"id": 4, "lemma": "(", "type": "SS", "position": 24, "weight": 1}, 
                {"id": 5, "lemma": "영어", "type": "NNP", "position": 25, "weight": 0.0568092}, 
                {"id": 6, "lemma": ":", "type": "SP", "position": 31, "weight": 1}, 
                {"id": 7, "lemma": "1960", "type": "SN", "position": 33, "weight": 1}, 
                {"id": 8, "lemma": "Summer", "type": "SL", "position": 38, "weight": 1}, 
                {"id": 9, "lemma": "Olympics", "type": "SL", "position": 45, "weight": 1}, 
                {"id": 10, "lemma": ",", "type": "SP", "position": 53, "weight": 1}, 
                {"id": 11, "lemma": "Games", "type": "SL", "position": 55, "weight": 1}, 
                {"id": 12, "lemma": "of", "type": "SL", "position": 61, "weight": 1}, 
                {"id": 13, "lemma": "the", "type": "SL", "position": 64, "weight": 1}, 
                {"id": 14, "lemma": "XVII", "type": "SL", "position": 68, "weight": 1}, 
                {"id": 15, "lemma": "Olympiad", "type": "SL", "position": 73, "weight": 1}, 
                {"id": 16, "lemma": ",", "type": "SP", "position": 81, "weight": 1}, 
                {"id": 17, "lemma": "이탈리아어", "type": "NNP", "position": 83, "weight": 0.9}, 
                {"id": 18, "lemma": ":", "type": "SP", "position": 98, "weight": 1}, 
                {"id": 19, "lemma": "Giochi", "type": "SL", "position": 100, "weight": 1}, 
                {"id": 20, "lemma": "della", "type": "SL", "position": 107, "weight": 1}, 
                {"id": 21, "lemma": "XVII", "type": "SL", "position": 113, "weight": 1}, 
                {"id": 22, "lemma": "Olimpiade", "type": "SL", "position": 118, "weight": 1}, 
                {"id": 23, "lemma": ")", "type": "SS", "position": 127, "weight": 1}, 
                {"id": 24, "lemma": "은", "type": "JX", "position": 128, "weight": 0.0128817}, 
                {"id": 25, "lemma": "이탈리아", "type": "NNP", "position": 132, "weight": 0.9}, 
                {"id": 26, "lemma": "로마", "type": "NNP", "position": 145, "weight": 0.0359125}, 
                {"id": 27, "lemma": "에서", "type": "JKB", "position": 151, "weight": 0.0823859}, 
                {"id": 28, "lemma": "8", "type": "SN", "position": 158, "weight": 1}, 
                {"id": 29, "lemma": "월", "type": "NNB", "position": 159, "weight": 0.408539}, 
                {"id": 30, "lemma": "25", "type": "SN", "position": 163, "weight": 1}, 
                {"id": 31, "lemma": "일", "type": "NNB", "position": 165, "weight": 0.126777}, 
                {"id": 32, "lemma": "부터", "type": "JX", "position": 168, "weight": 0.105319}, 
                {"id": 33, "lemma": "9", "type": "SN", "position": 175, "weight": 1}, 
                {"id": 34, "lemma": "월", "type": "NNB", "position": 176, "weight": 0.408539}, 
                {"id": 35, "lemma": "11", "type": "SN", "position": 180, "weight": 1}, 
                {"id": 36, "lemma": "일", "type": "NNB", "position": 182, "weight": 0.126777}, 
                {"id": 37, "lemma": "까지", "type": "JX", "position": 185, "weight": 0.105153}, 
                {"id": 38, "lemma": "개최", "type": "NNG", "position": 192, "weight": 0.9}, 
                {"id": 39, "lemma": "되", "type": "XSV", "position": 198, "weight": 0.000224177}, 
                {"id": 40, "lemma": "ㄴ", "type": "ETM", "position": 198, "weight": 0.392321}, 
                {"id": 41, "lemma": "제", "type": "XPN", "position": 202, "weight": 0.000887051}, 
                {"id": 42, "lemma": "17", "type": "SN", "position": 205, "weight": 1}, 
                {"id": 43, "lemma": "회", "type": "NNB", "position": 207, "weight": 0.258682}, 
                {"id": 44, "lemma": "하계", "type": "NNG", "position": 211, "weight": 0.10535}, 
                {"id": 45, "lemma": "올림픽", "type": "NNG", "position": 218, "weight": 0.9}, 
                {"id": 46, "lemma": "이", "type": "VCP", "position": 227, "weight": 0.0177525}, 
                {"id": 47, "lemma": "다", "type": "EF", "position": 230, "weight": 0.353579}, 
                {"id": 48, "lemma": ".", "type": "SF", "position": 233, "weight": 1}
            ], 
            "morp_eval": [], 
            "WSD": [
                {"id": 0, "text": "1960", "type": "SN", "scode": "000000", "weight": 1, "position": 0, "begin": 0, "end": 0}, 
                {"id": 1, "text": "년", "type": "NNB", "scode": "020000", "weight": 0.166667, "position": 4, "begin": 1, "end": 1}, 
                {"id": 2, "text": "하계", "type": "NNG", "scode": "050000", "weight": 0.166667, "position": 8, "begin": 2, "end": 2}, 
                {"id": 3, "text": "올림픽", "type": "NNG", "scode": "000000", "weight": 1, "position": 15, "begin": 3, "end": 3}, 
                {"id": 4, "text": "(", "type": "SS", "scode": "000000", "weight": 1, "position": 24, "begin": 4, "end": 4}, 
                {"id": 5, "text": "영어", "type": "NNP", "scode": "020000", "weight": 0.2, "position": 25, "begin": 5, "end": 5}, 
                {"id": 6, "text": ":", "type": "SP", "scode": "000000", "weight": 1, "position": 31, "begin": 6, "end": 6}, 
                {"id": 7, "text": "1960", "type": "SN", "scode": "000000", "weight": 1, "position": 33, "begin": 7, "end": 7}, 
                {"id": 8, "text": "Summer", "type": "SL", "scode": "000000", "weight": 1, "position": 38, "begin": 8, "end": 8}, 
                {"id": 9, "text": "Olympics", "type": "SL", "scode": "000000", "weight": 1, "position": 45, "begin": 9, "end": 9}, 
                {"id": 10, "text": ",", "type": "SP", "scode": "000000", "weight": 1, "position": 53, "begin": 10, "end": 10}, 
                {"id": 11, "text": "Games", "type": "SL", "scode": "000000", "weight": 1, "position": 55, "begin": 11, "end": 11}, 
                {"id": 12, "text": "of", "type": "SL", "scode": "000000", "weight": 1, "position": 61, "begin": 12, "end": 12}, 
                {"id": 13, "text": "the", "type": "SL", "scode": "000000", "weight": 1, "position": 64, "begin": 13, "end": 13}, 
                {"id": 14, "text": "XVII", "type": "SL", "scode": "000000", "weight": 1, "position": 68, "begin": 14, "end": 14}, 
                {"id": 15, "text": "Olympiad", "type": "SL", "scode": "000000", "weight": 1, "position": 73, "begin": 15, "end": 15}, 
                {"id": 16, "text": ",", "type": "SP", "scode": "000000", "weight": 1, "position": 81, "begin": 16, "end": 16}, 
                {"id": 17, "text": "이탈리아어", "type": "NNP", "scode": "000000", "weight": 1, "position": 83, "begin": 17, "end": 17}, 
                {"id": 18, "text": ":", "type": "SP", "scode": "000000", "weight": 1, "position": 98, "begin": 18, "end": 18}, 
                {"id": 19, "text": "Giochi", "type": "SL", "scode": "000000", "weight": 1, "position": 100, "begin": 19, "end": 19}, 
                {"id": 20, "text": "della", "type": "SL", "scode": "000000", "weight": 1, "position": 107, "begin": 20, "end": 20}, 
                {"id": 21, "text": "XVII", "type": "SL", "scode": "000000", "weight": 1, "position": 113, "begin": 21, "end": 21}, 
                {"id": 22, "text": "Olimpiade", "type": "SL", "scode": "000000", "weight": 1, "position": 118, "begin": 22, "end": 22}, 
                {"id": 23, "text": ")", "type": "SS", "scode": "000000", "weight": 1, "position": 127, "begin": 23, "end": 23}, 
                {"id": 24, "text": "은", "type": "JX", "scode": "000000", "weight": 1, "position": 128, "begin": 24, "end": 24}, 
                {"id": 25, "text": "이탈리아", "type": "NNP", "scode": "000000", "weight": 1, "position": 132, "begin": 25, "end": 25}, 
                {"id": 26, "text": "로마", "type": "NNP", "scode": "020003", "weight": 0.2, "position": 145, "begin": 26, "end": 26}, 
                {"id": 27, "text": "에서", "type": "JKB", "scode": "000000", "weight": 1, "position": 151, "begin": 27, "end": 27}, 
                {"id": 28, "text": "8", "type": "SN", "scode": "000000", "weight": 1, "position": 158, "begin": 28, "end": 28}, 
                {"id": 29, "text": "월", "type": "NNB", "scode": "020100", "weight": 0.125, "position": 159, "begin": 29, "end": 29}, 
                {"id": 30, "text": "25", "type": "SN", "scode": "000000", "weight": 1, "position": 163, "begin": 30, "end": 30}, 
                {"id": 31, "text": "일", "type": "NNB", "scode": "070100", "weight": 0.04, "position": 165, "begin": 31, "end": 31}, 
                {"id": 32, "text": "부터", "type": "JX", "scode": "000000", "weight": 1, "position": 168, "begin": 32, "end": 32}, 
                {"id": 33, "text": "9", "type": "SN", "scode": "000000", "weight": 1, "position": 175, "begin": 33, "end": 33}, 
                {"id": 34, "text": "월", "type": "NNB", "scode": "020100", "weight": 0.125, "position": 176, "begin": 34, "end": 34}, 
                {"id": 35, "text": "11", "type": "SN", "scode": "000000", "weight": 1, "position": 180, "begin": 35, "end": 35}, 
                {"id": 36, "text": "일", "type": "NNB", "scode": "070100", "weight": 0.04, "position": 182, "begin": 36, "end": 36}, 
                {"id": 37, "text": "까지", "type": "JX", "scode": "000000", "weight": 1, "position": 185, "begin": 37, "end": 37}, 
                {"id": 38, "text": "개최되", "type": "VV", "scode": "000000", "weight": 1, "position": 192, "begin": 38, "end": 39}, 
                {"id": 39, "text": "ㄴ", "type": "ETM", "scode": "000000", "weight": 1, "position": 198, "begin": 40, "end": 40}, 
                {"id": 40, "text": "제", "type": "XPN", "scode": "210000", "weight": 0.0322581, "position": 202, "begin": 41, "end": 41}, 
                {"id": 41, "text": "17", "type": "SN", "scode": "000000", "weight": 1, "position": 205, "begin": 42, "end": 42}, 
                {"id": 42, "text": "회", "type": "NNB", "scode": "080000", "weight": 0.0588235, "position": 207, "begin": 43, "end": 43}, 
                {"id": 43, "text": "하계", "type": "NNG", "scode": "050000", "weight": 0.166667, "position": 211, "begin": 44, "end": 44}, 
                {"id": 44, "text": "올림픽", "type": "NNG", "scode": "000000", "weight": 1, "position": 218, "begin": 45, "end": 45}, 
                {"id": 45, "text": "이", "type": "VCP", "scode": "030000", "weight": 0.0172414, "position": 227, "begin": 46, "end": 46}, 
                {"id": 46, "text": "다", "type": "EF", "scode": "000000", "weight": 1, "position": 230, "begin": 47, "end": 47}, 
                {"id": 47, "text": ".", "type": "SF", "scode": "000000", "weight": 1, "position": 233, "begin": 48, "end": 48}
            ], 
            "word": [
                {"id": 0, "text": "1960년", "type": "", "begin": 0, "end": 1}, 
                {"id": 1, "text": "하계", "type": "", "begin": 2, "end": 2}, 
                {"id": 2, "text": "올림픽(영어:", "type": "", "begin": 3, "end": 6}, 
                {"id": 3, "text": "1960", "type": "", "begin": 7, "end": 7}, 
                {"id": 4, "text": "Summer", "type": "", "begin": 8, "end": 8}, 
                {"id": 5, "text": "Olympics,", "type": "", "begin": 9, "end": 10}, 
                {"id": 6, "text": "Games", "type": "", "begin": 11, "end": 11}, 
                {"id": 7, "text": "of", "type": "", "begin": 12, "end": 12}, 
                {"id": 8, "text": "the", "type": "", "begin": 13, "end": 13}, 
                {"id": 9, "text": "XVII", "type": "", "begin": 14, "end": 14}, 
                {"id": 10, "text": "Olympiad,", "type": "", "begin": 15, "end": 16}, 
                {"id": 11, "text": "이탈리아어:", "type": "", "begin": 17, "end": 18}, 
                {"id": 12, "text": "Giochi", "type": "", "begin": 19, "end": 19}, 
                {"id": 13, "text": "della", "type": "", "begin": 20, "end": 20}, 
                {"id": 14, "text": "XVII", "type": "", "begin": 21, "end": 21}, 
                {"id": 15, "text": "Olimpiade)은", "type": "", "begin": 22, "end": 24}, 
                {"id": 16, "text": "이탈리아", "type": "", "begin": 25, "end": 25}, 
                {"id": 17, "text": "로마에서", "type": "", "begin": 26, "end": 27}, 
                {"id": 18, "text": "8월", "type": "", "begin": 28, "end": 29}, 
                {"id": 19, "text": "25일부터", "type": "", "begin": 30, "end": 32}, 
                {"id": 20, "text": "9월", "type": "", "begin": 33, "end": 34}, 
                {"id": 21, "text": "11일까지", "type": "", "begin": 35, "end": 37}, 
                {"id": 22, "text": "개최된", "type": "", "begin": 38, "end": 40}, 
                {"id": 23, "text": "제17회", "type": "", "begin": 41, "end": 43}, 
                {"id": 24, "text": "하계", "type": "", "begin": 44, "end": 44}, 
                {"id": 25, "text": "올림픽이다.", "type": "", "begin": 45, "end": 48}
            ], 
            "NE": [
                {"id": 0, "text": "1960년", "type": "DT_YEAR", "begin": 0, "end": 1, "weight": 0.855328, "common_noun": 0}, 
                {"id": 1, "text": "하계 올림픽", "type": "EV_SPORTS", "begin": 2, "end": 3, "weight": 0.471087, "common_noun": 0}, 
                {"id": 2, "text": "영어", "type": "CV_LANGUAGE", "begin": 5, "end": 5, "weight": 0.36534, "common_noun": 0}, 
                {"id": 3, "text": "1960", "type": "DT_YEAR", "begin": 7, "end": 7, "weight": 0.21237, "common_noun": 0}, 
                {"id": 4, "text": "Summer Olympics", "type": "EV_SPORTS", "begin": 8, "end": 9, "weight": 0.471087, "common_noun": 0}, 
                {"id": 5, "text": "Games of the XVII Olympiad", "type": "EV_SPORTS", "begin": 11, "end": 15, "weight": 0.471087, "common_noun": 0}, 
                {"id": 6, "text": "이탈리아어", "type": "CV_LANGUAGE", "begin": 17, "end": 17, "weight": 0.201717, "common_noun": 0}, 
                {"id": 7, "text": "Giochi della XVII Olimpiade", "type": "EV_SPORTS", "begin": 19, "end": 22, "weight": 0.471087, "common_noun": 0}, 
                {"id": 8, "text": "이탈리아", "type": "LCP_COUNTRY", "begin": 25, "end": 25, "weight": 0.711992, "common_noun": 0}, 
                {"id": 9, "text": "로마", "type": "LCP_CAPITALCITY", "begin": 26, "end": 26, "weight": 0.175928, "common_noun": 0}, 
                {"id": 10, "text": "8월 25일부터 9월 11일까지", "type": "DT_DURATION", "begin": 28, "end": 37, "weight": 0.92678, "common_noun": 0}, 
                {"id": 11, "text": "제17회", "type": "QT_ORDER", "begin": 41, "end": 43, "weight": 0.737171, "common_noun": 0}, 
                {"id": 12, "text": "하계 올림픽", "type": "EV_SPORTS", "begin": 44, "end": 45, "weight": 0.716855, "common_noun": 0}
            ], 
            "chunk": [], 
            "dependency": [
                {"id": 0, "text": "1960년", "head": 2, "label": "NP", "mod": [], "weight": 0.140065}, 
                {"id": 1, "text": "하계", "head": 2, "label": "NP", "mod": [], "weight": 0.552741}, 
                {"id": 2, "text": "올림픽(영어:", "head": 10, "label": "NP", "mod": [0, 1], "weight": 0.638203}, 
                {"id": 3, "text": "1960", "head": 5, "label": "NP", "mod": [], "weight": 0.0181802}, 
                {"id": 4, "text": "Summer", "head": 5, "label": "NP", "mod": [], "weight": 0.794315}, 
                {"id": 5, "text": "Olympics,", "head": 10, "label": "NP", "mod": [4, 3], "weight": 0.0276365}, 
                {"id": 6, "text": "Games", "head": 7, "label": "NP", "mod": [], "weight": 0.0215493}, 
                {"id": 7, "text": "of", "head": 10, "label": "NP", "mod": [6], "weight": 0.836808}, 
                {"id": 8, "text": "the", "head": 9, "label": "NP", "mod": [], "weight": 0.493837}, 
                {"id": 9, "text": "XVII", "head": 10, "label": "NP", "mod": [8], "weight": 0.805078}, 
                {"id": 10, "text": "Olympiad,", "head": 15, "label": "NP_CNJ", "mod": [2, 5, 7, 9], "weight": 0.534086}, 
                {"id": 11, "text": "이탈리아어:", "head": 15, "label": "NP", "mod": [], "weight": 0.810706}, 
                {"id": 12, "text": "Giochi", "head": 13, "label": "NP", "mod": [], "weight": 0.430856}, 
                {"id": 13, "text": "della", "head": 14, "label": "NP", "mod": [12], "weight": 0.391931}, 
                {"id": 14, "text": "XVII", "head": 15, "label": "NP", "mod": [13], "weight": 0.762179}, 
                {"id": 15, "text": "Olimpiade)은", "head": 25, "label": "NP_SBJ", "mod": [10, 11, 14], "weight": 0.836822}, 
                {"id": 16, "text": "이탈리아", "head": 17, "label": "NP", "mod": [], "weight": 0.748051}, 
                {"id": 17, "text": "로마에서", "head": 22, "label": "NP_AJT", "mod": [16], "weight": 0.0490862}, 
                {"id": 18, "text": "8월", "head": 19, "label": "NP", "mod": [], "weight": 0.852045}, 
                {"id": 19, "text": "25일부터", "head": 22, "label": "NP_AJT", "mod": [18], "weight": 0.731507}, 
                {"id": 20, "text": "9월", "head": 21, "label": "NP", "mod": [], "weight": 0.715501}, 
                {"id": 21, "text": "11일까지", "head": 22, "label": "NP_AJT", "mod": [20], "weight": 0.782488}, 
                {"id": 22, "text": "개최된", "head": 25, "label": "VP_MOD", "mod": [21, 19, 17], "weight": 0.773532}, 
                {"id": 23, "text": "제17회", "head": 24, "label": "NP", "mod": [], "weight": 0.365738}, 
                {"id": 24, "text": "하계", "head": 25, "label": "NP", "mod": [23], "weight": 0.710637}, 
                {"id": 25, "text": "올림픽이다.", "head": -1, "label": "VNP", "mod": [15, 22, 24], "weight": 1.26241e-11}
            ], 
            "SRL": [
                {"verb": "개최", "sense": 1, "word_id": 22, "weight": 0.148092, "argument": [
                    {"type": "ARGM-TMP", "word_id": 19, "text": "25일부터", "weight": 0.20816}, 
                    {"type": "ARGM-TMP", "word_id": 21, "text": "11일까지", "weight": 1}, 
                    {"type": "ARGM-TMP", "word_id": 0, "text": "1960년", "weight": 1}, 
                    {"type": "ARGM-LOC", "word_id": 17, "text": "로마에서", "weight": 1}, 
                    {"type": "ARG1", "word_id": 15, "text": "Olimpiade)은", "weight": 1}
                ]}
            ], 
            "relation": [], 
            "SA": [], 
            "ZA": []
        }
    ], 
    "entity": [
        {"id": 0, "type": "DT_YEAR", "number": "singular", "gender": "", "person": "", "animacy": "time", "mention": [
            {"id": 1, "sent_id": 0, "start_eid": 0, "end_eid": 0, "ne_id": 0, "text": "1960년", "start_eid_short": 0, "end_eid_short": 0, "text_short": "1960년"}
        ]}, 
        {"id": 1, "type": "LCP_CAPITALCITY", "number": "singular", "gender": "", "person": "", "animacy": "place", "mention": [
            {"id": 3, "sent_id": 0, "start_eid": 16, "end_eid": 17, "ne_id": 6, "text": "이탈리아 로마에서", "start_eid_short": 16, "end_eid_short": 17, "text_short": "이탈리아 로마에서"}
        ]}, 
        {"id": 2, "type": "LCP_COUNTRY", "number": "singular", "gender": "", "person": "", "animacy": "place", "mention": [
            {"id": 4, "sent_id": 0, "start_eid": 16, "end_eid": 16, "ne_id": 5, "text": "이탈리아", "start_eid_short": 16, "end_eid_short": 16, "text_short": "이탈리아"}
        ]}, 
        {"id": 3, "type": "DT_DURATION", "number": "singular", "gender": "", "person": "", "animacy": "time", "mention": [
            {"id": 5, "sent_id": 0, "start_eid": 18, "end_eid": 21, "ne_id": 7, "text": "8월 25일부터 9월 11일까지", "start_eid_short": 20, "end_eid_short": 21, "text_short": "9월 11일까지"}
        ]}, 
        {"id": 4, "type": "QT_ORDER", "number": "singular", "gender": "", "person": "", "animacy": "thing", "mention": [
            {"id": 6, "sent_id": 0, "start_eid": 23, "end_eid": 23, "ne_id": 8, "text": "제17회", "start_eid_short": 23, "end_eid_short": 23, "text_short": "제17회"}
        ]}, 
        {"id": 5, "type": "EV_SPORTS", "number": "singular", "gender": "", "person": "", "animacy": "thing", "mention": [
            {"id": 0, "sent_id": 0, "start_eid": 0, "end_eid": 15, "ne_id": -1, "text": "1960년 하계 올림픽(영어: 1960 Summer Olympics, Games of the XVII Olympiad, 이탈리아어: Giochi della XVII Olimpiade)은", "start_eid_short": 15, "end_eid_short": 15, "text_short": "Olimpiade)은"}, 
            {"id": 2, "sent_id": 0, "start_eid": 16, "end_eid": 25, "ne_id": 9, "text": "이탈리아 로마에서 8월 25일부터 9월 11일까지 개최된 제17회 하계 올림픽이다.", "start_eid_short": 25, "end_eid_short": 25, "text_short": "올림픽이다."}
        ]}
    ]
}