{
    "doc_id": "E2016.789.06_A_02.json", 
    "DCT": "", 
    "category": "", 
    "category_weight": 0, 
    "title": {
        "text": "오우가", 
        "NE": ""
    }, 
    "metaInfo": {}, 
    "sentence": [
        {
            "id": 0, 
            "reserve_str": "", 
            "text": "윤선도(尹善道 1587~1671)가 지은 시조.", 
            "morp": [
                {"id": 0, "lemma": "윤선도", "type": "NNP", "position": 0, "weight": 0.9}, 
                {"id": 1, "lemma": "(", "type": "SS", "position": 9, "weight": 1}, 
                {"id": 2, "lemma": "尹善道", "type": "SH", "position": 10, "weight": 1}, 
                {"id": 3, "lemma": "1587", "type": "SN", "position": 20, "weight": 1}, 
                {"id": 4, "lemma": "~", "type": "SO", "position": 24, "weight": 1}, 
                {"id": 5, "lemma": "1671", "type": "SN", "position": 25, "weight": 1}, 
                {"id": 6, "lemma": ")", "type": "SS", "position": 29, "weight": 1}, 
                {"id": 7, "lemma": "가", "type": "JKS", "position": 30, "weight": 0.0144542}, 
                {"id": 8, "lemma": "짓", "type": "VV", "position": 34, "weight": 0.256547}, 
                {"id": 9, "lemma": "은", "type": "ETM", "position": 37, "weight": 0.109632}, 
                {"id": 10, "lemma": "시조", "type": "NNG", "position": 41, "weight": 0.9}, 
                {"id": 11, "lemma": ".", "type": "SF", "position": 47, "weight": 1}
            ], 
            "morp_eval": [], 
            "WSD": [
                {"id": 0, "text": "윤선도", "type": "NNP", "scode": "000000", "weight": 1, "position": 0, "begin": 0, "end": 0}, 
                {"id": 1, "text": "(", "type": "SS", "scode": "000000", "weight": 1, "position": 9, "begin": 1, "end": 1}, 
                {"id": 2, "text": "尹善道", "type": "SH", "scode": "000000", "weight": 1, "position": 10, "begin": 2, "end": 2}, 
                {"id": 3, "text": "1587", "type": "SN", "scode": "000000", "weight": 1, "position": 20, "begin": 3, "end": 3}, 
                {"id": 4, "text": "~", "type": "SO", "scode": "000000", "weight": 1, "position": 24, "begin": 4, "end": 4}, 
                {"id": 5, "text": "1671", "type": "SN", "scode": "000000", "weight": 1, "position": 25, "begin": 5, "end": 5}, 
                {"id": 6, "text": ")", "type": "SS", "scode": "000000", "weight": 1, "position": 29, "begin": 6, "end": 6}, 
                {"id": 7, "text": "가", "type": "JKS", "scode": "000000", "weight": 1, "position": 30, "begin": 7, "end": 7}, 
                {"id": 8, "text": "짓", "type": "VV", "scode": "010103", "weight": 0.0625, "position": 34, "begin": 8, "end": 8}, 
                {"id": 9, "text": "은", "type": "ETM", "scode": "000000", "weight": 1, "position": 37, "begin": 9, "end": 9}, 
                {"id": 10, "text": "시조", "type": "NNG", "scode": "070001", "weight": 0.0714286, "position": 41, "begin": 10, "end": 10}, 
                {"id": 11, "text": ".", "type": "SF", "scode": "000000", "weight": 1, "position": 47, "begin": 11, "end": 11}
            ], 
            "word": [
                {"id": 0, "text": "윤선도(尹善道", "type": "", "begin": 0, "end": 2}, 
                {"id": 1, "text": "1587~1671)가", "type": "", "begin": 3, "end": 7}, 
                {"id": 2, "text": "지은", "type": "", "begin": 8, "end": 9}, 
                {"id": 3, "text": "시조.", "type": "", "begin": 10, "end": 11}
            ], 
            "NE": [
                {"id": 0, "text": "윤선도", "type": "PS_NAME", "begin": 0, "end": 0, "weight": 0.41382, "common_noun": 0}, 
                {"id": 1, "text": "尹善道", "type": "PS_NAME", "begin": 2, "end": 2, "weight": 1, "common_noun": 0}, 
                {"id": 2, "text": "1587~1671", "type": "DT_DURATION", "begin": 3, "end": 5, "weight": 0.401992, "common_noun": 0}, 
                {"id": 3, "text": "시조", "type": "FD_ART", "begin": 10, "end": 10, "weight": 0.773072, "common_noun": 0}
            ], 
            "chunk": [], 
            "dependency": [
                {"id": 0, "text": "윤선도(尹善道", "head": 1, "label": "NP", "mod": [], "weight": 0.711524}, 
                {"id": 1, "text": "1587~1671)가", "head": 2, "label": "NP_SBJ", "mod": [0], "weight": 0.582274}, 
                {"id": 2, "text": "지은", "head": 3, "label": "VP_MOD", "mod": [1], "weight": 0.790126}, 
                {"id": 3, "text": "시조.", "head": -1, "label": "NP", "mod": [2], "weight": 0.254416}
            ], 
            "SRL": [
                {"verb": "짓", "sense": 1, "word_id": 2, "weight": 0.186143, "argument": [
                    {"type": "ARG0", "word_id": 1, "text": "1587~1671)가", "weight": 0.242329}, 
                    {"type": "ARG1", "word_id": 3, "text": "시조.", "weight": 0.129956}
                ]}
            ], 
            "relation": [], 
            "SA": [], 
            "ZA": []
        }, 
        {
            "id": 1, 
            "reserve_str": "", 
            "text": "\"산중신곡\"(山中新曲)에 나오는 이 시조는 물(水)·돌(石)·솔(松)·대(竹)·달(月)에 대해 읊은 것이다.", 
            "morp": [
                {"id": 0, "lemma": "\"", "type": "SS", "position": 48, "weight": 1}, 
                {"id": 1, "lemma": "산중신곡", "type": "NNP", "position": 49, "weight": 0.198659}, 
                {"id": 2, "lemma": "\"", "type": "SS", "position": 61, "weight": 1}, 
                {"id": 3, "lemma": "(", "type": "SS", "position": 62, "weight": 1}, 
                {"id": 4, "lemma": "山中新曲", "type": "SH", "position": 63, "weight": 1}, 
                {"id": 5, "lemma": ")", "type": "SS", "position": 75, "weight": 1}, 
                {"id": 6, "lemma": "에", "type": "JKB", "position": 76, "weight": 0.048593}, 
                {"id": 7, "lemma": "나오", "type": "VV", "position": 80, "weight": 0.9}, 
                {"id": 8, "lemma": "는", "type": "ETM", "position": 86, "weight": 0.184941}, 
                {"id": 9, "lemma": "이", "type": "MM", "position": 90, "weight": 0.00060084}, 
                {"id": 10, "lemma": "시조", "type": "NNG", "position": 94, "weight": 0.9}, 
                {"id": 11, "lemma": "는", "type": "JX", "position": 100, "weight": 0.0287565}, 
                {"id": 12, "lemma": "물", "type": "NNG", "position": 104, "weight": 0.277882}, 
                {"id": 13, "lemma": "(", "type": "SS", "position": 107, "weight": 1}, 
                {"id": 14, "lemma": "水", "type": "SH", "position": 108, "weight": 1}, 
                {"id": 15, "lemma": ")", "type": "SS", "position": 111, "weight": 1}, 
                {"id": 16, "lemma": "·", "type": "SP", "position": 112, "weight": 1}, 
                {"id": 17, "lemma": "돌", "type": "NNG", "position": 114, "weight": 0.24497}, 
                {"id": 18, "lemma": "(", "type": "SS", "position": 117, "weight": 1}, 
                {"id": 19, "lemma": "石", "type": "SH", "position": 118, "weight": 1}, 
                {"id": 20, "lemma": ")", "type": "SS", "position": 121, "weight": 1}, 
                {"id": 21, "lemma": "·", "type": "SP", "position": 122, "weight": 1}, 
                {"id": 22, "lemma": "솔", "type": "NNG", "position": 124, "weight": 0.482604}, 
                {"id": 23, "lemma": "(", "type": "SS", "position": 127, "weight": 1}, 
                {"id": 24, "lemma": "松", "type": "SH", "position": 128, "weight": 1}, 
                {"id": 25, "lemma": ")", "type": "SS", "position": 131, "weight": 1}, 
                {"id": 26, "lemma": "·", "type": "SP", "position": 132, "weight": 1}, 
                {"id": 27, "lemma": "대", "type": "NNG", "position": 134, "weight": 0.0799447}, 
                {"id": 28, "lemma": "(", "type": "SS", "position": 137, "weight": 1}, 
                {"id": 29, "lemma": "竹", "type": "SH", "position": 138, "weight": 1}, 
                {"id": 30, "lemma": ")", "type": "SS", "position": 141, "weight": 1}, 
                {"id": 31, "lemma": "·", "type": "SP", "position": 142, "weight": 1}, 
                {"id": 32, "lemma": "달", "type": "NNG", "position": 144, "weight": 0.128374}, 
                {"id": 33, "lemma": "(", "type": "SS", "position": 147, "weight": 1}, 
                {"id": 34, "lemma": "月", "type": "SH", "position": 148, "weight": 1}, 
                {"id": 35, "lemma": ")", "type": "SS", "position": 151, "weight": 1}, 
                {"id": 36, "lemma": "에", "type": "JKB", "position": 152, "weight": 0.048593}, 
                {"id": 37, "lemma": "대하", "type": "VV", "position": 156, "weight": 0.0312871}, 
                {"id": 38, "lemma": "아", "type": "EC", "position": 159, "weight": 0.361326}, 
                {"id": 39, "lemma": "읊", "type": "VV", "position": 163, "weight": 0.9}, 
                {"id": 40, "lemma": "은", "type": "ETM", "position": 166, "weight": 0.109632}, 
                {"id": 41, "lemma": "것", "type": "NNB", "position": 170, "weight": 0.228788}, 
                {"id": 42, "lemma": "이", "type": "VCP", "position": 173, "weight": 0.0607843}, 
                {"id": 43, "lemma": "다", "type": "EF", "position": 176, "weight": 0.353579}, 
                {"id": 44, "lemma": ".", "type": "SF", "position": 179, "weight": 1}
            ], 
            "morp_eval": [], 
            "WSD": [
                {"id": 0, "text": "\"", "type": "SS", "scode": "000000", "weight": 1, "position": 48, "begin": 0, "end": 0}, 
                {"id": 1, "text": "산중신곡", "type": "NNP", "scode": "000000", "weight": 1, "position": 49, "begin": 1, "end": 1}, 
                {"id": 2, "text": "\"", "type": "SS", "scode": "000000", "weight": 1, "position": 61, "begin": 2, "end": 2}, 
                {"id": 3, "text": "(", "type": "SS", "scode": "000000", "weight": 1, "position": 62, "begin": 3, "end": 3}, 
                {"id": 4, "text": "山中新曲", "type": "SH", "scode": "000000", "weight": 1, "position": 63, "begin": 4, "end": 4}, 
                {"id": 5, "text": ")", "type": "SS", "scode": "000000", "weight": 1, "position": 75, "begin": 5, "end": 5}, 
                {"id": 6, "text": "에", "type": "JKB", "scode": "000000", "weight": 1, "position": 76, "begin": 6, "end": 6}, 
                {"id": 7, "text": "나오", "type": "VV", "scode": "000201", "weight": 0.0384615, "position": 80, "begin": 7, "end": 7}, 
                {"id": 8, "text": "는", "type": "ETM", "scode": "000000", "weight": 1, "position": 86, "begin": 8, "end": 8}, 
                {"id": 9, "text": "이", "type": "MM", "scode": "050002", "weight": 0.0172414, "position": 90, "begin": 9, "end": 9}, 
                {"id": 10, "text": "시조", "type": "NNG", "scode": "070001", "weight": 0.0714286, "position": 94, "begin": 10, "end": 10}, 
                {"id": 11, "text": "는", "type": "JX", "scode": "000000", "weight": 1, "position": 100, "begin": 11, "end": 11}, 
                {"id": 12, "text": "물", "type": "NNG", "scode": "010001", "weight": 0.0588235, "position": 104, "begin": 12, "end": 12}, 
                {"id": 13, "text": "(", "type": "SS", "scode": "000000", "weight": 1, "position": 107, "begin": 13, "end": 13}, 
                {"id": 14, "text": "水", "type": "SH", "scode": "000000", "weight": 1, "position": 108, "begin": 14, "end": 14}, 
                {"id": 15, "text": ")", "type": "SS", "scode": "000000", "weight": 1, "position": 111, "begin": 15, "end": 15}, 
                {"id": 16, "text": "·", "type": "SP", "scode": "000000", "weight": 1, "position": 112, "begin": 16, "end": 16}, 
                {"id": 17, "text": "돌", "type": "NNG", "scode": "020001", "weight": 0.0909091, "position": 114, "begin": 17, "end": 17}, 
                {"id": 18, "text": "(", "type": "SS", "scode": "000000", "weight": 1, "position": 117, "begin": 18, "end": 18}, 
                {"id": 19, "text": "石", "type": "SH", "scode": "000000", "weight": 1, "position": 118, "begin": 19, "end": 19}, 
                {"id": 20, "text": ")", "type": "SS", "scode": "000000", "weight": 1, "position": 121, "begin": 20, "end": 20}, 
                {"id": 21, "text": "·", "type": "SP", "scode": "000000", "weight": 1, "position": 122, "begin": 21, "end": 21}, 
                {"id": 22, "text": "솔", "type": "NNG", "scode": "030001", "weight": 0.1, "position": 124, "begin": 22, "end": 22}, 
                {"id": 23, "text": "(", "type": "SS", "scode": "000000", "weight": 1, "position": 127, "begin": 23, "end": 23}, 
                {"id": 24, "text": "松", "type": "SH", "scode": "000000", "weight": 1, "position": 128, "begin": 24, "end": 24}, 
                {"id": 25, "text": ")", "type": "SS", "scode": "000000", "weight": 1, "position": 131, "begin": 25, "end": 25}, 
                {"id": 26, "text": "·", "type": "SP", "scode": "000000", "weight": 1, "position": 132, "begin": 26, "end": 26}, 
                {"id": 27, "text": "대", "type": "NNG", "scode": "020000", "weight": 0.0232558, "position": 134, "begin": 27, "end": 27}, 
                {"id": 28, "text": "(", "type": "SS", "scode": "000000", "weight": 1, "position": 137, "begin": 28, "end": 28}, 
                {"id": 29, "text": "竹", "type": "SH", "scode": "000000", "weight": 1, "position": 138, "begin": 29, "end": 29}, 
                {"id": 30, "text": ")", "type": "SS", "scode": "000000", "weight": 1, "position": 141, "begin": 30, "end": 30}, 
                {"id": 31, "text": "·", "type": "SP", "scode": "000000", "weight": 1, "position": 142, "begin": 31, "end": 31}, 
                {"id": 32, "text": "달", "type": "NNG", "scode": "050001", "weight": 0.0833333, "position": 144, "begin": 32, "end": 32}, 
                {"id": 33, "text": "(", "type": "SS", "scode": "000000", "weight": 1, "position": 147, "begin": 33, "end": 33}, 
                {"id": 34, "text": "月", "type": "SH", "scode": "000000", "weight": 1, "position": 148, "begin": 34, "end": 34}, 
                {"id": 35, "text": ")", "type": "SS", "scode": "000000", "weight": 1, "position": 151, "begin": 35, "end": 35}, 
                {"id": 36, "text": "에", "type": "JKB", "scode": "000000", "weight": 1, "position": 152, "begin": 36, "end": 36}, 
                {"id": 37, "text": "대하", "type": "VV", "scode": "020003", "weight": 0.25, "position": 156, "begin": 37, "end": 37}, 
                {"id": 38, "text": "아", "type": "EC", "scode": "000000", "weight": 1, "position": 159, "begin": 38, "end": 38}, 
                {"id": 39, "text": "읊", "type": "VV", "scode": "000002", "weight": 0.5, "position": 163, "begin": 39, "end": 39}, 
                {"id": 40, "text": "은", "type": "ETM", "scode": "000000", "weight": 1, "position": 166, "begin": 40, "end": 40}, 
                {"id": 41, "text": "것", "type": "NNB", "scode": "010001", "weight": 0.125, "position": 170, "begin": 41, "end": 41}, 
                {"id": 42, "text": "이", "type": "VCP", "scode": "030000", "weight": 0.0172414, "position": 173, "begin": 42, "end": 42}, 
                {"id": 43, "text": "다", "type": "EF", "scode": "000000", "weight": 1, "position": 176, "begin": 43, "end": 43}, 
                {"id": 44, "text": ".", "type": "SF", "scode": "000000", "weight": 1, "position": 179, "begin": 44, "end": 44}
            ], 
            "word": [
                {"id": 0, "text": "\"산중신곡\"(山中新曲)에", "type": "", "begin": 0, "end": 6}, 
                {"id": 1, "text": "나오는", "type": "", "begin": 7, "end": 8}, 
                {"id": 2, "text": "이", "type": "", "begin": 9, "end": 9}, 
                {"id": 3, "text": "시조는", "type": "", "begin": 10, "end": 11}, 
                {"id": 4, "text": "물(水)·돌(石)·솔(松)·대(竹)·달(月)에", "type": "", "begin": 12, "end": 36}, 
                {"id": 5, "text": "대해", "type": "", "begin": 37, "end": 38}, 
                {"id": 6, "text": "읊은", "type": "", "begin": 39, "end": 40}, 
                {"id": 7, "text": "것이다.", "type": "", "begin": 41, "end": 44}
            ], 
            "NE": [
                {"id": 0, "text": "산중신곡", "type": "AFW_DOCUMENT", "begin": 1, "end": 1, "weight": 0.24518, "common_noun": 0}, 
                {"id": 1, "text": "시조", "type": "FD_ART", "begin": 10, "end": 10, "weight": 0.473219, "common_noun": 0}, 
                {"id": 2, "text": "솔", "type": "PT_TREE", "begin": 22, "end": 22, "weight": 0.268472, "common_noun": 0}, 
                {"id": 3, "text": "松", "type": "PT_TREE", "begin": 24, "end": 24, "weight": 0.268472, "common_noun": 0}, 
                {"id": 4, "text": "대", "type": "PT_TREE", "begin": 27, "end": 27, "weight": 0.268472, "common_noun": 0}, 
                {"id": 5, "text": "竹", "type": "PT_TREE", "begin": 29, "end": 29, "weight": 0.268472, "common_noun": 0}, 
                {"id": 6, "text": "달", "type": "LC_SPACE", "begin": 32, "end": 32, "weight": 0.268472, "common_noun": 0}, 
                {"id": 7, "text": "月", "type": "LC_SPACE", "begin": 34, "end": 34, "weight": 0.268472, "common_noun": 0}
            ], 
            "chunk": [], 
            "dependency": [
                {"id": 0, "text": "\"산중신곡\"(山中新曲)에", "head": 1, "label": "NP_AJT", "mod": [], "weight": 0.694573}, 
                {"id": 1, "text": "나오는", "head": 3, "label": "VP_MOD", "mod": [0], "weight": 0.132776}, 
                {"id": 2, "text": "이", "head": 3, "label": "DP", "mod": [], "weight": 0.564487}, 
                {"id": 3, "text": "시조는", "head": 5, "label": "NP_SBJ", "mod": [1, 2], "weight": 0.44644}, 
                {"id": 4, "text": "물(水)·돌(石)·솔(松)·대(竹)·달(月)에", "head": 5, "label": "NP_AJT", "mod": [], "weight": 0.77394}, 
                {"id": 5, "text": "대해", "head": 6, "label": "VP", "mod": [3, 4], "weight": 0.801096}, 
                {"id": 6, "text": "읊은", "head": 7, "label": "VP_MOD", "mod": [5], "weight": 0.873069}, 
                {"id": 7, "text": "것이다.", "head": -1, "label": "VNP", "mod": [6], "weight": 0.00976116}
            ], 
            "SRL": [
                {"verb": "나오", "sense": 1, "word_id": 1, "weight": 0.175446, "argument": [
                    {"type": "ARG2", "word_id": 0, "text": "\"산중신곡\"(山中新曲)에", "weight": 0.189635}, 
                    {"type": "ARG0", "word_id": 3, "text": "시조는", "weight": 0.161256}
                ]}, 
                {"verb": "대하", "sense": 1, "word_id": 5, "weight": 0.167579, "argument": [
                    {"type": "ARG1", "word_id": 3, "text": "시조는", "weight": 0.166306}, 
                    {"type": "ARG2", "word_id": 4, "text": "물(水)·돌(石)·솔(松)·대(竹)·달(月)에", "weight": 0.168852}
                ]}, 
                {"verb": "읊", "sense": 1, "word_id": 6, "weight": 0, "argument": [
                    {"type": "ARG1", "word_id": 3, "text": "시조는", "weight": 1}
                ]}
            ], 
            "relation": [], 
            "SA": [], 
            "ZA": []
        }
    ], 
    "entity": [
        {"id": 0, "type": "DT_DURATION", "number": "singular", "gender": "", "person": "", "animacy": "time", "mention": [
            {"id": 1, "sent_id": 0, "start_eid": 0, "end_eid": 1, "ne_id": 2, "text": "윤선도(尹善道 1587~1671)가", "start_eid_short": 0, "end_eid_short": 0, "text_short": "윤선도(尹善道"}
        ]}, 
        {"id": 1, "type": "FD_ART", "number": "singular", "gender": "", "person": "", "animacy": "thing", "mention": [
            {"id": 0, "sent_id": 0, "start_eid": 0, "end_eid": 3, "ne_id": 3, "text": "윤선도(尹善道 1587~1671)가 지은 시조.", "start_eid_short": 3, "end_eid_short": 0, "text_short": ""}
        ]}, 
        {"id": 2, "type": "FD_ART", "number": "singular", "gender": "", "person": "", "animacy": "thing", "mention": [
            {"id": 3, "sent_id": 1, "start_eid": 2, "end_eid": 3, "ne_id": 1, "text": "이 시조는", "start_eid_short": 2, "end_eid_short": 3, "text_short": "이 시조는"}, 
            {"id": 4, "sent_id": 1, "start_eid": 4, "end_eid": 7, "ne_id": -1, "text": "물(水)·돌(石)·솔(松)·대(竹)·달(月)에 대해 읊은 것이다.", "start_eid_short": 7, "end_eid_short": 0, "text_short": ""}
        ]}, 
        {"id": 3, "type": "AFW_VIDEO", "number": "singular", "gender": "", "person": "", "animacy": "thing", "mention": [
            {"id": 2, "sent_id": 1, "start_eid": 0, "end_eid": 0, "ne_id": 0, "text": "\"산중신곡\"(山中新曲)에", "start_eid_short": 0, "end_eid_short": 0, "text_short": "\"산중신곡\"(山中新曲)에"}
        ]}, 
        {"id": 4, "type": "LC_SPACE", "number": "singular", "gender": "", "person": "", "animacy": "place", "mention": [
            {"id": 5, "sent_id": 1, "start_eid": 4, "end_eid": 4, "ne_id": 2, "text": "물(水)·돌(石)·솔(松)·대(竹)·달(月)에", "start_eid_short": 4, "end_eid_short": 0, "text_short": ""}
        ]}
    ]
}