{
    "doc_id": "E2016.835.06_Q_01.json", 
    "DCT": "", 
    "category": "", 
    "category_weight": 0, 
    "title": {
        "text": "", 
        "NE": ""
    }, 
    "metaInfo": {}, 
    "sentence": [
        {
            "id": 0, 
            "reserve_str": "", 
            "text": "나치당의 당수였던 이 사람은 1933년 독일 총리에 임명됐다.", 
            "morp": [
                {"id": 0, "lemma": "나치", "type": "NNP", "position": 0, "weight": 0.0868006}, 
                {"id": 1, "lemma": "당", "type": "NNG", "position": 6, "weight": 0.0136365}, 
                {"id": 2, "lemma": "의", "type": "JKG", "position": 9, "weight": 0.120732}, 
                {"id": 3, "lemma": "당수", "type": "NNG", "position": 13, "weight": 0.9}, 
                {"id": 4, "lemma": "이", "type": "VCP", "position": 19, "weight": 0.0177525}, 
                {"id": 5, "lemma": "었", "type": "EP", "position": 19, "weight": 0.9}, 
                {"id": 6, "lemma": "던", "type": "ETM", "position": 22, "weight": 0.107547}, 
                {"id": 7, "lemma": "이", "type": "MM", "position": 26, "weight": 0.00060084}, 
                {"id": 8, "lemma": "사람", "type": "NNG", "position": 30, "weight": 0.737436}, 
                {"id": 9, "lemma": "은", "type": "JX", "position": 36, "weight": 0.0449928}, 
                {"id": 10, "lemma": "1933", "type": "SN", "position": 40, "weight": 1}, 
                {"id": 11, "lemma": "년", "type": "NNB", "position": 44, "weight": 0.414343}, 
                {"id": 12, "lemma": "독일", "type": "NNP", "position": 48, "weight": 0.9}, 
                {"id": 13, "lemma": "총리", "type": "NNG", "position": 55, "weight": 0.9}, 
                {"id": 14, "lemma": "에", "type": "JKB", "position": 61, "weight": 0.153364}, 
                {"id": 15, "lemma": "임명", "type": "NNG", "position": 65, "weight": 0.9}, 
                {"id": 16, "lemma": "되", "type": "XSV", "position": 71, "weight": 0.000224177}, 
                {"id": 17, "lemma": "었", "type": "EP", "position": 71, "weight": 0.9}, 
                {"id": 18, "lemma": "다", "type": "EF", "position": 74, "weight": 0.640954}, 
                {"id": 19, "lemma": ".", "type": "SF", "position": 77, "weight": 1}
            ], 
            "morp_eval": [], 
            "WSD": [
                {"id": 0, "text": "나치", "type": "NNP", "scode": "020001", "weight": 0.333333, "position": 0, "begin": 0, "end": 0}, 
                {"id": 1, "text": "당", "type": "NNG", "scode": "140000", "weight": 0.0384615, "position": 6, "begin": 1, "end": 1}, 
                {"id": 2, "text": "의", "type": "JKG", "scode": "000000", "weight": 1, "position": 9, "begin": 2, "end": 2}, 
                {"id": 3, "text": "당수", "type": "NNG", "scode": "040000", "weight": 0.25, "position": 13, "begin": 3, "end": 3}, 
                {"id": 4, "text": "이", "type": "VCP", "scode": "030000", "weight": 0.0172414, "position": 19, "begin": 4, "end": 4}, 
                {"id": 5, "text": "었", "type": "EP", "scode": "000000", "weight": 1, "position": 19, "begin": 5, "end": 5}, 
                {"id": 6, "text": "던", "type": "ETM", "scode": "000000", "weight": 1, "position": 22, "begin": 6, "end": 6}, 
                {"id": 7, "text": "이", "type": "MM", "scode": "050002", "weight": 0.0172414, "position": 26, "begin": 7, "end": 7}, 
                {"id": 8, "text": "사람", "type": "NNG", "scode": "000001", "weight": 0.0909091, "position": 30, "begin": 8, "end": 8}, 
                {"id": 9, "text": "은", "type": "JX", "scode": "000000", "weight": 1, "position": 36, "begin": 9, "end": 9}, 
                {"id": 10, "text": "1933", "type": "SN", "scode": "000000", "weight": 1, "position": 40, "begin": 10, "end": 10}, 
                {"id": 11, "text": "년", "type": "NNB", "scode": "020000", "weight": 0.166667, "position": 44, "begin": 11, "end": 11}, 
                {"id": 12, "text": "독일", "type": "NNP", "scode": "000000", "weight": 1, "position": 48, "begin": 12, "end": 12}, 
                {"id": 13, "text": "총리", "type": "NNG", "scode": "010003", "weight": 0.2, "position": 55, "begin": 13, "end": 13}, 
                {"id": 14, "text": "에", "type": "JKB", "scode": "000000", "weight": 1, "position": 61, "begin": 14, "end": 14}, 
                {"id": 15, "text": "임명되", "type": "VV", "scode": "000000", "weight": 1, "position": 65, "begin": 15, "end": 16}, 
                {"id": 16, "text": "었", "type": "EP", "scode": "000000", "weight": 1, "position": 71, "begin": 17, "end": 17}, 
                {"id": 17, "text": "다", "type": "EF", "scode": "000000", "weight": 1, "position": 74, "begin": 18, "end": 18}, 
                {"id": 18, "text": ".", "type": "SF", "scode": "000000", "weight": 1, "position": 77, "begin": 19, "end": 19}
            ], 
            "word": [
                {"id": 0, "text": "나치당의", "type": "", "begin": 0, "end": 2}, 
                {"id": 1, "text": "당수였던", "type": "", "begin": 3, "end": 6}, 
                {"id": 2, "text": "이", "type": "", "begin": 7, "end": 7}, 
                {"id": 3, "text": "사람은", "type": "", "begin": 8, "end": 9}, 
                {"id": 4, "text": "1933년", "type": "", "begin": 10, "end": 11}, 
                {"id": 5, "text": "독일", "type": "", "begin": 12, "end": 12}, 
                {"id": 6, "text": "총리에", "type": "", "begin": 13, "end": 14}, 
                {"id": 7, "text": "임명됐다.", "type": "", "begin": 15, "end": 19}
            ], 
            "NE": [
                {"id": 0, "text": "나치당", "type": "OGG_POLITICS", "begin": 0, "end": 1, "weight": 0.678842, "common_noun": 0}, 
                {"id": 1, "text": "당수", "type": "CV_POSITION", "begin": 3, "end": 3, "weight": 0.444712, "common_noun": 0}, 
                {"id": 2, "text": "1933년", "type": "DT_YEAR", "begin": 10, "end": 11, "weight": 0.816057, "common_noun": 0}, 
                {"id": 3, "text": "독일", "type": "LCP_COUNTRY", "begin": 12, "end": 12, "weight": 0.935879, "common_noun": 0}, 
                {"id": 4, "text": "총리", "type": "CV_POSITION", "begin": 13, "end": 13, "weight": 0.695119, "common_noun": 0}
            ], 
            "chunk": [], 
            "dependency": [
                {"id": 0, "text": "나치당의", "head": 1, "label": "NP_MOD", "mod": [], "weight": 0.832476}, 
                {"id": 1, "text": "당수였던", "head": 3, "label": "VNP_MOD", "mod": [0], "weight": 0.488397}, 
                {"id": 2, "text": "이", "head": 3, "label": "DP", "mod": [], "weight": 0.654466}, 
                {"id": 3, "text": "사람은", "head": 7, "label": "NP_SBJ", "mod": [1, 2], "weight": 0.842781}, 
                {"id": 4, "text": "1933년", "head": 7, "label": "NP_AJT", "mod": [], "weight": 0.736331}, 
                {"id": 5, "text": "독일", "head": 6, "label": "NP", "mod": [], "weight": 0.762677}, 
                {"id": 6, "text": "총리에", "head": 7, "label": "NP_AJT", "mod": [5], "weight": 0.784882}, 
                {"id": 7, "text": "임명됐다.", "head": -1, "label": "VP", "mod": [3, 4, 6], "weight": 0.0827641}
            ], 
            "SRL": [
                {"verb": "임명", "sense": 1, "word_id": 7, "weight": 0.216527, "argument": [
                    {"type": "ARG1", "word_id": 3, "text": "사람은", "weight": 0.13457}, 
                    {"type": "ARGM-TMP", "word_id": 4, "text": "1933년", "weight": 0.256953}, 
                    {"type": "ARG2", "word_id": 6, "text": "총리에", "weight": 0.258056}
                ]}
            ], 
            "relation": [], 
            "SA": [], 
            "ZA": []
        }, 
        {
            "id": 1, 
            "reserve_str": "", 
            "text": "이후 이탈리아의 무솔리니와 함께 제2차 세계대전을 일으킨 이 사람은?", 
            "morp": [
                {"id": 0, "lemma": "이후", "type": "NNG", "position": 78, "weight": 0.437886}, 
                {"id": 1, "lemma": "이탈리아", "type": "NNP", "position": 85, "weight": 0.9}, 
                {"id": 2, "lemma": "의", "type": "JKG", "position": 97, "weight": 0.0987295}, 
                {"id": 3, "lemma": "무솔리니", "type": "NNP", "position": 101, "weight": 0.9}, 
                {"id": 4, "lemma": "와", "type": "JKB", "position": 113, "weight": 0.0304966}, 
                {"id": 5, "lemma": "함께", "type": "MAG", "position": 117, "weight": 0.9}, 
                {"id": 6, "lemma": "제", "type": "XPN", "position": 124, "weight": 0.000736225}, 
                {"id": 7, "lemma": "2", "type": "SN", "position": 127, "weight": 1}, 
                {"id": 8, "lemma": "차", "type": "NNB", "position": 128, "weight": 0.109163}, 
                {"id": 9, "lemma": "세계", "type": "NNG", "position": 132, "weight": 0.9}, 
                {"id": 10, "lemma": "대전", "type": "NNG", "position": 138, "weight": 0.117127}, 
                {"id": 11, "lemma": "을", "type": "JKO", "position": 144, "weight": 0.129611}, 
                {"id": 12, "lemma": "일으키", "type": "VV", "position": 148, "weight": 0.9}, 
                {"id": 13, "lemma": "ㄴ", "type": "ETM", "position": 154, "weight": 0.304215}, 
                {"id": 14, "lemma": "이", "type": "MM", "position": 158, "weight": 0.00060084}, 
                {"id": 15, "lemma": "사람", "type": "NNG", "position": 162, "weight": 0.737436}, 
                {"id": 16, "lemma": "은", "type": "JX", "position": 168, "weight": 0.0449928}, 
                {"id": 17, "lemma": "?", "type": "SF", "position": 171, "weight": 1}
            ], 
            "morp_eval": [], 
            "WSD": [
                {"id": 0, "text": "이후", "type": "NNG", "scode": "020002", "weight": 0.166667, "position": 78, "begin": 0, "end": 0}, 
                {"id": 1, "text": "이탈리아", "type": "NNP", "scode": "000000", "weight": 1, "position": 85, "begin": 1, "end": 1}, 
                {"id": 2, "text": "의", "type": "JKG", "scode": "000000", "weight": 1, "position": 97, "begin": 2, "end": 2}, 
                {"id": 3, "text": "무솔리니", "type": "NNP", "scode": "000000", "weight": 1, "position": 101, "begin": 3, "end": 3}, 
                {"id": 4, "text": "와", "type": "JKB", "scode": "000000", "weight": 1, "position": 113, "begin": 4, "end": 4}, 
                {"id": 5, "text": "함께", "type": "MAG", "scode": "000000", "weight": 1, "position": 117, "begin": 5, "end": 5}, 
                {"id": 6, "text": "제", "type": "XPN", "scode": "210000", "weight": 0.0322581, "position": 124, "begin": 6, "end": 6}, 
                {"id": 7, "text": "2", "type": "SN", "scode": "000000", "weight": 1, "position": 127, "begin": 7, "end": 7}, 
                {"id": 8, "text": "차", "type": "NNB", "scode": "030001", "weight": 0.05, "position": 128, "begin": 8, "end": 8}, 
                {"id": 9, "text": "세계대전", "type": "NNG", "scode": "000003", "weight": 0.333333, "position": 132, "begin": 9, "end": 10}, 
                {"id": 10, "text": "을", "type": "JKO", "scode": "000000", "weight": 1, "position": 144, "begin": 11, "end": 11}, 
                {"id": 11, "text": "일으키", "type": "VV", "scode": "000004", "weight": 0.166667, "position": 148, "begin": 12, "end": 12}, 
                {"id": 12, "text": "ㄴ", "type": "ETM", "scode": "000000", "weight": 1, "position": 154, "begin": 13, "end": 13}, 
                {"id": 13, "text": "이", "type": "MM", "scode": "050102", "weight": 0.0172414, "position": 158, "begin": 14, "end": 14}, 
                {"id": 14, "text": "사람", "type": "NNG", "scode": "000001", "weight": 0.0909091, "position": 162, "begin": 15, "end": 15}, 
                {"id": 15, "text": "은", "type": "JX", "scode": "000000", "weight": 1, "position": 168, "begin": 16, "end": 16}, 
                {"id": 16, "text": "?", "type": "SF", "scode": "000000", "weight": 1, "position": 171, "begin": 17, "end": 17}
            ], 
            "word": [
                {"id": 0, "text": "이후", "type": "", "begin": 0, "end": 0}, 
                {"id": 1, "text": "이탈리아의", "type": "", "begin": 1, "end": 2}, 
                {"id": 2, "text": "무솔리니와", "type": "", "begin": 3, "end": 4}, 
                {"id": 3, "text": "함께", "type": "", "begin": 5, "end": 5}, 
                {"id": 4, "text": "제2차", "type": "", "begin": 6, "end": 8}, 
                {"id": 5, "text": "세계대전을", "type": "", "begin": 9, "end": 11}, 
                {"id": 6, "text": "일으킨", "type": "", "begin": 12, "end": 13}, 
                {"id": 7, "text": "이", "type": "", "begin": 14, "end": 14}, 
                {"id": 8, "text": "사람은?", "type": "", "begin": 15, "end": 17}
            ], 
            "NE": [
                {"id": 0, "text": "이탈리아", "type": "LCP_COUNTRY", "begin": 1, "end": 1, "weight": 0.542979, "common_noun": 0}, 
                {"id": 1, "text": "무솔리니", "type": "PS_NAME", "begin": 3, "end": 3, "weight": 0.285545, "common_noun": 0}, 
                {"id": 2, "text": "제2차 세계대전", "type": "EV_WAR_REVOLUTION", "begin": 6, "end": 10, "weight": 0.952345, "common_noun": 0}
            ], 
            "chunk": [], 
            "dependency": [
                {"id": 0, "text": "이후", "head": 6, "label": "NP_AJT", "mod": [], "weight": 0.708223}, 
                {"id": 1, "text": "이탈리아의", "head": 2, "label": "NP_MOD", "mod": [], "weight": 0.638112}, 
                {"id": 2, "text": "무솔리니와", "head": 3, "label": "NP_AJT", "mod": [1], "weight": 0.575373}, 
                {"id": 3, "text": "함께", "head": 6, "label": "AP", "mod": [2], "weight": 0.787579}, 
                {"id": 4, "text": "제2차", "head": 5, "label": "NP", "mod": [], "weight": 0.76318}, 
                {"id": 5, "text": "세계대전을", "head": 6, "label": "NP_OBJ", "mod": [4], "weight": 0.748375}, 
                {"id": 6, "text": "일으킨", "head": 8, "label": "VP_MOD", "mod": [0, 3, 5], "weight": 0.708319}, 
                {"id": 7, "text": "이", "head": 8, "label": "DP", "mod": [], "weight": 0.668563}, 
                {"id": 8, "text": "사람은?", "head": -1, "label": "NP_SBJ", "mod": [6, 7], "weight": 0.0256488}
            ], 
            "SRL": [
                {"verb": "일으키", "sense": 1, "word_id": 6, "weight": 0.237742, "argument": [
                    {"type": "ARGM-TMP", "word_id": 0, "text": "이후", "weight": 0.249915}, 
                    {"type": "ARG1", "word_id": 5, "text": "세계대전을", "weight": 0.286687}, 
                    {"type": "ARG0", "word_id": 8, "text": "사람은?", "weight": 0.2085}, 
                    {"type": "ARGM-ADV", "word_id": 3, "text": "함께", "weight": 1}
                ]}
            ], 
            "relation": [], 
            "SA": [], 
            "ZA": []
        }
    ], 
    "entity": [
        {"id": 0, "type": "", "number": "singular", "gender": "", "person": "", "animacy": "thing", "mention": [
            {"id": 1, "sent_id": 0, "start_eid": 2, "end_eid": 3, "ne_id": -1, "text": "이 사람은", "start_eid_short": 2, "end_eid_short": 3, "text_short": "이 사람은"}, 
            {"id": 8, "sent_id": 1, "start_eid": 7, "end_eid": 8, "ne_id": -1, "text": "이 사람은?", "start_eid_short": 8, "end_eid_short": 8, "text_short": "사람은?"}
        ]}, 
        {"id": 1, "type": "OGG_POLITICS", "number": "singular", "gender": "", "person": "", "animacy": "thing", "mention": [
            {"id": 0, "sent_id": 0, "start_eid": 0, "end_eid": 0, "ne_id": 0, "text": "나치당의", "start_eid_short": 0, "end_eid_short": 0, "text_short": "나치당의"}
        ]}, 
        {"id": 2, "type": "DT_YEAR", "number": "singular", "gender": "", "person": "", "animacy": "time", "mention": [
            {"id": 2, "sent_id": 0, "start_eid": 4, "end_eid": 4, "ne_id": 2, "text": "1933년", "start_eid_short": 4, "end_eid_short": 4, "text_short": "1933년"}
        ]}, 
        {"id": 3, "type": "CV_POSITION", "number": "singular", "gender": "", "person": "", "animacy": "human", "mention": [
            {"id": 3, "sent_id": 0, "start_eid": 5, "end_eid": 6, "ne_id": 4, "text": "독일 총리에", "start_eid_short": 5, "end_eid_short": 6, "text_short": "독일 총리에"}
        ]}, 
        {"id": 4, "type": "LCP_COUNTRY", "number": "singular", "gender": "", "person": "", "animacy": "place", "mention": [
            {"id": 4, "sent_id": 0, "start_eid": 5, "end_eid": 5, "ne_id": 3, "text": "독일", "start_eid_short": 5, "end_eid_short": 5, "text_short": "독일"}
        ]}, 
        {"id": 5, "type": "PS_NAME", "number": "singular", "gender": "", "person": "", "animacy": "human", "mention": [
            {"id": 5, "sent_id": 1, "start_eid": 1, "end_eid": 2, "ne_id": 1, "text": "이탈리아의 무솔리니와", "start_eid_short": 2, "end_eid_short": 2, "text_short": "무솔리니와"}
        ]}, 
        {"id": 6, "type": "LCP_COUNTRY", "number": "singular", "gender": "", "person": "", "animacy": "place", "mention": [
            {"id": 6, "sent_id": 1, "start_eid": 1, "end_eid": 1, "ne_id": 0, "text": "이탈리아의", "start_eid_short": 1, "end_eid_short": 1, "text_short": "이탈리아의"}
        ]}, 
        {"id": 7, "type": "EV_WAR_REVOLUTION", "number": "singular", "gender": "", "person": "", "animacy": "thing", "mention": [
            {"id": 7, "sent_id": 1, "start_eid": 4, "end_eid": 5, "ne_id": 2, "text": "제2차 세계대전을", "start_eid_short": 4, "end_eid_short": 5, "text_short": "제2차 세계대전을"}
        ]}
    ]
}