{
    "doc_id": "E2016.835.17_A_01.json", 
    "DCT": "", 
    "category": "", 
    "category_weight": 0, 
    "title": {
        "text": "크리스토퍼 콜럼버스", 
        "NE": ""
    }, 
    "metaInfo": {}, 
    "sentence": [
        {
            "id": 0, 
            "reserve_str": "", 
            "text": "이탈리아 제노바 출신의 탐험가이자 아메리카 대륙의 발견자.", 
            "morp": [
                {"id": 0, "lemma": "이탈리아", "type": "NNP", "position": 0, "weight": 0.9}, 
                {"id": 1, "lemma": "제노바", "type": "NNP", "position": 13, "weight": 0.75}, 
                {"id": 2, "lemma": "출신", "type": "NNG", "position": 23, "weight": 0.9}, 
                {"id": 3, "lemma": "의", "type": "JKG", "position": 29, "weight": 0.0694213}, 
                {"id": 4, "lemma": "탐험", "type": "NNG", "position": 33, "weight": 0.9}, 
                {"id": 5, "lemma": "가", "type": "XSN", "position": 39, "weight": 0.000115417}, 
                {"id": 6, "lemma": "이", "type": "VCP", "position": 42, "weight": 0.0165001}, 
                {"id": 7, "lemma": "자", "type": "EC", "position": 45, "weight": 0.109096}, 
                {"id": 8, "lemma": "아메리카", "type": "NNP", "position": 49, "weight": 0.9}, 
                {"id": 9, "lemma": "대륙", "type": "NNG", "position": 62, "weight": 0.9}, 
                {"id": 10, "lemma": "의", "type": "JKG", "position": 68, "weight": 0.0694213}, 
                {"id": 11, "lemma": "발견", "type": "NNG", "position": 72, "weight": 0.9}, 
                {"id": 12, "lemma": "자", "type": "XSN", "position": 78, "weight": 0.00398741}, 
                {"id": 13, "lemma": ".", "type": "SF", "position": 81, "weight": 1}
            ], 
            "morp_eval": [], 
            "WSD": [
                {"id": 0, "text": "이탈리아", "type": "NNP", "scode": "000000", "weight": 1, "position": 0, "begin": 0, "end": 0}, 
                {"id": 1, "text": "제노바", "type": "NNP", "scode": "000000", "weight": 1, "position": 13, "begin": 1, "end": 1}, 
                {"id": 2, "text": "출신", "type": "NNG", "scode": "000002", "weight": 0.142857, "position": 23, "begin": 2, "end": 2}, 
                {"id": 3, "text": "의", "type": "JKG", "scode": "000000", "weight": 1, "position": 29, "begin": 3, "end": 3}, 
                {"id": 4, "text": "탐험가", "type": "NNG", "scode": "000000", "weight": 1, "position": 33, "begin": 4, "end": 5}, 
                {"id": 5, "text": "이", "type": "VCP", "scode": "030000", "weight": 0.0172414, "position": 42, "begin": 6, "end": 6}, 
                {"id": 6, "text": "자", "type": "EC", "scode": "000000", "weight": 1, "position": 45, "begin": 7, "end": 7}, 
                {"id": 7, "text": "아메리카", "type": "NNP", "scode": "020001", "weight": 0.333333, "position": 49, "begin": 8, "end": 8}, 
                {"id": 8, "text": "대륙", "type": "NNG", "scode": "010001", "weight": 0.333333, "position": 62, "begin": 9, "end": 9}, 
                {"id": 9, "text": "의", "type": "JKG", "scode": "000000", "weight": 1, "position": 68, "begin": 10, "end": 10}, 
                {"id": 10, "text": "발견자", "type": "NNG", "scode": "000000", "weight": 1, "position": 72, "begin": 11, "end": 12}, 
                {"id": 11, "text": ".", "type": "SF", "scode": "000000", "weight": 1, "position": 81, "begin": 13, "end": 13}
            ], 
            "word": [
                {"id": 0, "text": "이탈리아", "type": "", "begin": 0, "end": 0}, 
                {"id": 1, "text": "제노바", "type": "", "begin": 1, "end": 1}, 
                {"id": 2, "text": "출신의", "type": "", "begin": 2, "end": 3}, 
                {"id": 3, "text": "탐험가이자", "type": "", "begin": 4, "end": 7}, 
                {"id": 4, "text": "아메리카", "type": "", "begin": 8, "end": 8}, 
                {"id": 5, "text": "대륙의", "type": "", "begin": 9, "end": 10}, 
                {"id": 6, "text": "발견자.", "type": "", "begin": 11, "end": 13}
            ], 
            "NE": [
                {"id": 0, "text": "이탈리아", "type": "LCP_COUNTRY", "begin": 0, "end": 0, "weight": 0.606512, "common_noun": 0}, 
                {"id": 1, "text": "제노바", "type": "LCP_CITY", "begin": 1, "end": 1, "weight": 0.538103, "common_noun": 0}, 
                {"id": 2, "text": "탐험가", "type": "CV_OCCUPATION", "begin": 4, "end": 5, "weight": 0.782143, "common_noun": 0}, 
                {"id": 3, "text": "아메리카", "type": "LCG_CONTINENT", "begin": 8, "end": 8, "weight": 0.57272, "common_noun": 0}
            ], 
            "chunk": [], 
            "dependency": [
                {"id": 0, "text": "이탈리아", "head": 1, "label": "NP", "mod": [], "weight": 0.44816}, 
                {"id": 1, "text": "제노바", "head": 2, "label": "NP", "mod": [0], "weight": 0.820175}, 
                {"id": 2, "text": "출신의", "head": 3, "label": "NP_MOD", "mod": [1], "weight": 0.855946}, 
                {"id": 3, "text": "탐험가이자", "head": 6, "label": "VNP", "mod": [2], "weight": 0.650733}, 
                {"id": 4, "text": "아메리카", "head": 5, "label": "NP", "mod": [], "weight": 0.7806}, 
                {"id": 5, "text": "대륙의", "head": 6, "label": "NP_MOD", "mod": [4], "weight": 0.786195}, 
                {"id": 6, "text": "발견자.", "head": -1, "label": "NP", "mod": [3, 5], "weight": 0.110711}
            ], 
            "SRL": [], 
            "relation": [], 
            "SA": [], 
            "ZA": []
        }, 
        {
            "id": 1, 
            "reserve_str": "", 
            "text": "서인도 항로를 개척하여 아메리카 대륙이 유럽인들의 활동무대가 되게 함.", 
            "morp": [
                {"id": 0, "lemma": "서", "type": "NNG", "position": 82, "weight": 0.9}, 
                {"id": 1, "lemma": "인도", "type": "NNP", "position": 82, "weight": 0.9}, 
                {"id": 2, "lemma": "항로", "type": "NNG", "position": 92, "weight": 0.9}, 
                {"id": 3, "lemma": "를", "type": "JKO", "position": 98, "weight": 0.137686}, 
                {"id": 4, "lemma": "개척", "type": "NNG", "position": 102, "weight": 0.9}, 
                {"id": 5, "lemma": "하", "type": "XSV", "position": 108, "weight": 0.0001}, 
                {"id": 6, "lemma": "아", "type": "EC", "position": 111, "weight": 0.361326}, 
                {"id": 7, "lemma": "아메리카", "type": "NNP", "position": 115, "weight": 0.9}, 
                {"id": 8, "lemma": "대륙", "type": "NNG", "position": 128, "weight": 0.9}, 
                {"id": 9, "lemma": "이", "type": "JKS", "position": 134, "weight": 0.0360723}, 
                {"id": 10, "lemma": "유럽", "type": "NNP", "position": 138, "weight": 0.9}, 
                {"id": 11, "lemma": "인", "type": "XSN", "position": 144, "weight": 0.00915919}, 
                {"id": 12, "lemma": "들", "type": "XSN", "position": 147, "weight": 0.0103232}, 
                {"id": 13, "lemma": "의", "type": "JKG", "position": 150, "weight": 0.120732}, 
                {"id": 14, "lemma": "활동", "type": "NNG", "position": 154, "weight": 0.9}, 
                {"id": 15, "lemma": "무대", "type": "NNG", "position": 160, "weight": 0.184768}, 
                {"id": 16, "lemma": "가", "type": "JKC", "position": 166, "weight": 0.000442184}, 
                {"id": 17, "lemma": "되", "type": "VV", "position": 170, "weight": 0.542406}, 
                {"id": 18, "lemma": "게", "type": "EC", "position": 173, "weight": 0.427975}, 
                {"id": 19, "lemma": "하", "type": "VX", "position": 177, "weight": 0.0899221}, 
                {"id": 20, "lemma": "ㅁ", "type": "ETN", "position": 177, "weight": 0.028142}, 
                {"id": 21, "lemma": ".", "type": "SF", "position": 180, "weight": 1}
            ], 
            "morp_eval": [], 
            "WSD": [
                {"id": 0, "text": "서", "type": "NNG", "scode": "060000", "weight": 0.047619, "position": 82, "begin": 0, "end": 0}, 
                {"id": 1, "text": "인도", "type": "NNP", "scode": "080000", "weight": 0.0714286, "position": 82, "begin": 1, "end": 1}, 
                {"id": 2, "text": "항로", "type": "NNG", "scode": "000001", "weight": 0.5, "position": 92, "begin": 2, "end": 2}, 
                {"id": 3, "text": "를", "type": "JKO", "scode": "000000", "weight": 1, "position": 98, "begin": 3, "end": 3}, 
                {"id": 4, "text": "개척하", "type": "VV", "scode": "000002", "weight": 0.5, "position": 102, "begin": 4, "end": 5}, 
                {"id": 5, "text": "아", "type": "EC", "scode": "000000", "weight": 1, "position": 111, "begin": 6, "end": 6}, 
                {"id": 6, "text": "아메리카", "type": "NNP", "scode": "020001", "weight": 0.333333, "position": 115, "begin": 7, "end": 7}, 
                {"id": 7, "text": "대륙", "type": "NNG", "scode": "010001", "weight": 0.333333, "position": 128, "begin": 8, "end": 8}, 
                {"id": 8, "text": "이", "type": "JKS", "scode": "000000", "weight": 1, "position": 134, "begin": 9, "end": 9}, 
                {"id": 9, "text": "유럽", "type": "NNP", "scode": "020000", "weight": 0.5, "position": 138, "begin": 10, "end": 10}, 
                {"id": 10, "text": "인들", "type": "NNG", "scode": "000000", "weight": 1, "position": 144, "begin": 11, "end": 12}, 
                {"id": 11, "text": "의", "type": "JKG", "scode": "000000", "weight": 1, "position": 150, "begin": 13, "end": 13}, 
                {"id": 12, "text": "활동", "type": "NNG", "scode": "020002", "weight": 0.166667, "position": 154, "begin": 14, "end": 14}, 
                {"id": 13, "text": "무대", "type": "NNG", "scode": "060002", "weight": 0.1, "position": 160, "begin": 15, "end": 15}, 
                {"id": 14, "text": "가", "type": "JKC", "scode": "000000", "weight": 1, "position": 166, "begin": 16, "end": 16}, 
                {"id": 15, "text": "되", "type": "VV", "scode": "010301", "weight": 0.03125, "position": 170, "begin": 17, "end": 17}, 
                {"id": 16, "text": "게", "type": "EC", "scode": "000000", "weight": 1, "position": 173, "begin": 18, "end": 18}, 
                {"id": 17, "text": "하", "type": "VX", "scode": "011101", "weight": 0.02, "position": 177, "begin": 19, "end": 19}, 
                {"id": 18, "text": "ㅁ", "type": "ETN", "scode": "000000", "weight": 1, "position": 177, "begin": 20, "end": 20}, 
                {"id": 19, "text": ".", "type": "SF", "scode": "000000", "weight": 1, "position": 180, "begin": 21, "end": 21}
            ], 
            "word": [
                {"id": 0, "text": "서인도", "type": "", "begin": 0, "end": 1}, 
                {"id": 1, "text": "항로를", "type": "", "begin": 2, "end": 3}, 
                {"id": 2, "text": "개척하여", "type": "", "begin": 4, "end": 6}, 
                {"id": 3, "text": "아메리카", "type": "", "begin": 7, "end": 7}, 
                {"id": 4, "text": "대륙이", "type": "", "begin": 8, "end": 9}, 
                {"id": 5, "text": "유럽인들의", "type": "", "begin": 10, "end": 13}, 
                {"id": 6, "text": "활동무대가", "type": "", "begin": 14, "end": 16}, 
                {"id": 7, "text": "되게", "type": "", "begin": 17, "end": 18}, 
                {"id": 8, "text": "함.", "type": "", "begin": 19, "end": 21}
            ], 
            "NE": [
                {"id": 0, "text": "서인도", "type": "LC_OTHERS", "begin": 0, "end": 1, "weight": 1, "common_noun": 0}, 
                {"id": 1, "text": "아메리카", "type": "LCG_CONTINENT", "begin": 7, "end": 7, "weight": 0.609863, "common_noun": 0}, 
                {"id": 2, "text": "유럽인", "type": "CV_TRIBE", "begin": 10, "end": 11, "weight": 0.581471, "common_noun": 0}
            ], 
            "chunk": [], 
            "dependency": [
                {"id": 0, "text": "서인도", "head": 1, "label": "NP", "mod": [], "weight": 0.625176}, 
                {"id": 1, "text": "항로를", "head": 2, "label": "NP_OBJ", "mod": [0], "weight": 0.821362}, 
                {"id": 2, "text": "개척하여", "head": 7, "label": "VP", "mod": [1], "weight": 0.732777}, 
                {"id": 3, "text": "아메리카", "head": 4, "label": "NP", "mod": [], "weight": 0.815952}, 
                {"id": 4, "text": "대륙이", "head": 7, "label": "NP_SBJ", "mod": [3], "weight": 0.800848}, 
                {"id": 5, "text": "유럽인들의", "head": 6, "label": "NP_MOD", "mod": [], "weight": 0.70613}, 
                {"id": 6, "text": "활동무대가", "head": 7, "label": "NP_CMP", "mod": [5], "weight": 0.686812}, 
                {"id": 7, "text": "되게", "head": 8, "label": "VP", "mod": [2, 4, 6], "weight": 0.529756}, 
                {"id": 8, "text": "함.", "head": -1, "label": "VP", "mod": [7], "weight": 0.0498758}
            ], 
            "SRL": [
                {"verb": "개척", "sense": 1, "word_id": 2, "weight": 0.302364, "argument": [
                    {"type": "ARG1", "word_id": 1, "text": "항로를", "weight": 0.302364}
                ]}, 
                {"verb": "되", "sense": 1, "word_id": 7, "weight": 0.278913, "argument": [
                    {"type": "ARG1", "word_id": 4, "text": "대륙이", "weight": 0.226653}, 
                    {"type": "ARG2", "word_id": 6, "text": "활동무대가", "weight": 0.35052}, 
                    {"type": "ARGM-MNR", "word_id": 2, "text": "개척하여", "weight": 1}
                ]}, 
                {"verb": "하", "sense": 4, "word_id": 8, "weight": 0.193354, "argument": [
                    {"type": "ARG1", "word_id": 7, "text": "되게", "weight": 0.193354}
                ]}
            ], 
            "relation": [], 
            "SA": [], 
            "ZA": []
        }
    ], 
    "entity": [
        {"id": 0, "type": "LCP_CITY", "number": "singular", "gender": "", "person": "", "animacy": "place", "mention": [
            {"id": 3, "sent_id": 0, "start_eid": 0, "end_eid": 1, "ne_id": 1, "text": "이탈리아 제노바", "start_eid_short": 0, "end_eid_short": 1, "text_short": "이탈리아 제노바"}
        ]}, 
        {"id": 1, "type": "LCP_COUNTRY", "number": "singular", "gender": "", "person": "", "animacy": "place", "mention": [
            {"id": 4, "sent_id": 0, "start_eid": 0, "end_eid": 0, "ne_id": 0, "text": "이탈리아", "start_eid_short": 0, "end_eid_short": 0, "text_short": "이탈리아"}
        ]}, 
        {"id": 2, "type": "", "number": "singular", "gender": "", "person": "", "animacy": "thing", "mention": [
            {"id": 2, "sent_id": 0, "start_eid": 0, "end_eid": 2, "ne_id": -1, "text": "이탈리아 제노바 출신의", "start_eid_short": 0, "end_eid_short": 2, "text_short": "이탈리아 제노바 출신의"}
        ]}, 
        {"id": 3, "type": "CV_OCCUPATION", "number": "singular", "gender": "", "person": "", "animacy": "thing", "mention": [
            {"id": 1, "sent_id": 0, "start_eid": 0, "end_eid": 3, "ne_id": 2, "text": "이탈리아 제노바 출신의 탐험가이자", "start_eid_short": 3, "end_eid_short": 3, "text_short": "탐험가이자"}
        ]}, 
        {"id": 4, "type": "", "number": "singular", "gender": "", "person": "", "animacy": "thing", "mention": [
            {"id": 6, "sent_id": 0, "start_eid": 4, "end_eid": 5, "ne_id": -1, "text": "아메리카 대륙의", "start_eid_short": 4, "end_eid_short": 5, "text_short": "아메리카 대륙의"}, 
            {"id": 10, "sent_id": 1, "start_eid": 3, "end_eid": 4, "ne_id": -1, "text": "아메리카 대륙이", "start_eid_short": 3, "end_eid_short": 4, "text_short": "아메리카 대륙이"}
        ]}, 
        {"id": 5, "type": "LCG_CONTINENT", "number": "singular", "gender": "", "person": "", "animacy": "place", "mention": [
            {"id": 7, "sent_id": 0, "start_eid": 4, "end_eid": 4, "ne_id": 3, "text": "아메리카", "start_eid_short": 4, "end_eid_short": 4, "text_short": "아메리카"}, 
            {"id": 11, "sent_id": 1, "start_eid": 3, "end_eid": 3, "ne_id": 2, "text": "아메리카", "start_eid_short": 3, "end_eid_short": 3, "text_short": "아메리카"}
        ]}, 
        {"id": 6, "type": "", "number": "singular", "gender": "", "person": "", "animacy": "thing", "mention": [
            {"id": 8, "sent_id": 1, "start_eid": 0, "end_eid": 1, "ne_id": -1, "text": "서인도 항로를", "start_eid_short": 0, "end_eid_short": 1, "text_short": "서인도 항로를"}
        ]}, 
        {"id": 7, "type": "LCP_COUNTRY", "number": "singular", "gender": "", "person": "", "animacy": "place", "mention": [
            {"id": 9, "sent_id": 1, "start_eid": 0, "end_eid": 0, "ne_id": 0, "text": "서인도", "start_eid_short": 0, "end_eid_short": 0, "text_short": "서인도"}
        ]}, 
        {"id": 8, "type": "", "number": "singular", "gender": "", "person": "", "animacy": "thing", "mention": [
            {"id": 12, "sent_id": 1, "start_eid": 5, "end_eid": 6, "ne_id": -1, "text": "유럽인들의 활동무대가", "start_eid_short": 6, "end_eid_short": 6, "text_short": "활동무대가"}
        ]}, 
        {"id": 9, "type": "CV_TRIBE", "number": "singular", "gender": "", "person": "", "animacy": "thing", "mention": [
            {"id": 13, "sent_id": 1, "start_eid": 5, "end_eid": 5, "ne_id": 3, "text": "유럽인들의", "start_eid_short": 5, "end_eid_short": 5, "text_short": "유럽인들의"}
        ]}, 
        {"id": 10, "type": "", "number": "singular", "gender": "", "person": "", "animacy": "thing", "mention": [
            {"id": 5, "sent_id": 0, "start_eid": 4, "end_eid": 6, "ne_id": -1, "text": "아메리카 대륙의 발견자.", "start_eid_short": 6, "end_eid_short": 6, "text_short": "발견자."}
        ]}, 
        {"id": 11, "type": "", "number": "singular", "gender": "", "person": "", "animacy": "thing", "mention": [
            {"id": 0, "sent_id": 0, "start_eid": 0, "end_eid": 6, "ne_id": -1, "text": "이탈리아 제노바 출신의 탐험가이자 아메리카 대륙의 발견자.", "start_eid_short": 6, "end_eid_short": 6, "text_short": "발견자."}
        ]}
    ]
}