{
    "doc_id": "E2016.837.15_A_01.json", 
    "DCT": "", 
    "category": "", 
    "category_weight": 0, 
    "title": {
        "text": "나일 강", 
        "NE": ""
    }, 
    "metaInfo": {}, 
    "sentence": [
        {
            "id": 0, 
            "reserve_str": "", 
            "text": "나일강은 빅토리아호와 에티오피아 고원에서 발원하여 북쪽으로 흘러 이집트의 지중해로 유입되는 강이다.", 
            "morp": [
                {"id": 0, "lemma": "나일강", "type": "NNP", "position": 0, "weight": 0.9}, 
                {"id": 1, "lemma": "은", "type": "JX", "position": 9, "weight": 0.0520511}, 
                {"id": 2, "lemma": "빅토리아", "type": "NNP", "position": 13, "weight": 0.0090256}, 
                {"id": 3, "lemma": "호", "type": "NNG", "position": 25, "weight": 0.00130171}, 
                {"id": 4, "lemma": "와", "type": "JC", "position": 28, "weight": 0.00934126}, 
                {"id": 5, "lemma": "에티오피아", "type": "NNP", "position": 32, "weight": 0.9}, 
                {"id": 6, "lemma": "고원", "type": "NNG", "position": 48, "weight": 0.279717}, 
                {"id": 7, "lemma": "에서", "type": "JKB", "position": 54, "weight": 0.153407}, 
                {"id": 8, "lemma": "발원", "type": "NNG", "position": 61, "weight": 0.9}, 
                {"id": 9, "lemma": "하", "type": "XSV", "position": 67, "weight": 0.0001}, 
                {"id": 10, "lemma": "아", "type": "EC", "position": 70, "weight": 0.361326}, 
                {"id": 11, "lemma": "북쪽", "type": "NNG", "position": 74, "weight": 0.9}, 
                {"id": 12, "lemma": "으로", "type": "JKB", "position": 80, "weight": 0.153406}, 
                {"id": 13, "lemma": "흐르", "type": "VV", "position": 87, "weight": 0.9}, 
                {"id": 14, "lemma": "어", "type": "EC", "position": 87, "weight": 0.41831}, 
                {"id": 15, "lemma": "이집트", "type": "NNP", "position": 94, "weight": 0.9}, 
                {"id": 16, "lemma": "의", "type": "JKG", "position": 103, "weight": 0.0987295}, 
                {"id": 17, "lemma": "지중해", "type": "NNP", "position": 107, "weight": 0.0196595}, 
                {"id": 18, "lemma": "로", "type": "JKB", "position": 116, "weight": 0.0822907}, 
                {"id": 19, "lemma": "유입", "type": "NNG", "position": 120, "weight": 0.9}, 
                {"id": 20, "lemma": "되", "type": "XSV", "position": 126, "weight": 0.000224177}, 
                {"id": 21, "lemma": "는", "type": "ETM", "position": 129, "weight": 0.238503}, 
                {"id": 22, "lemma": "강", "type": "NNG", "position": 133, "weight": 0.557636}, 
                {"id": 23, "lemma": "이", "type": "VCP", "position": 136, "weight": 0.0177525}, 
                {"id": 24, "lemma": "다", "type": "EF", "position": 139, "weight": 0.353579}, 
                {"id": 25, "lemma": ".", "type": "SF", "position": 142, "weight": 1}
            ], 
            "morp_eval": [], 
            "WSD": [
                {"id": 0, "text": "나일강", "type": "NNP", "scode": "000000", "weight": 1, "position": 0, "begin": 0, "end": 0}, 
                {"id": 1, "text": "은", "type": "JX", "scode": "000000", "weight": 1, "position": 9, "begin": 1, "end": 1}, 
                {"id": 2, "text": "빅토리아호", "type": "NNP", "scode": "000000", "weight": 1, "position": 13, "begin": 2, "end": 3}, 
                {"id": 3, "text": "와", "type": "JC", "scode": "000000", "weight": 1, "position": 28, "begin": 4, "end": 4}, 
                {"id": 4, "text": "에티오피아", "type": "NNP", "scode": "000000", "weight": 1, "position": 32, "begin": 5, "end": 5}, 
                {"id": 5, "text": "고원", "type": "NNG", "scode": "020000", "weight": 0.125, "position": 48, "begin": 6, "end": 6}, 
                {"id": 6, "text": "에서", "type": "JKB", "scode": "000000", "weight": 1, "position": 54, "begin": 7, "end": 7}, 
                {"id": 7, "text": "발원하", "type": "VV", "scode": "010001", "weight": 0.333333, "position": 61, "begin": 8, "end": 9}, 
                {"id": 8, "text": "아", "type": "EC", "scode": "000000", "weight": 1, "position": 70, "begin": 10, "end": 10}, 
                {"id": 9, "text": "북쪽", "type": "NNG", "scode": "000001", "weight": 0.5, "position": 74, "begin": 11, "end": 11}, 
                {"id": 10, "text": "으로", "type": "JKB", "scode": "000000", "weight": 1, "position": 80, "begin": 12, "end": 12}, 
                {"id": 11, "text": "흐르", "type": "VV", "scode": "010500", "weight": 0.0769231, "position": 87, "begin": 13, "end": 13}, 
                {"id": 12, "text": "어", "type": "EC", "scode": "000000", "weight": 1, "position": 87, "begin": 14, "end": 14}, 
                {"id": 13, "text": "이집트", "type": "NNP", "scode": "000000", "weight": 1, "position": 94, "begin": 15, "end": 15}, 
                {"id": 14, "text": "의", "type": "JKG", "scode": "000000", "weight": 1, "position": 103, "begin": 16, "end": 16}, 
                {"id": 15, "text": "지중해", "type": "NNP", "scode": "020000", "weight": 0.5, "position": 107, "begin": 17, "end": 17}, 
                {"id": 16, "text": "로", "type": "JKB", "scode": "000000", "weight": 1, "position": 116, "begin": 18, "end": 18}, 
                {"id": 17, "text": "유입되", "type": "VV", "scode": "010003", "weight": 0.166667, "position": 120, "begin": 19, "end": 20}, 
                {"id": 18, "text": "는", "type": "ETM", "scode": "000000", "weight": 1, "position": 129, "begin": 21, "end": 21}, 
                {"id": 19, "text": "강", "type": "NNG", "scode": "010000", "weight": 0.0384615, "position": 133, "begin": 22, "end": 22}, 
                {"id": 20, "text": "이", "type": "VCP", "scode": "030000", "weight": 0.0172414, "position": 136, "begin": 23, "end": 23}, 
                {"id": 21, "text": "다", "type": "EF", "scode": "000000", "weight": 1, "position": 139, "begin": 24, "end": 24}, 
                {"id": 22, "text": ".", "type": "SF", "scode": "000000", "weight": 1, "position": 142, "begin": 25, "end": 25}
            ], 
            "word": [
                {"id": 0, "text": "나일강은", "type": "", "begin": 0, "end": 1}, 
                {"id": 1, "text": "빅토리아호와", "type": "", "begin": 2, "end": 4}, 
                {"id": 2, "text": "에티오피아", "type": "", "begin": 5, "end": 5}, 
                {"id": 3, "text": "고원에서", "type": "", "begin": 6, "end": 7}, 
                {"id": 4, "text": "발원하여", "type": "", "begin": 8, "end": 10}, 
                {"id": 5, "text": "북쪽으로", "type": "", "begin": 11, "end": 12}, 
                {"id": 6, "text": "흘러", "type": "", "begin": 13, "end": 14}, 
                {"id": 7, "text": "이집트의", "type": "", "begin": 15, "end": 16}, 
                {"id": 8, "text": "지중해로", "type": "", "begin": 17, "end": 18}, 
                {"id": 9, "text": "유입되는", "type": "", "begin": 19, "end": 21}, 
                {"id": 10, "text": "강이다.", "type": "", "begin": 22, "end": 25}
            ], 
            "NE": [
                {"id": 0, "text": "나일강", "type": "LCG_RIVER", "begin": 0, "end": 0, "weight": 0.32078, "common_noun": 0}, 
                {"id": 1, "text": "빅토리아호", "type": "LCG_RIVER", "begin": 2, "end": 3, "weight": 0.534863, "common_noun": 0}, 
                {"id": 2, "text": "에티오피아 고원", "type": "LC_OTHERS", "begin": 5, "end": 6, "weight": 0.550406, "common_noun": 0}, 
                {"id": 3, "text": "북쪽", "type": "TM_DIRECTION", "begin": 11, "end": 11, "weight": 0.592857, "common_noun": 0}, 
                {"id": 4, "text": "이집트", "type": "LCP_COUNTRY", "begin": 15, "end": 15, "weight": 0.585257, "common_noun": 0}, 
                {"id": 5, "text": "지중해", "type": "LCG_OCEAN", "begin": 17, "end": 17, "weight": 0.576195, "common_noun": 0}
            ], 
            "chunk": [], 
            "dependency": [
                {"id": 0, "text": "나일강은", "head": 4, "label": "NP_SBJ", "mod": [], "weight": 0.621134}, 
                {"id": 1, "text": "빅토리아호와", "head": 3, "label": "NP_CNJ", "mod": [], "weight": 0.428652}, 
                {"id": 2, "text": "에티오피아", "head": 3, "label": "NP", "mod": [], "weight": 0.688485}, 
                {"id": 3, "text": "고원에서", "head": 4, "label": "NP_AJT", "mod": [1, 2], "weight": 0.777545}, 
                {"id": 4, "text": "발원하여", "head": 6, "label": "VP", "mod": [0, 3], "weight": 0.692368}, 
                {"id": 5, "text": "북쪽으로", "head": 6, "label": "NP_AJT", "mod": [], "weight": 0.834379}, 
                {"id": 6, "text": "흘러", "head": 9, "label": "VP", "mod": [4, 5], "weight": 0.707061}, 
                {"id": 7, "text": "이집트의", "head": 8, "label": "NP_MOD", "mod": [], "weight": 0.664424}, 
                {"id": 8, "text": "지중해로", "head": 9, "label": "NP_AJT", "mod": [7], "weight": 0.740101}, 
                {"id": 9, "text": "유입되는", "head": 10, "label": "VP_MOD", "mod": [6, 8], "weight": 0.786531}, 
                {"id": 10, "text": "강이다.", "head": -1, "label": "VNP", "mod": [9], "weight": 0.0195345}
            ], 
            "SRL": [
                {"verb": "발원", "sense": 1, "word_id": 4, "weight": 0.17327, "argument": [
                    {"type": "ARG2", "word_id": 3, "text": "고원에서", "weight": 0.17327}, 
                    {"type": "ARG1", "word_id": 0, "text": "나일강은", "weight": 1}
                ]}, 
                {"verb": "흐르", "sense": 1, "word_id": 6, "weight": 0.157952, "argument": [
                    {"type": "ARGM-DIR", "word_id": 5, "text": "북쪽으로", "weight": 0.157952}, 
                    {"type": "ARG1", "word_id": 0, "text": "나일강은", "weight": 1}
                ]}, 
                {"verb": "유입", "sense": 1, "word_id": 9, "weight": 0.250876, "argument": [
                    {"type": "ARG2", "word_id": 8, "text": "지중해로", "weight": 0.250876}, 
                    {"type": "ARG1", "word_id": 10, "text": "강이다.", "weight": 1}
                ]}
            ], 
            "relation": [], 
            "SA": [], 
            "ZA": []
        }
    ], 
    "entity": [
        {"id": 0, "type": "LCG_RIVER", "number": "singular", "gender": "", "person": "", "animacy": "place", "mention": [
            {"id": 0, "sent_id": 0, "start_eid": 0, "end_eid": 0, "ne_id": 0, "text": "나일강은", "start_eid_short": 0, "end_eid_short": 0, "text_short": "나일강은"}, 
            {"id": 1, "sent_id": 0, "start_eid": 1, "end_eid": 10, "ne_id": -1, "text": "빅토리아호와 에티오피아 고원에서 발원하여 북쪽으로 흘러 이집트의 지중해로 유입되는 강이다.", "start_eid_short": 10, "end_eid_short": 10, "text_short": "강이다."}
        ]}, 
        {"id": 1, "type": "LC_OTHERS", "number": "plural", "gender": "", "person": "", "animacy": "place", "mention": [
            {"id": 2, "sent_id": 0, "start_eid": 1, "end_eid": 3, "ne_id": 2, "text": "빅토리아호와 에티오피아 고원에서", "start_eid_short": 2, "end_eid_short": 3, "text_short": "에티오피아 고원에서"}
        ]}, 
        {"id": 2, "type": "LCG_RIVER", "number": "singular", "gender": "", "person": "", "animacy": "place", "mention": [
            {"id": 3, "sent_id": 0, "start_eid": 1, "end_eid": 1, "ne_id": 1, "text": "빅토리아호와", "start_eid_short": 1, "end_eid_short": 1, "text_short": "빅토리아호와"}
        ]}, 
        {"id": 3, "type": "TM_DIRECTION", "number": "singular", "gender": "", "person": "", "animacy": "thing", "mention": [
            {"id": 5, "sent_id": 0, "start_eid": 5, "end_eid": 5, "ne_id": 3, "text": "북쪽으로", "start_eid_short": 5, "end_eid_short": 5, "text_short": "북쪽으로"}
        ]}, 
        {"id": 4, "type": "LCG_OCEAN", "number": "singular", "gender": "", "person": "", "animacy": "place", "mention": [
            {"id": 6, "sent_id": 0, "start_eid": 7, "end_eid": 8, "ne_id": 5, "text": "이집트의 지중해로", "start_eid_short": 8, "end_eid_short": 8, "text_short": "지중해로"}
        ]}, 
        {"id": 5, "type": "LCP_COUNTRY", "number": "singular", "gender": "", "person": "", "animacy": "place", "mention": [
            {"id": 7, "sent_id": 0, "start_eid": 7, "end_eid": 7, "ne_id": 4, "text": "이집트의", "start_eid_short": 7, "end_eid_short": 7, "text_short": "이집트의"}
        ]}, 
        {"id": 6, "type": "LCG_OCEAN", "number": "singular", "gender": "", "person": "", "animacy": "place", "mention": [
            {"id": 8, "sent_id": 0, "start_eid": 8, "end_eid": 8, "ne_id": 5, "text": "지중해로", "start_eid_short": 8, "end_eid_short": 8, "text_short": "지중해로"}
        ]}, 
        {"id": 7, "type": "LC_OTHERS", "number": "singular", "gender": "", "person": "", "animacy": "place", "mention": [
            {"id": 4, "sent_id": 0, "start_eid": 2, "end_eid": 3, "ne_id": 2, "text": "에티오피아 고원에서", "start_eid_short": 2, "end_eid_short": 3, "text_short": "에티오피아 고원에서"}
        ]}
    ]
}