{
    "doc_id": "E2016.835.03_Q_01.json", 
    "DCT": "", 
    "category": "", 
    "category_weight": 0, 
    "title": {
        "text": "", 
        "NE": ""
    }, 
    "metaInfo": {}, 
    "sentence": [
        {
            "id": 0, 
            "reserve_str": "", 
            "text": "제2차 세계대전을 배경으로 하는 영화가 아닌 것은?", 
            "morp": [
                {"id": 0, "lemma": "제", "type": "XPN", "position": 0, "weight": 0.00190521}, 
                {"id": 1, "lemma": "2", "type": "SN", "position": 3, "weight": 1}, 
                {"id": 2, "lemma": "차", "type": "NNB", "position": 4, "weight": 0.109163}, 
                {"id": 3, "lemma": "세계", "type": "NNG", "position": 8, "weight": 0.9}, 
                {"id": 4, "lemma": "대전", "type": "NNG", "position": 14, "weight": 0.117127}, 
                {"id": 5, "lemma": "을", "type": "JKO", "position": 20, "weight": 0.129611}, 
                {"id": 6, "lemma": "배경", "type": "NNG", "position": 24, "weight": 0.9}, 
                {"id": 7, "lemma": "으로", "type": "JKB", "position": 30, "weight": 0.153406}, 
                {"id": 8, "lemma": "하", "type": "VV", "position": 37, "weight": 0.275522}, 
                {"id": 9, "lemma": "는", "type": "ETM", "position": 40, "weight": 0.184941}, 
                {"id": 10, "lemma": "영화", "type": "NNG", "position": 44, "weight": 0.653578}, 
                {"id": 11, "lemma": "가", "type": "JKC", "position": 50, "weight": 0.000442184}, 
                {"id": 12, "lemma": "아니", "type": "VCN", "position": 54, "weight": 0.354175}, 
                {"id": 13, "lemma": "ㄴ", "type": "ETM", "position": 57, "weight": 0.144018}, 
                {"id": 14, "lemma": "것", "type": "NNB", "position": 61, "weight": 0.228788}, 
                {"id": 15, "lemma": "은", "type": "JX", "position": 64, "weight": 0.0688243}, 
                {"id": 16, "lemma": "?", "type": "SF", "position": 67, "weight": 1}
            ], 
            "morp_eval": [], 
            "WSD": [
                {"id": 0, "text": "제", "type": "XPN", "scode": "210000", "weight": 0.0322581, "position": 0, "begin": 0, "end": 0}, 
                {"id": 1, "text": "2", "type": "SN", "scode": "000000", "weight": 1, "position": 3, "begin": 1, "end": 1}, 
                {"id": 2, "text": "차", "type": "NNB", "scode": "030001", "weight": 0.05, "position": 4, "begin": 2, "end": 2}, 
                {"id": 3, "text": "세계대전", "type": "NNG", "scode": "000003", "weight": 0.333333, "position": 8, "begin": 3, "end": 4}, 
                {"id": 4, "text": "을", "type": "JKO", "scode": "000000", "weight": 1, "position": 20, "begin": 5, "end": 5}, 
                {"id": 5, "text": "배경", "type": "NNG", "scode": "010004", "weight": 0.142857, "position": 24, "begin": 6, "end": 6}, 
                {"id": 6, "text": "으로", "type": "JKB", "scode": "000000", "weight": 1, "position": 30, "begin": 7, "end": 7}, 
                {"id": 7, "text": "하", "type": "VV", "scode": "010101", "weight": 0.02, "position": 37, "begin": 8, "end": 8}, 
                {"id": 8, "text": "는", "type": "ETM", "scode": "000000", "weight": 1, "position": 40, "begin": 9, "end": 9}, 
                {"id": 9, "text": "영화", "type": "NNG", "scode": "010000", "weight": 0.0909091, "position": 44, "begin": 10, "end": 10}, 
                {"id": 10, "text": "가", "type": "JKC", "scode": "000000", "weight": 1, "position": 50, "begin": 11, "end": 11}, 
                {"id": 11, "text": "아니", "type": "VCN", "scode": "000001", "weight": 0.2, "position": 54, "begin": 12, "end": 12}, 
                {"id": 12, "text": "ㄴ", "type": "ETM", "scode": "000000", "weight": 1, "position": 57, "begin": 13, "end": 13}, 
                {"id": 13, "text": "것", "type": "NNB", "scode": "010001", "weight": 0.125, "position": 61, "begin": 14, "end": 14}, 
                {"id": 14, "text": "은", "type": "JX", "scode": "000000", "weight": 1, "position": 64, "begin": 15, "end": 15}, 
                {"id": 15, "text": "?", "type": "SF", "scode": "000000", "weight": 1, "position": 67, "begin": 16, "end": 16}
            ], 
            "word": [
                {"id": 0, "text": "제2차", "type": "", "begin": 0, "end": 2}, 
                {"id": 1, "text": "세계대전을", "type": "", "begin": 3, "end": 5}, 
                {"id": 2, "text": "배경으로", "type": "", "begin": 6, "end": 7}, 
                {"id": 3, "text": "하는", "type": "", "begin": 8, "end": 9}, 
                {"id": 4, "text": "영화가", "type": "", "begin": 10, "end": 11}, 
                {"id": 5, "text": "아닌", "type": "", "begin": 12, "end": 13}, 
                {"id": 6, "text": "것은?", "type": "", "begin": 14, "end": 16}
            ], 
            "NE": [
                {"id": 0, "text": "제2차 세계대전", "type": "EV_WAR_REVOLUTION", "begin": 0, "end": 4, "weight": 0.922422, "common_noun": 0}, 
                {"id": 1, "text": "영화", "type": "FD_ART", "begin": 10, "end": 10, "weight": 0.651843, "common_noun": 0}
            ], 
            "chunk": [], 
            "dependency": [
                {"id": 0, "text": "제2차", "head": 1, "label": "NP", "mod": [], "weight": 0.615082}, 
                {"id": 1, "text": "세계대전을", "head": 3, "label": "NP_OBJ", "mod": [0], "weight": 0.746767}, 
                {"id": 2, "text": "배경으로", "head": 3, "label": "NP_AJT", "mod": [], "weight": 0.812251}, 
                {"id": 3, "text": "하는", "head": 4, "label": "VP_MOD", "mod": [2, 1], "weight": 0.633648}, 
                {"id": 4, "text": "영화가", "head": 5, "label": "NP_CMP", "mod": [3], "weight": 0.631224}, 
                {"id": 5, "text": "아닌", "head": 6, "label": "VP_MOD", "mod": [4], "weight": 0.772266}, 
                {"id": 6, "text": "것은?", "head": -1, "label": "NP_SBJ", "mod": [5], "weight": 0.0803725}
            ], 
            "SRL": [
                {"verb": "하", "sense": 3, "word_id": 3, "weight": 0.219688, "argument": [
                    {"type": "ARG1", "word_id": 1, "text": "세계대전을", "weight": 0.234124}, 
                    {"type": "ARG2", "word_id": 2, "text": "배경으로", "weight": 0.163516}, 
                    {"type": "ARG0", "word_id": 4, "text": "영화가", "weight": 0.261424}
                ]}, 
                {"verb": "아니", "sense": 1, "word_id": 5, "weight": 0.227472, "argument": [
                    {"type": "ARG2", "word_id": 4, "text": "영화가", "weight": 0.275621}, 
                    {"type": "ARG1", "word_id": 6, "text": "것은?", "weight": 0.179323}
                ]}
            ], 
            "relation": [], 
            "SA": [], 
            "ZA": []
        }
    ], 
    "entity": [
        {"id": 0, "type": "", "number": "singular", "gender": "", "person": "", "animacy": "thing", "mention": [
            {"id": 0, "sent_id": 0, "start_eid": 0, "end_eid": 6, "ne_id": -1, "text": "제2차 세계대전을 배경으로 하는 영화가 아닌 것은?", "start_eid_short": 6, "end_eid_short": 6, "text_short": "것은?"}
        ]}, 
        {"id": 1, "type": "FD_ART", "number": "singular", "gender": "", "person": "", "animacy": "thing", "mention": [
            {"id": 1, "sent_id": 0, "start_eid": 0, "end_eid": 4, "ne_id": 1, "text": "제2차 세계대전을 배경으로 하는 영화가", "start_eid_short": 4, "end_eid_short": 4, "text_short": "영화가"}
        ]}, 
        {"id": 2, "type": "", "number": "singular", "gender": "", "person": "", "animacy": "thing", "mention": [
            {"id": 2, "sent_id": 0, "start_eid": 0, "end_eid": 2, "ne_id": -1, "text": "제2차 세계대전을 배경으로", "start_eid_short": 2, "end_eid_short": 2, "text_short": "배경으로"}
        ]}, 
        {"id": 3, "type": "EV_WAR_REVOLUTION", "number": "singular", "gender": "", "person": "", "animacy": "thing", "mention": [
            {"id": 3, "sent_id": 0, "start_eid": 0, "end_eid": 1, "ne_id": 0, "text": "제2차 세계대전을", "start_eid_short": 0, "end_eid_short": 1, "text_short": "제2차 세계대전을"}
        ]}
    ]
}