{
    "doc_id": "E2016.789.07_Q_01.json", 
    "DCT": "", 
    "category": "", 
    "category_weight": 0, 
    "title": {
        "text": "", 
        "NE": ""
    }, 
    "metaInfo": {}, 
    "sentence": [
        {
            "id": 0, 
            "reserve_str": "", 
            "text": "특정 날짜에 발생하는 컴퓨터 악성코드의 이름이 아닌 것은?", 
            "morp": [
                {"id": 0, "lemma": "특정", "type": "NNG", "position": 0, "weight": 0.9}, 
                {"id": 1, "lemma": "날짜", "type": "NNG", "position": 7, "weight": 0.9}, 
                {"id": 2, "lemma": "에", "type": "JKB", "position": 13, "weight": 0.153364}, 
                {"id": 3, "lemma": "발생", "type": "NNG", "position": 17, "weight": 0.9}, 
                {"id": 4, "lemma": "하", "type": "XSV", "position": 23, "weight": 0.0001}, 
                {"id": 5, "lemma": "는", "type": "ETM", "position": 26, "weight": 0.238503}, 
                {"id": 6, "lemma": "컴퓨터", "type": "NNG", "position": 30, "weight": 0.9}, 
                {"id": 7, "lemma": "악성", "type": "NNG", "position": 40, "weight": 0.9}, 
                {"id": 8, "lemma": "코드", "type": "NNG", "position": 46, "weight": 0.184129}, 
                {"id": 9, "lemma": "의", "type": "JKG", "position": 52, "weight": 0.0694213}, 
                {"id": 10, "lemma": "이름", "type": "NNG", "position": 56, "weight": 0.9}, 
                {"id": 11, "lemma": "이", "type": "JKC", "position": 62, "weight": 0.000287945}, 
                {"id": 12, "lemma": "아니", "type": "VCN", "position": 66, "weight": 0.354175}, 
                {"id": 13, "lemma": "ㄴ", "type": "ETM", "position": 69, "weight": 0.144018}, 
                {"id": 14, "lemma": "것", "type": "NNB", "position": 73, "weight": 0.228788}, 
                {"id": 15, "lemma": "은", "type": "JX", "position": 76, "weight": 0.0688243}, 
                {"id": 16, "lemma": "?", "type": "SF", "position": 79, "weight": 1}
            ], 
            "morp_eval": [], 
            "WSD": [
                {"id": 0, "text": "특정", "type": "NNG", "scode": "000000", "weight": 1, "position": 0, "begin": 0, "end": 0}, 
                {"id": 1, "text": "날짜", "type": "NNG", "scode": "010003", "weight": 0.2, "position": 7, "begin": 1, "end": 1}, 
                {"id": 2, "text": "에", "type": "JKB", "scode": "000000", "weight": 1, "position": 13, "begin": 2, "end": 2}, 
                {"id": 3, "text": "발생하", "type": "VV", "scode": "000001", "weight": 0.5, "position": 17, "begin": 3, "end": 4}, 
                {"id": 4, "text": "는", "type": "ETM", "scode": "000000", "weight": 1, "position": 26, "begin": 5, "end": 5}, 
                {"id": 5, "text": "컴퓨터", "type": "NNG", "scode": "000000", "weight": 1, "position": 30, "begin": 6, "end": 6}, 
                {"id": 6, "text": "악성", "type": "NNG", "scode": "010002", "weight": 0.166667, "position": 40, "begin": 7, "end": 7}, 
                {"id": 7, "text": "코드", "type": "NNG", "scode": "020003", "weight": 0.125, "position": 46, "begin": 8, "end": 8}, 
                {"id": 8, "text": "의", "type": "JKG", "scode": "000000", "weight": 1, "position": 52, "begin": 9, "end": 9}, 
                {"id": 9, "text": "이름", "type": "NNG", "scode": "000001", "weight": 0.111111, "position": 56, "begin": 10, "end": 10}, 
                {"id": 10, "text": "이", "type": "JKC", "scode": "000000", "weight": 1, "position": 62, "begin": 11, "end": 11}, 
                {"id": 11, "text": "아니", "type": "VCN", "scode": "000001", "weight": 0.2, "position": 66, "begin": 12, "end": 12}, 
                {"id": 12, "text": "ㄴ", "type": "ETM", "scode": "000000", "weight": 1, "position": 69, "begin": 13, "end": 13}, 
                {"id": 13, "text": "것", "type": "NNB", "scode": "010001", "weight": 0.125, "position": 73, "begin": 14, "end": 14}, 
                {"id": 14, "text": "은", "type": "JX", "scode": "000000", "weight": 1, "position": 76, "begin": 15, "end": 15}, 
                {"id": 15, "text": "?", "type": "SF", "scode": "000000", "weight": 1, "position": 79, "begin": 16, "end": 16}
            ], 
            "word": [
                {"id": 0, "text": "특정", "type": "", "begin": 0, "end": 0}, 
                {"id": 1, "text": "날짜에", "type": "", "begin": 1, "end": 2}, 
                {"id": 2, "text": "발생하는", "type": "", "begin": 3, "end": 5}, 
                {"id": 3, "text": "컴퓨터", "type": "", "begin": 6, "end": 6}, 
                {"id": 4, "text": "악성코드의", "type": "", "begin": 7, "end": 9}, 
                {"id": 5, "text": "이름이", "type": "", "begin": 10, "end": 11}, 
                {"id": 6, "text": "아닌", "type": "", "begin": 12, "end": 13}, 
                {"id": 7, "text": "것은?", "type": "", "begin": 14, "end": 16}
            ], 
            "NE": [
                {"id": 0, "text": "컴퓨터", "type": "TMI_HW", "begin": 6, "end": 6, "weight": 0.492671, "common_noun": 0}
            ], 
            "chunk": [], 
            "dependency": [
                {"id": 0, "text": "특정", "head": 1, "label": "NP", "mod": [], "weight": 0.654925}, 
                {"id": 1, "text": "날짜에", "head": 2, "label": "NP_AJT", "mod": [0], "weight": 0.868433}, 
                {"id": 2, "text": "발생하는", "head": 4, "label": "VP_MOD", "mod": [1], "weight": 0.539411}, 
                {"id": 3, "text": "컴퓨터", "head": 4, "label": "NP", "mod": [], "weight": 0.613497}, 
                {"id": 4, "text": "악성코드의", "head": 5, "label": "NP_MOD", "mod": [2, 3], "weight": 0.756745}, 
                {"id": 5, "text": "이름이", "head": 6, "label": "NP_CMP", "mod": [4], "weight": 0.602598}, 
                {"id": 6, "text": "아닌", "head": 7, "label": "VP_MOD", "mod": [5], "weight": 0.745934}, 
                {"id": 7, "text": "것은?", "head": -1, "label": "NP_SBJ", "mod": [6], "weight": 0.0435533}
            ], 
            "SRL": [
                {"verb": "발생", "sense": 1, "word_id": 2, "weight": 0.131104, "argument": [
                    {"type": "ARGM-TMP", "word_id": 1, "text": "날짜에", "weight": 1}, 
                    {"type": "ARG1", "word_id": 4, "text": "악성코드의", "weight": 0.184444}
                ]}, 
                {"verb": "아니", "sense": 1, "word_id": 6, "weight": 0.273996, "argument": [
                    {"type": "ARG2", "word_id": 5, "text": "이름이", "weight": 0.379235}, 
                    {"type": "ARG1", "word_id": 7, "text": "것은?", "weight": 0.168757}
                ]}
            ], 
            "relation": [], 
            "SA": [], 
            "ZA": []
        }
    ], 
    "entity": [
        {"id": 0, "type": "", "number": "singular", "gender": "", "person": "", "animacy": "thing", "mention": [
            {"id": 0, "sent_id": 0, "start_eid": 0, "end_eid": 7, "ne_id": -1, "text": "특정 날짜에 발생하는 컴퓨터 악성코드의 이름이 아닌 것은?", "start_eid_short": 7, "end_eid_short": 7, "text_short": "것은?"}
        ]}, 
        {"id": 1, "type": "", "number": "singular", "gender": "", "person": "", "animacy": "thing", "mention": [
            {"id": 1, "sent_id": 0, "start_eid": 0, "end_eid": 5, "ne_id": -1, "text": "특정 날짜에 발생하는 컴퓨터 악성코드의 이름이", "start_eid_short": 5, "end_eid_short": 5, "text_short": "이름이"}, 
            {"id": 2, "sent_id": 0, "start_eid": 0, "end_eid": 4, "ne_id": -1, "text": "특정 날짜에 발생하는 컴퓨터 악성코드의", "start_eid_short": 3, "end_eid_short": 4, "text_short": "컴퓨터 악성코드의"}
        ]}, 
        {"id": 2, "type": "", "number": "singular", "gender": "", "person": "", "animacy": "thing", "mention": [
            {"id": 3, "sent_id": 0, "start_eid": 0, "end_eid": 1, "ne_id": -1, "text": "특정 날짜에", "start_eid_short": 0, "end_eid_short": 1, "text_short": "특정 날짜에"}
        ]}, 
        {"id": 3, "type": "", "number": "singular", "gender": "", "person": "", "animacy": "thing", "mention": [
            {"id": 4, "sent_id": 0, "start_eid": 0, "end_eid": 0, "ne_id": -1, "text": "특정", "start_eid_short": 0, "end_eid_short": 0, "text_short": "특정"}
        ]}, 
        {"id": 4, "type": "TMI_HW", "number": "singular", "gender": "", "person": "", "animacy": "thing", "mention": [
            {"id": 5, "sent_id": 0, "start_eid": 3, "end_eid": 3, "ne_id": 0, "text": "컴퓨터", "start_eid_short": 3, "end_eid_short": 3, "text_short": "컴퓨터"}
        ]}
    ]
}