{
    "doc_id": "E2016.888.08_Q_01.json", 
    "DCT": "", 
    "category": "", 
    "category_weight": 0, 
    "title": {
        "text": "", 
        "NE": ""
    }, 
    "metaInfo": {}, 
    "sentence": [
        {
            "id": 0, 
            "reserve_str": "", 
            "text": "흔히 아이에게 하는 말 중 표기법이 올바른 것은 무엇일까?", 
            "morp": [
                {"id": 0, "lemma": "흔히", "type": "MAG", "position": 0, "weight": 0.9}, 
                {"id": 1, "lemma": "아이", "type": "NNG", "position": 7, "weight": 0.258228}, 
                {"id": 2, "lemma": "에게", "type": "JKB", "position": 13, "weight": 0.153356}, 
                {"id": 3, "lemma": "하", "type": "VV", "position": 20, "weight": 0.275522}, 
                {"id": 4, "lemma": "는", "type": "ETM", "position": 23, "weight": 0.184941}, 
                {"id": 5, "lemma": "말", "type": "NNG", "position": 27, "weight": 0.528926}, 
                {"id": 6, "lemma": "중", "type": "NNB", "position": 31, "weight": 0.013531}, 
                {"id": 7, "lemma": "표기", "type": "NNG", "position": 35, "weight": 0.9}, 
                {"id": 8, "lemma": "법", "type": "NNG", "position": 41, "weight": 0.11676}, 
                {"id": 9, "lemma": "이", "type": "JKS", "position": 44, "weight": 0.0360723}, 
                {"id": 10, "lemma": "올바르", "type": "VA", "position": 48, "weight": 0.9}, 
                {"id": 11, "lemma": "ㄴ", "type": "ETM", "position": 54, "weight": 0.430446}, 
                {"id": 12, "lemma": "것", "type": "NNB", "position": 58, "weight": 0.228788}, 
                {"id": 13, "lemma": "은", "type": "JX", "position": 61, "weight": 0.0688243}, 
                {"id": 14, "lemma": "무엇", "type": "NP", "position": 65, "weight": 0.9}, 
                {"id": 15, "lemma": "이", "type": "VCP", "position": 71, "weight": 0.0175768}, 
                {"id": 16, "lemma": "ㄹ까", "type": "EF", "position": 71, "weight": 0.258243}, 
                {"id": 17, "lemma": "?", "type": "SF", "position": 77, "weight": 1}
            ], 
            "morp_eval": [], 
            "WSD": [
                {"id": 0, "text": "흔히", "type": "MAG", "scode": "000000", "weight": 1, "position": 0, "begin": 0, "end": 0}, 
                {"id": 1, "text": "아이", "type": "NNG", "scode": "010001", "weight": 0.0909091, "position": 7, "begin": 1, "end": 1}, 
                {"id": 2, "text": "에게", "type": "JKB", "scode": "000000", "weight": 1, "position": 13, "begin": 2, "end": 2}, 
                {"id": 3, "text": "하", "type": "VV", "scode": "010101", "weight": 0.02, "position": 20, "begin": 3, "end": 3}, 
                {"id": 4, "text": "는", "type": "ETM", "scode": "000000", "weight": 1, "position": 23, "begin": 4, "end": 4}, 
                {"id": 5, "text": "말", "type": "NNG", "scode": "010004", "weight": 0.0384615, "position": 27, "begin": 5, "end": 5}, 
                {"id": 6, "text": "중", "type": "NNB", "scode": "040101", "weight": 0.0526316, "position": 31, "begin": 6, "end": 6}, 
                {"id": 7, "text": "표기법", "type": "NNG", "scode": "000000", "weight": 1, "position": 35, "begin": 7, "end": 8}, 
                {"id": 8, "text": "이", "type": "JKS", "scode": "000000", "weight": 1, "position": 44, "begin": 9, "end": 9}, 
                {"id": 9, "text": "올바르", "type": "VA", "scode": "000000", "weight": 1, "position": 48, "begin": 10, "end": 10}, 
                {"id": 10, "text": "ㄴ", "type": "ETM", "scode": "000000", "weight": 1, "position": 54, "begin": 11, "end": 11}, 
                {"id": 11, "text": "것", "type": "NNB", "scode": "010001", "weight": 0.125, "position": 58, "begin": 12, "end": 12}, 
                {"id": 12, "text": "은", "type": "JX", "scode": "000000", "weight": 1, "position": 61, "begin": 13, "end": 13}, 
                {"id": 13, "text": "무엇", "type": "NP", "scode": "000001", "weight": 0.5, "position": 65, "begin": 14, "end": 14}, 
                {"id": 14, "text": "이", "type": "VCP", "scode": "030000", "weight": 0.0172414, "position": 71, "begin": 15, "end": 15}, 
                {"id": 15, "text": "ㄹ까", "type": "EF", "scode": "000000", "weight": 1, "position": 71, "begin": 16, "end": 16}, 
                {"id": 16, "text": "?", "type": "SF", "scode": "000000", "weight": 1, "position": 77, "begin": 17, "end": 17}
            ], 
            "word": [
                {"id": 0, "text": "흔히", "type": "", "begin": 0, "end": 0}, 
                {"id": 1, "text": "아이에게", "type": "", "begin": 1, "end": 2}, 
                {"id": 2, "text": "하는", "type": "", "begin": 3, "end": 4}, 
                {"id": 3, "text": "말", "type": "", "begin": 5, "end": 5}, 
                {"id": 4, "text": "중", "type": "", "begin": 6, "end": 6}, 
                {"id": 5, "text": "표기법이", "type": "", "begin": 7, "end": 9}, 
                {"id": 6, "text": "올바른", "type": "", "begin": 10, "end": 11}, 
                {"id": 7, "text": "것은", "type": "", "begin": 12, "end": 13}, 
                {"id": 8, "text": "무엇일까?", "type": "", "begin": 14, "end": 17}
            ], 
            "NE": [], 
            "chunk": [], 
            "dependency": [
                {"id": 0, "text": "흔히", "head": 2, "label": "AP", "mod": [], "weight": 0.555532}, 
                {"id": 1, "text": "아이에게", "head": 2, "label": "NP_AJT", "mod": [], "weight": 0.827891}, 
                {"id": 2, "text": "하는", "head": 3, "label": "VP_MOD", "mod": [1, 0], "weight": 0.623705}, 
                {"id": 3, "text": "말", "head": 4, "label": "NP", "mod": [2], "weight": 0.819272}, 
                {"id": 4, "text": "중", "head": 6, "label": "NP_AJT", "mod": [3], "weight": 0.727466}, 
                {"id": 5, "text": "표기법이", "head": 6, "label": "NP_SBJ", "mod": [], "weight": 0.686032}, 
                {"id": 6, "text": "올바른", "head": 7, "label": "VP_MOD", "mod": [4, 5], "weight": 0.696113}, 
                {"id": 7, "text": "것은", "head": 8, "label": "NP_SBJ", "mod": [6], "weight": 0.751355}, 
                {"id": 8, "text": "무엇일까?", "head": -1, "label": "VNP", "mod": [7], "weight": 0.0534736}
            ], 
            "SRL": [
                {"verb": "하", "sense": 1, "word_id": 2, "weight": 0.078327, "argument": [
                    {"type": "ARG1", "word_id": 1, "text": "아이에게", "weight": 0.078327}, 
                    {"type": "ARGM-ADV", "word_id": 0, "text": "흔히", "weight": 1}
                ]}, 
                {"verb": "올바르", "sense": 1, "word_id": 6, "weight": 0.158988, "argument": [
                    {"type": "ARGM-CND", "word_id": 4, "text": "중", "weight": 0.0964804}, 
                    {"type": "ARG1", "word_id": 5, "text": "표기법이", "weight": 0.221495}
                ]}
            ], 
            "relation": [], 
            "SA": [], 
            "ZA": []
        }
    ], 
    "entity": [
        {"id": 0, "type": "", "number": "singular", "gender": "", "person": "", "animacy": "thing", "mention": [
            {"id": 0, "sent_id": 0, "start_eid": 0, "end_eid": 7, "ne_id": -1, "text": "흔히 아이에게 하는 말 중 표기법이 올바른 것은", "start_eid_short": 7, "end_eid_short": 7, "text_short": "것은"}, 
            {"id": 4, "sent_id": 0, "start_eid": 8, "end_eid": 8, "ne_id": -1, "text": "무엇일까?", "start_eid_short": 8, "end_eid_short": 8, "text_short": "무엇일까?"}
        ]}, 
        {"id": 1, "type": "", "number": "singular", "gender": "", "person": "", "animacy": "thing", "mention": [
            {"id": 1, "sent_id": 0, "start_eid": 1, "end_eid": 3, "ne_id": -1, "text": "아이에게 하는 말", "start_eid_short": 3, "end_eid_short": 3, "text_short": "말"}
        ]}, 
        {"id": 2, "type": "", "number": "singular", "gender": "", "person": "", "animacy": "thing", "mention": [
            {"id": 2, "sent_id": 0, "start_eid": 1, "end_eid": 1, "ne_id": -1, "text": "아이에게", "start_eid_short": 1, "end_eid_short": 1, "text_short": "아이에게"}
        ]}, 
        {"id": 3, "type": "", "number": "singular", "gender": "", "person": "", "animacy": "thing", "mention": [
            {"id": 3, "sent_id": 0, "start_eid": 5, "end_eid": 5, "ne_id": -1, "text": "표기법이", "start_eid_short": 5, "end_eid_short": 5, "text_short": "표기법이"}
        ]}
    ]
}