{
    "doc_id": "E2016.835.16_A_02.json", 
    "DCT": "", 
    "category": "", 
    "category_weight": 0, 
    "title": {
        "text": "돈키호테", 
        "NE": ""
    }, 
    "metaInfo": {}, 
    "sentence": [
        {
            "id": 0, 
            "reserve_str": "", 
            "text": "<문학> 에스파냐의 작가 세르반테스 사아베드라가 지은 소설.", 
            "morp": [
                {"id": 0, "lemma": "<", "type": "SS", "position": 0, "weight": 1}, 
                {"id": 1, "lemma": "문학", "type": "NNG", "position": 1, "weight": 0.197816}, 
                {"id": 2, "lemma": ">", "type": "SS", "position": 7, "weight": 1}, 
                {"id": 3, "lemma": "에스파냐", "type": "NNP", "position": 9, "weight": 0.9}, 
                {"id": 4, "lemma": "의", "type": "JKG", "position": 21, "weight": 0.0987295}, 
                {"id": 5, "lemma": "작가", "type": "NNG", "position": 25, "weight": 0.871247}, 
                {"id": 6, "lemma": "세르반테스", "type": "NNP", "position": 32, "weight": 0.55}, 
                {"id": 7, "lemma": "사아베드라", "type": "NNP", "position": 48, "weight": 0.05}, 
                {"id": 8, "lemma": "가", "type": "JKS", "position": 63, "weight": 0.0431193}, 
                {"id": 9, "lemma": "짓", "type": "VV", "position": 67, "weight": 0.256547}, 
                {"id": 10, "lemma": "은", "type": "ETM", "position": 70, "weight": 0.109632}, 
                {"id": 11, "lemma": "소설", "type": "NNG", "position": 74, "weight": 0.9}, 
                {"id": 12, "lemma": ".", "type": "SF", "position": 80, "weight": 1}
            ], 
            "morp_eval": [], 
            "WSD": [
                {"id": 0, "text": "<", "type": "SS", "scode": "000000", "weight": 1, "position": 0, "begin": 0, "end": 0}, 
                {"id": 1, "text": "문학", "type": "NNG", "scode": "010000", "weight": 0.2, "position": 1, "begin": 1, "end": 1}, 
                {"id": 2, "text": ">", "type": "SS", "scode": "000000", "weight": 1, "position": 7, "begin": 2, "end": 2}, 
                {"id": 3, "text": "에스파냐", "type": "NNP", "scode": "000000", "weight": 1, "position": 9, "begin": 3, "end": 3}, 
                {"id": 4, "text": "의", "type": "JKG", "scode": "000000", "weight": 1, "position": 21, "begin": 4, "end": 4}, 
                {"id": 5, "text": "작가", "type": "NNG", "scode": "010000", "weight": 0.5, "position": 25, "begin": 5, "end": 5}, 
                {"id": 6, "text": "세르반테스", "type": "NNP", "scode": "000000", "weight": 0, "position": 32, "begin": 6, "end": 6}, 
                {"id": 7, "text": "사아베드라", "type": "NNP", "scode": "000000", "weight": 0, "position": 48, "begin": 7, "end": 7}, 
                {"id": 8, "text": "가", "type": "JKS", "scode": "000000", "weight": 1, "position": 63, "begin": 8, "end": 8}, 
                {"id": 9, "text": "짓", "type": "VV", "scode": "010103", "weight": 0.0625, "position": 67, "begin": 9, "end": 9}, 
                {"id": 10, "text": "은", "type": "ETM", "scode": "000000", "weight": 1, "position": 70, "begin": 10, "end": 10}, 
                {"id": 11, "text": "소설", "type": "NNG", "scode": "030001", "weight": 0.0666667, "position": 74, "begin": 11, "end": 11}, 
                {"id": 12, "text": ".", "type": "SF", "scode": "000000", "weight": 1, "position": 80, "begin": 12, "end": 12}
            ], 
            "word": [
                {"id": 0, "text": "<문학>", "type": "", "begin": 0, "end": 2}, 
                {"id": 1, "text": "에스파냐의", "type": "", "begin": 3, "end": 4}, 
                {"id": 2, "text": "작가", "type": "", "begin": 5, "end": 5}, 
                {"id": 3, "text": "세르반테스", "type": "", "begin": 6, "end": 6}, 
                {"id": 4, "text": "사아베드라가", "type": "", "begin": 7, "end": 8}, 
                {"id": 5, "text": "지은", "type": "", "begin": 9, "end": 10}, 
                {"id": 6, "text": "소설.", "type": "", "begin": 11, "end": 12}
            ], 
            "NE": [
                {"id": 0, "text": "문학", "type": "FD_ART", "begin": 1, "end": 1, "weight": 0.478789, "common_noun": 0}, 
                {"id": 1, "text": "에스파냐", "type": "LCP_COUNTRY", "begin": 3, "end": 3, "weight": 0.702973, "common_noun": 0}, 
                {"id": 2, "text": "작가", "type": "CV_OCCUPATION", "begin": 5, "end": 5, "weight": 0.79911, "common_noun": 0}, 
                {"id": 3, "text": "세르반테스 사아베드라", "type": "PS_NAME", "begin": 6, "end": 7, "weight": 0.7403, "common_noun": 0}, 
                {"id": 4, "text": "소설", "type": "FD_ART", "begin": 11, "end": 11, "weight": 0.709852, "common_noun": 0}
            ], 
            "chunk": [], 
            "dependency": [
                {"id": 0, "text": "<문학>", "head": 6, "label": "NP", "mod": [], "weight": 0.832737}, 
                {"id": 1, "text": "에스파냐의", "head": 2, "label": "NP_MOD", "mod": [], "weight": 0.513374}, 
                {"id": 2, "text": "작가", "head": 4, "label": "NP", "mod": [1], "weight": 0.453586}, 
                {"id": 3, "text": "세르반테스", "head": 4, "label": "NP", "mod": [], "weight": 0.69969}, 
                {"id": 4, "text": "사아베드라가", "head": 5, "label": "NP_SBJ", "mod": [2, 3], "weight": 0.741815}, 
                {"id": 5, "text": "지은", "head": 6, "label": "VP_MOD", "mod": [4], "weight": 0.839153}, 
                {"id": 6, "text": "소설.", "head": -1, "label": "NP", "mod": [0, 5], "weight": 0.0703047}
            ], 
            "SRL": [
                {"verb": "짓", "sense": 1, "word_id": 5, "weight": 0.290693, "argument": [
                    {"type": "ARG0", "word_id": 4, "text": "사아베드라가", "weight": 0.405825}, 
                    {"type": "ARG1", "word_id": 6, "text": "소설.", "weight": 0.175562}
                ]}
            ], 
            "relation": [], 
            "SA": [], 
            "ZA": []
        }
    ], 
    "entity": [
        {"id": 0, "type": "LCP_COUNTRY", "number": "singular", "gender": "", "person": "", "animacy": "place", "mention": [
            {"id": 3, "sent_id": 0, "start_eid": 1, "end_eid": 1, "ne_id": 0, "text": "에스파냐의", "start_eid_short": 1, "end_eid_short": 1, "text_short": "에스파냐의"}
        ]}, 
        {"id": 1, "type": "PS_NAME", "number": "singular", "gender": "", "person": "", "animacy": "human", "mention": [
            {"id": 1, "sent_id": 0, "start_eid": 1, "end_eid": 4, "ne_id": 2, "text": "에스파냐의 작가 세르반테스 사아베드라가", "start_eid_short": 2, "end_eid_short": 4, "text_short": "작가 세르반테스 사아베드라가"}, 
            {"id": 2, "sent_id": 0, "start_eid": 1, "end_eid": 2, "ne_id": 1, "text": "에스파냐의 작가", "start_eid_short": 2, "end_eid_short": 2, "text_short": "작가"}
        ]}, 
        {"id": 2, "type": "FD_ART", "number": "singular", "gender": "", "person": "", "animacy": "thing", "mention": [
            {"id": 0, "sent_id": 0, "start_eid": 1, "end_eid": 6, "ne_id": 3, "text": "에스파냐의 작가 세르반테스 사아베드라가 지은 소설.", "start_eid_short": 6, "end_eid_short": 6, "text_short": "소설."}
        ]}
    ]
}