{
    "doc_id": "E2016.837.31_A_01.json", 
    "DCT": "", 
    "category": "", 
    "category_weight": 0, 
    "title": {
        "text": "발리 (테니스)", 
        "NE": ""
    }, 
    "metaInfo": {}, 
    "sentence": [
        {
            "id": 0, 
            "reserve_str": "", 
            "text": "발리(volley)는 테니스에서 공이 땅에 바운드되기 전에 쳐서 넘기는 기술이다.", 
            "morp": [
                {"id": 0, "lemma": "발리", "type": "NNG", "position": 0, "weight": 0.0218974}, 
                {"id": 1, "lemma": "(", "type": "SS", "position": 6, "weight": 1}, 
                {"id": 2, "lemma": "volley", "type": "SL", "position": 7, "weight": 1}, 
                {"id": 3, "lemma": ")", "type": "SS", "position": 13, "weight": 1}, 
                {"id": 4, "lemma": "는", "type": "JX", "position": 14, "weight": 0.00823314}, 
                {"id": 5, "lemma": "테니스", "type": "NNG", "position": 18, "weight": 0.9}, 
                {"id": 6, "lemma": "에서", "type": "JKB", "position": 27, "weight": 0.153407}, 
                {"id": 7, "lemma": "공", "type": "NNG", "position": 34, "weight": 0.197302}, 
                {"id": 8, "lemma": "이", "type": "JKS", "position": 37, "weight": 0.0360723}, 
                {"id": 9, "lemma": "땅", "type": "NNG", "position": 41, "weight": 0.20881}, 
                {"id": 10, "lemma": "에", "type": "JKB", "position": 44, "weight": 0.153364}, 
                {"id": 11, "lemma": "바운드", "type": "NNG", "position": 48, "weight": 0.3}, 
                {"id": 12, "lemma": "되", "type": "XSV", "position": 57, "weight": 0.000224177}, 
                {"id": 13, "lemma": "기", "type": "ETN", "position": 60, "weight": 0.0556099}, 
                {"id": 14, "lemma": "전", "type": "NNG", "position": 64, "weight": 0.0229077}, 
                {"id": 15, "lemma": "에", "type": "JKB", "position": 67, "weight": 0.153364}, 
                {"id": 16, "lemma": "치", "type": "VV", "position": 71, "weight": 0.40589}, 
                {"id": 17, "lemma": "어서", "type": "EC", "position": 71, "weight": 0.421998}, 
                {"id": 18, "lemma": "넘기", "type": "VV", "position": 78, "weight": 0.9}, 
                {"id": 19, "lemma": "는", "type": "ETM", "position": 84, "weight": 0.184941}, 
                {"id": 20, "lemma": "기술", "type": "NNG", "position": 88, "weight": 0.9}, 
                {"id": 21, "lemma": "이", "type": "VCP", "position": 94, "weight": 0.0177525}, 
                {"id": 22, "lemma": "다", "type": "EF", "position": 97, "weight": 0.353579}, 
                {"id": 23, "lemma": ".", "type": "SF", "position": 100, "weight": 1}
            ], 
            "morp_eval": [], 
            "WSD": [
                {"id": 0, "text": "발리", "type": "NNG", "scode": "000001", "weight": 0.5, "position": 0, "begin": 0, "end": 0}, 
                {"id": 1, "text": "(", "type": "SS", "scode": "000000", "weight": 1, "position": 6, "begin": 1, "end": 1}, 
                {"id": 2, "text": "volley", "type": "SL", "scode": "000000", "weight": 1, "position": 7, "begin": 2, "end": 2}, 
                {"id": 3, "text": ")", "type": "SS", "scode": "000000", "weight": 1, "position": 13, "begin": 3, "end": 3}, 
                {"id": 4, "text": "는", "type": "JX", "scode": "000000", "weight": 1, "position": 14, "begin": 4, "end": 4}, 
                {"id": 5, "text": "테니스", "type": "NNG", "scode": "000000", "weight": 1, "position": 18, "begin": 5, "end": 5}, 
                {"id": 6, "text": "에서", "type": "JKB", "scode": "000000", "weight": 1, "position": 27, "begin": 6, "end": 6}, 
                {"id": 7, "text": "공", "type": "NNG", "scode": "010001", "weight": 0.0333333, "position": 34, "begin": 7, "end": 7}, 
                {"id": 8, "text": "이", "type": "JKS", "scode": "000000", "weight": 1, "position": 37, "begin": 8, "end": 8}, 
                {"id": 9, "text": "땅", "type": "NNG", "scode": "010001", "weight": 0.125, "position": 41, "begin": 9, "end": 9}, 
                {"id": 10, "text": "에", "type": "JKB", "scode": "000000", "weight": 1, "position": 44, "begin": 10, "end": 10}, 
                {"id": 11, "text": "바운드되", "type": "VV", "scode": "000000", "weight": 1, "position": 48, "begin": 11, "end": 12}, 
                {"id": 12, "text": "기", "type": "ETN", "scode": "000000", "weight": 1, "position": 60, "begin": 13, "end": 13}, 
                {"id": 13, "text": "전", "type": "NNG", "scode": "080002", "weight": 0.02, "position": 64, "begin": 14, "end": 14}, 
                {"id": 14, "text": "에", "type": "JKB", "scode": "000000", "weight": 1, "position": 67, "begin": 15, "end": 15}, 
                {"id": 15, "text": "치", "type": "VV", "scode": "020003", "weight": 0.0185185, "position": 71, "begin": 16, "end": 16}, 
                {"id": 16, "text": "어서", "type": "EC", "scode": "000000", "weight": 1, "position": 71, "begin": 17, "end": 17}, 
                {"id": 17, "text": "넘기", "type": "VV", "scode": "000201", "weight": 0.0833333, "position": 78, "begin": 18, "end": 18}, 
                {"id": 18, "text": "는", "type": "ETM", "scode": "000000", "weight": 1, "position": 84, "begin": 19, "end": 19}, 
                {"id": 19, "text": "기술", "type": "NNG", "scode": "010002", "weight": 0.166667, "position": 88, "begin": 20, "end": 20}, 
                {"id": 20, "text": "이", "type": "VCP", "scode": "030000", "weight": 0.0172414, "position": 94, "begin": 21, "end": 21}, 
                {"id": 21, "text": "다", "type": "EF", "scode": "000000", "weight": 1, "position": 97, "begin": 22, "end": 22}, 
                {"id": 22, "text": ".", "type": "SF", "scode": "000000", "weight": 1, "position": 100, "begin": 23, "end": 23}
            ], 
            "word": [
                {"id": 0, "text": "발리(volley)는", "type": "", "begin": 0, "end": 4}, 
                {"id": 1, "text": "테니스에서", "type": "", "begin": 5, "end": 6}, 
                {"id": 2, "text": "공이", "type": "", "begin": 7, "end": 8}, 
                {"id": 3, "text": "땅에", "type": "", "begin": 9, "end": 10}, 
                {"id": 4, "text": "바운드되기", "type": "", "begin": 11, "end": 13}, 
                {"id": 5, "text": "전에", "type": "", "begin": 14, "end": 15}, 
                {"id": 6, "text": "쳐서", "type": "", "begin": 16, "end": 17}, 
                {"id": 7, "text": "넘기는", "type": "", "begin": 18, "end": 19}, 
                {"id": 8, "text": "기술이다.", "type": "", "begin": 20, "end": 23}
            ], 
            "NE": [
                {"id": 0, "text": "발리", "type": "TM_SPORTS", "begin": 0, "end": 0, "weight": 0.162249, "common_noun": 0}, 
                {"id": 1, "text": "volley", "type": "TM_SPORTS", "begin": 2, "end": 2, "weight": 0.162249, "common_noun": 0}, 
                {"id": 2, "text": "테니스", "type": "CV_SPORTS", "begin": 5, "end": 5, "weight": 0.39086, "common_noun": 0}, 
                {"id": 3, "text": "공", "type": "CV_SPORTS_INST", "begin": 7, "end": 7, "weight": 0.240528, "common_noun": 0}, 
                {"id": 4, "text": "바운드", "type": "TM_SPORTS", "begin": 11, "end": 11, "weight": 1, "common_noun": 0}
            ], 
            "chunk": [], 
            "dependency": [
                {"id": 0, "text": "발리(volley)는", "head": 8, "label": "NP_SBJ", "mod": [], "weight": 0.144545}, 
                {"id": 1, "text": "테니스에서", "head": 6, "label": "NP_AJT", "mod": [], "weight": 0.622622}, 
                {"id": 2, "text": "공이", "head": 4, "label": "NP_SBJ", "mod": [], "weight": 0.623965}, 
                {"id": 3, "text": "땅에", "head": 4, "label": "NP_AJT", "mod": [], "weight": 0.361132}, 
                {"id": 4, "text": "바운드되기", "head": 5, "label": "VP", "mod": [2, 3], "weight": 0.704091}, 
                {"id": 5, "text": "전에", "head": 6, "label": "NP_AJT", "mod": [4], "weight": 0.712235}, 
                {"id": 6, "text": "쳐서", "head": 7, "label": "VP", "mod": [1, 5], "weight": 0.848614}, 
                {"id": 7, "text": "넘기는", "head": 8, "label": "VP_MOD", "mod": [6], "weight": 0.83665}, 
                {"id": 8, "text": "기술이다.", "head": -1, "label": "VNP", "mod": [7, 0], "weight": 0.00600881}
            ], 
            "SRL": [
                {"verb": "바운드", "sense": 1, "word_id": 4, "weight": 0.158738, "argument": [
                    {"type": "ARG1", "word_id": 2, "text": "공이", "weight": 0.167385}, 
                    {"type": "ARG2", "word_id": 3, "text": "땅에", "weight": 0.150091}
                ]}, 
                {"verb": "치", "sense": 1, "word_id": 6, "weight": 0.0820653, "argument": [
                    {"type": "ARGM-TMP", "word_id": 5, "text": "전에", "weight": 0.0820653}, 
                    {"type": "ARG1", "word_id": 2, "text": "공이", "weight": 1}, 
                    {"type": "ARGM-CND", "word_id": 1, "text": "테니스에서", "weight": 1}
                ]}, 
                {"verb": "넘기", "sense": 1, "word_id": 7, "weight": 0.0963144, "argument": [
                    {"type": "ARGM-MNR", "word_id": 6, "text": "쳐서", "weight": 0.0963144}, 
                    {"type": "ARG1", "word_id": 2, "text": "공이", "weight": 1}, 
                    {"type": "ARGM-CND", "word_id": 1, "text": "테니스에서", "weight": 1}
                ]}
            ], 
            "relation": [], 
            "SA": [], 
            "ZA": []
        }
    ], 
    "entity": [
        {"id": 0, "type": "LCG_ISLAND", "number": "singular", "gender": "", "person": "", "animacy": "place", "mention": [
            {"id": 0, "sent_id": 0, "start_eid": 0, "end_eid": 0, "ne_id": 0, "text": "발리(volley)는", "start_eid_short": 0, "end_eid_short": 0, "text_short": "발리(volley)는"}, 
            {"id": 1, "sent_id": 0, "start_eid": 1, "end_eid": 8, "ne_id": -1, "text": "테니스에서 공이 땅에 바운드되기 전에 쳐서 넘기는 기술이다.", "start_eid_short": 8, "end_eid_short": 8, "text_short": "기술이다."}
        ]}, 
        {"id": 1, "type": "CV_SPORTS", "number": "singular", "gender": "", "person": "", "animacy": "thing", "mention": [
            {"id": 2, "sent_id": 0, "start_eid": 1, "end_eid": 1, "ne_id": 1, "text": "테니스에서", "start_eid_short": 1, "end_eid_short": 1, "text_short": "테니스에서"}
        ]}, 
        {"id": 2, "type": "", "number": "singular", "gender": "", "person": "", "animacy": "thing", "mention": [
            {"id": 3, "sent_id": 0, "start_eid": 2, "end_eid": 2, "ne_id": -1, "text": "공이", "start_eid_short": 2, "end_eid_short": 2, "text_short": "공이"}
        ]}, 
        {"id": 3, "type": "", "number": "singular", "gender": "", "person": "", "animacy": "thing", "mention": [
            {"id": 4, "sent_id": 0, "start_eid": 3, "end_eid": 3, "ne_id": -1, "text": "땅에", "start_eid_short": 3, "end_eid_short": 3, "text_short": "땅에"}
        ]}
    ]
}