{
    "doc_id": "E2016.836.20_A_02.json", 
    "DCT": "", 
    "category": "", 
    "category_weight": 0, 
    "title": {
        "text": "라스베이거스", 
        "NE": ""
    }, 
    "metaInfo": {}, 
    "sentence": [
        {
            "id": 0, 
            "reserve_str": "", 
            "text": "<지명> 미국 서남부, 네바다 주에 있는 관광 도시 겸 세계적인 도박의 도시.", 
            "morp": [
                {"id": 0, "lemma": "<", "type": "SS", "position": 0, "weight": 1}, 
                {"id": 1, "lemma": "지명", "type": "NNG", "position": 1, "weight": 0.164578}, 
                {"id": 2, "lemma": ">", "type": "SS", "position": 7, "weight": 1}, 
                {"id": 3, "lemma": "미국", "type": "NNP", "position": 9, "weight": 0.0674526}, 
                {"id": 4, "lemma": "서남", "type": "NNG", "position": 16, "weight": 0.276569}, 
                {"id": 5, "lemma": "부", "type": "XSN", "position": 22, "weight": 0.0112289}, 
                {"id": 6, "lemma": ",", "type": "SP", "position": 25, "weight": 1}, 
                {"id": 7, "lemma": "네바다", "type": "NNP", "position": 27, "weight": 0.5}, 
                {"id": 8, "lemma": "주", "type": "NNG", "position": 37, "weight": 0.0177845}, 
                {"id": 9, "lemma": "에", "type": "JKB", "position": 40, "weight": 0.153364}, 
                {"id": 10, "lemma": "있", "type": "VA", "position": 44, "weight": 0.037292}, 
                {"id": 11, "lemma": "는", "type": "ETM", "position": 47, "weight": 0.26168}, 
                {"id": 12, "lemma": "관광", "type": "NNG", "position": 51, "weight": 0.9}, 
                {"id": 13, "lemma": "도시", "type": "NNG", "position": 58, "weight": 0.184157}, 
                {"id": 14, "lemma": "겸", "type": "NNB", "position": 65, "weight": 0.0157574}, 
                {"id": 15, "lemma": "세계", "type": "NNG", "position": 69, "weight": 0.9}, 
                {"id": 16, "lemma": "적", "type": "XSN", "position": 75, "weight": 0.0168756}, 
                {"id": 17, "lemma": "이", "type": "VCP", "position": 78, "weight": 0.0165001}, 
                {"id": 18, "lemma": "ㄴ", "type": "ETM", "position": 78, "weight": 0.220712}, 
                {"id": 19, "lemma": "도박", "type": "NNG", "position": 82, "weight": 0.9}, 
                {"id": 20, "lemma": "의", "type": "JKG", "position": 88, "weight": 0.0694213}, 
                {"id": 21, "lemma": "도시", "type": "NNG", "position": 92, "weight": 0.868222}, 
                {"id": 22, "lemma": ".", "type": "SF", "position": 98, "weight": 1}
            ], 
            "morp_eval": [], 
            "WSD": [
                {"id": 0, "text": "<", "type": "SS", "scode": "000000", "weight": 1, "position": 0, "begin": 0, "end": 0}, 
                {"id": 1, "text": "지명", "type": "NNG", "scode": "010000", "weight": 0.0909091, "position": 1, "begin": 1, "end": 1}, 
                {"id": 2, "text": ">", "type": "SS", "scode": "000000", "weight": 1, "position": 7, "begin": 2, "end": 2}, 
                {"id": 3, "text": "미국", "type": "NNP", "scode": "030000", "weight": 0.333333, "position": 9, "begin": 3, "end": 3}, 
                {"id": 4, "text": "서남", "type": "NNG", "scode": "010002", "weight": 0.333333, "position": 16, "begin": 4, "end": 4}, 
                {"id": 5, "text": "부", "type": "XSN", "scode": "230000", "weight": 0.027027, "position": 22, "begin": 5, "end": 5}, 
                {"id": 6, "text": ",", "type": "SP", "scode": "000000", "weight": 1, "position": 25, "begin": 6, "end": 6}, 
                {"id": 7, "text": "네바다", "type": "NNP", "scode": "000000", "weight": 0, "position": 27, "begin": 7, "end": 7}, 
                {"id": 8, "text": "주", "type": "NNG", "scode": "050001", "weight": 0.0212766, "position": 37, "begin": 8, "end": 8}, 
                {"id": 9, "text": "에", "type": "JKB", "scode": "000000", "weight": 1, "position": 40, "begin": 9, "end": 9}, 
                {"id": 10, "text": "있", "type": "VA", "scode": "010301", "weight": 0.0416667, "position": 44, "begin": 10, "end": 10}, 
                {"id": 11, "text": "는", "type": "ETM", "scode": "000000", "weight": 1, "position": 47, "begin": 11, "end": 11}, 
                {"id": 12, "text": "관광", "type": "NNG", "scode": "020000", "weight": 0.333333, "position": 51, "begin": 12, "end": 12}, 
                {"id": 13, "text": "도시", "type": "NNG", "scode": "030000", "weight": 0.0909091, "position": 58, "begin": 13, "end": 13}, 
                {"id": 14, "text": "겸", "type": "NNB", "scode": "010001", "weight": 0.333333, "position": 65, "begin": 14, "end": 14}, 
                {"id": 15, "text": "세계적", "type": "NNG", "scode": "000000", "weight": 1, "position": 69, "begin": 15, "end": 16}, 
                {"id": 16, "text": "이", "type": "VCP", "scode": "030000", "weight": 0.0172414, "position": 78, "begin": 17, "end": 17}, 
                {"id": 17, "text": "ㄴ", "type": "ETM", "scode": "000000", "weight": 1, "position": 78, "begin": 18, "end": 18}, 
                {"id": 18, "text": "도박", "type": "NNG", "scode": "020001", "weight": 0.333333, "position": 82, "begin": 19, "end": 19}, 
                {"id": 19, "text": "의", "type": "JKG", "scode": "000000", "weight": 1, "position": 88, "begin": 20, "end": 20}, 
                {"id": 20, "text": "도시", "type": "NNG", "scode": "030000", "weight": 0.0909091, "position": 92, "begin": 21, "end": 21}, 
                {"id": 21, "text": ".", "type": "SF", "scode": "000000", "weight": 1, "position": 98, "begin": 22, "end": 22}
            ], 
            "word": [
                {"id": 0, "text": "<지명>", "type": "", "begin": 0, "end": 2}, 
                {"id": 1, "text": "미국", "type": "", "begin": 3, "end": 3}, 
                {"id": 2, "text": "서남부,", "type": "", "begin": 4, "end": 6}, 
                {"id": 3, "text": "네바다", "type": "", "begin": 7, "end": 7}, 
                {"id": 4, "text": "주에", "type": "", "begin": 8, "end": 9}, 
                {"id": 5, "text": "있는", "type": "", "begin": 10, "end": 11}, 
                {"id": 6, "text": "관광", "type": "", "begin": 12, "end": 12}, 
                {"id": 7, "text": "도시", "type": "", "begin": 13, "end": 13}, 
                {"id": 8, "text": "겸", "type": "", "begin": 14, "end": 14}, 
                {"id": 9, "text": "세계적인", "type": "", "begin": 15, "end": 18}, 
                {"id": 10, "text": "도박의", "type": "", "begin": 19, "end": 20}, 
                {"id": 11, "text": "도시.", "type": "", "begin": 21, "end": 22}
            ], 
            "NE": [
                {"id": 0, "text": "미국", "type": "LCP_COUNTRY", "begin": 3, "end": 3, "weight": 0.964873, "common_noun": 0}, 
                {"id": 1, "text": "서남부", "type": "TM_DIRECTION", "begin": 4, "end": 5, "weight": 0.67998, "common_noun": 0}, 
                {"id": 2, "text": "네바다 주", "type": "LCP_PROVINCE", "begin": 7, "end": 8, "weight": 0.702767, "common_noun": 0}
            ], 
            "chunk": [], 
            "dependency": [
                {"id": 0, "text": "<지명>", "head": 11, "label": "NP", "mod": [], "weight": 0.88317}, 
                {"id": 1, "text": "미국", "head": 2, "label": "NP", "mod": [], "weight": 0.817778}, 
                {"id": 2, "text": "서남부,", "head": 4, "label": "NP", "mod": [1], "weight": 0.195361}, 
                {"id": 3, "text": "네바다", "head": 4, "label": "NP", "mod": [], "weight": 0.801502}, 
                {"id": 4, "text": "주에", "head": 5, "label": "NP_AJT", "mod": [3, 2], "weight": 0.759758}, 
                {"id": 5, "text": "있는", "head": 7, "label": "VP_MOD", "mod": [4], "weight": 0.0414362}, 
                {"id": 6, "text": "관광", "head": 7, "label": "NP", "mod": [], "weight": 0.733045}, 
                {"id": 7, "text": "도시", "head": 8, "label": "NP", "mod": [5, 6], "weight": 0.552769}, 
                {"id": 8, "text": "겸", "head": 11, "label": "NP", "mod": [7], "weight": 0.391015}, 
                {"id": 9, "text": "세계적인", "head": 10, "label": "VNP_MOD", "mod": [], "weight": 0.260884}, 
                {"id": 10, "text": "도박의", "head": 11, "label": "NP_MOD", "mod": [9], "weight": 0.710258}, 
                {"id": 11, "text": "도시.", "head": -1, "label": "NP", "mod": [0, 8, 10], "weight": 7.71434e-05}
            ], 
            "SRL": [
                {"verb": "있", "sense": 1, "word_id": 5, "weight": 0.174864, "argument": [
                    {"type": "ARG2", "word_id": 4, "text": "주에", "weight": 0.203345}, 
                    {"type": "ARG1", "word_id": 7, "text": "도시", "weight": 0.146383}
                ]}
            ], 
            "relation": [], 
            "SA": [], 
            "ZA": []
        }
    ], 
    "entity": [
        {"id": 0, "type": "LCP_COUNTRY", "number": "singular", "gender": "", "person": "", "animacy": "place", "mention": [
            {"id": 2, "sent_id": 0, "start_eid": 1, "end_eid": 1, "ne_id": 0, "text": "미국", "start_eid_short": 1, "end_eid_short": 1, "text_short": "미국"}
        ]}, 
        {"id": 1, "type": "LCP_PROVINCE", "number": "singular", "gender": "", "person": "", "animacy": "place", "mention": [
            {"id": 3, "sent_id": 0, "start_eid": 3, "end_eid": 4, "ne_id": 2, "text": "네바다 주에", "start_eid_short": 3, "end_eid_short": 4, "text_short": "네바다 주에"}
        ]}, 
        {"id": 2, "type": "TM_DIRECTION", "number": "singular", "gender": "", "person": "", "animacy": "thing", "mention": [
            {"id": 1, "sent_id": 0, "start_eid": 1, "end_eid": 2, "ne_id": 1, "text": "미국 서남부,", "start_eid_short": 1, "end_eid_short": 2, "text_short": "미국 서남부,"}
        ]}, 
        {"id": 3, "type": "", "number": "singular", "gender": "", "person": "", "animacy": "thing", "mention": [
            {"id": 5, "sent_id": 0, "start_eid": 6, "end_eid": 7, "ne_id": -1, "text": "관광 도시", "start_eid_short": 6, "end_eid_short": 7, "text_short": "관광 도시"}
        ]}, 
        {"id": 4, "type": "", "number": "singular", "gender": "", "person": "", "animacy": "thing", "mention": [
            {"id": 6, "sent_id": 0, "start_eid": 6, "end_eid": 6, "ne_id": -1, "text": "관광", "start_eid_short": 6, "end_eid_short": 6, "text_short": "관광"}
        ]}, 
        {"id": 5, "type": "", "number": "singular", "gender": "", "person": "", "animacy": "thing", "mention": [
            {"id": 4, "sent_id": 0, "start_eid": 6, "end_eid": 8, "ne_id": -1, "text": "관광 도시 겸", "start_eid_short": 6, "end_eid_short": 8, "text_short": "관광 도시 겸"}
        ]}, 
        {"id": 6, "type": "", "number": "singular", "gender": "", "person": "", "animacy": "thing", "mention": [
            {"id": 8, "sent_id": 0, "start_eid": 9, "end_eid": 10, "ne_id": -1, "text": "세계적인 도박의", "start_eid_short": 10, "end_eid_short": 10, "text_short": "도박의"}
        ]}, 
        {"id": 7, "type": "", "number": "singular", "gender": "", "person": "", "animacy": "thing", "mention": [
            {"id": 7, "sent_id": 0, "start_eid": 9, "end_eid": 11, "ne_id": -1, "text": "세계적인 도박의 도시.", "start_eid_short": 11, "end_eid_short": 11, "text_short": "도시."}
        ]}, 
        {"id": 8, "type": "", "number": "singular", "gender": "", "person": "", "animacy": "thing", "mention": [
            {"id": 0, "sent_id": 0, "start_eid": 1, "end_eid": 11, "ne_id": -1, "text": "미국 서남부, 네바다 주에 있는 관광 도시 겸 세계적인 도박의 도시.", "start_eid_short": 11, "end_eid_short": 11, "text_short": "도시."}
        ]}
    ]
}