{
    "doc_id": "E2016.790.08_A_02.json", 
    "DCT": "", 
    "category": "", 
    "category_weight": 0, 
    "title": {
        "text": "오만과 편견", 
        "NE": ""
    }, 
    "metaInfo": {}, 
    "sentence": [
        {
            "id": 0, 
            "reserve_str": "", 
            "text": "<문학> 영국의 소설가 오스틴이 지은 장편 소설.", 
            "morp": [
                {"id": 0, "lemma": "<", "type": "SS", "position": 0, "weight": 1}, 
                {"id": 1, "lemma": "문학", "type": "NNG", "position": 1, "weight": 0.197816}, 
                {"id": 2, "lemma": ">", "type": "SS", "position": 7, "weight": 1}, 
                {"id": 3, "lemma": "영국", "type": "NNP", "position": 9, "weight": 0.9}, 
                {"id": 4, "lemma": "의", "type": "JKG", "position": 15, "weight": 0.0987295}, 
                {"id": 5, "lemma": "소설", "type": "NNG", "position": 19, "weight": 0.9}, 
                {"id": 6, "lemma": "가", "type": "XSN", "position": 25, "weight": 0.000115417}, 
                {"id": 7, "lemma": "오스틴", "type": "NNP", "position": 29, "weight": 0.5}, 
                {"id": 8, "lemma": "이", "type": "JKS", "position": 38, "weight": 0.0234517}, 
                {"id": 9, "lemma": "짓", "type": "VV", "position": 42, "weight": 0.256547}, 
                {"id": 10, "lemma": "은", "type": "ETM", "position": 45, "weight": 0.109632}, 
                {"id": 11, "lemma": "장편", "type": "NNG", "position": 49, "weight": 0.9}, 
                {"id": 12, "lemma": "소설", "type": "NNG", "position": 56, "weight": 0.9}, 
                {"id": 13, "lemma": ".", "type": "SF", "position": 62, "weight": 1}
            ], 
            "morp_eval": [], 
            "WSD": [
                {"id": 0, "text": "<", "type": "SS", "scode": "000000", "weight": 1, "position": 0, "begin": 0, "end": 0}, 
                {"id": 1, "text": "문학", "type": "NNG", "scode": "010000", "weight": 0.2, "position": 1, "begin": 1, "end": 1}, 
                {"id": 2, "text": ">", "type": "SS", "scode": "000000", "weight": 1, "position": 7, "begin": 2, "end": 2}, 
                {"id": 3, "text": "영국", "type": "NNP", "scode": "010000", "weight": 0.5, "position": 9, "begin": 3, "end": 3}, 
                {"id": 4, "text": "의", "type": "JKG", "scode": "000000", "weight": 1, "position": 15, "begin": 4, "end": 4}, 
                {"id": 5, "text": "소설가", "type": "NNG", "scode": "000000", "weight": 1, "position": 19, "begin": 5, "end": 6}, 
                {"id": 6, "text": "오스틴", "type": "NNP", "scode": "010000", "weight": 0.2, "position": 29, "begin": 7, "end": 7}, 
                {"id": 7, "text": "이", "type": "JKS", "scode": "000000", "weight": 1, "position": 38, "begin": 8, "end": 8}, 
                {"id": 8, "text": "짓", "type": "VV", "scode": "010103", "weight": 0.0625, "position": 42, "begin": 9, "end": 9}, 
                {"id": 9, "text": "은", "type": "ETM", "scode": "000000", "weight": 1, "position": 45, "begin": 10, "end": 10}, 
                {"id": 10, "text": "장편", "type": "NNG", "scode": "020002", "weight": 0.142857, "position": 49, "begin": 11, "end": 11}, 
                {"id": 11, "text": "소설", "type": "NNG", "scode": "030001", "weight": 0.0666667, "position": 56, "begin": 12, "end": 12}, 
                {"id": 12, "text": ".", "type": "SF", "scode": "000000", "weight": 1, "position": 62, "begin": 13, "end": 13}
            ], 
            "word": [
                {"id": 0, "text": "<문학>", "type": "", "begin": 0, "end": 2}, 
                {"id": 1, "text": "영국의", "type": "", "begin": 3, "end": 4}, 
                {"id": 2, "text": "소설가", "type": "", "begin": 5, "end": 6}, 
                {"id": 3, "text": "오스틴이", "type": "", "begin": 7, "end": 8}, 
                {"id": 4, "text": "지은", "type": "", "begin": 9, "end": 10}, 
                {"id": 5, "text": "장편", "type": "", "begin": 11, "end": 11}, 
                {"id": 6, "text": "소설.", "type": "", "begin": 12, "end": 13}
            ], 
            "NE": [
                {"id": 0, "text": "문학", "type": "FD_ART", "begin": 1, "end": 1, "weight": 0.588431, "common_noun": 0}, 
                {"id": 1, "text": "영국", "type": "LCP_COUNTRY", "begin": 3, "end": 3, "weight": 0.654331, "common_noun": 0}, 
                {"id": 2, "text": "소설가", "type": "CV_OCCUPATION", "begin": 5, "end": 6, "weight": 0.626434, "common_noun": 0}, 
                {"id": 3, "text": "오스틴", "type": "PS_NAME", "begin": 7, "end": 7, "weight": 0.657003, "common_noun": 0}, 
                {"id": 4, "text": "장편 소설", "type": "FD_ART", "begin": 11, "end": 12, "weight": 0.86472, "common_noun": 0}
            ], 
            "chunk": [], 
            "dependency": [
                {"id": 0, "text": "<문학>", "head": 6, "label": "NP", "mod": [], "weight": 0.895636}, 
                {"id": 1, "text": "영국의", "head": 2, "label": "NP_MOD", "mod": [], "weight": 0.702161}, 
                {"id": 2, "text": "소설가", "head": 3, "label": "NP", "mod": [1], "weight": 0.790701}, 
                {"id": 3, "text": "오스틴이", "head": 4, "label": "NP_SBJ", "mod": [2], "weight": 0.797432}, 
                {"id": 4, "text": "지은", "head": 6, "label": "VP_MOD", "mod": [3], "weight": 0.804027}, 
                {"id": 5, "text": "장편", "head": 6, "label": "NP", "mod": [], "weight": 0.767206}, 
                {"id": 6, "text": "소설.", "head": -1, "label": "NP", "mod": [0, 4, 5], "weight": 0.218102}
            ], 
            "SRL": [
                {"verb": "짓", "sense": 1, "word_id": 4, "weight": 0.304345, "argument": [
                    {"type": "ARG0", "word_id": 3, "text": "오스틴이", "weight": 0.412}, 
                    {"type": "ARG1", "word_id": 6, "text": "소설.", "weight": 0.196689}
                ]}
            ], 
            "relation": [], 
            "SA": [], 
            "ZA": []
        }
    ], 
    "entity": [
        {"id": 0, "type": "FD_ART", "number": "singular", "gender": "", "person": "", "animacy": "thing", "mention": [
            {"id": 0, "sent_id": 0, "start_eid": 0, "end_eid": 0, "ne_id": 0, "text": "<문학>", "start_eid_short": 0, "end_eid_short": 0, "text_short": "<문학>"}
        ]}, 
        {"id": 1, "type": "LCP_COUNTRY", "number": "singular", "gender": "", "person": "", "animacy": "place", "mention": [
            {"id": 4, "sent_id": 0, "start_eid": 1, "end_eid": 1, "ne_id": 1, "text": "영국의", "start_eid_short": 1, "end_eid_short": 1, "text_short": "영국의"}
        ]}, 
        {"id": 2, "type": "PS_NAME", "number": "singular", "gender": "", "person": "", "animacy": "human", "mention": [
            {"id": 2, "sent_id": 0, "start_eid": 1, "end_eid": 3, "ne_id": 3, "text": "영국의 소설가 오스틴이", "start_eid_short": 2, "end_eid_short": 3, "text_short": "소설가 오스틴이"}, 
            {"id": 3, "sent_id": 0, "start_eid": 1, "end_eid": 2, "ne_id": 2, "text": "영국의 소설가", "start_eid_short": 2, "end_eid_short": 2, "text_short": "소설가"}
        ]}, 
        {"id": 3, "type": "FD_ART", "number": "singular", "gender": "", "person": "", "animacy": "thing", "mention": [
            {"id": 1, "sent_id": 0, "start_eid": 1, "end_eid": 6, "ne_id": 4, "text": "영국의 소설가 오스틴이 지은 장편 소설.", "start_eid_short": 5, "end_eid_short": 6, "text_short": "장편 소설."}
        ]}
    ]
}