{
    "doc_id": "E2016.837.19_A_02.json", 
    "DCT": "", 
    "category": "", 
    "category_weight": 0, 
    "title": {
        "text": "이육사", 
        "NE": ""
    }, 
    "metaInfo": {}, 
    "sentence": [
        {
            "id": 0, 
            "reserve_str": "", 
            "text": "1937년 윤곤강(尹崑崗)·김광균(金光均) 등과 함께 동인지 《자오선(子午線)》을 발간, 그 무렵 유명한 《청포도(靑葡萄)》를 비롯하여 《교목(喬木)》, 《절정(絶頂)》, 《광야(曠野)》 등을 발표했다.", 
            "morp": [
                {"id": 0, "lemma": "1937", "type": "SN", "position": 0, "weight": 1}, 
                {"id": 1, "lemma": "년", "type": "NNB", "position": 4, "weight": 0.414343}, 
                {"id": 2, "lemma": "윤곤강", "type": "NNP", "position": 8, "weight": 0.05}, 
                {"id": 3, "lemma": "(", "type": "SS", "position": 17, "weight": 1}, 
                {"id": 4, "lemma": "尹崑崗", "type": "SH", "position": 18, "weight": 1}, 
                {"id": 5, "lemma": ")", "type": "SS", "position": 27, "weight": 1}, 
                {"id": 6, "lemma": "·", "type": "SP", "position": 28, "weight": 1}, 
                {"id": 7, "lemma": "김광균", "type": "NNP", "position": 30, "weight": 0.55}, 
                {"id": 8, "lemma": "(", "type": "SS", "position": 39, "weight": 1}, 
                {"id": 9, "lemma": "金光均", "type": "SH", "position": 40, "weight": 1}, 
                {"id": 10, "lemma": ")", "type": "SS", "position": 49, "weight": 1}, 
                {"id": 11, "lemma": "등", "type": "NNB", "position": 51, "weight": 0.0121753}, 
                {"id": 12, "lemma": "과", "type": "JKB", "position": 54, "weight": 0.0444681}, 
                {"id": 13, "lemma": "함께", "type": "MAG", "position": 58, "weight": 0.9}, 
                {"id": 14, "lemma": "동인", "type": "NNG", "position": 65, "weight": 0.223002}, 
                {"id": 15, "lemma": "지", "type": "XSN", "position": 71, "weight": 0.000168337}, 
                {"id": 16, "lemma": "《", "type": "SS", "position": 75, "weight": 1}, 
                {"id": 17, "lemma": "자오선", "type": "NNP", "position": 78, "weight": 0.0266668}, 
                {"id": 18, "lemma": "(", "type": "SS", "position": 87, "weight": 1}, 
                {"id": 19, "lemma": "子午線", "type": "SH", "position": 88, "weight": 1}, 
                {"id": 20, "lemma": ")", "type": "SS", "position": 97, "weight": 1}, 
                {"id": 21, "lemma": "》", "type": "SS", "position": 98, "weight": 1}, 
                {"id": 22, "lemma": "을", "type": "JKO", "position": 101, "weight": 0.0336085}, 
                {"id": 23, "lemma": "발간", "type": "NNG", "position": 105, "weight": 0.9}, 
                {"id": 24, "lemma": ",", "type": "SP", "position": 111, "weight": 1}, 
                {"id": 25, "lemma": "그", "type": "MM", "position": 113, "weight": 0.0224513}, 
                {"id": 26, "lemma": "무렵", "type": "NNB", "position": 117, "weight": 0.9}, 
                {"id": 27, "lemma": "유명", "type": "NNG", "position": 124, "weight": 0.9}, 
                {"id": 28, "lemma": "하", "type": "XSA", "position": 130, "weight": 0.0001}, 
                {"id": 29, "lemma": "ㄴ", "type": "ETM", "position": 130, "weight": 0.488779}, 
                {"id": 30, "lemma": "《", "type": "SS", "position": 134, "weight": 1}, 
                {"id": 31, "lemma": "청포도", "type": "NNP", "position": 137, "weight": 0.00518901}, 
                {"id": 32, "lemma": "(", "type": "SS", "position": 146, "weight": 1}, 
                {"id": 33, "lemma": "靑葡萄", "type": "SH", "position": 147, "weight": 1}, 
                {"id": 34, "lemma": ")", "type": "SS", "position": 156, "weight": 1}, 
                {"id": 35, "lemma": "》", "type": "SS", "position": 157, "weight": 1}, 
                {"id": 36, "lemma": "를", "type": "JKO", "position": 160, "weight": 0.0357023}, 
                {"id": 37, "lemma": "비롯하", "type": "VV", "position": 164, "weight": 0.9}, 
                {"id": 38, "lemma": "아", "type": "EC", "position": 173, "weight": 0.41831}, 
                {"id": 39, "lemma": "《", "type": "SS", "position": 177, "weight": 1}, 
                {"id": 40, "lemma": "교목", "type": "NNP", "position": 180, "weight": 0.9}, 
                {"id": 41, "lemma": "(", "type": "SS", "position": 186, "weight": 1}, 
                {"id": 42, "lemma": "喬木", "type": "SH", "position": 187, "weight": 1}, 
                {"id": 43, "lemma": ")", "type": "SS", "position": 193, "weight": 1}, 
                {"id": 44, "lemma": "》", "type": "SS", "position": 194, "weight": 1}, 
                {"id": 45, "lemma": ",", "type": "SP", "position": 197, "weight": 1}, 
                {"id": 46, "lemma": "《", "type": "SS", "position": 199, "weight": 1}, 
                {"id": 47, "lemma": "절정", "type": "NNP", "position": 202, "weight": 0.195746}, 
                {"id": 48, "lemma": "(", "type": "SS", "position": 208, "weight": 1}, 
                {"id": 49, "lemma": "絶頂", "type": "SH", "position": 209, "weight": 1}, 
                {"id": 50, "lemma": ")", "type": "SS", "position": 215, "weight": 1}, 
                {"id": 51, "lemma": "》", "type": "SS", "position": 216, "weight": 1}, 
                {"id": 52, "lemma": ",", "type": "SP", "position": 219, "weight": 1}, 
                {"id": 53, "lemma": "《", "type": "SS", "position": 221, "weight": 1}, 
                {"id": 54, "lemma": "광야", "type": "NNP", "position": 224, "weight": 0.00313754}, 
                {"id": 55, "lemma": "(", "type": "SS", "position": 230, "weight": 1}, 
                {"id": 56, "lemma": "曠野", "type": "SH", "position": 231, "weight": 1}, 
                {"id": 57, "lemma": ")", "type": "SS", "position": 237, "weight": 1}, 
                {"id": 58, "lemma": "》", "type": "SS", "position": 238, "weight": 1}, 
                {"id": 59, "lemma": "등", "type": "NNB", "position": 242, "weight": 0.0121753}, 
                {"id": 60, "lemma": "을", "type": "JKO", "position": 245, "weight": 0.0630104}, 
                {"id": 61, "lemma": "발표", "type": "NNG", "position": 249, "weight": 0.9}, 
                {"id": 62, "lemma": "하", "type": "XSV", "position": 255, "weight": 0.0001}, 
                {"id": 63, "lemma": "았", "type": "EP", "position": 255, "weight": 0.9}, 
                {"id": 64, "lemma": "다", "type": "EF", "position": 258, "weight": 0.640954}, 
                {"id": 65, "lemma": ".", "type": "SF", "position": 261, "weight": 1}
            ], 
            "morp_eval": [], 
            "WSD": [
                {"id": 0, "text": "1937", "type": "SN", "scode": "000000", "weight": 1, "position": 0, "begin": 0, "end": 0}, 
                {"id": 1, "text": "년", "type": "NNB", "scode": "020000", "weight": 0.166667, "position": 4, "begin": 1, "end": 1}, 
                {"id": 2, "text": "윤곤강", "type": "NNP", "scode": "000000", "weight": 1, "position": 8, "begin": 2, "end": 2}, 
                {"id": 3, "text": "(", "type": "SS", "scode": "000000", "weight": 1, "position": 17, "begin": 3, "end": 3}, 
                {"id": 4, "text": "尹崑崗", "type": "SH", "scode": "000000", "weight": 1, "position": 18, "begin": 4, "end": 4}, 
                {"id": 5, "text": ")", "type": "SS", "scode": "000000", "weight": 1, "position": 27, "begin": 5, "end": 5}, 
                {"id": 6, "text": "·", "type": "SP", "scode": "000000", "weight": 1, "position": 28, "begin": 6, "end": 6}, 
                {"id": 7, "text": "김광균", "type": "NNP", "scode": "000000", "weight": 1, "position": 30, "begin": 7, "end": 7}, 
                {"id": 8, "text": "(", "type": "SS", "scode": "000000", "weight": 1, "position": 39, "begin": 8, "end": 8}, 
                {"id": 9, "text": "金光均", "type": "SH", "scode": "000000", "weight": 1, "position": 40, "begin": 9, "end": 9}, 
                {"id": 10, "text": ")", "type": "SS", "scode": "000000", "weight": 1, "position": 49, "begin": 10, "end": 10}, 
                {"id": 11, "text": "등", "type": "NNB", "scode": "050001", "weight": 0.0526316, "position": 51, "begin": 11, "end": 11}, 
                {"id": 12, "text": "과", "type": "JKB", "scode": "000000", "weight": 1, "position": 54, "begin": 12, "end": 12}, 
                {"id": 13, "text": "함께", "type": "MAG", "scode": "000000", "weight": 1, "position": 58, "begin": 13, "end": 13}, 
                {"id": 14, "text": "동인지", "type": "NNG", "scode": "000000", "weight": 1, "position": 65, "begin": 14, "end": 15}, 
                {"id": 15, "text": "《", "type": "SS", "scode": "000000", "weight": 1, "position": 75, "begin": 16, "end": 16}, 
                {"id": 16, "text": "자오선", "type": "NNP", "scode": "010000", "weight": 0.5, "position": 78, "begin": 17, "end": 17}, 
                {"id": 17, "text": "(", "type": "SS", "scode": "000000", "weight": 1, "position": 87, "begin": 18, "end": 18}, 
                {"id": 18, "text": "子午線", "type": "SH", "scode": "000000", "weight": 1, "position": 88, "begin": 19, "end": 19}, 
                {"id": 19, "text": ")", "type": "SS", "scode": "000000", "weight": 1, "position": 97, "begin": 20, "end": 20}, 
                {"id": 20, "text": "》", "type": "SS", "scode": "000000", "weight": 1, "position": 98, "begin": 21, "end": 21}, 
                {"id": 21, "text": "을", "type": "JKO", "scode": "000000", "weight": 1, "position": 101, "begin": 22, "end": 22}, 
                {"id": 22, "text": "발간", "type": "NNG", "scode": "010000", "weight": 0.5, "position": 105, "begin": 23, "end": 23}, 
                {"id": 23, "text": ",", "type": "SP", "scode": "000000", "weight": 1, "position": 111, "begin": 24, "end": 24}, 
                {"id": 24, "text": "그", "type": "MM", "scode": "010102", "weight": 0.142857, "position": 113, "begin": 25, "end": 25}, 
                {"id": 25, "text": "무렵", "type": "NNB", "scode": "000000", "weight": 1, "position": 117, "begin": 26, "end": 26}, 
                {"id": 26, "text": "유명하", "type": "VA", "scode": "010000", "weight": 0.5, "position": 124, "begin": 27, "end": 28}, 
                {"id": 27, "text": "ㄴ", "type": "ETM", "scode": "000000", "weight": 1, "position": 130, "begin": 29, "end": 29}, 
                {"id": 28, "text": "《", "type": "SS", "scode": "000000", "weight": 1, "position": 134, "begin": 30, "end": 30}, 
                {"id": 29, "text": "청포도", "type": "NNP", "scode": "000000", "weight": 0.5, "position": 137, "begin": 31, "end": 31}, 
                {"id": 30, "text": "(", "type": "SS", "scode": "000000", "weight": 1, "position": 146, "begin": 32, "end": 32}, 
                {"id": 31, "text": "靑葡萄", "type": "SH", "scode": "000000", "weight": 1, "position": 147, "begin": 33, "end": 33}, 
                {"id": 32, "text": ")", "type": "SS", "scode": "000000", "weight": 1, "position": 156, "begin": 34, "end": 34}, 
                {"id": 33, "text": "》", "type": "SS", "scode": "000000", "weight": 1, "position": 157, "begin": 35, "end": 35}, 
                {"id": 34, "text": "를", "type": "JKO", "scode": "000000", "weight": 1, "position": 160, "begin": 36, "end": 36}, 
                {"id": 35, "text": "비롯하", "type": "VV", "scode": "000202", "weight": 0.333333, "position": 164, "begin": 37, "end": 37}, 
                {"id": 36, "text": "아", "type": "EC", "scode": "000000", "weight": 1, "position": 173, "begin": 38, "end": 38}, 
                {"id": 37, "text": "《", "type": "SS", "scode": "000000", "weight": 1, "position": 177, "begin": 39, "end": 39}, 
                {"id": 38, "text": "교목", "type": "NNP", "scode": "000000", "weight": 0.5, "position": 180, "begin": 40, "end": 40}, 
                {"id": 39, "text": "(", "type": "SS", "scode": "000000", "weight": 1, "position": 186, "begin": 41, "end": 41}, 
                {"id": 40, "text": "喬木", "type": "SH", "scode": "000000", "weight": 1, "position": 187, "begin": 42, "end": 42}, 
                {"id": 41, "text": ")", "type": "SS", "scode": "000000", "weight": 1, "position": 193, "begin": 43, "end": 43}, 
                {"id": 42, "text": "》", "type": "SS", "scode": "000000", "weight": 1, "position": 194, "begin": 44, "end": 44}, 
                {"id": 43, "text": ",", "type": "SP", "scode": "000000", "weight": 1, "position": 197, "begin": 45, "end": 45}, 
                {"id": 44, "text": "《", "type": "SS", "scode": "000000", "weight": 1, "position": 199, "begin": 46, "end": 46}, 
                {"id": 45, "text": "절정", "type": "NNP", "scode": "030004", "weight": 0.166667, "position": 202, "begin": 47, "end": 47}, 
                {"id": 46, "text": "(", "type": "SS", "scode": "000000", "weight": 1, "position": 208, "begin": 48, "end": 48}, 
                {"id": 47, "text": "絶頂", "type": "SH", "scode": "000000", "weight": 1, "position": 209, "begin": 49, "end": 49}, 
                {"id": 48, "text": ")", "type": "SS", "scode": "000000", "weight": 1, "position": 215, "begin": 50, "end": 50}, 
                {"id": 49, "text": "》", "type": "SS", "scode": "000000", "weight": 1, "position": 216, "begin": 51, "end": 51}, 
                {"id": 50, "text": ",", "type": "SP", "scode": "000000", "weight": 1, "position": 219, "begin": 52, "end": 52}, 
                {"id": 51, "text": "《", "type": "SS", "scode": "000000", "weight": 1, "position": 221, "begin": 53, "end": 53}, 
                {"id": 52, "text": "광야", "type": "NNP", "scode": "000000", "weight": 1, "position": 224, "begin": 54, "end": 54}, 
                {"id": 53, "text": "(", "type": "SS", "scode": "000000", "weight": 1, "position": 230, "begin": 55, "end": 55}, 
                {"id": 54, "text": "曠野", "type": "SH", "scode": "000000", "weight": 1, "position": 231, "begin": 56, "end": 56}, 
                {"id": 55, "text": ")", "type": "SS", "scode": "000000", "weight": 1, "position": 237, "begin": 57, "end": 57}, 
                {"id": 56, "text": "》", "type": "SS", "scode": "000000", "weight": 1, "position": 238, "begin": 58, "end": 58}, 
                {"id": 57, "text": "등", "type": "NNB", "scode": "050001", "weight": 0.0526316, "position": 242, "begin": 59, "end": 59}, 
                {"id": 58, "text": "을", "type": "JKO", "scode": "000000", "weight": 1, "position": 245, "begin": 60, "end": 60}, 
                {"id": 59, "text": "발표하", "type": "VV", "scode": "000000", "weight": 1, "position": 249, "begin": 61, "end": 62}, 
                {"id": 60, "text": "았", "type": "EP", "scode": "000000", "weight": 1, "position": 255, "begin": 63, "end": 63}, 
                {"id": 61, "text": "다", "type": "EF", "scode": "000000", "weight": 1, "position": 258, "begin": 64, "end": 64}, 
                {"id": 62, "text": ".", "type": "SF", "scode": "000000", "weight": 1, "position": 261, "begin": 65, "end": 65}
            ], 
            "word": [
                {"id": 0, "text": "1937년", "type": "", "begin": 0, "end": 1}, 
                {"id": 1, "text": "윤곤강(尹崑崗)·김광균(金光均)", "type": "", "begin": 2, "end": 10}, 
                {"id": 2, "text": "등과", "type": "", "begin": 11, "end": 12}, 
                {"id": 3, "text": "함께", "type": "", "begin": 13, "end": 13}, 
                {"id": 4, "text": "동인지", "type": "", "begin": 14, "end": 15}, 
                {"id": 5, "text": "《자오선(子午線)》을", "type": "", "begin": 16, "end": 22}, 
                {"id": 6, "text": "발간,", "type": "", "begin": 23, "end": 24}, 
                {"id": 7, "text": "그", "type": "", "begin": 25, "end": 25}, 
                {"id": 8, "text": "무렵", "type": "", "begin": 26, "end": 26}, 
                {"id": 9, "text": "유명한", "type": "", "begin": 27, "end": 29}, 
                {"id": 10, "text": "《청포도(靑葡萄)》를", "type": "", "begin": 30, "end": 36}, 
                {"id": 11, "text": "비롯하여", "type": "", "begin": 37, "end": 38}, 
                {"id": 12, "text": "《교목(喬木)》,", "type": "", "begin": 39, "end": 45}, 
                {"id": 13, "text": "《절정(絶頂)》,", "type": "", "begin": 46, "end": 52}, 
                {"id": 14, "text": "《광야(曠野)》", "type": "", "begin": 53, "end": 58}, 
                {"id": 15, "text": "등을", "type": "", "begin": 59, "end": 60}, 
                {"id": 16, "text": "발표했다.", "type": "", "begin": 61, "end": 65}
            ], 
            "NE": [
                {"id": 0, "text": "1937년", "type": "DT_YEAR", "begin": 0, "end": 1, "weight": 0.77747, "common_noun": 0}, 
                {"id": 1, "text": "윤곤강", "type": "PS_NAME", "begin": 2, "end": 2, "weight": 0.492209, "common_noun": 0}, 
                {"id": 2, "text": "尹崑崗", "type": "PS_NAME", "begin": 4, "end": 4, "weight": 1, "common_noun": 0}, 
                {"id": 3, "text": "김광균", "type": "PS_NAME", "begin": 7, "end": 7, "weight": 0.550264, "common_noun": 0}, 
                {"id": 4, "text": "金光均", "type": "PS_NAME", "begin": 9, "end": 9, "weight": 0.163167, "common_noun": 0}, 
                {"id": 5, "text": "자오선", "type": "AFW_DOCUMENT", "begin": 17, "end": 17, "weight": 0.907376, "common_noun": 0}, 
                {"id": 6, "text": "子午線", "type": "AFW_DOCUMENT", "begin": 19, "end": 19, "weight": 1, "common_noun": 0}, 
                {"id": 7, "text": "청포도", "type": "AFW_DOCUMENT", "begin": 31, "end": 31, "weight": 0.879109, "common_noun": 0}, 
                {"id": 8, "text": "靑葡萄", "type": "AFW_DOCUMENT", "begin": 33, "end": 33, "weight": 1, "common_noun": 0}, 
                {"id": 9, "text": "교목", "type": "AFW_DOCUMENT", "begin": 40, "end": 40, "weight": 0.385129, "common_noun": 0}, 
                {"id": 10, "text": "喬木", "type": "AFW_DOCUMENT", "begin": 42, "end": 42, "weight": 0.385129, "common_noun": 0}, 
                {"id": 11, "text": "절정", "type": "AFW_DOCUMENT", "begin": 47, "end": 47, "weight": 0.884193, "common_noun": 0}, 
                {"id": 12, "text": "絶頂", "type": "AFW_DOCUMENT", "begin": 49, "end": 49, "weight": 0.884193, "common_noun": 0}, 
                {"id": 13, "text": "광야", "type": "AFW_DOCUMENT", "begin": 54, "end": 54, "weight": 0.594504, "common_noun": 0}, 
                {"id": 14, "text": "曠野", "type": "AFW_DOCUMENT", "begin": 56, "end": 56, "weight": 0.594504, "common_noun": 0}
            ], 
            "chunk": [], 
            "dependency": [
                {"id": 0, "text": "1937년", "head": 6, "label": "NP_AJT", "mod": [], "weight": 0.435058}, 
                {"id": 1, "text": "윤곤강(尹崑崗)·김광균(金光均)", "head": 2, "label": "NP", "mod": [], "weight": 0.735345}, 
                {"id": 2, "text": "등과", "head": 3, "label": "NP_AJT", "mod": [1], "weight": 0.762236}, 
                {"id": 3, "text": "함께", "head": 6, "label": "AP", "mod": [2], "weight": 0.283468}, 
                {"id": 4, "text": "동인지", "head": 5, "label": "NP", "mod": [], "weight": 0.724388}, 
                {"id": 5, "text": "《자오선(子午線)》을", "head": 6, "label": "NP_OBJ", "mod": [4], "weight": 0.771}, 
                {"id": 6, "text": "발간,", "head": 16, "label": "NP_CNJ", "mod": [0, 3, 5], "weight": 0.144386}, 
                {"id": 7, "text": "그", "head": 8, "label": "DP", "mod": [], "weight": 0.617594}, 
                {"id": 8, "text": "무렵", "head": 9, "label": "NP_AJT", "mod": [7], "weight": 0.018176}, 
                {"id": 9, "text": "유명한", "head": 10, "label": "VP_MOD", "mod": [8], "weight": 0.687511}, 
                {"id": 10, "text": "《청포도(靑葡萄)》를", "head": 11, "label": "NP_OBJ", "mod": [9], "weight": 0.648052}, 
                {"id": 11, "text": "비롯하여", "head": 16, "label": "VP", "mod": [10], "weight": 0.864984}, 
                {"id": 12, "text": "《교목(喬木)》,", "head": 14, "label": "NP_CNJ", "mod": [], "weight": 0.765158}, 
                {"id": 13, "text": "《절정(絶頂)》,", "head": 14, "label": "NP_CNJ", "mod": [], "weight": 0.83581}, 
                {"id": 14, "text": "《광야(曠野)》", "head": 15, "label": "NP_PRN", "mod": [12, 13], "weight": 0.162332}, 
                {"id": 15, "text": "등을", "head": 16, "label": "NP_OBJ", "mod": [14], "weight": 0.793757}, 
                {"id": 16, "text": "발표했다.", "head": -1, "label": "VP", "mod": [11, 15, 6], "weight": 1.74996e-06}
            ], 
            "SRL": [
                {"verb": "유명", "sense": 1, "word_id": 9, "weight": 0.13691, "argument": [
                    {"type": "ARGM-TMP", "word_id": 8, "text": "무렵", "weight": 0.178244}, 
                    {"type": "ARG1", "word_id": 10, "text": "《청포도(靑葡萄)》를", "weight": 0.0955756}
                ]}, 
                {"verb": "비롯하", "sense": 1, "word_id": 11, "weight": 0.31116, "argument": [
                    {"type": "ARG2", "word_id": 10, "text": "《청포도(靑葡萄)》를", "weight": 0.31116}
                ]}, 
                {"verb": "발표", "sense": 1, "word_id": 16, "weight": 0.210764, "argument": [
                    {"type": "ARG1", "word_id": 15, "text": "등을", "weight": 0.210764}, 
                    {"type": "ARGM-TMP", "word_id": 0, "text": "1937년", "weight": 1}
                ]}
            ], 
            "relation": [], 
            "SA": [], 
            "ZA": []
        }
    ], 
    "entity": [
        {"id": 0, "type": "DT_YEAR", "number": "singular", "gender": "", "person": "", "animacy": "time", "mention": [
            {"id": 0, "sent_id": 0, "start_eid": 0, "end_eid": 0, "ne_id": 0, "text": "1937년", "start_eid_short": 0, "end_eid_short": 0, "text_short": "1937년"}, 
            {"id": 4, "sent_id": 0, "start_eid": 7, "end_eid": 8, "ne_id": -1, "text": "그 무렵", "start_eid_short": 7, "end_eid_short": 8, "text_short": "그 무렵"}
        ]}, 
        {"id": 1, "type": "", "number": "singular", "gender": "", "person": "", "animacy": "thing", "mention": [
            {"id": 1, "sent_id": 0, "start_eid": 1, "end_eid": 2, "ne_id": -1, "text": "윤곤강(尹崑崗)·김광균(金光均) 등과", "start_eid_short": 1, "end_eid_short": 1, "text_short": "윤곤강(尹崑崗)·김광균(金光均)"}
        ]}, 
        {"id": 2, "type": "AFW_DOCUMENT", "number": "singular", "gender": "", "person": "", "animacy": "thing", "mention": [
            {"id": 2, "sent_id": 0, "start_eid": 4, "end_eid": 5, "ne_id": 5, "text": "동인지 《자오선(子午線)》을", "start_eid_short": 5, "end_eid_short": 5, "text_short": "《자오선(子午線)》을"}, 
            {"id": 3, "sent_id": 0, "start_eid": 4, "end_eid": 4, "ne_id": -1, "text": "동인지", "start_eid_short": 4, "end_eid_short": 4, "text_short": "동인지"}
        ]}, 
        {"id": 3, "type": "PT_FRUIT", "number": "singular", "gender": "", "person": "", "animacy": "plant", "mention": [
            {"id": 6, "sent_id": 0, "start_eid": 10, "end_eid": 10, "ne_id": 7, "text": "《청포도(靑葡萄)》를", "start_eid_short": 10, "end_eid_short": 1, "text_short": ""}
        ]}, 
        {"id": 4, "type": "AFW_DOCUMENT", "number": "singular", "gender": "", "person": "", "animacy": "thing", "mention": [
            {"id": 7, "sent_id": 0, "start_eid": 12, "end_eid": 12, "ne_id": 9, "text": "《교목(喬木)》,", "start_eid_short": 12, "end_eid_short": 1, "text_short": ""}
        ]}, 
        {"id": 5, "type": "AFW_DOCUMENT", "number": "singular", "gender": "", "person": "", "animacy": "thing", "mention": [
            {"id": 8, "sent_id": 0, "start_eid": 13, "end_eid": 13, "ne_id": 10, "text": "《절정(絶頂)》,", "start_eid_short": 13, "end_eid_short": 1, "text_short": ""}
        ]}, 
        {"id": 6, "type": "", "number": "singular", "gender": "", "person": "", "animacy": "thing", "mention": [
            {"id": 5, "sent_id": 0, "start_eid": 10, "end_eid": 15, "ne_id": -1, "text": "《청포도(靑葡萄)》를 비롯하여 《교목(喬木)》, 《절정(絶頂)》, 《광야(曠野)》 등을", "start_eid_short": 11, "end_eid_short": 1, "text_short": ""}
        ]}, 
        {"id": 7, "type": "AFW_DOCUMENT", "number": "singular", "gender": "", "person": "", "animacy": "thing", "mention": [
            {"id": 9, "sent_id": 0, "start_eid": 14, "end_eid": 14, "ne_id": 11, "text": "《광야(曠野)》", "start_eid_short": 14, "end_eid_short": 1, "text_short": ""}
        ]}
    ]
}