{
    "doc_id": "E2016.889.16_Q_01.json", 
    "DCT": "", 
    "category": "", 
    "category_weight": 0, 
    "title": {
        "text": "", 
        "NE": ""
    }, 
    "metaInfo": {}, 
    "sentence": [
        {
            "id": 0, 
            "reserve_str": "", 
            "text": "이것은 16세기 종교 개혁으로 로마 가톨릭에서 분리되어 나온 신교도를 총칭하는 용어다.", 
            "morp": [
                {"id": 0, "lemma": "이것", "type": "NP", "position": 0, "weight": 0.0733657}, 
                {"id": 1, "lemma": "은", "type": "JX", "position": 6, "weight": 0.191811}, 
                {"id": 2, "lemma": "16", "type": "SN", "position": 10, "weight": 1}, 
                {"id": 3, "lemma": "세기", "type": "NNG", "position": 12, "weight": 0.100259}, 
                {"id": 4, "lemma": "종교", "type": "NNG", "position": 19, "weight": 0.9}, 
                {"id": 5, "lemma": "개혁", "type": "NNG", "position": 26, "weight": 0.9}, 
                {"id": 6, "lemma": "으로", "type": "JKB", "position": 32, "weight": 0.153406}, 
                {"id": 7, "lemma": "로마", "type": "NNP", "position": 39, "weight": 0.11577}, 
                {"id": 8, "lemma": "가톨릭", "type": "NNG", "position": 46, "weight": 0.9}, 
                {"id": 9, "lemma": "에서", "type": "JKB", "position": 55, "weight": 0.153407}, 
                {"id": 10, "lemma": "분리", "type": "NNG", "position": 62, "weight": 0.9}, 
                {"id": 11, "lemma": "되", "type": "XSV", "position": 68, "weight": 0.000224177}, 
                {"id": 12, "lemma": "아", "type": "EC", "position": 71, "weight": 0.361326}, 
                {"id": 13, "lemma": "나오", "type": "VV", "position": 75, "weight": 0.9}, 
                {"id": 14, "lemma": "ㄴ", "type": "ETM", "position": 78, "weight": 0.304215}, 
                {"id": 15, "lemma": "신교", "type": "NNG", "position": 82, "weight": 0.63195}, 
                {"id": 16, "lemma": "도", "type": "XSN", "position": 88, "weight": 0.0001}, 
                {"id": 17, "lemma": "를", "type": "JKO", "position": 91, "weight": 0.0870227}, 
                {"id": 18, "lemma": "총칭", "type": "NNG", "position": 95, "weight": 0.75}, 
                {"id": 19, "lemma": "하", "type": "XSV", "position": 101, "weight": 0.0001}, 
                {"id": 20, "lemma": "는", "type": "ETM", "position": 104, "weight": 0.238503}, 
                {"id": 21, "lemma": "용어", "type": "NNG", "position": 108, "weight": 0.9}, 
                {"id": 22, "lemma": "이", "type": "VCP", "position": 111, "weight": 0.0177525}, 
                {"id": 23, "lemma": "다", "type": "EF", "position": 114, "weight": 0.353579}, 
                {"id": 24, "lemma": ".", "type": "SF", "position": 117, "weight": 1}
            ], 
            "morp_eval": [], 
            "WSD": [
                {"id": 0, "text": "이것", "type": "NP", "scode": "000001", "weight": 0.25, "position": 0, "begin": 0, "end": 0}, 
                {"id": 1, "text": "은", "type": "JX", "scode": "000000", "weight": 1, "position": 6, "begin": 1, "end": 1}, 
                {"id": 2, "text": "16", "type": "SN", "scode": "000000", "weight": 1, "position": 10, "begin": 2, "end": 2}, 
                {"id": 3, "text": "세기", "type": "NNG", "scode": "030002", "weight": 0.0909091, "position": 12, "begin": 3, "end": 3}, 
                {"id": 4, "text": "종교", "type": "NNG", "scode": "000000", "weight": 1, "position": 19, "begin": 4, "end": 4}, 
                {"id": 5, "text": "개혁", "type": "NNG", "scode": "000000", "weight": 1, "position": 26, "begin": 5, "end": 5}, 
                {"id": 6, "text": "으로", "type": "JKB", "scode": "000000", "weight": 1, "position": 32, "begin": 6, "end": 6}, 
                {"id": 7, "text": "로마", "type": "NNP", "scode": "020003", "weight": 0.2, "position": 39, "begin": 7, "end": 7}, 
                {"id": 8, "text": "가톨릭", "type": "NNG", "scode": "000002", "weight": 0.5, "position": 46, "begin": 8, "end": 8}, 
                {"id": 9, "text": "에서", "type": "JKB", "scode": "000000", "weight": 1, "position": 55, "begin": 9, "end": 9}, 
                {"id": 10, "text": "분리되", "type": "VV", "scode": "000000", "weight": 1, "position": 62, "begin": 10, "end": 11}, 
                {"id": 11, "text": "아", "type": "EC", "scode": "000000", "weight": 1, "position": 71, "begin": 12, "end": 12}, 
                {"id": 12, "text": "나오", "type": "VV", "scode": "000102", "weight": 0.0384615, "position": 75, "begin": 13, "end": 13}, 
                {"id": 13, "text": "ㄴ", "type": "ETM", "scode": "000000", "weight": 1, "position": 78, "begin": 14, "end": 14}, 
                {"id": 14, "text": "신교도", "type": "NNG", "scode": "000000", "weight": 1, "position": 82, "begin": 15, "end": 16}, 
                {"id": 15, "text": "를", "type": "JKO", "scode": "000000", "weight": 1, "position": 91, "begin": 17, "end": 17}, 
                {"id": 16, "text": "총칭하", "type": "VV", "scode": "000000", "weight": 1, "position": 95, "begin": 18, "end": 19}, 
                {"id": 17, "text": "는", "type": "ETM", "scode": "000000", "weight": 1, "position": 104, "begin": 20, "end": 20}, 
                {"id": 18, "text": "용어", "type": "NNG", "scode": "020000", "weight": 0.2, "position": 108, "begin": 21, "end": 21}, 
                {"id": 19, "text": "이", "type": "VCP", "scode": "030000", "weight": 0.0172414, "position": 111, "begin": 22, "end": 22}, 
                {"id": 20, "text": "다", "type": "EF", "scode": "000000", "weight": 1, "position": 114, "begin": 23, "end": 23}, 
                {"id": 21, "text": ".", "type": "SF", "scode": "000000", "weight": 1, "position": 117, "begin": 24, "end": 24}
            ], 
            "word": [
                {"id": 0, "text": "이것은", "type": "", "begin": 0, "end": 1}, 
                {"id": 1, "text": "16세기", "type": "", "begin": 2, "end": 3}, 
                {"id": 2, "text": "종교", "type": "", "begin": 4, "end": 4}, 
                {"id": 3, "text": "개혁으로", "type": "", "begin": 5, "end": 6}, 
                {"id": 4, "text": "로마", "type": "", "begin": 7, "end": 7}, 
                {"id": 5, "text": "가톨릭에서", "type": "", "begin": 8, "end": 9}, 
                {"id": 6, "text": "분리되어", "type": "", "begin": 10, "end": 12}, 
                {"id": 7, "text": "나온", "type": "", "begin": 13, "end": 14}, 
                {"id": 8, "text": "신교도를", "type": "", "begin": 15, "end": 17}, 
                {"id": 9, "text": "총칭하는", "type": "", "begin": 18, "end": 20}, 
                {"id": 10, "text": "용어다.", "type": "", "begin": 21, "end": 24}
            ], 
            "NE": [
                {"id": 0, "text": "16세기", "type": "DT_OTHERS", "begin": 2, "end": 3, "weight": 0.793353, "common_noun": 0}, 
                {"id": 1, "text": "종교 개혁", "type": "EV_OTHERS", "begin": 4, "end": 5, "weight": 0.220264, "common_noun": 0}, 
                {"id": 2, "text": "로마 가톨릭", "type": "OGG_RELIGION", "begin": 7, "end": 8, "weight": 0.415999, "common_noun": 0}, 
                {"id": 3, "text": "신교도", "type": "OGG_RELIGION", "begin": 15, "end": 16, "weight": 0.287605, "common_noun": 0}
            ], 
            "chunk": [], 
            "dependency": [
                {"id": 0, "text": "이것은", "head": 10, "label": "NP_SBJ", "mod": [], "weight": 0.88043}, 
                {"id": 1, "text": "16세기", "head": 2, "label": "NP", "mod": [], "weight": 0.111443}, 
                {"id": 2, "text": "종교", "head": 3, "label": "NP", "mod": [1], "weight": 0.764347}, 
                {"id": 3, "text": "개혁으로", "head": 6, "label": "NP_AJT", "mod": [2], "weight": 0.484774}, 
                {"id": 4, "text": "로마", "head": 5, "label": "NP", "mod": [], "weight": 0.653384}, 
                {"id": 5, "text": "가톨릭에서", "head": 6, "label": "NP_AJT", "mod": [4], "weight": 0.797653}, 
                {"id": 6, "text": "분리되어", "head": 7, "label": "VP", "mod": [3, 5], "weight": 0.457399}, 
                {"id": 7, "text": "나온", "head": 8, "label": "VP_MOD", "mod": [6], "weight": 0.677317}, 
                {"id": 8, "text": "신교도를", "head": 9, "label": "NP_OBJ", "mod": [7], "weight": 0.669772}, 
                {"id": 9, "text": "총칭하는", "head": 10, "label": "VP_MOD", "mod": [8], "weight": 0.811676}, 
                {"id": 10, "text": "용어다.", "head": -1, "label": "VNP", "mod": [0, 9], "weight": 0.00274188}
            ], 
            "SRL": [
                {"verb": "분리", "sense": 1, "word_id": 6, "weight": 0.11175, "argument": [
                    {"type": "ARGM-CAU", "word_id": 3, "text": "개혁으로", "weight": 1}, 
                    {"type": "ARG2", "word_id": 5, "text": "가톨릭에서", "weight": 0.151758}, 
                    {"type": "ARGM-TMP", "word_id": 1, "text": "16세기", "weight": 1}, 
                    {"type": "ARG1", "word_id": 8, "text": "신교도를", "weight": 1}
                ]}, 
                {"verb": "나오", "sense": 1, "word_id": 7, "weight": 0.172229, "argument": [
                    {"type": "ARGM-MNR", "word_id": 6, "text": "분리되어", "weight": 0.108646}, 
                    {"type": "ARG0", "word_id": 8, "text": "신교도를", "weight": 0.235813}, 
                    {"type": "ARG2", "word_id": 5, "text": "가톨릭에서", "weight": 1}
                ]}, 
                {"verb": "총칭", "sense": 1, "word_id": 9, "weight": 0.159209, "argument": [
                    {"type": "ARGM-CAU", "word_id": 6, "text": "분리되어", "weight": 0.123271}, 
                    {"type": "ARG1", "word_id": 8, "text": "신교도를", "weight": 0.195146}, 
                    {"type": "ARG2", "word_id": 10, "text": "용어다.", "weight": 1}
                ]}
            ], 
            "relation": [], 
            "SA": [], 
            "ZA": []
        }, 
        {
            "id": 1, 
            "reserve_str": "", 
            "text": "항의하는 사람들이라는 의미를 가지고 있는 이 단어는 무엇일까? ", 
            "morp": [
                {"id": 0, "lemma": "항의", "type": "NNG", "position": 118, "weight": 0.9}, 
                {"id": 1, "lemma": "하", "type": "XSV", "position": 124, "weight": 0.0001}, 
                {"id": 2, "lemma": "는", "type": "ETM", "position": 127, "weight": 0.238503}, 
                {"id": 3, "lemma": "사람", "type": "NNG", "position": 131, "weight": 0.658826}, 
                {"id": 4, "lemma": "들", "type": "XSN", "position": 137, "weight": 0.0299841}, 
                {"id": 5, "lemma": "이", "type": "VCP", "position": 140, "weight": 0.0165001}, 
                {"id": 6, "lemma": "라는", "type": "ETM", "position": 143, "weight": 0.230361}, 
                {"id": 7, "lemma": "의미", "type": "NNG", "position": 150, "weight": 0.9}, 
                {"id": 8, "lemma": "를", "type": "JKO", "position": 156, "weight": 0.137686}, 
                {"id": 9, "lemma": "가지", "type": "VV", "position": 160, "weight": 0.401357}, 
                {"id": 10, "lemma": "고", "type": "EC", "position": 166, "weight": 0.416679}, 
                {"id": 11, "lemma": "있", "type": "VX", "position": 170, "weight": 0.125953}, 
                {"id": 12, "lemma": "는", "type": "ETM", "position": 173, "weight": 0.183966}, 
                {"id": 13, "lemma": "이", "type": "MM", "position": 177, "weight": 0.00060084}, 
                {"id": 14, "lemma": "단어", "type": "NNG", "position": 181, "weight": 0.9}, 
                {"id": 15, "lemma": "는", "type": "JX", "position": 187, "weight": 0.0287565}, 
                {"id": 16, "lemma": "무엇", "type": "NP", "position": 191, "weight": 0.9}, 
                {"id": 17, "lemma": "이", "type": "VCP", "position": 197, "weight": 0.0175768}, 
                {"id": 18, "lemma": "ㄹ까", "type": "EF", "position": 197, "weight": 0.258243}, 
                {"id": 19, "lemma": "?", "type": "SF", "position": 203, "weight": 1}
            ], 
            "morp_eval": [], 
            "WSD": [
                {"id": 0, "text": "항의하", "type": "VV", "scode": "000001", "weight": 0.5, "position": 118, "begin": 0, "end": 1}, 
                {"id": 1, "text": "는", "type": "ETM", "scode": "000000", "weight": 1, "position": 127, "begin": 2, "end": 2}, 
                {"id": 2, "text": "사람", "type": "NNG", "scode": "000001", "weight": 0.0909091, "position": 131, "begin": 3, "end": 3}, 
                {"id": 3, "text": "들", "type": "XSN", "scode": "090000", "weight": 0.0909091, "position": 137, "begin": 4, "end": 4}, 
                {"id": 4, "text": "이", "type": "VCP", "scode": "030000", "weight": 0.0172414, "position": 140, "begin": 5, "end": 5}, 
                {"id": 5, "text": "라는", "type": "ETM", "scode": "000000", "weight": 1, "position": 143, "begin": 6, "end": 6}, 
                {"id": 6, "text": "의미", "type": "NNG", "scode": "020001", "weight": 0.25, "position": 150, "begin": 7, "end": 7}, 
                {"id": 7, "text": "를", "type": "JKO", "scode": "000000", "weight": 1, "position": 156, "begin": 8, "end": 8}, 
                {"id": 8, "text": "가지", "type": "VV", "scode": "000102", "weight": 0.0909091, "position": 160, "begin": 9, "end": 9}, 
                {"id": 9, "text": "고", "type": "EC", "scode": "000000", "weight": 1, "position": 166, "begin": 10, "end": 10}, 
                {"id": 10, "text": "있", "type": "VX", "scode": "010902", "weight": 0.0416667, "position": 170, "begin": 11, "end": 11}, 
                {"id": 11, "text": "는", "type": "ETM", "scode": "000000", "weight": 1, "position": 173, "begin": 12, "end": 12}, 
                {"id": 12, "text": "이", "type": "MM", "scode": "050102", "weight": 0.0172414, "position": 177, "begin": 13, "end": 13}, 
                {"id": 13, "text": "단어", "type": "NNG", "scode": "000000", "weight": 1, "position": 181, "begin": 14, "end": 14}, 
                {"id": 14, "text": "는", "type": "JX", "scode": "000000", "weight": 1, "position": 187, "begin": 15, "end": 15}, 
                {"id": 15, "text": "무엇", "type": "NP", "scode": "000001", "weight": 0.5, "position": 191, "begin": 16, "end": 16}, 
                {"id": 16, "text": "이", "type": "VCP", "scode": "030000", "weight": 0.0172414, "position": 197, "begin": 17, "end": 17}, 
                {"id": 17, "text": "ㄹ까", "type": "EF", "scode": "000000", "weight": 1, "position": 197, "begin": 18, "end": 18}, 
                {"id": 18, "text": "?", "type": "SF", "scode": "000000", "weight": 1, "position": 203, "begin": 19, "end": 19}
            ], 
            "word": [
                {"id": 0, "text": "항의하는", "type": "", "begin": 0, "end": 2}, 
                {"id": 1, "text": "사람들이라는", "type": "", "begin": 3, "end": 6}, 
                {"id": 2, "text": "의미를", "type": "", "begin": 7, "end": 8}, 
                {"id": 3, "text": "가지고", "type": "", "begin": 9, "end": 10}, 
                {"id": 4, "text": "있는", "type": "", "begin": 11, "end": 12}, 
                {"id": 5, "text": "이", "type": "", "begin": 13, "end": 13}, 
                {"id": 6, "text": "단어는", "type": "", "begin": 14, "end": 15}, 
                {"id": 7, "text": "무엇일까?", "type": "", "begin": 16, "end": 19}
            ], 
            "NE": [], 
            "chunk": [], 
            "dependency": [
                {"id": 0, "text": "항의하는", "head": 1, "label": "VP_MOD", "mod": [], "weight": 0.221879}, 
                {"id": 1, "text": "사람들이라는", "head": 2, "label": "VNP_MOD", "mod": [0], "weight": 0.570231}, 
                {"id": 2, "text": "의미를", "head": 3, "label": "NP_OBJ", "mod": [1], "weight": 0.742456}, 
                {"id": 3, "text": "가지고", "head": 4, "label": "VP", "mod": [2], "weight": 0.843627}, 
                {"id": 4, "text": "있는", "head": 6, "label": "VP_MOD", "mod": [3], "weight": 0.807818}, 
                {"id": 5, "text": "이", "head": 6, "label": "DP", "mod": [], "weight": 0.584566}, 
                {"id": 6, "text": "단어는", "head": 7, "label": "NP_SBJ", "mod": [4, 5], "weight": 0.887706}, 
                {"id": 7, "text": "무엇일까?", "head": -1, "label": "VNP", "mod": [6], "weight": 0.0291329}
            ], 
            "SRL": [
                {"verb": "항의", "sense": 1, "word_id": 0, "weight": 0.110661, "argument": [
                    {"type": "ARG1", "word_id": 1, "text": "사람들이라는", "weight": 0.110661}
                ]}, 
                {"verb": "가지", "sense": 1, "word_id": 3, "weight": 0.233271, "argument": [
                    {"type": "ARG1", "word_id": 2, "text": "의미를", "weight": 0.142511}, 
                    {"type": "AUX", "word_id": 4, "text": "있는", "weight": 0.301475}, 
                    {"type": "ARG0", "word_id": 6, "text": "단어는", "weight": 0.255826}
                ]}
            ], 
            "relation": [], 
            "SA": [], 
            "ZA": []
        }
    ], 
    "entity": [
        {"id": 0, "type": "", "number": "singular", "gender": "", "person": "", "animacy": "thing", "mention": [
            {"id": 0, "sent_id": 0, "start_eid": 0, "end_eid": 0, "ne_id": -1, "text": "이것은", "start_eid_short": 0, "end_eid_short": 0, "text_short": "이것은"}, 
            {"id": 1, "sent_id": 0, "start_eid": 1, "end_eid": 10, "ne_id": -1, "text": "16세기 종교 개혁으로 로마 가톨릭에서 분리되어 나온 신교도를 총칭하는 용어다.", "start_eid_short": 10, "end_eid_short": 10, "text_short": "용어다."}, 
            {"id": 7, "sent_id": 1, "start_eid": 0, "end_eid": 2, "ne_id": -1, "text": "항의하는 사람들이라는 의미를", "start_eid_short": 2, "end_eid_short": 2, "text_short": "의미를"}, 
            {"id": 8, "sent_id": 1, "start_eid": 5, "end_eid": 6, "ne_id": -1, "text": "이 단어는", "start_eid_short": 5, "end_eid_short": 6, "text_short": "이 단어는"}, 
            {"id": 9, "sent_id": 1, "start_eid": 7, "end_eid": 7, "ne_id": -1, "text": "무엇일까?", "start_eid_short": 7, "end_eid_short": 7, "text_short": "무엇일까?"}
        ]}, 
        {"id": 1, "type": "OGG_RELIGION", "number": "singular", "gender": "", "person": "", "animacy": "thing", "mention": [
            {"id": 2, "sent_id": 0, "start_eid": 1, "end_eid": 8, "ne_id": 2, "text": "16세기 종교 개혁으로 로마 가톨릭에서 분리되어 나온 신교도를", "start_eid_short": 8, "end_eid_short": 8, "text_short": "신교도를"}, 
            {"id": 6, "sent_id": 0, "start_eid": 4, "end_eid": 5, "ne_id": 1, "text": "로마 가톨릭에서", "start_eid_short": 4, "end_eid_short": 5, "text_short": "로마 가톨릭에서"}
        ]}, 
        {"id": 2, "type": "", "number": "singular", "gender": "", "person": "", "animacy": "thing", "mention": [
            {"id": 4, "sent_id": 0, "start_eid": 1, "end_eid": 2, "ne_id": -1, "text": "16세기 종교", "start_eid_short": 1, "end_eid_short": 2, "text_short": "16세기 종교"}
        ]}, 
        {"id": 3, "type": "DT_OTHERS", "number": "singular", "gender": "", "person": "", "animacy": "time", "mention": [
            {"id": 5, "sent_id": 0, "start_eid": 1, "end_eid": 1, "ne_id": 0, "text": "16세기", "start_eid_short": 1, "end_eid_short": 1, "text_short": "16세기"}
        ]}, 
        {"id": 4, "type": "", "number": "singular", "gender": "", "person": "", "animacy": "thing", "mention": [
            {"id": 3, "sent_id": 0, "start_eid": 1, "end_eid": 3, "ne_id": -1, "text": "16세기 종교 개혁으로", "start_eid_short": 1, "end_eid_short": 3, "text_short": "16세기 종교 개혁으로"}
        ]}
    ]
}