{
    "doc_id": "E2016.788.18_A_02.json", 
    "DCT": "", 
    "category": "", 
    "category_weight": 0, 
    "title": {
        "text": "순망치한", 
        "NE": ""
    }, 
    "metaInfo": {}, 
    "sentence": [
        {
            "id": 0, 
            "reserve_str": "", 
            "text": "입술이 없으면 이가 시리다는 말로 서로 떨어질 수 없는 밀접한 관계라는 뜻.", 
            "morp": [
                {"id": 0, "lemma": "입술", "type": "NNG", "position": 0, "weight": 0.9}, 
                {"id": 1, "lemma": "이", "type": "JKS", "position": 6, "weight": 0.0360723}, 
                {"id": 2, "lemma": "없", "type": "VA", "position": 10, "weight": 0.249359}, 
                {"id": 3, "lemma": "으면", "type": "EC", "position": 13, "weight": 0.318116}, 
                {"id": 4, "lemma": "이", "type": "NNG", "position": 20, "weight": 0.000229373}, 
                {"id": 5, "lemma": "가", "type": "JKS", "position": 23, "weight": 0.066324}, 
                {"id": 6, "lemma": "시리", "type": "VA", "position": 27, "weight": 0.247111}, 
                {"id": 7, "lemma": "다는", "type": "ETM", "position": 33, "weight": 0.449331}, 
                {"id": 8, "lemma": "말", "type": "NNG", "position": 40, "weight": 0.528926}, 
                {"id": 9, "lemma": "로", "type": "JKB", "position": 43, "weight": 0.153229}, 
                {"id": 10, "lemma": "서로", "type": "MAG", "position": 47, "weight": 0.0476484}, 
                {"id": 11, "lemma": "떨어지", "type": "VV", "position": 54, "weight": 0.9}, 
                {"id": 12, "lemma": "ㄹ", "type": "ETM", "position": 60, "weight": 0.300746}, 
                {"id": 13, "lemma": "수", "type": "NNB", "position": 64, "weight": 0.215617}, 
                {"id": 14, "lemma": "없", "type": "VA", "position": 68, "weight": 0.101269}, 
                {"id": 15, "lemma": "는", "type": "ETM", "position": 71, "weight": 0.26168}, 
                {"id": 16, "lemma": "밀접", "type": "NNG", "position": 75, "weight": 0.45}, 
                {"id": 17, "lemma": "하", "type": "XSA", "position": 81, "weight": 0.0001}, 
                {"id": 18, "lemma": "ㄴ", "type": "ETM", "position": 81, "weight": 0.488779}, 
                {"id": 19, "lemma": "관계", "type": "NNG", "position": 85, "weight": 0.9}, 
                {"id": 20, "lemma": "이", "type": "VCP", "position": 88, "weight": 0.0177525}, 
                {"id": 21, "lemma": "라는", "type": "ETM", "position": 91, "weight": 0.230361}, 
                {"id": 22, "lemma": "뜻", "type": "NNG", "position": 98, "weight": 0.9}, 
                {"id": 23, "lemma": ".", "type": "SF", "position": 101, "weight": 1}
            ], 
            "morp_eval": [], 
            "WSD": [
                {"id": 0, "text": "입술", "type": "NNG", "scode": "000001", "weight": 0.5, "position": 0, "begin": 0, "end": 0}, 
                {"id": 1, "text": "이", "type": "JKS", "scode": "000000", "weight": 1, "position": 6, "begin": 1, "end": 1}, 
                {"id": 2, "text": "없", "type": "VA", "scode": "010301", "weight": 0.0588235, "position": 10, "begin": 2, "end": 2}, 
                {"id": 3, "text": "으면", "type": "EC", "scode": "000000", "weight": 1, "position": 13, "begin": 3, "end": 3}, 
                {"id": 4, "text": "이", "type": "NNG", "scode": "030001", "weight": 0.0172414, "position": 20, "begin": 4, "end": 4}, 
                {"id": 5, "text": "가", "type": "JKS", "scode": "000000", "weight": 1, "position": 23, "begin": 5, "end": 5}, 
                {"id": 6, "text": "시리", "type": "VA", "scode": "010002", "weight": 0.25, "position": 27, "begin": 6, "end": 6}, 
                {"id": 7, "text": "다는", "type": "ETM", "scode": "000000", "weight": 1, "position": 33, "begin": 7, "end": 7}, 
                {"id": 8, "text": "말", "type": "NNG", "scode": "010004", "weight": 0.0384615, "position": 40, "begin": 8, "end": 8}, 
                {"id": 9, "text": "로", "type": "JKB", "scode": "000000", "weight": 1, "position": 43, "begin": 9, "end": 9}, 
                {"id": 10, "text": "서로", "type": "MAG", "scode": "010000", "weight": 0.2, "position": 47, "begin": 10, "end": 10}, 
                {"id": 11, "text": "떨어지", "type": "VV", "scode": "000501", "weight": 0.0333333, "position": 54, "begin": 11, "end": 11}, 
                {"id": 12, "text": "ㄹ", "type": "ETM", "scode": "000000", "weight": 1, "position": 60, "begin": 12, "end": 12}, 
                {"id": 13, "text": "수", "type": "NNB", "scode": "020100", "weight": 0.02, "position": 64, "begin": 13, "end": 13}, 
                {"id": 14, "text": "없", "type": "VA", "scode": "010102", "weight": 0.0588235, "position": 68, "begin": 14, "end": 14}, 
                {"id": 15, "text": "는", "type": "ETM", "scode": "000000", "weight": 1, "position": 71, "begin": 15, "end": 15}, 
                {"id": 16, "text": "밀접하", "type": "VA", "scode": "000000", "weight": 1, "position": 75, "begin": 16, "end": 17}, 
                {"id": 17, "text": "ㄴ", "type": "ETM", "scode": "000000", "weight": 1, "position": 81, "begin": 18, "end": 18}, 
                {"id": 18, "text": "관계", "type": "NNG", "scode": "050001", "weight": 0.1, "position": 85, "begin": 19, "end": 19}, 
                {"id": 19, "text": "이", "type": "VCP", "scode": "030000", "weight": 0.0172414, "position": 88, "begin": 20, "end": 20}, 
                {"id": 20, "text": "라는", "type": "ETM", "scode": "000000", "weight": 1, "position": 91, "begin": 21, "end": 21}, 
                {"id": 21, "text": "뜻", "type": "NNG", "scode": "000002", "weight": 0.333333, "position": 98, "begin": 22, "end": 22}, 
                {"id": 22, "text": ".", "type": "SF", "scode": "000000", "weight": 1, "position": 101, "begin": 23, "end": 23}
            ], 
            "word": [
                {"id": 0, "text": "입술이", "type": "", "begin": 0, "end": 1}, 
                {"id": 1, "text": "없으면", "type": "", "begin": 2, "end": 3}, 
                {"id": 2, "text": "이가", "type": "", "begin": 4, "end": 5}, 
                {"id": 3, "text": "시리다는", "type": "", "begin": 6, "end": 7}, 
                {"id": 4, "text": "말로", "type": "", "begin": 8, "end": 9}, 
                {"id": 5, "text": "서로", "type": "", "begin": 10, "end": 10}, 
                {"id": 6, "text": "떨어질", "type": "", "begin": 11, "end": 12}, 
                {"id": 7, "text": "수", "type": "", "begin": 13, "end": 13}, 
                {"id": 8, "text": "없는", "type": "", "begin": 14, "end": 15}, 
                {"id": 9, "text": "밀접한", "type": "", "begin": 16, "end": 18}, 
                {"id": 10, "text": "관계라는", "type": "", "begin": 19, "end": 21}, 
                {"id": 11, "text": "뜻.", "type": "", "begin": 22, "end": 23}
            ], 
            "NE": [
                {"id": 0, "text": "입술", "type": "AM_PART", "begin": 0, "end": 0, "weight": 0.533929, "common_noun": 0}, 
                {"id": 1, "text": "이", "type": "AM_PART", "begin": 4, "end": 4, "weight": 0.533929, "common_noun": 0}
            ], 
            "chunk": [], 
            "dependency": [
                {"id": 0, "text": "입술이", "head": 1, "label": "NP_SBJ", "mod": [], "weight": 0.677115}, 
                {"id": 1, "text": "없으면", "head": 3, "label": "VP", "mod": [0], "weight": 0.0588293}, 
                {"id": 2, "text": "이가", "head": 3, "label": "NP_SBJ", "mod": [], "weight": 0.511926}, 
                {"id": 3, "text": "시리다는", "head": 4, "label": "VP_MOD", "mod": [1, 2], "weight": 0.702645}, 
                {"id": 4, "text": "말로", "head": 11, "label": "NP_AJT", "mod": [3], "weight": 0.00244558}, 
                {"id": 5, "text": "서로", "head": 6, "label": "AP", "mod": [], "weight": 0.809645}, 
                {"id": 6, "text": "떨어질", "head": 7, "label": "VP_MOD", "mod": [5], "weight": 0.797916}, 
                {"id": 7, "text": "수", "head": 8, "label": "NP_SBJ", "mod": [6], "weight": 0.800782}, 
                {"id": 8, "text": "없는", "head": 10, "label": "VP_MOD", "mod": [7], "weight": 0.556017}, 
                {"id": 9, "text": "밀접한", "head": 10, "label": "VP_MOD", "mod": [], "weight": 0.726282}, 
                {"id": 10, "text": "관계라는", "head": 11, "label": "VNP_MOD", "mod": [8, 9], "weight": 0.694333}, 
                {"id": 11, "text": "뜻.", "head": -1, "label": "NP", "mod": [10, 4], "weight": 4.08416e-06}
            ], 
            "SRL": [
                {"verb": "없", "sense": 1, "word_id": 1, "weight": 0.199175, "argument": [
                    {"type": "ARG1", "word_id": 0, "text": "입술이", "weight": 0.199175}
                ]}, 
                {"verb": "시리", "sense": 1, "word_id": 3, "weight": 0.238664, "argument": [
                    {"type": "ARG1", "word_id": 2, "text": "이가", "weight": 0.238664}, 
                    {"type": "ARGM-CND", "word_id": 1, "text": "없으면", "weight": 1}
                ]}, 
                {"verb": "떨어지", "sense": 3, "word_id": 6, "weight": 0.197222, "argument": [
                    {"type": "ARGM-NEG", "word_id": 8, "text": "없는", "weight": 0.353103}, 
                    {"type": "ARG1", "word_id": 10, "text": "관계라는", "weight": 0.171068}
                ]}, 
                {"verb": "밀접", "sense": 1, "word_id": 9, "weight": 0.337847, "argument": [
                    {"type": "ARG1", "word_id": 10, "text": "관계라는", "weight": 0.337847}
                ]}
            ], 
            "relation": [], 
            "SA": [], 
            "ZA": []
        }
    ], 
    "entity": [
        {"id": 0, "type": "AM_PART", "number": "singular", "gender": "", "person": "", "animacy": "animal", "mention": [
            {"id": 1, "sent_id": 0, "start_eid": 0, "end_eid": 0, "ne_id": 0, "text": "입술이", "start_eid_short": 0, "end_eid_short": 0, "text_short": "입술이"}
        ]}, 
        {"id": 1, "type": "", "number": "singular", "gender": "", "person": "", "animacy": "thing", "mention": [
            {"id": 2, "sent_id": 0, "start_eid": 2, "end_eid": 2, "ne_id": -1, "text": "이가", "start_eid_short": 2, "end_eid_short": 2, "text_short": "이가"}
        ]}, 
        {"id": 2, "type": "", "number": "singular", "gender": "", "person": "", "animacy": "thing", "mention": [
            {"id": 4, "sent_id": 0, "start_eid": 5, "end_eid": 10, "ne_id": -1, "text": "서로 떨어질 수 없는 밀접한 관계라는", "start_eid_short": 10, "end_eid_short": 10, "text_short": "관계라는"}
        ]}, 
        {"id": 3, "type": "", "number": "singular", "gender": "", "person": "", "animacy": "thing", "mention": [
            {"id": 0, "sent_id": 0, "start_eid": 0, "end_eid": 4, "ne_id": -1, "text": "입술이 없으면 이가 시리다는 말로", "start_eid_short": 4, "end_eid_short": 4, "text_short": "말로"}, 
            {"id": 3, "sent_id": 0, "start_eid": 5, "end_eid": 11, "ne_id": -1, "text": "서로 떨어질 수 없는 밀접한 관계라는 뜻.", "start_eid_short": 11, "end_eid_short": 11, "text_short": "뜻."}
        ]}, 
        {"id": 4, "type": "", "number": "singular", "gender": "", "person": "", "animacy": "thing", "mention": [
            {"id": 5, "sent_id": 0, "start_eid": 5, "end_eid": 5, "ne_id": -1, "text": "서로", "start_eid_short": 5, "end_eid_short": 5, "text_short": "서로"}
        ]}
    ]
}