{"doc_id" : "",
 "DCT" : "",
 "category" : "",
 "category_weight" : 0,
 "title" : {"text" : "부탄", "NE" : ""},
 "metaInfo" : { },
 "sentence" : [
	{
	"id" : 0,
	"reserve_str" : "",
	"text" : "부탄(종카어: འབྲུག་ཡུལ 드루크 율 → 용의 나라)은 인도와 중화인민공화국 사이의 히말라야 산맥에 있는 남아시아의 나라이다.",
	"morp" : [
	],
	"morp_eval" : [
	],
	"WSD" : [
	],
	"word" : [
		{"id" : 0, "text" : "부탄(종카어:", "type" : "", "begin" : 0, "end" : 4},
		{"id" : 1, "text" : "འབྲུག་ཡུལ", "type" : "", "begin" : 5, "end" : 5},
		{"id" : 2, "text" : "드루크", "type" : "", "begin" : 6, "end" : 6},
		{"id" : 3, "text" : "율", "type" : "", "begin" : 7, "end" : 7},
		{"id" : 4, "text" : "→", "type" : "", "begin" : 8, "end" : 8},
		{"id" : 5, "text" : "용의", "type" : "", "begin" : 9, "end" : 10},
		{"id" : 6, "text" : "나라)은", "type" : "", "begin" : 11, "end" : 13},
		{"id" : 7, "text" : "인도와", "type" : "", "begin" : 14, "end" : 15},
		{"id" : 8, "text" : "중화인민공화국", "type" : "", "begin" : 16, "end" : 18},
		{"id" : 9, "text" : "사이의", "type" : "", "begin" : 19, "end" : 20},
		{"id" : 10, "text" : "히말라야", "type" : "", "begin" : 21, "end" : 21},
		{"id" : 11, "text" : "산맥에", "type" : "", "begin" : 22, "end" : 23},
		{"id" : 12, "text" : "있는", "type" : "", "begin" : 24, "end" : 25},
		{"id" : 13, "text" : "남아시아의", "type" : "", "begin" : 26, "end" : 28},
		{"id" : 14, "text" : "나라이다.", "type" : "", "begin" : 29, "end" : 32}
	],
	"NE" : [
	],
	"chunk" : [
	],
	"dependency" : [
		{"id" : 0, "text" : "부탄(종카어:", "head" : 1, "label" : "NP", "mod" : [], "weight" : 0.78183 },
		{"id" : 1, "text" : "འབྲུག་ཡུལ", "head" : 3, "label" : "NP", "mod" : [0], "weight" : 0.646165 },
		{"id" : 2, "text" : "드루크", "head" : 3, "label" : "NP", "mod" : [], "weight" : 0.56576 },
		{"id" : 3, "text" : "율", "head" : 4, "label" : "NP", "mod" : [1, 2], "weight" : 0.634565 },
		{"id" : 4, "text" : "→", "head" : 6, "label" : "NP", "mod" : [3], "weight" : 0.986712 },
		{"id" : 5, "text" : "용의", "head" : 6, "label" : "NP_MOD", "mod" : [], "weight" : 0.760368 },
		{"id" : 6, "text" : "나라)은", "head" : 14, "label" : "NP_SBJ", "mod" : [4, 5], "weight" : 0.670682 },
		{"id" : 7, "text" : "인도와", "head" : 8, "label" : "NP_CNJ", "mod" : [], "weight" : 0.694315 },
		{"id" : 8, "text" : "중화인민공화국", "head" : 9, "label" : "NP", "mod" : [7], "weight" : 0.717482 },
		{"id" : 9, "text" : "사이의", "head" : 11, "label" : "NP_MOD", "mod" : [8], "weight" : 0.662727 },
		{"id" : 10, "text" : "히말라야", "head" : 11, "label" : "NP", "mod" : [], "weight" : 0.96706 },
		{"id" : 11, "text" : "산맥에", "head" : 12, "label" : "NP_AJT", "mod" : [9, 10], "weight" : 0.583385 },
		{"id" : 12, "text" : "있는", "head" : 14, "label" : "VP_MOD", "mod" : [11], "weight" : 0.70357 },
		{"id" : 13, "text" : "남아시아의", "head" : 14, "label" : "NP_MOD", "mod" : [], "weight" : 0.527709 },
		{"id" : 14, "text" : "나라이다.", "head" : -1, "label" : "VNP", "mod" : [6, 12, 13], "weight" : 0.459938 }
	],
	"phrase_dependency" : [
	],
	"SRL" : [
	],
	"relation" : [
	],
	"SA" : [
	],
	"ZA" : [
	]
	}
 ],
 "entity" : [
 ]
}

