{"doc_id" : "",
 "DCT" : "",
 "category" : "",
 "category_weight" : 0,
 "title" : {"text" : "출사표", "NE" : ""},
 "metaInfo" : { },
 "sentence" : [
	{
	"id" : 0,
	"reserve_str" : "",
	"text" : "중국 삼국시대 촉(蜀)나라의 재상 제갈공명(諸葛孔明)이 위나라를 토벌하러 떠날 때 임금에게 올린 글을 말한다.",
	"morp" : [
	],
	"morp_eval" : [
	],
	"WSD" : [
	],
	"word" : [
		{"id" : 0, "text" : "중국", "type" : "", "begin" : 0, "end" : 0},
		{"id" : 1, "text" : "삼국시대", "type" : "", "begin" : 1, "end" : 2},
		{"id" : 2, "text" : "촉(蜀)나라의", "type" : "", "begin" : 3, "end" : 8},
		{"id" : 3, "text" : "재상", "type" : "", "begin" : 9, "end" : 9},
		{"id" : 4, "text" : "제갈공명(諸葛孔明)이", "type" : "", "begin" : 10, "end" : 14},
		{"id" : 5, "text" : "위나라를", "type" : "", "begin" : 15, "end" : 17},
		{"id" : 6, "text" : "토벌하러", "type" : "", "begin" : 18, "end" : 20},
		{"id" : 7, "text" : "떠날", "type" : "", "begin" : 21, "end" : 22},
		{"id" : 8, "text" : "때", "type" : "", "begin" : 23, "end" : 23},
		{"id" : 9, "text" : "임금에게", "type" : "", "begin" : 24, "end" : 25},
		{"id" : 10, "text" : "올린", "type" : "", "begin" : 26, "end" : 27},
		{"id" : 11, "text" : "글을", "type" : "", "begin" : 28, "end" : 29},
		{"id" : 12, "text" : "말한다.", "type" : "", "begin" : 30, "end" : 33}
	],
	"NE" : [
	],
	"chunk" : [
	],
	"dependency" : [
		{"id" : 0, "text" : "중국", "head" : 1, "label" : "NP", "mod" : [], "weight" : 0.693039 },
		{"id" : 1, "text" : "삼국시대", "head" : 2, "label" : "NP", "mod" : [0], "weight" : 0.609495 },
		{"id" : 2, "text" : "촉(蜀)나라의", "head" : 3, "label" : "NP_MOD", "mod" : [1], "weight" : 0.643242 },
		{"id" : 3, "text" : "재상", "head" : 4, "label" : "NP", "mod" : [2], "weight" : 0.871563 },
		{"id" : 4, "text" : "제갈공명(諸葛孔明)이", "head" : 6, "label" : "NP_SBJ", "mod" : [3], "weight" : 0.644345 },
		{"id" : 5, "text" : "위나라를", "head" : 6, "label" : "NP_OBJ", "mod" : [], "weight" : 0.886732 },
		{"id" : 6, "text" : "토벌하러", "head" : 7, "label" : "VP", "mod" : [4, 5], "weight" : 0.672112 },
		{"id" : 7, "text" : "떠날", "head" : 8, "label" : "VP_MOD", "mod" : [6], "weight" : 0.709512 },
		{"id" : 8, "text" : "때", "head" : 10, "label" : "NP_AJT", "mod" : [7], "weight" : 0.628553 },
		{"id" : 9, "text" : "임금에게", "head" : 10, "label" : "NP_AJT", "mod" : [], "weight" : 0.681217 },
		{"id" : 10, "text" : "올린", "head" : 11, "label" : "VP_MOD", "mod" : [8, 9], "weight" : 0.961943 },
		{"id" : 11, "text" : "글을", "head" : 12, "label" : "NP_OBJ", "mod" : [10], "weight" : 0.574805 },
		{"id" : 12, "text" : "말한다.", "head" : -1, "label" : "VP", "mod" : [11], "weight" : 0.122088 }
	],
	"phrase_dependency" : [
	],
	"SRL" : [
	],
	"relation" : [
	],
	"SA" : [
	],
	"ZA" : [
	]
	}
 ],
 "entity" : [
 ]
}

