{"doc_id" : "",
 "DCT" : "",
 "category" : "",
 "category_weight" : 0,
 "title" : {"text" : "Q13", "NE" : ""},
 "metaInfo" : { },
 "sentence" : [
	{
	"id" : 0,
	"reserve_str" : "",
	"text" : "우리나라 국회의 기능이 아닌 것은 무엇일까?",
	"morp" : [
	],
	"morp_eval" : [
	],
	"WSD" : [
	],
	"word" : [
		{"id" : 0, "text" : "우리나라", "type" : "", "begin" : 0, "end" : 0},
		{"id" : 1, "text" : "국회의", "type" : "", "begin" : 1, "end" : 2},
		{"id" : 2, "text" : "기능이", "type" : "", "begin" : 3, "end" : 4},
		{"id" : 3, "text" : "아닌", "type" : "", "begin" : 5, "end" : 6},
		{"id" : 4, "text" : "것은", "type" : "", "begin" : 7, "end" : 8},
		{"id" : 5, "text" : "무엇일까?", "type" : "", "begin" : 9, "end" : 12}
	],
	"NE" : [
	],
	"chunk" : [
	],
	"dependency" : [
		{"id" : 0, "text" : "우리나라", "head" : 1, "label" : "NP", "mod" : [], "weight" : 0.735233 },
		{"id" : 1, "text" : "국회의", "head" : 2, "label" : "NP_MOD", "mod" : [0], "weight" : 0.896641 },
		{"id" : 2, "text" : "기능이", "head" : 3, "label" : "NP_CMP", "mod" : [1], "weight" : 0.826429 },
		{"id" : 3, "text" : "아닌", "head" : 4, "label" : "VP_MOD", "mod" : [2], "weight" : 0.910608 },
		{"id" : 4, "text" : "것은", "head" : 5, "label" : "NP_SBJ", "mod" : [3], "weight" : 0.700498 },
		{"id" : 5, "text" : "무엇일까?", "head" : -1, "label" : "VNP", "mod" : [4], "weight" : 0.221716 }
	],
	"phrase_dependency" : [
	],
	"SRL" : [
	],
	"relation" : [
	],
	"SA" : [
	],
	"ZA" : [
	]
	}
 ],
 "entity" : [
 ]
}

