{"doc_id" : "",
 "DCT" : "",
 "category" : "",
 "category_weight" : 0,
 "title" : {"text" : "원숭이", "NE" : ""},
 "metaInfo" : { },
 "sentence" : [
	{
	"id" : 0,
	"reserve_str" : "",
	"text" : "옛말로는 납 또는 잔나비라고도 불렀으며, 오늘날에도 잔나비띠와 같이 일부 쓰인다.",
	"morp" : [
	],
	"morp_eval" : [
	],
	"WSD" : [
	],
	"word" : [
		{"id" : 0, "text" : "옛말로는", "type" : "", "begin" : 0, "end" : 2},
		{"id" : 1, "text" : "납", "type" : "", "begin" : 3, "end" : 3},
		{"id" : 2, "text" : "또는", "type" : "", "begin" : 4, "end" : 4},
		{"id" : 3, "text" : "잔나비라고도", "type" : "", "begin" : 5, "end" : 9},
		{"id" : 4, "text" : "불렀으며,", "type" : "", "begin" : 10, "end" : 13},
		{"id" : 5, "text" : "오늘날에도", "type" : "", "begin" : 14, "end" : 16},
		{"id" : 6, "text" : "잔나비띠와", "type" : "", "begin" : 17, "end" : 19},
		{"id" : 7, "text" : "같이", "type" : "", "begin" : 20, "end" : 20},
		{"id" : 8, "text" : "일부", "type" : "", "begin" : 21, "end" : 21},
		{"id" : 9, "text" : "쓰인다.", "type" : "", "begin" : 22, "end" : 24}
	],
	"NE" : [
	],
	"chunk" : [
	],
	"dependency" : [
		{"id" : 0, "text" : "옛말로는", "head" : 3, "label" : "NP_AJT", "mod" : [], "weight" : 0.667864 },
		{"id" : 1, "text" : "납", "head" : 3, "label" : "NP_CNJ", "mod" : [], "weight" : 0.667029 },
		{"id" : 2, "text" : "또는", "head" : 3, "label" : "AP", "mod" : [], "weight" : 0.821128 },
		{"id" : 3, "text" : "잔나비라고도", "head" : 4, "label" : "VNP_CMP", "mod" : [0, 1, 2], "weight" : 0.476852 },
		{"id" : 4, "text" : "불렀으며,", "head" : 9, "label" : "VP", "mod" : [3], "weight" : 0.669477 },
		{"id" : 5, "text" : "오늘날에도", "head" : 9, "label" : "NP_AJT", "mod" : [], "weight" : 0.655937 },
		{"id" : 6, "text" : "잔나비띠와", "head" : 7, "label" : "NP_AJT", "mod" : [], "weight" : 0.72704 },
		{"id" : 7, "text" : "같이", "head" : 9, "label" : "AP", "mod" : [6], "weight" : 0.672782 },
		{"id" : 8, "text" : "일부", "head" : 9, "label" : "AP", "mod" : [], "weight" : 0.24731 },
		{"id" : 9, "text" : "쓰인다.", "head" : -1, "label" : "VP", "mod" : [4, 5, 7, 8], "weight" : 0.638222 }
	],
	"phrase_dependency" : [
	],
	"SRL" : [
	],
	"relation" : [
	],
	"SA" : [
	],
	"ZA" : [
	]
	}
 ],
 "entity" : [
 ]
}

