{"doc_id" : "",
 "DCT" : "",
 "category" : "",
 "category_weight" : 0,
 "title" : {"text" : "최익현", "NE" : ""},
 "metaInfo" : { },
 "sentence" : [
	{
	"id" : 0,
	"reserve_str" : "",
	"text" : "1905년 을사조약이 체결되자 곧바로 ＜청토오적소 請討五賊疏＞와 재소를 올려서 조약의 무효를 국내외에 선포하고 망국조약에 참여한 박제순(朴齊純) 등 오적을 처단할 것을 주장하였다.",
	"morp" : [
	],
	"morp_eval" : [
	],
	"WSD" : [
	],
	"word" : [
		{"id" : 0, "text" : "1905년", "type" : "", "begin" : 0, "end" : 1},
		{"id" : 1, "text" : "을사조약이", "type" : "", "begin" : 2, "end" : 4},
		{"id" : 2, "text" : "체결되자", "type" : "", "begin" : 5, "end" : 7},
		{"id" : 3, "text" : "곧바로", "type" : "", "begin" : 8, "end" : 8},
		{"id" : 4, "text" : "＜청토오적소", "type" : "", "begin" : 9, "end" : 9},
		{"id" : 5, "text" : "請討五賊疏＞와", "type" : "", "begin" : 10, "end" : 11},
		{"id" : 6, "text" : "재소를", "type" : "", "begin" : 12, "end" : 13},
		{"id" : 7, "text" : "올려서", "type" : "", "begin" : 14, "end" : 15},
		{"id" : 8, "text" : "조약의", "type" : "", "begin" : 16, "end" : 17},
		{"id" : 9, "text" : "무효를", "type" : "", "begin" : 18, "end" : 19},
		{"id" : 10, "text" : "국내외에", "type" : "", "begin" : 20, "end" : 22},
		{"id" : 11, "text" : "선포하고", "type" : "", "begin" : 23, "end" : 25},
		{"id" : 12, "text" : "망국조약에", "type" : "", "begin" : 26, "end" : 28},
		{"id" : 13, "text" : "참여한", "type" : "", "begin" : 29, "end" : 31},
		{"id" : 14, "text" : "박제순(朴齊純)", "type" : "", "begin" : 32, "end" : 35},
		{"id" : 15, "text" : "등", "type" : "", "begin" : 36, "end" : 36},
		{"id" : 16, "text" : "오적을", "type" : "", "begin" : 37, "end" : 38},
		{"id" : 17, "text" : "처단할", "type" : "", "begin" : 39, "end" : 41},
		{"id" : 18, "text" : "것을", "type" : "", "begin" : 42, "end" : 43},
		{"id" : 19, "text" : "주장하였다.", "type" : "", "begin" : 44, "end" : 48}
	],
	"NE" : [
	],
	"chunk" : [
	],
	"dependency" : [
		{"id" : 0, "text" : "1905년", "head" : 2, "label" : "NP_AJT", "mod" : [], "weight" : 0.800737 },
		{"id" : 1, "text" : "을사조약이", "head" : 2, "label" : "NP_SBJ", "mod" : [], "weight" : 0.724834 },
		{"id" : 2, "text" : "체결되자", "head" : 7, "label" : "VP", "mod" : [0, 1], "weight" : 0.966484 },
		{"id" : 3, "text" : "곧바로", "head" : 7, "label" : "AP", "mod" : [], "weight" : 0.987614 },
		{"id" : 4, "text" : "＜청토오적소", "head" : 5, "label" : "NP", "mod" : [], "weight" : 0.551633 },
		{"id" : 5, "text" : "請討五賊疏＞와", "head" : 6, "label" : "NP_CNJ", "mod" : [4], "weight" : 0.70905 },
		{"id" : 6, "text" : "재소를", "head" : 7, "label" : "NP_OBJ", "mod" : [5], "weight" : 0.803149 },
		{"id" : 7, "text" : "올려서", "head" : 11, "label" : "VP", "mod" : [2, 3, 6], "weight" : 0.855777 },
		{"id" : 8, "text" : "조약의", "head" : 9, "label" : "NP_MOD", "mod" : [], "weight" : 0.971614 },
		{"id" : 9, "text" : "무효를", "head" : 11, "label" : "NP_OBJ", "mod" : [8], "weight" : 0.841416 },
		{"id" : 10, "text" : "국내외에", "head" : 11, "label" : "NP_AJT", "mod" : [], "weight" : 0.879609 },
		{"id" : 11, "text" : "선포하고", "head" : 19, "label" : "VP", "mod" : [7, 9, 10], "weight" : 0.589489 },
		{"id" : 12, "text" : "망국조약에", "head" : 13, "label" : "NP_AJT", "mod" : [], "weight" : 0.870058 },
		{"id" : 13, "text" : "참여한", "head" : 14, "label" : "VP_MOD", "mod" : [12], "weight" : 0.637972 },
		{"id" : 14, "text" : "박제순(朴齊純)", "head" : 15, "label" : "NP", "mod" : [13], "weight" : 0.80564 },
		{"id" : 15, "text" : "등", "head" : 16, "label" : "NP", "mod" : [14], "weight" : 0.554271 },
		{"id" : 16, "text" : "오적을", "head" : 17, "label" : "NP_OBJ", "mod" : [15], "weight" : 0.863843 },
		{"id" : 17, "text" : "처단할", "head" : 18, "label" : "VP_MOD", "mod" : [16], "weight" : 0.923824 },
		{"id" : 18, "text" : "것을", "head" : 19, "label" : "NP_OBJ", "mod" : [17], "weight" : 0.536877 },
		{"id" : 19, "text" : "주장하였다.", "head" : -1, "label" : "VP", "mod" : [11, 18], "weight" : 0.50292 }
	],
	"phrase_dependency" : [
	],
	"SRL" : [
	],
	"relation" : [
	],
	"SA" : [
	],
	"ZA" : [
	]
	},
	{
	"id" : 1,
	"reserve_str" : "",
	"text" : " 이 사건을 계기로 위정척사운동은 집단적·무력적인 항일의병운동으로 전환하였다.",
	"morp" : [
	],
	"morp_eval" : [
	],
	"WSD" : [
	],
	"word" : [
		{"id" : 0, "text" : "이", "type" : "", "begin" : 0, "end" : 0},
		{"id" : 1, "text" : "사건을", "type" : "", "begin" : 1, "end" : 2},
		{"id" : 2, "text" : "계기로", "type" : "", "begin" : 3, "end" : 4},
		{"id" : 3, "text" : "위정척사운동은", "type" : "", "begin" : 5, "end" : 8},
		{"id" : 4, "text" : "집단적·무력적인", "type" : "", "begin" : 9, "end" : 15},
		{"id" : 5, "text" : "항일의병운동으로", "type" : "", "begin" : 16, "end" : 19},
		{"id" : 6, "text" : "전환하였다.", "type" : "", "begin" : 20, "end" : 24}
	],
	"NE" : [
	],
	"chunk" : [
	],
	"dependency" : [
		{"id" : 0, "text" : "이", "head" : 1, "label" : "DP", "mod" : [], "weight" : 0.894145 },
		{"id" : 1, "text" : "사건을", "head" : 2, "label" : "NP_OBJ", "mod" : [0], "weight" : 0.764518 },
		{"id" : 2, "text" : "계기로", "head" : 6, "label" : "NP_AJT", "mod" : [1], "weight" : 0.683346 },
		{"id" : 3, "text" : "위정척사운동은", "head" : 6, "label" : "NP_SBJ", "mod" : [], "weight" : 0.505663 },
		{"id" : 4, "text" : "집단적·무력적인", "head" : 5, "label" : "VNP_MOD", "mod" : [], "weight" : 0.858677 },
		{"id" : 5, "text" : "항일의병운동으로", "head" : 6, "label" : "NP_AJT", "mod" : [4], "weight" : 0.624021 },
		{"id" : 6, "text" : "전환하였다.", "head" : -1, "label" : "VP", "mod" : [2, 3, 5], "weight" : 0.830311 }
	],
	"phrase_dependency" : [
	],
	"SRL" : [
	],
	"relation" : [
	],
	"SA" : [
	],
	"ZA" : [
	]
	},
	{
	"id" : 2,
	"reserve_str" : "",
	"text" : " 1906년 윤4월 전라북도 태인에서 궐기하였다.",
	"morp" : [
	],
	"morp_eval" : [
	],
	"WSD" : [
	],
	"word" : [
		{"id" : 0, "text" : "1906년", "type" : "", "begin" : 0, "end" : 1},
		{"id" : 1, "text" : "윤4월", "type" : "", "begin" : 2, "end" : 4},
		{"id" : 2, "text" : "전라북도", "type" : "", "begin" : 5, "end" : 6},
		{"id" : 3, "text" : "태인에서", "type" : "", "begin" : 7, "end" : 8},
		{"id" : 4, "text" : "궐기하였다.", "type" : "", "begin" : 9, "end" : 13}
	],
	"NE" : [
	],
	"chunk" : [
	],
	"dependency" : [
		{"id" : 0, "text" : "1906년", "head" : 1, "label" : "NP", "mod" : [], "weight" : 0.470219 },
		{"id" : 1, "text" : "윤4월", "head" : 4, "label" : "NP_AJT", "mod" : [0], "weight" : 0.978734 },
		{"id" : 2, "text" : "전라북도", "head" : 3, "label" : "NP_MOD", "mod" : [], "weight" : 0.491819 },
		{"id" : 3, "text" : "태인에서", "head" : 4, "label" : "NP_AJT", "mod" : [2], "weight" : 0.517728 },
		{"id" : 4, "text" : "궐기하였다.", "head" : -1, "label" : "VP", "mod" : [1, 3], "weight" : 0.78365 }
	],
	"phrase_dependency" : [
	],
	"SRL" : [
	],
	"relation" : [
	],
	"SA" : [
	],
	"ZA" : [
	]
	},
	{
	"id" : 3,
	"reserve_str" : "",
	"text" : " ＜창의토적소 倡義討賊疏＞를 올려 의거의 심정을 피력하고 궐기를 촉구하는 ＜포고팔도사민＞을 돌리고 일본 정부에 대한 문죄서 ＜기일본정부 寄日本政府＞를 발표하였다.",
	"morp" : [
	],
	"morp_eval" : [
	],
	"WSD" : [
	],
	"word" : [
		{"id" : 0, "text" : "＜창의토적소", "type" : "", "begin" : 0, "end" : 2},
		{"id" : 1, "text" : "倡義討賊疏＞를", "type" : "", "begin" : 3, "end" : 5},
		{"id" : 2, "text" : "올려", "type" : "", "begin" : 6, "end" : 7},
		{"id" : 3, "text" : "의거의", "type" : "", "begin" : 8, "end" : 9},
		{"id" : 4, "text" : "심정을", "type" : "", "begin" : 10, "end" : 11},
		{"id" : 5, "text" : "피력하고", "type" : "", "begin" : 12, "end" : 14},
		{"id" : 6, "text" : "궐기를", "type" : "", "begin" : 15, "end" : 16},
		{"id" : 7, "text" : "촉구하는", "type" : "", "begin" : 17, "end" : 19},
		{"id" : 8, "text" : "＜포고팔도사민＞을", "type" : "", "begin" : 20, "end" : 24},
		{"id" : 9, "text" : "돌리고", "type" : "", "begin" : 25, "end" : 26},
		{"id" : 10, "text" : "일본", "type" : "", "begin" : 27, "end" : 27},
		{"id" : 11, "text" : "정부에", "type" : "", "begin" : 28, "end" : 29},
		{"id" : 12, "text" : "대한", "type" : "", "begin" : 30, "end" : 31},
		{"id" : 13, "text" : "문죄서", "type" : "", "begin" : 32, "end" : 33},
		{"id" : 14, "text" : "＜기일본정부", "type" : "", "begin" : 34, "end" : 36},
		{"id" : 15, "text" : "寄日本政府＞를", "type" : "", "begin" : 37, "end" : 39},
		{"id" : 16, "text" : "발표하였다.", "type" : "", "begin" : 40, "end" : 44}
	],
	"NE" : [
	],
	"chunk" : [
	],
	"dependency" : [
		{"id" : 0, "text" : "＜창의토적소", "head" : 1, "label" : "NP", "mod" : [], "weight" : 0.695548 },
		{"id" : 1, "text" : "倡義討賊疏＞를", "head" : 2, "label" : "NP_OBJ", "mod" : [0], "weight" : 0.819277 },
		{"id" : 2, "text" : "올려", "head" : 5, "label" : "VP", "mod" : [1], "weight" : 0.693923 },
		{"id" : 3, "text" : "의거의", "head" : 4, "label" : "NP_MOD", "mod" : [], "weight" : 0.968965 },
		{"id" : 4, "text" : "심정을", "head" : 5, "label" : "NP_OBJ", "mod" : [3], "weight" : 0.771335 },
		{"id" : 5, "text" : "피력하고", "head" : 9, "label" : "VP", "mod" : [2, 4], "weight" : 0.658811 },
		{"id" : 6, "text" : "궐기를", "head" : 7, "label" : "NP_OBJ", "mod" : [], "weight" : 0.870503 },
		{"id" : 7, "text" : "촉구하는", "head" : 8, "label" : "VP_MOD", "mod" : [6], "weight" : 0.842554 },
		{"id" : 8, "text" : "＜포고팔도사민＞을", "head" : 9, "label" : "NP_OBJ", "mod" : [7], "weight" : 0.791334 },
		{"id" : 9, "text" : "돌리고", "head" : 16, "label" : "VP", "mod" : [5, 8], "weight" : 0.668906 },
		{"id" : 10, "text" : "일본", "head" : 11, "label" : "NP", "mod" : [], "weight" : 0.785032 },
		{"id" : 11, "text" : "정부에", "head" : 12, "label" : "NP_AJT", "mod" : [10], "weight" : 0.940099 },
		{"id" : 12, "text" : "대한", "head" : 13, "label" : "VP_MOD", "mod" : [11], "weight" : 0.873563 },
		{"id" : 13, "text" : "문죄서", "head" : 15, "label" : "NP_MOD", "mod" : [12], "weight" : 0.597634 },
		{"id" : 14, "text" : "＜기일본정부", "head" : 15, "label" : "NP", "mod" : [], "weight" : 0.852619 },
		{"id" : 15, "text" : "寄日本政府＞를", "head" : 16, "label" : "NP_OBJ", "mod" : [13, 14], "weight" : 0.530852 },
		{"id" : 16, "text" : "발표하였다.", "head" : -1, "label" : "VP", "mod" : [9, 15], "weight" : 0.940542 }
	],
	"phrase_dependency" : [
	],
	"SRL" : [
	],
	"relation" : [
	],
	"SA" : [
	],
	"ZA" : [
	]
	},
	{
	"id" : 4,
	"reserve_str" : "",
	"text" : " 74세의 고령으로 의병을 일으켜 최후의 진충보국하고자 했으나 뜻을 이루지 못하고 적지 대마도 옥사에서 순국하였다.",
	"morp" : [
	],
	"morp_eval" : [
	],
	"WSD" : [
	],
	"word" : [
		{"id" : 0, "text" : "74세의", "type" : "", "begin" : 0, "end" : 2},
		{"id" : 1, "text" : "고령으로", "type" : "", "begin" : 3, "end" : 4},
		{"id" : 2, "text" : "의병을", "type" : "", "begin" : 5, "end" : 6},
		{"id" : 3, "text" : "일으켜", "type" : "", "begin" : 7, "end" : 8},
		{"id" : 4, "text" : "최후의", "type" : "", "begin" : 9, "end" : 10},
		{"id" : 5, "text" : "진충보국하고자", "type" : "", "begin" : 11, "end" : 14},
		{"id" : 6, "text" : "했으나", "type" : "", "begin" : 15, "end" : 17},
		{"id" : 7, "text" : "뜻을", "type" : "", "begin" : 18, "end" : 19},
		{"id" : 8, "text" : "이루지", "type" : "", "begin" : 20, "end" : 21},
		{"id" : 9, "text" : "못하고", "type" : "", "begin" : 22, "end" : 23},
		{"id" : 10, "text" : "적지", "type" : "", "begin" : 24, "end" : 24},
		{"id" : 11, "text" : "대마도", "type" : "", "begin" : 25, "end" : 26},
		{"id" : 12, "text" : "옥사에서", "type" : "", "begin" : 27, "end" : 28},
		{"id" : 13, "text" : "순국하였다.", "type" : "", "begin" : 29, "end" : 33}
	],
	"NE" : [
	],
	"chunk" : [
	],
	"dependency" : [
		{"id" : 0, "text" : "74세의", "head" : 1, "label" : "NP_MOD", "mod" : [], "weight" : 0.942102 },
		{"id" : 1, "text" : "고령으로", "head" : 3, "label" : "NP_AJT", "mod" : [0], "weight" : 0.923526 },
		{"id" : 2, "text" : "의병을", "head" : 3, "label" : "NP_OBJ", "mod" : [], "weight" : 0.733075 },
		{"id" : 3, "text" : "일으켜", "head" : 5, "label" : "VP", "mod" : [1, 2], "weight" : 0.846965 },
		{"id" : 4, "text" : "최후의", "head" : 5, "label" : "NP_MOD", "mod" : [], "weight" : 0.5891 },
		{"id" : 5, "text" : "진충보국하고자", "head" : 6, "label" : "VP", "mod" : [3, 4], "weight" : 0.43819 },
		{"id" : 6, "text" : "했으나", "head" : 8, "label" : "VP", "mod" : [5], "weight" : 0.921347 },
		{"id" : 7, "text" : "뜻을", "head" : 8, "label" : "NP_OBJ", "mod" : [], "weight" : 0.774597 },
		{"id" : 8, "text" : "이루지", "head" : 9, "label" : "VP", "mod" : [6, 7], "weight" : 0.631846 },
		{"id" : 9, "text" : "못하고", "head" : 13, "label" : "VP", "mod" : [8], "weight" : 0.627514 },
		{"id" : 10, "text" : "적지", "head" : 11, "label" : "NP", "mod" : [], "weight" : 0.917735 },
		{"id" : 11, "text" : "대마도", "head" : 12, "label" : "NP_MOD", "mod" : [10], "weight" : 0.54066 },
		{"id" : 12, "text" : "옥사에서", "head" : 13, "label" : "NP_AJT", "mod" : [11], "weight" : 0.535986 },
		{"id" : 13, "text" : "순국하였다.", "head" : -1, "label" : "VP", "mod" : [9, 12], "weight" : 0.704708 }
	],
	"phrase_dependency" : [
	],
	"SRL" : [
	],
	"relation" : [
	],
	"SA" : [
	],
	"ZA" : [
	]
	}
 ],
 "entity" : [
 ]
}

