{"doc_id" : "",
 "DCT" : "",
 "category" : "",
 "category_weight" : 0,
 "title" : {"text" : "Q17", "NE" : ""},
 "metaInfo" : { },
 "sentence" : [
	{
	"id" : 0,
	"reserve_str" : "",
	"text" : "오장환의 시 <고향 앞에서>는 잔나비 우는 산기슭의 쓸쓸한 정경을 통해 고향에 대한 그리움을 노래했다.",
	"morp" : [
	],
	"morp_eval" : [
	],
	"WSD" : [
	],
	"word" : [
		{"id" : 0, "text" : "오장환의", "type" : "", "begin" : 0, "end" : 1},
		{"id" : 1, "text" : "시", "type" : "", "begin" : 2, "end" : 2},
		{"id" : 2, "text" : "<고향", "type" : "", "begin" : 3, "end" : 4},
		{"id" : 3, "text" : "앞에서>는", "type" : "", "begin" : 5, "end" : 8},
		{"id" : 4, "text" : "잔나비", "type" : "", "begin" : 9, "end" : 10},
		{"id" : 5, "text" : "우는", "type" : "", "begin" : 11, "end" : 12},
		{"id" : 6, "text" : "산기슭의", "type" : "", "begin" : 13, "end" : 15},
		{"id" : 7, "text" : "쓸쓸한", "type" : "", "begin" : 16, "end" : 17},
		{"id" : 8, "text" : "정경을", "type" : "", "begin" : 18, "end" : 19},
		{"id" : 9, "text" : "통해", "type" : "", "begin" : 20, "end" : 21},
		{"id" : 10, "text" : "고향에", "type" : "", "begin" : 22, "end" : 23},
		{"id" : 11, "text" : "대한", "type" : "", "begin" : 24, "end" : 25},
		{"id" : 12, "text" : "그리움을", "type" : "", "begin" : 26, "end" : 27},
		{"id" : 13, "text" : "노래했다.", "type" : "", "begin" : 28, "end" : 32}
	],
	"NE" : [
	],
	"chunk" : [
	],
	"dependency" : [
		{"id" : 0, "text" : "오장환의", "head" : 1, "label" : "NP_MOD", "mod" : [], "weight" : 0.592138 },
		{"id" : 1, "text" : "시", "head" : 3, "label" : "NP", "mod" : [0], "weight" : 0.592927 },
		{"id" : 2, "text" : "<고향", "head" : 3, "label" : "NP", "mod" : [], "weight" : 0.981715 },
		{"id" : 3, "text" : "앞에서>는", "head" : 13, "label" : "NP_SBJ", "mod" : [1, 2], "weight" : 0.801051 },
		{"id" : 4, "text" : "잔나비", "head" : 5, "label" : "NP_SBJ", "mod" : [], "weight" : 0.667453 },
		{"id" : 5, "text" : "우는", "head" : 6, "label" : "VP_MOD", "mod" : [4], "weight" : 0.66853 },
		{"id" : 6, "text" : "산기슭의", "head" : 8, "label" : "NP_MOD", "mod" : [5], "weight" : 0.804309 },
		{"id" : 7, "text" : "쓸쓸한", "head" : 8, "label" : "VP_MOD", "mod" : [], "weight" : 0.898616 },
		{"id" : 8, "text" : "정경을", "head" : 9, "label" : "NP_OBJ", "mod" : [6, 7], "weight" : 0.901297 },
		{"id" : 9, "text" : "통해", "head" : 13, "label" : "VP", "mod" : [8], "weight" : 0.673625 },
		{"id" : 10, "text" : "고향에", "head" : 11, "label" : "NP_AJT", "mod" : [], "weight" : 0.84986 },
		{"id" : 11, "text" : "대한", "head" : 12, "label" : "VP_MOD", "mod" : [10], "weight" : 0.783095 },
		{"id" : 12, "text" : "그리움을", "head" : 13, "label" : "NP_OBJ", "mod" : [11], "weight" : 0.560294 },
		{"id" : 13, "text" : "노래했다.", "head" : -1, "label" : "VP", "mod" : [3, 9, 12], "weight" : 0.157902 }
	],
	"phrase_dependency" : [
	],
	"SRL" : [
	],
	"relation" : [
	],
	"SA" : [
	],
	"ZA" : [
	]
	},
	{
	"id" : 1,
	"reserve_str" : "",
	"text" : " 여기서 '잔나비'는 어떤 동물일까?",
	"morp" : [
	],
	"morp_eval" : [
	],
	"WSD" : [
	],
	"word" : [
		{"id" : 0, "text" : "여기서", "type" : "", "begin" : 0, "end" : 1},
		{"id" : 1, "text" : "'잔나비'는", "type" : "", "begin" : 2, "end" : 6},
		{"id" : 2, "text" : "어떤", "type" : "", "begin" : 7, "end" : 7},
		{"id" : 3, "text" : "동물일까?", "type" : "", "begin" : 8, "end" : 11}
	],
	"NE" : [
	],
	"chunk" : [
	],
	"dependency" : [
		{"id" : 0, "text" : "여기서", "head" : 3, "label" : "NP_AJT", "mod" : [], "weight" : 0.732697 },
		{"id" : 1, "text" : "'잔나비'는", "head" : 3, "label" : "NP_SBJ", "mod" : [], "weight" : 0.63978 },
		{"id" : 2, "text" : "어떤", "head" : 3, "label" : "DP", "mod" : [], "weight" : 0.491544 },
		{"id" : 3, "text" : "동물일까?", "head" : -1, "label" : "VNP", "mod" : [0, 1, 2], "weight" : 0.148342 }
	],
	"phrase_dependency" : [
	],
	"SRL" : [
	],
	"relation" : [
	],
	"SA" : [
	],
	"ZA" : [
	]
	}
 ],
 "entity" : [
 ]
}

