{"doc_id" : "",
 "DCT" : "",
 "category" : "",
 "category_weight" : 0,
 "title" : {"text" : "Q15", "NE" : ""},
 "metaInfo" : { },
 "sentence" : [
	{
	"id" : 0,
	"reserve_str" : "",
	"text" : "얼마 전 미국 연구진은 토성의 위성인 이것의 지하 수십 킬로미터에는 거대한 바다가 존재할 가능성이 있다는 연구를 발표했다.",
	"morp" : [
	],
	"morp_eval" : [
	],
	"WSD" : [
	],
	"word" : [
		{"id" : 0, "text" : "얼마", "type" : "", "begin" : 0, "end" : 0},
		{"id" : 1, "text" : "전", "type" : "", "begin" : 1, "end" : 1},
		{"id" : 2, "text" : "미국", "type" : "", "begin" : 2, "end" : 2},
		{"id" : 3, "text" : "연구진은", "type" : "", "begin" : 3, "end" : 5},
		{"id" : 4, "text" : "토성의", "type" : "", "begin" : 6, "end" : 7},
		{"id" : 5, "text" : "위성인", "type" : "", "begin" : 8, "end" : 10},
		{"id" : 6, "text" : "이것의", "type" : "", "begin" : 11, "end" : 12},
		{"id" : 7, "text" : "지하", "type" : "", "begin" : 13, "end" : 13},
		{"id" : 8, "text" : "수십", "type" : "", "begin" : 14, "end" : 14},
		{"id" : 9, "text" : "킬로미터에는", "type" : "", "begin" : 15, "end" : 17},
		{"id" : 10, "text" : "거대한", "type" : "", "begin" : 18, "end" : 20},
		{"id" : 11, "text" : "바다가", "type" : "", "begin" : 21, "end" : 21},
		{"id" : 12, "text" : "존재할", "type" : "", "begin" : 22, "end" : 24},
		{"id" : 13, "text" : "가능성이", "type" : "", "begin" : 25, "end" : 27},
		{"id" : 14, "text" : "있다는", "type" : "", "begin" : 28, "end" : 29},
		{"id" : 15, "text" : "연구를", "type" : "", "begin" : 30, "end" : 31},
		{"id" : 16, "text" : "발표했다.", "type" : "", "begin" : 32, "end" : 36}
	],
	"NE" : [
	],
	"chunk" : [
	],
	"dependency" : [
		{"id" : 0, "text" : "얼마", "head" : 1, "label" : "NP", "mod" : [], "weight" : 0.754866 },
		{"id" : 1, "text" : "전", "head" : 16, "label" : "NP_AJT", "mod" : [0], "weight" : 0.555517 },
		{"id" : 2, "text" : "미국", "head" : 3, "label" : "NP", "mod" : [], "weight" : 0.943492 },
		{"id" : 3, "text" : "연구진은", "head" : 16, "label" : "NP_SBJ", "mod" : [2], "weight" : 0.702234 },
		{"id" : 4, "text" : "토성의", "head" : 5, "label" : "NP_MOD", "mod" : [], "weight" : 0.646324 },
		{"id" : 5, "text" : "위성인", "head" : 6, "label" : "VNP_MOD", "mod" : [4], "weight" : 0.574899 },
		{"id" : 6, "text" : "이것의", "head" : 7, "label" : "NP_MOD", "mod" : [5], "weight" : 0.610785 },
		{"id" : 7, "text" : "지하", "head" : 9, "label" : "NP", "mod" : [6], "weight" : 0.725587 },
		{"id" : 8, "text" : "수십", "head" : 9, "label" : "NP", "mod" : [], "weight" : 0.770681 },
		{"id" : 9, "text" : "킬로미터에는", "head" : 12, "label" : "NP_AJT", "mod" : [7, 8], "weight" : 0.532909 },
		{"id" : 10, "text" : "거대한", "head" : 11, "label" : "VP_MOD", "mod" : [], "weight" : 0.72529 },
		{"id" : 11, "text" : "바다가", "head" : 12, "label" : "NP_AJT", "mod" : [10], "weight" : 0.772187 },
		{"id" : 12, "text" : "존재할", "head" : 13, "label" : "VP_MOD", "mod" : [9, 11], "weight" : 0.887785 },
		{"id" : 13, "text" : "가능성이", "head" : 14, "label" : "NP_SBJ", "mod" : [12], "weight" : 0.930707 },
		{"id" : 14, "text" : "있다는", "head" : 15, "label" : "VP_MOD", "mod" : [13], "weight" : 0.677476 },
		{"id" : 15, "text" : "연구를", "head" : 16, "label" : "NP_OBJ", "mod" : [14], "weight" : 0.553282 },
		{"id" : 16, "text" : "발표했다.", "head" : -1, "label" : "VP", "mod" : [1, 3, 15], "weight" : 0.262032 }
	],
	"phrase_dependency" : [
	],
	"SRL" : [
	],
	"relation" : [
	],
	"SA" : [
	],
	"ZA" : [
	]
	},
	{
	"id" : 1,
	"reserve_str" : "",
	"text" : " 그리스 신화 속 가이아의 아들 이름을 딴 이것은 무엇일까?",
	"morp" : [
	],
	"morp_eval" : [
	],
	"WSD" : [
	],
	"word" : [
		{"id" : 0, "text" : "그리스", "type" : "", "begin" : 0, "end" : 0},
		{"id" : 1, "text" : "신화", "type" : "", "begin" : 1, "end" : 1},
		{"id" : 2, "text" : "속", "type" : "", "begin" : 2, "end" : 2},
		{"id" : 3, "text" : "가이아의", "type" : "", "begin" : 3, "end" : 4},
		{"id" : 4, "text" : "아들", "type" : "", "begin" : 5, "end" : 5},
		{"id" : 5, "text" : "이름을", "type" : "", "begin" : 6, "end" : 7},
		{"id" : 6, "text" : "딴", "type" : "", "begin" : 8, "end" : 9},
		{"id" : 7, "text" : "이것은", "type" : "", "begin" : 10, "end" : 11},
		{"id" : 8, "text" : "무엇일까?", "type" : "", "begin" : 12, "end" : 15}
	],
	"NE" : [
	],
	"chunk" : [
	],
	"dependency" : [
		{"id" : 0, "text" : "그리스", "head" : 1, "label" : "NP", "mod" : [], "weight" : 0.756205 },
		{"id" : 1, "text" : "신화", "head" : 2, "label" : "NP", "mod" : [0], "weight" : 0.64088 },
		{"id" : 2, "text" : "속", "head" : 4, "label" : "NP", "mod" : [1], "weight" : 0.685494 },
		{"id" : 3, "text" : "가이아의", "head" : 4, "label" : "NP_MOD", "mod" : [], "weight" : 0.774825 },
		{"id" : 4, "text" : "아들", "head" : 5, "label" : "NP", "mod" : [3, 2], "weight" : 0.933908 },
		{"id" : 5, "text" : "이름을", "head" : 6, "label" : "NP_OBJ", "mod" : [4], "weight" : 0.95789 },
		{"id" : 6, "text" : "딴", "head" : 7, "label" : "VP_MOD", "mod" : [5], "weight" : 0.701827 },
		{"id" : 7, "text" : "이것은", "head" : 8, "label" : "NP_SBJ", "mod" : [6], "weight" : 0.6586 },
		{"id" : 8, "text" : "무엇일까?", "head" : -1, "label" : "VNP", "mod" : [7], "weight" : 0.810813 }
	],
	"phrase_dependency" : [
	],
	"SRL" : [
	],
	"relation" : [
	],
	"SA" : [
	],
	"ZA" : [
	]
	}
 ],
 "entity" : [
 ]
}

