{"doc_id" : "",
 "DCT" : "",
 "category" : "",
 "category_weight" : 0,
 "title" : {"text" : "출사표", "NE" : ""},
 "metaInfo" : { },
 "sentence" : [
	{
	"id" : 0,
	"reserve_str" : "",
	"text" : "출병하면서 자신의 뜻을 적어 임금에게 올리는 글.",
	"morp" : [
	],
	"morp_eval" : [
	],
	"WSD" : [
	],
	"word" : [
		{"id" : 0, "text" : "출병하면서", "type" : "", "begin" : 0, "end" : 2},
		{"id" : 1, "text" : "자신의", "type" : "", "begin" : 3, "end" : 4},
		{"id" : 2, "text" : "뜻을", "type" : "", "begin" : 5, "end" : 6},
		{"id" : 3, "text" : "적어", "type" : "", "begin" : 7, "end" : 8},
		{"id" : 4, "text" : "임금에게", "type" : "", "begin" : 9, "end" : 10},
		{"id" : 5, "text" : "올리는", "type" : "", "begin" : 11, "end" : 12},
		{"id" : 6, "text" : "글.", "type" : "", "begin" : 13, "end" : 14}
	],
	"NE" : [
	],
	"chunk" : [
	],
	"dependency" : [
		{"id" : 0, "text" : "출병하면서", "head" : 3, "label" : "VP", "mod" : [], "weight" : 0.505358 },
		{"id" : 1, "text" : "자신의", "head" : 2, "label" : "NP_MOD", "mod" : [], "weight" : 0.896727 },
		{"id" : 2, "text" : "뜻을", "head" : 3, "label" : "NP_OBJ", "mod" : [1], "weight" : 0.862569 },
		{"id" : 3, "text" : "적어", "head" : 5, "label" : "VP", "mod" : [0, 2], "weight" : 0.823305 },
		{"id" : 4, "text" : "임금에게", "head" : 5, "label" : "NP_AJT", "mod" : [], "weight" : 0.968434 },
		{"id" : 5, "text" : "올리는", "head" : 6, "label" : "VP_MOD", "mod" : [3, 4], "weight" : 0.59467 },
		{"id" : 6, "text" : "글.", "head" : -1, "label" : "NP", "mod" : [5], "weight" : 0.104276 }
	],
	"phrase_dependency" : [
	],
	"SRL" : [
	],
	"relation" : [
	],
	"SA" : [
	],
	"ZA" : [
	]
	},
	{
	"id" : 1,
	"reserve_str" : "",
	"text" : " 이 의미가 시간이 흐르면서 확대되어, 주요한 일에 임하면서 심경을 발표하는 것 또는 중요한 일에 임하는 것 자체를 출사표라고 하게 되었습니다.",
	"morp" : [
	],
	"morp_eval" : [
	],
	"WSD" : [
	],
	"word" : [
		{"id" : 0, "text" : "이", "type" : "", "begin" : 0, "end" : 0},
		{"id" : 1, "text" : "의미가", "type" : "", "begin" : 1, "end" : 2},
		{"id" : 2, "text" : "시간이", "type" : "", "begin" : 3, "end" : 4},
		{"id" : 3, "text" : "흐르면서", "type" : "", "begin" : 5, "end" : 6},
		{"id" : 4, "text" : "확대되어,", "type" : "", "begin" : 7, "end" : 10},
		{"id" : 5, "text" : "주요한", "type" : "", "begin" : 11, "end" : 13},
		{"id" : 6, "text" : "일에", "type" : "", "begin" : 14, "end" : 15},
		{"id" : 7, "text" : "임하면서", "type" : "", "begin" : 16, "end" : 17},
		{"id" : 8, "text" : "심경을", "type" : "", "begin" : 18, "end" : 19},
		{"id" : 9, "text" : "발표하는", "type" : "", "begin" : 20, "end" : 22},
		{"id" : 10, "text" : "것", "type" : "", "begin" : 23, "end" : 23},
		{"id" : 11, "text" : "또는", "type" : "", "begin" : 24, "end" : 24},
		{"id" : 12, "text" : "중요한", "type" : "", "begin" : 25, "end" : 27},
		{"id" : 13, "text" : "일에", "type" : "", "begin" : 28, "end" : 29},
		{"id" : 14, "text" : "임하는", "type" : "", "begin" : 30, "end" : 31},
		{"id" : 15, "text" : "것", "type" : "", "begin" : 32, "end" : 32},
		{"id" : 16, "text" : "자체를", "type" : "", "begin" : 33, "end" : 34},
		{"id" : 17, "text" : "출사표라고", "type" : "", "begin" : 35, "end" : 38},
		{"id" : 18, "text" : "하게", "type" : "", "begin" : 39, "end" : 40},
		{"id" : 19, "text" : "되었습니다.", "type" : "", "begin" : 41, "end" : 44}
	],
	"NE" : [
	],
	"chunk" : [
	],
	"dependency" : [
		{"id" : 0, "text" : "이", "head" : 1, "label" : "DP", "mod" : [], "weight" : 0.767638 },
		{"id" : 1, "text" : "의미가", "head" : 4, "label" : "NP_SBJ", "mod" : [0], "weight" : 0.722215 },
		{"id" : 2, "text" : "시간이", "head" : 3, "label" : "NP_SBJ", "mod" : [], "weight" : 0.678086 },
		{"id" : 3, "text" : "흐르면서", "head" : 4, "label" : "VP", "mod" : [2], "weight" : 0.774051 },
		{"id" : 4, "text" : "확대되어,", "head" : 18, "label" : "VP", "mod" : [1, 3], "weight" : 0.613962 },
		{"id" : 5, "text" : "주요한", "head" : 6, "label" : "VP_MOD", "mod" : [], "weight" : 0.839758 },
		{"id" : 6, "text" : "일에", "head" : 7, "label" : "NP_AJT", "mod" : [5], "weight" : 0.96651 },
		{"id" : 7, "text" : "임하면서", "head" : 9, "label" : "VP", "mod" : [6], "weight" : 0.723455 },
		{"id" : 8, "text" : "심경을", "head" : 9, "label" : "NP_OBJ", "mod" : [], "weight" : 0.925795 },
		{"id" : 9, "text" : "발표하는", "head" : 10, "label" : "VP_MOD", "mod" : [7, 8], "weight" : 0.768786 },
		{"id" : 10, "text" : "것", "head" : 16, "label" : "NP_CNJ", "mod" : [9], "weight" : 0.626345 },
		{"id" : 11, "text" : "또는", "head" : 15, "label" : "AP", "mod" : [], "weight" : 0.530465 },
		{"id" : 12, "text" : "중요한", "head" : 13, "label" : "VP_MOD", "mod" : [], "weight" : 0.874437 },
		{"id" : 13, "text" : "일에", "head" : 14, "label" : "NP_AJT", "mod" : [12], "weight" : 0.628366 },
		{"id" : 14, "text" : "임하는", "head" : 15, "label" : "VP_MOD", "mod" : [13], "weight" : 0.92302 },
		{"id" : 15, "text" : "것", "head" : 16, "label" : "NP", "mod" : [11, 14], "weight" : 0.673611 },
		{"id" : 16, "text" : "자체를", "head" : 17, "label" : "NP_OBJ", "mod" : [15, 10], "weight" : 0.856209 },
		{"id" : 17, "text" : "출사표라고", "head" : 18, "label" : "VNP_CMP", "mod" : [16], "weight" : 0.662113 },
		{"id" : 18, "text" : "하게", "head" : 19, "label" : "VP", "mod" : [4, 17], "weight" : 0.499804 },
		{"id" : 19, "text" : "되었습니다.", "head" : -1, "label" : "VP", "mod" : [18], "weight" : 0.201133 }
	],
	"phrase_dependency" : [
	],
	"SRL" : [
	],
	"relation" : [
	],
	"SA" : [
	],
	"ZA" : [
	]
	},
	{
	"id" : 2,
	"reserve_str" : "",
	"text" : " 이렇게 말이죠.",
	"morp" : [
	],
	"morp_eval" : [
	],
	"WSD" : [
	],
	"word" : [
		{"id" : 0, "text" : "이렇게", "type" : "", "begin" : 0, "end" : 1},
		{"id" : 1, "text" : "말이죠.", "type" : "", "begin" : 2, "end" : 5}
	],
	"NE" : [
	],
	"chunk" : [
	],
	"dependency" : [
		{"id" : 0, "text" : "이렇게", "head" : 1, "label" : "VP_AJT", "mod" : [], "weight" : 0.527531 },
		{"id" : 1, "text" : "말이죠.", "head" : -1, "label" : "VNP", "mod" : [0], "weight" : 0.35392 }
	],
	"phrase_dependency" : [
	],
	"SRL" : [
	],
	"relation" : [
	],
	"SA" : [
	],
	"ZA" : [
	]
	},
	{
	"id" : 3,
	"reserve_str" : "",
	"text" : "드디어 우리 팀은 올림픽 경기에 출사표를 던졌다.",
	"morp" : [
	],
	"morp_eval" : [
	],
	"WSD" : [
	],
	"word" : [
		{"id" : 0, "text" : "드디어", "type" : "", "begin" : 0, "end" : 0},
		{"id" : 1, "text" : "우리", "type" : "", "begin" : 1, "end" : 1},
		{"id" : 2, "text" : "팀은", "type" : "", "begin" : 2, "end" : 3},
		{"id" : 3, "text" : "올림픽", "type" : "", "begin" : 4, "end" : 4},
		{"id" : 4, "text" : "경기에", "type" : "", "begin" : 5, "end" : 6},
		{"id" : 5, "text" : "출사표를", "type" : "", "begin" : 7, "end" : 9},
		{"id" : 6, "text" : "던졌다.", "type" : "", "begin" : 10, "end" : 13}
	],
	"NE" : [
	],
	"chunk" : [
	],
	"dependency" : [
		{"id" : 0, "text" : "드디어", "head" : 6, "label" : "AP", "mod" : [], "weight" : 0.747132 },
		{"id" : 1, "text" : "우리", "head" : 2, "label" : "NP", "mod" : [], "weight" : 0.829942 },
		{"id" : 2, "text" : "팀은", "head" : 6, "label" : "NP_SBJ", "mod" : [1], "weight" : 0.795435 },
		{"id" : 3, "text" : "올림픽", "head" : 4, "label" : "NP", "mod" : [], "weight" : 0.825134 },
		{"id" : 4, "text" : "경기에", "head" : 6, "label" : "NP_AJT", "mod" : [3], "weight" : 0.637064 },
		{"id" : 5, "text" : "출사표를", "head" : 6, "label" : "NP_OBJ", "mod" : [], "weight" : 0.560038 },
		{"id" : 6, "text" : "던졌다.", "head" : -1, "label" : "VP", "mod" : [0, 2, 4, 5], "weight" : 0.109748 }
	],
	"phrase_dependency" : [
	],
	"SRL" : [
	],
	"relation" : [
	],
	"SA" : [
	],
	"ZA" : [
	]
	},
	{
	"id" : 4,
	"reserve_str" : "",
	"text" : "제갈량과 관계된 고사성어 가운데 가장 유명한 것은 뭐니 뭐니 해도 바로 이것이죠.",
	"morp" : [
	],
	"morp_eval" : [
	],
	"WSD" : [
	],
	"word" : [
		{"id" : 0, "text" : "제갈량과", "type" : "", "begin" : 0, "end" : 1},
		{"id" : 1, "text" : "관계된", "type" : "", "begin" : 2, "end" : 4},
		{"id" : 2, "text" : "고사성어", "type" : "", "begin" : 5, "end" : 7},
		{"id" : 3, "text" : "가운데", "type" : "", "begin" : 8, "end" : 8},
		{"id" : 4, "text" : "가장", "type" : "", "begin" : 9, "end" : 9},
		{"id" : 5, "text" : "유명한", "type" : "", "begin" : 10, "end" : 12},
		{"id" : 6, "text" : "것은", "type" : "", "begin" : 13, "end" : 14},
		{"id" : 7, "text" : "뭐니", "type" : "", "begin" : 15, "end" : 17},
		{"id" : 8, "text" : "뭐니", "type" : "", "begin" : 18, "end" : 20},
		{"id" : 9, "text" : "해도", "type" : "", "begin" : 21, "end" : 22},
		{"id" : 10, "text" : "바로", "type" : "", "begin" : 23, "end" : 23},
		{"id" : 11, "text" : "이것이죠.", "type" : "", "begin" : 24, "end" : 27}
	],
	"NE" : [
	],
	"chunk" : [
	],
	"dependency" : [
		{"id" : 0, "text" : "제갈량과", "head" : 1, "label" : "NP_AJT", "mod" : [], "weight" : 0.884188 },
		{"id" : 1, "text" : "관계된", "head" : 2, "label" : "VP_MOD", "mod" : [0], "weight" : 0.535567 },
		{"id" : 2, "text" : "고사성어", "head" : 3, "label" : "NP", "mod" : [1], "weight" : 0.525162 },
		{"id" : 3, "text" : "가운데", "head" : 5, "label" : "NP_AJT", "mod" : [2], "weight" : 0.711964 },
		{"id" : 4, "text" : "가장", "head" : 5, "label" : "AP", "mod" : [], "weight" : 0.925908 },
		{"id" : 5, "text" : "유명한", "head" : 6, "label" : "VP_MOD", "mod" : [3, 4], "weight" : 0.822416 },
		{"id" : 6, "text" : "것은", "head" : 11, "label" : "NP_SBJ", "mod" : [5], "weight" : 0.705452 },
		{"id" : 7, "text" : "뭐니", "head" : 8, "label" : "VNP", "mod" : [], "weight" : 0.925077 },
		{"id" : 8, "text" : "뭐니", "head" : 9, "label" : "VNP", "mod" : [7], "weight" : 0.731231 },
		{"id" : 9, "text" : "해도", "head" : 11, "label" : "VP", "mod" : [8], "weight" : 0.663089 },
		{"id" : 10, "text" : "바로", "head" : 11, "label" : "AP", "mod" : [], "weight" : 0.528652 },
		{"id" : 11, "text" : "이것이죠.", "head" : -1, "label" : "VNP", "mod" : [6, 9, 10], "weight" : 0.153987 }
	],
	"phrase_dependency" : [
	],
	"SRL" : [
	],
	"relation" : [
	],
	"SA" : [
	],
	"ZA" : [
	]
	}
 ],
 "entity" : [
 ]
}

