{"doc_id" : "",
 "DCT" : "",
 "category" : "",
 "category_weight" : 0,
 "title" : {"text" : "동몽선습", "NE" : ""},
 "metaInfo" : { },
 "sentence" : [
	{
	"id" : 0,
	"reserve_str" : "",
	"text" : "조선 중기 유학자인 박세무(朴世茂)가 초학 아동들을 위하여 지은 책.",
	"morp" : [
	],
	"morp_eval" : [
	],
	"WSD" : [
	],
	"word" : [
		{"id" : 0, "text" : "조선", "type" : "", "begin" : 0, "end" : 0},
		{"id" : 1, "text" : "중기", "type" : "", "begin" : 1, "end" : 1},
		{"id" : 2, "text" : "유학자인", "type" : "", "begin" : 2, "end" : 5},
		{"id" : 3, "text" : "박세무(朴世茂)가", "type" : "", "begin" : 6, "end" : 10},
		{"id" : 4, "text" : "초학", "type" : "", "begin" : 11, "end" : 11},
		{"id" : 5, "text" : "아동들을", "type" : "", "begin" : 12, "end" : 14},
		{"id" : 6, "text" : "위하여", "type" : "", "begin" : 15, "end" : 16},
		{"id" : 7, "text" : "지은", "type" : "", "begin" : 17, "end" : 18},
		{"id" : 8, "text" : "책.", "type" : "", "begin" : 19, "end" : 20}
	],
	"NE" : [
	],
	"chunk" : [
	],
	"dependency" : [
		{"id" : 0, "text" : "조선", "head" : 1, "label" : "NP", "mod" : [], "weight" : 0.698956 },
		{"id" : 1, "text" : "중기", "head" : 2, "label" : "NP", "mod" : [0], "weight" : 0.628036 },
		{"id" : 2, "text" : "유학자인", "head" : 3, "label" : "VNP_MOD", "mod" : [1], "weight" : 0.775426 },
		{"id" : 3, "text" : "박세무(朴世茂)가", "head" : 7, "label" : "NP_SBJ", "mod" : [2], "weight" : 0.787844 },
		{"id" : 4, "text" : "초학", "head" : 5, "label" : "NP", "mod" : [], "weight" : 0.681935 },
		{"id" : 5, "text" : "아동들을", "head" : 6, "label" : "NP_OBJ", "mod" : [4], "weight" : 0.863039 },
		{"id" : 6, "text" : "위하여", "head" : 7, "label" : "VP", "mod" : [5], "weight" : 0.903131 },
		{"id" : 7, "text" : "지은", "head" : 8, "label" : "VP_MOD", "mod" : [3, 6], "weight" : 0.46484 },
		{"id" : 8, "text" : "책.", "head" : -1, "label" : "NP", "mod" : [7], "weight" : 0.322822 }
	],
	"phrase_dependency" : [
	],
	"SRL" : [
	],
	"relation" : [
	],
	"SA" : [
	],
	"ZA" : [
	]
	}
 ],
 "entity" : [
 ]
}

