{"doc_id" : "",
 "DCT" : "",
 "category" : "",
 "category_weight" : 0,
 "title" : {"text" : "최익현", "NE" : ""},
 "metaInfo" : { },
 "sentence" : [
	{
	"id" : 0,
	"reserve_str" : "",
	"text" : "최익현(崔益鉉, 양력 1834년 1월 14일 / 1833년 음력 12월 5일 ~ 1907년 1월 1일)은 조선 말기와 대한제국의 정치인이며 독립운동가이자, 을사조약에 저항한 의병장이다.",
	"morp" : [
	],
	"morp_eval" : [
	],
	"WSD" : [
	],
	"word" : [
		{"id" : 0, "text" : "최익현(崔益鉉,", "type" : "", "begin" : 0, "end" : 3},
		{"id" : 1, "text" : "양력", "type" : "", "begin" : 4, "end" : 4},
		{"id" : 2, "text" : "1834년", "type" : "", "begin" : 5, "end" : 6},
		{"id" : 3, "text" : "1월", "type" : "", "begin" : 7, "end" : 8},
		{"id" : 4, "text" : "14일", "type" : "", "begin" : 9, "end" : 10},
		{"id" : 5, "text" : "/", "type" : "", "begin" : 11, "end" : 11},
		{"id" : 6, "text" : "1833년", "type" : "", "begin" : 12, "end" : 13},
		{"id" : 7, "text" : "음력", "type" : "", "begin" : 14, "end" : 14},
		{"id" : 8, "text" : "12월", "type" : "", "begin" : 15, "end" : 16},
		{"id" : 9, "text" : "5일", "type" : "", "begin" : 17, "end" : 18},
		{"id" : 10, "text" : "~", "type" : "", "begin" : 19, "end" : 19},
		{"id" : 11, "text" : "1907년", "type" : "", "begin" : 20, "end" : 21},
		{"id" : 12, "text" : "1월", "type" : "", "begin" : 22, "end" : 23},
		{"id" : 13, "text" : "1일)은", "type" : "", "begin" : 24, "end" : 27},
		{"id" : 14, "text" : "조선", "type" : "", "begin" : 28, "end" : 28},
		{"id" : 15, "text" : "말기와", "type" : "", "begin" : 29, "end" : 30},
		{"id" : 16, "text" : "대한제국의", "type" : "", "begin" : 31, "end" : 33},
		{"id" : 17, "text" : "정치인이며", "type" : "", "begin" : 34, "end" : 36},
		{"id" : 18, "text" : "독립운동가이자,", "type" : "", "begin" : 37, "end" : 41},
		{"id" : 19, "text" : "을사조약에", "type" : "", "begin" : 42, "end" : 44},
		{"id" : 20, "text" : "저항한", "type" : "", "begin" : 45, "end" : 47},
		{"id" : 21, "text" : "의병장이다.", "type" : "", "begin" : 48, "end" : 52}
	],
	"NE" : [
	],
	"chunk" : [
	],
	"dependency" : [
		{"id" : 0, "text" : "최익현(崔益鉉,", "head" : 13, "label" : "NP", "mod" : [], "weight" : 0.77281 },
		{"id" : 1, "text" : "양력", "head" : 4, "label" : "NP", "mod" : [], "weight" : 0.626898 },
		{"id" : 2, "text" : "1834년", "head" : 3, "label" : "NP", "mod" : [], "weight" : 0.650283 },
		{"id" : 3, "text" : "1월", "head" : 4, "label" : "NP", "mod" : [2], "weight" : 0.731347 },
		{"id" : 4, "text" : "14일", "head" : 9, "label" : "NP_CNJ", "mod" : [1, 3], "weight" : 0.759253 },
		{"id" : 5, "text" : "/", "head" : 9, "label" : "X", "mod" : [], "weight" : 0.618181 },
		{"id" : 6, "text" : "1833년", "head" : 9, "label" : "NP", "mod" : [], "weight" : 0.531251 },
		{"id" : 7, "text" : "음력", "head" : 8, "label" : "NP", "mod" : [], "weight" : 0.520068 },
		{"id" : 8, "text" : "12월", "head" : 9, "label" : "NP", "mod" : [7], "weight" : 0.722095 },
		{"id" : 9, "text" : "5일", "head" : 10, "label" : "NP", "mod" : [4, 5, 6, 8], "weight" : 0.780641 },
		{"id" : 10, "text" : "~", "head" : 11, "label" : "X", "mod" : [9], "weight" : 0.898438 },
		{"id" : 11, "text" : "1907년", "head" : 12, "label" : "NP", "mod" : [10], "weight" : 0.576918 },
		{"id" : 12, "text" : "1월", "head" : 13, "label" : "NP", "mod" : [11], "weight" : 0.892927 },
		{"id" : 13, "text" : "1일)은", "head" : 17, "label" : "NP_SBJ", "mod" : [0, 12], "weight" : 0.717839 },
		{"id" : 14, "text" : "조선", "head" : 15, "label" : "NP", "mod" : [], "weight" : 0.788896 },
		{"id" : 15, "text" : "말기와", "head" : 16, "label" : "NP_CNJ", "mod" : [14], "weight" : 0.670352 },
		{"id" : 16, "text" : "대한제국의", "head" : 17, "label" : "NP_MOD", "mod" : [15], "weight" : 0.998075 },
		{"id" : 17, "text" : "정치인이며", "head" : 18, "label" : "VNP", "mod" : [13, 16], "weight" : 0.985123 },
		{"id" : 18, "text" : "독립운동가이자,", "head" : 21, "label" : "VNP", "mod" : [17], "weight" : 0.606101 },
		{"id" : 19, "text" : "을사조약에", "head" : 20, "label" : "NP_AJT", "mod" : [], "weight" : 0.504306 },
		{"id" : 20, "text" : "저항한", "head" : 21, "label" : "VP_MOD", "mod" : [19], "weight" : 0.511891 },
		{"id" : 21, "text" : "의병장이다.", "head" : -1, "label" : "VNP", "mod" : [18, 20], "weight" : 0.307038 }
	],
	"phrase_dependency" : [
	],
	"SRL" : [
	],
	"relation" : [
	],
	"SA" : [
	],
	"ZA" : [
	]
	},
	{
	"id" : 1,
	"reserve_str" : "",
	"text" : " 1907년 1월 1일 쓰시마 섬 감옥에서 순국하였다.",
	"morp" : [
	],
	"morp_eval" : [
	],
	"WSD" : [
	],
	"word" : [
		{"id" : 0, "text" : "1907년", "type" : "", "begin" : 0, "end" : 1},
		{"id" : 1, "text" : "1월", "type" : "", "begin" : 2, "end" : 3},
		{"id" : 2, "text" : "1일", "type" : "", "begin" : 4, "end" : 5},
		{"id" : 3, "text" : "쓰시마", "type" : "", "begin" : 6, "end" : 6},
		{"id" : 4, "text" : "섬", "type" : "", "begin" : 7, "end" : 7},
		{"id" : 5, "text" : "감옥에서", "type" : "", "begin" : 8, "end" : 9},
		{"id" : 6, "text" : "순국하였다.", "type" : "", "begin" : 10, "end" : 14}
	],
	"NE" : [
	],
	"chunk" : [
	],
	"dependency" : [
		{"id" : 0, "text" : "1907년", "head" : 1, "label" : "NP", "mod" : [], "weight" : 0.742208 },
		{"id" : 1, "text" : "1월", "head" : 2, "label" : "NP", "mod" : [0], "weight" : 0.967665 },
		{"id" : 2, "text" : "1일", "head" : 6, "label" : "NP_AJT", "mod" : [1], "weight" : 0.58466 },
		{"id" : 3, "text" : "쓰시마", "head" : 4, "label" : "NP", "mod" : [], "weight" : 0.502824 },
		{"id" : 4, "text" : "섬", "head" : 5, "label" : "NP", "mod" : [3], "weight" : 0.982949 },
		{"id" : 5, "text" : "감옥에서", "head" : 6, "label" : "NP_AJT", "mod" : [4], "weight" : 0.589045 },
		{"id" : 6, "text" : "순국하였다.", "head" : -1, "label" : "VP", "mod" : [2, 5], "weight" : 0.816341 }
	],
	"phrase_dependency" : [
	],
	"SRL" : [
	],
	"relation" : [
	],
	"SA" : [
	],
	"ZA" : [
	]
	}
 ],
 "entity" : [
 ]
}

