{"doc_id" : "",
 "DCT" : "",
 "category" : "",
 "category_weight" : 0,
 "title" : {"text" : "Q21", "NE" : ""},
 "metaInfo" : { },
 "sentence" : [
	{
	"id" : 0,
	"reserve_str" : "",
	"text" : "피부가 손상돼 병원체가 체내로 침입했을 때 분비되는 이것은 모세 혈관을 확장시키고 혈관 벽의 투과성을 높여 백혈구가 상처 부위로 빠르게 모일 수 있도록 한다.",
	"morp" : [
	],
	"morp_eval" : [
	],
	"WSD" : [
	],
	"word" : [
		{"id" : 0, "text" : "피부가", "type" : "", "begin" : 0, "end" : 1},
		{"id" : 1, "text" : "손상돼", "type" : "", "begin" : 2, "end" : 4},
		{"id" : 2, "text" : "병원체가", "type" : "", "begin" : 5, "end" : 7},
		{"id" : 3, "text" : "체내로", "type" : "", "begin" : 8, "end" : 9},
		{"id" : 4, "text" : "침입했을", "type" : "", "begin" : 10, "end" : 13},
		{"id" : 5, "text" : "때", "type" : "", "begin" : 14, "end" : 14},
		{"id" : 6, "text" : "분비되는", "type" : "", "begin" : 15, "end" : 17},
		{"id" : 7, "text" : "이것은", "type" : "", "begin" : 18, "end" : 19},
		{"id" : 8, "text" : "모세", "type" : "", "begin" : 20, "end" : 20},
		{"id" : 9, "text" : "혈관을", "type" : "", "begin" : 21, "end" : 22},
		{"id" : 10, "text" : "확장시키고", "type" : "", "begin" : 23, "end" : 25},
		{"id" : 11, "text" : "혈관", "type" : "", "begin" : 26, "end" : 26},
		{"id" : 12, "text" : "벽의", "type" : "", "begin" : 27, "end" : 28},
		{"id" : 13, "text" : "투과성을", "type" : "", "begin" : 29, "end" : 31},
		{"id" : 14, "text" : "높여", "type" : "", "begin" : 32, "end" : 33},
		{"id" : 15, "text" : "백혈구가", "type" : "", "begin" : 34, "end" : 36},
		{"id" : 16, "text" : "상처", "type" : "", "begin" : 37, "end" : 37},
		{"id" : 17, "text" : "부위로", "type" : "", "begin" : 38, "end" : 39},
		{"id" : 18, "text" : "빠르게", "type" : "", "begin" : 40, "end" : 41},
		{"id" : 19, "text" : "모일", "type" : "", "begin" : 42, "end" : 43},
		{"id" : 20, "text" : "수", "type" : "", "begin" : 44, "end" : 44},
		{"id" : 21, "text" : "있도록", "type" : "", "begin" : 45, "end" : 46},
		{"id" : 22, "text" : "한다.", "type" : "", "begin" : 47, "end" : 49}
	],
	"NE" : [
	],
	"chunk" : [
	],
	"dependency" : [
		{"id" : 0, "text" : "피부가", "head" : 1, "label" : "NP_SBJ", "mod" : [], "weight" : 0.773869 },
		{"id" : 1, "text" : "손상돼", "head" : 4, "label" : "VP", "mod" : [0], "weight" : 0.551398 },
		{"id" : 2, "text" : "병원체가", "head" : 4, "label" : "NP_SBJ", "mod" : [], "weight" : 0.64795 },
		{"id" : 3, "text" : "체내로", "head" : 4, "label" : "NP_AJT", "mod" : [], "weight" : 0.910763 },
		{"id" : 4, "text" : "침입했을", "head" : 5, "label" : "VP_MOD", "mod" : [1, 2, 3], "weight" : 0.893607 },
		{"id" : 5, "text" : "때", "head" : 6, "label" : "NP_AJT", "mod" : [4], "weight" : 0.756122 },
		{"id" : 6, "text" : "분비되는", "head" : 7, "label" : "VP_MOD", "mod" : [5], "weight" : 0.667245 },
		{"id" : 7, "text" : "이것은", "head" : 10, "label" : "NP_SBJ", "mod" : [6], "weight" : 0.630544 },
		{"id" : 8, "text" : "모세", "head" : 9, "label" : "NP", "mod" : [], "weight" : 0.718882 },
		{"id" : 9, "text" : "혈관을", "head" : 10, "label" : "NP_OBJ", "mod" : [8], "weight" : 0.905774 },
		{"id" : 10, "text" : "확장시키고", "head" : 14, "label" : "VP", "mod" : [7, 9], "weight" : 0.724791 },
		{"id" : 11, "text" : "혈관", "head" : 12, "label" : "NP", "mod" : [], "weight" : 0.768722 },
		{"id" : 12, "text" : "벽의", "head" : 13, "label" : "NP_MOD", "mod" : [11], "weight" : 0.927496 },
		{"id" : 13, "text" : "투과성을", "head" : 14, "label" : "NP_OBJ", "mod" : [12], "weight" : 0.909219 },
		{"id" : 14, "text" : "높여", "head" : 19, "label" : "VP", "mod" : [10, 13], "weight" : 0.851084 },
		{"id" : 15, "text" : "백혈구가", "head" : 19, "label" : "NP_SBJ", "mod" : [], "weight" : 0.981171 },
		{"id" : 16, "text" : "상처", "head" : 17, "label" : "NP", "mod" : [], "weight" : 0.932145 },
		{"id" : 17, "text" : "부위로", "head" : 19, "label" : "NP_AJT", "mod" : [16], "weight" : 0.946297 },
		{"id" : 18, "text" : "빠르게", "head" : 19, "label" : "VP_AJT", "mod" : [], "weight" : 0.86709 },
		{"id" : 19, "text" : "모일", "head" : 20, "label" : "VP_MOD", "mod" : [14, 15, 17, 18], "weight" : 0.942153 },
		{"id" : 20, "text" : "수", "head" : 21, "label" : "NP_SBJ", "mod" : [19], "weight" : 0.685182 },
		{"id" : 21, "text" : "있도록", "head" : 22, "label" : "VP", "mod" : [20], "weight" : 0.472648 },
		{"id" : 22, "text" : "한다.", "head" : -1, "label" : "VP", "mod" : [21], "weight" : 0.342413 }
	],
	"phrase_dependency" : [
	],
	"SRL" : [
	],
	"relation" : [
	],
	"SA" : [
	],
	"ZA" : [
	]
	},
	{
	"id" : 1,
	"reserve_str" : "",
	"text" : " 비만세포에서 분비되는 이것은 무엇일까?",
	"morp" : [
	],
	"morp_eval" : [
	],
	"WSD" : [
	],
	"word" : [
		{"id" : 0, "text" : "비만세포에서", "type" : "", "begin" : 0, "end" : 2},
		{"id" : 1, "text" : "분비되는", "type" : "", "begin" : 3, "end" : 5},
		{"id" : 2, "text" : "이것은", "type" : "", "begin" : 6, "end" : 7},
		{"id" : 3, "text" : "무엇일까?", "type" : "", "begin" : 8, "end" : 11}
	],
	"NE" : [
	],
	"chunk" : [
	],
	"dependency" : [
		{"id" : 0, "text" : "비만세포에서", "head" : 1, "label" : "NP_AJT", "mod" : [], "weight" : 0.976314 },
		{"id" : 1, "text" : "분비되는", "head" : 2, "label" : "VP_MOD", "mod" : [0], "weight" : 0.684857 },
		{"id" : 2, "text" : "이것은", "head" : 3, "label" : "NP_SBJ", "mod" : [1], "weight" : 0.658096 },
		{"id" : 3, "text" : "무엇일까?", "head" : -1, "label" : "VNP", "mod" : [2], "weight" : 0.327601 }
	],
	"phrase_dependency" : [
	],
	"SRL" : [
	],
	"relation" : [
	],
	"SA" : [
	],
	"ZA" : [
	]
	}
 ],
 "entity" : [
 ]
}

