{"doc_id" : "",
 "DCT" : "",
 "category" : "",
 "category_weight" : 0,
 "title" : {"text" : "Q29", "NE" : ""},
 "metaInfo" : { },
 "sentence" : [
	{
	"id" : 0,
	"reserve_str" : "",
	"text" : "광합성의 빛에너지를 받아들여 화학 에너지로 전환하는 단계를 명반응이라고 하며, 이산화탄소를 고정해 탄수화물을 만드는 단계를 암반응이라고 한다.",
	"morp" : [
	],
	"morp_eval" : [
	],
	"WSD" : [
	],
	"word" : [
		{"id" : 0, "text" : "광합성의", "type" : "", "begin" : 0, "end" : 2},
		{"id" : 1, "text" : "빛에너지를", "type" : "", "begin" : 3, "end" : 5},
		{"id" : 2, "text" : "받아들여", "type" : "", "begin" : 6, "end" : 7},
		{"id" : 3, "text" : "화학", "type" : "", "begin" : 8, "end" : 8},
		{"id" : 4, "text" : "에너지로", "type" : "", "begin" : 9, "end" : 10},
		{"id" : 5, "text" : "전환하는", "type" : "", "begin" : 11, "end" : 13},
		{"id" : 6, "text" : "단계를", "type" : "", "begin" : 14, "end" : 15},
		{"id" : 7, "text" : "명반응이라고", "type" : "", "begin" : 16, "end" : 19},
		{"id" : 8, "text" : "하며,", "type" : "", "begin" : 20, "end" : 22},
		{"id" : 9, "text" : "이산화탄소를", "type" : "", "begin" : 23, "end" : 25},
		{"id" : 10, "text" : "고정해", "type" : "", "begin" : 26, "end" : 28},
		{"id" : 11, "text" : "탄수화물을", "type" : "", "begin" : 29, "end" : 30},
		{"id" : 12, "text" : "만드는", "type" : "", "begin" : 31, "end" : 32},
		{"id" : 13, "text" : "단계를", "type" : "", "begin" : 33, "end" : 34},
		{"id" : 14, "text" : "암반응이라고", "type" : "", "begin" : 35, "end" : 38},
		{"id" : 15, "text" : "한다.", "type" : "", "begin" : 39, "end" : 41}
	],
	"NE" : [
	],
	"chunk" : [
	],
	"dependency" : [
		{"id" : 0, "text" : "광합성의", "head" : 1, "label" : "NP_MOD", "mod" : [], "weight" : 0.901945 },
		{"id" : 1, "text" : "빛에너지를", "head" : 2, "label" : "NP_OBJ", "mod" : [0], "weight" : 0.943935 },
		{"id" : 2, "text" : "받아들여", "head" : 5, "label" : "VP", "mod" : [1], "weight" : 0.609344 },
		{"id" : 3, "text" : "화학", "head" : 4, "label" : "NP", "mod" : [], "weight" : 0.866129 },
		{"id" : 4, "text" : "에너지로", "head" : 5, "label" : "NP_AJT", "mod" : [3], "weight" : 0.951441 },
		{"id" : 5, "text" : "전환하는", "head" : 6, "label" : "VP_MOD", "mod" : [2, 4], "weight" : 0.808817 },
		{"id" : 6, "text" : "단계를", "head" : 7, "label" : "NP_OBJ", "mod" : [5], "weight" : 0.906052 },
		{"id" : 7, "text" : "명반응이라고", "head" : 8, "label" : "VNP_CMP", "mod" : [6], "weight" : 0.71341 },
		{"id" : 8, "text" : "하며,", "head" : 14, "label" : "VP", "mod" : [7], "weight" : 0.544651 },
		{"id" : 9, "text" : "이산화탄소를", "head" : 10, "label" : "NP_OBJ", "mod" : [], "weight" : 0.955036 },
		{"id" : 10, "text" : "고정해", "head" : 12, "label" : "VP", "mod" : [9], "weight" : 0.75577 },
		{"id" : 11, "text" : "탄수화물을", "head" : 12, "label" : "NP_OBJ", "mod" : [], "weight" : 0.967956 },
		{"id" : 12, "text" : "만드는", "head" : 13, "label" : "VP_MOD", "mod" : [10, 11], "weight" : 0.95244 },
		{"id" : 13, "text" : "단계를", "head" : 14, "label" : "NP_OBJ", "mod" : [12], "weight" : 0.881873 },
		{"id" : 14, "text" : "암반응이라고", "head" : 15, "label" : "VNP_CMP", "mod" : [8, 13], "weight" : 0.536712 },
		{"id" : 15, "text" : "한다.", "head" : -1, "label" : "VP", "mod" : [14], "weight" : 0.28195 }
	],
	"phrase_dependency" : [
	],
	"SRL" : [
	],
	"relation" : [
	],
	"SA" : [
	],
	"ZA" : [
	]
	},
	{
	"id" : 1,
	"reserve_str" : "",
	"text" : " 이 중 명반응이 일어나는 곳은 엽록체의 어디일까?",
	"morp" : [
	],
	"morp_eval" : [
	],
	"WSD" : [
	],
	"word" : [
		{"id" : 0, "text" : "이", "type" : "", "begin" : 0, "end" : 0},
		{"id" : 1, "text" : "중", "type" : "", "begin" : 1, "end" : 1},
		{"id" : 2, "text" : "명반응이", "type" : "", "begin" : 2, "end" : 4},
		{"id" : 3, "text" : "일어나는", "type" : "", "begin" : 5, "end" : 6},
		{"id" : 4, "text" : "곳은", "type" : "", "begin" : 7, "end" : 8},
		{"id" : 5, "text" : "엽록체의", "type" : "", "begin" : 9, "end" : 11},
		{"id" : 6, "text" : "어디일까?", "type" : "", "begin" : 12, "end" : 15}
	],
	"NE" : [
	],
	"chunk" : [
	],
	"dependency" : [
		{"id" : 0, "text" : "이", "head" : 1, "label" : "DP", "mod" : [], "weight" : 0.92957 },
		{"id" : 1, "text" : "중", "head" : 3, "label" : "NP_AJT", "mod" : [0], "weight" : 0.623375 },
		{"id" : 2, "text" : "명반응이", "head" : 3, "label" : "NP_SBJ", "mod" : [], "weight" : 0.930148 },
		{"id" : 3, "text" : "일어나는", "head" : 4, "label" : "VP_MOD", "mod" : [1, 2], "weight" : 0.995035 },
		{"id" : 4, "text" : "곳은", "head" : 6, "label" : "NP_SBJ", "mod" : [3], "weight" : 0.857224 },
		{"id" : 5, "text" : "엽록체의", "head" : 6, "label" : "NP_MOD", "mod" : [], "weight" : 0.511676 },
		{"id" : 6, "text" : "어디일까?", "head" : -1, "label" : "VNP", "mod" : [4, 5], "weight" : 0.157222 }
	],
	"phrase_dependency" : [
	],
	"SRL" : [
	],
	"relation" : [
	],
	"SA" : [
	],
	"ZA" : [
	]
	}
 ],
 "entity" : [
 ]
}

