{"doc_id" : "",
 "DCT" : "",
 "category" : "",
 "category_weight" : 0,
 "title" : {"text" : "지옥문", "NE" : ""},
 "metaInfo" : { },
 "sentence" : [
	{
	"id" : 0,
	"reserve_str" : "",
	"text" : "그전부터 그가 열중하고 있었던 단테의 『신곡』 중 「지옥편」에서 취한, 죄 때문에 나락으로 빠지는 사람들과 그를 바라보는 ‘시인(생각하는 사람)’이 주제인데 인물이 총 186명이나 등장한다.",
	"morp" : [
	],
	"morp_eval" : [
	],
	"WSD" : [
	],
	"word" : [
		{"id" : 0, "text" : "그전부터", "type" : "", "begin" : 0, "end" : 1},
		{"id" : 1, "text" : "그가", "type" : "", "begin" : 2, "end" : 3},
		{"id" : 2, "text" : "열중하고", "type" : "", "begin" : 4, "end" : 6},
		{"id" : 3, "text" : "있었던", "type" : "", "begin" : 7, "end" : 9},
		{"id" : 4, "text" : "단테의", "type" : "", "begin" : 10, "end" : 11},
		{"id" : 5, "text" : "『신곡』", "type" : "", "begin" : 12, "end" : 14},
		{"id" : 6, "text" : "중", "type" : "", "begin" : 15, "end" : 15},
		{"id" : 7, "text" : "「지옥편」에서", "type" : "", "begin" : 16, "end" : 19},
		{"id" : 8, "text" : "취한,", "type" : "", "begin" : 20, "end" : 21},
		{"id" : 9, "text" : "죄", "type" : "", "begin" : 22, "end" : 22},
		{"id" : 10, "text" : "때문에", "type" : "", "begin" : 23, "end" : 24},
		{"id" : 11, "text" : "나락으로", "type" : "", "begin" : 25, "end" : 26},
		{"id" : 12, "text" : "빠지는", "type" : "", "begin" : 27, "end" : 28},
		{"id" : 13, "text" : "사람들과", "type" : "", "begin" : 29, "end" : 31},
		{"id" : 14, "text" : "그를", "type" : "", "begin" : 32, "end" : 33},
		{"id" : 15, "text" : "바라보는", "type" : "", "begin" : 34, "end" : 35},
		{"id" : 16, "text" : "‘시인(생각하는", "type" : "", "begin" : 36, "end" : 41},
		{"id" : 17, "text" : "사람)’이", "type" : "", "begin" : 42, "end" : 45},
		{"id" : 18, "text" : "주제인데", "type" : "", "begin" : 46, "end" : 48},
		{"id" : 19, "text" : "인물이", "type" : "", "begin" : 49, "end" : 50},
		{"id" : 20, "text" : "총", "type" : "", "begin" : 51, "end" : 51},
		{"id" : 21, "text" : "186명이나", "type" : "", "begin" : 52, "end" : 54},
		{"id" : 22, "text" : "등장한다.", "type" : "", "begin" : 55, "end" : 58}
	],
	"NE" : [
	],
	"chunk" : [
	],
	"dependency" : [
		{"id" : 0, "text" : "그전부터", "head" : 2, "label" : "NP_AJT", "mod" : [], "weight" : 0.76517 },
		{"id" : 1, "text" : "그가", "head" : 2, "label" : "NP_SBJ", "mod" : [], "weight" : 0.964405 },
		{"id" : 2, "text" : "열중하고", "head" : 3, "label" : "VP", "mod" : [0, 1], "weight" : 0.734822 },
		{"id" : 3, "text" : "있었던", "head" : 5, "label" : "VP_MOD", "mod" : [2], "weight" : 0.609984 },
		{"id" : 4, "text" : "단테의", "head" : 5, "label" : "NP_MOD", "mod" : [], "weight" : 0.582818 },
		{"id" : 5, "text" : "『신곡』", "head" : 6, "label" : "NP", "mod" : [3, 4], "weight" : 0.84226 },
		{"id" : 6, "text" : "중", "head" : 7, "label" : "NP", "mod" : [5], "weight" : 0.620271 },
		{"id" : 7, "text" : "「지옥편」에서", "head" : 8, "label" : "NP_AJT", "mod" : [6], "weight" : 0.896098 },
		{"id" : 8, "text" : "취한,", "head" : 17, "label" : "VP_MOD", "mod" : [7], "weight" : 0.884661 },
		{"id" : 9, "text" : "죄", "head" : 10, "label" : "NP", "mod" : [], "weight" : 0.979609 },
		{"id" : 10, "text" : "때문에", "head" : 12, "label" : "NP_AJT", "mod" : [9], "weight" : 0.676006 },
		{"id" : 11, "text" : "나락으로", "head" : 12, "label" : "NP_AJT", "mod" : [], "weight" : 0.865845 },
		{"id" : 12, "text" : "빠지는", "head" : 13, "label" : "VP_MOD", "mod" : [10, 11], "weight" : 0.770589 },
		{"id" : 13, "text" : "사람들과", "head" : 17, "label" : "NP_CNJ", "mod" : [12], "weight" : 0.671176 },
		{"id" : 14, "text" : "그를", "head" : 15, "label" : "NP_OBJ", "mod" : [], "weight" : 0.988093 },
		{"id" : 15, "text" : "바라보는", "head" : 16, "label" : "VP_MOD", "mod" : [14], "weight" : 0.94764 },
		{"id" : 16, "text" : "‘시인(생각하는", "head" : 17, "label" : "VP_MOD", "mod" : [15], "weight" : 0.909892 },
		{"id" : 17, "text" : "사람)’이", "head" : 18, "label" : "NP_SBJ", "mod" : [8, 13, 16], "weight" : 0.927602 },
		{"id" : 18, "text" : "주제인데", "head" : 22, "label" : "VNP", "mod" : [17], "weight" : 0.655318 },
		{"id" : 19, "text" : "인물이", "head" : 22, "label" : "NP_SBJ", "mod" : [], "weight" : 0.555115 },
		{"id" : 20, "text" : "총", "head" : 21, "label" : "DP", "mod" : [], "weight" : 0.739898 },
		{"id" : 21, "text" : "186명이나", "head" : 22, "label" : "NP_SBJ", "mod" : [20], "weight" : 0.390108 },
		{"id" : 22, "text" : "등장한다.", "head" : -1, "label" : "VP", "mod" : [18, 19, 21], "weight" : 0.129741 }
	],
	"phrase_dependency" : [
	],
	"SRL" : [
	],
	"relation" : [
	],
	"SA" : [
	],
	"ZA" : [
	]
	}
 ],
 "entity" : [
 ]
}

