{"doc_id" : "",
 "DCT" : "",
 "category" : "",
 "category_weight" : 0,
 "title" : {"text" : "수성", "NE" : ""},
 "metaInfo" : { },
 "sentence" : [
	{
	"id" : 0,
	"reserve_str" : "",
	"text" : "수성 표면에서 가장 큰 충돌구는 직경 1,550km의 칼로리스 분지이다.",
	"morp" : [
	],
	"morp_eval" : [
	],
	"WSD" : [
	],
	"word" : [
		{"id" : 0, "text" : "수성", "type" : "", "begin" : 0, "end" : 0},
		{"id" : 1, "text" : "표면에서", "type" : "", "begin" : 1, "end" : 2},
		{"id" : 2, "text" : "가장", "type" : "", "begin" : 3, "end" : 3},
		{"id" : 3, "text" : "큰", "type" : "", "begin" : 4, "end" : 5},
		{"id" : 4, "text" : "충돌구는", "type" : "", "begin" : 6, "end" : 8},
		{"id" : 5, "text" : "직경", "type" : "", "begin" : 9, "end" : 9},
		{"id" : 6, "text" : "1,550km의", "type" : "", "begin" : 10, "end" : 14},
		{"id" : 7, "text" : "칼로리스", "type" : "", "begin" : 15, "end" : 15},
		{"id" : 8, "text" : "분지이다.", "type" : "", "begin" : 16, "end" : 19}
	],
	"NE" : [
	],
	"chunk" : [
	],
	"dependency" : [
		{"id" : 0, "text" : "수성", "head" : 1, "label" : "NP", "mod" : [], "weight" : 0.63043 },
		{"id" : 1, "text" : "표면에서", "head" : 3, "label" : "NP_AJT", "mod" : [0], "weight" : 0.588815 },
		{"id" : 2, "text" : "가장", "head" : 3, "label" : "AP", "mod" : [], "weight" : 0.817002 },
		{"id" : 3, "text" : "큰", "head" : 4, "label" : "VP_MOD", "mod" : [1, 2], "weight" : 0.960666 },
		{"id" : 4, "text" : "충돌구는", "head" : 8, "label" : "NP_SBJ", "mod" : [3], "weight" : 0.778507 },
		{"id" : 5, "text" : "직경", "head" : 6, "label" : "NP", "mod" : [], "weight" : 0.68755 },
		{"id" : 6, "text" : "1,550km의", "head" : 8, "label" : "NP_MOD", "mod" : [5], "weight" : 0.42987 },
		{"id" : 7, "text" : "칼로리스", "head" : 8, "label" : "NP", "mod" : [], "weight" : 0.388778 },
		{"id" : 8, "text" : "분지이다.", "head" : -1, "label" : "VNP", "mod" : [4, 6, 7], "weight" : 0.173519 }
	],
	"phrase_dependency" : [
	],
	"SRL" : [
	],
	"relation" : [
	],
	"SA" : [
	],
	"ZA" : [
	]
	}
 ],
 "entity" : [
 ]
}

