{"doc_id" : "",
 "DCT" : "",
 "category" : "",
 "category_weight" : 0,
 "title" : {"text" : "엽산", "NE" : ""},
 "metaInfo" : { },
 "sentence" : [
	{
	"id" : 0,
	"reserve_str" : "",
	"text" : "이에 산부인과 의사들은 임신부 여성에게 조산, 유산, 기형아 출산 예방 차원에서 엽산 보충제를 처방하고 있다.",
	"morp" : [
	],
	"morp_eval" : [
	],
	"WSD" : [
	],
	"word" : [
		{"id" : 0, "text" : "이에", "type" : "", "begin" : 0, "end" : 1},
		{"id" : 1, "text" : "산부인과", "type" : "", "begin" : 2, "end" : 3},
		{"id" : 2, "text" : "의사들은", "type" : "", "begin" : 4, "end" : 6},
		{"id" : 3, "text" : "임신부", "type" : "", "begin" : 7, "end" : 7},
		{"id" : 4, "text" : "여성에게", "type" : "", "begin" : 8, "end" : 9},
		{"id" : 5, "text" : "조산,", "type" : "", "begin" : 10, "end" : 11},
		{"id" : 6, "text" : "유산,", "type" : "", "begin" : 12, "end" : 13},
		{"id" : 7, "text" : "기형아", "type" : "", "begin" : 14, "end" : 15},
		{"id" : 8, "text" : "출산", "type" : "", "begin" : 16, "end" : 16},
		{"id" : 9, "text" : "예방", "type" : "", "begin" : 17, "end" : 17},
		{"id" : 10, "text" : "차원에서", "type" : "", "begin" : 18, "end" : 19},
		{"id" : 11, "text" : "엽산", "type" : "", "begin" : 20, "end" : 20},
		{"id" : 12, "text" : "보충제를", "type" : "", "begin" : 21, "end" : 23},
		{"id" : 13, "text" : "처방하고", "type" : "", "begin" : 24, "end" : 26},
		{"id" : 14, "text" : "있다.", "type" : "", "begin" : 27, "end" : 29}
	],
	"NE" : [
	],
	"chunk" : [
	],
	"dependency" : [
		{"id" : 0, "text" : "이에", "head" : 13, "label" : "NP_AJT", "mod" : [], "weight" : 0.862278 },
		{"id" : 1, "text" : "산부인과", "head" : 2, "label" : "NP_CNJ", "mod" : [], "weight" : 0.71971 },
		{"id" : 2, "text" : "의사들은", "head" : 13, "label" : "NP_SBJ", "mod" : [1], "weight" : 0.970584 },
		{"id" : 3, "text" : "임신부", "head" : 4, "label" : "NP", "mod" : [], "weight" : 0.689345 },
		{"id" : 4, "text" : "여성에게", "head" : 13, "label" : "NP_AJT", "mod" : [3], "weight" : 0.73365 },
		{"id" : 5, "text" : "조산,", "head" : 9, "label" : "NP_CNJ", "mod" : [], "weight" : 0.586086 },
		{"id" : 6, "text" : "유산,", "head" : 9, "label" : "NP_CNJ", "mod" : [], "weight" : 0.536764 },
		{"id" : 7, "text" : "기형아", "head" : 8, "label" : "NP", "mod" : [], "weight" : 0.523164 },
		{"id" : 8, "text" : "출산", "head" : 9, "label" : "NP", "mod" : [7], "weight" : 0.617558 },
		{"id" : 9, "text" : "예방", "head" : 10, "label" : "NP", "mod" : [5, 6, 8], "weight" : 0.975337 },
		{"id" : 10, "text" : "차원에서", "head" : 13, "label" : "NP_AJT", "mod" : [9], "weight" : 0.80058 },
		{"id" : 11, "text" : "엽산", "head" : 12, "label" : "NP", "mod" : [], "weight" : 0.951988 },
		{"id" : 12, "text" : "보충제를", "head" : 13, "label" : "NP_OBJ", "mod" : [11], "weight" : 0.675615 },
		{"id" : 13, "text" : "처방하고", "head" : 14, "label" : "VP", "mod" : [0, 2, 4, 10, 12], "weight" : 0.577775 },
		{"id" : 14, "text" : "있다.", "head" : -1, "label" : "VP", "mod" : [13], "weight" : 0.735888 }
	],
	"phrase_dependency" : [
	],
	"SRL" : [
	],
	"relation" : [
	],
	"SA" : [
	],
	"ZA" : [
	]
	}
 ],
 "entity" : [
 ]
}

