{"doc_id" : "",
 "DCT" : "",
 "category" : "",
 "category_weight" : 0,
 "title" : {"text" : "Q26", "NE" : ""},
 "metaInfo" : { },
 "sentence" : [
	{
	"id" : 0,
	"reserve_str" : "",
	"text" : "미국 국립질병예방통제센터는 임신 1개월 전부터 3개월까지 하루 400mg씩 이것을 복용하면 기형아 예방에 도움이 되고 자연유산율을 감소시키는 효과가 있다고 밝혔다.",
	"morp" : [
	],
	"morp_eval" : [
	],
	"WSD" : [
	],
	"word" : [
		{"id" : 0, "text" : "미국", "type" : "", "begin" : 0, "end" : 0},
		{"id" : 1, "text" : "국립질병예방통제센터는", "type" : "", "begin" : 1, "end" : 5},
		{"id" : 2, "text" : "임신", "type" : "", "begin" : 6, "end" : 6},
		{"id" : 3, "text" : "1개월", "type" : "", "begin" : 7, "end" : 8},
		{"id" : 4, "text" : "전부터", "type" : "", "begin" : 9, "end" : 10},
		{"id" : 5, "text" : "3개월까지", "type" : "", "begin" : 11, "end" : 13},
		{"id" : 6, "text" : "하루", "type" : "", "begin" : 14, "end" : 14},
		{"id" : 7, "text" : "400mg씩", "type" : "", "begin" : 15, "end" : 17},
		{"id" : 8, "text" : "이것을", "type" : "", "begin" : 18, "end" : 19},
		{"id" : 9, "text" : "복용하면", "type" : "", "begin" : 20, "end" : 22},
		{"id" : 10, "text" : "기형아", "type" : "", "begin" : 23, "end" : 24},
		{"id" : 11, "text" : "예방에", "type" : "", "begin" : 25, "end" : 26},
		{"id" : 12, "text" : "도움이", "type" : "", "begin" : 27, "end" : 28},
		{"id" : 13, "text" : "되고", "type" : "", "begin" : 29, "end" : 30},
		{"id" : 14, "text" : "자연유산율을", "type" : "", "begin" : 31, "end" : 34},
		{"id" : 15, "text" : "감소시키는", "type" : "", "begin" : 35, "end" : 37},
		{"id" : 16, "text" : "효과가", "type" : "", "begin" : 38, "end" : 39},
		{"id" : 17, "text" : "있다고", "type" : "", "begin" : 40, "end" : 41},
		{"id" : 18, "text" : "밝혔다.", "type" : "", "begin" : 42, "end" : 45}
	],
	"NE" : [
	],
	"chunk" : [
	],
	"dependency" : [
		{"id" : 0, "text" : "미국", "head" : 1, "label" : "NP", "mod" : [], "weight" : 0.696058 },
		{"id" : 1, "text" : "국립질병예방통제센터는", "head" : 18, "label" : "NP_SBJ", "mod" : [0], "weight" : 0.652113 },
		{"id" : 2, "text" : "임신", "head" : 3, "label" : "NP", "mod" : [], "weight" : 0.590594 },
		{"id" : 3, "text" : "1개월", "head" : 4, "label" : "NP", "mod" : [2], "weight" : 0.806575 },
		{"id" : 4, "text" : "전부터", "head" : 9, "label" : "NP_AJT", "mod" : [3], "weight" : 0.716506 },
		{"id" : 5, "text" : "3개월까지", "head" : 9, "label" : "NP_AJT", "mod" : [], "weight" : 0.895854 },
		{"id" : 6, "text" : "하루", "head" : 7, "label" : "NP", "mod" : [], "weight" : 0.929244 },
		{"id" : 7, "text" : "400mg씩", "head" : 9, "label" : "NP_AJT", "mod" : [6], "weight" : 0.580763 },
		{"id" : 8, "text" : "이것을", "head" : 9, "label" : "NP_OBJ", "mod" : [], "weight" : 0.86172 },
		{"id" : 9, "text" : "복용하면", "head" : 13, "label" : "VP", "mod" : [4, 5, 7, 8], "weight" : 0.577277 },
		{"id" : 10, "text" : "기형아", "head" : 11, "label" : "NP", "mod" : [], "weight" : 0.768977 },
		{"id" : 11, "text" : "예방에", "head" : 13, "label" : "NP_AJT", "mod" : [10], "weight" : 0.908684 },
		{"id" : 12, "text" : "도움이", "head" : 13, "label" : "NP_CMP", "mod" : [], "weight" : 0.841237 },
		{"id" : 13, "text" : "되고", "head" : 17, "label" : "VP", "mod" : [9, 11, 12], "weight" : 0.80322 },
		{"id" : 14, "text" : "자연유산율을", "head" : 15, "label" : "NP_OBJ", "mod" : [], "weight" : 0.804919 },
		{"id" : 15, "text" : "감소시키는", "head" : 16, "label" : "VP_MOD", "mod" : [14], "weight" : 0.809543 },
		{"id" : 16, "text" : "효과가", "head" : 17, "label" : "NP_SBJ", "mod" : [15], "weight" : 0.948842 },
		{"id" : 17, "text" : "있다고", "head" : 18, "label" : "VP_CMP", "mod" : [13, 16], "weight" : 0.495556 },
		{"id" : 18, "text" : "밝혔다.", "head" : -1, "label" : "VP", "mod" : [1, 17], "weight" : 0.463774 }
	],
	"phrase_dependency" : [
	],
	"SRL" : [
	],
	"relation" : [
	],
	"SA" : [
	],
	"ZA" : [
	]
	},
	{
	"id" : 1,
	"reserve_str" : "",
	"text" : " 비타민 B군에 속하는 수용성 비타민인 이것은 무엇일까?",
	"morp" : [
	],
	"morp_eval" : [
	],
	"WSD" : [
	],
	"word" : [
		{"id" : 0, "text" : "비타민", "type" : "", "begin" : 0, "end" : 0},
		{"id" : 1, "text" : "B군에", "type" : "", "begin" : 1, "end" : 3},
		{"id" : 2, "text" : "속하는", "type" : "", "begin" : 4, "end" : 5},
		{"id" : 3, "text" : "수용성", "type" : "", "begin" : 6, "end" : 7},
		{"id" : 4, "text" : "비타민인", "type" : "", "begin" : 8, "end" : 10},
		{"id" : 5, "text" : "이것은", "type" : "", "begin" : 11, "end" : 12},
		{"id" : 6, "text" : "무엇일까?", "type" : "", "begin" : 13, "end" : 16}
	],
	"NE" : [
	],
	"chunk" : [
	],
	"dependency" : [
		{"id" : 0, "text" : "비타민", "head" : 1, "label" : "NP", "mod" : [], "weight" : 0.576459 },
		{"id" : 1, "text" : "B군에", "head" : 2, "label" : "NP_AJT", "mod" : [0], "weight" : 0.903679 },
		{"id" : 2, "text" : "속하는", "head" : 4, "label" : "VP_MOD", "mod" : [1], "weight" : 0.718166 },
		{"id" : 3, "text" : "수용성", "head" : 4, "label" : "NP", "mod" : [], "weight" : 0.993426 },
		{"id" : 4, "text" : "비타민인", "head" : 5, "label" : "VNP_MOD", "mod" : [2, 3], "weight" : 0.661921 },
		{"id" : 5, "text" : "이것은", "head" : 6, "label" : "NP_SBJ", "mod" : [4], "weight" : 0.625686 },
		{"id" : 6, "text" : "무엇일까?", "head" : -1, "label" : "VNP", "mod" : [5], "weight" : 0.112763 }
	],
	"phrase_dependency" : [
	],
	"SRL" : [
	],
	"relation" : [
	],
	"SA" : [
	],
	"ZA" : [
	]
	}
 ],
 "entity" : [
 ]
}

