{"doc_id" : "",
 "DCT" : "",
 "category" : "",
 "category_weight" : 0,
 "title" : {"text" : "막울림악기", "NE" : ""},
 "metaInfo" : { },
 "sentence" : [
	{
	"id" : 0,
	"reserve_str" : "",
	"text" : "서양 악기에서는 큰북ㆍ작은북ㆍ팀파니ㆍ탬버린, 우리나라 악기에서는 장구 등이 대표적 막명악기다.",
	"morp" : [
	],
	"morp_eval" : [
	],
	"WSD" : [
	],
	"word" : [
		{"id" : 0, "text" : "서양", "type" : "", "begin" : 0, "end" : 0},
		{"id" : 1, "text" : "악기에서는", "type" : "", "begin" : 1, "end" : 3},
		{"id" : 2, "text" : "큰북ㆍ작은북ㆍ팀파니ㆍ탬버린,", "type" : "", "begin" : 4, "end" : 11},
		{"id" : 3, "text" : "우리나라", "type" : "", "begin" : 12, "end" : 12},
		{"id" : 4, "text" : "악기에서는", "type" : "", "begin" : 13, "end" : 15},
		{"id" : 5, "text" : "장구", "type" : "", "begin" : 16, "end" : 16},
		{"id" : 6, "text" : "등이", "type" : "", "begin" : 17, "end" : 18},
		{"id" : 7, "text" : "대표적", "type" : "", "begin" : 19, "end" : 20},
		{"id" : 8, "text" : "막명악기다.", "type" : "", "begin" : 21, "end" : 24}
	],
	"NE" : [
	],
	"chunk" : [
	],
	"dependency" : [
		{"id" : 0, "text" : "서양", "head" : 1, "label" : "NP", "mod" : [], "weight" : 0.984414 },
		{"id" : 1, "text" : "악기에서는", "head" : 8, "label" : "NP_AJT", "mod" : [0], "weight" : 0.761538 },
		{"id" : 2, "text" : "큰북ㆍ작은북ㆍ팀파니ㆍ탬버린,", "head" : 8, "label" : "NP", "mod" : [], "weight" : 0.641068 },
		{"id" : 3, "text" : "우리나라", "head" : 4, "label" : "NP", "mod" : [], "weight" : 0.866018 },
		{"id" : 4, "text" : "악기에서는", "head" : 8, "label" : "NP_AJT", "mod" : [3], "weight" : 0.690329 },
		{"id" : 5, "text" : "장구", "head" : 6, "label" : "NP", "mod" : [], "weight" : 0.733911 },
		{"id" : 6, "text" : "등이", "head" : 8, "label" : "NP_SBJ", "mod" : [5], "weight" : 0.625849 },
		{"id" : 7, "text" : "대표적", "head" : 8, "label" : "NP", "mod" : [], "weight" : 0.315125 },
		{"id" : 8, "text" : "막명악기다.", "head" : -1, "label" : "VNP", "mod" : [1, 2, 4, 6, 7], "weight" : 0.289362 }
	],
	"phrase_dependency" : [
	],
	"SRL" : [
	],
	"relation" : [
	],
	"SA" : [
	],
	"ZA" : [
	]
	}
 ],
 "entity" : [
 ]
}

