{"doc_id" : "",
 "DCT" : "",
 "category" : "",
 "category_weight" : 0,
 "title" : {"text" : "Q18", "NE" : ""},
 "metaInfo" : { },
 "sentence" : [
	{
	"id" : 0,
	"reserve_str" : "",
	"text" : "이것은 단단하고 금속광택이 나며 엷은 푸른색을 띠는 은회색 금속이다.",
	"morp" : [
	],
	"morp_eval" : [
	],
	"WSD" : [
	],
	"word" : [
		{"id" : 0, "text" : "이것은", "type" : "", "begin" : 0, "end" : 1},
		{"id" : 1, "text" : "단단하고", "type" : "", "begin" : 2, "end" : 3},
		{"id" : 2, "text" : "금속광택이", "type" : "", "begin" : 4, "end" : 6},
		{"id" : 3, "text" : "나며", "type" : "", "begin" : 7, "end" : 8},
		{"id" : 4, "text" : "엷은", "type" : "", "begin" : 9, "end" : 10},
		{"id" : 5, "text" : "푸른색을", "type" : "", "begin" : 11, "end" : 12},
		{"id" : 6, "text" : "띠는", "type" : "", "begin" : 13, "end" : 14},
		{"id" : 7, "text" : "은회색", "type" : "", "begin" : 15, "end" : 16},
		{"id" : 8, "text" : "금속이다.", "type" : "", "begin" : 17, "end" : 20}
	],
	"NE" : [
	],
	"chunk" : [
	],
	"dependency" : [
		{"id" : 0, "text" : "이것은", "head" : 1, "label" : "NP_SBJ", "mod" : [], "weight" : 0.676281 },
		{"id" : 1, "text" : "단단하고", "head" : 3, "label" : "VP", "mod" : [0], "weight" : 0.879276 },
		{"id" : 2, "text" : "금속광택이", "head" : 3, "label" : "NP_SBJ", "mod" : [], "weight" : 0.86178 },
		{"id" : 3, "text" : "나며", "head" : 6, "label" : "VP", "mod" : [1, 2], "weight" : 0.665425 },
		{"id" : 4, "text" : "엷은", "head" : 5, "label" : "VP_MOD", "mod" : [], "weight" : 0.954794 },
		{"id" : 5, "text" : "푸른색을", "head" : 6, "label" : "NP_OBJ", "mod" : [4], "weight" : 0.594929 },
		{"id" : 6, "text" : "띠는", "head" : 8, "label" : "VP_MOD", "mod" : [3, 5], "weight" : 0.594873 },
		{"id" : 7, "text" : "은회색", "head" : 8, "label" : "NP", "mod" : [], "weight" : 0.361687 },
		{"id" : 8, "text" : "금속이다.", "head" : -1, "label" : "VNP", "mod" : [6, 7], "weight" : 0.310571 }
	],
	"phrase_dependency" : [
	],
	"SRL" : [
	],
	"relation" : [
	],
	"SA" : [
	],
	"ZA" : [
	]
	},
	{
	"id" : 1,
	"reserve_str" : "",
	"text" : " 주로 슈퍼합금, 자석합금, 리튬-이온전지 등에 쓰이며 원자번호 27번인 이것은 무엇일까?",
	"morp" : [
	],
	"morp_eval" : [
	],
	"WSD" : [
	],
	"word" : [
		{"id" : 0, "text" : "주로", "type" : "", "begin" : 0, "end" : 0},
		{"id" : 1, "text" : "슈퍼합금,", "type" : "", "begin" : 1, "end" : 2},
		{"id" : 2, "text" : "자석합금,", "type" : "", "begin" : 3, "end" : 5},
		{"id" : 3, "text" : "리튬-이온전지", "type" : "", "begin" : 6, "end" : 8},
		{"id" : 4, "text" : "등에", "type" : "", "begin" : 9, "end" : 10},
		{"id" : 5, "text" : "쓰이며", "type" : "", "begin" : 11, "end" : 12},
		{"id" : 6, "text" : "원자번호", "type" : "", "begin" : 13, "end" : 14},
		{"id" : 7, "text" : "27번인", "type" : "", "begin" : 15, "end" : 18},
		{"id" : 8, "text" : "이것은", "type" : "", "begin" : 19, "end" : 20},
		{"id" : 9, "text" : "무엇일까?", "type" : "", "begin" : 21, "end" : 24}
	],
	"NE" : [
	],
	"chunk" : [
	],
	"dependency" : [
		{"id" : 0, "text" : "주로", "head" : 5, "label" : "AP", "mod" : [], "weight" : 0.886945 },
		{"id" : 1, "text" : "슈퍼합금,", "head" : 3, "label" : "NP_CNJ", "mod" : [], "weight" : 0.747864 },
		{"id" : 2, "text" : "자석합금,", "head" : 3, "label" : "NP_CNJ", "mod" : [], "weight" : 0.886188 },
		{"id" : 3, "text" : "리튬-이온전지", "head" : 4, "label" : "NP", "mod" : [1, 2], "weight" : 0.67751 },
		{"id" : 4, "text" : "등에", "head" : 5, "label" : "NP_AJT", "mod" : [3], "weight" : 0.739324 },
		{"id" : 5, "text" : "쓰이며", "head" : 7, "label" : "VP", "mod" : [0, 4], "weight" : 0.715367 },
		{"id" : 6, "text" : "원자번호", "head" : 7, "label" : "NP", "mod" : [], "weight" : 0.776579 },
		{"id" : 7, "text" : "27번인", "head" : 8, "label" : "VNP_MOD", "mod" : [5, 6], "weight" : 0.888213 },
		{"id" : 8, "text" : "이것은", "head" : 9, "label" : "NP_SBJ", "mod" : [7], "weight" : 0.668885 },
		{"id" : 9, "text" : "무엇일까?", "head" : -1, "label" : "VNP", "mod" : [8], "weight" : 0.636175 }
	],
	"phrase_dependency" : [
	],
	"SRL" : [
	],
	"relation" : [
	],
	"SA" : [
	],
	"ZA" : [
	]
	}
 ],
 "entity" : [
 ]
}

