{"doc_id" : "",
 "DCT" : "",
 "category" : "",
 "category_weight" : 0,
 "title" : {"text" : "규중칠우쟁론기", "NE" : ""},
 "metaInfo" : { },
 "sentence" : [
	{
	"id" : 0,
	"reserve_str" : "",
	"text" : "그 사이에 규중칠우, 즉 바느질에 쓰이는 도구인 척부인(尺夫人: 자) · 교두각시(交頭: 가위) · 세요각시(細腰: 바늘) · 청홍각시(실) · 감투할미(골무) · 인화낭자(引火: 인두) · 울낭자(熨: 다리미) 등이 각기 자기가 없으면 어떻게 옷을 짓겠느냐면서 서로의 공을 다툰다.",
	"morp" : [
	],
	"morp_eval" : [
	],
	"WSD" : [
	],
	"word" : [
		{"id" : 0, "text" : "그", "type" : "", "begin" : 0, "end" : 0},
		{"id" : 1, "text" : "사이에", "type" : "", "begin" : 1, "end" : 2},
		{"id" : 2, "text" : "규중칠우,", "type" : "", "begin" : 3, "end" : 5},
		{"id" : 3, "text" : "즉", "type" : "", "begin" : 6, "end" : 6},
		{"id" : 4, "text" : "바느질에", "type" : "", "begin" : 7, "end" : 9},
		{"id" : 5, "text" : "쓰이는", "type" : "", "begin" : 10, "end" : 11},
		{"id" : 6, "text" : "도구인", "type" : "", "begin" : 12, "end" : 14},
		{"id" : 7, "text" : "척부인(尺夫人:", "type" : "", "begin" : 15, "end" : 18},
		{"id" : 8, "text" : "자)", "type" : "", "begin" : 19, "end" : 20},
		{"id" : 9, "text" : "·", "type" : "", "begin" : 21, "end" : 21},
		{"id" : 10, "text" : "교두각시(交頭:", "type" : "", "begin" : 22, "end" : 26},
		{"id" : 11, "text" : "가위)", "type" : "", "begin" : 27, "end" : 28},
		{"id" : 12, "text" : "·", "type" : "", "begin" : 29, "end" : 29},
		{"id" : 13, "text" : "세요각시(細腰:", "type" : "", "begin" : 30, "end" : 34},
		{"id" : 14, "text" : "바늘)", "type" : "", "begin" : 35, "end" : 36},
		{"id" : 15, "text" : "·", "type" : "", "begin" : 37, "end" : 37},
		{"id" : 16, "text" : "청홍각시(실)", "type" : "", "begin" : 38, "end" : 41},
		{"id" : 17, "text" : "·", "type" : "", "begin" : 42, "end" : 42},
		{"id" : 18, "text" : "감투할미(골무)", "type" : "", "begin" : 43, "end" : 48},
		{"id" : 19, "text" : "·", "type" : "", "begin" : 49, "end" : 49},
		{"id" : 20, "text" : "인화낭자(引火:", "type" : "", "begin" : 50, "end" : 54},
		{"id" : 21, "text" : "인두)", "type" : "", "begin" : 55, "end" : 56},
		{"id" : 22, "text" : "·", "type" : "", "begin" : 57, "end" : 57},
		{"id" : 23, "text" : "울낭자(熨:", "type" : "", "begin" : 58, "end" : 61},
		{"id" : 24, "text" : "다리미)", "type" : "", "begin" : 62, "end" : 63},
		{"id" : 25, "text" : "등이", "type" : "", "begin" : 64, "end" : 65},
		{"id" : 26, "text" : "각기", "type" : "", "begin" : 66, "end" : 66},
		{"id" : 27, "text" : "자기가", "type" : "", "begin" : 67, "end" : 68},
		{"id" : 28, "text" : "없으면", "type" : "", "begin" : 69, "end" : 70},
		{"id" : 29, "text" : "어떻게", "type" : "", "begin" : 71, "end" : 72},
		{"id" : 30, "text" : "옷을", "type" : "", "begin" : 73, "end" : 74},
		{"id" : 31, "text" : "짓겠느냐면서", "type" : "", "begin" : 75, "end" : 78},
		{"id" : 32, "text" : "서로의", "type" : "", "begin" : 79, "end" : 80},
		{"id" : 33, "text" : "공을", "type" : "", "begin" : 81, "end" : 82},
		{"id" : 34, "text" : "다툰다.", "type" : "", "begin" : 83, "end" : 85}
	],
	"NE" : [
	],
	"chunk" : [
	],
	"dependency" : [
		{"id" : 0, "text" : "그", "head" : 1, "label" : "DP", "mod" : [], "weight" : 0.875845 },
		{"id" : 1, "text" : "사이에", "head" : 34, "label" : "NP_AJT", "mod" : [0], "weight" : 0.683534 },
		{"id" : 2, "text" : "규중칠우,", "head" : 6, "label" : "NP", "mod" : [], "weight" : 0.513156 },
		{"id" : 3, "text" : "즉", "head" : 5, "label" : "AP", "mod" : [], "weight" : 0.6936 },
		{"id" : 4, "text" : "바느질에", "head" : 5, "label" : "NP_AJT", "mod" : [], "weight" : 0.835113 },
		{"id" : 5, "text" : "쓰이는", "head" : 6, "label" : "VP_MOD", "mod" : [3, 4], "weight" : 0.509329 },
		{"id" : 6, "text" : "도구인", "head" : 24, "label" : "VNP_MOD", "mod" : [2, 5], "weight" : 0.54957 },
		{"id" : 7, "text" : "척부인(尺夫人:", "head" : 8, "label" : "NP", "mod" : [], "weight" : 0.931092 },
		{"id" : 8, "text" : "자)", "head" : 24, "label" : "NP_CNJ", "mod" : [7], "weight" : 0.697964 },
		{"id" : 9, "text" : "·", "head" : 11, "label" : "X", "mod" : [], "weight" : 0.610281 },
		{"id" : 10, "text" : "교두각시(交頭:", "head" : 11, "label" : "NP", "mod" : [], "weight" : 0.933275 },
		{"id" : 11, "text" : "가위)", "head" : 24, "label" : "NP_CNJ", "mod" : [9, 10], "weight" : 0.652674 },
		{"id" : 12, "text" : "·", "head" : 14, "label" : "X", "mod" : [], "weight" : 0.736375 },
		{"id" : 13, "text" : "세요각시(細腰:", "head" : 14, "label" : "NP", "mod" : [], "weight" : 0.807434 },
		{"id" : 14, "text" : "바늘)", "head" : 24, "label" : "NP_CNJ", "mod" : [12, 13], "weight" : 0.701061 },
		{"id" : 15, "text" : "·", "head" : 16, "label" : "X", "mod" : [], "weight" : 0.690049 },
		{"id" : 16, "text" : "청홍각시(실)", "head" : 24, "label" : "NP_CNJ", "mod" : [15], "weight" : 0.704735 },
		{"id" : 17, "text" : "·", "head" : 18, "label" : "X", "mod" : [], "weight" : 0.657263 },
		{"id" : 18, "text" : "감투할미(골무)", "head" : 24, "label" : "NP_CNJ", "mod" : [17], "weight" : 0.705299 },
		{"id" : 19, "text" : "·", "head" : 21, "label" : "X", "mod" : [], "weight" : 0.640448 },
		{"id" : 20, "text" : "인화낭자(引火:", "head" : 21, "label" : "NP", "mod" : [], "weight" : 0.812939 },
		{"id" : 21, "text" : "인두)", "head" : 24, "label" : "NP_CNJ", "mod" : [19, 20], "weight" : 0.963699 },
		{"id" : 22, "text" : "·", "head" : 24, "label" : "X", "mod" : [], "weight" : 0.920591 },
		{"id" : 23, "text" : "울낭자(熨:", "head" : 24, "label" : "NP", "mod" : [], "weight" : 0.614313 },
		{"id" : 24, "text" : "다리미)", "head" : 25, "label" : "NP_PRN", "mod" : [6, 8, 11, 14, 16, 18, 21, 22, 23], "weight" : 0.758939 },
		{"id" : 25, "text" : "등이", "head" : 34, "label" : "NP_SBJ", "mod" : [24], "weight" : 0.715068 },
		{"id" : 26, "text" : "각기", "head" : 28, "label" : "AP", "mod" : [], "weight" : 0.878343 },
		{"id" : 27, "text" : "자기가", "head" : 28, "label" : "NP_SBJ", "mod" : [], "weight" : 0.680365 },
		{"id" : 28, "text" : "없으면", "head" : 31, "label" : "VP", "mod" : [26, 27], "weight" : 0.660745 },
		{"id" : 29, "text" : "어떻게", "head" : 31, "label" : "VP_AJT", "mod" : [], "weight" : 0.582586 },
		{"id" : 30, "text" : "옷을", "head" : 31, "label" : "NP_OBJ", "mod" : [], "weight" : 0.688741 },
		{"id" : 31, "text" : "짓겠느냐면서", "head" : 34, "label" : "VP", "mod" : [28, 29, 30], "weight" : 0.671028 },
		{"id" : 32, "text" : "서로의", "head" : 33, "label" : "NP_MOD", "mod" : [], "weight" : 0.848164 },
		{"id" : 33, "text" : "공을", "head" : 34, "label" : "NP_OBJ", "mod" : [32], "weight" : 0.5296 },
		{"id" : 34, "text" : "다툰다.", "head" : -1, "label" : "VP", "mod" : [1, 25, 31, 33], "weight" : 0.633997 }
	],
	"phrase_dependency" : [
	],
	"SRL" : [
	],
	"relation" : [
	],
	"SA" : [
	],
	"ZA" : [
	]
	}
 ],
 "entity" : [
 ]
}

