{"doc_id" : "",
 "DCT" : "",
 "category" : "",
 "category_weight" : 0,
 "title" : {"text" : "Q8", "NE" : ""},
 "metaInfo" : { },
 "sentence" : [
	{
	"id" : 0,
	"reserve_str" : "",
	"text" : "생물체에서 형태와 기능이 비슷한 세포들의 모임을 '조직'이라고 한다.",
	"morp" : [
	],
	"morp_eval" : [
	],
	"WSD" : [
	],
	"word" : [
		{"id" : 0, "text" : "생물체에서", "type" : "", "begin" : 0, "end" : 2},
		{"id" : 1, "text" : "형태와", "type" : "", "begin" : 3, "end" : 4},
		{"id" : 2, "text" : "기능이", "type" : "", "begin" : 5, "end" : 6},
		{"id" : 3, "text" : "비슷한", "type" : "", "begin" : 7, "end" : 8},
		{"id" : 4, "text" : "세포들의", "type" : "", "begin" : 9, "end" : 11},
		{"id" : 5, "text" : "모임을", "type" : "", "begin" : 12, "end" : 13},
		{"id" : 6, "text" : "'조직'이라고", "type" : "", "begin" : 14, "end" : 17},
		{"id" : 7, "text" : "한다.", "type" : "", "begin" : 18, "end" : 20}
	],
	"NE" : [
	],
	"chunk" : [
	],
	"dependency" : [
		{"id" : 0, "text" : "생물체에서", "head" : 6, "label" : "NP_AJT", "mod" : [], "weight" : 0.591776 },
		{"id" : 1, "text" : "형태와", "head" : 2, "label" : "NP_CNJ", "mod" : [], "weight" : 0.771705 },
		{"id" : 2, "text" : "기능이", "head" : 3, "label" : "NP_SBJ", "mod" : [1], "weight" : 0.599402 },
		{"id" : 3, "text" : "비슷한", "head" : 4, "label" : "VP_MOD", "mod" : [2], "weight" : 0.593615 },
		{"id" : 4, "text" : "세포들의", "head" : 5, "label" : "NP_MOD", "mod" : [3], "weight" : 0.849043 },
		{"id" : 5, "text" : "모임을", "head" : 6, "label" : "NP_OBJ", "mod" : [4], "weight" : 0.946858 },
		{"id" : 6, "text" : "'조직'이라고", "head" : 7, "label" : "VNP_CMP", "mod" : [0, 5], "weight" : 0.317946 },
		{"id" : 7, "text" : "한다.", "head" : -1, "label" : "VP", "mod" : [6], "weight" : 0.321347 }
	],
	"phrase_dependency" : [
	],
	"SRL" : [
	],
	"relation" : [
	],
	"SA" : [
	],
	"ZA" : [
	]
	},
	{
	"id" : 1,
	"reserve_str" : "",
	"text" : " 조직에 해당하는 것은 무엇일까?",
	"morp" : [
	],
	"morp_eval" : [
	],
	"WSD" : [
	],
	"word" : [
		{"id" : 0, "text" : "조직에", "type" : "", "begin" : 0, "end" : 1},
		{"id" : 1, "text" : "해당하는", "type" : "", "begin" : 2, "end" : 4},
		{"id" : 2, "text" : "것은", "type" : "", "begin" : 5, "end" : 6},
		{"id" : 3, "text" : "무엇일까?", "type" : "", "begin" : 7, "end" : 10}
	],
	"NE" : [
	],
	"chunk" : [
	],
	"dependency" : [
		{"id" : 0, "text" : "조직에", "head" : 1, "label" : "NP_AJT", "mod" : [], "weight" : 0.812629 },
		{"id" : 1, "text" : "해당하는", "head" : 2, "label" : "VP_MOD", "mod" : [0], "weight" : 0.967543 },
		{"id" : 2, "text" : "것은", "head" : 3, "label" : "NP_SBJ", "mod" : [1], "weight" : 0.680714 },
		{"id" : 3, "text" : "무엇일까?", "head" : -1, "label" : "VNP", "mod" : [2], "weight" : 0.353775 }
	],
	"phrase_dependency" : [
	],
	"SRL" : [
	],
	"relation" : [
	],
	"SA" : [
	],
	"ZA" : [
	]
	}
 ],
 "entity" : [
 ]
}

