{"doc_id" : "",
 "DCT" : "",
 "category" : "",
 "category_weight" : 0,
 "title" : {"text" : "국회의장/ 부의장", "NE" : ""},
 "metaInfo" : { },
 "sentence" : [
	{
	"id" : 0,
	"reserve_str" : "",
	"text" : "우리나라의 초대 국회의장은 이승만이며, 제헌국회(1948. 5. 31~1948. 7. 24) 동안 국회의장직을 맡았다.",
	"morp" : [
	],
	"morp_eval" : [
	],
	"WSD" : [
	],
	"word" : [
		{"id" : 0, "text" : "우리나라의", "type" : "", "begin" : 0, "end" : 1},
		{"id" : 1, "text" : "초대", "type" : "", "begin" : 2, "end" : 2},
		{"id" : 2, "text" : "국회의장은", "type" : "", "begin" : 3, "end" : 5},
		{"id" : 3, "text" : "이승만이며,", "type" : "", "begin" : 6, "end" : 9},
		{"id" : 4, "text" : "제헌국회(1948.", "type" : "", "begin" : 10, "end" : 14},
		{"id" : 5, "text" : "5.", "type" : "", "begin" : 15, "end" : 16},
		{"id" : 6, "text" : "31~1948.", "type" : "", "begin" : 17, "end" : 20},
		{"id" : 7, "text" : "7.", "type" : "", "begin" : 21, "end" : 22},
		{"id" : 8, "text" : "24)", "type" : "", "begin" : 23, "end" : 24},
		{"id" : 9, "text" : "동안", "type" : "", "begin" : 25, "end" : 25},
		{"id" : 10, "text" : "국회의장직을", "type" : "", "begin" : 26, "end" : 29},
		{"id" : 11, "text" : "맡았다.", "type" : "", "begin" : 30, "end" : 33}
	],
	"NE" : [
	],
	"chunk" : [
	],
	"dependency" : [
		{"id" : 0, "text" : "우리나라의", "head" : 2, "label" : "NP_MOD", "mod" : [], "weight" : 0.986875 },
		{"id" : 1, "text" : "초대", "head" : 2, "label" : "NP", "mod" : [], "weight" : 0.743273 },
		{"id" : 2, "text" : "국회의장은", "head" : 3, "label" : "NP_SBJ", "mod" : [0, 1], "weight" : 0.832391 },
		{"id" : 3, "text" : "이승만이며,", "head" : 11, "label" : "VNP", "mod" : [2], "weight" : 0.624252 },
		{"id" : 4, "text" : "제헌국회(1948.", "head" : 5, "label" : "NP", "mod" : [], "weight" : 0.621248 },
		{"id" : 5, "text" : "5.", "head" : 6, "label" : "NP", "mod" : [4], "weight" : 0.396845 },
		{"id" : 6, "text" : "31~1948.", "head" : 7, "label" : "NP", "mod" : [5], "weight" : 0.700847 },
		{"id" : 7, "text" : "7.", "head" : 8, "label" : "NP", "mod" : [6], "weight" : 0.993449 },
		{"id" : 8, "text" : "24)", "head" : 9, "label" : "NP", "mod" : [7], "weight" : 0.646234 },
		{"id" : 9, "text" : "동안", "head" : 11, "label" : "NP_AJT", "mod" : [8], "weight" : 0.448816 },
		{"id" : 10, "text" : "국회의장직을", "head" : 11, "label" : "NP_OBJ", "mod" : [], "weight" : 0.613101 },
		{"id" : 11, "text" : "맡았다.", "head" : -1, "label" : "VP", "mod" : [3, 9, 10], "weight" : 0.914322 }
	],
	"phrase_dependency" : [
	],
	"SRL" : [
	],
	"relation" : [
	],
	"SA" : [
	],
	"ZA" : [
	]
	}
 ],
 "entity" : [
 ]
}

