{"doc_id" : "",
 "DCT" : "",
 "category" : "",
 "category_weight" : 0,
 "title" : {"text" : "차돌박이", "NE" : ""},
 "metaInfo" : { },
 "sentence" : [
	{
	"id" : 0,
	"reserve_str" : "",
	"text" : "차돌박이는 쇠고기의 일종이다.",
	"morp" : [
	],
	"morp_eval" : [
	],
	"WSD" : [
	],
	"word" : [
		{"id" : 0, "text" : "차돌박이는", "type" : "", "begin" : 0, "end" : 2},
		{"id" : 1, "text" : "쇠고기의", "type" : "", "begin" : 3, "end" : 4},
		{"id" : 2, "text" : "일종이다.", "type" : "", "begin" : 5, "end" : 8}
	],
	"NE" : [
	],
	"chunk" : [
	],
	"dependency" : [
		{"id" : 0, "text" : "차돌박이는", "head" : 2, "label" : "NP_SBJ", "mod" : [], "weight" : 0.538949 },
		{"id" : 1, "text" : "쇠고기의", "head" : 2, "label" : "NP_MOD", "mod" : [], "weight" : 0.497537 },
		{"id" : 2, "text" : "일종이다.", "head" : -1, "label" : "VNP", "mod" : [0, 1], "weight" : 0.190326 }
	],
	"phrase_dependency" : [
	],
	"SRL" : [
	],
	"relation" : [
	],
	"SA" : [
	],
	"ZA" : [
	]
	},
	{
	"id" : 1,
	"reserve_str" : "",
	"text" : " 주로 된장찌개에 쓰이거나 얇게 썰어서 구워먹는데, 매우 얇아 익는 속도가 빠른 것이 특징이다.",
	"morp" : [
	],
	"morp_eval" : [
	],
	"WSD" : [
	],
	"word" : [
		{"id" : 0, "text" : "주로", "type" : "", "begin" : 0, "end" : 0},
		{"id" : 1, "text" : "된장찌개에", "type" : "", "begin" : 1, "end" : 3},
		{"id" : 2, "text" : "쓰이거나", "type" : "", "begin" : 4, "end" : 5},
		{"id" : 3, "text" : "얇게", "type" : "", "begin" : 6, "end" : 7},
		{"id" : 4, "text" : "썰어서", "type" : "", "begin" : 8, "end" : 9},
		{"id" : 5, "text" : "구워먹는데,", "type" : "", "begin" : 10, "end" : 14},
		{"id" : 6, "text" : "매우", "type" : "", "begin" : 15, "end" : 15},
		{"id" : 7, "text" : "얇아", "type" : "", "begin" : 16, "end" : 17},
		{"id" : 8, "text" : "익는", "type" : "", "begin" : 18, "end" : 19},
		{"id" : 9, "text" : "속도가", "type" : "", "begin" : 20, "end" : 21},
		{"id" : 10, "text" : "빠른", "type" : "", "begin" : 22, "end" : 23},
		{"id" : 11, "text" : "것이", "type" : "", "begin" : 24, "end" : 25},
		{"id" : 12, "text" : "특징이다.", "type" : "", "begin" : 26, "end" : 29}
	],
	"NE" : [
	],
	"chunk" : [
	],
	"dependency" : [
		{"id" : 0, "text" : "주로", "head" : 2, "label" : "AP", "mod" : [], "weight" : 0.868629 },
		{"id" : 1, "text" : "된장찌개에", "head" : 2, "label" : "NP_AJT", "mod" : [], "weight" : 0.838839 },
		{"id" : 2, "text" : "쓰이거나", "head" : 5, "label" : "VP", "mod" : [0, 1], "weight" : 0.748621 },
		{"id" : 3, "text" : "얇게", "head" : 4, "label" : "VP_AJT", "mod" : [], "weight" : 0.709058 },
		{"id" : 4, "text" : "썰어서", "head" : 5, "label" : "VP", "mod" : [3], "weight" : 0.736479 },
		{"id" : 5, "text" : "구워먹는데,", "head" : 7, "label" : "VP", "mod" : [2, 4], "weight" : 0.520812 },
		{"id" : 6, "text" : "매우", "head" : 7, "label" : "AP", "mod" : [], "weight" : 0.832578 },
		{"id" : 7, "text" : "얇아", "head" : 10, "label" : "VP", "mod" : [5, 6], "weight" : 0.623147 },
		{"id" : 8, "text" : "익는", "head" : 9, "label" : "VP_MOD", "mod" : [], "weight" : 0.771416 },
		{"id" : 9, "text" : "속도가", "head" : 10, "label" : "NP_SBJ", "mod" : [8], "weight" : 0.982869 },
		{"id" : 10, "text" : "빠른", "head" : 11, "label" : "VP_MOD", "mod" : [7, 9], "weight" : 0.894127 },
		{"id" : 11, "text" : "것이", "head" : 12, "label" : "NP_SBJ", "mod" : [10], "weight" : 0.552526 },
		{"id" : 12, "text" : "특징이다.", "head" : -1, "label" : "VNP", "mod" : [11], "weight" : 0.209245 }
	],
	"phrase_dependency" : [
	],
	"SRL" : [
	],
	"relation" : [
	],
	"SA" : [
	],
	"ZA" : [
	]
	}
 ],
 "entity" : [
 ]
}

