{"doc_id" : "",
 "DCT" : "",
 "category" : "",
 "category_weight" : 0,
 "title" : {"text" : "Q3", "NE" : ""},
 "metaInfo" : { },
 "sentence" : [
	{
	"id" : 0,
	"reserve_str" : "",
	"text" : "신라의 국호를 '신라'로 공식 확정한 것은 어느 왕 때일까?",
	"morp" : [
	],
	"morp_eval" : [
	],
	"WSD" : [
	],
	"word" : [
		{"id" : 0, "text" : "신라의", "type" : "", "begin" : 0, "end" : 1},
		{"id" : 1, "text" : "국호를", "type" : "", "begin" : 2, "end" : 3},
		{"id" : 2, "text" : "'신라'로", "type" : "", "begin" : 4, "end" : 7},
		{"id" : 3, "text" : "공식", "type" : "", "begin" : 8, "end" : 8},
		{"id" : 4, "text" : "확정한", "type" : "", "begin" : 9, "end" : 11},
		{"id" : 5, "text" : "것은", "type" : "", "begin" : 12, "end" : 13},
		{"id" : 6, "text" : "어느", "type" : "", "begin" : 14, "end" : 14},
		{"id" : 7, "text" : "왕", "type" : "", "begin" : 15, "end" : 15},
		{"id" : 8, "text" : "때일까?", "type" : "", "begin" : 16, "end" : 19}
	],
	"NE" : [
	],
	"chunk" : [
	],
	"dependency" : [
		{"id" : 0, "text" : "신라의", "head" : 1, "label" : "NP_MOD", "mod" : [], "weight" : 0.853657 },
		{"id" : 1, "text" : "국호를", "head" : 4, "label" : "NP_OBJ", "mod" : [0], "weight" : 0.873644 },
		{"id" : 2, "text" : "'신라'로", "head" : 4, "label" : "NP_AJT", "mod" : [], "weight" : 0.948733 },
		{"id" : 3, "text" : "공식", "head" : 4, "label" : "NP_AJT", "mod" : [], "weight" : 0.516055 },
		{"id" : 4, "text" : "확정한", "head" : 5, "label" : "VP_MOD", "mod" : [1, 2, 3], "weight" : 0.950733 },
		{"id" : 5, "text" : "것은", "head" : 8, "label" : "NP_SBJ", "mod" : [4], "weight" : 0.799623 },
		{"id" : 6, "text" : "어느", "head" : 7, "label" : "DP", "mod" : [], "weight" : 0.617885 },
		{"id" : 7, "text" : "왕", "head" : 8, "label" : "NP", "mod" : [6], "weight" : 0.376677 },
		{"id" : 8, "text" : "때일까?", "head" : -1, "label" : "VNP", "mod" : [5, 7], "weight" : 0.419425 }
	],
	"phrase_dependency" : [
	],
	"SRL" : [
	],
	"relation" : [
	],
	"SA" : [
	],
	"ZA" : [
	]
	}
 ],
 "entity" : [
 ]
}

