{"doc_id" : "",
 "DCT" : "",
 "category" : "",
 "category_weight" : 0,
 "title" : {"text" : "돈화문", "NE" : ""},
 "metaInfo" : { },
 "sentence" : [
	{
	"id" : 0,
	"reserve_str" : "",
	"text" : "창경궁의 정문인 홍화문과 함께 조선 중기에 세워진 창덕궁의 정문으로 중요시된다.",
	"morp" : [
	],
	"morp_eval" : [
	],
	"WSD" : [
	],
	"word" : [
		{"id" : 0, "text" : "창경궁의", "type" : "", "begin" : 0, "end" : 2},
		{"id" : 1, "text" : "정문인", "type" : "", "begin" : 3, "end" : 5},
		{"id" : 2, "text" : "홍화문과", "type" : "", "begin" : 6, "end" : 8},
		{"id" : 3, "text" : "함께", "type" : "", "begin" : 9, "end" : 9},
		{"id" : 4, "text" : "조선", "type" : "", "begin" : 10, "end" : 10},
		{"id" : 5, "text" : "중기에", "type" : "", "begin" : 11, "end" : 12},
		{"id" : 6, "text" : "세워진", "type" : "", "begin" : 13, "end" : 16},
		{"id" : 7, "text" : "창덕궁의", "type" : "", "begin" : 17, "end" : 18},
		{"id" : 8, "text" : "정문으로", "type" : "", "begin" : 19, "end" : 20},
		{"id" : 9, "text" : "중요시된다.", "type" : "", "begin" : 21, "end" : 24}
	],
	"NE" : [
	],
	"chunk" : [
	],
	"dependency" : [
		{"id" : 0, "text" : "창경궁의", "head" : 1, "label" : "NP_MOD", "mod" : [], "weight" : 0.679614 },
		{"id" : 1, "text" : "정문인", "head" : 2, "label" : "VNP_MOD", "mod" : [0], "weight" : 0.701359 },
		{"id" : 2, "text" : "홍화문과", "head" : 3, "label" : "NP_AJT", "mod" : [1], "weight" : 0.629594 },
		{"id" : 3, "text" : "함께", "head" : 6, "label" : "AP", "mod" : [2], "weight" : 0.676581 },
		{"id" : 4, "text" : "조선", "head" : 5, "label" : "NP", "mod" : [], "weight" : 0.871716 },
		{"id" : 5, "text" : "중기에", "head" : 6, "label" : "NP_AJT", "mod" : [4], "weight" : 0.950163 },
		{"id" : 6, "text" : "세워진", "head" : 8, "label" : "VP_MOD", "mod" : [3, 5], "weight" : 0.680279 },
		{"id" : 7, "text" : "창덕궁의", "head" : 8, "label" : "NP_MOD", "mod" : [], "weight" : 0.753349 },
		{"id" : 8, "text" : "정문으로", "head" : 9, "label" : "NP_AJT", "mod" : [6, 7], "weight" : 0.607017 },
		{"id" : 9, "text" : "중요시된다.", "head" : -1, "label" : "VP", "mod" : [8], "weight" : 0.35707 }
	],
	"phrase_dependency" : [
	],
	"SRL" : [
	],
	"relation" : [
	],
	"SA" : [
	],
	"ZA" : [
	]
	}
 ],
 "entity" : [
 ]
}

