{"doc_id" : "",
 "DCT" : "",
 "category" : "",
 "category_weight" : 0,
 "title" : {"text" : "나운규", "NE" : ""},
 "metaInfo" : { },
 "sentence" : [
	{
	"id" : 0,
	"reserve_str" : "",
	"text" : "<인명> 영화감독ㆍ배우(1902~1937).",
	"morp" : [
	],
	"morp_eval" : [
	],
	"WSD" : [
	],
	"word" : [
		{"id" : 0, "text" : "<인명>", "type" : "", "begin" : 0, "end" : 2},
		{"id" : 1, "text" : "영화감독ㆍ배우(1902~1937).", "type" : "", "begin" : 3, "end" : 12}
	],
	"NE" : [
	],
	"chunk" : [
	],
	"dependency" : [
		{"id" : 0, "text" : "<인명>", "head" : 1, "label" : "NP", "mod" : [], "weight" : 0.442158 },
		{"id" : 1, "text" : "영화감독ㆍ배우(1902~1937).", "head" : -1, "label" : "NP", "mod" : [0], "weight" : 0.178772 }
	],
	"phrase_dependency" : [
	],
	"SRL" : [
	],
	"relation" : [
	],
	"SA" : [
	],
	"ZA" : [
	]
	},
	{
	"id" : 1,
	"reserve_str" : "",
	"text" : " 호는 춘사(春史).",
	"morp" : [
	],
	"morp_eval" : [
	],
	"WSD" : [
	],
	"word" : [
		{"id" : 0, "text" : "호는", "type" : "", "begin" : 0, "end" : 1},
		{"id" : 1, "text" : "춘사(春史).", "type" : "", "begin" : 2, "end" : 6}
	],
	"NE" : [
	],
	"chunk" : [
	],
	"dependency" : [
		{"id" : 0, "text" : "호는", "head" : 1, "label" : "NP_SBJ", "mod" : [], "weight" : 0.525974 },
		{"id" : 1, "text" : "춘사(春史).", "head" : -1, "label" : "NP", "mod" : [0], "weight" : 0.262425 }
	],
	"phrase_dependency" : [
	],
	"SRL" : [
	],
	"relation" : [
	],
	"SA" : [
	],
	"ZA" : [
	]
	},
	{
	"id" : 2,
	"reserve_str" : "",
	"text" : " 한국 영화의 선구자로 23세 때부터 영화계에서 활약하였으며, 작품에 <금붕어>, <아리랑>, <벙어리 삼룡이> 따위가 있다.",
	"morp" : [
	],
	"morp_eval" : [
	],
	"WSD" : [
	],
	"word" : [
		{"id" : 0, "text" : "한국", "type" : "", "begin" : 0, "end" : 0},
		{"id" : 1, "text" : "영화의", "type" : "", "begin" : 1, "end" : 2},
		{"id" : 2, "text" : "선구자로", "type" : "", "begin" : 3, "end" : 5},
		{"id" : 3, "text" : "23세", "type" : "", "begin" : 6, "end" : 7},
		{"id" : 4, "text" : "때부터", "type" : "", "begin" : 8, "end" : 9},
		{"id" : 5, "text" : "영화계에서", "type" : "", "begin" : 10, "end" : 12},
		{"id" : 6, "text" : "활약하였으며,", "type" : "", "begin" : 13, "end" : 17},
		{"id" : 7, "text" : "작품에", "type" : "", "begin" : 18, "end" : 19},
		{"id" : 8, "text" : "<금붕어>,", "type" : "", "begin" : 20, "end" : 24},
		{"id" : 9, "text" : "<아리랑>,", "type" : "", "begin" : 25, "end" : 28},
		{"id" : 10, "text" : "<벙어리", "type" : "", "begin" : 29, "end" : 30},
		{"id" : 11, "text" : "삼룡이>", "type" : "", "begin" : 31, "end" : 32},
		{"id" : 12, "text" : "따위가", "type" : "", "begin" : 33, "end" : 34},
		{"id" : 13, "text" : "있다.", "type" : "", "begin" : 35, "end" : 37}
	],
	"NE" : [
	],
	"chunk" : [
	],
	"dependency" : [
		{"id" : 0, "text" : "한국", "head" : 1, "label" : "NP", "mod" : [], "weight" : 0.713137 },
		{"id" : 1, "text" : "영화의", "head" : 2, "label" : "NP_MOD", "mod" : [0], "weight" : 0.973676 },
		{"id" : 2, "text" : "선구자로", "head" : 6, "label" : "NP_AJT", "mod" : [1], "weight" : 0.895489 },
		{"id" : 3, "text" : "23세", "head" : 4, "label" : "NP", "mod" : [], "weight" : 0.948582 },
		{"id" : 4, "text" : "때부터", "head" : 6, "label" : "NP_AJT", "mod" : [3], "weight" : 0.947543 },
		{"id" : 5, "text" : "영화계에서", "head" : 6, "label" : "NP_AJT", "mod" : [], "weight" : 0.793381 },
		{"id" : 6, "text" : "활약하였으며,", "head" : 13, "label" : "VP", "mod" : [2, 4, 5], "weight" : 0.631893 },
		{"id" : 7, "text" : "작품에", "head" : 13, "label" : "NP_AJT", "mod" : [], "weight" : 0.560659 },
		{"id" : 8, "text" : "<금붕어>,", "head" : 11, "label" : "NP_CNJ", "mod" : [], "weight" : 0.647088 },
		{"id" : 9, "text" : "<아리랑>,", "head" : 11, "label" : "NP_CNJ", "mod" : [], "weight" : 0.631216 },
		{"id" : 10, "text" : "<벙어리", "head" : 11, "label" : "NP", "mod" : [], "weight" : 0.693544 },
		{"id" : 11, "text" : "삼룡이>", "head" : 12, "label" : "NP", "mod" : [8, 9, 10], "weight" : 0.671295 },
		{"id" : 12, "text" : "따위가", "head" : 13, "label" : "NP_SBJ", "mod" : [11], "weight" : 0.53588 },
		{"id" : 13, "text" : "있다.", "head" : -1, "label" : "VP", "mod" : [6, 7, 12], "weight" : 0.118809 }
	],
	"phrase_dependency" : [
	],
	"SRL" : [
	],
	"relation" : [
	],
	"SA" : [
	],
	"ZA" : [
	]
	}
 ],
 "entity" : [
 ]
}

