{"doc_id" : "",
 "DCT" : "",
 "category" : "",
 "category_weight" : 0,
 "title" : {"text" : "홍경래", "NE" : ""},
 "metaInfo" : { },
 "sentence" : [
	{
	"id" : 0,
	"reserve_str" : "",
	"text" : "1811년 홍경래는 조선 정부에 대항하는 농민군을 이끌고 반란을 일으켜 매우 잘 방어되는 정주를 비롯하여 서북 지방 상당수를 지배했다.",
	"morp" : [
	],
	"morp_eval" : [
	],
	"WSD" : [
	],
	"word" : [
		{"id" : 0, "text" : "1811년", "type" : "", "begin" : 0, "end" : 1},
		{"id" : 1, "text" : "홍경래는", "type" : "", "begin" : 2, "end" : 3},
		{"id" : 2, "text" : "조선", "type" : "", "begin" : 4, "end" : 4},
		{"id" : 3, "text" : "정부에", "type" : "", "begin" : 5, "end" : 6},
		{"id" : 4, "text" : "대항하는", "type" : "", "begin" : 7, "end" : 9},
		{"id" : 5, "text" : "농민군을", "type" : "", "begin" : 10, "end" : 12},
		{"id" : 6, "text" : "이끌고", "type" : "", "begin" : 13, "end" : 14},
		{"id" : 7, "text" : "반란을", "type" : "", "begin" : 15, "end" : 16},
		{"id" : 8, "text" : "일으켜", "type" : "", "begin" : 17, "end" : 18},
		{"id" : 9, "text" : "매우", "type" : "", "begin" : 19, "end" : 19},
		{"id" : 10, "text" : "잘", "type" : "", "begin" : 20, "end" : 20},
		{"id" : 11, "text" : "방어되는", "type" : "", "begin" : 21, "end" : 23},
		{"id" : 12, "text" : "정주를", "type" : "", "begin" : 24, "end" : 25},
		{"id" : 13, "text" : "비롯하여", "type" : "", "begin" : 26, "end" : 27},
		{"id" : 14, "text" : "서북", "type" : "", "begin" : 28, "end" : 28},
		{"id" : 15, "text" : "지방", "type" : "", "begin" : 29, "end" : 29},
		{"id" : 16, "text" : "상당수를", "type" : "", "begin" : 30, "end" : 32},
		{"id" : 17, "text" : "지배했다.", "type" : "", "begin" : 33, "end" : 37}
	],
	"NE" : [
	],
	"chunk" : [
	],
	"dependency" : [
		{"id" : 0, "text" : "1811년", "head" : 8, "label" : "NP_AJT", "mod" : [], "weight" : 0.977486 },
		{"id" : 1, "text" : "홍경래는", "head" : 6, "label" : "NP_SBJ", "mod" : [], "weight" : 0.612643 },
		{"id" : 2, "text" : "조선", "head" : 3, "label" : "NP", "mod" : [], "weight" : 0.776908 },
		{"id" : 3, "text" : "정부에", "head" : 4, "label" : "NP_AJT", "mod" : [2], "weight" : 0.640829 },
		{"id" : 4, "text" : "대항하는", "head" : 5, "label" : "VP_MOD", "mod" : [3], "weight" : 0.703209 },
		{"id" : 5, "text" : "농민군을", "head" : 6, "label" : "NP_OBJ", "mod" : [4], "weight" : 0.979557 },
		{"id" : 6, "text" : "이끌고", "head" : 8, "label" : "VP", "mod" : [1, 5], "weight" : 0.988807 },
		{"id" : 7, "text" : "반란을", "head" : 8, "label" : "NP_OBJ", "mod" : [], "weight" : 0.715612 },
		{"id" : 8, "text" : "일으켜", "head" : 17, "label" : "VP", "mod" : [0, 6, 7], "weight" : 0.981909 },
		{"id" : 9, "text" : "매우", "head" : 10, "label" : "AP", "mod" : [], "weight" : 0.503791 },
		{"id" : 10, "text" : "잘", "head" : 11, "label" : "AP", "mod" : [9], "weight" : 0.849393 },
		{"id" : 11, "text" : "방어되는", "head" : 12, "label" : "VP_MOD", "mod" : [10], "weight" : 0.789416 },
		{"id" : 12, "text" : "정주를", "head" : 13, "label" : "NP_OBJ", "mod" : [11], "weight" : 0.853716 },
		{"id" : 13, "text" : "비롯하여", "head" : 17, "label" : "VP", "mod" : [12], "weight" : 0.667936 },
		{"id" : 14, "text" : "서북", "head" : 15, "label" : "NP", "mod" : [], "weight" : 0.656507 },
		{"id" : 15, "text" : "지방", "head" : 16, "label" : "NP", "mod" : [14], "weight" : 0.708572 },
		{"id" : 16, "text" : "상당수를", "head" : 17, "label" : "NP_OBJ", "mod" : [15], "weight" : 0.553144 },
		{"id" : 17, "text" : "지배했다.", "head" : -1, "label" : "VP", "mod" : [8, 13, 16], "weight" : 0.527942 }
	],
	"phrase_dependency" : [
	],
	"SRL" : [
	],
	"relation" : [
	],
	"SA" : [
	],
	"ZA" : [
	]
	},
	{
	"id" : 1,
	"reserve_str" : "",
	"text" : " 이를 홍경래의 난이라고 한다.",
	"morp" : [
	],
	"morp_eval" : [
	],
	"WSD" : [
	],
	"word" : [
		{"id" : 0, "text" : "이를", "type" : "", "begin" : 0, "end" : 1},
		{"id" : 1, "text" : "홍경래의", "type" : "", "begin" : 2, "end" : 3},
		{"id" : 2, "text" : "난이라고", "type" : "", "begin" : 4, "end" : 6},
		{"id" : 3, "text" : "한다.", "type" : "", "begin" : 7, "end" : 9}
	],
	"NE" : [
	],
	"chunk" : [
	],
	"dependency" : [
		{"id" : 0, "text" : "이를", "head" : 2, "label" : "NP_OBJ", "mod" : [], "weight" : 0.856086 },
		{"id" : 1, "text" : "홍경래의", "head" : 2, "label" : "NP_MOD", "mod" : [], "weight" : 0.778262 },
		{"id" : 2, "text" : "난이라고", "head" : 3, "label" : "VNP_CMP", "mod" : [0, 1], "weight" : 0.531553 },
		{"id" : 3, "text" : "한다.", "head" : -1, "label" : "VP", "mod" : [2], "weight" : 0.261743 }
	],
	"phrase_dependency" : [
	],
	"SRL" : [
	],
	"relation" : [
	],
	"SA" : [
	],
	"ZA" : [
	]
	},
	{
	"id" : 2,
	"reserve_str" : "",
	"text" : " 세력이 최고조에 이르렀을 때는 청천강 이북을 거의 지배했다.",
	"morp" : [
	],
	"morp_eval" : [
	],
	"WSD" : [
	],
	"word" : [
		{"id" : 0, "text" : "세력이", "type" : "", "begin" : 0, "end" : 1},
		{"id" : 1, "text" : "최고조에", "type" : "", "begin" : 2, "end" : 4},
		{"id" : 2, "text" : "이르렀을", "type" : "", "begin" : 5, "end" : 7},
		{"id" : 3, "text" : "때는", "type" : "", "begin" : 8, "end" : 9},
		{"id" : 4, "text" : "청천강", "type" : "", "begin" : 10, "end" : 11},
		{"id" : 5, "text" : "이북을", "type" : "", "begin" : 12, "end" : 13},
		{"id" : 6, "text" : "거의", "type" : "", "begin" : 14, "end" : 14},
		{"id" : 7, "text" : "지배했다.", "type" : "", "begin" : 15, "end" : 19}
	],
	"NE" : [
	],
	"chunk" : [
	],
	"dependency" : [
		{"id" : 0, "text" : "세력이", "head" : 2, "label" : "NP_SBJ", "mod" : [], "weight" : 0.826815 },
		{"id" : 1, "text" : "최고조에", "head" : 2, "label" : "NP_AJT", "mod" : [], "weight" : 0.926739 },
		{"id" : 2, "text" : "이르렀을", "head" : 3, "label" : "VP_MOD", "mod" : [0, 1], "weight" : 0.994312 },
		{"id" : 3, "text" : "때는", "head" : 7, "label" : "NP_AJT", "mod" : [2], "weight" : 0.745933 },
		{"id" : 4, "text" : "청천강", "head" : 5, "label" : "NP", "mod" : [], "weight" : 0.65344 },
		{"id" : 5, "text" : "이북을", "head" : 7, "label" : "NP_OBJ", "mod" : [4], "weight" : 0.507258 },
		{"id" : 6, "text" : "거의", "head" : 7, "label" : "AP", "mod" : [], "weight" : 0.460711 },
		{"id" : 7, "text" : "지배했다.", "head" : -1, "label" : "VP", "mod" : [3, 5, 6], "weight" : 0.640907 }
	],
	"phrase_dependency" : [
	],
	"SRL" : [
	],
	"relation" : [
	],
	"SA" : [
	],
	"ZA" : [
	]
	}
 ],
 "entity" : [
 ]
}

