{"doc_id" : "",
 "DCT" : "",
 "category" : "",
 "category_weight" : 0,
 "title" : {"text" : "막명악기", "NE" : ""},
 "metaInfo" : { },
 "sentence" : [
	{
	"id" : 0,
	"reserve_str" : "",
	"text" : "유럽에서는 팀파니 ·큰북 ·중북 ·작은북 ·탬버린 등이 대표적인 막명악기이며, 라틴아메리카의 콩가 ·봉고, 중국의 북류, 인도의 타불라 ·므리당가 ·토스, 아라비아의 니카라 ·다라부카, 한국의 장구 ·좌고(座鼓) ·소고(小鼓) ·용고(龍鼓) ·교방고(敎坊鼓) ·진고(晉鼓) 등도 이에 속한다.",
	"morp" : [
	],
	"morp_eval" : [
	],
	"WSD" : [
	],
	"word" : [
		{"id" : 0, "text" : "유럽에서는", "type" : "", "begin" : 0, "end" : 2},
		{"id" : 1, "text" : "팀파니", "type" : "", "begin" : 3, "end" : 3},
		{"id" : 2, "text" : "·큰북", "type" : "", "begin" : 4, "end" : 5},
		{"id" : 3, "text" : "·중북", "type" : "", "begin" : 6, "end" : 7},
		{"id" : 4, "text" : "·작은북", "type" : "", "begin" : 8, "end" : 9},
		{"id" : 5, "text" : "·탬버린", "type" : "", "begin" : 10, "end" : 11},
		{"id" : 6, "text" : "등이", "type" : "", "begin" : 12, "end" : 13},
		{"id" : 7, "text" : "대표적인", "type" : "", "begin" : 14, "end" : 17},
		{"id" : 8, "text" : "막명악기이며,", "type" : "", "begin" : 18, "end" : 22},
		{"id" : 9, "text" : "라틴아메리카의", "type" : "", "begin" : 23, "end" : 25},
		{"id" : 10, "text" : "콩가", "type" : "", "begin" : 26, "end" : 27},
		{"id" : 11, "text" : "·봉고,", "type" : "", "begin" : 28, "end" : 31},
		{"id" : 12, "text" : "중국의", "type" : "", "begin" : 32, "end" : 33},
		{"id" : 13, "text" : "북류,", "type" : "", "begin" : 34, "end" : 35},
		{"id" : 14, "text" : "인도의", "type" : "", "begin" : 36, "end" : 37},
		{"id" : 15, "text" : "타불라", "type" : "", "begin" : 38, "end" : 38},
		{"id" : 16, "text" : "·므리당가", "type" : "", "begin" : 39, "end" : 41},
		{"id" : 17, "text" : "·토스,", "type" : "", "begin" : 42, "end" : 44},
		{"id" : 18, "text" : "아라비아의", "type" : "", "begin" : 45, "end" : 46},
		{"id" : 19, "text" : "니카라", "type" : "", "begin" : 47, "end" : 47},
		{"id" : 20, "text" : "·다라부카,", "type" : "", "begin" : 48, "end" : 50},
		{"id" : 21, "text" : "한국의", "type" : "", "begin" : 51, "end" : 52},
		{"id" : 22, "text" : "장구", "type" : "", "begin" : 53, "end" : 53},
		{"id" : 23, "text" : "·좌고(座鼓)", "type" : "", "begin" : 54, "end" : 58},
		{"id" : 24, "text" : "·소고(小鼓)", "type" : "", "begin" : 59, "end" : 63},
		{"id" : 25, "text" : "·용고(龍鼓)", "type" : "", "begin" : 64, "end" : 68},
		{"id" : 26, "text" : "·교방고(敎坊鼓)", "type" : "", "begin" : 69, "end" : 74},
		{"id" : 27, "text" : "·진고(晉鼓)", "type" : "", "begin" : 75, "end" : 79},
		{"id" : 28, "text" : "등도", "type" : "", "begin" : 80, "end" : 81},
		{"id" : 29, "text" : "이에", "type" : "", "begin" : 82, "end" : 83},
		{"id" : 30, "text" : "속한다.", "type" : "", "begin" : 84, "end" : 86}
	],
	"NE" : [
	],
	"chunk" : [
	],
	"dependency" : [
		{"id" : 0, "text" : "유럽에서는", "head" : 8, "label" : "NP_AJT", "mod" : [], "weight" : 0.664749 },
		{"id" : 1, "text" : "팀파니", "head" : 5, "label" : "NP_CNJ", "mod" : [], "weight" : 0.538187 },
		{"id" : 2, "text" : "·큰북", "head" : 5, "label" : "NP_CNJ", "mod" : [], "weight" : 0.826233 },
		{"id" : 3, "text" : "·중북", "head" : 5, "label" : "NP", "mod" : [], "weight" : 0.893878 },
		{"id" : 4, "text" : "·작은북", "head" : 5, "label" : "NP", "mod" : [], "weight" : 0.812364 },
		{"id" : 5, "text" : "·탬버린", "head" : 6, "label" : "NP", "mod" : [1, 2, 3, 4], "weight" : 0.75929 },
		{"id" : 6, "text" : "등이", "head" : 8, "label" : "NP_SBJ", "mod" : [5], "weight" : 0.912642 },
		{"id" : 7, "text" : "대표적인", "head" : 8, "label" : "VNP_MOD", "mod" : [], "weight" : 0.907522 },
		{"id" : 8, "text" : "막명악기이며,", "head" : 30, "label" : "VNP", "mod" : [0, 6, 7], "weight" : 0.895699 },
		{"id" : 9, "text" : "라틴아메리카의", "head" : 11, "label" : "NP_MOD", "mod" : [], "weight" : 0.904757 },
		{"id" : 10, "text" : "콩가", "head" : 11, "label" : "NP_CNJ", "mod" : [], "weight" : 0.586485 },
		{"id" : 11, "text" : "·봉고,", "head" : 30, "label" : "NP_CNJ", "mod" : [9, 10], "weight" : 0.761606 },
		{"id" : 12, "text" : "중국의", "head" : 13, "label" : "NP_MOD", "mod" : [], "weight" : 0.78098 },
		{"id" : 13, "text" : "북류,", "head" : 27, "label" : "NP_CNJ", "mod" : [12], "weight" : 0.908544 },
		{"id" : 14, "text" : "인도의", "head" : 17, "label" : "NP_MOD", "mod" : [], "weight" : 0.568137 },
		{"id" : 15, "text" : "타불라", "head" : 17, "label" : "NP_CNJ", "mod" : [], "weight" : 0.717794 },
		{"id" : 16, "text" : "·므리당가", "head" : 17, "label" : "NP_CNJ", "mod" : [], "weight" : 0.547434 },
		{"id" : 17, "text" : "·토스,", "head" : 27, "label" : "NP_CNJ", "mod" : [14, 15, 16], "weight" : 0.978645 },
		{"id" : 18, "text" : "아라비아의", "head" : 20, "label" : "NP_MOD", "mod" : [], "weight" : 0.799843 },
		{"id" : 19, "text" : "니카라", "head" : 20, "label" : "NP_CNJ", "mod" : [], "weight" : 0.952968 },
		{"id" : 20, "text" : "·다라부카,", "head" : 27, "label" : "NP_CNJ", "mod" : [18, 19], "weight" : 0.777176 },
		{"id" : 21, "text" : "한국의", "head" : 27, "label" : "NP_MOD", "mod" : [], "weight" : 0.563257 },
		{"id" : 22, "text" : "장구", "head" : 27, "label" : "NP_CNJ", "mod" : [], "weight" : 0.564749 },
		{"id" : 23, "text" : "·좌고(座鼓)", "head" : 27, "label" : "NP_CNJ", "mod" : [], "weight" : 0.781858 },
		{"id" : 24, "text" : "·소고(小鼓)", "head" : 27, "label" : "NP_CNJ", "mod" : [], "weight" : 0.993741 },
		{"id" : 25, "text" : "·용고(龍鼓)", "head" : 27, "label" : "NP_CNJ", "mod" : [], "weight" : 0.833725 },
		{"id" : 26, "text" : "·교방고(敎坊鼓)", "head" : 27, "label" : "NP_CNJ", "mod" : [], "weight" : 0.884114 },
		{"id" : 27, "text" : "·진고(晉鼓)", "head" : 28, "label" : "NP", "mod" : [13, 17, 20, 21, 22, 23, 24, 25, 26], "weight" : 0.83997 },
		{"id" : 28, "text" : "등도", "head" : 30, "label" : "NP_SBJ", "mod" : [27], "weight" : 0.656221 },
		{"id" : 29, "text" : "이에", "head" : 30, "label" : "NP_AJT", "mod" : [], "weight" : 0.497571 },
		{"id" : 30, "text" : "속한다.", "head" : -1, "label" : "VP", "mod" : [8, 11, 28, 29], "weight" : 0.154467 }
	],
	"phrase_dependency" : [
	],
	"SRL" : [
	],
	"relation" : [
	],
	"SA" : [
	],
	"ZA" : [
	]
	}
 ],
 "entity" : [
 ]
}

