{"doc_id" : "",
 "DCT" : "",
 "category" : "",
 "category_weight" : 0,
 "title" : {"text" : "나운규", "NE" : ""},
 "metaInfo" : { },
 "sentence" : [
	{
	"id" : 0,
	"reserve_str" : "",
	"text" : "한국의 영화인.",
	"morp" : [
	],
	"morp_eval" : [
	],
	"WSD" : [
	],
	"word" : [
		{"id" : 0, "text" : "한국의", "type" : "", "begin" : 0, "end" : 1},
		{"id" : 1, "text" : "영화인.", "type" : "", "begin" : 2, "end" : 3}
	],
	"NE" : [
	],
	"chunk" : [
	],
	"dependency" : [
		{"id" : 0, "text" : "한국의", "head" : 1, "label" : "NP_MOD", "mod" : [], "weight" : 0.613277 },
		{"id" : 1, "text" : "영화인.", "head" : -1, "label" : "NP", "mod" : [0], "weight" : 0.330025 }
	],
	"phrase_dependency" : [
	],
	"SRL" : [
	],
	"relation" : [
	],
	"SA" : [
	],
	"ZA" : [
	]
	},
	{
	"id" : 1,
	"reserve_str" : "",
	"text" : " 《아리랑》, 《벙어리 삼룡》, 《오몽녀》등의 영화를 제작하였다.",
	"morp" : [
	],
	"morp_eval" : [
	],
	"WSD" : [
	],
	"word" : [
		{"id" : 0, "text" : "《아리랑》,", "type" : "", "begin" : 0, "end" : 3},
		{"id" : 1, "text" : "《벙어리", "type" : "", "begin" : 4, "end" : 5},
		{"id" : 2, "text" : "삼룡》,", "type" : "", "begin" : 6, "end" : 8},
		{"id" : 3, "text" : "《오몽녀》등의", "type" : "", "begin" : 9, "end" : 13},
		{"id" : 4, "text" : "영화를", "type" : "", "begin" : 14, "end" : 15},
		{"id" : 5, "text" : "제작하였다.", "type" : "", "begin" : 16, "end" : 20}
	],
	"NE" : [
	],
	"chunk" : [
	],
	"dependency" : [
		{"id" : 0, "text" : "《아리랑》,", "head" : 3, "label" : "NP_CNJ", "mod" : [], "weight" : 0.344566 },
		{"id" : 1, "text" : "《벙어리", "head" : 2, "label" : "NP", "mod" : [], "weight" : 0.621271 },
		{"id" : 2, "text" : "삼룡》,", "head" : 3, "label" : "NP_CNJ", "mod" : [1], "weight" : 0.54793 },
		{"id" : 3, "text" : "《오몽녀》등의", "head" : 4, "label" : "NP_MOD", "mod" : [0, 2], "weight" : 0.8057 },
		{"id" : 4, "text" : "영화를", "head" : 5, "label" : "NP_OBJ", "mod" : [3], "weight" : 0.531251 },
		{"id" : 5, "text" : "제작하였다.", "head" : -1, "label" : "VP", "mod" : [4], "weight" : 0.382167 }
	],
	"phrase_dependency" : [
	],
	"SRL" : [
	],
	"relation" : [
	],
	"SA" : [
	],
	"ZA" : [
	]
	}
 ],
 "entity" : [
 ]
}

