{"doc_id" : "",
 "DCT" : "",
 "category" : "",
 "category_weight" : 0,
 "title" : {"text" : "원산학사", "NE" : ""},
 "metaInfo" : { },
 "sentence" : [
	{
	"id" : 0,
	"reserve_str" : "",
	"text" : "<역사> 조선 시대에, 원산에 세워진 근대식 사립 학교.",
	"morp" : [
	],
	"morp_eval" : [
	],
	"WSD" : [
	],
	"word" : [
		{"id" : 0, "text" : "<역사>", "type" : "", "begin" : 0, "end" : 2},
		{"id" : 1, "text" : "조선", "type" : "", "begin" : 3, "end" : 3},
		{"id" : 2, "text" : "시대에,", "type" : "", "begin" : 4, "end" : 6},
		{"id" : 3, "text" : "원산에", "type" : "", "begin" : 7, "end" : 8},
		{"id" : 4, "text" : "세워진", "type" : "", "begin" : 9, "end" : 12},
		{"id" : 5, "text" : "근대식", "type" : "", "begin" : 13, "end" : 13},
		{"id" : 6, "text" : "사립", "type" : "", "begin" : 14, "end" : 14},
		{"id" : 7, "text" : "학교.", "type" : "", "begin" : 15, "end" : 16}
	],
	"NE" : [
	],
	"chunk" : [
	],
	"dependency" : [
		{"id" : 0, "text" : "<역사>", "head" : 7, "label" : "NP", "mod" : [], "weight" : 0.671669 },
		{"id" : 1, "text" : "조선", "head" : 2, "label" : "NP", "mod" : [], "weight" : 0.631647 },
		{"id" : 2, "text" : "시대에,", "head" : 4, "label" : "NP_AJT", "mod" : [1], "weight" : 0.555788 },
		{"id" : 3, "text" : "원산에", "head" : 4, "label" : "NP_AJT", "mod" : [], "weight" : 0.686117 },
		{"id" : 4, "text" : "세워진", "head" : 7, "label" : "VP_MOD", "mod" : [2, 3], "weight" : 0.716187 },
		{"id" : 5, "text" : "근대식", "head" : 7, "label" : "NP", "mod" : [], "weight" : 0.640531 },
		{"id" : 6, "text" : "사립", "head" : 7, "label" : "NP", "mod" : [], "weight" : 0.366392 },
		{"id" : 7, "text" : "학교.", "head" : -1, "label" : "NP", "mod" : [0, 4, 5, 6], "weight" : 0.128042 }
	],
	"phrase_dependency" : [
	],
	"SRL" : [
	],
	"relation" : [
	],
	"SA" : [
	],
	"ZA" : [
	]
	},
	{
	"id" : 1,
	"reserve_str" : "",
	"text" : " 고종 20년(1883)에 덕원 주민들의 요청으로 덕원 부사 정현석(鄭顯奭)이 설립한 것이다.",
	"morp" : [
	],
	"morp_eval" : [
	],
	"WSD" : [
	],
	"word" : [
		{"id" : 0, "text" : "고종", "type" : "", "begin" : 0, "end" : 0},
		{"id" : 1, "text" : "20년(1883)에", "type" : "", "begin" : 1, "end" : 6},
		{"id" : 2, "text" : "덕원", "type" : "", "begin" : 7, "end" : 7},
		{"id" : 3, "text" : "주민들의", "type" : "", "begin" : 8, "end" : 10},
		{"id" : 4, "text" : "요청으로", "type" : "", "begin" : 11, "end" : 12},
		{"id" : 5, "text" : "덕원", "type" : "", "begin" : 13, "end" : 13},
		{"id" : 6, "text" : "부사", "type" : "", "begin" : 14, "end" : 14},
		{"id" : 7, "text" : "정현석(鄭顯奭)이", "type" : "", "begin" : 15, "end" : 19},
		{"id" : 8, "text" : "설립한", "type" : "", "begin" : 20, "end" : 22},
		{"id" : 9, "text" : "것이다.", "type" : "", "begin" : 23, "end" : 26}
	],
	"NE" : [
	],
	"chunk" : [
	],
	"dependency" : [
		{"id" : 0, "text" : "고종", "head" : 1, "label" : "NP", "mod" : [], "weight" : 0.787944 },
		{"id" : 1, "text" : "20년(1883)에", "head" : 8, "label" : "NP_AJT", "mod" : [0], "weight" : 0.674962 },
		{"id" : 2, "text" : "덕원", "head" : 3, "label" : "NP", "mod" : [], "weight" : 0.725547 },
		{"id" : 3, "text" : "주민들의", "head" : 4, "label" : "NP_MOD", "mod" : [2], "weight" : 0.990201 },
		{"id" : 4, "text" : "요청으로", "head" : 8, "label" : "NP_AJT", "mod" : [3], "weight" : 0.680314 },
		{"id" : 5, "text" : "덕원", "head" : 6, "label" : "NP", "mod" : [], "weight" : 0.59209 },
		{"id" : 6, "text" : "부사", "head" : 7, "label" : "NP", "mod" : [5], "weight" : 0.856342 },
		{"id" : 7, "text" : "정현석(鄭顯奭)이", "head" : 8, "label" : "NP_SBJ", "mod" : [6], "weight" : 0.519291 },
		{"id" : 8, "text" : "설립한", "head" : 9, "label" : "VP_MOD", "mod" : [1, 4, 7], "weight" : 0.549004 },
		{"id" : 9, "text" : "것이다.", "head" : -1, "label" : "VNP", "mod" : [8], "weight" : 0.256536 }
	],
	"phrase_dependency" : [
	],
	"SRL" : [
	],
	"relation" : [
	],
	"SA" : [
	],
	"ZA" : [
	]
	}
 ],
 "entity" : [
 ]
}

