{"doc_id" : "",
 "DCT" : "",
 "category" : "",
 "category_weight" : 0,
 "title" : {"text" : "Q27", "NE" : ""},
 "metaInfo" : { },
 "sentence" : [
	{
	"id" : 0,
	"reserve_str" : "",
	"text" : "설화 <김현감호>는 탑돌이를 하다 부부의 연을 맺게 된 김현이 후에 아내의 정체가 이 동물인 것을 알게 되는 내용을 담고 있다.",
	"morp" : [
	],
	"morp_eval" : [
	],
	"WSD" : [
	],
	"word" : [
		{"id" : 0, "text" : "설화", "type" : "", "begin" : 0, "end" : 0},
		{"id" : 1, "text" : "<김현감호>는", "type" : "", "begin" : 1, "end" : 4},
		{"id" : 2, "text" : "탑돌이를", "type" : "", "begin" : 5, "end" : 6},
		{"id" : 3, "text" : "하다", "type" : "", "begin" : 7, "end" : 8},
		{"id" : 4, "text" : "부부의", "type" : "", "begin" : 9, "end" : 10},
		{"id" : 5, "text" : "연을", "type" : "", "begin" : 11, "end" : 12},
		{"id" : 6, "text" : "맺게", "type" : "", "begin" : 13, "end" : 14},
		{"id" : 7, "text" : "된", "type" : "", "begin" : 15, "end" : 16},
		{"id" : 8, "text" : "김현이", "type" : "", "begin" : 17, "end" : 18},
		{"id" : 9, "text" : "후에", "type" : "", "begin" : 19, "end" : 20},
		{"id" : 10, "text" : "아내의", "type" : "", "begin" : 21, "end" : 22},
		{"id" : 11, "text" : "정체가", "type" : "", "begin" : 23, "end" : 24},
		{"id" : 12, "text" : "이", "type" : "", "begin" : 25, "end" : 25},
		{"id" : 13, "text" : "동물인", "type" : "", "begin" : 26, "end" : 28},
		{"id" : 14, "text" : "것을", "type" : "", "begin" : 29, "end" : 30},
		{"id" : 15, "text" : "알게", "type" : "", "begin" : 31, "end" : 32},
		{"id" : 16, "text" : "되는", "type" : "", "begin" : 33, "end" : 34},
		{"id" : 17, "text" : "내용을", "type" : "", "begin" : 35, "end" : 36},
		{"id" : 18, "text" : "담고", "type" : "", "begin" : 37, "end" : 38},
		{"id" : 19, "text" : "있다.", "type" : "", "begin" : 39, "end" : 41}
	],
	"NE" : [
	],
	"chunk" : [
	],
	"dependency" : [
		{"id" : 0, "text" : "설화", "head" : 1, "label" : "NP", "mod" : [], "weight" : 0.750968 },
		{"id" : 1, "text" : "<김현감호>는", "head" : 18, "label" : "NP_SBJ", "mod" : [0], "weight" : 0.722835 },
		{"id" : 2, "text" : "탑돌이를", "head" : 3, "label" : "NP_OBJ", "mod" : [], "weight" : 0.828238 },
		{"id" : 3, "text" : "하다", "head" : 6, "label" : "VP", "mod" : [2], "weight" : 0.589175 },
		{"id" : 4, "text" : "부부의", "head" : 5, "label" : "NP_MOD", "mod" : [], "weight" : 0.737252 },
		{"id" : 5, "text" : "연을", "head" : 6, "label" : "NP_OBJ", "mod" : [4], "weight" : 0.852579 },
		{"id" : 6, "text" : "맺게", "head" : 7, "label" : "VP", "mod" : [3, 5], "weight" : 0.971028 },
		{"id" : 7, "text" : "된", "head" : 8, "label" : "VP_MOD", "mod" : [6], "weight" : 0.903033 },
		{"id" : 8, "text" : "김현이", "head" : 15, "label" : "NP_SBJ", "mod" : [7], "weight" : 0.757608 },
		{"id" : 9, "text" : "후에", "head" : 15, "label" : "NP_AJT", "mod" : [], "weight" : 0.697643 },
		{"id" : 10, "text" : "아내의", "head" : 11, "label" : "NP_MOD", "mod" : [], "weight" : 0.852934 },
		{"id" : 11, "text" : "정체가", "head" : 13, "label" : "NP_SBJ", "mod" : [10], "weight" : 0.556412 },
		{"id" : 12, "text" : "이", "head" : 13, "label" : "DP", "mod" : [], "weight" : 0.636023 },
		{"id" : 13, "text" : "동물인", "head" : 14, "label" : "VNP_MOD", "mod" : [11, 12], "weight" : 0.89579 },
		{"id" : 14, "text" : "것을", "head" : 15, "label" : "NP_OBJ", "mod" : [13], "weight" : 0.741005 },
		{"id" : 15, "text" : "알게", "head" : 16, "label" : "VP", "mod" : [8, 9, 14], "weight" : 0.788396 },
		{"id" : 16, "text" : "되는", "head" : 17, "label" : "VP_MOD", "mod" : [15], "weight" : 0.747467 },
		{"id" : 17, "text" : "내용을", "head" : 18, "label" : "NP_OBJ", "mod" : [16], "weight" : 0.654514 },
		{"id" : 18, "text" : "담고", "head" : 19, "label" : "VP", "mod" : [1, 17], "weight" : 0.632549 },
		{"id" : 19, "text" : "있다.", "head" : -1, "label" : "VP", "mod" : [18], "weight" : 0.309766 }
	],
	"phrase_dependency" : [
	],
	"SRL" : [
	],
	"relation" : [
	],
	"SA" : [
	],
	"ZA" : [
	]
	},
	{
	"id" : 1,
	"reserve_str" : "",
	"text" : " 이 동물은 무엇일까?",
	"morp" : [
	],
	"morp_eval" : [
	],
	"WSD" : [
	],
	"word" : [
		{"id" : 0, "text" : "이", "type" : "", "begin" : 0, "end" : 0},
		{"id" : 1, "text" : "동물은", "type" : "", "begin" : 1, "end" : 2},
		{"id" : 2, "text" : "무엇일까?", "type" : "", "begin" : 3, "end" : 6}
	],
	"NE" : [
	],
	"chunk" : [
	],
	"dependency" : [
		{"id" : 0, "text" : "이", "head" : 1, "label" : "DP", "mod" : [], "weight" : 0.79152 },
		{"id" : 1, "text" : "동물은", "head" : 2, "label" : "NP_SBJ", "mod" : [0], "weight" : 0.739398 },
		{"id" : 2, "text" : "무엇일까?", "head" : -1, "label" : "VNP", "mod" : [1], "weight" : 0.415997 }
	],
	"phrase_dependency" : [
	],
	"SRL" : [
	],
	"relation" : [
	],
	"SA" : [
	],
	"ZA" : [
	]
	}
 ],
 "entity" : [
 ]
}

