{"doc_id" : "",
 "DCT" : "",
 "category" : "",
 "category_weight" : 0,
 "title" : {"text" : "니켈", "NE" : ""},
 "metaInfo" : { },
 "sentence" : [
	{
	"id" : 0,
	"reserve_str" : "",
	"text" : "니켈(←영어: nickel 니컬, 독일어: Nickel 니클)은 화학 원소로 기호는 Ni(←라틴어: niccolum 니콜룸)이고 원자 번호는 28이다.",
	"morp" : [
	],
	"morp_eval" : [
	],
	"WSD" : [
	],
	"word" : [
		{"id" : 0, "text" : "니켈(←영어:", "type" : "", "begin" : 0, "end" : 4},
		{"id" : 1, "text" : "nickel", "type" : "", "begin" : 5, "end" : 5},
		{"id" : 2, "text" : "니컬,", "type" : "", "begin" : 6, "end" : 7},
		{"id" : 3, "text" : "독일어:", "type" : "", "begin" : 8, "end" : 10},
		{"id" : 4, "text" : "Nickel", "type" : "", "begin" : 11, "end" : 11},
		{"id" : 5, "text" : "니클)은", "type" : "", "begin" : 12, "end" : 14},
		{"id" : 6, "text" : "화학", "type" : "", "begin" : 15, "end" : 15},
		{"id" : 7, "text" : "원소로", "type" : "", "begin" : 16, "end" : 17},
		{"id" : 8, "text" : "기호는", "type" : "", "begin" : 18, "end" : 19},
		{"id" : 9, "text" : "Ni(←라틴어:", "type" : "", "begin" : 20, "end" : 25},
		{"id" : 10, "text" : "niccolum", "type" : "", "begin" : 26, "end" : 26},
		{"id" : 11, "text" : "니콜룸)이고", "type" : "", "begin" : 27, "end" : 30},
		{"id" : 12, "text" : "원자", "type" : "", "begin" : 31, "end" : 31},
		{"id" : 13, "text" : "번호는", "type" : "", "begin" : 32, "end" : 33},
		{"id" : 14, "text" : "28이다.", "type" : "", "begin" : 34, "end" : 37}
	],
	"NE" : [
	],
	"chunk" : [
	],
	"dependency" : [
		{"id" : 0, "text" : "니켈(←영어:", "head" : 2, "label" : "NP", "mod" : [], "weight" : 0.616665 },
		{"id" : 1, "text" : "nickel", "head" : 2, "label" : "NP", "mod" : [], "weight" : 0.580661 },
		{"id" : 2, "text" : "니컬,", "head" : 5, "label" : "NP_CNJ", "mod" : [0, 1], "weight" : 0.556426 },
		{"id" : 3, "text" : "독일어:", "head" : 5, "label" : "NP", "mod" : [], "weight" : 0.787285 },
		{"id" : 4, "text" : "Nickel", "head" : 5, "label" : "NP", "mod" : [], "weight" : 0.88878 },
		{"id" : 5, "text" : "니클)은", "head" : 7, "label" : "NP_SBJ", "mod" : [2, 3, 4], "weight" : 0.921798 },
		{"id" : 6, "text" : "화학", "head" : 7, "label" : "NP", "mod" : [], "weight" : 0.940851 },
		{"id" : 7, "text" : "원소로", "head" : 11, "label" : "NP_AJT", "mod" : [5, 6], "weight" : 0.85094 },
		{"id" : 8, "text" : "기호는", "head" : 9, "label" : "NP_SBJ", "mod" : [], "weight" : 0.63833 },
		{"id" : 9, "text" : "Ni(←라틴어:", "head" : 11, "label" : "NP", "mod" : [8], "weight" : 0.461336 },
		{"id" : 10, "text" : "niccolum", "head" : 11, "label" : "NP", "mod" : [], "weight" : 0.424984 },
		{"id" : 11, "text" : "니콜룸)이고", "head" : 14, "label" : "VNP", "mod" : [7, 9, 10], "weight" : 0.560045 },
		{"id" : 12, "text" : "원자", "head" : 13, "label" : "NP", "mod" : [], "weight" : 0.992342 },
		{"id" : 13, "text" : "번호는", "head" : 14, "label" : "NP_SBJ", "mod" : [12], "weight" : 0.542288 },
		{"id" : 14, "text" : "28이다.", "head" : -1, "label" : "VNP", "mod" : [11, 13], "weight" : 0.273739 }
	],
	"phrase_dependency" : [
	],
	"SRL" : [
	],
	"relation" : [
	],
	"SA" : [
	],
	"ZA" : [
	]
	}
 ],
 "entity" : [
 ]
}

