{"doc_id" : "",
 "DCT" : "",
 "category" : "",
 "category_weight" : 0,
 "title" : {"text" : "나운규", "NE" : ""},
 "metaInfo" : { },
 "sentence" : [
	{
	"id" : 0,
	"reserve_str" : "",
	"text" : "1926년에는 무성 영화인 《아리랑》을 제작함으로써 대한민국 영화계의 선구자로 등장하게 되었다.",
	"morp" : [
	],
	"morp_eval" : [
	],
	"WSD" : [
	],
	"word" : [
		{"id" : 0, "text" : "1926년에는", "type" : "", "begin" : 0, "end" : 3},
		{"id" : 1, "text" : "무성", "type" : "", "begin" : 4, "end" : 4},
		{"id" : 2, "text" : "영화인", "type" : "", "begin" : 5, "end" : 7},
		{"id" : 3, "text" : "《아리랑》을", "type" : "", "begin" : 8, "end" : 11},
		{"id" : 4, "text" : "제작함으로써", "type" : "", "begin" : 12, "end" : 15},
		{"id" : 5, "text" : "대한민국", "type" : "", "begin" : 16, "end" : 16},
		{"id" : 6, "text" : "영화계의", "type" : "", "begin" : 17, "end" : 19},
		{"id" : 7, "text" : "선구자로", "type" : "", "begin" : 20, "end" : 22},
		{"id" : 8, "text" : "등장하게", "type" : "", "begin" : 23, "end" : 25},
		{"id" : 9, "text" : "되었다.", "type" : "", "begin" : 26, "end" : 29}
	],
	"NE" : [
	],
	"chunk" : [
	],
	"dependency" : [
		{"id" : 0, "text" : "1926년에는", "head" : 4, "label" : "NP_AJT", "mod" : [], "weight" : 0.78854 },
		{"id" : 1, "text" : "무성", "head" : 2, "label" : "NP", "mod" : [], "weight" : 0.672068 },
		{"id" : 2, "text" : "영화인", "head" : 3, "label" : "VNP_MOD", "mod" : [1], "weight" : 0.923975 },
		{"id" : 3, "text" : "《아리랑》을", "head" : 4, "label" : "NP_OBJ", "mod" : [2], "weight" : 0.777715 },
		{"id" : 4, "text" : "제작함으로써", "head" : 8, "label" : "VP_AJT", "mod" : [0, 3], "weight" : 0.871672 },
		{"id" : 5, "text" : "대한민국", "head" : 6, "label" : "NP", "mod" : [], "weight" : 0.673003 },
		{"id" : 6, "text" : "영화계의", "head" : 7, "label" : "NP_MOD", "mod" : [5], "weight" : 0.846955 },
		{"id" : 7, "text" : "선구자로", "head" : 8, "label" : "NP_AJT", "mod" : [6], "weight" : 0.997928 },
		{"id" : 8, "text" : "등장하게", "head" : 9, "label" : "VP", "mod" : [4, 7], "weight" : 0.54696 },
		{"id" : 9, "text" : "되었다.", "head" : -1, "label" : "VP", "mod" : [8], "weight" : 0.814071 }
	],
	"phrase_dependency" : [
	],
	"SRL" : [
	],
	"relation" : [
	],
	"SA" : [
	],
	"ZA" : [
	]
	}
 ],
 "entity" : [
 ]
}

