{"doc_id" : "",
 "DCT" : "",
 "category" : "",
 "category_weight" : 0,
 "title" : {"text" : "반성유전", "NE" : ""},
 "metaInfo" : { },
 "sentence" : [
	{
	"id" : 0,
	"reserve_str" : "",
	"text" : "사람의 경우 색맹과 혈우병의 유전이 가장 대표적이며, 초파리의 눈 색깔 유전 등이 그 예다.",
	"morp" : [
	],
	"morp_eval" : [
	],
	"WSD" : [
	],
	"word" : [
		{"id" : 0, "text" : "사람의", "type" : "", "begin" : 0, "end" : 1},
		{"id" : 1, "text" : "경우", "type" : "", "begin" : 2, "end" : 2},
		{"id" : 2, "text" : "색맹과", "type" : "", "begin" : 3, "end" : 4},
		{"id" : 3, "text" : "혈우병의", "type" : "", "begin" : 5, "end" : 7},
		{"id" : 4, "text" : "유전이", "type" : "", "begin" : 8, "end" : 9},
		{"id" : 5, "text" : "가장", "type" : "", "begin" : 10, "end" : 10},
		{"id" : 6, "text" : "대표적이며,", "type" : "", "begin" : 11, "end" : 15},
		{"id" : 7, "text" : "초파리의", "type" : "", "begin" : 16, "end" : 18},
		{"id" : 8, "text" : "눈", "type" : "", "begin" : 19, "end" : 19},
		{"id" : 9, "text" : "색깔", "type" : "", "begin" : 20, "end" : 20},
		{"id" : 10, "text" : "유전", "type" : "", "begin" : 21, "end" : 21},
		{"id" : 11, "text" : "등이", "type" : "", "begin" : 22, "end" : 23},
		{"id" : 12, "text" : "그", "type" : "", "begin" : 24, "end" : 24},
		{"id" : 13, "text" : "예다.", "type" : "", "begin" : 25, "end" : 28}
	],
	"NE" : [
	],
	"chunk" : [
	],
	"dependency" : [
		{"id" : 0, "text" : "사람의", "head" : 1, "label" : "NP_MOD", "mod" : [], "weight" : 0.827294 },
		{"id" : 1, "text" : "경우", "head" : 6, "label" : "NP_AJT", "mod" : [0], "weight" : 0.522446 },
		{"id" : 2, "text" : "색맹과", "head" : 3, "label" : "NP_CNJ", "mod" : [], "weight" : 0.546233 },
		{"id" : 3, "text" : "혈우병의", "head" : 4, "label" : "NP_MOD", "mod" : [2], "weight" : 0.718578 },
		{"id" : 4, "text" : "유전이", "head" : 6, "label" : "NP_SBJ", "mod" : [3], "weight" : 0.729408 },
		{"id" : 5, "text" : "가장", "head" : 6, "label" : "AP", "mod" : [], "weight" : 0.749402 },
		{"id" : 6, "text" : "대표적이며,", "head" : 13, "label" : "VNP", "mod" : [1, 4, 5], "weight" : 0.519038 },
		{"id" : 7, "text" : "초파리의", "head" : 8, "label" : "NP_MOD", "mod" : [], "weight" : 0.514488 },
		{"id" : 8, "text" : "눈", "head" : 9, "label" : "NP", "mod" : [7], "weight" : 0.504935 },
		{"id" : 9, "text" : "색깔", "head" : 10, "label" : "NP", "mod" : [8], "weight" : 0.857064 },
		{"id" : 10, "text" : "유전", "head" : 11, "label" : "NP", "mod" : [9], "weight" : 0.652561 },
		{"id" : 11, "text" : "등이", "head" : 13, "label" : "NP_SBJ", "mod" : [10], "weight" : 0.616526 },
		{"id" : 12, "text" : "그", "head" : 13, "label" : "DP", "mod" : [], "weight" : 0.382747 },
		{"id" : 13, "text" : "예다.", "head" : -1, "label" : "VNP", "mod" : [6, 11, 12], "weight" : 0.124371 }
	],
	"phrase_dependency" : [
	],
	"SRL" : [
	],
	"relation" : [
	],
	"SA" : [
	],
	"ZA" : [
	]
	}
 ],
 "entity" : [
 ]
}

