{"doc_id" : "",
 "DCT" : "",
 "category" : "",
 "category_weight" : 0,
 "title" : {"text" : "해동역사", "NE" : ""},
 "metaInfo" : { },
 "sentence" : [
	{
	"id" : 0,
	"reserve_str" : "",
	"text" : "조선후기 실학자 한치윤(韓致奫)이 단군조선으로부터 고려시대까지의 역사를 서술한 책.",
	"morp" : [
	],
	"morp_eval" : [
	],
	"WSD" : [
	],
	"word" : [
		{"id" : 0, "text" : "조선후기", "type" : "", "begin" : 0, "end" : 1},
		{"id" : 1, "text" : "실학자", "type" : "", "begin" : 2, "end" : 3},
		{"id" : 2, "text" : "한치윤(韓致奫)이", "type" : "", "begin" : 4, "end" : 8},
		{"id" : 3, "text" : "단군조선으로부터", "type" : "", "begin" : 9, "end" : 11},
		{"id" : 4, "text" : "고려시대까지의", "type" : "", "begin" : 12, "end" : 15},
		{"id" : 5, "text" : "역사를", "type" : "", "begin" : 16, "end" : 17},
		{"id" : 6, "text" : "서술한", "type" : "", "begin" : 18, "end" : 20},
		{"id" : 7, "text" : "책.", "type" : "", "begin" : 21, "end" : 22}
	],
	"NE" : [
	],
	"chunk" : [
	],
	"dependency" : [
		{"id" : 0, "text" : "조선후기", "head" : 1, "label" : "NP", "mod" : [], "weight" : 0.695845 },
		{"id" : 1, "text" : "실학자", "head" : 2, "label" : "NP", "mod" : [0], "weight" : 0.776049 },
		{"id" : 2, "text" : "한치윤(韓致奫)이", "head" : 6, "label" : "NP_SBJ", "mod" : [1], "weight" : 0.639254 },
		{"id" : 3, "text" : "단군조선으로부터", "head" : 4, "label" : "NP_AJT", "mod" : [], "weight" : 0.740432 },
		{"id" : 4, "text" : "고려시대까지의", "head" : 5, "label" : "NP_MOD", "mod" : [3], "weight" : 0.913805 },
		{"id" : 5, "text" : "역사를", "head" : 6, "label" : "NP_OBJ", "mod" : [4], "weight" : 0.856189 },
		{"id" : 6, "text" : "서술한", "head" : 7, "label" : "VP_MOD", "mod" : [2, 5], "weight" : 0.601152 },
		{"id" : 7, "text" : "책.", "head" : -1, "label" : "NP", "mod" : [6], "weight" : 0.730143 }
	],
	"phrase_dependency" : [
	],
	"SRL" : [
	],
	"relation" : [
	],
	"SA" : [
	],
	"ZA" : [
	]
	}
 ],
 "entity" : [
 ]
}

