{"doc_id" : "933.022_A.02",
 "DCT" : "",
 "category" : "",
 "category_weight" : 0,
 "title" : {"text" : "차례", "NE" : ""},
 "metaInfo" : { },
 "sentence" : [
	{
	"id" : 0,
	"reserve_str" : "",
	"text" : "차례",
	"morp" : [
	],
	"morp_eval" : [
	],
	"WSD" : [
	],
	"word" : [
		{"id" : 0, "text" : "차례", "type" : "", "begin" : 0, "end" : 0}
	],
	"NE" : [
	],
	"chunk" : [
	],
	"dependency" : [
		{"id" : 0, "text" : "차례", "head" : -1, "label" : "NP", "mod" : [], "weight" : 0.556537 }
	],
	"phrase_dependency" : [
	],
	"SRL" : [
	],
	"relation" : [
	],
	"SA" : [
	],
	"ZA" : [
	]
	}
 ],
 "entity" : [
 ]
}

