{"doc_id" : "933.002_Q.01",
 "DCT" : "",
 "category" : "",
 "category_weight" : 0,
 "title" : {"text" : "Q2", "NE" : ""},
 "metaInfo" : { },
 "sentence" : [
	{
	"id" : 0,
	"reserve_str" : "",
	"text" : "이 강은 태백산맥에서 시작해 서해로 흘러드는 강이다.",
	"morp" : [
	],
	"morp_eval" : [
	],
	"WSD" : [
	],
	"word" : [
		{"id" : 0, "text" : "이", "type" : "", "begin" : 0, "end" : 0},
		{"id" : 1, "text" : "강은", "type" : "", "begin" : 1, "end" : 2},
		{"id" : 2, "text" : "태백산맥에서", "type" : "", "begin" : 3, "end" : 5},
		{"id" : 3, "text" : "시작해", "type" : "", "begin" : 6, "end" : 8},
		{"id" : 4, "text" : "서해로", "type" : "", "begin" : 9, "end" : 10},
		{"id" : 5, "text" : "흘러드는", "type" : "", "begin" : 11, "end" : 12},
		{"id" : 6, "text" : "강이다.", "type" : "", "begin" : 13, "end" : 16}
	],
	"NE" : [
	],
	"chunk" : [
	],
	"dependency" : [
		{"id" : 0, "text" : "이", "head" : 1, "label" : "DP", "mod" : [], "weight" : 0.905673 },
		{"id" : 1, "text" : "강은", "head" : 3, "label" : "NP_SBJ", "mod" : [0], "weight" : 0.673641 },
		{"id" : 2, "text" : "태백산맥에서", "head" : 3, "label" : "NP_AJT", "mod" : [], "weight" : 0.806029 },
		{"id" : 3, "text" : "시작해", "head" : 5, "label" : "VP", "mod" : [1, 2], "weight" : 0.524262 },
		{"id" : 4, "text" : "서해로", "head" : 5, "label" : "NP_AJT", "mod" : [], "weight" : 0.412309 },
		{"id" : 5, "text" : "흘러드는", "head" : 6, "label" : "VP_MOD", "mod" : [3, 4], "weight" : 0.542013 },
		{"id" : 6, "text" : "강이다.", "head" : -1, "label" : "VNP", "mod" : [5], "weight" : 0.430347 }
	],
	"phrase_dependency" : [
	],
	"SRL" : [
	],
	"relation" : [
	],
	"SA" : [
	],
	"ZA" : [
	]
	},
	{
	"id" : 1,
	"reserve_str" : "",
	"text" : "남한에서 두 번째로 긴 강이며, 서울을 남과 북으로 나누는 이 강은 무엇일까?",
	"morp" : [
	],
	"morp_eval" : [
	],
	"WSD" : [
	],
	"word" : [
		{"id" : 0, "text" : "남한에서", "type" : "", "begin" : 0, "end" : 1},
		{"id" : 1, "text" : "두", "type" : "", "begin" : 2, "end" : 2},
		{"id" : 2, "text" : "번째로", "type" : "", "begin" : 3, "end" : 5},
		{"id" : 3, "text" : "긴", "type" : "", "begin" : 6, "end" : 7},
		{"id" : 4, "text" : "강이며,", "type" : "", "begin" : 8, "end" : 11},
		{"id" : 5, "text" : "서울을", "type" : "", "begin" : 12, "end" : 13},
		{"id" : 6, "text" : "남과", "type" : "", "begin" : 14, "end" : 15},
		{"id" : 7, "text" : "북으로", "type" : "", "begin" : 16, "end" : 17},
		{"id" : 8, "text" : "나누는", "type" : "", "begin" : 18, "end" : 19},
		{"id" : 9, "text" : "이", "type" : "", "begin" : 20, "end" : 20},
		{"id" : 10, "text" : "강은", "type" : "", "begin" : 21, "end" : 22},
		{"id" : 11, "text" : "무엇일까?", "type" : "", "begin" : 23, "end" : 26}
	],
	"NE" : [
	],
	"chunk" : [
	],
	"dependency" : [
		{"id" : 0, "text" : "남한에서", "head" : 3, "label" : "NP_AJT", "mod" : [], "weight" : 0.850279 },
		{"id" : 1, "text" : "두", "head" : 2, "label" : "DP", "mod" : [], "weight" : 0.970219 },
		{"id" : 2, "text" : "번째로", "head" : 3, "label" : "NP_AJT", "mod" : [1], "weight" : 0.967386 },
		{"id" : 3, "text" : "긴", "head" : 4, "label" : "VP_MOD", "mod" : [0, 2], "weight" : 0.725119 },
		{"id" : 4, "text" : "강이며,", "head" : 8, "label" : "VNP", "mod" : [3], "weight" : 0.866038 },
		{"id" : 5, "text" : "서울을", "head" : 8, "label" : "NP_OBJ", "mod" : [], "weight" : 0.90646 },
		{"id" : 6, "text" : "남과", "head" : 7, "label" : "NP_CNJ", "mod" : [], "weight" : 0.756082 },
		{"id" : 7, "text" : "북으로", "head" : 8, "label" : "NP_AJT", "mod" : [6], "weight" : 0.745614 },
		{"id" : 8, "text" : "나누는", "head" : 10, "label" : "VP_MOD", "mod" : [4, 5, 7], "weight" : 0.706964 },
		{"id" : 9, "text" : "이", "head" : 10, "label" : "DP", "mod" : [], "weight" : 0.804007 },
		{"id" : 10, "text" : "강은", "head" : 11, "label" : "NP_SBJ", "mod" : [8, 9], "weight" : 0.698305 },
		{"id" : 11, "text" : "무엇일까?", "head" : -1, "label" : "VNP", "mod" : [10], "weight" : 0.690981 }
	],
	"phrase_dependency" : [
	],
	"SRL" : [
	],
	"relation" : [
	],
	"SA" : [
	],
	"ZA" : [
	]
	}
 ],
 "entity" : [
 ]
}

