{"doc_id" : "",
 "DCT" : "",
 "category" : "",
 "category_weight" : 0,
 "title" : {"text" : "타락", "NE" : ""},
 "metaInfo" : { },
 "sentence" : [
	{
	"id" : 0,
	"reserve_str" : "",
	"text" : "[같은 말] 우유",
	"morp" : [
	],
	"morp_eval" : [
	],
	"WSD" : [
	],
	"word" : [
		{"id" : 0, "text" : "[같은", "type" : "", "begin" : 0, "end" : 2},
		{"id" : 1, "text" : "말]", "type" : "", "begin" : 3, "end" : 4},
		{"id" : 2, "text" : "우유", "type" : "", "begin" : 5, "end" : 5}
	],
	"NE" : [
	],
	"chunk" : [
	],
	"dependency" : [
		{"id" : 0, "text" : "[같은", "head" : 1, "label" : "VP_MOD", "mod" : [], "weight" : 0.983596 },
		{"id" : 1, "text" : "말]", "head" : 2, "label" : "NP", "mod" : [0], "weight" : 0.494389 },
		{"id" : 2, "text" : "우유", "head" : -1, "label" : "NP", "mod" : [1], "weight" : 0.251572 }
	],
	"phrase_dependency" : [
	],
	"SRL" : [
	],
	"relation" : [
	],
	"SA" : [
	],
	"ZA" : [
	]
	}
 ],
 "entity" : [
 ]
}

