{"doc_id" : "",
 "DCT" : "",
 "category" : "",
 "category_weight" : 0,
 "title" : {"text" : "거중기", "NE" : ""},
 "metaInfo" : { },
 "sentence" : [
	{
	"id" : 0,
	"reserve_str" : "",
	"text" : "조선 시대 실학자 정약용이 중국 서적 『기기도설(奇器圖說)』을 참고하여 고안하였다.",
	"morp" : [
	],
	"morp_eval" : [
	],
	"WSD" : [
	],
	"word" : [
		{"id" : 0, "text" : "조선", "type" : "", "begin" : 0, "end" : 0},
		{"id" : 1, "text" : "시대", "type" : "", "begin" : 1, "end" : 1},
		{"id" : 2, "text" : "실학자", "type" : "", "begin" : 2, "end" : 3},
		{"id" : 3, "text" : "정약용이", "type" : "", "begin" : 4, "end" : 5},
		{"id" : 4, "text" : "중국", "type" : "", "begin" : 6, "end" : 6},
		{"id" : 5, "text" : "서적", "type" : "", "begin" : 7, "end" : 7},
		{"id" : 6, "text" : "『기기도설(奇器圖說)』을", "type" : "", "begin" : 8, "end" : 15},
		{"id" : 7, "text" : "참고하여", "type" : "", "begin" : 16, "end" : 18},
		{"id" : 8, "text" : "고안하였다.", "type" : "", "begin" : 19, "end" : 23}
	],
	"NE" : [
	],
	"chunk" : [
	],
	"dependency" : [
		{"id" : 0, "text" : "조선", "head" : 1, "label" : "NP", "mod" : [], "weight" : 0.714653 },
		{"id" : 1, "text" : "시대", "head" : 2, "label" : "NP", "mod" : [0], "weight" : 0.662518 },
		{"id" : 2, "text" : "실학자", "head" : 3, "label" : "NP", "mod" : [1], "weight" : 0.738588 },
		{"id" : 3, "text" : "정약용이", "head" : 7, "label" : "NP_SBJ", "mod" : [2], "weight" : 0.892954 },
		{"id" : 4, "text" : "중국", "head" : 5, "label" : "NP", "mod" : [], "weight" : 0.566394 },
		{"id" : 5, "text" : "서적", "head" : 6, "label" : "NP", "mod" : [4], "weight" : 0.958002 },
		{"id" : 6, "text" : "『기기도설(奇器圖說)』을", "head" : 7, "label" : "NP_OBJ", "mod" : [5], "weight" : 0.700011 },
		{"id" : 7, "text" : "참고하여", "head" : 8, "label" : "VP", "mod" : [3, 6], "weight" : 0.583308 },
		{"id" : 8, "text" : "고안하였다.", "head" : -1, "label" : "VP", "mod" : [7], "weight" : 0.484938 }
	],
	"phrase_dependency" : [
	],
	"SRL" : [
	],
	"relation" : [
	],
	"SA" : [
	],
	"ZA" : [
	]
	}
 ],
 "entity" : [
 ]
}

