{"doc_id" : "",
 "DCT" : "",
 "category" : "",
 "category_weight" : 0,
 "title" : {"text" : "시래기", "NE" : ""},
 "metaInfo" : { },
 "sentence" : [
	{
	"id" : 0,
	"reserve_str" : "",
	"text" : "무청이나 배추의 잎을 말린 것.",
	"morp" : [
	],
	"morp_eval" : [
	],
	"WSD" : [
	],
	"word" : [
		{"id" : 0, "text" : "무청이나", "type" : "", "begin" : 0, "end" : 1},
		{"id" : 1, "text" : "배추의", "type" : "", "begin" : 2, "end" : 3},
		{"id" : 2, "text" : "잎을", "type" : "", "begin" : 4, "end" : 5},
		{"id" : 3, "text" : "말린", "type" : "", "begin" : 6, "end" : 7},
		{"id" : 4, "text" : "것.", "type" : "", "begin" : 8, "end" : 9}
	],
	"NE" : [
	],
	"chunk" : [
	],
	"dependency" : [
		{"id" : 0, "text" : "무청이나", "head" : 1, "label" : "NP_CNJ", "mod" : [], "weight" : 0.677979 },
		{"id" : 1, "text" : "배추의", "head" : 2, "label" : "NP_MOD", "mod" : [0], "weight" : 0.7914 },
		{"id" : 2, "text" : "잎을", "head" : 3, "label" : "NP_OBJ", "mod" : [1], "weight" : 0.625388 },
		{"id" : 3, "text" : "말린", "head" : 4, "label" : "VP_MOD", "mod" : [2], "weight" : 0.54261 },
		{"id" : 4, "text" : "것.", "head" : -1, "label" : "NP", "mod" : [3], "weight" : 0.993592 }
	],
	"phrase_dependency" : [
	],
	"SRL" : [
	],
	"relation" : [
	],
	"SA" : [
	],
	"ZA" : [
	]
	},
	{
	"id" : 1,
	"reserve_str" : "",
	"text" : " 새끼 따위로 엮어 말려서 보관하다가 볶거나 국을 끓이는 데 쓴다.",
	"morp" : [
	],
	"morp_eval" : [
	],
	"WSD" : [
	],
	"word" : [
		{"id" : 0, "text" : "새끼", "type" : "", "begin" : 0, "end" : 0},
		{"id" : 1, "text" : "따위로", "type" : "", "begin" : 1, "end" : 2},
		{"id" : 2, "text" : "엮어", "type" : "", "begin" : 3, "end" : 4},
		{"id" : 3, "text" : "말려서", "type" : "", "begin" : 5, "end" : 6},
		{"id" : 4, "text" : "보관하다가", "type" : "", "begin" : 7, "end" : 9},
		{"id" : 5, "text" : "볶거나", "type" : "", "begin" : 10, "end" : 11},
		{"id" : 6, "text" : "국을", "type" : "", "begin" : 12, "end" : 13},
		{"id" : 7, "text" : "끓이는", "type" : "", "begin" : 14, "end" : 15},
		{"id" : 8, "text" : "데", "type" : "", "begin" : 16, "end" : 16},
		{"id" : 9, "text" : "쓴다.", "type" : "", "begin" : 17, "end" : 19}
	],
	"NE" : [
	],
	"chunk" : [
	],
	"dependency" : [
		{"id" : 0, "text" : "새끼", "head" : 1, "label" : "NP", "mod" : [], "weight" : 0.813014 },
		{"id" : 1, "text" : "따위로", "head" : 2, "label" : "NP_AJT", "mod" : [0], "weight" : 0.721102 },
		{"id" : 2, "text" : "엮어", "head" : 3, "label" : "VP", "mod" : [1], "weight" : 0.853714 },
		{"id" : 3, "text" : "말려서", "head" : 4, "label" : "VP", "mod" : [2], "weight" : 0.890745 },
		{"id" : 4, "text" : "보관하다가", "head" : 9, "label" : "VP", "mod" : [3], "weight" : 0.707535 },
		{"id" : 5, "text" : "볶거나", "head" : 7, "label" : "VP", "mod" : [], "weight" : 0.951603 },
		{"id" : 6, "text" : "국을", "head" : 7, "label" : "NP_OBJ", "mod" : [], "weight" : 0.987739 },
		{"id" : 7, "text" : "끓이는", "head" : 8, "label" : "VP_MOD", "mod" : [5, 6], "weight" : 0.76575 },
		{"id" : 8, "text" : "데", "head" : 9, "label" : "NP_AJT", "mod" : [7], "weight" : 0.57262 },
		{"id" : 9, "text" : "쓴다.", "head" : -1, "label" : "VP", "mod" : [4, 8], "weight" : 0.971709 }
	],
	"phrase_dependency" : [
	],
	"SRL" : [
	],
	"relation" : [
	],
	"SA" : [
	],
	"ZA" : [
	]
	}
 ],
 "entity" : [
 ]
}

