{"doc_id" : "",
 "DCT" : "",
 "category" : "",
 "category_weight" : 0,
 "title" : {"text" : "고인돌", "NE" : ""},
 "metaInfo" : { },
 "sentence" : [
	{
	"id" : 0,
	"reserve_str" : "",
	"text" : "고인돌은 계급분화가 시작된 청동기 시대에 주로 만들어졌으며, 주로 경제력이 있거나 정치권력을 가진 지배층의 무덤으로 추정되는데, 돌화살촉이나 간검돌,민무늬토기, 청동 제품 등이 주요 부장품으로 발견된다.",
	"morp" : [
	],
	"morp_eval" : [
	],
	"WSD" : [
	],
	"word" : [
		{"id" : 0, "text" : "고인돌은", "type" : "", "begin" : 0, "end" : 1},
		{"id" : 1, "text" : "계급분화가", "type" : "", "begin" : 2, "end" : 4},
		{"id" : 2, "text" : "시작된", "type" : "", "begin" : 5, "end" : 7},
		{"id" : 3, "text" : "청동기", "type" : "", "begin" : 8, "end" : 8},
		{"id" : 4, "text" : "시대에", "type" : "", "begin" : 9, "end" : 10},
		{"id" : 5, "text" : "주로", "type" : "", "begin" : 11, "end" : 11},
		{"id" : 6, "text" : "만들어졌으며,", "type" : "", "begin" : 12, "end" : 17},
		{"id" : 7, "text" : "주로", "type" : "", "begin" : 18, "end" : 18},
		{"id" : 8, "text" : "경제력이", "type" : "", "begin" : 19, "end" : 21},
		{"id" : 9, "text" : "있거나", "type" : "", "begin" : 22, "end" : 23},
		{"id" : 10, "text" : "정치권력을", "type" : "", "begin" : 24, "end" : 27},
		{"id" : 11, "text" : "가진", "type" : "", "begin" : 28, "end" : 29},
		{"id" : 12, "text" : "지배층의", "type" : "", "begin" : 30, "end" : 32},
		{"id" : 13, "text" : "무덤으로", "type" : "", "begin" : 33, "end" : 34},
		{"id" : 14, "text" : "추정되는데,", "type" : "", "begin" : 35, "end" : 38},
		{"id" : 15, "text" : "돌화살촉이나", "type" : "", "begin" : 39, "end" : 42},
		{"id" : 16, "text" : "간검돌,민무늬토기,", "type" : "", "begin" : 43, "end" : 48},
		{"id" : 17, "text" : "청동", "type" : "", "begin" : 49, "end" : 49},
		{"id" : 18, "text" : "제품", "type" : "", "begin" : 50, "end" : 50},
		{"id" : 19, "text" : "등이", "type" : "", "begin" : 51, "end" : 52},
		{"id" : 20, "text" : "주요", "type" : "", "begin" : 53, "end" : 53},
		{"id" : 21, "text" : "부장품으로", "type" : "", "begin" : 54, "end" : 56},
		{"id" : 22, "text" : "발견된다.", "type" : "", "begin" : 57, "end" : 60}
	],
	"NE" : [
	],
	"chunk" : [
	],
	"dependency" : [
		{"id" : 0, "text" : "고인돌은", "head" : 6, "label" : "NP_SBJ", "mod" : [], "weight" : 0.624117 },
		{"id" : 1, "text" : "계급분화가", "head" : 2, "label" : "NP_SBJ", "mod" : [], "weight" : 0.718702 },
		{"id" : 2, "text" : "시작된", "head" : 4, "label" : "VP_MOD", "mod" : [1], "weight" : 0.768389 },
		{"id" : 3, "text" : "청동기", "head" : 4, "label" : "NP", "mod" : [], "weight" : 0.908711 },
		{"id" : 4, "text" : "시대에", "head" : 6, "label" : "NP_AJT", "mod" : [2, 3], "weight" : 0.92926 },
		{"id" : 5, "text" : "주로", "head" : 6, "label" : "AP", "mod" : [], "weight" : 0.63386 },
		{"id" : 6, "text" : "만들어졌으며,", "head" : 14, "label" : "VP", "mod" : [0, 4, 5], "weight" : 0.778516 },
		{"id" : 7, "text" : "주로", "head" : 14, "label" : "AP", "mod" : [], "weight" : 0.961079 },
		{"id" : 8, "text" : "경제력이", "head" : 9, "label" : "NP_SBJ", "mod" : [], "weight" : 0.703389 },
		{"id" : 9, "text" : "있거나", "head" : 11, "label" : "VP", "mod" : [8], "weight" : 0.745364 },
		{"id" : 10, "text" : "정치권력을", "head" : 11, "label" : "NP_OBJ", "mod" : [], "weight" : 0.748161 },
		{"id" : 11, "text" : "가진", "head" : 12, "label" : "VP_MOD", "mod" : [9, 10], "weight" : 0.627997 },
		{"id" : 12, "text" : "지배층의", "head" : 13, "label" : "NP_MOD", "mod" : [11], "weight" : 0.884982 },
		{"id" : 13, "text" : "무덤으로", "head" : 14, "label" : "NP_AJT", "mod" : [12], "weight" : 0.724146 },
		{"id" : 14, "text" : "추정되는데,", "head" : 22, "label" : "VP", "mod" : [6, 7, 13], "weight" : 0.763086 },
		{"id" : 15, "text" : "돌화살촉이나", "head" : 18, "label" : "NP_CNJ", "mod" : [], "weight" : 0.502758 },
		{"id" : 16, "text" : "간검돌,민무늬토기,", "head" : 18, "label" : "NP_CNJ", "mod" : [], "weight" : 0.867961 },
		{"id" : 17, "text" : "청동", "head" : 18, "label" : "NP", "mod" : [], "weight" : 0.698235 },
		{"id" : 18, "text" : "제품", "head" : 19, "label" : "NP", "mod" : [15, 16, 17], "weight" : 0.762445 },
		{"id" : 19, "text" : "등이", "head" : 22, "label" : "NP_SBJ", "mod" : [18], "weight" : 0.66409 },
		{"id" : 20, "text" : "주요", "head" : 21, "label" : "NP", "mod" : [], "weight" : 0.78695 },
		{"id" : 21, "text" : "부장품으로", "head" : 22, "label" : "NP_AJT", "mod" : [20], "weight" : 0.633722 },
		{"id" : 22, "text" : "발견된다.", "head" : -1, "label" : "VP", "mod" : [14, 19, 21], "weight" : 0.875261 }
	],
	"phrase_dependency" : [
	],
	"SRL" : [
	],
	"relation" : [
	],
	"SA" : [
	],
	"ZA" : [
	]
	}
 ],
 "entity" : [
 ]
}

