{"doc_id" : "",
 "DCT" : "",
 "category" : "",
 "category_weight" : 0,
 "title" : {"text" : "고인돌", "NE" : ""},
 "metaInfo" : { },
 "sentence" : [
	{
	"id" : 0,
	"reserve_str" : "",
	"text" : "고인돌은 청동기시대(靑銅器時代)에 성행하여 초기철기시대(初期鐵器時代)까지 존속한 거석문화(巨石文化)의 일종이며, 고대국가(古代國家) 발생 직전의 사회상을 표현하고 있다.",
	"morp" : [
	],
	"morp_eval" : [
	],
	"WSD" : [
	],
	"word" : [
		{"id" : 0, "text" : "고인돌은", "type" : "", "begin" : 0, "end" : 1},
		{"id" : 1, "text" : "청동기시대(靑銅器時代)에", "type" : "", "begin" : 2, "end" : 7},
		{"id" : 2, "text" : "성행하여", "type" : "", "begin" : 8, "end" : 10},
		{"id" : 3, "text" : "초기철기시대(初期鐵器時代)까지", "type" : "", "begin" : 11, "end" : 17},
		{"id" : 4, "text" : "존속한", "type" : "", "begin" : 18, "end" : 20},
		{"id" : 5, "text" : "거석문화(巨石文化)의", "type" : "", "begin" : 21, "end" : 26},
		{"id" : 6, "text" : "일종이며,", "type" : "", "begin" : 27, "end" : 30},
		{"id" : 7, "text" : "고대국가(古代國家)", "type" : "", "begin" : 31, "end" : 35},
		{"id" : 8, "text" : "발생", "type" : "", "begin" : 36, "end" : 36},
		{"id" : 9, "text" : "직전의", "type" : "", "begin" : 37, "end" : 38},
		{"id" : 10, "text" : "사회상을", "type" : "", "begin" : 39, "end" : 41},
		{"id" : 11, "text" : "표현하고", "type" : "", "begin" : 42, "end" : 44},
		{"id" : 12, "text" : "있다.", "type" : "", "begin" : 45, "end" : 47}
	],
	"NE" : [
	],
	"chunk" : [
	],
	"dependency" : [
		{"id" : 0, "text" : "고인돌은", "head" : 6, "label" : "NP_SBJ", "mod" : [], "weight" : 0.867793 },
		{"id" : 1, "text" : "청동기시대(靑銅器時代)에", "head" : 2, "label" : "NP_AJT", "mod" : [], "weight" : 0.688663 },
		{"id" : 2, "text" : "성행하여", "head" : 4, "label" : "VP", "mod" : [1], "weight" : 0.660818 },
		{"id" : 3, "text" : "초기철기시대(初期鐵器時代)까지", "head" : 4, "label" : "NP_OBJ", "mod" : [], "weight" : 0.862163 },
		{"id" : 4, "text" : "존속한", "head" : 5, "label" : "VP_MOD", "mod" : [2, 3], "weight" : 0.64302 },
		{"id" : 5, "text" : "거석문화(巨石文化)의", "head" : 6, "label" : "NP_MOD", "mod" : [4], "weight" : 0.601301 },
		{"id" : 6, "text" : "일종이며,", "head" : 11, "label" : "VNP", "mod" : [0, 5], "weight" : 0.942534 },
		{"id" : 7, "text" : "고대국가(古代國家)", "head" : 8, "label" : "NP", "mod" : [], "weight" : 0.614033 },
		{"id" : 8, "text" : "발생", "head" : 9, "label" : "NP", "mod" : [7], "weight" : 0.68435 },
		{"id" : 9, "text" : "직전의", "head" : 10, "label" : "NP_MOD", "mod" : [8], "weight" : 0.815125 },
		{"id" : 10, "text" : "사회상을", "head" : 11, "label" : "NP_OBJ", "mod" : [9], "weight" : 0.688336 },
		{"id" : 11, "text" : "표현하고", "head" : 12, "label" : "VP", "mod" : [6, 10], "weight" : 0.627736 },
		{"id" : 12, "text" : "있다.", "head" : -1, "label" : "VP", "mod" : [11], "weight" : 0.147792 }
	],
	"phrase_dependency" : [
	],
	"SRL" : [
	],
	"relation" : [
	],
	"SA" : [
	],
	"ZA" : [
	]
	},
	{
	"id" : 1,
	"reserve_str" : "",
	"text" : " 고인돌은 지역에 따라 호칭이 다른데, 한국과 일본에서는 지석묘(支石墓), 중국에서는 석붕(石棚), 구라파 등지에서는 돌멘(Dolmen) 등의 명칭을 사용하고 있다.",
	"morp" : [
	],
	"morp_eval" : [
	],
	"WSD" : [
	],
	"word" : [
		{"id" : 0, "text" : "고인돌은", "type" : "", "begin" : 0, "end" : 1},
		{"id" : 1, "text" : "지역에", "type" : "", "begin" : 2, "end" : 3},
		{"id" : 2, "text" : "따라", "type" : "", "begin" : 4, "end" : 5},
		{"id" : 3, "text" : "호칭이", "type" : "", "begin" : 6, "end" : 7},
		{"id" : 4, "text" : "다른데,", "type" : "", "begin" : 8, "end" : 10},
		{"id" : 5, "text" : "한국과", "type" : "", "begin" : 11, "end" : 12},
		{"id" : 6, "text" : "일본에서는", "type" : "", "begin" : 13, "end" : 15},
		{"id" : 7, "text" : "지석묘(支石墓),", "type" : "", "begin" : 16, "end" : 21},
		{"id" : 8, "text" : "중국에서는", "type" : "", "begin" : 22, "end" : 24},
		{"id" : 9, "text" : "석붕(石棚),", "type" : "", "begin" : 25, "end" : 29},
		{"id" : 10, "text" : "구라파", "type" : "", "begin" : 30, "end" : 30},
		{"id" : 11, "text" : "등지에서는", "type" : "", "begin" : 31, "end" : 33},
		{"id" : 12, "text" : "돌멘(Dolmen)", "type" : "", "begin" : 34, "end" : 37},
		{"id" : 13, "text" : "등의", "type" : "", "begin" : 38, "end" : 39},
		{"id" : 14, "text" : "명칭을", "type" : "", "begin" : 40, "end" : 41},
		{"id" : 15, "text" : "사용하고", "type" : "", "begin" : 42, "end" : 44},
		{"id" : 16, "text" : "있다.", "type" : "", "begin" : 45, "end" : 47}
	],
	"NE" : [
	],
	"chunk" : [
	],
	"dependency" : [
		{"id" : 0, "text" : "고인돌은", "head" : 4, "label" : "NP_SBJ", "mod" : [], "weight" : 0.70193 },
		{"id" : 1, "text" : "지역에", "head" : 2, "label" : "NP_AJT", "mod" : [], "weight" : 0.748515 },
		{"id" : 2, "text" : "따라", "head" : 4, "label" : "VP", "mod" : [1], "weight" : 0.663683 },
		{"id" : 3, "text" : "호칭이", "head" : 4, "label" : "NP_SBJ", "mod" : [], "weight" : 0.546869 },
		{"id" : 4, "text" : "다른데,", "head" : 15, "label" : "VP", "mod" : [0, 2, 3], "weight" : 0.488702 },
		{"id" : 5, "text" : "한국과", "head" : 6, "label" : "NP_CNJ", "mod" : [], "weight" : 0.684715 },
		{"id" : 6, "text" : "일본에서는", "head" : 7, "label" : "NP_AJT", "mod" : [5], "weight" : 0.654156 },
		{"id" : 7, "text" : "지석묘(支石墓),", "head" : 12, "label" : "NP_CNJ", "mod" : [6], "weight" : 0.424822 },
		{"id" : 8, "text" : "중국에서는", "head" : 9, "label" : "NP_AJT", "mod" : [], "weight" : 0.485586 },
		{"id" : 9, "text" : "석붕(石棚),", "head" : 12, "label" : "NP_CNJ", "mod" : [8], "weight" : 0.543452 },
		{"id" : 10, "text" : "구라파", "head" : 11, "label" : "NP", "mod" : [], "weight" : 0.833456 },
		{"id" : 11, "text" : "등지에서는", "head" : 12, "label" : "NP_AJT", "mod" : [10], "weight" : 0.863861 },
		{"id" : 12, "text" : "돌멘(Dolmen)", "head" : 13, "label" : "NP", "mod" : [7, 9, 11], "weight" : 0.853887 },
		{"id" : 13, "text" : "등의", "head" : 14, "label" : "NP_MOD", "mod" : [12], "weight" : 0.940179 },
		{"id" : 14, "text" : "명칭을", "head" : 15, "label" : "NP_OBJ", "mod" : [13], "weight" : 0.538212 },
		{"id" : 15, "text" : "사용하고", "head" : 16, "label" : "VP", "mod" : [4, 14], "weight" : 0.667192 },
		{"id" : 16, "text" : "있다.", "head" : -1, "label" : "VP", "mod" : [15], "weight" : 0.785954 }
	],
	"phrase_dependency" : [
	],
	"SRL" : [
	],
	"relation" : [
	],
	"SA" : [
	],
	"ZA" : [
	]
	},
	{
	"id" : 2,
	"reserve_str" : "",
	"text" : " 그리고 2000년도에는 강화의 부근리·삼거리·오상리의 약 120여 기(基)의 고인돌군, 고창 상갑리·죽림리 등 고창군 전역 205군집(群集) 총 1,665기의 고인돌, 화순 효산리·대신리의 고인돌 500여 기 등이 세계문화유산(世界文化遺産)으로 등재되어 전 세계적인 관심 속에 보존·관리되고 있다.",
	"morp" : [
	],
	"morp_eval" : [
	],
	"WSD" : [
	],
	"word" : [
		{"id" : 0, "text" : "그리고", "type" : "", "begin" : 0, "end" : 0},
		{"id" : 1, "text" : "2000년도에는", "type" : "", "begin" : 1, "end" : 4},
		{"id" : 2, "text" : "강화의", "type" : "", "begin" : 5, "end" : 6},
		{"id" : 3, "text" : "부근리·삼거리·오상리의", "type" : "", "begin" : 7, "end" : 15},
		{"id" : 4, "text" : "약", "type" : "", "begin" : 16, "end" : 16},
		{"id" : 5, "text" : "120여", "type" : "", "begin" : 17, "end" : 18},
		{"id" : 6, "text" : "기(基)의", "type" : "", "begin" : 19, "end" : 23},
		{"id" : 7, "text" : "고인돌군,", "type" : "", "begin" : 24, "end" : 26},
		{"id" : 8, "text" : "고창", "type" : "", "begin" : 27, "end" : 27},
		{"id" : 9, "text" : "상갑리·죽림리", "type" : "", "begin" : 28, "end" : 32},
		{"id" : 10, "text" : "등", "type" : "", "begin" : 33, "end" : 33},
		{"id" : 11, "text" : "고창군", "type" : "", "begin" : 34, "end" : 35},
		{"id" : 12, "text" : "전역", "type" : "", "begin" : 36, "end" : 36},
		{"id" : 13, "text" : "205군집(群集)", "type" : "", "begin" : 37, "end" : 41},
		{"id" : 14, "text" : "총", "type" : "", "begin" : 42, "end" : 42},
		{"id" : 15, "text" : "1,665기의", "type" : "", "begin" : 43, "end" : 47},
		{"id" : 16, "text" : "고인돌,", "type" : "", "begin" : 48, "end" : 49},
		{"id" : 17, "text" : "화순", "type" : "", "begin" : 50, "end" : 50},
		{"id" : 18, "text" : "효산리·대신리의", "type" : "", "begin" : 51, "end" : 56},
		{"id" : 19, "text" : "고인돌", "type" : "", "begin" : 57, "end" : 57},
		{"id" : 20, "text" : "500여", "type" : "", "begin" : 58, "end" : 59},
		{"id" : 21, "text" : "기", "type" : "", "begin" : 60, "end" : 60},
		{"id" : 22, "text" : "등이", "type" : "", "begin" : 61, "end" : 62},
		{"id" : 23, "text" : "세계문화유산(世界文化遺産)으로", "type" : "", "begin" : 63, "end" : 69},
		{"id" : 24, "text" : "등재되어", "type" : "", "begin" : 70, "end" : 72},
		{"id" : 25, "text" : "전", "type" : "", "begin" : 73, "end" : 73},
		{"id" : 26, "text" : "세계적인", "type" : "", "begin" : 74, "end" : 77},
		{"id" : 27, "text" : "관심", "type" : "", "begin" : 78, "end" : 78},
		{"id" : 28, "text" : "속에", "type" : "", "begin" : 79, "end" : 80},
		{"id" : 29, "text" : "보존·관리되고", "type" : "", "begin" : 81, "end" : 85},
		{"id" : 30, "text" : "있다.", "type" : "", "begin" : 86, "end" : 88}
	],
	"NE" : [
	],
	"chunk" : [
	],
	"dependency" : [
		{"id" : 0, "text" : "그리고", "head" : 24, "label" : "AP", "mod" : [], "weight" : 0.866508 },
		{"id" : 1, "text" : "2000년도에는", "head" : 24, "label" : "NP_AJT", "mod" : [], "weight" : 0.903768 },
		{"id" : 2, "text" : "강화의", "head" : 3, "label" : "NP_MOD", "mod" : [], "weight" : 0.609273 },
		{"id" : 3, "text" : "부근리·삼거리·오상리의", "head" : 6, "label" : "NP_MOD", "mod" : [2], "weight" : 0.736552 },
		{"id" : 4, "text" : "약", "head" : 5, "label" : "DP", "mod" : [], "weight" : 0.554072 },
		{"id" : 5, "text" : "120여", "head" : 6, "label" : "NP", "mod" : [4], "weight" : 0.669261 },
		{"id" : 6, "text" : "기(基)의", "head" : 7, "label" : "NP_MOD", "mod" : [3, 5], "weight" : 0.608794 },
		{"id" : 7, "text" : "고인돌군,", "head" : 21, "label" : "NP_CNJ", "mod" : [6], "weight" : 0.819129 },
		{"id" : 8, "text" : "고창", "head" : 9, "label" : "NP", "mod" : [], "weight" : 0.654803 },
		{"id" : 9, "text" : "상갑리·죽림리", "head" : 10, "label" : "NP", "mod" : [8], "weight" : 0.943264 },
		{"id" : 10, "text" : "등", "head" : 12, "label" : "NP", "mod" : [9], "weight" : 0.569227 },
		{"id" : 11, "text" : "고창군", "head" : 12, "label" : "NP", "mod" : [], "weight" : 0.723296 },
		{"id" : 12, "text" : "전역", "head" : 13, "label" : "NP", "mod" : [10, 11], "weight" : 0.617354 },
		{"id" : 13, "text" : "205군집(群集)", "head" : 16, "label" : "NP", "mod" : [12], "weight" : 0.762709 },
		{"id" : 14, "text" : "총", "head" : 15, "label" : "DP", "mod" : [], "weight" : 0.538917 },
		{"id" : 15, "text" : "1,665기의", "head" : 16, "label" : "NP_MOD", "mod" : [14], "weight" : 0.54507 },
		{"id" : 16, "text" : "고인돌,", "head" : 21, "label" : "NP_CNJ", "mod" : [13, 15], "weight" : 0.792214 },
		{"id" : 17, "text" : "화순", "head" : 18, "label" : "NP", "mod" : [], "weight" : 0.683356 },
		{"id" : 18, "text" : "효산리·대신리의", "head" : 19, "label" : "NP_MOD", "mod" : [17], "weight" : 0.862135 },
		{"id" : 19, "text" : "고인돌", "head" : 21, "label" : "NP", "mod" : [18], "weight" : 0.911771 },
		{"id" : 20, "text" : "500여", "head" : 21, "label" : "NP", "mod" : [], "weight" : 0.895463 },
		{"id" : 21, "text" : "기", "head" : 22, "label" : "NP", "mod" : [7, 16, 19, 20], "weight" : 0.820203 },
		{"id" : 22, "text" : "등이", "head" : 24, "label" : "NP_SBJ", "mod" : [21], "weight" : 0.999099 },
		{"id" : 23, "text" : "세계문화유산(世界文化遺産)으로", "head" : 24, "label" : "NP_AJT", "mod" : [], "weight" : 0.714645 },
		{"id" : 24, "text" : "등재되어", "head" : 29, "label" : "VP", "mod" : [0, 1, 22, 23], "weight" : 0.690537 },
		{"id" : 25, "text" : "전", "head" : 26, "label" : "DP", "mod" : [], "weight" : 0.656988 },
		{"id" : 26, "text" : "세계적인", "head" : 27, "label" : "VNP_MOD", "mod" : [25], "weight" : 0.650557 },
		{"id" : 27, "text" : "관심", "head" : 28, "label" : "NP", "mod" : [26], "weight" : 0.987311 },
		{"id" : 28, "text" : "속에", "head" : 29, "label" : "NP_AJT", "mod" : [27], "weight" : 0.75184 },
		{"id" : 29, "text" : "보존·관리되고", "head" : 30, "label" : "VP", "mod" : [24, 28], "weight" : 0.579029 },
		{"id" : 30, "text" : "있다.", "head" : -1, "label" : "VP", "mod" : [29], "weight" : 0.505855 }
	],
	"phrase_dependency" : [
	],
	"SRL" : [
	],
	"relation" : [
	],
	"SA" : [
	],
	"ZA" : [
	]
	}
 ],
 "entity" : [
 ]
}

