{"doc_id" : "",
 "DCT" : "",
 "category" : "",
 "category_weight" : 0,
 "title" : {"text" : "Q9", "NE" : ""},
 "metaInfo" : { },
 "sentence" : [
	{
	"id" : 0,
	"reserve_str" : "",
	"text" : "한 가지 일로 두 가지 이익을 얻는다 또는 일의 순서가 바뀌었다는 뜻으로 도랑 치고 '이것' 잡는다는 속담이 있다.",
	"morp" : [
	],
	"morp_eval" : [
	],
	"WSD" : [
	],
	"word" : [
		{"id" : 0, "text" : "한", "type" : "", "begin" : 0, "end" : 0},
		{"id" : 1, "text" : "가지", "type" : "", "begin" : 1, "end" : 1},
		{"id" : 2, "text" : "일로", "type" : "", "begin" : 2, "end" : 3},
		{"id" : 3, "text" : "두", "type" : "", "begin" : 4, "end" : 4},
		{"id" : 4, "text" : "가지", "type" : "", "begin" : 5, "end" : 5},
		{"id" : 5, "text" : "이익을", "type" : "", "begin" : 6, "end" : 7},
		{"id" : 6, "text" : "얻는다", "type" : "", "begin" : 8, "end" : 9},
		{"id" : 7, "text" : "또는", "type" : "", "begin" : 10, "end" : 10},
		{"id" : 8, "text" : "일의", "type" : "", "begin" : 11, "end" : 12},
		{"id" : 9, "text" : "순서가", "type" : "", "begin" : 13, "end" : 14},
		{"id" : 10, "text" : "바뀌었다는", "type" : "", "begin" : 15, "end" : 17},
		{"id" : 11, "text" : "뜻으로", "type" : "", "begin" : 18, "end" : 19},
		{"id" : 12, "text" : "도랑", "type" : "", "begin" : 20, "end" : 20},
		{"id" : 13, "text" : "치고", "type" : "", "begin" : 21, "end" : 22},
		{"id" : 14, "text" : "'이것'", "type" : "", "begin" : 23, "end" : 25},
		{"id" : 15, "text" : "잡는다는", "type" : "", "begin" : 26, "end" : 27},
		{"id" : 16, "text" : "속담이", "type" : "", "begin" : 28, "end" : 29},
		{"id" : 17, "text" : "있다.", "type" : "", "begin" : 30, "end" : 32}
	],
	"NE" : [
	],
	"chunk" : [
	],
	"dependency" : [
		{"id" : 0, "text" : "한", "head" : 1, "label" : "DP", "mod" : [], "weight" : 0.870876 },
		{"id" : 1, "text" : "가지", "head" : 2, "label" : "NP", "mod" : [0], "weight" : 0.720551 },
		{"id" : 2, "text" : "일로", "head" : 6, "label" : "NP_AJT", "mod" : [1], "weight" : 0.819499 },
		{"id" : 3, "text" : "두", "head" : 4, "label" : "DP", "mod" : [], "weight" : 0.896261 },
		{"id" : 4, "text" : "가지", "head" : 5, "label" : "NP", "mod" : [3], "weight" : 0.6433 },
		{"id" : 5, "text" : "이익을", "head" : 6, "label" : "NP_OBJ", "mod" : [4], "weight" : 0.860668 },
		{"id" : 6, "text" : "얻는다", "head" : 10, "label" : "VP", "mod" : [2, 5], "weight" : 0.743181 },
		{"id" : 7, "text" : "또는", "head" : 10, "label" : "AP", "mod" : [], "weight" : 0.602955 },
		{"id" : 8, "text" : "일의", "head" : 9, "label" : "NP_MOD", "mod" : [], "weight" : 0.760129 },
		{"id" : 9, "text" : "순서가", "head" : 10, "label" : "NP_SBJ", "mod" : [8], "weight" : 0.974309 },
		{"id" : 10, "text" : "바뀌었다는", "head" : 11, "label" : "VP_MOD", "mod" : [6, 7, 9], "weight" : 0.749318 },
		{"id" : 11, "text" : "뜻으로", "head" : 17, "label" : "NP_AJT", "mod" : [10], "weight" : 0.600655 },
		{"id" : 12, "text" : "도랑", "head" : 13, "label" : "NP_OBJ", "mod" : [], "weight" : 0.946999 },
		{"id" : 13, "text" : "치고", "head" : 15, "label" : "VP", "mod" : [12], "weight" : 0.717446 },
		{"id" : 14, "text" : "'이것'", "head" : 15, "label" : "NP_OBJ", "mod" : [], "weight" : 0.886938 },
		{"id" : 15, "text" : "잡는다는", "head" : 16, "label" : "VP_MOD", "mod" : [13, 14], "weight" : 0.794956 },
		{"id" : 16, "text" : "속담이", "head" : 17, "label" : "NP_SBJ", "mod" : [15], "weight" : 0.558593 },
		{"id" : 17, "text" : "있다.", "head" : -1, "label" : "VP", "mod" : [11, 16], "weight" : 0.808872 }
	],
	"phrase_dependency" : [
	],
	"SRL" : [
	],
	"relation" : [
	],
	"SA" : [
	],
	"ZA" : [
	]
	},
	{
	"id" : 1,
	"reserve_str" : "",
	"text" : " '이것'은 무엇일까?",
	"morp" : [
	],
	"morp_eval" : [
	],
	"WSD" : [
	],
	"word" : [
		{"id" : 0, "text" : "'이것'은", "type" : "", "begin" : 0, "end" : 3},
		{"id" : 1, "text" : "무엇일까?", "type" : "", "begin" : 4, "end" : 7}
	],
	"NE" : [
	],
	"chunk" : [
	],
	"dependency" : [
		{"id" : 0, "text" : "'이것'은", "head" : 1, "label" : "NP_SBJ", "mod" : [], "weight" : 0.6912 },
		{"id" : 1, "text" : "무엇일까?", "head" : -1, "label" : "VNP", "mod" : [0], "weight" : 0.489425 }
	],
	"phrase_dependency" : [
	],
	"SRL" : [
	],
	"relation" : [
	],
	"SA" : [
	],
	"ZA" : [
	]
	}
 ],
 "entity" : [
 ]
}

