{"doc_id" : "",
 "DCT" : "",
 "category" : "",
 "category_weight" : 0,
 "title" : {"text" : "낙성대", "NE" : ""},
 "metaInfo" : { },
 "sentence" : [
	{
	"id" : 0,
	"reserve_str" : "",
	"text" : "낙성대(落星垈)는 강감찬 장군이 태어난 곳으로, 서울특별시 관악구 봉천동 228번지에 위치해 있다.",
	"morp" : [
	],
	"morp_eval" : [
	],
	"WSD" : [
	],
	"word" : [
		{"id" : 0, "text" : "낙성대(落星垈)는", "type" : "", "begin" : 0, "end" : 5},
		{"id" : 1, "text" : "강감찬", "type" : "", "begin" : 6, "end" : 6},
		{"id" : 2, "text" : "장군이", "type" : "", "begin" : 7, "end" : 8},
		{"id" : 3, "text" : "태어난", "type" : "", "begin" : 9, "end" : 10},
		{"id" : 4, "text" : "곳으로,", "type" : "", "begin" : 11, "end" : 13},
		{"id" : 5, "text" : "서울특별시", "type" : "", "begin" : 14, "end" : 16},
		{"id" : 6, "text" : "관악구", "type" : "", "begin" : 17, "end" : 18},
		{"id" : 7, "text" : "봉천동", "type" : "", "begin" : 19, "end" : 20},
		{"id" : 8, "text" : "228번지에", "type" : "", "begin" : 21, "end" : 24},
		{"id" : 9, "text" : "위치해", "type" : "", "begin" : 25, "end" : 27},
		{"id" : 10, "text" : "있다.", "type" : "", "begin" : 28, "end" : 30}
	],
	"NE" : [
	],
	"chunk" : [
	],
	"dependency" : [
		{"id" : 0, "text" : "낙성대(落星垈)는", "head" : 4, "label" : "NP_SBJ", "mod" : [], "weight" : 0.879643 },
		{"id" : 1, "text" : "강감찬", "head" : 2, "label" : "NP", "mod" : [], "weight" : 0.77561 },
		{"id" : 2, "text" : "장군이", "head" : 3, "label" : "NP_SBJ", "mod" : [1], "weight" : 0.84318 },
		{"id" : 3, "text" : "태어난", "head" : 4, "label" : "VP_MOD", "mod" : [2], "weight" : 0.677865 },
		{"id" : 4, "text" : "곳으로,", "head" : 9, "label" : "NP_AJT", "mod" : [0, 3], "weight" : 0.948509 },
		{"id" : 5, "text" : "서울특별시", "head" : 6, "label" : "NP", "mod" : [], "weight" : 0.743 },
		{"id" : 6, "text" : "관악구", "head" : 7, "label" : "NP", "mod" : [5], "weight" : 0.803737 },
		{"id" : 7, "text" : "봉천동", "head" : 8, "label" : "NP", "mod" : [6], "weight" : 0.791582 },
		{"id" : 8, "text" : "228번지에", "head" : 9, "label" : "NP_AJT", "mod" : [7], "weight" : 0.646525 },
		{"id" : 9, "text" : "위치해", "head" : 10, "label" : "VP", "mod" : [4, 8], "weight" : 0.569416 },
		{"id" : 10, "text" : "있다.", "head" : -1, "label" : "VP", "mod" : [9], "weight" : 0.499983 }
	],
	"phrase_dependency" : [
	],
	"SRL" : [
	],
	"relation" : [
	],
	"SA" : [
	],
	"ZA" : [
	]
	}
 ],
 "entity" : [
 ]
}

