{"doc_id" : "",
 "DCT" : "",
 "category" : "",
 "category_weight" : 0,
 "title" : {"text" : "Q26", "NE" : ""},
 "metaInfo" : { },
 "sentence" : [
	{
	"id" : 0,
	"reserve_str" : "",
	"text" : "이것은 새끼 따위로 엮어 말려서 보관하다가 오랫동안 푹 삶아 나물이나 국을 만들어 먹는다.",
	"morp" : [
	],
	"morp_eval" : [
	],
	"WSD" : [
	],
	"word" : [
		{"id" : 0, "text" : "이것은", "type" : "", "begin" : 0, "end" : 1},
		{"id" : 1, "text" : "새끼", "type" : "", "begin" : 2, "end" : 2},
		{"id" : 2, "text" : "따위로", "type" : "", "begin" : 3, "end" : 4},
		{"id" : 3, "text" : "엮어", "type" : "", "begin" : 5, "end" : 6},
		{"id" : 4, "text" : "말려서", "type" : "", "begin" : 7, "end" : 8},
		{"id" : 5, "text" : "보관하다가", "type" : "", "begin" : 9, "end" : 11},
		{"id" : 6, "text" : "오랫동안", "type" : "", "begin" : 12, "end" : 12},
		{"id" : 7, "text" : "푹", "type" : "", "begin" : 13, "end" : 13},
		{"id" : 8, "text" : "삶아", "type" : "", "begin" : 14, "end" : 15},
		{"id" : 9, "text" : "나물이나", "type" : "", "begin" : 16, "end" : 17},
		{"id" : 10, "text" : "국을", "type" : "", "begin" : 18, "end" : 19},
		{"id" : 11, "text" : "만들어", "type" : "", "begin" : 20, "end" : 21},
		{"id" : 12, "text" : "먹는다.", "type" : "", "begin" : 22, "end" : 24}
	],
	"NE" : [
	],
	"chunk" : [
	],
	"dependency" : [
		{"id" : 0, "text" : "이것은", "head" : 3, "label" : "NP_SBJ", "mod" : [], "weight" : 0.703115 },
		{"id" : 1, "text" : "새끼", "head" : 2, "label" : "NP", "mod" : [], "weight" : 0.767609 },
		{"id" : 2, "text" : "따위로", "head" : 3, "label" : "NP_AJT", "mod" : [1], "weight" : 0.69514 },
		{"id" : 3, "text" : "엮어", "head" : 4, "label" : "VP", "mod" : [0, 2], "weight" : 0.930184 },
		{"id" : 4, "text" : "말려서", "head" : 5, "label" : "VP", "mod" : [3], "weight" : 0.906514 },
		{"id" : 5, "text" : "보관하다가", "head" : 8, "label" : "VP", "mod" : [4], "weight" : 0.855757 },
		{"id" : 6, "text" : "오랫동안", "head" : 8, "label" : "NP_AJT", "mod" : [], "weight" : 0.632477 },
		{"id" : 7, "text" : "푹", "head" : 8, "label" : "AP", "mod" : [], "weight" : 0.631654 },
		{"id" : 8, "text" : "삶아", "head" : 11, "label" : "VP", "mod" : [5, 6, 7], "weight" : 0.796567 },
		{"id" : 9, "text" : "나물이나", "head" : 10, "label" : "NP_CNJ", "mod" : [], "weight" : 0.953402 },
		{"id" : 10, "text" : "국을", "head" : 11, "label" : "NP_OBJ", "mod" : [9], "weight" : 0.71634 },
		{"id" : 11, "text" : "만들어", "head" : 12, "label" : "VP", "mod" : [8, 10], "weight" : 0.636271 },
		{"id" : 12, "text" : "먹는다.", "head" : -1, "label" : "VP", "mod" : [11], "weight" : 0.271697 }
	],
	"phrase_dependency" : [
	],
	"SRL" : [
	],
	"relation" : [
	],
	"SA" : [
	],
	"ZA" : [
	]
	},
	{
	"id" : 1,
	"reserve_str" : "",
	"text" : " 구수한 맛과 부드러운 식감이 특징이며 무청을 말린 것을 뜻하는데 이것은 무엇일까?",
	"morp" : [
	],
	"morp_eval" : [
	],
	"WSD" : [
	],
	"word" : [
		{"id" : 0, "text" : "구수한", "type" : "", "begin" : 0, "end" : 2},
		{"id" : 1, "text" : "맛과", "type" : "", "begin" : 3, "end" : 4},
		{"id" : 2, "text" : "부드러운", "type" : "", "begin" : 5, "end" : 6},
		{"id" : 3, "text" : "식감이", "type" : "", "begin" : 7, "end" : 8},
		{"id" : 4, "text" : "특징이며", "type" : "", "begin" : 9, "end" : 11},
		{"id" : 5, "text" : "무청을", "type" : "", "begin" : 12, "end" : 13},
		{"id" : 6, "text" : "말린", "type" : "", "begin" : 14, "end" : 15},
		{"id" : 7, "text" : "것을", "type" : "", "begin" : 16, "end" : 17},
		{"id" : 8, "text" : "뜻하는데", "type" : "", "begin" : 18, "end" : 19},
		{"id" : 9, "text" : "이것은", "type" : "", "begin" : 20, "end" : 21},
		{"id" : 10, "text" : "무엇일까?", "type" : "", "begin" : 22, "end" : 25}
	],
	"NE" : [
	],
	"chunk" : [
	],
	"dependency" : [
		{"id" : 0, "text" : "구수한", "head" : 1, "label" : "VP_MOD", "mod" : [], "weight" : 0.765765 },
		{"id" : 1, "text" : "맛과", "head" : 3, "label" : "NP_CNJ", "mod" : [0], "weight" : 0.719548 },
		{"id" : 2, "text" : "부드러운", "head" : 3, "label" : "VP_MOD", "mod" : [], "weight" : 0.904428 },
		{"id" : 3, "text" : "식감이", "head" : 4, "label" : "NP_SBJ", "mod" : [1, 2], "weight" : 0.828101 },
		{"id" : 4, "text" : "특징이며", "head" : 8, "label" : "VNP", "mod" : [3], "weight" : 0.817623 },
		{"id" : 5, "text" : "무청을", "head" : 6, "label" : "NP_OBJ", "mod" : [], "weight" : 0.994176 },
		{"id" : 6, "text" : "말린", "head" : 7, "label" : "VP_MOD", "mod" : [5], "weight" : 0.862684 },
		{"id" : 7, "text" : "것을", "head" : 8, "label" : "NP_OBJ", "mod" : [6], "weight" : 0.741875 },
		{"id" : 8, "text" : "뜻하는데", "head" : 10, "label" : "VP", "mod" : [4, 7], "weight" : 0.718442 },
		{"id" : 9, "text" : "이것은", "head" : 10, "label" : "NP_SBJ", "mod" : [], "weight" : 0.648753 },
		{"id" : 10, "text" : "무엇일까?", "head" : -1, "label" : "VNP", "mod" : [8, 9], "weight" : 0.731764 }
	],
	"phrase_dependency" : [
	],
	"SRL" : [
	],
	"relation" : [
	],
	"SA" : [
	],
	"ZA" : [
	]
	}
 ],
 "entity" : [
 ]
}

