{"doc_id" : "933.004_Q.01",
 "DCT" : "",
 "category" : "",
 "category_weight" : 0,
 "title" : {"text" : "Q4", "NE" : ""},
 "metaInfo" : { },
 "sentence" : [
	{
	"id" : 0,
	"reserve_str" : "",
	"text" : "이 사람은 백성들이 글을 제대로 쓰지 못하는 것을 안타깝게 여겨 누구나 쉽게 배우고 쓸 수 있는 <훈민정음> 즉, 한글을 창제했다.",
	"morp" : [
	],
	"morp_eval" : [
	],
	"WSD" : [
	],
	"word" : [
		{"id" : 0, "text" : "이", "type" : "", "begin" : 0, "end" : 0},
		{"id" : 1, "text" : "사람은", "type" : "", "begin" : 1, "end" : 2},
		{"id" : 2, "text" : "백성들이", "type" : "", "begin" : 3, "end" : 5},
		{"id" : 3, "text" : "글을", "type" : "", "begin" : 6, "end" : 7},
		{"id" : 4, "text" : "제대로", "type" : "", "begin" : 8, "end" : 8},
		{"id" : 5, "text" : "쓰지", "type" : "", "begin" : 9, "end" : 10},
		{"id" : 6, "text" : "못하는", "type" : "", "begin" : 11, "end" : 12},
		{"id" : 7, "text" : "것을", "type" : "", "begin" : 13, "end" : 14},
		{"id" : 8, "text" : "안타깝게", "type" : "", "begin" : 15, "end" : 16},
		{"id" : 9, "text" : "여겨", "type" : "", "begin" : 17, "end" : 18},
		{"id" : 10, "text" : "누구나", "type" : "", "begin" : 19, "end" : 20},
		{"id" : 11, "text" : "쉽게", "type" : "", "begin" : 21, "end" : 22},
		{"id" : 12, "text" : "배우고", "type" : "", "begin" : 23, "end" : 24},
		{"id" : 13, "text" : "쓸", "type" : "", "begin" : 25, "end" : 26},
		{"id" : 14, "text" : "수", "type" : "", "begin" : 27, "end" : 27},
		{"id" : 15, "text" : "있는", "type" : "", "begin" : 28, "end" : 29},
		{"id" : 16, "text" : "<훈민정음>", "type" : "", "begin" : 30, "end" : 33},
		{"id" : 17, "text" : "즉,", "type" : "", "begin" : 34, "end" : 35},
		{"id" : 18, "text" : "한글을", "type" : "", "begin" : 36, "end" : 37},
		{"id" : 19, "text" : "창제했다.", "type" : "", "begin" : 38, "end" : 42}
	],
	"NE" : [
	],
	"chunk" : [
	],
	"dependency" : [
		{"id" : 0, "text" : "이", "head" : 1, "label" : "DP", "mod" : [], "weight" : 0.924492 },
		{"id" : 1, "text" : "사람은", "head" : 9, "label" : "NP_SBJ", "mod" : [0], "weight" : 0.529472 },
		{"id" : 2, "text" : "백성들이", "head" : 5, "label" : "NP_SBJ", "mod" : [], "weight" : 0.858422 },
		{"id" : 3, "text" : "글을", "head" : 5, "label" : "NP_OBJ", "mod" : [], "weight" : 0.98995 },
		{"id" : 4, "text" : "제대로", "head" : 5, "label" : "AP", "mod" : [], "weight" : 0.986006 },
		{"id" : 5, "text" : "쓰지", "head" : 6, "label" : "VP", "mod" : [2, 3, 4], "weight" : 0.90334 },
		{"id" : 6, "text" : "못하는", "head" : 7, "label" : "VP_MOD", "mod" : [5], "weight" : 0.936098 },
		{"id" : 7, "text" : "것을", "head" : 9, "label" : "NP_OBJ", "mod" : [6], "weight" : 0.878189 },
		{"id" : 8, "text" : "안타깝게", "head" : 9, "label" : "VP_AJT", "mod" : [], "weight" : 0.712692 },
		{"id" : 9, "text" : "여겨", "head" : 19, "label" : "VP", "mod" : [1, 7, 8], "weight" : 0.627702 },
		{"id" : 10, "text" : "누구나", "head" : 12, "label" : "NP_SBJ", "mod" : [], "weight" : 0.569939 },
		{"id" : 11, "text" : "쉽게", "head" : 12, "label" : "VP_AJT", "mod" : [], "weight" : 0.809544 },
		{"id" : 12, "text" : "배우고", "head" : 13, "label" : "VP", "mod" : [10, 11], "weight" : 0.745019 },
		{"id" : 13, "text" : "쓸", "head" : 14, "label" : "VP_MOD", "mod" : [12], "weight" : 0.922828 },
		{"id" : 14, "text" : "수", "head" : 15, "label" : "NP_SBJ", "mod" : [13], "weight" : 0.859579 },
		{"id" : 15, "text" : "있는", "head" : 16, "label" : "VP_MOD", "mod" : [14], "weight" : 0.55188 },
		{"id" : 16, "text" : "<훈민정음>", "head" : 19, "label" : "NP_CNJ", "mod" : [15], "weight" : 0.603926 },
		{"id" : 17, "text" : "즉,", "head" : 18, "label" : "AP", "mod" : [], "weight" : 0.342737 },
		{"id" : 18, "text" : "한글을", "head" : 19, "label" : "NP_OBJ", "mod" : [17], "weight" : 0.447269 },
		{"id" : 19, "text" : "창제했다.", "head" : -1, "label" : "VP", "mod" : [9, 16, 18], "weight" : 0.137055 }
	],
	"phrase_dependency" : [
	],
	"SRL" : [
	],
	"relation" : [
	],
	"SA" : [
	],
	"ZA" : [
	]
	},
	{
	"id" : 1,
	"reserve_str" : "",
	"text" : "측우기 등의 과학 기구를 제작했으며 조선 시기 4대 왕인 이 사람은 누구일까?",
	"morp" : [
	],
	"morp_eval" : [
	],
	"WSD" : [
	],
	"word" : [
		{"id" : 0, "text" : "측우기", "type" : "", "begin" : 0, "end" : 0},
		{"id" : 1, "text" : "등의", "type" : "", "begin" : 1, "end" : 2},
		{"id" : 2, "text" : "과학", "type" : "", "begin" : 3, "end" : 3},
		{"id" : 3, "text" : "기구를", "type" : "", "begin" : 4, "end" : 5},
		{"id" : 4, "text" : "제작했으며", "type" : "", "begin" : 6, "end" : 9},
		{"id" : 5, "text" : "조선", "type" : "", "begin" : 10, "end" : 10},
		{"id" : 6, "text" : "시기", "type" : "", "begin" : 11, "end" : 11},
		{"id" : 7, "text" : "4대", "type" : "", "begin" : 12, "end" : 13},
		{"id" : 8, "text" : "왕인", "type" : "", "begin" : 14, "end" : 16},
		{"id" : 9, "text" : "이", "type" : "", "begin" : 17, "end" : 17},
		{"id" : 10, "text" : "사람은", "type" : "", "begin" : 18, "end" : 19},
		{"id" : 11, "text" : "누구일까?", "type" : "", "begin" : 20, "end" : 23}
	],
	"NE" : [
	],
	"chunk" : [
	],
	"dependency" : [
		{"id" : 0, "text" : "측우기", "head" : 1, "label" : "NP", "mod" : [], "weight" : 0.95107 },
		{"id" : 1, "text" : "등의", "head" : 3, "label" : "NP_MOD", "mod" : [0], "weight" : 0.817435 },
		{"id" : 2, "text" : "과학", "head" : 3, "label" : "NP", "mod" : [], "weight" : 0.869865 },
		{"id" : 3, "text" : "기구를", "head" : 4, "label" : "NP_OBJ", "mod" : [1, 2], "weight" : 0.820117 },
		{"id" : 4, "text" : "제작했으며", "head" : 11, "label" : "VP", "mod" : [3], "weight" : 0.895766 },
		{"id" : 5, "text" : "조선", "head" : 6, "label" : "NP", "mod" : [], "weight" : 0.772584 },
		{"id" : 6, "text" : "시기", "head" : 8, "label" : "NP", "mod" : [5], "weight" : 0.798236 },
		{"id" : 7, "text" : "4대", "head" : 8, "label" : "NP", "mod" : [], "weight" : 0.923089 },
		{"id" : 8, "text" : "왕인", "head" : 10, "label" : "VNP_MOD", "mod" : [6, 7], "weight" : 0.89733 },
		{"id" : 9, "text" : "이", "head" : 10, "label" : "DP", "mod" : [], "weight" : 0.958794 },
		{"id" : 10, "text" : "사람은", "head" : 11, "label" : "NP_SBJ", "mod" : [8, 9], "weight" : 0.745924 },
		{"id" : 11, "text" : "누구일까?", "head" : -1, "label" : "VNP", "mod" : [4, 10], "weight" : 0.122547 }
	],
	"phrase_dependency" : [
	],
	"SRL" : [
	],
	"relation" : [
	],
	"SA" : [
	],
	"ZA" : [
	]
	}
 ],
 "entity" : [
 ]
}

