{"doc_id" : "933.009_A.02",
 "DCT" : "",
 "category" : "",
 "category_weight" : 0,
 "title" : {"text" : "도랑 치고 가재 잡는다", "NE" : ""},
 "metaInfo" : { },
 "sentence" : [
	{
	"id" : 0,
	"reserve_str" : "",
	"text" : "도랑 치고 가재 잡는다",
	"morp" : [
	],
	"morp_eval" : [
	],
	"WSD" : [
	],
	"word" : [
		{"id" : 0, "text" : "도랑", "type" : "", "begin" : 0, "end" : 0},
		{"id" : 1, "text" : "치고", "type" : "", "begin" : 1, "end" : 2},
		{"id" : 2, "text" : "가재", "type" : "", "begin" : 3, "end" : 3},
		{"id" : 3, "text" : "잡는다", "type" : "", "begin" : 4, "end" : 5}
	],
	"NE" : [
	],
	"chunk" : [
	],
	"dependency" : [
		{"id" : 0, "text" : "도랑", "head" : 1, "label" : "NP_OBJ", "mod" : [], "weight" : 0.716153 },
		{"id" : 1, "text" : "치고", "head" : 3, "label" : "VP", "mod" : [0], "weight" : 0.620749 },
		{"id" : 2, "text" : "가재", "head" : 3, "label" : "NP_OBJ", "mod" : [], "weight" : 0.411513 },
		{"id" : 3, "text" : "잡는다", "head" : -1, "label" : "VP", "mod" : [1, 2], "weight" : 0.117613 }
	],
	"phrase_dependency" : [
	],
	"SRL" : [
	],
	"relation" : [
	],
	"SA" : [
	],
	"ZA" : [
	]
	}
 ],
 "entity" : [
 ]
}

