{"doc_id" : "934.022_Q.01",
 "DCT" : "",
 "category" : "",
 "category_weight" : 0,
 "title" : {"text" : "Q22", "NE" : ""},
 "metaInfo" : { },
 "sentence" : [
	{
	"id" : 0,
	"reserve_str" : "",
	"text" : "이것은 풍부한 단백질을 포함하며 타우린과 불포화 지방산인 오메가 3가 들어 있어 미래의 식량자원으로 손꼽힌다.",
	"morp" : [
	],
	"morp_eval" : [
	],
	"WSD" : [
	],
	"word" : [
		{"id" : 0, "text" : "이것은", "type" : "", "begin" : 0, "end" : 1},
		{"id" : 1, "text" : "풍부한", "type" : "", "begin" : 2, "end" : 3},
		{"id" : 2, "text" : "단백질을", "type" : "", "begin" : 4, "end" : 6},
		{"id" : 3, "text" : "포함하며", "type" : "", "begin" : 7, "end" : 9},
		{"id" : 4, "text" : "타우린과", "type" : "", "begin" : 10, "end" : 11},
		{"id" : 5, "text" : "불포화", "type" : "", "begin" : 12, "end" : 13},
		{"id" : 6, "text" : "지방산인", "type" : "", "begin" : 14, "end" : 17},
		{"id" : 7, "text" : "오메가", "type" : "", "begin" : 18, "end" : 18},
		{"id" : 8, "text" : "3가", "type" : "", "begin" : 19, "end" : 20},
		{"id" : 9, "text" : "들어", "type" : "", "begin" : 21, "end" : 22},
		{"id" : 10, "text" : "있어", "type" : "", "begin" : 23, "end" : 24},
		{"id" : 11, "text" : "미래의", "type" : "", "begin" : 25, "end" : 26},
		{"id" : 12, "text" : "식량자원으로", "type" : "", "begin" : 27, "end" : 29},
		{"id" : 13, "text" : "손꼽힌다.", "type" : "", "begin" : 30, "end" : 32}
	],
	"NE" : [
	],
	"chunk" : [
	],
	"dependency" : [
		{"id" : 0, "text" : "이것은", "head" : 3, "label" : "NP_SBJ", "mod" : [], "weight" : 0.619558 },
		{"id" : 1, "text" : "풍부한", "head" : 2, "label" : "VP_MOD", "mod" : [], "weight" : 0.830101 },
		{"id" : 2, "text" : "단백질을", "head" : 3, "label" : "NP_OBJ", "mod" : [1], "weight" : 0.831927 },
		{"id" : 3, "text" : "포함하며", "head" : 9, "label" : "VP", "mod" : [0, 2], "weight" : 0.907434 },
		{"id" : 4, "text" : "타우린과", "head" : 8, "label" : "NP_CNJ", "mod" : [], "weight" : 0.602912 },
		{"id" : 5, "text" : "불포화", "head" : 6, "label" : "NP", "mod" : [], "weight" : 0.92764 },
		{"id" : 6, "text" : "지방산인", "head" : 8, "label" : "VNP_MOD", "mod" : [5], "weight" : 0.82147 },
		{"id" : 7, "text" : "오메가", "head" : 8, "label" : "NP", "mod" : [], "weight" : 0.791831 },
		{"id" : 8, "text" : "3가", "head" : 9, "label" : "NP_SBJ", "mod" : [4, 6, 7], "weight" : 0.609203 },
		{"id" : 9, "text" : "들어", "head" : 10, "label" : "VP", "mod" : [3, 8], "weight" : 0.565799 },
		{"id" : 10, "text" : "있어", "head" : 13, "label" : "VP", "mod" : [9], "weight" : 0.62525 },
		{"id" : 11, "text" : "미래의", "head" : 12, "label" : "NP_MOD", "mod" : [], "weight" : 0.819239 },
		{"id" : 12, "text" : "식량자원으로", "head" : 13, "label" : "NP_AJT", "mod" : [11], "weight" : 0.648193 },
		{"id" : 13, "text" : "손꼽힌다.", "head" : -1, "label" : "VP", "mod" : [10, 12], "weight" : 0.112082 }
	],
	"phrase_dependency" : [
	],
	"SRL" : [
	],
	"relation" : [
	],
	"SA" : [
	],
	"ZA" : [
	]
	},
	{
	"id" : 1,
	"reserve_str" : "",
	"text" : "바다의 흔한 동물성 플랑크톤으로 난바다곤쟁이목에 속하며 노르웨이어로 '작은 물고기'라는 뜻을 가진 이것은 무엇일까?",
	"morp" : [
	],
	"morp_eval" : [
	],
	"WSD" : [
	],
	"word" : [
		{"id" : 0, "text" : "바다의", "type" : "", "begin" : 0, "end" : 1},
		{"id" : 1, "text" : "흔한", "type" : "", "begin" : 2, "end" : 3},
		{"id" : 2, "text" : "동물성", "type" : "", "begin" : 4, "end" : 5},
		{"id" : 3, "text" : "플랑크톤으로", "type" : "", "begin" : 6, "end" : 7},
		{"id" : 4, "text" : "난바다곤쟁이목에", "type" : "", "begin" : 8, "end" : 12},
		{"id" : 5, "text" : "속하며", "type" : "", "begin" : 13, "end" : 14},
		{"id" : 6, "text" : "노르웨이어로", "type" : "", "begin" : 15, "end" : 17},
		{"id" : 7, "text" : "'작은", "type" : "", "begin" : 18, "end" : 20},
		{"id" : 8, "text" : "물고기'라는", "type" : "", "begin" : 21, "end" : 24},
		{"id" : 9, "text" : "뜻을", "type" : "", "begin" : 25, "end" : 26},
		{"id" : 10, "text" : "가진", "type" : "", "begin" : 27, "end" : 28},
		{"id" : 11, "text" : "이것은", "type" : "", "begin" : 29, "end" : 30},
		{"id" : 12, "text" : "무엇일까?", "type" : "", "begin" : 31, "end" : 34}
	],
	"NE" : [
	],
	"chunk" : [
	],
	"dependency" : [
		{"id" : 0, "text" : "바다의", "head" : 3, "label" : "NP_MOD", "mod" : [], "weight" : 0.922114 },
		{"id" : 1, "text" : "흔한", "head" : 3, "label" : "VP_MOD", "mod" : [], "weight" : 0.837048 },
		{"id" : 2, "text" : "동물성", "head" : 3, "label" : "NP", "mod" : [], "weight" : 0.654106 },
		{"id" : 3, "text" : "플랑크톤으로", "head" : 5, "label" : "NP_AJT", "mod" : [0, 1, 2], "weight" : 0.82006 },
		{"id" : 4, "text" : "난바다곤쟁이목에", "head" : 5, "label" : "NP_AJT", "mod" : [], "weight" : 0.854919 },
		{"id" : 5, "text" : "속하며", "head" : 10, "label" : "VP", "mod" : [3, 4], "weight" : 0.862324 },
		{"id" : 6, "text" : "노르웨이어로", "head" : 10, "label" : "NP_AJT", "mod" : [], "weight" : 0.800292 },
		{"id" : 7, "text" : "'작은", "head" : 8, "label" : "VP_MOD", "mod" : [], "weight" : 0.775332 },
		{"id" : 8, "text" : "물고기'라는", "head" : 9, "label" : "VNP_MOD", "mod" : [7], "weight" : 0.903195 },
		{"id" : 9, "text" : "뜻을", "head" : 10, "label" : "NP_OBJ", "mod" : [8], "weight" : 0.925836 },
		{"id" : 10, "text" : "가진", "head" : 11, "label" : "VP_MOD", "mod" : [5, 6, 9], "weight" : 0.822703 },
		{"id" : 11, "text" : "이것은", "head" : 12, "label" : "NP_SBJ", "mod" : [10], "weight" : 0.714577 },
		{"id" : 12, "text" : "무엇일까?", "head" : -1, "label" : "VNP", "mod" : [11], "weight" : 0.618869 }
	],
	"phrase_dependency" : [
	],
	"SRL" : [
	],
	"relation" : [
	],
	"SA" : [
	],
	"ZA" : [
	]
	}
 ],
 "entity" : [
 ]
}

