{"doc_id" : "934.012_A.05",
 "DCT" : "",
 "category" : "",
 "category_weight" : 0,
 "title" : {"text" : "알프레드 노벨의 유언 중에서", "NE" : ""},
 "metaInfo" : { },
 "sentence" : [
	{
	"id" : 0,
	"reserve_str" : "",
	"text" : "노벨 경제학상은 스웨덴 중앙은행의 기부금으로 1968년에 조성되었으며, 노벨의 유언에는 언급되지 않았다.",
	"morp" : [
	],
	"morp_eval" : [
	],
	"WSD" : [
	],
	"word" : [
		{"id" : 0, "text" : "노벨", "type" : "", "begin" : 0, "end" : 0},
		{"id" : 1, "text" : "경제학상은", "type" : "", "begin" : 1, "end" : 4},
		{"id" : 2, "text" : "스웨덴", "type" : "", "begin" : 5, "end" : 5},
		{"id" : 3, "text" : "중앙은행의", "type" : "", "begin" : 6, "end" : 8},
		{"id" : 4, "text" : "기부금으로", "type" : "", "begin" : 9, "end" : 11},
		{"id" : 5, "text" : "1968년에", "type" : "", "begin" : 12, "end" : 14},
		{"id" : 6, "text" : "조성되었으며,", "type" : "", "begin" : 15, "end" : 19},
		{"id" : 7, "text" : "노벨의", "type" : "", "begin" : 20, "end" : 21},
		{"id" : 8, "text" : "유언에는", "type" : "", "begin" : 22, "end" : 24},
		{"id" : 9, "text" : "언급되지", "type" : "", "begin" : 25, "end" : 27},
		{"id" : 10, "text" : "않았다.", "type" : "", "begin" : 28, "end" : 31}
	],
	"NE" : [
	],
	"chunk" : [
	],
	"dependency" : [
		{"id" : 0, "text" : "노벨", "head" : 1, "label" : "NP", "mod" : [], "weight" : 0.696011 },
		{"id" : 1, "text" : "경제학상은", "head" : 6, "label" : "NP_SBJ", "mod" : [0], "weight" : 0.977069 },
		{"id" : 2, "text" : "스웨덴", "head" : 3, "label" : "NP", "mod" : [], "weight" : 0.850589 },
		{"id" : 3, "text" : "중앙은행의", "head" : 4, "label" : "NP_MOD", "mod" : [2], "weight" : 0.869198 },
		{"id" : 4, "text" : "기부금으로", "head" : 6, "label" : "NP_AJT", "mod" : [3], "weight" : 0.952555 },
		{"id" : 5, "text" : "1968년에", "head" : 6, "label" : "NP_AJT", "mod" : [], "weight" : 0.670561 },
		{"id" : 6, "text" : "조성되었으며,", "head" : 9, "label" : "VP", "mod" : [1, 4, 5], "weight" : 0.914857 },
		{"id" : 7, "text" : "노벨의", "head" : 8, "label" : "NP_MOD", "mod" : [], "weight" : 0.936486 },
		{"id" : 8, "text" : "유언에는", "head" : 9, "label" : "NP_AJT", "mod" : [7], "weight" : 0.698722 },
		{"id" : 9, "text" : "언급되지", "head" : 10, "label" : "VP", "mod" : [6, 8], "weight" : 0.536309 },
		{"id" : 10, "text" : "않았다.", "head" : -1, "label" : "VP", "mod" : [9], "weight" : 0.762419 }
	],
	"phrase_dependency" : [
	],
	"SRL" : [
	],
	"relation" : [
	],
	"SA" : [
	],
	"ZA" : [
	]
	}
 ],
 "entity" : [
 ]
}

