{"doc_id" : "934.021_A.04",
 "DCT" : "",
 "category" : "",
 "category_weight" : 0,
 "title" : {"text" : "모자이크", "NE" : ""},
 "metaInfo" : { },
 "sentence" : [
	{
	"id" : 0,
	"reserve_str" : "",
	"text" : "대리석이나 기타의 돌, 글라스 등 작은 단편들을 늘어놓아 일정한 형상이나 모양을 표현하는 예술.",
	"morp" : [
	],
	"morp_eval" : [
	],
	"WSD" : [
	],
	"word" : [
		{"id" : 0, "text" : "대리석이나", "type" : "", "begin" : 0, "end" : 1},
		{"id" : 1, "text" : "기타의", "type" : "", "begin" : 2, "end" : 3},
		{"id" : 2, "text" : "돌,", "type" : "", "begin" : 4, "end" : 5},
		{"id" : 3, "text" : "글라스", "type" : "", "begin" : 6, "end" : 6},
		{"id" : 4, "text" : "등", "type" : "", "begin" : 7, "end" : 7},
		{"id" : 5, "text" : "작은", "type" : "", "begin" : 8, "end" : 9},
		{"id" : 6, "text" : "단편들을", "type" : "", "begin" : 10, "end" : 12},
		{"id" : 7, "text" : "늘어놓아", "type" : "", "begin" : 13, "end" : 14},
		{"id" : 8, "text" : "일정한", "type" : "", "begin" : 15, "end" : 17},
		{"id" : 9, "text" : "형상이나", "type" : "", "begin" : 18, "end" : 19},
		{"id" : 10, "text" : "모양을", "type" : "", "begin" : 20, "end" : 21},
		{"id" : 11, "text" : "표현하는", "type" : "", "begin" : 22, "end" : 24},
		{"id" : 12, "text" : "예술.", "type" : "", "begin" : 25, "end" : 26}
	],
	"NE" : [
	],
	"chunk" : [
	],
	"dependency" : [
		{"id" : 0, "text" : "대리석이나", "head" : 3, "label" : "NP_CNJ", "mod" : [], "weight" : 0.651305 },
		{"id" : 1, "text" : "기타의", "head" : 2, "label" : "NP_MOD", "mod" : [], "weight" : 0.684318 },
		{"id" : 2, "text" : "돌,", "head" : 3, "label" : "NP_CNJ", "mod" : [1], "weight" : 0.665779 },
		{"id" : 3, "text" : "글라스", "head" : 4, "label" : "NP", "mod" : [0, 2], "weight" : 0.923047 },
		{"id" : 4, "text" : "등", "head" : 6, "label" : "NP", "mod" : [3], "weight" : 0.781108 },
		{"id" : 5, "text" : "작은", "head" : 6, "label" : "VP_MOD", "mod" : [], "weight" : 0.842079 },
		{"id" : 6, "text" : "단편들을", "head" : 7, "label" : "NP_OBJ", "mod" : [4, 5], "weight" : 0.96451 },
		{"id" : 7, "text" : "늘어놓아", "head" : 11, "label" : "VP", "mod" : [6], "weight" : 0.720231 },
		{"id" : 8, "text" : "일정한", "head" : 10, "label" : "VP_MOD", "mod" : [], "weight" : 0.881855 },
		{"id" : 9, "text" : "형상이나", "head" : 10, "label" : "NP_CNJ", "mod" : [], "weight" : 0.775621 },
		{"id" : 10, "text" : "모양을", "head" : 11, "label" : "NP_OBJ", "mod" : [8, 9], "weight" : 0.97927 },
		{"id" : 11, "text" : "표현하는", "head" : 12, "label" : "VP_MOD", "mod" : [7, 10], "weight" : 0.63671 },
		{"id" : 12, "text" : "예술.", "head" : -1, "label" : "NP", "mod" : [11], "weight" : 0.300621 }
	],
	"phrase_dependency" : [
	],
	"SRL" : [
	],
	"relation" : [
	],
	"SA" : [
	],
	"ZA" : [
	]
	}
 ],
 "entity" : [
 ]
}

