{"doc_id" : "934.022_A.03",
 "DCT" : "",
 "category" : "",
 "category_weight" : 0,
 "title" : {"text" : "크릴", "NE" : ""},
 "metaInfo" : { },
 "sentence" : [
	{
	"id" : 0,
	"reserve_str" : "",
	"text" : "크릴(Krill)이라는 말은 원래 노르웨이의 포경선에서 \"작은 치어\"라는 뜻으로 사용했던 용어로서 다양한 종류의 부유성 갑각류를 지칭하는 용어였다.",
	"morp" : [
	],
	"morp_eval" : [
	],
	"WSD" : [
	],
	"word" : [
		{"id" : 0, "text" : "크릴(Krill)이라는", "type" : "", "begin" : 0, "end" : 5},
		{"id" : 1, "text" : "말은", "type" : "", "begin" : 6, "end" : 7},
		{"id" : 2, "text" : "원래", "type" : "", "begin" : 8, "end" : 8},
		{"id" : 3, "text" : "노르웨이의", "type" : "", "begin" : 9, "end" : 10},
		{"id" : 4, "text" : "포경선에서", "type" : "", "begin" : 11, "end" : 13},
		{"id" : 5, "text" : "\"작은", "type" : "", "begin" : 14, "end" : 16},
		{"id" : 6, "text" : "치어\"라는", "type" : "", "begin" : 17, "end" : 21},
		{"id" : 7, "text" : "뜻으로", "type" : "", "begin" : 22, "end" : 23},
		{"id" : 8, "text" : "사용했던", "type" : "", "begin" : 24, "end" : 27},
		{"id" : 9, "text" : "용어로서", "type" : "", "begin" : 28, "end" : 29},
		{"id" : 10, "text" : "다양한", "type" : "", "begin" : 30, "end" : 32},
		{"id" : 11, "text" : "종류의", "type" : "", "begin" : 33, "end" : 34},
		{"id" : 12, "text" : "부유성", "type" : "", "begin" : 35, "end" : 36},
		{"id" : 13, "text" : "갑각류를", "type" : "", "begin" : 37, "end" : 39},
		{"id" : 14, "text" : "지칭하는", "type" : "", "begin" : 40, "end" : 41},
		{"id" : 15, "text" : "용어였다.", "type" : "", "begin" : 42, "end" : 46}
	],
	"NE" : [
	],
	"chunk" : [
	],
	"dependency" : [
		{"id" : 0, "text" : "크릴(Krill)이라는", "head" : 1, "label" : "VNP_MOD", "mod" : [], "weight" : 0.922457 },
		{"id" : 1, "text" : "말은", "head" : 9, "label" : "NP_SBJ", "mod" : [0], "weight" : 0.966173 },
		{"id" : 2, "text" : "원래", "head" : 8, "label" : "NP_AJT", "mod" : [], "weight" : 0.769905 },
		{"id" : 3, "text" : "노르웨이의", "head" : 4, "label" : "NP_MOD", "mod" : [], "weight" : 0.900267 },
		{"id" : 4, "text" : "포경선에서", "head" : 8, "label" : "NP_AJT", "mod" : [3], "weight" : 0.602245 },
		{"id" : 5, "text" : "\"작은", "head" : 6, "label" : "AP", "mod" : [], "weight" : 0.373698 },
		{"id" : 6, "text" : "치어\"라는", "head" : 7, "label" : "VNP_MOD", "mod" : [5], "weight" : 0.835598 },
		{"id" : 7, "text" : "뜻으로", "head" : 8, "label" : "NP_AJT", "mod" : [6], "weight" : 0.856979 },
		{"id" : 8, "text" : "사용했던", "head" : 9, "label" : "VP_MOD", "mod" : [2, 4, 7], "weight" : 0.958702 },
		{"id" : 9, "text" : "용어로서", "head" : 15, "label" : "NP_AJT", "mod" : [1, 8], "weight" : 0.729 },
		{"id" : 10, "text" : "다양한", "head" : 11, "label" : "VP_MOD", "mod" : [], "weight" : 0.600511 },
		{"id" : 11, "text" : "종류의", "head" : 13, "label" : "NP_MOD", "mod" : [10], "weight" : 0.903453 },
		{"id" : 12, "text" : "부유성", "head" : 13, "label" : "NP", "mod" : [], "weight" : 0.959406 },
		{"id" : 13, "text" : "갑각류를", "head" : 14, "label" : "NP_OBJ", "mod" : [11, 12], "weight" : 0.545337 },
		{"id" : 14, "text" : "지칭하는", "head" : 15, "label" : "VP_MOD", "mod" : [13], "weight" : 0.511996 },
		{"id" : 15, "text" : "용어였다.", "head" : -1, "label" : "VNP", "mod" : [9, 14], "weight" : 0.202989 }
	],
	"phrase_dependency" : [
	],
	"SRL" : [
	],
	"relation" : [
	],
	"SA" : [
	],
	"ZA" : [
	]
	},
	{
	"id" : 1,
	"reserve_str" : "",
	"text" : "하지만 현재는 Euphausia superba라는 반투명성의 새우 모양을 닮은 갑각류를 칭하는 용어로 주로 쓰인다.",
	"morp" : [
	],
	"morp_eval" : [
	],
	"WSD" : [
	],
	"word" : [
		{"id" : 0, "text" : "하지만", "type" : "", "begin" : 0, "end" : 1},
		{"id" : 1, "text" : "현재는", "type" : "", "begin" : 2, "end" : 3},
		{"id" : 2, "text" : "Euphausia", "type" : "", "begin" : 4, "end" : 4},
		{"id" : 3, "text" : "superba라는", "type" : "", "begin" : 5, "end" : 6},
		{"id" : 4, "text" : "반투명성의", "type" : "", "begin" : 7, "end" : 10},
		{"id" : 5, "text" : "새우", "type" : "", "begin" : 11, "end" : 11},
		{"id" : 6, "text" : "모양을", "type" : "", "begin" : 12, "end" : 13},
		{"id" : 7, "text" : "닮은", "type" : "", "begin" : 14, "end" : 15},
		{"id" : 8, "text" : "갑각류를", "type" : "", "begin" : 16, "end" : 18},
		{"id" : 9, "text" : "칭하는", "type" : "", "begin" : 19, "end" : 20},
		{"id" : 10, "text" : "용어로", "type" : "", "begin" : 21, "end" : 22},
		{"id" : 11, "text" : "주로", "type" : "", "begin" : 23, "end" : 23},
		{"id" : 12, "text" : "쓰인다.", "type" : "", "begin" : 24, "end" : 26}
	],
	"NE" : [
	],
	"chunk" : [
	],
	"dependency" : [
		{"id" : 0, "text" : "하지만", "head" : 12, "label" : "VP", "mod" : [], "weight" : 0.682516 },
		{"id" : 1, "text" : "현재는", "head" : 12, "label" : "NP_SBJ", "mod" : [], "weight" : 0.729931 },
		{"id" : 2, "text" : "Euphausia", "head" : 3, "label" : "NP", "mod" : [], "weight" : 0.683391 },
		{"id" : 3, "text" : "superba라는", "head" : 8, "label" : "VNP_MOD", "mod" : [2], "weight" : 0.709372 },
		{"id" : 4, "text" : "반투명성의", "head" : 6, "label" : "NP_MOD", "mod" : [], "weight" : 0.713105 },
		{"id" : 5, "text" : "새우", "head" : 6, "label" : "NP", "mod" : [], "weight" : 0.900995 },
		{"id" : 6, "text" : "모양을", "head" : 7, "label" : "NP_OBJ", "mod" : [4, 5], "weight" : 0.773432 },
		{"id" : 7, "text" : "닮은", "head" : 8, "label" : "VP_MOD", "mod" : [6], "weight" : 0.732521 },
		{"id" : 8, "text" : "갑각류를", "head" : 9, "label" : "NP_OBJ", "mod" : [3, 7], "weight" : 0.713284 },
		{"id" : 9, "text" : "칭하는", "head" : 10, "label" : "VP_MOD", "mod" : [8], "weight" : 0.881763 },
		{"id" : 10, "text" : "용어로", "head" : 12, "label" : "NP_AJT", "mod" : [9], "weight" : 0.622926 },
		{"id" : 11, "text" : "주로", "head" : 12, "label" : "AP", "mod" : [], "weight" : 0.506288 },
		{"id" : 12, "text" : "쓰인다.", "head" : -1, "label" : "VP", "mod" : [0, 1, 10, 11], "weight" : 0.122063 }
	],
	"phrase_dependency" : [
	],
	"SRL" : [
	],
	"relation" : [
	],
	"SA" : [
	],
	"ZA" : [
	]
	}
 ],
 "entity" : [
 ]
}

