{"doc_id" : "934.022_A.01",
 "DCT" : "",
 "category" : "",
 "category_weight" : 0,
 "title" : {"text" : "크릴", "NE" : ""},
 "metaInfo" : { },
 "sentence" : [
	{
	"id" : 0,
	"reserve_str" : "",
	"text" : "크릴(krill)은 난바다곤쟁이목(Euphausiacea)에 속하는 갑각류로 새우와 비슷하게 생긴 해양 무척추동물이다.",
	"morp" : [
	],
	"morp_eval" : [
	],
	"WSD" : [
	],
	"word" : [
		{"id" : 0, "text" : "크릴(krill)은", "type" : "", "begin" : 0, "end" : 4},
		{"id" : 1, "text" : "난바다곤쟁이목(Euphausiacea)에", "type" : "", "begin" : 5, "end" : 12},
		{"id" : 2, "text" : "속하는", "type" : "", "begin" : 13, "end" : 14},
		{"id" : 3, "text" : "갑각류로", "type" : "", "begin" : 15, "end" : 17},
		{"id" : 4, "text" : "새우와", "type" : "", "begin" : 18, "end" : 19},
		{"id" : 5, "text" : "비슷하게", "type" : "", "begin" : 20, "end" : 21},
		{"id" : 6, "text" : "생긴", "type" : "", "begin" : 22, "end" : 23},
		{"id" : 7, "text" : "해양", "type" : "", "begin" : 24, "end" : 24},
		{"id" : 8, "text" : "무척추동물이다.", "type" : "", "begin" : 25, "end" : 29}
	],
	"NE" : [
	],
	"chunk" : [
	],
	"dependency" : [
		{"id" : 0, "text" : "크릴(krill)은", "head" : 3, "label" : "NP_SBJ", "mod" : [], "weight" : 0.725733 },
		{"id" : 1, "text" : "난바다곤쟁이목(Euphausiacea)에", "head" : 2, "label" : "NP_AJT", "mod" : [], "weight" : 0.745168 },
		{"id" : 2, "text" : "속하는", "head" : 3, "label" : "VP_MOD", "mod" : [1], "weight" : 0.755913 },
		{"id" : 3, "text" : "갑각류로", "head" : 8, "label" : "NP_AJT", "mod" : [0, 2], "weight" : 0.93503 },
		{"id" : 4, "text" : "새우와", "head" : 5, "label" : "NP_AJT", "mod" : [], "weight" : 0.743645 },
		{"id" : 5, "text" : "비슷하게", "head" : 6, "label" : "VP_AJT", "mod" : [4], "weight" : 0.568032 },
		{"id" : 6, "text" : "생긴", "head" : 8, "label" : "VP_MOD", "mod" : [5], "weight" : 0.520305 },
		{"id" : 7, "text" : "해양", "head" : 8, "label" : "NP", "mod" : [], "weight" : 0.35619 },
		{"id" : 8, "text" : "무척추동물이다.", "head" : -1, "label" : "VNP", "mod" : [3, 6, 7], "weight" : 0.233724 }
	],
	"phrase_dependency" : [
	],
	"SRL" : [
	],
	"relation" : [
	],
	"SA" : [
	],
	"ZA" : [
	]
	},
	{
	"id" : 1,
	"reserve_str" : "",
	"text" : "그러나 새우와 친족 관계인 동물은 아니다.",
	"morp" : [
	],
	"morp_eval" : [
	],
	"WSD" : [
	],
	"word" : [
		{"id" : 0, "text" : "그러나", "type" : "", "begin" : 0, "end" : 0},
		{"id" : 1, "text" : "새우와", "type" : "", "begin" : 1, "end" : 2},
		{"id" : 2, "text" : "친족", "type" : "", "begin" : 3, "end" : 3},
		{"id" : 3, "text" : "관계인", "type" : "", "begin" : 4, "end" : 6},
		{"id" : 4, "text" : "동물은", "type" : "", "begin" : 7, "end" : 8},
		{"id" : 5, "text" : "아니다.", "type" : "", "begin" : 9, "end" : 11}
	],
	"NE" : [
	],
	"chunk" : [
	],
	"dependency" : [
		{"id" : 0, "text" : "그러나", "head" : 5, "label" : "AP", "mod" : [], "weight" : 0.830195 },
		{"id" : 1, "text" : "새우와", "head" : 3, "label" : "NP_AJT", "mod" : [], "weight" : 0.545309 },
		{"id" : 2, "text" : "친족", "head" : 3, "label" : "NP", "mod" : [], "weight" : 0.999659 },
		{"id" : 3, "text" : "관계인", "head" : 4, "label" : "VNP_MOD", "mod" : [1, 2], "weight" : 0.817455 },
		{"id" : 4, "text" : "동물은", "head" : 5, "label" : "NP_CMP", "mod" : [3], "weight" : 0.605935 },
		{"id" : 5, "text" : "아니다.", "head" : -1, "label" : "VP", "mod" : [0, 4], "weight" : 0.165836 }
	],
	"phrase_dependency" : [
	],
	"SRL" : [
	],
	"relation" : [
	],
	"SA" : [
	],
	"ZA" : [
	]
	},
	{
	"id" : 2,
	"reserve_str" : "",
	"text" : "최대 5cm까지 자라며 이들은 고래, 펭귄, 일부 상어, 물범, 심지어 인간에게 중요한 식량원이다.",
	"morp" : [
	],
	"morp_eval" : [
	],
	"WSD" : [
	],
	"word" : [
		{"id" : 0, "text" : "최대", "type" : "", "begin" : 0, "end" : 0},
		{"id" : 1, "text" : "5cm까지", "type" : "", "begin" : 1, "end" : 3},
		{"id" : 2, "text" : "자라며", "type" : "", "begin" : 4, "end" : 5},
		{"id" : 3, "text" : "이들은", "type" : "", "begin" : 6, "end" : 8},
		{"id" : 4, "text" : "고래,", "type" : "", "begin" : 9, "end" : 10},
		{"id" : 5, "text" : "펭귄,", "type" : "", "begin" : 11, "end" : 12},
		{"id" : 6, "text" : "일부", "type" : "", "begin" : 13, "end" : 13},
		{"id" : 7, "text" : "상어,", "type" : "", "begin" : 14, "end" : 15},
		{"id" : 8, "text" : "물범,", "type" : "", "begin" : 16, "end" : 17},
		{"id" : 9, "text" : "심지어", "type" : "", "begin" : 18, "end" : 18},
		{"id" : 10, "text" : "인간에게", "type" : "", "begin" : 19, "end" : 20},
		{"id" : 11, "text" : "중요한", "type" : "", "begin" : 21, "end" : 23},
		{"id" : 12, "text" : "식량원이다.", "type" : "", "begin" : 24, "end" : 28}
	],
	"NE" : [
	],
	"chunk" : [
	],
	"dependency" : [
		{"id" : 0, "text" : "최대", "head" : 1, "label" : "NP", "mod" : [], "weight" : 0.646795 },
		{"id" : 1, "text" : "5cm까지", "head" : 2, "label" : "NP_AJT", "mod" : [0], "weight" : 0.560322 },
		{"id" : 2, "text" : "자라며", "head" : 12, "label" : "VP", "mod" : [1], "weight" : 0.834336 },
		{"id" : 3, "text" : "이들은", "head" : 12, "label" : "NP_SBJ", "mod" : [], "weight" : 0.932121 },
		{"id" : 4, "text" : "고래,", "head" : 8, "label" : "NP_CNJ", "mod" : [], "weight" : 0.643955 },
		{"id" : 5, "text" : "펭귄,", "head" : 8, "label" : "NP_CNJ", "mod" : [], "weight" : 0.547907 },
		{"id" : 6, "text" : "일부", "head" : 7, "label" : "NP", "mod" : [], "weight" : 0.715755 },
		{"id" : 7, "text" : "상어,", "head" : 8, "label" : "NP_CNJ", "mod" : [6], "weight" : 0.505543 },
		{"id" : 8, "text" : "물범,", "head" : 10, "label" : "NP_CNJ", "mod" : [4, 5, 7], "weight" : 0.581048 },
		{"id" : 9, "text" : "심지어", "head" : 10, "label" : "AP", "mod" : [], "weight" : 0.736052 },
		{"id" : 10, "text" : "인간에게", "head" : 11, "label" : "NP_AJT", "mod" : [8, 9], "weight" : 0.658739 },
		{"id" : 11, "text" : "중요한", "head" : 12, "label" : "VP_MOD", "mod" : [10], "weight" : 0.574834 },
		{"id" : 12, "text" : "식량원이다.", "head" : -1, "label" : "VNP", "mod" : [2, 3, 11], "weight" : 0.43683 }
	],
	"phrase_dependency" : [
	],
	"SRL" : [
	],
	"relation" : [
	],
	"SA" : [
	],
	"ZA" : [
	]
	},
	{
	"id" : 3,
	"reserve_str" : "",
	"text" : "흰수염고래는 하루에 약 400만 마리나 되는 크릴새우를 먹는다.",
	"morp" : [
	],
	"morp_eval" : [
	],
	"WSD" : [
	],
	"word" : [
		{"id" : 0, "text" : "흰수염고래는", "type" : "", "begin" : 0, "end" : 2},
		{"id" : 1, "text" : "하루에", "type" : "", "begin" : 3, "end" : 4},
		{"id" : 2, "text" : "약", "type" : "", "begin" : 5, "end" : 5},
		{"id" : 3, "text" : "400만", "type" : "", "begin" : 6, "end" : 7},
		{"id" : 4, "text" : "마리나", "type" : "", "begin" : 8, "end" : 9},
		{"id" : 5, "text" : "되는", "type" : "", "begin" : 10, "end" : 11},
		{"id" : 6, "text" : "크릴새우를", "type" : "", "begin" : 12, "end" : 14},
		{"id" : 7, "text" : "먹는다.", "type" : "", "begin" : 15, "end" : 17}
	],
	"NE" : [
	],
	"chunk" : [
	],
	"dependency" : [
		{"id" : 0, "text" : "흰수염고래는", "head" : 7, "label" : "NP_SBJ", "mod" : [], "weight" : 0.841045 },
		{"id" : 1, "text" : "하루에", "head" : 7, "label" : "NP_AJT", "mod" : [], "weight" : 0.519092 },
		{"id" : 2, "text" : "약", "head" : 3, "label" : "DP", "mod" : [], "weight" : 0.733418 },
		{"id" : 3, "text" : "400만", "head" : 4, "label" : "NP", "mod" : [2], "weight" : 0.950493 },
		{"id" : 4, "text" : "마리나", "head" : 5, "label" : "NP_CMP", "mod" : [3], "weight" : 0.933187 },
		{"id" : 5, "text" : "되는", "head" : 6, "label" : "VP_MOD", "mod" : [4], "weight" : 0.722797 },
		{"id" : 6, "text" : "크릴새우를", "head" : 7, "label" : "NP_OBJ", "mod" : [5], "weight" : 0.64728 },
		{"id" : 7, "text" : "먹는다.", "head" : -1, "label" : "VP", "mod" : [0, 1, 6], "weight" : 0.939715 }
	],
	"phrase_dependency" : [
	],
	"SRL" : [
	],
	"relation" : [
	],
	"SA" : [
	],
	"ZA" : [
	]
	},
	{
	"id" : 4,
	"reserve_str" : "",
	"text" : "거대한 떼를 지어 나타나기도 해 가끔 바다를 온통 붉게 물들인다.",
	"morp" : [
	],
	"morp_eval" : [
	],
	"WSD" : [
	],
	"word" : [
		{"id" : 0, "text" : "거대한", "type" : "", "begin" : 0, "end" : 2},
		{"id" : 1, "text" : "떼를", "type" : "", "begin" : 3, "end" : 4},
		{"id" : 2, "text" : "지어", "type" : "", "begin" : 5, "end" : 6},
		{"id" : 3, "text" : "나타나기도", "type" : "", "begin" : 7, "end" : 9},
		{"id" : 4, "text" : "해", "type" : "", "begin" : 10, "end" : 11},
		{"id" : 5, "text" : "가끔", "type" : "", "begin" : 12, "end" : 12},
		{"id" : 6, "text" : "바다를", "type" : "", "begin" : 13, "end" : 14},
		{"id" : 7, "text" : "온통", "type" : "", "begin" : 15, "end" : 15},
		{"id" : 8, "text" : "붉게", "type" : "", "begin" : 16, "end" : 17},
		{"id" : 9, "text" : "물들인다.", "type" : "", "begin" : 18, "end" : 20}
	],
	"NE" : [
	],
	"chunk" : [
	],
	"dependency" : [
		{"id" : 0, "text" : "거대한", "head" : 1, "label" : "VP_MOD", "mod" : [], "weight" : 0.818473 },
		{"id" : 1, "text" : "떼를", "head" : 2, "label" : "NP_OBJ", "mod" : [0], "weight" : 0.838759 },
		{"id" : 2, "text" : "지어", "head" : 3, "label" : "VP", "mod" : [1], "weight" : 0.87852 },
		{"id" : 3, "text" : "나타나기도", "head" : 4, "label" : "VP", "mod" : [2], "weight" : 0.827914 },
		{"id" : 4, "text" : "해", "head" : 9, "label" : "VP", "mod" : [3], "weight" : 0.667405 },
		{"id" : 5, "text" : "가끔", "head" : 9, "label" : "AP", "mod" : [], "weight" : 0.596719 },
		{"id" : 6, "text" : "바다를", "head" : 9, "label" : "NP_OBJ", "mod" : [], "weight" : 0.556026 },
		{"id" : 7, "text" : "온통", "head" : 8, "label" : "AP", "mod" : [], "weight" : 0.645742 },
		{"id" : 8, "text" : "붉게", "head" : 9, "label" : "VP_AJT", "mod" : [7], "weight" : 0.545265 },
		{"id" : 9, "text" : "물들인다.", "head" : -1, "label" : "VP", "mod" : [4, 5, 6, 8], "weight" : 0.276014 }
	],
	"phrase_dependency" : [
	],
	"SRL" : [
	],
	"relation" : [
	],
	"SA" : [
	],
	"ZA" : [
	]
	},
	{
	"id" : 5,
	"reserve_str" : "",
	"text" : "크릴의 어원은 노르웨이 어의 \"작은 물고기 치어\"라는 krill에서 따왔다.",
	"morp" : [
	],
	"morp_eval" : [
	],
	"WSD" : [
	],
	"word" : [
		{"id" : 0, "text" : "크릴의", "type" : "", "begin" : 0, "end" : 1},
		{"id" : 1, "text" : "어원은", "type" : "", "begin" : 2, "end" : 3},
		{"id" : 2, "text" : "노르웨이", "type" : "", "begin" : 4, "end" : 4},
		{"id" : 3, "text" : "어의", "type" : "", "begin" : 5, "end" : 6},
		{"id" : 4, "text" : "\"작은", "type" : "", "begin" : 7, "end" : 9},
		{"id" : 5, "text" : "물고기", "type" : "", "begin" : 10, "end" : 10},
		{"id" : 6, "text" : "치어\"라는", "type" : "", "begin" : 11, "end" : 15},
		{"id" : 7, "text" : "krill에서", "type" : "", "begin" : 16, "end" : 17},
		{"id" : 8, "text" : "따왔다.", "type" : "", "begin" : 18, "end" : 21}
	],
	"NE" : [
	],
	"chunk" : [
	],
	"dependency" : [
		{"id" : 0, "text" : "크릴의", "head" : 1, "label" : "NP_MOD", "mod" : [], "weight" : 0.835507 },
		{"id" : 1, "text" : "어원은", "head" : 8, "label" : "NP_SBJ", "mod" : [0], "weight" : 0.757739 },
		{"id" : 2, "text" : "노르웨이", "head" : 3, "label" : "NP", "mod" : [], "weight" : 0.733528 },
		{"id" : 3, "text" : "어의", "head" : 7, "label" : "NP_MOD", "mod" : [2], "weight" : 0.703948 },
		{"id" : 4, "text" : "\"작은", "head" : 5, "label" : "VP_MOD", "mod" : [], "weight" : 0.754251 },
		{"id" : 5, "text" : "물고기", "head" : 6, "label" : "NP_OBJ", "mod" : [4], "weight" : 0.448304 },
		{"id" : 6, "text" : "치어\"라는", "head" : 7, "label" : "VNP_MOD", "mod" : [5], "weight" : 0.64606 },
		{"id" : 7, "text" : "krill에서", "head" : 8, "label" : "NP_AJT", "mod" : [3, 6], "weight" : 0.416776 },
		{"id" : 8, "text" : "따왔다.", "head" : -1, "label" : "VP", "mod" : [1, 7], "weight" : 0.641108 }
	],
	"phrase_dependency" : [
	],
	"SRL" : [
	],
	"relation" : [
	],
	"SA" : [
	],
	"ZA" : [
	]
	}
 ],
 "entity" : [
 ]
}

