{"doc_id" : "934.015_A.03",
 "DCT" : "",
 "category" : "",
 "category_weight" : 0,
 "title" : {"text" : "볼프강 아마데우스 모차르트", "NE" : ""},
 "metaInfo" : { },
 "sentence" : [
	{
	"id" : 0,
	"reserve_str" : "",
	"text" : "이듬해 궁핍 속에서 ＜교향곡 39번 E장조＞, ＜교향곡 40번 G단조＞, ＜교향곡 41번 C장조 : 주피터＞를 작곡하였다.",
	"morp" : [
	],
	"morp_eval" : [
	],
	"WSD" : [
	],
	"word" : [
		{"id" : 0, "text" : "이듬해", "type" : "", "begin" : 0, "end" : 0},
		{"id" : 1, "text" : "궁핍", "type" : "", "begin" : 1, "end" : 1},
		{"id" : 2, "text" : "속에서", "type" : "", "begin" : 2, "end" : 3},
		{"id" : 3, "text" : "＜교향곡", "type" : "", "begin" : 4, "end" : 4},
		{"id" : 4, "text" : "39번", "type" : "", "begin" : 5, "end" : 6},
		{"id" : 5, "text" : "E장조＞,", "type" : "", "begin" : 7, "end" : 9},
		{"id" : 6, "text" : "＜교향곡", "type" : "", "begin" : 10, "end" : 10},
		{"id" : 7, "text" : "40번", "type" : "", "begin" : 11, "end" : 12},
		{"id" : 8, "text" : "G단조＞,", "type" : "", "begin" : 13, "end" : 15},
		{"id" : 9, "text" : "＜교향곡", "type" : "", "begin" : 16, "end" : 16},
		{"id" : 10, "text" : "41번", "type" : "", "begin" : 17, "end" : 18},
		{"id" : 11, "text" : "C장조", "type" : "", "begin" : 19, "end" : 20},
		{"id" : 12, "text" : ":", "type" : "", "begin" : 21, "end" : 21},
		{"id" : 13, "text" : "주피터＞를", "type" : "", "begin" : 22, "end" : 23},
		{"id" : 14, "text" : "작곡하였다.", "type" : "", "begin" : 24, "end" : 28}
	],
	"NE" : [
	],
	"chunk" : [
	],
	"dependency" : [
		{"id" : 0, "text" : "이듬해", "head" : 14, "label" : "NP", "mod" : [], "weight" : 0.886968 },
		{"id" : 1, "text" : "궁핍", "head" : 2, "label" : "NP", "mod" : [], "weight" : 0.998505 },
		{"id" : 2, "text" : "속에서", "head" : 14, "label" : "NP_AJT", "mod" : [1], "weight" : 0.712084 },
		{"id" : 3, "text" : "＜교향곡", "head" : 4, "label" : "NP", "mod" : [], "weight" : 0.597053 },
		{"id" : 4, "text" : "39번", "head" : 5, "label" : "NP_AJT", "mod" : [3], "weight" : 0.557383 },
		{"id" : 5, "text" : "E장조＞,", "head" : 13, "label" : "NP_CNJ", "mod" : [4], "weight" : 0.640892 },
		{"id" : 6, "text" : "＜교향곡", "head" : 7, "label" : "NP", "mod" : [], "weight" : 0.62833 },
		{"id" : 7, "text" : "40번", "head" : 8, "label" : "NP_AJT", "mod" : [6], "weight" : 0.391698 },
		{"id" : 8, "text" : "G단조＞,", "head" : 13, "label" : "NP_CNJ", "mod" : [7], "weight" : 0.609654 },
		{"id" : 9, "text" : "＜교향곡", "head" : 11, "label" : "NP", "mod" : [], "weight" : 0.867358 },
		{"id" : 10, "text" : "41번", "head" : 11, "label" : "NP", "mod" : [], "weight" : 0.615357 },
		{"id" : 11, "text" : "C장조", "head" : 12, "label" : "NP", "mod" : [9, 10], "weight" : 0.915847 },
		{"id" : 12, "text" : ":", "head" : 13, "label" : "X", "mod" : [11], "weight" : 0.343298 },
		{"id" : 13, "text" : "주피터＞를", "head" : 14, "label" : "NP_OBJ", "mod" : [5, 8, 12], "weight" : 0.510908 },
		{"id" : 14, "text" : "작곡하였다.", "head" : -1, "label" : "VP", "mod" : [0, 2, 13], "weight" : 0.129637 }
	],
	"phrase_dependency" : [
	],
	"SRL" : [
	],
	"relation" : [
	],
	"SA" : [
	],
	"ZA" : [
	]
	}
 ],
 "entity" : [
 ]
}

