{"doc_id" : "934.024_A.02",
 "DCT" : "",
 "category" : "",
 "category_weight" : 0,
 "title" : {"text" : "탑골공원", "NE" : ""},
 "metaInfo" : { },
 "sentence" : [
	{
	"id" : 0,
	"reserve_str" : "",
	"text" : "<지명> 서울특별시 종로 2가에 있는 공원.",
	"morp" : [
	],
	"morp_eval" : [
	],
	"WSD" : [
	],
	"word" : [
		{"id" : 0, "text" : "<지명>", "type" : "", "begin" : 0, "end" : 2},
		{"id" : 1, "text" : "서울특별시", "type" : "", "begin" : 3, "end" : 5},
		{"id" : 2, "text" : "종로", "type" : "", "begin" : 6, "end" : 6},
		{"id" : 3, "text" : "2가에", "type" : "", "begin" : 7, "end" : 9},
		{"id" : 4, "text" : "있는", "type" : "", "begin" : 10, "end" : 11},
		{"id" : 5, "text" : "공원.", "type" : "", "begin" : 12, "end" : 13}
	],
	"NE" : [
	],
	"chunk" : [
	],
	"dependency" : [
		{"id" : 0, "text" : "<지명>", "head" : 5, "label" : "NP", "mod" : [], "weight" : 0.392684 },
		{"id" : 1, "text" : "서울특별시", "head" : 2, "label" : "NP", "mod" : [], "weight" : 0.542939 },
		{"id" : 2, "text" : "종로", "head" : 3, "label" : "NP", "mod" : [1], "weight" : 0.880187 },
		{"id" : 3, "text" : "2가에", "head" : 4, "label" : "NP_AJT", "mod" : [2], "weight" : 0.858964 },
		{"id" : 4, "text" : "있는", "head" : 5, "label" : "VP_MOD", "mod" : [3], "weight" : 0.577934 },
		{"id" : 5, "text" : "공원.", "head" : -1, "label" : "NP", "mod" : [0, 4], "weight" : 0.465949 }
	],
	"phrase_dependency" : [
	],
	"SRL" : [
	],
	"relation" : [
	],
	"SA" : [
	],
	"ZA" : [
	]
	},
	{
	"id" : 1,
	"reserve_str" : "",
	"text" : "원래 조선 세조 때에 세워진 원각사가 있던 곳으로 광무 원년(1897)에 영국인 고문 브라운이 설계하여 우리나라 최초의 공원으로 건립되었다.",
	"morp" : [
	],
	"morp_eval" : [
	],
	"WSD" : [
	],
	"word" : [
		{"id" : 0, "text" : "원래", "type" : "", "begin" : 0, "end" : 0},
		{"id" : 1, "text" : "조선", "type" : "", "begin" : 1, "end" : 1},
		{"id" : 2, "text" : "세조", "type" : "", "begin" : 2, "end" : 2},
		{"id" : 3, "text" : "때에", "type" : "", "begin" : 3, "end" : 4},
		{"id" : 4, "text" : "세워진", "type" : "", "begin" : 5, "end" : 8},
		{"id" : 5, "text" : "원각사가", "type" : "", "begin" : 9, "end" : 11},
		{"id" : 6, "text" : "있던", "type" : "", "begin" : 12, "end" : 13},
		{"id" : 7, "text" : "곳으로", "type" : "", "begin" : 14, "end" : 15},
		{"id" : 8, "text" : "광무", "type" : "", "begin" : 16, "end" : 16},
		{"id" : 9, "text" : "원년(1897)에", "type" : "", "begin" : 17, "end" : 21},
		{"id" : 10, "text" : "영국인", "type" : "", "begin" : 22, "end" : 22},
		{"id" : 11, "text" : "고문", "type" : "", "begin" : 23, "end" : 23},
		{"id" : 12, "text" : "브라운이", "type" : "", "begin" : 24, "end" : 25},
		{"id" : 13, "text" : "설계하여", "type" : "", "begin" : 26, "end" : 28},
		{"id" : 14, "text" : "우리나라", "type" : "", "begin" : 29, "end" : 29},
		{"id" : 15, "text" : "최초의", "type" : "", "begin" : 30, "end" : 31},
		{"id" : 16, "text" : "공원으로", "type" : "", "begin" : 32, "end" : 33},
		{"id" : 17, "text" : "건립되었다.", "type" : "", "begin" : 34, "end" : 38}
	],
	"NE" : [
	],
	"chunk" : [
	],
	"dependency" : [
		{"id" : 0, "text" : "원래", "head" : 6, "label" : "NP_AJT", "mod" : [], "weight" : 0.569222 },
		{"id" : 1, "text" : "조선", "head" : 2, "label" : "NP", "mod" : [], "weight" : 0.66921 },
		{"id" : 2, "text" : "세조", "head" : 3, "label" : "NP", "mod" : [1], "weight" : 0.824326 },
		{"id" : 3, "text" : "때에", "head" : 4, "label" : "NP_AJT", "mod" : [2], "weight" : 0.893811 },
		{"id" : 4, "text" : "세워진", "head" : 5, "label" : "VP_MOD", "mod" : [3], "weight" : 0.730218 },
		{"id" : 5, "text" : "원각사가", "head" : 6, "label" : "NP_SBJ", "mod" : [4], "weight" : 0.800546 },
		{"id" : 6, "text" : "있던", "head" : 7, "label" : "VP_MOD", "mod" : [0, 5], "weight" : 0.878638 },
		{"id" : 7, "text" : "곳으로", "head" : 13, "label" : "NP_AJT", "mod" : [6], "weight" : 0.988587 },
		{"id" : 8, "text" : "광무", "head" : 9, "label" : "NP", "mod" : [], "weight" : 0.813241 },
		{"id" : 9, "text" : "원년(1897)에", "head" : 13, "label" : "NP_AJT", "mod" : [8], "weight" : 0.904459 },
		{"id" : 10, "text" : "영국인", "head" : 11, "label" : "NP", "mod" : [], "weight" : 0.583727 },
		{"id" : 11, "text" : "고문", "head" : 12, "label" : "NP", "mod" : [10], "weight" : 0.870996 },
		{"id" : 12, "text" : "브라운이", "head" : 13, "label" : "NP_SBJ", "mod" : [11], "weight" : 0.746137 },
		{"id" : 13, "text" : "설계하여", "head" : 17, "label" : "VP", "mod" : [7, 9, 12], "weight" : 0.586703 },
		{"id" : 14, "text" : "우리나라", "head" : 15, "label" : "NP", "mod" : [], "weight" : 0.791519 },
		{"id" : 15, "text" : "최초의", "head" : 16, "label" : "NP_MOD", "mod" : [14], "weight" : 0.89516 },
		{"id" : 16, "text" : "공원으로", "head" : 17, "label" : "NP_AJT", "mod" : [15], "weight" : 0.572361 },
		{"id" : 17, "text" : "건립되었다.", "head" : -1, "label" : "VP", "mod" : [13, 16], "weight" : 0.645674 }
	],
	"phrase_dependency" : [
	],
	"SRL" : [
	],
	"relation" : [
	],
	"SA" : [
	],
	"ZA" : [
	]
	},
	{
	"id" : 2,
	"reserve_str" : "",
	"text" : "3ㆍ1 운동 때 독립 선언문을 낭독한 곳으로 유명하며, 원각사지, 팔각정, 앙부일영의 대석(臺石), 13층 탑, 귀부(龜趺) 비석 따위가 남아 있다.",
	"morp" : [
	],
	"morp_eval" : [
	],
	"WSD" : [
	],
	"word" : [
		{"id" : 0, "text" : "3ㆍ1", "type" : "", "begin" : 0, "end" : 2},
		{"id" : 1, "text" : "운동", "type" : "", "begin" : 3, "end" : 3},
		{"id" : 2, "text" : "때", "type" : "", "begin" : 4, "end" : 4},
		{"id" : 3, "text" : "독립", "type" : "", "begin" : 5, "end" : 5},
		{"id" : 4, "text" : "선언문을", "type" : "", "begin" : 6, "end" : 8},
		{"id" : 5, "text" : "낭독한", "type" : "", "begin" : 9, "end" : 11},
		{"id" : 6, "text" : "곳으로", "type" : "", "begin" : 12, "end" : 13},
		{"id" : 7, "text" : "유명하며,", "type" : "", "begin" : 14, "end" : 17},
		{"id" : 8, "text" : "원각사지,", "type" : "", "begin" : 18, "end" : 21},
		{"id" : 9, "text" : "팔각정,", "type" : "", "begin" : 22, "end" : 24},
		{"id" : 10, "text" : "앙부일영의", "type" : "", "begin" : 25, "end" : 26},
		{"id" : 11, "text" : "대석(臺石),", "type" : "", "begin" : 27, "end" : 31},
		{"id" : 12, "text" : "13층", "type" : "", "begin" : 32, "end" : 33},
		{"id" : 13, "text" : "탑,", "type" : "", "begin" : 34, "end" : 35},
		{"id" : 14, "text" : "귀부(龜趺)", "type" : "", "begin" : 36, "end" : 39},
		{"id" : 15, "text" : "비석", "type" : "", "begin" : 40, "end" : 40},
		{"id" : 16, "text" : "따위가", "type" : "", "begin" : 41, "end" : 42},
		{"id" : 17, "text" : "남아", "type" : "", "begin" : 43, "end" : 44},
		{"id" : 18, "text" : "있다.", "type" : "", "begin" : 45, "end" : 47}
	],
	"NE" : [
	],
	"chunk" : [
	],
	"dependency" : [
		{"id" : 0, "text" : "3ㆍ1", "head" : 1, "label" : "NP", "mod" : [], "weight" : 0.604947 },
		{"id" : 1, "text" : "운동", "head" : 2, "label" : "NP", "mod" : [0], "weight" : 0.977151 },
		{"id" : 2, "text" : "때", "head" : 5, "label" : "NP_AJT", "mod" : [1], "weight" : 0.539119 },
		{"id" : 3, "text" : "독립", "head" : 4, "label" : "NP", "mod" : [], "weight" : 0.799854 },
		{"id" : 4, "text" : "선언문을", "head" : 5, "label" : "NP_OBJ", "mod" : [3], "weight" : 0.654832 },
		{"id" : 5, "text" : "낭독한", "head" : 6, "label" : "VP_MOD", "mod" : [2, 4], "weight" : 0.996146 },
		{"id" : 6, "text" : "곳으로", "head" : 7, "label" : "NP_AJT", "mod" : [5], "weight" : 0.814755 },
		{"id" : 7, "text" : "유명하며,", "head" : 17, "label" : "VP", "mod" : [6], "weight" : 0.789149 },
		{"id" : 8, "text" : "원각사지,", "head" : 15, "label" : "NP_CNJ", "mod" : [], "weight" : 0.614111 },
		{"id" : 9, "text" : "팔각정,", "head" : 15, "label" : "NP_CNJ", "mod" : [], "weight" : 0.648685 },
		{"id" : 10, "text" : "앙부일영의", "head" : 11, "label" : "NP_MOD", "mod" : [], "weight" : 0.786658 },
		{"id" : 11, "text" : "대석(臺石),", "head" : 15, "label" : "NP_CNJ", "mod" : [10], "weight" : 0.608411 },
		{"id" : 12, "text" : "13층", "head" : 13, "label" : "NP", "mod" : [], "weight" : 0.950845 },
		{"id" : 13, "text" : "탑,", "head" : 15, "label" : "NP_CNJ", "mod" : [12], "weight" : 0.681724 },
		{"id" : 14, "text" : "귀부(龜趺)", "head" : 15, "label" : "NP", "mod" : [], "weight" : 0.94522 },
		{"id" : 15, "text" : "비석", "head" : 16, "label" : "NP", "mod" : [8, 9, 11, 13, 14], "weight" : 0.659142 },
		{"id" : 16, "text" : "따위가", "head" : 17, "label" : "NP_SBJ", "mod" : [15], "weight" : 0.666827 },
		{"id" : 17, "text" : "남아", "head" : 18, "label" : "VP", "mod" : [7, 16], "weight" : 0.500414 },
		{"id" : 18, "text" : "있다.", "head" : -1, "label" : "VP", "mod" : [17], "weight" : 0.21663 }
	],
	"phrase_dependency" : [
	],
	"SRL" : [
	],
	"relation" : [
	],
	"SA" : [
	],
	"ZA" : [
	]
	}
 ],
 "entity" : [
 ]
}

