{"doc_id" : "934.015_A.04",
 "DCT" : "",
 "category" : "",
 "category_weight" : 0,
 "title" : {"text" : "볼프강 아마데우스 모차르트", "NE" : ""},
 "metaInfo" : { },
 "sentence" : [
	{
	"id" : 0,
	"reserve_str" : "",
	"text" : "<피가로의 결혼>, <돈 조반니>, <마술피리>의 3대 오페라와 <주피터 교향곡>을 비롯한 40여 곡의 교향곡 등 600곡이 넘는 작품을 남겼다.",
	"morp" : [
	],
	"morp_eval" : [
	],
	"WSD" : [
	],
	"word" : [
		{"id" : 0, "text" : "<피가로의", "type" : "", "begin" : 0, "end" : 3},
		{"id" : 1, "text" : "결혼>,", "type" : "", "begin" : 4, "end" : 6},
		{"id" : 2, "text" : "<돈", "type" : "", "begin" : 7, "end" : 8},
		{"id" : 3, "text" : "조반니>,", "type" : "", "begin" : 9, "end" : 11},
		{"id" : 4, "text" : "<마술피리>의", "type" : "", "begin" : 12, "end" : 16},
		{"id" : 5, "text" : "3대", "type" : "", "begin" : 17, "end" : 18},
		{"id" : 6, "text" : "오페라와", "type" : "", "begin" : 19, "end" : 20},
		{"id" : 7, "text" : "<주피터", "type" : "", "begin" : 21, "end" : 22},
		{"id" : 8, "text" : "교향곡>을", "type" : "", "begin" : 23, "end" : 26},
		{"id" : 9, "text" : "비롯한", "type" : "", "begin" : 27, "end" : 28},
		{"id" : 10, "text" : "40여", "type" : "", "begin" : 29, "end" : 30},
		{"id" : 11, "text" : "곡의", "type" : "", "begin" : 31, "end" : 32},
		{"id" : 12, "text" : "교향곡", "type" : "", "begin" : 33, "end" : 34},
		{"id" : 13, "text" : "등", "type" : "", "begin" : 35, "end" : 35},
		{"id" : 14, "text" : "600곡이", "type" : "", "begin" : 36, "end" : 38},
		{"id" : 15, "text" : "넘는", "type" : "", "begin" : 39, "end" : 40},
		{"id" : 16, "text" : "작품을", "type" : "", "begin" : 41, "end" : 42},
		{"id" : 17, "text" : "남겼다.", "type" : "", "begin" : 43, "end" : 46}
	],
	"NE" : [
	],
	"chunk" : [
	],
	"dependency" : [
		{"id" : 0, "text" : "<피가로의", "head" : 1, "label" : "NP_MOD", "mod" : [], "weight" : 0.810875 },
		{"id" : 1, "text" : "결혼>,", "head" : 4, "label" : "NP_CNJ", "mod" : [0], "weight" : 0.360499 },
		{"id" : 2, "text" : "<돈", "head" : 3, "label" : "NP", "mod" : [], "weight" : 0.826668 },
		{"id" : 3, "text" : "조반니>,", "head" : 4, "label" : "NP_CNJ", "mod" : [2], "weight" : 0.500762 },
		{"id" : 4, "text" : "<마술피리>의", "head" : 6, "label" : "NP_MOD", "mod" : [1, 3], "weight" : 0.535977 },
		{"id" : 5, "text" : "3대", "head" : 6, "label" : "NP", "mod" : [], "weight" : 0.774091 },
		{"id" : 6, "text" : "오페라와", "head" : 12, "label" : "NP_CNJ", "mod" : [4, 5], "weight" : 0.585781 },
		{"id" : 7, "text" : "<주피터", "head" : 8, "label" : "NP", "mod" : [], "weight" : 0.944673 },
		{"id" : 8, "text" : "교향곡>을", "head" : 9, "label" : "NP_OBJ", "mod" : [7], "weight" : 0.966472 },
		{"id" : 9, "text" : "비롯한", "head" : 12, "label" : "VP_MOD", "mod" : [8], "weight" : 0.547941 },
		{"id" : 10, "text" : "40여", "head" : 11, "label" : "NP", "mod" : [], "weight" : 0.733691 },
		{"id" : 11, "text" : "곡의", "head" : 12, "label" : "NP_MOD", "mod" : [10], "weight" : 0.54682 },
		{"id" : 12, "text" : "교향곡", "head" : 13, "label" : "NP", "mod" : [9, 11, 6], "weight" : 0.844962 },
		{"id" : 13, "text" : "등", "head" : 16, "label" : "NP", "mod" : [12], "weight" : 0.686438 },
		{"id" : 14, "text" : "600곡이", "head" : 15, "label" : "NP_SBJ", "mod" : [], "weight" : 0.908905 },
		{"id" : 15, "text" : "넘는", "head" : 16, "label" : "VP_MOD", "mod" : [14], "weight" : 0.829824 },
		{"id" : 16, "text" : "작품을", "head" : 17, "label" : "NP_OBJ", "mod" : [13, 15], "weight" : 0.553547 },
		{"id" : 17, "text" : "남겼다.", "head" : -1, "label" : "VP", "mod" : [16], "weight" : 0.116418 }
	],
	"phrase_dependency" : [
	],
	"SRL" : [
	],
	"relation" : [
	],
	"SA" : [
	],
	"ZA" : [
	]
	}
 ],
 "entity" : [
 ]
}

