{"doc_id" : "934.022_A.02",
 "DCT" : "",
 "category" : "",
 "category_weight" : 0,
 "title" : {"text" : "크릴", "NE" : ""},
 "metaInfo" : { },
 "sentence" : [
	{
	"id" : 0,
	"reserve_str" : "",
	"text" : "<동물> 난바다곤쟁이류를 이르는 말.",
	"morp" : [
	],
	"morp_eval" : [
	],
	"WSD" : [
	],
	"word" : [
		{"id" : 0, "text" : "<동물>", "type" : "", "begin" : 0, "end" : 2},
		{"id" : 1, "text" : "난바다곤쟁이류를", "type" : "", "begin" : 3, "end" : 7},
		{"id" : 2, "text" : "이르는", "type" : "", "begin" : 8, "end" : 9},
		{"id" : 3, "text" : "말.", "type" : "", "begin" : 10, "end" : 11}
	],
	"NE" : [
	],
	"chunk" : [
	],
	"dependency" : [
		{"id" : 0, "text" : "<동물>", "head" : 3, "label" : "NP", "mod" : [], "weight" : 0.603233 },
		{"id" : 1, "text" : "난바다곤쟁이류를", "head" : 2, "label" : "NP_OBJ", "mod" : [], "weight" : 0.743935 },
		{"id" : 2, "text" : "이르는", "head" : 3, "label" : "VP_MOD", "mod" : [1], "weight" : 0.584984 },
		{"id" : 3, "text" : "말.", "head" : -1, "label" : "NP", "mod" : [0, 2], "weight" : 0.121769 }
	],
	"phrase_dependency" : [
	],
	"SRL" : [
	],
	"relation" : [
	],
	"SA" : [
	],
	"ZA" : [
	]
	},
	{
	"id" : 1,
	"reserve_str" : "",
	"text" : "작은 새우와 비슷한데 남극 주변의 바다에 흔하다.",
	"morp" : [
	],
	"morp_eval" : [
	],
	"WSD" : [
	],
	"word" : [
		{"id" : 0, "text" : "작은", "type" : "", "begin" : 0, "end" : 1},
		{"id" : 1, "text" : "새우와", "type" : "", "begin" : 2, "end" : 3},
		{"id" : 2, "text" : "비슷한데", "type" : "", "begin" : 4, "end" : 5},
		{"id" : 3, "text" : "남극", "type" : "", "begin" : 6, "end" : 6},
		{"id" : 4, "text" : "주변의", "type" : "", "begin" : 7, "end" : 8},
		{"id" : 5, "text" : "바다에", "type" : "", "begin" : 9, "end" : 10},
		{"id" : 6, "text" : "흔하다.", "type" : "", "begin" : 11, "end" : 13}
	],
	"NE" : [
	],
	"chunk" : [
	],
	"dependency" : [
		{"id" : 0, "text" : "작은", "head" : 1, "label" : "VP_MOD", "mod" : [], "weight" : 0.984372 },
		{"id" : 1, "text" : "새우와", "head" : 2, "label" : "NP_AJT", "mod" : [0], "weight" : 0.750467 },
		{"id" : 2, "text" : "비슷한데", "head" : 6, "label" : "VP", "mod" : [1], "weight" : 0.556649 },
		{"id" : 3, "text" : "남극", "head" : 4, "label" : "NP", "mod" : [], "weight" : 0.754242 },
		{"id" : 4, "text" : "주변의", "head" : 5, "label" : "NP_MOD", "mod" : [3], "weight" : 0.946899 },
		{"id" : 5, "text" : "바다에", "head" : 6, "label" : "NP_AJT", "mod" : [4], "weight" : 0.552188 },
		{"id" : 6, "text" : "흔하다.", "head" : -1, "label" : "VP", "mod" : [2, 5], "weight" : 0.115403 }
	],
	"phrase_dependency" : [
	],
	"SRL" : [
	],
	"relation" : [
	],
	"SA" : [
	],
	"ZA" : [
	]
	}
 ],
 "entity" : [
 ]
}

