{"doc_id" : "934.013_Q.01",
 "DCT" : "",
 "category" : "",
 "category_weight" : 0,
 "title" : {"text" : "Q13", "NE" : ""},
 "metaInfo" : { },
 "sentence" : [
	{
	"id" : 0,
	"reserve_str" : "",
	"text" : "러시아 태생의 프랑스 화가이자 판화가인 이 사람은 인간의 원초적 향수와 동경, 사랑과 낭만 등을 표현했다.",
	"morp" : [
	],
	"morp_eval" : [
	],
	"WSD" : [
	],
	"word" : [
		{"id" : 0, "text" : "러시아", "type" : "", "begin" : 0, "end" : 0},
		{"id" : 1, "text" : "태생의", "type" : "", "begin" : 1, "end" : 2},
		{"id" : 2, "text" : "프랑스", "type" : "", "begin" : 3, "end" : 3},
		{"id" : 3, "text" : "화가이자", "type" : "", "begin" : 4, "end" : 6},
		{"id" : 4, "text" : "판화가인", "type" : "", "begin" : 7, "end" : 9},
		{"id" : 5, "text" : "이", "type" : "", "begin" : 10, "end" : 10},
		{"id" : 6, "text" : "사람은", "type" : "", "begin" : 11, "end" : 12},
		{"id" : 7, "text" : "인간의", "type" : "", "begin" : 13, "end" : 14},
		{"id" : 8, "text" : "원초적", "type" : "", "begin" : 15, "end" : 16},
		{"id" : 9, "text" : "향수와", "type" : "", "begin" : 17, "end" : 18},
		{"id" : 10, "text" : "동경,", "type" : "", "begin" : 19, "end" : 20},
		{"id" : 11, "text" : "사랑과", "type" : "", "begin" : 21, "end" : 22},
		{"id" : 12, "text" : "낭만", "type" : "", "begin" : 23, "end" : 23},
		{"id" : 13, "text" : "등을", "type" : "", "begin" : 24, "end" : 25},
		{"id" : 14, "text" : "표현했다.", "type" : "", "begin" : 26, "end" : 30}
	],
	"NE" : [
	],
	"chunk" : [
	],
	"dependency" : [
		{"id" : 0, "text" : "러시아", "head" : 1, "label" : "NP", "mod" : [], "weight" : 0.944861 },
		{"id" : 1, "text" : "태생의", "head" : 3, "label" : "NP_MOD", "mod" : [0], "weight" : 0.685229 },
		{"id" : 2, "text" : "프랑스", "head" : 3, "label" : "NP", "mod" : [], "weight" : 0.82188 },
		{"id" : 3, "text" : "화가이자", "head" : 4, "label" : "VNP", "mod" : [1, 2], "weight" : 0.687428 },
		{"id" : 4, "text" : "판화가인", "head" : 6, "label" : "VNP_MOD", "mod" : [3], "weight" : 0.887947 },
		{"id" : 5, "text" : "이", "head" : 6, "label" : "DP", "mod" : [], "weight" : 0.993471 },
		{"id" : 6, "text" : "사람은", "head" : 14, "label" : "NP_SBJ", "mod" : [4, 5], "weight" : 0.753409 },
		{"id" : 7, "text" : "인간의", "head" : 9, "label" : "NP_MOD", "mod" : [], "weight" : 0.568683 },
		{"id" : 8, "text" : "원초적", "head" : 9, "label" : "NP", "mod" : [], "weight" : 0.736604 },
		{"id" : 9, "text" : "향수와", "head" : 12, "label" : "NP_CNJ", "mod" : [7, 8], "weight" : 0.684896 },
		{"id" : 10, "text" : "동경,", "head" : 12, "label" : "NP_CNJ", "mod" : [], "weight" : 0.834963 },
		{"id" : 11, "text" : "사랑과", "head" : 12, "label" : "NP_CNJ", "mod" : [], "weight" : 0.960523 },
		{"id" : 12, "text" : "낭만", "head" : 13, "label" : "NP", "mod" : [9, 10, 11], "weight" : 0.77119 },
		{"id" : 13, "text" : "등을", "head" : 14, "label" : "NP_OBJ", "mod" : [12], "weight" : 0.517826 },
		{"id" : 14, "text" : "표현했다.", "head" : -1, "label" : "VP", "mod" : [6, 13], "weight" : 0.161289 }
	],
	"phrase_dependency" : [
	],
	"SRL" : [
	],
	"relation" : [
	],
	"SA" : [
	],
	"ZA" : [
	]
	},
	{
	"id" : 1,
	"reserve_str" : "",
	"text" : "<나와 마을>, <도시 위에서> 등을 그린 이 사람은 누구일까?",
	"morp" : [
	],
	"morp_eval" : [
	],
	"WSD" : [
	],
	"word" : [
		{"id" : 0, "text" : "<나와", "type" : "", "begin" : 0, "end" : 2},
		{"id" : 1, "text" : "마을>,", "type" : "", "begin" : 3, "end" : 5},
		{"id" : 2, "text" : "<도시", "type" : "", "begin" : 6, "end" : 7},
		{"id" : 3, "text" : "위에서>", "type" : "", "begin" : 8, "end" : 10},
		{"id" : 4, "text" : "등을", "type" : "", "begin" : 11, "end" : 12},
		{"id" : 5, "text" : "그린", "type" : "", "begin" : 13, "end" : 14},
		{"id" : 6, "text" : "이", "type" : "", "begin" : 15, "end" : 15},
		{"id" : 7, "text" : "사람은", "type" : "", "begin" : 16, "end" : 17},
		{"id" : 8, "text" : "누구일까?", "type" : "", "begin" : 18, "end" : 21}
	],
	"NE" : [
	],
	"chunk" : [
	],
	"dependency" : [
		{"id" : 0, "text" : "<나와", "head" : 1, "label" : "NP_AJT", "mod" : [], "weight" : 0.501435 },
		{"id" : 1, "text" : "마을>,", "head" : 3, "label" : "NP_CNJ", "mod" : [0], "weight" : 0.610119 },
		{"id" : 2, "text" : "<도시", "head" : 3, "label" : "NP", "mod" : [], "weight" : 0.945922 },
		{"id" : 3, "text" : "위에서>", "head" : 4, "label" : "NP_AJT", "mod" : [1, 2], "weight" : 0.779246 },
		{"id" : 4, "text" : "등을", "head" : 5, "label" : "NP_OBJ", "mod" : [3], "weight" : 0.809744 },
		{"id" : 5, "text" : "그린", "head" : 7, "label" : "VP_MOD", "mod" : [4], "weight" : 0.806035 },
		{"id" : 6, "text" : "이", "head" : 7, "label" : "DP", "mod" : [], "weight" : 0.894671 },
		{"id" : 7, "text" : "사람은", "head" : 8, "label" : "NP_SBJ", "mod" : [5, 6], "weight" : 0.773872 },
		{"id" : 8, "text" : "누구일까?", "head" : -1, "label" : "VNP", "mod" : [7], "weight" : 0.688046 }
	],
	"phrase_dependency" : [
	],
	"SRL" : [
	],
	"relation" : [
	],
	"SA" : [
	],
	"ZA" : [
	]
	}
 ],
 "entity" : [
 ]
}

