{"doc_id" : "934.015_A.01",
 "DCT" : "",
 "category" : "",
 "category_weight" : 0,
 "title" : {"text" : "교향곡 41번 (모차르트)", "NE" : ""},
 "metaInfo" : { },
 "sentence" : [
	{
	"id" : 0,
	"reserve_str" : "",
	"text" : "교향곡 41번 C 장조 ‘주피터’(K. 551)는 볼프강 아마데우스 모차르트가 1788년 교향곡 40번 g 단조(KV. 550)에 이어서 단 몇 주 만에 작곡한 곡이다.",
	"morp" : [
	],
	"morp_eval" : [
	],
	"WSD" : [
	],
	"word" : [
		{"id" : 0, "text" : "교향곡", "type" : "", "begin" : 0, "end" : 1},
		{"id" : 1, "text" : "41번", "type" : "", "begin" : 2, "end" : 3},
		{"id" : 2, "text" : "C", "type" : "", "begin" : 4, "end" : 4},
		{"id" : 3, "text" : "장조", "type" : "", "begin" : 5, "end" : 5},
		{"id" : 4, "text" : "‘주피터’(K.", "type" : "", "begin" : 6, "end" : 11},
		{"id" : 5, "text" : "551)는", "type" : "", "begin" : 12, "end" : 14},
		{"id" : 6, "text" : "볼프강", "type" : "", "begin" : 15, "end" : 15},
		{"id" : 7, "text" : "아마데우스", "type" : "", "begin" : 16, "end" : 16},
		{"id" : 8, "text" : "모차르트가", "type" : "", "begin" : 17, "end" : 18},
		{"id" : 9, "text" : "1788년", "type" : "", "begin" : 19, "end" : 20},
		{"id" : 10, "text" : "교향곡", "type" : "", "begin" : 21, "end" : 22},
		{"id" : 11, "text" : "40번", "type" : "", "begin" : 23, "end" : 24},
		{"id" : 12, "text" : "g", "type" : "", "begin" : 25, "end" : 25},
		{"id" : 13, "text" : "단조(KV.", "type" : "", "begin" : 26, "end" : 29},
		{"id" : 14, "text" : "550)에", "type" : "", "begin" : 30, "end" : 32},
		{"id" : 15, "text" : "이어서", "type" : "", "begin" : 33, "end" : 34},
		{"id" : 16, "text" : "단", "type" : "", "begin" : 35, "end" : 35},
		{"id" : 17, "text" : "몇", "type" : "", "begin" : 36, "end" : 36},
		{"id" : 18, "text" : "주", "type" : "", "begin" : 37, "end" : 37},
		{"id" : 19, "text" : "만에", "type" : "", "begin" : 38, "end" : 39},
		{"id" : 20, "text" : "작곡한", "type" : "", "begin" : 40, "end" : 42},
		{"id" : 21, "text" : "곡이다.", "type" : "", "begin" : 43, "end" : 46}
	],
	"NE" : [
	],
	"chunk" : [
	],
	"dependency" : [
		{"id" : 0, "text" : "교향곡", "head" : 1, "label" : "NP", "mod" : [], "weight" : 0.709565 },
		{"id" : 1, "text" : "41번", "head" : 3, "label" : "NP", "mod" : [0], "weight" : 0.502904 },
		{"id" : 2, "text" : "C", "head" : 3, "label" : "NP", "mod" : [], "weight" : 0.660729 },
		{"id" : 3, "text" : "장조", "head" : 4, "label" : "NP", "mod" : [1, 2], "weight" : 0.865699 },
		{"id" : 4, "text" : "‘주피터’(K.", "head" : 5, "label" : "NP", "mod" : [3], "weight" : 0.798699 },
		{"id" : 5, "text" : "551)는", "head" : 21, "label" : "NP_SBJ", "mod" : [4], "weight" : 0.856454 },
		{"id" : 6, "text" : "볼프강", "head" : 7, "label" : "NP", "mod" : [], "weight" : 0.613663 },
		{"id" : 7, "text" : "아마데우스", "head" : 8, "label" : "NP", "mod" : [6], "weight" : 0.772506 },
		{"id" : 8, "text" : "모차르트가", "head" : 20, "label" : "NP_SBJ", "mod" : [7], "weight" : 0.865094 },
		{"id" : 9, "text" : "1788년", "head" : 20, "label" : "NP_AJT", "mod" : [], "weight" : 0.734671 },
		{"id" : 10, "text" : "교향곡", "head" : 11, "label" : "NP", "mod" : [], "weight" : 0.838731 },
		{"id" : 11, "text" : "40번", "head" : 13, "label" : "NP", "mod" : [10], "weight" : 0.447141 },
		{"id" : 12, "text" : "g", "head" : 13, "label" : "NP", "mod" : [], "weight" : 0.746038 },
		{"id" : 13, "text" : "단조(KV.", "head" : 14, "label" : "NP", "mod" : [11, 12], "weight" : 0.755346 },
		{"id" : 14, "text" : "550)에", "head" : 15, "label" : "NP_AJT", "mod" : [13], "weight" : 0.679339 },
		{"id" : 15, "text" : "이어서", "head" : 20, "label" : "VP", "mod" : [14], "weight" : 0.599173 },
		{"id" : 16, "text" : "단", "head" : 18, "label" : "DP", "mod" : [], "weight" : 0.765945 },
		{"id" : 17, "text" : "몇", "head" : 18, "label" : "DP", "mod" : [], "weight" : 0.758908 },
		{"id" : 18, "text" : "주", "head" : 19, "label" : "NP", "mod" : [16, 17], "weight" : 0.69278 },
		{"id" : 19, "text" : "만에", "head" : 20, "label" : "NP_AJT", "mod" : [18], "weight" : 0.580354 },
		{"id" : 20, "text" : "작곡한", "head" : 21, "label" : "VP_MOD", "mod" : [8, 9, 15, 19], "weight" : 0.49937 },
		{"id" : 21, "text" : "곡이다.", "head" : -1, "label" : "VNP", "mod" : [5, 20], "weight" : 0.292394 }
	],
	"phrase_dependency" : [
	],
	"SRL" : [
	],
	"relation" : [
	],
	"SA" : [
	],
	"ZA" : [
	]
	}
 ],
 "entity" : [
 ]
}

