{"doc_id" : "934.011_A.01",
 "DCT" : "",
 "category" : "",
 "category_weight" : 0,
 "title" : {"text" : "붉은 산", "NE" : ""},
 "metaInfo" : { },
 "sentence" : [
	{
	"id" : 0,
	"reserve_str" : "",
	"text" : "의학연구차 만주를 순회하던 ‘나’는 가난한 한국 소작인들이 모여 사는 마을에서 ‘삵’이라는 별명을 가진 정익호를 만나게 된다.",
	"morp" : [
	],
	"morp_eval" : [
	],
	"WSD" : [
	],
	"word" : [
		{"id" : 0, "text" : "의학연구차", "type" : "", "begin" : 0, "end" : 1},
		{"id" : 1, "text" : "만주를", "type" : "", "begin" : 2, "end" : 4},
		{"id" : 2, "text" : "순회하던", "type" : "", "begin" : 5, "end" : 7},
		{"id" : 3, "text" : "‘나’는", "type" : "", "begin" : 8, "end" : 11},
		{"id" : 4, "text" : "가난한", "type" : "", "begin" : 12, "end" : 14},
		{"id" : 5, "text" : "한국", "type" : "", "begin" : 15, "end" : 15},
		{"id" : 6, "text" : "소작인들이", "type" : "", "begin" : 16, "end" : 18},
		{"id" : 7, "text" : "모여", "type" : "", "begin" : 19, "end" : 20},
		{"id" : 8, "text" : "사는", "type" : "", "begin" : 21, "end" : 22},
		{"id" : 9, "text" : "마을에서", "type" : "", "begin" : 23, "end" : 24},
		{"id" : 10, "text" : "‘삵’이라는", "type" : "", "begin" : 25, "end" : 29},
		{"id" : 11, "text" : "별명을", "type" : "", "begin" : 30, "end" : 31},
		{"id" : 12, "text" : "가진", "type" : "", "begin" : 32, "end" : 33},
		{"id" : 13, "text" : "정익호를", "type" : "", "begin" : 34, "end" : 35},
		{"id" : 14, "text" : "만나게", "type" : "", "begin" : 36, "end" : 37},
		{"id" : 15, "text" : "된다.", "type" : "", "begin" : 38, "end" : 40}
	],
	"NE" : [
	],
	"chunk" : [
	],
	"dependency" : [
		{"id" : 0, "text" : "의학연구차", "head" : 2, "label" : "NP", "mod" : [], "weight" : 0.777619 },
		{"id" : 1, "text" : "만주를", "head" : 2, "label" : "NP_OBJ", "mod" : [], "weight" : 0.995232 },
		{"id" : 2, "text" : "순회하던", "head" : 3, "label" : "VP_MOD", "mod" : [0, 1], "weight" : 0.797479 },
		{"id" : 3, "text" : "‘나’는", "head" : 14, "label" : "NP_SBJ", "mod" : [2], "weight" : 0.864998 },
		{"id" : 4, "text" : "가난한", "head" : 6, "label" : "VP_MOD", "mod" : [], "weight" : 0.838207 },
		{"id" : 5, "text" : "한국", "head" : 6, "label" : "NP", "mod" : [], "weight" : 0.764971 },
		{"id" : 6, "text" : "소작인들이", "head" : 7, "label" : "NP_SBJ", "mod" : [4, 5], "weight" : 0.790507 },
		{"id" : 7, "text" : "모여", "head" : 8, "label" : "VP", "mod" : [6], "weight" : 0.662822 },
		{"id" : 8, "text" : "사는", "head" : 9, "label" : "VP_MOD", "mod" : [7], "weight" : 0.824731 },
		{"id" : 9, "text" : "마을에서", "head" : 14, "label" : "NP_AJT", "mod" : [8], "weight" : 0.853848 },
		{"id" : 10, "text" : "‘삵’이라는", "head" : 11, "label" : "VNP_MOD", "mod" : [], "weight" : 0.838999 },
		{"id" : 11, "text" : "별명을", "head" : 12, "label" : "NP_OBJ", "mod" : [10], "weight" : 0.809922 },
		{"id" : 12, "text" : "가진", "head" : 13, "label" : "VP_MOD", "mod" : [11], "weight" : 0.861238 },
		{"id" : 13, "text" : "정익호를", "head" : 14, "label" : "NP_OBJ", "mod" : [12], "weight" : 0.703973 },
		{"id" : 14, "text" : "만나게", "head" : 15, "label" : "VP", "mod" : [3, 9, 13], "weight" : 0.498823 },
		{"id" : 15, "text" : "된다.", "head" : -1, "label" : "VP", "mod" : [14], "weight" : 0.213163 }
	],
	"phrase_dependency" : [
	],
	"SRL" : [
	],
	"relation" : [
	],
	"SA" : [
	],
	"ZA" : [
	]
	}
 ],
 "entity" : [
 ]
}

