{"doc_id" : "934.018_A.01",
 "DCT" : "",
 "category" : "",
 "category_weight" : 0,
 "title" : {"text" : "정낭", "NE" : ""},
 "metaInfo" : { },
 "sentence" : [
	{
	"id" : 0,
	"reserve_str" : "",
	"text" : "'정낭'은 제주도에 존재하였던 고대 대문의 일부로, 정주먹이라는 기둥에 끼우는 것입니다.",
	"morp" : [
	],
	"morp_eval" : [
	],
	"WSD" : [
	],
	"word" : [
		{"id" : 0, "text" : "'정낭'은", "type" : "", "begin" : 0, "end" : 3},
		{"id" : 1, "text" : "제주도에", "type" : "", "begin" : 4, "end" : 5},
		{"id" : 2, "text" : "존재하였던", "type" : "", "begin" : 6, "end" : 9},
		{"id" : 3, "text" : "고대", "type" : "", "begin" : 10, "end" : 10},
		{"id" : 4, "text" : "대문의", "type" : "", "begin" : 11, "end" : 12},
		{"id" : 5, "text" : "일부로,", "type" : "", "begin" : 13, "end" : 15},
		{"id" : 6, "text" : "정주먹이라는", "type" : "", "begin" : 16, "end" : 18},
		{"id" : 7, "text" : "기둥에", "type" : "", "begin" : 19, "end" : 20},
		{"id" : 8, "text" : "끼우는", "type" : "", "begin" : 21, "end" : 22},
		{"id" : 9, "text" : "것입니다.", "type" : "", "begin" : 23, "end" : 26}
	],
	"NE" : [
	],
	"chunk" : [
	],
	"dependency" : [
		{"id" : 0, "text" : "'정낭'은", "head" : 5, "label" : "NP_SBJ", "mod" : [], "weight" : 0.86798 },
		{"id" : 1, "text" : "제주도에", "head" : 2, "label" : "NP_AJT", "mod" : [], "weight" : 0.927104 },
		{"id" : 2, "text" : "존재하였던", "head" : 4, "label" : "VP_MOD", "mod" : [1], "weight" : 0.515039 },
		{"id" : 3, "text" : "고대", "head" : 4, "label" : "NP", "mod" : [], "weight" : 0.83347 },
		{"id" : 4, "text" : "대문의", "head" : 5, "label" : "NP_MOD", "mod" : [2, 3], "weight" : 0.670167 },
		{"id" : 5, "text" : "일부로,", "head" : 8, "label" : "NP_AJT", "mod" : [0, 4], "weight" : 0.581163 },
		{"id" : 6, "text" : "정주먹이라는", "head" : 7, "label" : "VNP_MOD", "mod" : [], "weight" : 0.815151 },
		{"id" : 7, "text" : "기둥에", "head" : 8, "label" : "NP_AJT", "mod" : [6], "weight" : 0.513584 },
		{"id" : 8, "text" : "끼우는", "head" : 9, "label" : "VP_MOD", "mod" : [5, 7], "weight" : 0.578047 },
		{"id" : 9, "text" : "것입니다.", "head" : -1, "label" : "VNP", "mod" : [8], "weight" : 0.222036 }
	],
	"phrase_dependency" : [
	],
	"SRL" : [
	],
	"relation" : [
	],
	"SA" : [
	],
	"ZA" : [
	]
	},
	{
	"id" : 1,
	"reserve_str" : "",
	"text" : "이 정낭이 걸쳐진 수를 세서 집주인이 얼마나 오랫동안 집을 비우는지 알 수 있습니다.",
	"morp" : [
	],
	"morp_eval" : [
	],
	"WSD" : [
	],
	"word" : [
		{"id" : 0, "text" : "이", "type" : "", "begin" : 0, "end" : 0},
		{"id" : 1, "text" : "정낭이", "type" : "", "begin" : 1, "end" : 2},
		{"id" : 2, "text" : "걸쳐진", "type" : "", "begin" : 3, "end" : 6},
		{"id" : 3, "text" : "수를", "type" : "", "begin" : 7, "end" : 8},
		{"id" : 4, "text" : "세서", "type" : "", "begin" : 9, "end" : 9},
		{"id" : 5, "text" : "집주인이", "type" : "", "begin" : 10, "end" : 11},
		{"id" : 6, "text" : "얼마나", "type" : "", "begin" : 12, "end" : 12},
		{"id" : 7, "text" : "오랫동안", "type" : "", "begin" : 13, "end" : 13},
		{"id" : 8, "text" : "집을", "type" : "", "begin" : 14, "end" : 15},
		{"id" : 9, "text" : "비우는지", "type" : "", "begin" : 16, "end" : 17},
		{"id" : 10, "text" : "알", "type" : "", "begin" : 18, "end" : 19},
		{"id" : 11, "text" : "수", "type" : "", "begin" : 20, "end" : 20},
		{"id" : 12, "text" : "있습니다.", "type" : "", "begin" : 21, "end" : 23}
	],
	"NE" : [
	],
	"chunk" : [
	],
	"dependency" : [
		{"id" : 0, "text" : "이", "head" : 1, "label" : "DP", "mod" : [], "weight" : 0.755084 },
		{"id" : 1, "text" : "정낭이", "head" : 2, "label" : "NP_SBJ", "mod" : [0], "weight" : 0.829987 },
		{"id" : 2, "text" : "걸쳐진", "head" : 3, "label" : "VP_MOD", "mod" : [1], "weight" : 0.729203 },
		{"id" : 3, "text" : "수를", "head" : 4, "label" : "NP_OBJ", "mod" : [2], "weight" : 0.847228 },
		{"id" : 4, "text" : "세서", "head" : 10, "label" : "VP", "mod" : [3], "weight" : 0.824532 },
		{"id" : 5, "text" : "집주인이", "head" : 9, "label" : "NP_SBJ", "mod" : [], "weight" : 0.88047 },
		{"id" : 6, "text" : "얼마나", "head" : 7, "label" : "AP", "mod" : [], "weight" : 0.593168 },
		{"id" : 7, "text" : "오랫동안", "head" : 9, "label" : "NP_AJT", "mod" : [6], "weight" : 0.829187 },
		{"id" : 8, "text" : "집을", "head" : 9, "label" : "NP_OBJ", "mod" : [], "weight" : 0.909158 },
		{"id" : 9, "text" : "비우는지", "head" : 10, "label" : "VP", "mod" : [5, 7, 8], "weight" : 0.744961 },
		{"id" : 10, "text" : "알", "head" : 11, "label" : "VP_MOD", "mod" : [4, 9], "weight" : 0.940105 },
		{"id" : 11, "text" : "수", "head" : 12, "label" : "NP_SBJ", "mod" : [10], "weight" : 0.533695 },
		{"id" : 12, "text" : "있습니다.", "head" : -1, "label" : "VP", "mod" : [11], "weight" : 0.311891 }
	],
	"phrase_dependency" : [
	],
	"SRL" : [
	],
	"relation" : [
	],
	"SA" : [
	],
	"ZA" : [
	]
	}
 ],
 "entity" : [
 ]
}

