{"doc_id" : "934.010_A.03",
 "DCT" : "",
 "category" : "",
 "category_weight" : 0,
 "title" : {"text" : "장건", "NE" : ""},
 "metaInfo" : { },
 "sentence" : [
	{
	"id" : 0,
	"reserve_str" : "",
	"text" : "한나라 무제(武帝) 건원(建元) 2년(기원전 139) 흉노(匈奴)를 견제하기 위해 서방의 대월지(大月氏)와의 동맹을 촉진하고자 서역으로 가다가 흉노에게 잡혀 10년 동안 포로 생활을 했고, 이후 대완(大宛)과 강거(康居)를 거쳐 목적지에 다다랐지만, 뜻을 이루지 못한 채 13년 만인 원삭(元朔) 2년(기원전 127) 돌아왔다.",
	"morp" : [
	],
	"morp_eval" : [
	],
	"WSD" : [
	],
	"word" : [
		{"id" : 0, "text" : "한나라", "type" : "", "begin" : 0, "end" : 1},
		{"id" : 1, "text" : "무제(武帝)", "type" : "", "begin" : 2, "end" : 5},
		{"id" : 2, "text" : "건원(建元)", "type" : "", "begin" : 6, "end" : 9},
		{"id" : 3, "text" : "2년(기원전", "type" : "", "begin" : 10, "end" : 13},
		{"id" : 4, "text" : "139)", "type" : "", "begin" : 14, "end" : 15},
		{"id" : 5, "text" : "흉노(匈奴)를", "type" : "", "begin" : 16, "end" : 20},
		{"id" : 6, "text" : "견제하기", "type" : "", "begin" : 21, "end" : 23},
		{"id" : 7, "text" : "위해", "type" : "", "begin" : 24, "end" : 25},
		{"id" : 8, "text" : "서방의", "type" : "", "begin" : 26, "end" : 27},
		{"id" : 9, "text" : "대월지(大月氏)와의", "type" : "", "begin" : 28, "end" : 33},
		{"id" : 10, "text" : "동맹을", "type" : "", "begin" : 34, "end" : 35},
		{"id" : 11, "text" : "촉진하고자", "type" : "", "begin" : 36, "end" : 38},
		{"id" : 12, "text" : "서역으로", "type" : "", "begin" : 39, "end" : 40},
		{"id" : 13, "text" : "가다가", "type" : "", "begin" : 41, "end" : 42},
		{"id" : 14, "text" : "흉노에게", "type" : "", "begin" : 43, "end" : 44},
		{"id" : 15, "text" : "잡혀", "type" : "", "begin" : 45, "end" : 46},
		{"id" : 16, "text" : "10년", "type" : "", "begin" : 47, "end" : 48},
		{"id" : 17, "text" : "동안", "type" : "", "begin" : 49, "end" : 49},
		{"id" : 18, "text" : "포로", "type" : "", "begin" : 50, "end" : 51},
		{"id" : 19, "text" : "생활을", "type" : "", "begin" : 52, "end" : 53},
		{"id" : 20, "text" : "했고,", "type" : "", "begin" : 54, "end" : 57},
		{"id" : 21, "text" : "이후", "type" : "", "begin" : 58, "end" : 58},
		{"id" : 22, "text" : "대완(大宛)과", "type" : "", "begin" : 59, "end" : 63},
		{"id" : 23, "text" : "강거(康居)를", "type" : "", "begin" : 64, "end" : 68},
		{"id" : 24, "text" : "거쳐", "type" : "", "begin" : 69, "end" : 70},
		{"id" : 25, "text" : "목적지에", "type" : "", "begin" : 71, "end" : 72},
		{"id" : 26, "text" : "다다랐지만,", "type" : "", "begin" : 73, "end" : 76},
		{"id" : 27, "text" : "뜻을", "type" : "", "begin" : 77, "end" : 78},
		{"id" : 28, "text" : "이루지", "type" : "", "begin" : 79, "end" : 80},
		{"id" : 29, "text" : "못한", "type" : "", "begin" : 81, "end" : 82},
		{"id" : 30, "text" : "채", "type" : "", "begin" : 83, "end" : 83},
		{"id" : 31, "text" : "13년", "type" : "", "begin" : 84, "end" : 85},
		{"id" : 32, "text" : "만인", "type" : "", "begin" : 86, "end" : 88},
		{"id" : 33, "text" : "원삭(元朔)", "type" : "", "begin" : 89, "end" : 92},
		{"id" : 34, "text" : "2년(기원전", "type" : "", "begin" : 93, "end" : 96},
		{"id" : 35, "text" : "127)", "type" : "", "begin" : 97, "end" : 98},
		{"id" : 36, "text" : "돌아왔다.", "type" : "", "begin" : 99, "end" : 102}
	],
	"NE" : [
	],
	"chunk" : [
	],
	"dependency" : [
		{"id" : 0, "text" : "한나라", "head" : 1, "label" : "NP", "mod" : [], "weight" : 0.600361 },
		{"id" : 1, "text" : "무제(武帝)", "head" : 2, "label" : "NP", "mod" : [0], "weight" : 0.736557 },
		{"id" : 2, "text" : "건원(建元)", "head" : 3, "label" : "NP", "mod" : [1], "weight" : 0.575594 },
		{"id" : 3, "text" : "2년(기원전", "head" : 4, "label" : "NP", "mod" : [2], "weight" : 0.675536 },
		{"id" : 4, "text" : "139)", "head" : 13, "label" : "NP_PRN", "mod" : [3], "weight" : 0.555988 },
		{"id" : 5, "text" : "흉노(匈奴)를", "head" : 6, "label" : "NP_OBJ", "mod" : [], "weight" : 0.565196 },
		{"id" : 6, "text" : "견제하기", "head" : 7, "label" : "VP_OBJ", "mod" : [5], "weight" : 0.705549 },
		{"id" : 7, "text" : "위해", "head" : 11, "label" : "VP", "mod" : [6], "weight" : 0.801803 },
		{"id" : 8, "text" : "서방의", "head" : 9, "label" : "NP_MOD", "mod" : [], "weight" : 0.602518 },
		{"id" : 9, "text" : "대월지(大月氏)와의", "head" : 10, "label" : "NP_MOD", "mod" : [8], "weight" : 0.903971 },
		{"id" : 10, "text" : "동맹을", "head" : 11, "label" : "NP_OBJ", "mod" : [9], "weight" : 0.885554 },
		{"id" : 11, "text" : "촉진하고자", "head" : 13, "label" : "VP", "mod" : [7, 10], "weight" : 0.872424 },
		{"id" : 12, "text" : "서역으로", "head" : 13, "label" : "NP_AJT", "mod" : [], "weight" : 0.950802 },
		{"id" : 13, "text" : "가다가", "head" : 15, "label" : "VP", "mod" : [4, 11, 12], "weight" : 0.863669 },
		{"id" : 14, "text" : "흉노에게", "head" : 15, "label" : "NP_AJT", "mod" : [], "weight" : 0.72016 },
		{"id" : 15, "text" : "잡혀", "head" : 20, "label" : "VP", "mod" : [13, 14], "weight" : 0.761422 },
		{"id" : 16, "text" : "10년", "head" : 17, "label" : "NP", "mod" : [], "weight" : 0.999514 },
		{"id" : 17, "text" : "동안", "head" : 20, "label" : "NP_AJT", "mod" : [16], "weight" : 0.730171 },
		{"id" : 18, "text" : "포로", "head" : 19, "label" : "NP", "mod" : [], "weight" : 0.648505 },
		{"id" : 19, "text" : "생활을", "head" : 20, "label" : "NP_OBJ", "mod" : [18], "weight" : 0.587066 },
		{"id" : 20, "text" : "했고,", "head" : 24, "label" : "VP", "mod" : [15, 17, 19], "weight" : 0.864518 },
		{"id" : 21, "text" : "이후", "head" : 24, "label" : "NP_AJT", "mod" : [], "weight" : 0.821336 },
		{"id" : 22, "text" : "대완(大宛)과", "head" : 23, "label" : "NP_CNJ", "mod" : [], "weight" : 0.863744 },
		{"id" : 23, "text" : "강거(康居)를", "head" : 24, "label" : "NP_OBJ", "mod" : [22], "weight" : 0.728163 },
		{"id" : 24, "text" : "거쳐", "head" : 26, "label" : "VP", "mod" : [20, 21, 23], "weight" : 0.623181 },
		{"id" : 25, "text" : "목적지에", "head" : 26, "label" : "NP_AJT", "mod" : [], "weight" : 0.555644 },
		{"id" : 26, "text" : "다다랐지만,", "head" : 28, "label" : "VP", "mod" : [24, 25], "weight" : 0.79478 },
		{"id" : 27, "text" : "뜻을", "head" : 28, "label" : "NP_OBJ", "mod" : [], "weight" : 0.749048 },
		{"id" : 28, "text" : "이루지", "head" : 29, "label" : "VP", "mod" : [26, 27], "weight" : 0.977788 },
		{"id" : 29, "text" : "못한", "head" : 30, "label" : "VP_MOD", "mod" : [28], "weight" : 0.995895 },
		{"id" : 30, "text" : "채", "head" : 36, "label" : "NP_AJT", "mod" : [29], "weight" : 0.596542 },
		{"id" : 31, "text" : "13년", "head" : 32, "label" : "NP", "mod" : [], "weight" : 0.981458 },
		{"id" : 32, "text" : "만인", "head" : 34, "label" : "VNP_MOD", "mod" : [31], "weight" : 0.507807 },
		{"id" : 33, "text" : "원삭(元朔)", "head" : 34, "label" : "NP", "mod" : [], "weight" : 0.696051 },
		{"id" : 34, "text" : "2년(기원전", "head" : 35, "label" : "NP", "mod" : [33, 32], "weight" : 0.892546 },
		{"id" : 35, "text" : "127)", "head" : 36, "label" : "NP_AJT", "mod" : [34], "weight" : 0.273205 },
		{"id" : 36, "text" : "돌아왔다.", "head" : -1, "label" : "VP", "mod" : [30, 35], "weight" : 0.424217 }
	],
	"phrase_dependency" : [
	],
	"SRL" : [
	],
	"relation" : [
	],
	"SA" : [
	],
	"ZA" : [
	]
	}
 ],
 "entity" : [
 ]
}

