{"doc_id" : "934.023_A.01",
 "DCT" : "",
 "category" : "",
 "category_weight" : 0,
 "title" : {"text" : "테레사 수녀", "NE" : ""},
 "metaInfo" : { },
 "sentence" : [
	{
	"id" : 0,
	"reserve_str" : "",
	"text" : "테레사 수녀(Mother Teresa, 1910년 8월 26일 ~ 1997년 9월 5일)는 인도의 로마 가톨릭교회 수녀로, 1950년 캘커타에서 사랑의 선교회라는 기독교 계통 비정부기구를 설립하였다.",
	"morp" : [
	],
	"morp_eval" : [
	],
	"WSD" : [
	],
	"word" : [
		{"id" : 0, "text" : "테레사", "type" : "", "begin" : 0, "end" : 0},
		{"id" : 1, "text" : "수녀(Mother", "type" : "", "begin" : 1, "end" : 3},
		{"id" : 2, "text" : "Teresa,", "type" : "", "begin" : 4, "end" : 5},
		{"id" : 3, "text" : "1910년", "type" : "", "begin" : 6, "end" : 7},
		{"id" : 4, "text" : "8월", "type" : "", "begin" : 8, "end" : 9},
		{"id" : 5, "text" : "26일", "type" : "", "begin" : 10, "end" : 11},
		{"id" : 6, "text" : "~", "type" : "", "begin" : 12, "end" : 12},
		{"id" : 7, "text" : "1997년", "type" : "", "begin" : 13, "end" : 14},
		{"id" : 8, "text" : "9월", "type" : "", "begin" : 15, "end" : 16},
		{"id" : 9, "text" : "5일)는", "type" : "", "begin" : 17, "end" : 20},
		{"id" : 10, "text" : "인도의", "type" : "", "begin" : 21, "end" : 22},
		{"id" : 11, "text" : "로마", "type" : "", "begin" : 23, "end" : 23},
		{"id" : 12, "text" : "가톨릭교회", "type" : "", "begin" : 24, "end" : 25},
		{"id" : 13, "text" : "수녀로,", "type" : "", "begin" : 26, "end" : 28},
		{"id" : 14, "text" : "1950년", "type" : "", "begin" : 29, "end" : 30},
		{"id" : 15, "text" : "캘커타에서", "type" : "", "begin" : 31, "end" : 32},
		{"id" : 16, "text" : "사랑의", "type" : "", "begin" : 33, "end" : 34},
		{"id" : 17, "text" : "선교회라는", "type" : "", "begin" : 35, "end" : 37},
		{"id" : 18, "text" : "기독교", "type" : "", "begin" : 38, "end" : 38},
		{"id" : 19, "text" : "계통", "type" : "", "begin" : 39, "end" : 39},
		{"id" : 20, "text" : "비정부기구를", "type" : "", "begin" : 40, "end" : 43},
		{"id" : 21, "text" : "설립하였다.", "type" : "", "begin" : 44, "end" : 48}
	],
	"NE" : [
	],
	"chunk" : [
	],
	"dependency" : [
		{"id" : 0, "text" : "테레사", "head" : 1, "label" : "NP", "mod" : [], "weight" : 0.789199 },
		{"id" : 1, "text" : "수녀(Mother", "head" : 2, "label" : "NP", "mod" : [0], "weight" : 0.85294 },
		{"id" : 2, "text" : "Teresa,", "head" : 9, "label" : "NP", "mod" : [1], "weight" : 0.818396 },
		{"id" : 3, "text" : "1910년", "head" : 4, "label" : "NP", "mod" : [], "weight" : 0.671683 },
		{"id" : 4, "text" : "8월", "head" : 5, "label" : "NP", "mod" : [3], "weight" : 0.740518 },
		{"id" : 5, "text" : "26일", "head" : 6, "label" : "NP", "mod" : [4], "weight" : 0.930782 },
		{"id" : 6, "text" : "~", "head" : 7, "label" : "X", "mod" : [5], "weight" : 0.519372 },
		{"id" : 7, "text" : "1997년", "head" : 8, "label" : "NP", "mod" : [6], "weight" : 0.662151 },
		{"id" : 8, "text" : "9월", "head" : 9, "label" : "NP", "mod" : [7], "weight" : 0.748254 },
		{"id" : 9, "text" : "5일)는", "head" : 13, "label" : "NP_SBJ", "mod" : [2, 8], "weight" : 0.831953 },
		{"id" : 10, "text" : "인도의", "head" : 12, "label" : "NP_MOD", "mod" : [], "weight" : 0.697172 },
		{"id" : 11, "text" : "로마", "head" : 12, "label" : "NP", "mod" : [], "weight" : 0.986521 },
		{"id" : 12, "text" : "가톨릭교회", "head" : 13, "label" : "NP", "mod" : [10, 11], "weight" : 0.684695 },
		{"id" : 13, "text" : "수녀로,", "head" : 21, "label" : "NP_AJT", "mod" : [9, 12], "weight" : 0.703021 },
		{"id" : 14, "text" : "1950년", "head" : 21, "label" : "NP", "mod" : [], "weight" : 0.857054 },
		{"id" : 15, "text" : "캘커타에서", "head" : 21, "label" : "NP_AJT", "mod" : [], "weight" : 0.671532 },
		{"id" : 16, "text" : "사랑의", "head" : 17, "label" : "NP_MOD", "mod" : [], "weight" : 0.946778 },
		{"id" : 17, "text" : "선교회라는", "head" : 20, "label" : "VNP_MOD", "mod" : [16], "weight" : 0.744034 },
		{"id" : 18, "text" : "기독교", "head" : 19, "label" : "NP", "mod" : [], "weight" : 0.758688 },
		{"id" : 19, "text" : "계통", "head" : 20, "label" : "NP", "mod" : [18], "weight" : 0.794115 },
		{"id" : 20, "text" : "비정부기구를", "head" : 21, "label" : "NP_OBJ", "mod" : [17, 19], "weight" : 0.455448 },
		{"id" : 21, "text" : "설립하였다.", "head" : -1, "label" : "VP", "mod" : [13, 14, 15, 20], "weight" : 0.132409 }
	],
	"phrase_dependency" : [
	],
	"SRL" : [
	],
	"relation" : [
	],
	"SA" : [
	],
	"ZA" : [
	]
	},
	{
	"id" : 1,
	"reserve_str" : "",
	"text" : "이후 45년간 사랑의 선교회를 통해 빈민과 병자, 고아, 그리고 죽어가는 이들을 위해 인도와 다른 나라들에서 헌신하였다.",
	"morp" : [
	],
	"morp_eval" : [
	],
	"WSD" : [
	],
	"word" : [
		{"id" : 0, "text" : "이후", "type" : "", "begin" : 0, "end" : 0},
		{"id" : 1, "text" : "45년간", "type" : "", "begin" : 1, "end" : 3},
		{"id" : 2, "text" : "사랑의", "type" : "", "begin" : 4, "end" : 5},
		{"id" : 3, "text" : "선교회를", "type" : "", "begin" : 6, "end" : 8},
		{"id" : 4, "text" : "통해", "type" : "", "begin" : 9, "end" : 10},
		{"id" : 5, "text" : "빈민과", "type" : "", "begin" : 11, "end" : 12},
		{"id" : 6, "text" : "병자,", "type" : "", "begin" : 13, "end" : 14},
		{"id" : 7, "text" : "고아,", "type" : "", "begin" : 15, "end" : 16},
		{"id" : 8, "text" : "그리고", "type" : "", "begin" : 17, "end" : 17},
		{"id" : 9, "text" : "죽어가는", "type" : "", "begin" : 18, "end" : 21},
		{"id" : 10, "text" : "이들을", "type" : "", "begin" : 22, "end" : 24},
		{"id" : 11, "text" : "위해", "type" : "", "begin" : 25, "end" : 26},
		{"id" : 12, "text" : "인도와", "type" : "", "begin" : 27, "end" : 28},
		{"id" : 13, "text" : "다른", "type" : "", "begin" : 29, "end" : 29},
		{"id" : 14, "text" : "나라들에서", "type" : "", "begin" : 30, "end" : 32},
		{"id" : 15, "text" : "헌신하였다.", "type" : "", "begin" : 33, "end" : 37}
	],
	"NE" : [
	],
	"chunk" : [
	],
	"dependency" : [
		{"id" : 0, "text" : "이후", "head" : 1, "label" : "NP", "mod" : [], "weight" : 0.572209 },
		{"id" : 1, "text" : "45년간", "head" : 4, "label" : "NP_AJT", "mod" : [0], "weight" : 0.726434 },
		{"id" : 2, "text" : "사랑의", "head" : 3, "label" : "NP_MOD", "mod" : [], "weight" : 0.872526 },
		{"id" : 3, "text" : "선교회를", "head" : 4, "label" : "NP_OBJ", "mod" : [2], "weight" : 0.720633 },
		{"id" : 4, "text" : "통해", "head" : 15, "label" : "VP", "mod" : [1, 3], "weight" : 0.923312 },
		{"id" : 5, "text" : "빈민과", "head" : 10, "label" : "NP_CNJ", "mod" : [], "weight" : 0.939746 },
		{"id" : 6, "text" : "병자,", "head" : 10, "label" : "NP_CNJ", "mod" : [], "weight" : 0.974806 },
		{"id" : 7, "text" : "고아,", "head" : 10, "label" : "NP_CNJ", "mod" : [], "weight" : 0.874836 },
		{"id" : 8, "text" : "그리고", "head" : 10, "label" : "AP", "mod" : [], "weight" : 0.889018 },
		{"id" : 9, "text" : "죽어가는", "head" : 10, "label" : "VP_MOD", "mod" : [], "weight" : 0.957088 },
		{"id" : 10, "text" : "이들을", "head" : 11, "label" : "NP_OBJ", "mod" : [5, 6, 7, 8, 9], "weight" : 0.689286 },
		{"id" : 11, "text" : "위해", "head" : 15, "label" : "VP", "mod" : [10], "weight" : 0.651195 },
		{"id" : 12, "text" : "인도와", "head" : 14, "label" : "NP_CNJ", "mod" : [], "weight" : 0.826185 },
		{"id" : 13, "text" : "다른", "head" : 14, "label" : "DP", "mod" : [], "weight" : 0.788263 },
		{"id" : 14, "text" : "나라들에서", "head" : 15, "label" : "NP_AJT", "mod" : [12, 13], "weight" : 0.664311 },
		{"id" : 15, "text" : "헌신하였다.", "head" : -1, "label" : "VP", "mod" : [4, 11, 14], "weight" : 0.199471 }
	],
	"phrase_dependency" : [
	],
	"SRL" : [
	],
	"relation" : [
	],
	"SA" : [
	],
	"ZA" : [
	]
	}
 ],
 "entity" : [
 ]
}

