{"doc_id" : "934.018_A.03",
 "DCT" : "",
 "category" : "",
 "category_weight" : 0,
 "title" : {"text" : "정낭", "NE" : ""},
 "metaInfo" : { },
 "sentence" : [
	{
	"id" : 0,
	"reserve_str" : "",
	"text" : "제주도의 전통 가옥에서 대문 역할을 하는 것으로, 대문 위치에 세운 큰 돌 혹은 나무(정주석, 정주목) 사이에 걸쳐 놓은 기둥을 말한다.",
	"morp" : [
	],
	"morp_eval" : [
	],
	"WSD" : [
	],
	"word" : [
		{"id" : 0, "text" : "제주도의", "type" : "", "begin" : 0, "end" : 1},
		{"id" : 1, "text" : "전통", "type" : "", "begin" : 2, "end" : 2},
		{"id" : 2, "text" : "가옥에서", "type" : "", "begin" : 3, "end" : 4},
		{"id" : 3, "text" : "대문", "type" : "", "begin" : 5, "end" : 5},
		{"id" : 4, "text" : "역할을", "type" : "", "begin" : 6, "end" : 7},
		{"id" : 5, "text" : "하는", "type" : "", "begin" : 8, "end" : 9},
		{"id" : 6, "text" : "것으로,", "type" : "", "begin" : 10, "end" : 12},
		{"id" : 7, "text" : "대문", "type" : "", "begin" : 13, "end" : 13},
		{"id" : 8, "text" : "위치에", "type" : "", "begin" : 14, "end" : 15},
		{"id" : 9, "text" : "세운", "type" : "", "begin" : 16, "end" : 17},
		{"id" : 10, "text" : "큰", "type" : "", "begin" : 18, "end" : 19},
		{"id" : 11, "text" : "돌", "type" : "", "begin" : 20, "end" : 20},
		{"id" : 12, "text" : "혹은", "type" : "", "begin" : 21, "end" : 21},
		{"id" : 13, "text" : "나무(정주석,", "type" : "", "begin" : 22, "end" : 26},
		{"id" : 14, "text" : "정주목)", "type" : "", "begin" : 27, "end" : 28},
		{"id" : 15, "text" : "사이에", "type" : "", "begin" : 29, "end" : 30},
		{"id" : 16, "text" : "걸쳐", "type" : "", "begin" : 31, "end" : 32},
		{"id" : 17, "text" : "놓은", "type" : "", "begin" : 33, "end" : 34},
		{"id" : 18, "text" : "기둥을", "type" : "", "begin" : 35, "end" : 36},
		{"id" : 19, "text" : "말한다.", "type" : "", "begin" : 37, "end" : 40}
	],
	"NE" : [
	],
	"chunk" : [
	],
	"dependency" : [
		{"id" : 0, "text" : "제주도의", "head" : 2, "label" : "NP_MOD", "mod" : [], "weight" : 0.78138 },
		{"id" : 1, "text" : "전통", "head" : 2, "label" : "NP", "mod" : [], "weight" : 0.850575 },
		{"id" : 2, "text" : "가옥에서", "head" : 5, "label" : "NP_AJT", "mod" : [0, 1], "weight" : 0.859596 },
		{"id" : 3, "text" : "대문", "head" : 4, "label" : "NP", "mod" : [], "weight" : 0.912836 },
		{"id" : 4, "text" : "역할을", "head" : 5, "label" : "NP_OBJ", "mod" : [3], "weight" : 0.802462 },
		{"id" : 5, "text" : "하는", "head" : 6, "label" : "VP_MOD", "mod" : [2, 4], "weight" : 0.61803 },
		{"id" : 6, "text" : "것으로,", "head" : 19, "label" : "NP_AJT", "mod" : [5], "weight" : 0.812585 },
		{"id" : 7, "text" : "대문", "head" : 8, "label" : "NP", "mod" : [], "weight" : 0.798428 },
		{"id" : 8, "text" : "위치에", "head" : 9, "label" : "NP_AJT", "mod" : [7], "weight" : 0.915484 },
		{"id" : 9, "text" : "세운", "head" : 11, "label" : "VP_MOD", "mod" : [8], "weight" : 0.536593 },
		{"id" : 10, "text" : "큰", "head" : 11, "label" : "VP_MOD", "mod" : [], "weight" : 0.79089 },
		{"id" : 11, "text" : "돌", "head" : 14, "label" : "NP_CNJ", "mod" : [9, 10], "weight" : 0.884067 },
		{"id" : 12, "text" : "혹은", "head" : 14, "label" : "AP", "mod" : [], "weight" : 0.6941 },
		{"id" : 13, "text" : "나무(정주석,", "head" : 14, "label" : "NP_CNJ", "mod" : [], "weight" : 0.939461 },
		{"id" : 14, "text" : "정주목)", "head" : 15, "label" : "NP", "mod" : [11, 12, 13], "weight" : 0.888914 },
		{"id" : 15, "text" : "사이에", "head" : 16, "label" : "NP_AJT", "mod" : [14], "weight" : 0.825138 },
		{"id" : 16, "text" : "걸쳐", "head" : 17, "label" : "VP", "mod" : [15], "weight" : 0.935665 },
		{"id" : 17, "text" : "놓은", "head" : 18, "label" : "VP_MOD", "mod" : [16], "weight" : 0.836906 },
		{"id" : 18, "text" : "기둥을", "head" : 19, "label" : "NP_OBJ", "mod" : [17], "weight" : 0.561877 },
		{"id" : 19, "text" : "말한다.", "head" : -1, "label" : "VP", "mod" : [6, 18], "weight" : 0.897298 }
	],
	"phrase_dependency" : [
	],
	"SRL" : [
	],
	"relation" : [
	],
	"SA" : [
	],
	"ZA" : [
	]
	},
	{
	"id" : 1,
	"reserve_str" : "",
	"text" : "이 지역의 사람들은 정낭의 모양으로 집주인의 소재를 알 수 있었는데, 아래 그림과 같이 정낭 3개가 가로로 모두 걸쳐진 것은 '좀 멀리갔어요', 2개가 걸쳐진 것은 '금방 돌아와요', 1개만 걸쳐진 것은 '저녁 때쯤 와요', 한 개도 걸쳐있지 않은 것은 '사람 있어요'를 의미한다.",
	"morp" : [
	],
	"morp_eval" : [
	],
	"WSD" : [
	],
	"word" : [
		{"id" : 0, "text" : "이", "type" : "", "begin" : 0, "end" : 0},
		{"id" : 1, "text" : "지역의", "type" : "", "begin" : 1, "end" : 2},
		{"id" : 2, "text" : "사람들은", "type" : "", "begin" : 3, "end" : 5},
		{"id" : 3, "text" : "정낭의", "type" : "", "begin" : 6, "end" : 7},
		{"id" : 4, "text" : "모양으로", "type" : "", "begin" : 8, "end" : 9},
		{"id" : 5, "text" : "집주인의", "type" : "", "begin" : 10, "end" : 11},
		{"id" : 6, "text" : "소재를", "type" : "", "begin" : 12, "end" : 13},
		{"id" : 7, "text" : "알", "type" : "", "begin" : 14, "end" : 15},
		{"id" : 8, "text" : "수", "type" : "", "begin" : 16, "end" : 16},
		{"id" : 9, "text" : "있었는데,", "type" : "", "begin" : 17, "end" : 20},
		{"id" : 10, "text" : "아래", "type" : "", "begin" : 21, "end" : 21},
		{"id" : 11, "text" : "그림과", "type" : "", "begin" : 22, "end" : 23},
		{"id" : 12, "text" : "같이", "type" : "", "begin" : 24, "end" : 24},
		{"id" : 13, "text" : "정낭", "type" : "", "begin" : 25, "end" : 25},
		{"id" : 14, "text" : "3개가", "type" : "", "begin" : 26, "end" : 28},
		{"id" : 15, "text" : "가로로", "type" : "", "begin" : 29, "end" : 30},
		{"id" : 16, "text" : "모두", "type" : "", "begin" : 31, "end" : 31},
		{"id" : 17, "text" : "걸쳐진", "type" : "", "begin" : 32, "end" : 35},
		{"id" : 18, "text" : "것은", "type" : "", "begin" : 36, "end" : 37},
		{"id" : 19, "text" : "'좀", "type" : "", "begin" : 38, "end" : 39},
		{"id" : 20, "text" : "멀리갔어요',", "type" : "", "begin" : 40, "end" : 45},
		{"id" : 21, "text" : "2개가", "type" : "", "begin" : 46, "end" : 48},
		{"id" : 22, "text" : "걸쳐진", "type" : "", "begin" : 49, "end" : 52},
		{"id" : 23, "text" : "것은", "type" : "", "begin" : 53, "end" : 54},
		{"id" : 24, "text" : "'금방", "type" : "", "begin" : 55, "end" : 56},
		{"id" : 25, "text" : "돌아와요',", "type" : "", "begin" : 57, "end" : 60},
		{"id" : 26, "text" : "1개만", "type" : "", "begin" : 61, "end" : 63},
		{"id" : 27, "text" : "걸쳐진", "type" : "", "begin" : 64, "end" : 67},
		{"id" : 28, "text" : "것은", "type" : "", "begin" : 68, "end" : 69},
		{"id" : 29, "text" : "'저녁", "type" : "", "begin" : 70, "end" : 71},
		{"id" : 30, "text" : "때쯤", "type" : "", "begin" : 72, "end" : 73},
		{"id" : 31, "text" : "와요',", "type" : "", "begin" : 74, "end" : 77},
		{"id" : 32, "text" : "한", "type" : "", "begin" : 78, "end" : 78},
		{"id" : 33, "text" : "개도", "type" : "", "begin" : 79, "end" : 80},
		{"id" : 34, "text" : "걸쳐있지", "type" : "", "begin" : 81, "end" : 84},
		{"id" : 35, "text" : "않은", "type" : "", "begin" : 85, "end" : 86},
		{"id" : 36, "text" : "것은", "type" : "", "begin" : 87, "end" : 88},
		{"id" : 37, "text" : "'사람", "type" : "", "begin" : 89, "end" : 90},
		{"id" : 38, "text" : "있어요'를", "type" : "", "begin" : 91, "end" : 94},
		{"id" : 39, "text" : "의미한다.", "type" : "", "begin" : 95, "end" : 98}
	],
	"NE" : [
	],
	"chunk" : [
	],
	"dependency" : [
		{"id" : 0, "text" : "이", "head" : 1, "label" : "DP", "mod" : [], "weight" : 0.845801 },
		{"id" : 1, "text" : "지역의", "head" : 2, "label" : "NP_MOD", "mod" : [0], "weight" : 0.92542 },
		{"id" : 2, "text" : "사람들은", "head" : 7, "label" : "NP_SBJ", "mod" : [1], "weight" : 0.709597 },
		{"id" : 3, "text" : "정낭의", "head" : 4, "label" : "NP_MOD", "mod" : [], "weight" : 0.851469 },
		{"id" : 4, "text" : "모양으로", "head" : 7, "label" : "NP_AJT", "mod" : [3], "weight" : 0.891804 },
		{"id" : 5, "text" : "집주인의", "head" : 6, "label" : "NP_MOD", "mod" : [], "weight" : 0.975143 },
		{"id" : 6, "text" : "소재를", "head" : 7, "label" : "NP_OBJ", "mod" : [5], "weight" : 0.908079 },
		{"id" : 7, "text" : "알", "head" : 8, "label" : "VP_MOD", "mod" : [2, 4, 6], "weight" : 0.963609 },
		{"id" : 8, "text" : "수", "head" : 9, "label" : "NP_SBJ", "mod" : [7], "weight" : 0.646644 },
		{"id" : 9, "text" : "있었는데,", "head" : 39, "label" : "VP", "mod" : [8], "weight" : 0.722805 },
		{"id" : 10, "text" : "아래", "head" : 11, "label" : "NP_MOD", "mod" : [], "weight" : 0.665818 },
		{"id" : 11, "text" : "그림과", "head" : 12, "label" : "NP_AJT", "mod" : [10], "weight" : 0.686482 },
		{"id" : 12, "text" : "같이", "head" : 17, "label" : "AP", "mod" : [11], "weight" : 0.753919 },
		{"id" : 13, "text" : "정낭", "head" : 14, "label" : "NP", "mod" : [], "weight" : 0.785413 },
		{"id" : 14, "text" : "3개가", "head" : 17, "label" : "NP_SBJ", "mod" : [13], "weight" : 0.934952 },
		{"id" : 15, "text" : "가로로", "head" : 17, "label" : "NP_AJT", "mod" : [], "weight" : 0.883055 },
		{"id" : 16, "text" : "모두", "head" : 17, "label" : "AP", "mod" : [], "weight" : 0.798321 },
		{"id" : 17, "text" : "걸쳐진", "head" : 18, "label" : "VP_MOD", "mod" : [12, 14, 15, 16], "weight" : 0.891115 },
		{"id" : 18, "text" : "것은", "head" : 20, "label" : "NP_SBJ", "mod" : [17], "weight" : 0.715924 },
		{"id" : 19, "text" : "'좀", "head" : 20, "label" : "AP", "mod" : [], "weight" : 0.801252 },
		{"id" : 20, "text" : "멀리갔어요',", "head" : 38, "label" : "VP_CNJ", "mod" : [18, 19], "weight" : 0.64992 },
		{"id" : 21, "text" : "2개가", "head" : 22, "label" : "NP_SBJ", "mod" : [], "weight" : 0.686775 },
		{"id" : 22, "text" : "걸쳐진", "head" : 23, "label" : "VP_MOD", "mod" : [21], "weight" : 0.994663 },
		{"id" : 23, "text" : "것은", "head" : 25, "label" : "NP_SBJ", "mod" : [22], "weight" : 0.781015 },
		{"id" : 24, "text" : "'금방", "head" : 25, "label" : "AP", "mod" : [], "weight" : 0.327002 },
		{"id" : 25, "text" : "돌아와요',", "head" : 38, "label" : "VP_CNJ", "mod" : [23, 24], "weight" : 0.60928 },
		{"id" : 26, "text" : "1개만", "head" : 27, "label" : "NP_OBJ", "mod" : [], "weight" : 0.479761 },
		{"id" : 27, "text" : "걸쳐진", "head" : 28, "label" : "VP_MOD", "mod" : [26], "weight" : 0.963381 },
		{"id" : 28, "text" : "것은", "head" : 31, "label" : "NP_SBJ", "mod" : [27], "weight" : 0.967545 },
		{"id" : 29, "text" : "'저녁", "head" : 30, "label" : "NP", "mod" : [], "weight" : 0.817088 },
		{"id" : 30, "text" : "때쯤", "head" : 31, "label" : "NP_AJT", "mod" : [29], "weight" : 0.656458 },
		{"id" : 31, "text" : "와요',", "head" : 38, "label" : "VP_CNJ", "mod" : [28, 30], "weight" : 0.81896 },
		{"id" : 32, "text" : "한", "head" : 33, "label" : "DP", "mod" : [], "weight" : 0.862497 },
		{"id" : 33, "text" : "개도", "head" : 34, "label" : "NP_OBJ", "mod" : [32], "weight" : 0.703814 },
		{"id" : 34, "text" : "걸쳐있지", "head" : 35, "label" : "VP", "mod" : [33], "weight" : 0.78907 },
		{"id" : 35, "text" : "않은", "head" : 36, "label" : "VP_MOD", "mod" : [34], "weight" : 0.828433 },
		{"id" : 36, "text" : "것은", "head" : 38, "label" : "NP_SBJ", "mod" : [35], "weight" : 0.691422 },
		{"id" : 37, "text" : "'사람", "head" : 38, "label" : "NP_SBJ", "mod" : [], "weight" : 0.445232 },
		{"id" : 38, "text" : "있어요'를", "head" : 39, "label" : "VP_OBJ", "mod" : [20, 25, 31, 36, 37], "weight" : 0.404891 },
		{"id" : 39, "text" : "의미한다.", "head" : -1, "label" : "VP", "mod" : [9, 38], "weight" : 0.749678 }
	],
	"phrase_dependency" : [
	],
	"SRL" : [
	],
	"relation" : [
	],
	"SA" : [
	],
	"ZA" : [
	]
	}
 ],
 "entity" : [
 ]
}

