{"doc_id" : "934.020_A.02",
 "DCT" : "",
 "category" : "",
 "category_weight" : 0,
 "title" : {"text" : "어깃장을 놓다", "NE" : ""},
 "metaInfo" : { },
 "sentence" : [
	{
	"id" : 0,
	"reserve_str" : "",
	"text" : "짐짓 고분고분 따르지 않고 뻗대다.",
	"morp" : [
	],
	"morp_eval" : [
	],
	"WSD" : [
	],
	"word" : [
		{"id" : 0, "text" : "짐짓", "type" : "", "begin" : 0, "end" : 0},
		{"id" : 1, "text" : "고분고분", "type" : "", "begin" : 1, "end" : 2},
		{"id" : 2, "text" : "따르지", "type" : "", "begin" : 3, "end" : 4},
		{"id" : 3, "text" : "않고", "type" : "", "begin" : 5, "end" : 6},
		{"id" : 4, "text" : "뻗대다.", "type" : "", "begin" : 7, "end" : 9}
	],
	"NE" : [
	],
	"chunk" : [
	],
	"dependency" : [
		{"id" : 0, "text" : "짐짓", "head" : 1, "label" : "AP", "mod" : [], "weight" : 0.711043 },
		{"id" : 1, "text" : "고분고분", "head" : 2, "label" : "AP", "mod" : [0], "weight" : 0.426215 },
		{"id" : 2, "text" : "따르지", "head" : 3, "label" : "VP", "mod" : [1], "weight" : 0.632431 },
		{"id" : 3, "text" : "않고", "head" : 4, "label" : "VP", "mod" : [2], "weight" : 0.627989 },
		{"id" : 4, "text" : "뻗대다.", "head" : -1, "label" : "VP", "mod" : [3], "weight" : 0.740305 }
	],
	"phrase_dependency" : [
	],
	"SRL" : [
	],
	"relation" : [
	],
	"SA" : [
	],
	"ZA" : [
	]
	}
 ],
 "entity" : [
 ]
}

