{"doc_id" : "",
 "DCT" : "",
 "category" : "",
 "category_weight" : 0,
 "title" : {"text" : "은", "NE" : ""},
 "metaInfo" : { },
 "sentence" : [
	{
	"id" : 0,
	"reserve_str" : "",
	"text" : "<화학> 금속 원소의 하나.",
	"morp" : [
	],
	"morp_eval" : [
	],
	"WSD" : [
	],
	"word" : [
		{"id" : 0, "text" : "<화학>", "type" : "", "begin" : 0, "end" : 2},
		{"id" : 1, "text" : "금속", "type" : "", "begin" : 3, "end" : 3},
		{"id" : 2, "text" : "원소의", "type" : "", "begin" : 4, "end" : 5},
		{"id" : 3, "text" : "하나.", "type" : "", "begin" : 6, "end" : 7}
	],
	"NE" : [
	],
	"chunk" : [
	],
	"dependency" : [
		{"id" : 0, "text" : "<화학>", "head" : 3, "label" : "NP", "mod" : [], "weight" : 0.526895 },
		{"id" : 1, "text" : "금속", "head" : 2, "label" : "NP", "mod" : [], "weight" : 0.773531 },
		{"id" : 2, "text" : "원소의", "head" : 3, "label" : "NP_MOD", "mod" : [1], "weight" : 0.53932 },
		{"id" : 3, "text" : "하나.", "head" : -1, "label" : "NP", "mod" : [0, 2], "weight" : 0.122763 }
	],
	"phrase_dependency" : [
	],
	"SRL" : [
	],
	"relation" : [
	],
	"SA" : [
	],
	"ZA" : [
	]
	},
	{
	"id" : 1,
	"reserve_str" : "",
	"text" : " 흰 광택이 있고 무르며 늘어나고 펴지는 성질이 금 다음으로 강하고, 전기 전도율과 열전도율은 금속 가운데 가장 높다.",
	"morp" : [
	],
	"morp_eval" : [
	],
	"WSD" : [
	],
	"word" : [
		{"id" : 0, "text" : "흰", "type" : "", "begin" : 0, "end" : 1},
		{"id" : 1, "text" : "광택이", "type" : "", "begin" : 2, "end" : 3},
		{"id" : 2, "text" : "있고", "type" : "", "begin" : 4, "end" : 5},
		{"id" : 3, "text" : "무르며", "type" : "", "begin" : 6, "end" : 7},
		{"id" : 4, "text" : "늘어나고", "type" : "", "begin" : 8, "end" : 9},
		{"id" : 5, "text" : "펴지는", "type" : "", "begin" : 10, "end" : 11},
		{"id" : 6, "text" : "성질이", "type" : "", "begin" : 12, "end" : 13},
		{"id" : 7, "text" : "금", "type" : "", "begin" : 14, "end" : 14},
		{"id" : 8, "text" : "다음으로", "type" : "", "begin" : 15, "end" : 16},
		{"id" : 9, "text" : "강하고,", "type" : "", "begin" : 17, "end" : 20},
		{"id" : 10, "text" : "전기", "type" : "", "begin" : 21, "end" : 21},
		{"id" : 11, "text" : "전도율과", "type" : "", "begin" : 22, "end" : 24},
		{"id" : 12, "text" : "열전도율은", "type" : "", "begin" : 25, "end" : 28},
		{"id" : 13, "text" : "금속", "type" : "", "begin" : 29, "end" : 29},
		{"id" : 14, "text" : "가운데", "type" : "", "begin" : 30, "end" : 30},
		{"id" : 15, "text" : "가장", "type" : "", "begin" : 31, "end" : 31},
		{"id" : 16, "text" : "높다.", "type" : "", "begin" : 32, "end" : 34}
	],
	"NE" : [
	],
	"chunk" : [
	],
	"dependency" : [
		{"id" : 0, "text" : "흰", "head" : 1, "label" : "VP_MOD", "mod" : [], "weight" : 0.783786 },
		{"id" : 1, "text" : "광택이", "head" : 2, "label" : "NP_SBJ", "mod" : [0], "weight" : 0.981018 },
		{"id" : 2, "text" : "있고", "head" : 9, "label" : "VP", "mod" : [1], "weight" : 0.766081 },
		{"id" : 3, "text" : "무르며", "head" : 4, "label" : "VP", "mod" : [], "weight" : 0.591919 },
		{"id" : 4, "text" : "늘어나고", "head" : 5, "label" : "VP", "mod" : [3], "weight" : 0.835453 },
		{"id" : 5, "text" : "펴지는", "head" : 6, "label" : "VP_MOD", "mod" : [4], "weight" : 0.906502 },
		{"id" : 6, "text" : "성질이", "head" : 9, "label" : "NP_SBJ", "mod" : [5], "weight" : 0.964054 },
		{"id" : 7, "text" : "금", "head" : 8, "label" : "NP", "mod" : [], "weight" : 0.721109 },
		{"id" : 8, "text" : "다음으로", "head" : 9, "label" : "NP_AJT", "mod" : [7], "weight" : 0.955221 },
		{"id" : 9, "text" : "강하고,", "head" : 16, "label" : "VP", "mod" : [6, 8, 2], "weight" : 0.617766 },
		{"id" : 10, "text" : "전기", "head" : 11, "label" : "NP", "mod" : [], "weight" : 0.637647 },
		{"id" : 11, "text" : "전도율과", "head" : 12, "label" : "NP_CNJ", "mod" : [10], "weight" : 0.895011 },
		{"id" : 12, "text" : "열전도율은", "head" : 16, "label" : "NP_SBJ", "mod" : [11], "weight" : 0.626665 },
		{"id" : 13, "text" : "금속", "head" : 14, "label" : "NP", "mod" : [], "weight" : 0.928021 },
		{"id" : 14, "text" : "가운데", "head" : 16, "label" : "NP_AJT", "mod" : [13], "weight" : 0.523054 },
		{"id" : 15, "text" : "가장", "head" : 16, "label" : "AP", "mod" : [], "weight" : 0.491839 },
		{"id" : 16, "text" : "높다.", "head" : -1, "label" : "VP", "mod" : [9, 12, 14, 15], "weight" : 0.714977 }
	],
	"phrase_dependency" : [
	],
	"SRL" : [
	],
	"relation" : [
	],
	"SA" : [
	],
	"ZA" : [
	]
	},
	{
	"id" : 2,
	"reserve_str" : "",
	"text" : " 공기 중에서는 산화하지 않으나 유황 화합물에 닿으면 검은색으로 변한다.",
	"morp" : [
	],
	"morp_eval" : [
	],
	"WSD" : [
	],
	"word" : [
		{"id" : 0, "text" : "공기", "type" : "", "begin" : 0, "end" : 0},
		{"id" : 1, "text" : "중에서는", "type" : "", "begin" : 1, "end" : 3},
		{"id" : 2, "text" : "산화하지", "type" : "", "begin" : 4, "end" : 6},
		{"id" : 3, "text" : "않으나", "type" : "", "begin" : 7, "end" : 8},
		{"id" : 4, "text" : "유황", "type" : "", "begin" : 9, "end" : 9},
		{"id" : 5, "text" : "화합물에", "type" : "", "begin" : 10, "end" : 12},
		{"id" : 6, "text" : "닿으면", "type" : "", "begin" : 13, "end" : 14},
		{"id" : 7, "text" : "검은색으로", "type" : "", "begin" : 15, "end" : 16},
		{"id" : 8, "text" : "변한다.", "type" : "", "begin" : 17, "end" : 19}
	],
	"NE" : [
	],
	"chunk" : [
	],
	"dependency" : [
		{"id" : 0, "text" : "공기", "head" : 1, "label" : "NP", "mod" : [], "weight" : 0.944294 },
		{"id" : 1, "text" : "중에서는", "head" : 2, "label" : "NP_AJT", "mod" : [0], "weight" : 0.582451 },
		{"id" : 2, "text" : "산화하지", "head" : 3, "label" : "VP", "mod" : [1], "weight" : 0.793118 },
		{"id" : 3, "text" : "않으나", "head" : 8, "label" : "VP", "mod" : [2], "weight" : 0.953498 },
		{"id" : 4, "text" : "유황", "head" : 5, "label" : "NP", "mod" : [], "weight" : 0.866237 },
		{"id" : 5, "text" : "화합물에", "head" : 6, "label" : "NP_AJT", "mod" : [4], "weight" : 0.774726 },
		{"id" : 6, "text" : "닿으면", "head" : 8, "label" : "VP", "mod" : [5], "weight" : 0.58634 },
		{"id" : 7, "text" : "검은색으로", "head" : 8, "label" : "NP_AJT", "mod" : [], "weight" : 0.562074 },
		{"id" : 8, "text" : "변한다.", "head" : -1, "label" : "VP", "mod" : [3, 6, 7], "weight" : 0.686267 }
	],
	"phrase_dependency" : [
	],
	"SRL" : [
	],
	"relation" : [
	],
	"SA" : [
	],
	"ZA" : [
	]
	},
	{
	"id" : 3,
	"reserve_str" : "",
	"text" : " 멕시코ㆍ미국ㆍ캐나다ㆍ페루 등지에서 나며, 화학용 기구나 화폐ㆍ장식품 따위로 쓴다.",
	"morp" : [
	],
	"morp_eval" : [
	],
	"WSD" : [
	],
	"word" : [
		{"id" : 0, "text" : "멕시코ㆍ미국ㆍ캐나다ㆍ페루", "type" : "", "begin" : 0, "end" : 6},
		{"id" : 1, "text" : "등지에서", "type" : "", "begin" : 7, "end" : 8},
		{"id" : 2, "text" : "나며,", "type" : "", "begin" : 9, "end" : 11},
		{"id" : 3, "text" : "화학용", "type" : "", "begin" : 12, "end" : 13},
		{"id" : 4, "text" : "기구나", "type" : "", "begin" : 14, "end" : 15},
		{"id" : 5, "text" : "화폐ㆍ장식품", "type" : "", "begin" : 16, "end" : 18},
		{"id" : 6, "text" : "따위로", "type" : "", "begin" : 19, "end" : 20},
		{"id" : 7, "text" : "쓴다.", "type" : "", "begin" : 21, "end" : 23}
	],
	"NE" : [
	],
	"chunk" : [
	],
	"dependency" : [
		{"id" : 0, "text" : "멕시코ㆍ미국ㆍ캐나다ㆍ페루", "head" : 1, "label" : "NP", "mod" : [], "weight" : 0.815626 },
		{"id" : 1, "text" : "등지에서", "head" : 2, "label" : "NP_AJT", "mod" : [0], "weight" : 0.729903 },
		{"id" : 2, "text" : "나며,", "head" : 7, "label" : "VP", "mod" : [1], "weight" : 0.704927 },
		{"id" : 3, "text" : "화학용", "head" : 4, "label" : "NP", "mod" : [], "weight" : 0.694204 },
		{"id" : 4, "text" : "기구나", "head" : 5, "label" : "NP_CNJ", "mod" : [3], "weight" : 0.706859 },
		{"id" : 5, "text" : "화폐ㆍ장식품", "head" : 6, "label" : "NP", "mod" : [4], "weight" : 0.97858 },
		{"id" : 6, "text" : "따위로", "head" : 7, "label" : "NP_AJT", "mod" : [5], "weight" : 0.511691 },
		{"id" : 7, "text" : "쓴다.", "head" : -1, "label" : "VP", "mod" : [2, 6], "weight" : 0.771405 }
	],
	"phrase_dependency" : [
	],
	"SRL" : [
	],
	"relation" : [
	],
	"SA" : [
	],
	"ZA" : [
	]
	},
	{
	"id" : 4,
	"reserve_str" : "",
	"text" : " 원자 기호는 Ag, 원자 번호는 47, 원자량은 107.868.",
	"morp" : [
	],
	"morp_eval" : [
	],
	"WSD" : [
	],
	"word" : [
		{"id" : 0, "text" : "원자", "type" : "", "begin" : 0, "end" : 0},
		{"id" : 1, "text" : "기호는", "type" : "", "begin" : 1, "end" : 2},
		{"id" : 2, "text" : "Ag,", "type" : "", "begin" : 3, "end" : 4},
		{"id" : 3, "text" : "원자", "type" : "", "begin" : 5, "end" : 5},
		{"id" : 4, "text" : "번호는", "type" : "", "begin" : 6, "end" : 7},
		{"id" : 5, "text" : "47,", "type" : "", "begin" : 8, "end" : 9},
		{"id" : 6, "text" : "원자량은", "type" : "", "begin" : 10, "end" : 12},
		{"id" : 7, "text" : "107.868.", "type" : "", "begin" : 13, "end" : 16}
	],
	"NE" : [
	],
	"chunk" : [
	],
	"dependency" : [
		{"id" : 0, "text" : "원자", "head" : 1, "label" : "NP", "mod" : [], "weight" : 0.911948 },
		{"id" : 1, "text" : "기호는", "head" : 2, "label" : "NP_SBJ", "mod" : [0], "weight" : 0.82887 },
		{"id" : 2, "text" : "Ag,", "head" : 7, "label" : "NP_CNJ", "mod" : [1], "weight" : 0.458972 },
		{"id" : 3, "text" : "원자", "head" : 4, "label" : "NP", "mod" : [], "weight" : 0.95045 },
		{"id" : 4, "text" : "번호는", "head" : 5, "label" : "NP_SBJ", "mod" : [3], "weight" : 0.704931 },
		{"id" : 5, "text" : "47,", "head" : 7, "label" : "NP_CNJ", "mod" : [4], "weight" : 0.51678 },
		{"id" : 6, "text" : "원자량은", "head" : 7, "label" : "NP_SBJ", "mod" : [], "weight" : 0.69286 },
		{"id" : 7, "text" : "107.868.", "head" : -1, "label" : "NP", "mod" : [2, 5, 6], "weight" : 0.400505 }
	],
	"phrase_dependency" : [
	],
	"SRL" : [
	],
	"relation" : [
	],
	"SA" : [
	],
	"ZA" : [
	]
	}
 ],
 "entity" : [
 ]
}

