{"doc_id" : "934.011_A.02",
 "DCT" : "",
 "category" : "",
 "category_weight" : 0,
 "title" : {"text" : "붉은산", "NE" : ""},
 "metaInfo" : { },
 "sentence" : [
	{
	"id" : 0,
	"reserve_str" : "",
	"text" : "작품의 서술자인 ‘나’가 의학 연구차 만주를 순회하던 중 가난한 한국 소작인들이 모여 사는 마을에서 ‘삵’이라는 별명을 가진 정익호를 만나게 된다.",
	"morp" : [
	],
	"morp_eval" : [
	],
	"WSD" : [
	],
	"word" : [
		{"id" : 0, "text" : "작품의", "type" : "", "begin" : 0, "end" : 1},
		{"id" : 1, "text" : "서술자인", "type" : "", "begin" : 2, "end" : 5},
		{"id" : 2, "text" : "‘나’가", "type" : "", "begin" : 6, "end" : 9},
		{"id" : 3, "text" : "의학", "type" : "", "begin" : 10, "end" : 10},
		{"id" : 4, "text" : "연구차", "type" : "", "begin" : 11, "end" : 12},
		{"id" : 5, "text" : "만주를", "type" : "", "begin" : 13, "end" : 15},
		{"id" : 6, "text" : "순회하던", "type" : "", "begin" : 16, "end" : 18},
		{"id" : 7, "text" : "중", "type" : "", "begin" : 19, "end" : 19},
		{"id" : 8, "text" : "가난한", "type" : "", "begin" : 20, "end" : 22},
		{"id" : 9, "text" : "한국", "type" : "", "begin" : 23, "end" : 23},
		{"id" : 10, "text" : "소작인들이", "type" : "", "begin" : 24, "end" : 26},
		{"id" : 11, "text" : "모여", "type" : "", "begin" : 27, "end" : 28},
		{"id" : 12, "text" : "사는", "type" : "", "begin" : 29, "end" : 30},
		{"id" : 13, "text" : "마을에서", "type" : "", "begin" : 31, "end" : 32},
		{"id" : 14, "text" : "‘삵’이라는", "type" : "", "begin" : 33, "end" : 37},
		{"id" : 15, "text" : "별명을", "type" : "", "begin" : 38, "end" : 39},
		{"id" : 16, "text" : "가진", "type" : "", "begin" : 40, "end" : 41},
		{"id" : 17, "text" : "정익호를", "type" : "", "begin" : 42, "end" : 43},
		{"id" : 18, "text" : "만나게", "type" : "", "begin" : 44, "end" : 45},
		{"id" : 19, "text" : "된다.", "type" : "", "begin" : 46, "end" : 48}
	],
	"NE" : [
	],
	"chunk" : [
	],
	"dependency" : [
		{"id" : 0, "text" : "작품의", "head" : 1, "label" : "NP_MOD", "mod" : [], "weight" : 0.955282 },
		{"id" : 1, "text" : "서술자인", "head" : 2, "label" : "VNP_MOD", "mod" : [0], "weight" : 0.944698 },
		{"id" : 2, "text" : "‘나’가", "head" : 6, "label" : "NP_SBJ", "mod" : [1], "weight" : 0.635129 },
		{"id" : 3, "text" : "의학", "head" : 4, "label" : "NP", "mod" : [], "weight" : 0.745542 },
		{"id" : 4, "text" : "연구차", "head" : 6, "label" : "NP", "mod" : [3], "weight" : 0.638039 },
		{"id" : 5, "text" : "만주를", "head" : 6, "label" : "NP_OBJ", "mod" : [], "weight" : 0.895228 },
		{"id" : 6, "text" : "순회하던", "head" : 7, "label" : "VP_MOD", "mod" : [2, 4, 5], "weight" : 0.933994 },
		{"id" : 7, "text" : "중", "head" : 18, "label" : "NP_AJT", "mod" : [6], "weight" : 0.593179 },
		{"id" : 8, "text" : "가난한", "head" : 10, "label" : "VP_MOD", "mod" : [], "weight" : 0.797312 },
		{"id" : 9, "text" : "한국", "head" : 10, "label" : "NP", "mod" : [], "weight" : 0.822536 },
		{"id" : 10, "text" : "소작인들이", "head" : 11, "label" : "NP_SBJ", "mod" : [8, 9], "weight" : 0.790507 },
		{"id" : 11, "text" : "모여", "head" : 12, "label" : "VP", "mod" : [10], "weight" : 0.662822 },
		{"id" : 12, "text" : "사는", "head" : 13, "label" : "VP_MOD", "mod" : [11], "weight" : 0.824731 },
		{"id" : 13, "text" : "마을에서", "head" : 18, "label" : "NP_AJT", "mod" : [12], "weight" : 0.853848 },
		{"id" : 14, "text" : "‘삵’이라는", "head" : 15, "label" : "VNP_MOD", "mod" : [], "weight" : 0.838999 },
		{"id" : 15, "text" : "별명을", "head" : 16, "label" : "NP_OBJ", "mod" : [14], "weight" : 0.809922 },
		{"id" : 16, "text" : "가진", "head" : 17, "label" : "VP_MOD", "mod" : [15], "weight" : 0.861238 },
		{"id" : 17, "text" : "정익호를", "head" : 18, "label" : "NP_OBJ", "mod" : [16], "weight" : 0.703973 },
		{"id" : 18, "text" : "만나게", "head" : 19, "label" : "VP", "mod" : [7, 13, 17], "weight" : 0.498823 },
		{"id" : 19, "text" : "된다.", "head" : -1, "label" : "VP", "mod" : [18], "weight" : 0.552259 }
	],
	"phrase_dependency" : [
	],
	"SRL" : [
	],
	"relation" : [
	],
	"SA" : [
	],
	"ZA" : [
	]
	}
 ],
 "entity" : [
 ]
}

