{"doc_id" : "934.026_Q.01",
 "DCT" : "",
 "category" : "",
 "category_weight" : 0,
 "title" : {"text" : "Q26", "NE" : ""},
 "metaInfo" : { },
 "sentence" : [
	{
	"id" : 0,
	"reserve_str" : "",
	"text" : "이것은 그리스어의 '모두가 보인다'라는 뜻에서 비롯된 말로 회전화 또는 전경화라고도 한다.",
	"morp" : [
	],
	"morp_eval" : [
	],
	"WSD" : [
	],
	"word" : [
		{"id" : 0, "text" : "이것은", "type" : "", "begin" : 0, "end" : 1},
		{"id" : 1, "text" : "그리스어의", "type" : "", "begin" : 2, "end" : 4},
		{"id" : 2, "text" : "'모두가", "type" : "", "begin" : 5, "end" : 7},
		{"id" : 3, "text" : "보인다'라는", "type" : "", "begin" : 8, "end" : 12},
		{"id" : 4, "text" : "뜻에서", "type" : "", "begin" : 13, "end" : 14},
		{"id" : 5, "text" : "비롯된", "type" : "", "begin" : 15, "end" : 16},
		{"id" : 6, "text" : "말로", "type" : "", "begin" : 17, "end" : 18},
		{"id" : 7, "text" : "회전화", "type" : "", "begin" : 19, "end" : 19},
		{"id" : 8, "text" : "또는", "type" : "", "begin" : 20, "end" : 20},
		{"id" : 9, "text" : "전경화라고도", "type" : "", "begin" : 21, "end" : 24},
		{"id" : 10, "text" : "한다.", "type" : "", "begin" : 25, "end" : 27}
	],
	"NE" : [
	],
	"chunk" : [
	],
	"dependency" : [
		{"id" : 0, "text" : "이것은", "head" : 6, "label" : "NP_SBJ", "mod" : [], "weight" : 0.582195 },
		{"id" : 1, "text" : "그리스어의", "head" : 3, "label" : "NP_MOD", "mod" : [], "weight" : 0.610591 },
		{"id" : 2, "text" : "'모두가", "head" : 3, "label" : "NP_SBJ", "mod" : [], "weight" : 0.916511 },
		{"id" : 3, "text" : "보인다'라는", "head" : 4, "label" : "VP_MOD", "mod" : [1, 2], "weight" : 0.759467 },
		{"id" : 4, "text" : "뜻에서", "head" : 5, "label" : "NP_AJT", "mod" : [3], "weight" : 0.706657 },
		{"id" : 5, "text" : "비롯된", "head" : 6, "label" : "VP_MOD", "mod" : [4], "weight" : 0.861997 },
		{"id" : 6, "text" : "말로", "head" : 9, "label" : "NP_AJT", "mod" : [0, 5], "weight" : 0.806408 },
		{"id" : 7, "text" : "회전화", "head" : 9, "label" : "NP_CNJ", "mod" : [], "weight" : 0.542783 },
		{"id" : 8, "text" : "또는", "head" : 9, "label" : "AP", "mod" : [], "weight" : 0.689952 },
		{"id" : 9, "text" : "전경화라고도", "head" : 10, "label" : "VNP_CMP", "mod" : [6, 7, 8], "weight" : 0.446897 },
		{"id" : 10, "text" : "한다.", "head" : -1, "label" : "VP", "mod" : [9], "weight" : 0.14487 }
	],
	"phrase_dependency" : [
	],
	"SRL" : [
	],
	"relation" : [
	],
	"SA" : [
	],
	"ZA" : [
	]
	},
	{
	"id" : 1,
	"reserve_str" : "",
	"text" : "배경을 둥글게 하고 원근법을 이용해 현실감을 자아내게 한 그림을 말하는데 이것은 무엇일까?",
	"morp" : [
	],
	"morp_eval" : [
	],
	"WSD" : [
	],
	"word" : [
		{"id" : 0, "text" : "배경을", "type" : "", "begin" : 0, "end" : 1},
		{"id" : 1, "text" : "둥글게", "type" : "", "begin" : 2, "end" : 3},
		{"id" : 2, "text" : "하고", "type" : "", "begin" : 4, "end" : 5},
		{"id" : 3, "text" : "원근법을", "type" : "", "begin" : 6, "end" : 8},
		{"id" : 4, "text" : "이용해", "type" : "", "begin" : 9, "end" : 11},
		{"id" : 5, "text" : "현실감을", "type" : "", "begin" : 12, "end" : 14},
		{"id" : 6, "text" : "자아내게", "type" : "", "begin" : 15, "end" : 16},
		{"id" : 7, "text" : "한", "type" : "", "begin" : 17, "end" : 17},
		{"id" : 8, "text" : "그림을", "type" : "", "begin" : 18, "end" : 19},
		{"id" : 9, "text" : "말하는데", "type" : "", "begin" : 20, "end" : 22},
		{"id" : 10, "text" : "이것은", "type" : "", "begin" : 23, "end" : 24},
		{"id" : 11, "text" : "무엇일까?", "type" : "", "begin" : 25, "end" : 28}
	],
	"NE" : [
	],
	"chunk" : [
	],
	"dependency" : [
		{"id" : 0, "text" : "배경을", "head" : 2, "label" : "NP_OBJ", "mod" : [], "weight" : 0.782425 },
		{"id" : 1, "text" : "둥글게", "head" : 2, "label" : "VP_AJT", "mod" : [], "weight" : 0.78548 },
		{"id" : 2, "text" : "하고", "head" : 4, "label" : "VP", "mod" : [0, 1], "weight" : 0.796775 },
		{"id" : 3, "text" : "원근법을", "head" : 4, "label" : "NP_OBJ", "mod" : [], "weight" : 0.889038 },
		{"id" : 4, "text" : "이용해", "head" : 6, "label" : "VP", "mod" : [2, 3], "weight" : 0.723306 },
		{"id" : 5, "text" : "현실감을", "head" : 6, "label" : "NP_OBJ", "mod" : [], "weight" : 0.668156 },
		{"id" : 6, "text" : "자아내게", "head" : 7, "label" : "VP", "mod" : [4, 5], "weight" : 0.74993 },
		{"id" : 7, "text" : "한", "head" : 8, "label" : "VP_MOD", "mod" : [6], "weight" : 0.976256 },
		{"id" : 8, "text" : "그림을", "head" : 9, "label" : "NP_OBJ", "mod" : [7], "weight" : 0.671798 },
		{"id" : 9, "text" : "말하는데", "head" : 11, "label" : "VP", "mod" : [8], "weight" : 0.843303 },
		{"id" : 10, "text" : "이것은", "head" : 11, "label" : "NP_SBJ", "mod" : [], "weight" : 0.67312 },
		{"id" : 11, "text" : "무엇일까?", "head" : -1, "label" : "VNP", "mod" : [9, 10], "weight" : 0.377855 }
	],
	"phrase_dependency" : [
	],
	"SRL" : [
	],
	"relation" : [
	],
	"SA" : [
	],
	"ZA" : [
	]
	}
 ],
 "entity" : [
 ]
}

