{"doc_id" : "934.031_A.04",
 "DCT" : "",
 "category" : "",
 "category_weight" : 0,
 "title" : {"text" : "가리발디", "NE" : ""},
 "metaInfo" : { },
 "sentence" : [
	{
	"id" : 0,
	"reserve_str" : "",
	"text" : "그러나 나폴레옹 3세의 변절로 실패하고 1천 명의 의용병 붉은 셔츠대를 인솔하여 시칠리아 섬의 마르살라(Marsala)에 상륙, 한 사람의 손실도 없이 섬을 정복했다.",
	"morp" : [
	],
	"morp_eval" : [
	],
	"WSD" : [
	],
	"word" : [
		{"id" : 0, "text" : "그러나", "type" : "", "begin" : 0, "end" : 0},
		{"id" : 1, "text" : "나폴레옹", "type" : "", "begin" : 1, "end" : 1},
		{"id" : 2, "text" : "3세의", "type" : "", "begin" : 2, "end" : 4},
		{"id" : 3, "text" : "변절로", "type" : "", "begin" : 5, "end" : 6},
		{"id" : 4, "text" : "실패하고", "type" : "", "begin" : 7, "end" : 9},
		{"id" : 5, "text" : "1천", "type" : "", "begin" : 10, "end" : 11},
		{"id" : 6, "text" : "명의", "type" : "", "begin" : 12, "end" : 13},
		{"id" : 7, "text" : "의용병", "type" : "", "begin" : 14, "end" : 15},
		{"id" : 8, "text" : "붉은", "type" : "", "begin" : 16, "end" : 17},
		{"id" : 9, "text" : "셔츠대를", "type" : "", "begin" : 18, "end" : 19},
		{"id" : 10, "text" : "인솔하여", "type" : "", "begin" : 20, "end" : 22},
		{"id" : 11, "text" : "시칠리아", "type" : "", "begin" : 23, "end" : 23},
		{"id" : 12, "text" : "섬의", "type" : "", "begin" : 24, "end" : 25},
		{"id" : 13, "text" : "마르살라(Marsala)에", "type" : "", "begin" : 26, "end" : 30},
		{"id" : 14, "text" : "상륙,", "type" : "", "begin" : 31, "end" : 32},
		{"id" : 15, "text" : "한", "type" : "", "begin" : 33, "end" : 33},
		{"id" : 16, "text" : "사람의", "type" : "", "begin" : 34, "end" : 35},
		{"id" : 17, "text" : "손실도", "type" : "", "begin" : 36, "end" : 37},
		{"id" : 18, "text" : "없이", "type" : "", "begin" : 38, "end" : 38},
		{"id" : 19, "text" : "섬을", "type" : "", "begin" : 39, "end" : 40},
		{"id" : 20, "text" : "정복했다.", "type" : "", "begin" : 41, "end" : 45}
	],
	"NE" : [
	],
	"chunk" : [
	],
	"dependency" : [
		{"id" : 0, "text" : "그러나", "head" : 4, "label" : "AP", "mod" : [], "weight" : 0.762914 },
		{"id" : 1, "text" : "나폴레옹", "head" : 2, "label" : "NP", "mod" : [], "weight" : 0.758951 },
		{"id" : 2, "text" : "3세의", "head" : 3, "label" : "NP_MOD", "mod" : [1], "weight" : 0.865969 },
		{"id" : 3, "text" : "변절로", "head" : 4, "label" : "NP_AJT", "mod" : [2], "weight" : 0.925584 },
		{"id" : 4, "text" : "실패하고", "head" : 10, "label" : "VP", "mod" : [0, 3], "weight" : 0.61708 },
		{"id" : 5, "text" : "1천", "head" : 6, "label" : "NP", "mod" : [], "weight" : 0.971936 },
		{"id" : 6, "text" : "명의", "head" : 7, "label" : "NP_MOD", "mod" : [5], "weight" : 0.512853 },
		{"id" : 7, "text" : "의용병", "head" : 9, "label" : "NP", "mod" : [6], "weight" : 0.514497 },
		{"id" : 8, "text" : "붉은", "head" : 9, "label" : "VP_MOD", "mod" : [], "weight" : 0.808985 },
		{"id" : 9, "text" : "셔츠대를", "head" : 10, "label" : "NP_OBJ", "mod" : [7, 8], "weight" : 0.820886 },
		{"id" : 10, "text" : "인솔하여", "head" : 14, "label" : "VP", "mod" : [4, 9], "weight" : 0.55315 },
		{"id" : 11, "text" : "시칠리아", "head" : 12, "label" : "NP", "mod" : [], "weight" : 0.80547 },
		{"id" : 12, "text" : "섬의", "head" : 13, "label" : "NP_MOD", "mod" : [11], "weight" : 0.99644 },
		{"id" : 13, "text" : "마르살라(Marsala)에", "head" : 14, "label" : "NP_AJT", "mod" : [12], "weight" : 0.831399 },
		{"id" : 14, "text" : "상륙,", "head" : 20, "label" : "NP", "mod" : [10, 13], "weight" : 0.388559 },
		{"id" : 15, "text" : "한", "head" : 16, "label" : "DP", "mod" : [], "weight" : 0.716644 },
		{"id" : 16, "text" : "사람의", "head" : 17, "label" : "NP_MOD", "mod" : [15], "weight" : 0.752187 },
		{"id" : 17, "text" : "손실도", "head" : 18, "label" : "NP_SBJ", "mod" : [16], "weight" : 0.531184 },
		{"id" : 18, "text" : "없이", "head" : 20, "label" : "AP", "mod" : [17], "weight" : 0.524969 },
		{"id" : 19, "text" : "섬을", "head" : 20, "label" : "NP_OBJ", "mod" : [], "weight" : 0.461438 },
		{"id" : 20, "text" : "정복했다.", "head" : -1, "label" : "VP", "mod" : [14, 18, 19], "weight" : 0.368353 }
	],
	"phrase_dependency" : [
	],
	"SRL" : [
	],
	"relation" : [
	],
	"SA" : [
	],
	"ZA" : [
	]
	},
	{
	"id" : 1,
	"reserve_str" : "",
	"text" : "1860년 다시 진군하여 칼라브리아와 나폴리 지방을 점령하여 이곳을 빅토르 에마누엘레 2세에게 봉헌한 후, 다시 카프레라 섬에 귀환했다.",
	"morp" : [
	],
	"morp_eval" : [
	],
	"WSD" : [
	],
	"word" : [
		{"id" : 0, "text" : "1860년", "type" : "", "begin" : 0, "end" : 1},
		{"id" : 1, "text" : "다시", "type" : "", "begin" : 2, "end" : 2},
		{"id" : 2, "text" : "진군하여", "type" : "", "begin" : 3, "end" : 5},
		{"id" : 3, "text" : "칼라브리아와", "type" : "", "begin" : 6, "end" : 7},
		{"id" : 4, "text" : "나폴리", "type" : "", "begin" : 8, "end" : 8},
		{"id" : 5, "text" : "지방을", "type" : "", "begin" : 9, "end" : 10},
		{"id" : 6, "text" : "점령하여", "type" : "", "begin" : 11, "end" : 13},
		{"id" : 7, "text" : "이곳을", "type" : "", "begin" : 14, "end" : 15},
		{"id" : 8, "text" : "빅토르", "type" : "", "begin" : 16, "end" : 16},
		{"id" : 9, "text" : "에마누엘레", "type" : "", "begin" : 17, "end" : 17},
		{"id" : 10, "text" : "2세에게", "type" : "", "begin" : 18, "end" : 20},
		{"id" : 11, "text" : "봉헌한", "type" : "", "begin" : 21, "end" : 23},
		{"id" : 12, "text" : "후,", "type" : "", "begin" : 24, "end" : 25},
		{"id" : 13, "text" : "다시", "type" : "", "begin" : 26, "end" : 26},
		{"id" : 14, "text" : "카프레라", "type" : "", "begin" : 27, "end" : 27},
		{"id" : 15, "text" : "섬에", "type" : "", "begin" : 28, "end" : 29},
		{"id" : 16, "text" : "귀환했다.", "type" : "", "begin" : 30, "end" : 34}
	],
	"NE" : [
	],
	"chunk" : [
	],
	"dependency" : [
		{"id" : 0, "text" : "1860년", "head" : 2, "label" : "NP_AJT", "mod" : [], "weight" : 0.77021 },
		{"id" : 1, "text" : "다시", "head" : 2, "label" : "AP", "mod" : [], "weight" : 0.946064 },
		{"id" : 2, "text" : "진군하여", "head" : 6, "label" : "VP", "mod" : [0, 1], "weight" : 0.804115 },
		{"id" : 3, "text" : "칼라브리아와", "head" : 4, "label" : "NP_CNJ", "mod" : [], "weight" : 0.787556 },
		{"id" : 4, "text" : "나폴리", "head" : 5, "label" : "NP", "mod" : [3], "weight" : 0.93677 },
		{"id" : 5, "text" : "지방을", "head" : 6, "label" : "NP_OBJ", "mod" : [4], "weight" : 0.96929 },
		{"id" : 6, "text" : "점령하여", "head" : 11, "label" : "VP", "mod" : [2, 5], "weight" : 0.744187 },
		{"id" : 7, "text" : "이곳을", "head" : 11, "label" : "NP_OBJ", "mod" : [], "weight" : 0.875769 },
		{"id" : 8, "text" : "빅토르", "head" : 9, "label" : "NP", "mod" : [], "weight" : 0.704391 },
		{"id" : 9, "text" : "에마누엘레", "head" : 10, "label" : "NP", "mod" : [8], "weight" : 0.874867 },
		{"id" : 10, "text" : "2세에게", "head" : 11, "label" : "NP_AJT", "mod" : [9], "weight" : 0.983022 },
		{"id" : 11, "text" : "봉헌한", "head" : 12, "label" : "VP_MOD", "mod" : [6, 7, 10], "weight" : 0.759991 },
		{"id" : 12, "text" : "후,", "head" : 16, "label" : "NP_AJT", "mod" : [11], "weight" : 0.604456 },
		{"id" : 13, "text" : "다시", "head" : 16, "label" : "AP", "mod" : [], "weight" : 0.530289 },
		{"id" : 14, "text" : "카프레라", "head" : 15, "label" : "NP", "mod" : [], "weight" : 0.974289 },
		{"id" : 15, "text" : "섬에", "head" : 16, "label" : "NP_AJT", "mod" : [14], "weight" : 0.529685 },
		{"id" : 16, "text" : "귀환했다.", "head" : -1, "label" : "VP", "mod" : [12, 13, 15], "weight" : 0.139707 }
	],
	"phrase_dependency" : [
	],
	"SRL" : [
	],
	"relation" : [
	],
	"SA" : [
	],
	"ZA" : [
	]
	}
 ],
 "entity" : [
 ]
}

