{"doc_id" : "",
 "DCT" : "",
 "category" : "",
 "category_weight" : 0,
 "title" : {"text" : "Q1", "NE" : ""},
 "metaInfo" : { },
 "sentence" : [
	{
	"id" : 0,
	"reserve_str" : "",
	"text" : "흔히 언행이 거칠고 버릇이 없는 사람을 가리켜 '개차반' 같다고 한다.",
	"morp" : [
	],
	"morp_eval" : [
	],
	"WSD" : [
	],
	"word" : [
		{"id" : 0, "text" : "흔히", "type" : "", "begin" : 0, "end" : 0},
		{"id" : 1, "text" : "언행이", "type" : "", "begin" : 1, "end" : 2},
		{"id" : 2, "text" : "거칠고", "type" : "", "begin" : 3, "end" : 4},
		{"id" : 3, "text" : "버릇이", "type" : "", "begin" : 5, "end" : 6},
		{"id" : 4, "text" : "없는", "type" : "", "begin" : 7, "end" : 8},
		{"id" : 5, "text" : "사람을", "type" : "", "begin" : 9, "end" : 10},
		{"id" : 6, "text" : "가리켜", "type" : "", "begin" : 11, "end" : 12},
		{"id" : 7, "text" : "'개차반'", "type" : "", "begin" : 13, "end" : 16},
		{"id" : 8, "text" : "같다고", "type" : "", "begin" : 17, "end" : 18},
		{"id" : 9, "text" : "한다.", "type" : "", "begin" : 19, "end" : 21}
	],
	"NE" : [
	],
	"chunk" : [
	],
	"dependency" : [
		{"id" : 0, "text" : "흔히", "head" : 8, "label" : "AP", "mod" : [], "weight" : 0.532051 },
		{"id" : 1, "text" : "언행이", "head" : 2, "label" : "NP_SBJ", "mod" : [], "weight" : 0.638096 },
		{"id" : 2, "text" : "거칠고", "head" : 4, "label" : "VP", "mod" : [1], "weight" : 0.549106 },
		{"id" : 3, "text" : "버릇이", "head" : 4, "label" : "NP_SBJ", "mod" : [], "weight" : 0.946263 },
		{"id" : 4, "text" : "없는", "head" : 5, "label" : "VP_MOD", "mod" : [2, 3], "weight" : 0.860311 },
		{"id" : 5, "text" : "사람을", "head" : 6, "label" : "NP_OBJ", "mod" : [4], "weight" : 0.86516 },
		{"id" : 6, "text" : "가리켜", "head" : 8, "label" : "VP", "mod" : [5], "weight" : 0.594731 },
		{"id" : 7, "text" : "'개차반'", "head" : 8, "label" : "NP_AJT", "mod" : [], "weight" : 0.656255 },
		{"id" : 8, "text" : "같다고", "head" : 9, "label" : "VP_CMP", "mod" : [0, 6, 7], "weight" : 0.423565 },
		{"id" : 9, "text" : "한다.", "head" : -1, "label" : "VP", "mod" : [8], "weight" : 0.172268 }
	],
	"phrase_dependency" : [
	],
	"SRL" : [
	],
	"relation" : [
	],
	"SA" : [
	],
	"ZA" : [
	]
	},
	{
	"id" : 1,
	"reserve_str" : "",
	"text" : " 여기서 '차반'은 무엇일까?",
	"morp" : [
	],
	"morp_eval" : [
	],
	"WSD" : [
	],
	"word" : [
		{"id" : 0, "text" : "여기서", "type" : "", "begin" : 0, "end" : 1},
		{"id" : 1, "text" : "'차반'은", "type" : "", "begin" : 2, "end" : 5},
		{"id" : 2, "text" : "무엇일까?", "type" : "", "begin" : 6, "end" : 9}
	],
	"NE" : [
	],
	"chunk" : [
	],
	"dependency" : [
		{"id" : 0, "text" : "여기서", "head" : 2, "label" : "NP_AJT", "mod" : [], "weight" : 0.774273 },
		{"id" : 1, "text" : "'차반'은", "head" : 2, "label" : "NP_SBJ", "mod" : [], "weight" : 0.589945 },
		{"id" : 2, "text" : "무엇일까?", "head" : -1, "label" : "VNP", "mod" : [0, 1], "weight" : 0.312193 }
	],
	"phrase_dependency" : [
	],
	"SRL" : [
	],
	"relation" : [
	],
	"SA" : [
	],
	"ZA" : [
	]
	}
 ],
 "entity" : [
 ]
}

