{"doc_id" : "934.031_A.05",
 "DCT" : "",
 "category" : "",
 "category_weight" : 0,
 "title" : {"text" : "가리발디", "NE" : ""},
 "metaInfo" : { },
 "sentence" : [
	{
	"id" : 0,
	"reserve_str" : "",
	"text" : "이탈리아의 리소르지멘토(국가 통일 운동과 독립 운동)에 헌신한 장군이자 정치가.",
	"morp" : [
	],
	"morp_eval" : [
	],
	"WSD" : [
	],
	"word" : [
		{"id" : 0, "text" : "이탈리아의", "type" : "", "begin" : 0, "end" : 1},
		{"id" : 1, "text" : "리소르지멘토(국가", "type" : "", "begin" : 2, "end" : 4},
		{"id" : 2, "text" : "통일", "type" : "", "begin" : 5, "end" : 5},
		{"id" : 3, "text" : "운동과", "type" : "", "begin" : 6, "end" : 7},
		{"id" : 4, "text" : "독립", "type" : "", "begin" : 8, "end" : 8},
		{"id" : 5, "text" : "운동)에", "type" : "", "begin" : 9, "end" : 11},
		{"id" : 6, "text" : "헌신한", "type" : "", "begin" : 12, "end" : 14},
		{"id" : 7, "text" : "장군이자", "type" : "", "begin" : 15, "end" : 17},
		{"id" : 8, "text" : "정치가.", "type" : "", "begin" : 18, "end" : 19}
	],
	"NE" : [
	],
	"chunk" : [
	],
	"dependency" : [
		{"id" : 0, "text" : "이탈리아의", "head" : 1, "label" : "NP_MOD", "mod" : [], "weight" : 0.869459 },
		{"id" : 1, "text" : "리소르지멘토(국가", "head" : 2, "label" : "NP", "mod" : [0], "weight" : 0.636655 },
		{"id" : 2, "text" : "통일", "head" : 3, "label" : "NP", "mod" : [1], "weight" : 0.816084 },
		{"id" : 3, "text" : "운동과", "head" : 5, "label" : "NP_CNJ", "mod" : [2], "weight" : 0.960724 },
		{"id" : 4, "text" : "독립", "head" : 5, "label" : "NP", "mod" : [], "weight" : 0.718123 },
		{"id" : 5, "text" : "운동)에", "head" : 6, "label" : "NP_AJT", "mod" : [3, 4], "weight" : 0.611629 },
		{"id" : 6, "text" : "헌신한", "head" : 7, "label" : "VP_MOD", "mod" : [5], "weight" : 0.70342 },
		{"id" : 7, "text" : "장군이자", "head" : 8, "label" : "VNP", "mod" : [6], "weight" : 0.588461 },
		{"id" : 8, "text" : "정치가.", "head" : -1, "label" : "NP", "mod" : [7], "weight" : 0.331234 }
	],
	"phrase_dependency" : [
	],
	"SRL" : [
	],
	"relation" : [
	],
	"SA" : [
	],
	"ZA" : [
	]
	},
	{
	"id" : 1,
	"reserve_str" : "",
	"text" : "원래 이탈리아 민족주의자 마치니의 영향을 받은 공화주의자였으나 로마의 혁명 공화 정부가 붕괴하자 차선책으로 사르데냐 왕국 중심의 통일 운동으로 전환하였다.",
	"morp" : [
	],
	"morp_eval" : [
	],
	"WSD" : [
	],
	"word" : [
		{"id" : 0, "text" : "원래", "type" : "", "begin" : 0, "end" : 0},
		{"id" : 1, "text" : "이탈리아", "type" : "", "begin" : 1, "end" : 1},
		{"id" : 2, "text" : "민족주의자", "type" : "", "begin" : 2, "end" : 4},
		{"id" : 3, "text" : "마치니의", "type" : "", "begin" : 5, "end" : 6},
		{"id" : 4, "text" : "영향을", "type" : "", "begin" : 7, "end" : 8},
		{"id" : 5, "text" : "받은", "type" : "", "begin" : 9, "end" : 10},
		{"id" : 6, "text" : "공화주의자였으나", "type" : "", "begin" : 11, "end" : 16},
		{"id" : 7, "text" : "로마의", "type" : "", "begin" : 17, "end" : 18},
		{"id" : 8, "text" : "혁명", "type" : "", "begin" : 19, "end" : 19},
		{"id" : 9, "text" : "공화", "type" : "", "begin" : 20, "end" : 20},
		{"id" : 10, "text" : "정부가", "type" : "", "begin" : 21, "end" : 22},
		{"id" : 11, "text" : "붕괴하자", "type" : "", "begin" : 23, "end" : 25},
		{"id" : 12, "text" : "차선책으로", "type" : "", "begin" : 26, "end" : 28},
		{"id" : 13, "text" : "사르데냐", "type" : "", "begin" : 29, "end" : 29},
		{"id" : 14, "text" : "왕국", "type" : "", "begin" : 30, "end" : 30},
		{"id" : 15, "text" : "중심의", "type" : "", "begin" : 31, "end" : 32},
		{"id" : 16, "text" : "통일", "type" : "", "begin" : 33, "end" : 33},
		{"id" : 17, "text" : "운동으로", "type" : "", "begin" : 34, "end" : 35},
		{"id" : 18, "text" : "전환하였다.", "type" : "", "begin" : 36, "end" : 40}
	],
	"NE" : [
	],
	"chunk" : [
	],
	"dependency" : [
		{"id" : 0, "text" : "원래", "head" : 6, "label" : "NP_AJT", "mod" : [], "weight" : 0.74517 },
		{"id" : 1, "text" : "이탈리아", "head" : 2, "label" : "NP", "mod" : [], "weight" : 0.556807 },
		{"id" : 2, "text" : "민족주의자", "head" : 3, "label" : "NP", "mod" : [1], "weight" : 0.668321 },
		{"id" : 3, "text" : "마치니의", "head" : 4, "label" : "NP_MOD", "mod" : [2], "weight" : 0.860239 },
		{"id" : 4, "text" : "영향을", "head" : 5, "label" : "NP_OBJ", "mod" : [3], "weight" : 0.627555 },
		{"id" : 5, "text" : "받은", "head" : 6, "label" : "VP_MOD", "mod" : [4], "weight" : 0.747182 },
		{"id" : 6, "text" : "공화주의자였으나", "head" : 18, "label" : "VNP", "mod" : [0, 5], "weight" : 0.897878 },
		{"id" : 7, "text" : "로마의", "head" : 10, "label" : "NP_MOD", "mod" : [], "weight" : 0.933505 },
		{"id" : 8, "text" : "혁명", "head" : 9, "label" : "NP", "mod" : [], "weight" : 0.6984 },
		{"id" : 9, "text" : "공화", "head" : 10, "label" : "NP", "mod" : [8], "weight" : 0.723297 },
		{"id" : 10, "text" : "정부가", "head" : 11, "label" : "NP_SBJ", "mod" : [7, 9], "weight" : 0.717085 },
		{"id" : 11, "text" : "붕괴하자", "head" : 18, "label" : "VP", "mod" : [10], "weight" : 0.61649 },
		{"id" : 12, "text" : "차선책으로", "head" : 18, "label" : "NP_AJT", "mod" : [], "weight" : 0.622856 },
		{"id" : 13, "text" : "사르데냐", "head" : 14, "label" : "NP", "mod" : [], "weight" : 0.708215 },
		{"id" : 14, "text" : "왕국", "head" : 15, "label" : "NP", "mod" : [13], "weight" : 0.9078 },
		{"id" : 15, "text" : "중심의", "head" : 17, "label" : "NP_MOD", "mod" : [14], "weight" : 0.81645 },
		{"id" : 16, "text" : "통일", "head" : 17, "label" : "NP", "mod" : [], "weight" : 0.865431 },
		{"id" : 17, "text" : "운동으로", "head" : 18, "label" : "NP_AJT", "mod" : [15, 16], "weight" : 0.566391 },
		{"id" : 18, "text" : "전환하였다.", "head" : -1, "label" : "VP", "mod" : [6, 11, 12, 17], "weight" : 0.235575 }
	],
	"phrase_dependency" : [
	],
	"SRL" : [
	],
	"relation" : [
	],
	"SA" : [
	],
	"ZA" : [
	]
	},
	{
	"id" : 2,
	"reserve_str" : "",
	"text" : "‘붉은 셔츠대’를 조직해 시칠리아와 나폴리를 정복하고 남이탈리아를 사르데냐 왕국에 바침으로써 이탈리아의 통일에 결정적인 기여를 하였다.",
	"morp" : [
	],
	"morp_eval" : [
	],
	"WSD" : [
	],
	"word" : [
		{"id" : 0, "text" : "‘붉은", "type" : "", "begin" : 0, "end" : 2},
		{"id" : 1, "text" : "셔츠대’를", "type" : "", "begin" : 3, "end" : 6},
		{"id" : 2, "text" : "조직해", "type" : "", "begin" : 7, "end" : 9},
		{"id" : 3, "text" : "시칠리아와", "type" : "", "begin" : 10, "end" : 11},
		{"id" : 4, "text" : "나폴리를", "type" : "", "begin" : 12, "end" : 13},
		{"id" : 5, "text" : "정복하고", "type" : "", "begin" : 14, "end" : 16},
		{"id" : 6, "text" : "남이탈리아를", "type" : "", "begin" : 17, "end" : 19},
		{"id" : 7, "text" : "사르데냐", "type" : "", "begin" : 20, "end" : 20},
		{"id" : 8, "text" : "왕국에", "type" : "", "begin" : 21, "end" : 22},
		{"id" : 9, "text" : "바침으로써", "type" : "", "begin" : 23, "end" : 24},
		{"id" : 10, "text" : "이탈리아의", "type" : "", "begin" : 25, "end" : 26},
		{"id" : 11, "text" : "통일에", "type" : "", "begin" : 27, "end" : 28},
		{"id" : 12, "text" : "결정적인", "type" : "", "begin" : 29, "end" : 32},
		{"id" : 13, "text" : "기여를", "type" : "", "begin" : 33, "end" : 34},
		{"id" : 14, "text" : "하였다.", "type" : "", "begin" : 35, "end" : 38}
	],
	"NE" : [
	],
	"chunk" : [
	],
	"dependency" : [
		{"id" : 0, "text" : "‘붉은", "head" : 1, "label" : "VP_MOD", "mod" : [], "weight" : 0.965084 },
		{"id" : 1, "text" : "셔츠대’를", "head" : 2, "label" : "NP_OBJ", "mod" : [0], "weight" : 0.725685 },
		{"id" : 2, "text" : "조직해", "head" : 5, "label" : "VP", "mod" : [1], "weight" : 0.93336 },
		{"id" : 3, "text" : "시칠리아와", "head" : 4, "label" : "NP_CNJ", "mod" : [], "weight" : 0.730227 },
		{"id" : 4, "text" : "나폴리를", "head" : 5, "label" : "NP_OBJ", "mod" : [3], "weight" : 0.683284 },
		{"id" : 5, "text" : "정복하고", "head" : 14, "label" : "VP", "mod" : [2, 4], "weight" : 0.635656 },
		{"id" : 6, "text" : "남이탈리아를", "head" : 9, "label" : "NP_OBJ", "mod" : [], "weight" : 0.585634 },
		{"id" : 7, "text" : "사르데냐", "head" : 8, "label" : "NP", "mod" : [], "weight" : 0.742242 },
		{"id" : 8, "text" : "왕국에", "head" : 9, "label" : "NP_AJT", "mod" : [7], "weight" : 0.575574 },
		{"id" : 9, "text" : "바침으로써", "head" : 14, "label" : "NP_AJT", "mod" : [6, 8], "weight" : 0.525861 },
		{"id" : 10, "text" : "이탈리아의", "head" : 11, "label" : "NP_MOD", "mod" : [], "weight" : 0.750029 },
		{"id" : 11, "text" : "통일에", "head" : 14, "label" : "NP_AJT", "mod" : [10], "weight" : 0.561992 },
		{"id" : 12, "text" : "결정적인", "head" : 13, "label" : "VNP_MOD", "mod" : [], "weight" : 0.784413 },
		{"id" : 13, "text" : "기여를", "head" : 14, "label" : "NP_OBJ", "mod" : [12], "weight" : 0.527194 },
		{"id" : 14, "text" : "하였다.", "head" : -1, "label" : "VP", "mod" : [5, 9, 11, 13], "weight" : 0.386844 }
	],
	"phrase_dependency" : [
	],
	"SRL" : [
	],
	"relation" : [
	],
	"SA" : [
	],
	"ZA" : [
	]
	}
 ],
 "entity" : [
 ]
}

