{"doc_id" : "935.016_A.04",
 "DCT" : "",
 "category" : "",
 "category_weight" : 0,
 "title" : {"text" : "저생전", "NE" : ""},
 "metaInfo" : { },
 "sentence" : [
	{
	"id" : 0,
	"reserve_str" : "",
	"text" : "종이를 의인화(擬人化)하여 작자의 자서전식으로 써 나갔는데, 근시(近侍)와 정객(政客)들의 직간(直諫)을 주제로 하여 위정자들에게 올바른 정치를 권유하는 교훈이 담긴 작품이다.",
	"morp" : [
	],
	"morp_eval" : [
	],
	"WSD" : [
	],
	"word" : [
		{"id" : 0, "text" : "종이를", "type" : "", "begin" : 0, "end" : 1},
		{"id" : 1, "text" : "의인화(擬人化)하여", "type" : "", "begin" : 2, "end" : 8},
		{"id" : 2, "text" : "작자의", "type" : "", "begin" : 9, "end" : 10},
		{"id" : 3, "text" : "자서전식으로", "type" : "", "begin" : 11, "end" : 13},
		{"id" : 4, "text" : "써", "type" : "", "begin" : 14, "end" : 15},
		{"id" : 5, "text" : "나갔는데,", "type" : "", "begin" : 16, "end" : 19},
		{"id" : 6, "text" : "근시(近侍)와", "type" : "", "begin" : 20, "end" : 24},
		{"id" : 7, "text" : "정객(政客)들의", "type" : "", "begin" : 25, "end" : 30},
		{"id" : 8, "text" : "직간(直諫)을", "type" : "", "begin" : 31, "end" : 35},
		{"id" : 9, "text" : "주제로", "type" : "", "begin" : 36, "end" : 37},
		{"id" : 10, "text" : "하여", "type" : "", "begin" : 38, "end" : 39},
		{"id" : 11, "text" : "위정자들에게", "type" : "", "begin" : 40, "end" : 43},
		{"id" : 12, "text" : "올바른", "type" : "", "begin" : 44, "end" : 45},
		{"id" : 13, "text" : "정치를", "type" : "", "begin" : 46, "end" : 47},
		{"id" : 14, "text" : "권유하는", "type" : "", "begin" : 48, "end" : 50},
		{"id" : 15, "text" : "교훈이", "type" : "", "begin" : 51, "end" : 52},
		{"id" : 16, "text" : "담긴", "type" : "", "begin" : 53, "end" : 54},
		{"id" : 17, "text" : "작품이다.", "type" : "", "begin" : 55, "end" : 58}
	],
	"NE" : [
	],
	"chunk" : [
	],
	"dependency" : [
		{"id" : 0, "text" : "종이를", "head" : 1, "label" : "NP_OBJ", "mod" : [], "weight" : 0.830623 },
		{"id" : 1, "text" : "의인화(擬人化)하여", "head" : 4, "label" : "VP", "mod" : [0], "weight" : 0.975566 },
		{"id" : 2, "text" : "작자의", "head" : 3, "label" : "NP_MOD", "mod" : [], "weight" : 0.816311 },
		{"id" : 3, "text" : "자서전식으로", "head" : 4, "label" : "NP_AJT", "mod" : [2], "weight" : 0.90324 },
		{"id" : 4, "text" : "써", "head" : 5, "label" : "VP", "mod" : [1, 3], "weight" : 0.669215 },
		{"id" : 5, "text" : "나갔는데,", "head" : 10, "label" : "VP", "mod" : [4], "weight" : 0.523367 },
		{"id" : 6, "text" : "근시(近侍)와", "head" : 7, "label" : "NP_CNJ", "mod" : [], "weight" : 0.61862 },
		{"id" : 7, "text" : "정객(政客)들의", "head" : 8, "label" : "NP_MOD", "mod" : [6], "weight" : 0.853544 },
		{"id" : 8, "text" : "직간(直諫)을", "head" : 10, "label" : "NP_OBJ", "mod" : [7], "weight" : 0.987142 },
		{"id" : 9, "text" : "주제로", "head" : 10, "label" : "NP_AJT", "mod" : [], "weight" : 0.983281 },
		{"id" : 10, "text" : "하여", "head" : 14, "label" : "VP", "mod" : [5, 8, 9], "weight" : 0.60901 },
		{"id" : 11, "text" : "위정자들에게", "head" : 14, "label" : "NP_AJT", "mod" : [], "weight" : 0.580219 },
		{"id" : 12, "text" : "올바른", "head" : 13, "label" : "VP_MOD", "mod" : [], "weight" : 0.766875 },
		{"id" : 13, "text" : "정치를", "head" : 14, "label" : "NP_OBJ", "mod" : [12], "weight" : 0.916059 },
		{"id" : 14, "text" : "권유하는", "head" : 15, "label" : "VP_MOD", "mod" : [10, 11, 13], "weight" : 0.692097 },
		{"id" : 15, "text" : "교훈이", "head" : 16, "label" : "NP_SBJ", "mod" : [14], "weight" : 0.541614 },
		{"id" : 16, "text" : "담긴", "head" : 17, "label" : "VP_MOD", "mod" : [15], "weight" : 0.509716 },
		{"id" : 17, "text" : "작품이다.", "head" : -1, "label" : "VNP", "mod" : [16], "weight" : 0.366809 }
	],
	"phrase_dependency" : [
	],
	"SRL" : [
	],
	"relation" : [
	],
	"SA" : [
	],
	"ZA" : [
	]
	}
 ],
 "entity" : [
 ]
}

