{"doc_id" : "935.004_A.05",
 "DCT" : "",
 "category" : "",
 "category_weight" : 0,
 "title" : {"text" : "두리안", "NE" : ""},
 "metaInfo" : { },
 "sentence" : [
	{
	"id" : 0,
	"reserve_str" : "",
	"text" : "두리안은 종종 고기 썩는 냄새에 비견되는, 고약하고도 당황스러운 악취로 잘 알려져 있는데, 이 때문에 산지에서는 호텔이나 공공 교통 수단 내에서 두리안을 먹는 것이 금지되어 있다.",
	"morp" : [
	],
	"morp_eval" : [
	],
	"WSD" : [
	],
	"word" : [
		{"id" : 0, "text" : "두리안은", "type" : "", "begin" : 0, "end" : 1},
		{"id" : 1, "text" : "종종", "type" : "", "begin" : 2, "end" : 2},
		{"id" : 2, "text" : "고기", "type" : "", "begin" : 3, "end" : 3},
		{"id" : 3, "text" : "썩는", "type" : "", "begin" : 4, "end" : 5},
		{"id" : 4, "text" : "냄새에", "type" : "", "begin" : 6, "end" : 7},
		{"id" : 5, "text" : "비견되는,", "type" : "", "begin" : 8, "end" : 11},
		{"id" : 6, "text" : "고약하고도", "type" : "", "begin" : 12, "end" : 15},
		{"id" : 7, "text" : "당황스러운", "type" : "", "begin" : 16, "end" : 18},
		{"id" : 8, "text" : "악취로", "type" : "", "begin" : 19, "end" : 20},
		{"id" : 9, "text" : "잘", "type" : "", "begin" : 21, "end" : 21},
		{"id" : 10, "text" : "알려져", "type" : "", "begin" : 22, "end" : 25},
		{"id" : 11, "text" : "있는데,", "type" : "", "begin" : 26, "end" : 28},
		{"id" : 12, "text" : "이", "type" : "", "begin" : 29, "end" : 29},
		{"id" : 13, "text" : "때문에", "type" : "", "begin" : 30, "end" : 31},
		{"id" : 14, "text" : "산지에서는", "type" : "", "begin" : 32, "end" : 34},
		{"id" : 15, "text" : "호텔이나", "type" : "", "begin" : 35, "end" : 36},
		{"id" : 16, "text" : "공공", "type" : "", "begin" : 37, "end" : 37},
		{"id" : 17, "text" : "교통", "type" : "", "begin" : 38, "end" : 38},
		{"id" : 18, "text" : "수단", "type" : "", "begin" : 39, "end" : 39},
		{"id" : 19, "text" : "내에서", "type" : "", "begin" : 40, "end" : 41},
		{"id" : 20, "text" : "두리안을", "type" : "", "begin" : 42, "end" : 43},
		{"id" : 21, "text" : "먹는", "type" : "", "begin" : 44, "end" : 45},
		{"id" : 22, "text" : "것이", "type" : "", "begin" : 46, "end" : 47},
		{"id" : 23, "text" : "금지되어", "type" : "", "begin" : 48, "end" : 50},
		{"id" : 24, "text" : "있다.", "type" : "", "begin" : 51, "end" : 53}
	],
	"NE" : [
	],
	"chunk" : [
	],
	"dependency" : [
		{"id" : 0, "text" : "두리안은", "head" : 10, "label" : "NP_SBJ", "mod" : [], "weight" : 0.889387 },
		{"id" : 1, "text" : "종종", "head" : 10, "label" : "AP", "mod" : [], "weight" : 0.975218 },
		{"id" : 2, "text" : "고기", "head" : 3, "label" : "NP_OBJ", "mod" : [], "weight" : 0.805349 },
		{"id" : 3, "text" : "썩는", "head" : 4, "label" : "VP_MOD", "mod" : [2], "weight" : 0.936784 },
		{"id" : 4, "text" : "냄새에", "head" : 5, "label" : "NP_AJT", "mod" : [3], "weight" : 0.818586 },
		{"id" : 5, "text" : "비견되는,", "head" : 8, "label" : "VP_MOD", "mod" : [4], "weight" : 0.779278 },
		{"id" : 6, "text" : "고약하고도", "head" : 7, "label" : "VP", "mod" : [], "weight" : 0.557859 },
		{"id" : 7, "text" : "당황스러운", "head" : 8, "label" : "VP_MOD", "mod" : [6], "weight" : 0.97534 },
		{"id" : 8, "text" : "악취로", "head" : 10, "label" : "NP_AJT", "mod" : [5, 7], "weight" : 0.986141 },
		{"id" : 9, "text" : "잘", "head" : 10, "label" : "AP", "mod" : [], "weight" : 0.664352 },
		{"id" : 10, "text" : "알려져", "head" : 11, "label" : "VP", "mod" : [0, 1, 8, 9], "weight" : 0.594869 },
		{"id" : 11, "text" : "있는데,", "head" : 23, "label" : "VP", "mod" : [10], "weight" : 0.949068 },
		{"id" : 12, "text" : "이", "head" : 13, "label" : "DP", "mod" : [], "weight" : 0.924388 },
		{"id" : 13, "text" : "때문에", "head" : 23, "label" : "NP_AJT", "mod" : [12], "weight" : 0.912117 },
		{"id" : 14, "text" : "산지에서는", "head" : 23, "label" : "NP_AJT", "mod" : [], "weight" : 0.814725 },
		{"id" : 15, "text" : "호텔이나", "head" : 18, "label" : "NP_CNJ", "mod" : [], "weight" : 0.70471 },
		{"id" : 16, "text" : "공공", "head" : 18, "label" : "NP", "mod" : [], "weight" : 0.539407 },
		{"id" : 17, "text" : "교통", "head" : 18, "label" : "NP", "mod" : [], "weight" : 0.727357 },
		{"id" : 18, "text" : "수단", "head" : 19, "label" : "NP", "mod" : [15, 16, 17], "weight" : 0.722422 },
		{"id" : 19, "text" : "내에서", "head" : 21, "label" : "NP_AJT", "mod" : [18], "weight" : 0.674269 },
		{"id" : 20, "text" : "두리안을", "head" : 21, "label" : "NP_OBJ", "mod" : [], "weight" : 0.937924 },
		{"id" : 21, "text" : "먹는", "head" : 22, "label" : "VP_MOD", "mod" : [19, 20], "weight" : 0.99299 },
		{"id" : 22, "text" : "것이", "head" : 23, "label" : "NP_SBJ", "mod" : [21], "weight" : 0.700377 },
		{"id" : 23, "text" : "금지되어", "head" : 24, "label" : "VP", "mod" : [11, 13, 14, 22], "weight" : 0.655184 },
		{"id" : 24, "text" : "있다.", "head" : -1, "label" : "VP", "mod" : [23], "weight" : 0.287734 }
	],
	"phrase_dependency" : [
	],
	"SRL" : [
	],
	"relation" : [
	],
	"SA" : [
	],
	"ZA" : [
	]
	}
 ],
 "entity" : [
 ]
}

