{"doc_id" : "935.026_A.03",
 "DCT" : "",
 "category" : "",
 "category_weight" : 0,
 "title" : {"text" : "낭만의 나무, 플라타너스", "NE" : ""},
 "metaInfo" : { },
 "sentence" : [
	{
	"id" : 0,
	"reserve_str" : "",
	"text" : "버즘나무는 한국식 이름이고, 플라타너스는 학명이다.",
	"morp" : [
	],
	"morp_eval" : [
	],
	"WSD" : [
	],
	"word" : [
		{"id" : 0, "text" : "버즘나무는", "type" : "", "begin" : 0, "end" : 2},
		{"id" : 1, "text" : "한국식", "type" : "", "begin" : 3, "end" : 4},
		{"id" : 2, "text" : "이름이고,", "type" : "", "begin" : 5, "end" : 8},
		{"id" : 3, "text" : "플라타너스는", "type" : "", "begin" : 9, "end" : 10},
		{"id" : 4, "text" : "학명이다.", "type" : "", "begin" : 11, "end" : 14}
	],
	"NE" : [
	],
	"chunk" : [
	],
	"dependency" : [
		{"id" : 0, "text" : "버즘나무는", "head" : 2, "label" : "NP_SBJ", "mod" : [], "weight" : 0.856771 },
		{"id" : 1, "text" : "한국식", "head" : 2, "label" : "NP", "mod" : [], "weight" : 0.501138 },
		{"id" : 2, "text" : "이름이고,", "head" : 4, "label" : "VNP", "mod" : [0, 1], "weight" : 0.535248 },
		{"id" : 3, "text" : "플라타너스는", "head" : 4, "label" : "NP_SBJ", "mod" : [], "weight" : 0.422979 },
		{"id" : 4, "text" : "학명이다.", "head" : -1, "label" : "VNP", "mod" : [2, 3], "weight" : 0.649259 }
	],
	"phrase_dependency" : [
	],
	"SRL" : [
	],
	"relation" : [
	],
	"SA" : [
	],
	"ZA" : [
	]
	}
 ],
 "entity" : [
 ]
}

