{"doc_id" : "935.032_A.01",
 "DCT" : "",
 "category" : "",
 "category_weight" : 0,
 "title" : {"text" : "라이벌이 찾아주는 숨겨진 욕망", "NE" : ""},
 "metaInfo" : { },
 "sentence" : [
	{
	"id" : 0,
	"reserve_str" : "",
	"text" : "내 희망의 내용은 질투뿐이었구나",
	"morp" : [
	],
	"morp_eval" : [
	],
	"WSD" : [
	],
	"word" : [
		{"id" : 0, "text" : "내", "type" : "", "begin" : 0, "end" : 1},
		{"id" : 1, "text" : "희망의", "type" : "", "begin" : 2, "end" : 3},
		{"id" : 2, "text" : "내용은", "type" : "", "begin" : 4, "end" : 5},
		{"id" : 3, "text" : "질투뿐이었구나", "type" : "", "begin" : 6, "end" : 10}
	],
	"NE" : [
	],
	"chunk" : [
	],
	"dependency" : [
		{"id" : 0, "text" : "내", "head" : 1, "label" : "NP_MOD", "mod" : [], "weight" : 0.672272 },
		{"id" : 1, "text" : "희망의", "head" : 2, "label" : "NP_MOD", "mod" : [0], "weight" : 0.812326 },
		{"id" : 2, "text" : "내용은", "head" : 3, "label" : "NP_SBJ", "mod" : [1], "weight" : 0.633695 },
		{"id" : 3, "text" : "질투뿐이었구나", "head" : -1, "label" : "VNP", "mod" : [2], "weight" : 0.181398 }
	],
	"phrase_dependency" : [
	],
	"SRL" : [
	],
	"relation" : [
	],
	"SA" : [
	],
	"ZA" : [
	]
	}
 ],
 "entity" : [
 ]
}

