{"doc_id" : "935.014_Q.01",
 "DCT" : "",
 "category" : "",
 "category_weight" : 0,
 "title" : {"text" : "Q14", "NE" : ""},
 "metaInfo" : { },
 "sentence" : [
	{
	"id" : 0,
	"reserve_str" : "",
	"text" : "신라 시기에는 토속적인 토우와 토기들이 많이 만들어졌으며 세련되고 정교한 금제 장신구와 금관 등의 화려한 금속 공예가 발달했다.",
	"morp" : [
	],
	"morp_eval" : [
	],
	"WSD" : [
	],
	"word" : [
		{"id" : 0, "text" : "신라", "type" : "", "begin" : 0, "end" : 0},
		{"id" : 1, "text" : "시기에는", "type" : "", "begin" : 1, "end" : 3},
		{"id" : 2, "text" : "토속적인", "type" : "", "begin" : 4, "end" : 7},
		{"id" : 3, "text" : "토우와", "type" : "", "begin" : 8, "end" : 9},
		{"id" : 4, "text" : "토기들이", "type" : "", "begin" : 10, "end" : 12},
		{"id" : 5, "text" : "많이", "type" : "", "begin" : 13, "end" : 13},
		{"id" : 6, "text" : "만들어졌으며", "type" : "", "begin" : 14, "end" : 18},
		{"id" : 7, "text" : "세련되고", "type" : "", "begin" : 19, "end" : 20},
		{"id" : 8, "text" : "정교한", "type" : "", "begin" : 21, "end" : 23},
		{"id" : 9, "text" : "금제", "type" : "", "begin" : 24, "end" : 24},
		{"id" : 10, "text" : "장신구와", "type" : "", "begin" : 25, "end" : 27},
		{"id" : 11, "text" : "금관", "type" : "", "begin" : 28, "end" : 28},
		{"id" : 12, "text" : "등의", "type" : "", "begin" : 29, "end" : 30},
		{"id" : 13, "text" : "화려한", "type" : "", "begin" : 31, "end" : 33},
		{"id" : 14, "text" : "금속", "type" : "", "begin" : 34, "end" : 34},
		{"id" : 15, "text" : "공예가", "type" : "", "begin" : 35, "end" : 36},
		{"id" : 16, "text" : "발달했다.", "type" : "", "begin" : 37, "end" : 41}
	],
	"NE" : [
	],
	"chunk" : [
	],
	"dependency" : [
		{"id" : 0, "text" : "신라", "head" : 1, "label" : "NP", "mod" : [], "weight" : 0.918852 },
		{"id" : 1, "text" : "시기에는", "head" : 6, "label" : "NP_AJT", "mod" : [0], "weight" : 0.916303 },
		{"id" : 2, "text" : "토속적인", "head" : 4, "label" : "VNP_MOD", "mod" : [], "weight" : 0.92138 },
		{"id" : 3, "text" : "토우와", "head" : 4, "label" : "NP_CNJ", "mod" : [], "weight" : 0.762755 },
		{"id" : 4, "text" : "토기들이", "head" : 6, "label" : "NP_SBJ", "mod" : [2, 3], "weight" : 0.730217 },
		{"id" : 5, "text" : "많이", "head" : 6, "label" : "AP", "mod" : [], "weight" : 0.526657 },
		{"id" : 6, "text" : "만들어졌으며", "head" : 16, "label" : "VP", "mod" : [1, 4, 5], "weight" : 0.644924 },
		{"id" : 7, "text" : "세련되고", "head" : 8, "label" : "VP", "mod" : [], "weight" : 0.582042 },
		{"id" : 8, "text" : "정교한", "head" : 11, "label" : "VP_MOD", "mod" : [7], "weight" : 0.56874 },
		{"id" : 9, "text" : "금제", "head" : 10, "label" : "NP", "mod" : [], "weight" : 0.680053 },
		{"id" : 10, "text" : "장신구와", "head" : 11, "label" : "NP_CNJ", "mod" : [9], "weight" : 0.613065 },
		{"id" : 11, "text" : "금관", "head" : 12, "label" : "NP", "mod" : [8, 10], "weight" : 0.738712 },
		{"id" : 12, "text" : "등의", "head" : 15, "label" : "NP_MOD", "mod" : [11], "weight" : 0.916484 },
		{"id" : 13, "text" : "화려한", "head" : 15, "label" : "VP_MOD", "mod" : [], "weight" : 0.811174 },
		{"id" : 14, "text" : "금속", "head" : 15, "label" : "NP", "mod" : [], "weight" : 0.836688 },
		{"id" : 15, "text" : "공예가", "head" : 16, "label" : "NP_SBJ", "mod" : [12, 13, 14], "weight" : 0.473128 },
		{"id" : 16, "text" : "발달했다.", "head" : -1, "label" : "VP", "mod" : [6, 15], "weight" : 0.326229 }
	],
	"phrase_dependency" : [
	],
	"SRL" : [
	],
	"relation" : [
	],
	"SA" : [
	],
	"ZA" : [
	]
	},
	{
	"id" : 1,
	"reserve_str" : "",
	"text" : "신라의 작품이 아닌 것은 무엇일까?",
	"morp" : [
	],
	"morp_eval" : [
	],
	"WSD" : [
	],
	"word" : [
		{"id" : 0, "text" : "신라의", "type" : "", "begin" : 0, "end" : 1},
		{"id" : 1, "text" : "작품이", "type" : "", "begin" : 2, "end" : 3},
		{"id" : 2, "text" : "아닌", "type" : "", "begin" : 4, "end" : 5},
		{"id" : 3, "text" : "것은", "type" : "", "begin" : 6, "end" : 7},
		{"id" : 4, "text" : "무엇일까?", "type" : "", "begin" : 8, "end" : 11}
	],
	"NE" : [
	],
	"chunk" : [
	],
	"dependency" : [
		{"id" : 0, "text" : "신라의", "head" : 1, "label" : "NP_MOD", "mod" : [], "weight" : 0.705785 },
		{"id" : 1, "text" : "작품이", "head" : 2, "label" : "NP_CMP", "mod" : [0], "weight" : 0.723556 },
		{"id" : 2, "text" : "아닌", "head" : 3, "label" : "VP_MOD", "mod" : [1], "weight" : 0.942773 },
		{"id" : 3, "text" : "것은", "head" : 4, "label" : "NP_SBJ", "mod" : [2], "weight" : 0.670935 },
		{"id" : 4, "text" : "무엇일까?", "head" : -1, "label" : "VNP", "mod" : [3], "weight" : 0.228935 }
	],
	"phrase_dependency" : [
	],
	"SRL" : [
	],
	"relation" : [
	],
	"SA" : [
	],
	"ZA" : [
	]
	}
 ],
 "entity" : [
 ]
}

