{"doc_id" : "935.027_A.01",
 "DCT" : "",
 "category" : "",
 "category_weight" : 0,
 "title" : {"text" : "수선사", "NE" : ""},
 "metaInfo" : { },
 "sentence" : [
	{
	"id" : 0,
	"reserve_str" : "",
	"text" : "고려 후기 보조국사 지눌(知訥)이 만든 혁신불교적 신앙결사단체 및 사찰의 이름.",
	"morp" : [
	],
	"morp_eval" : [
	],
	"WSD" : [
	],
	"word" : [
		{"id" : 0, "text" : "고려", "type" : "", "begin" : 0, "end" : 0},
		{"id" : 1, "text" : "후기", "type" : "", "begin" : 1, "end" : 1},
		{"id" : 2, "text" : "보조국사", "type" : "", "begin" : 2, "end" : 3},
		{"id" : 3, "text" : "지눌(知訥)이", "type" : "", "begin" : 4, "end" : 8},
		{"id" : 4, "text" : "만든", "type" : "", "begin" : 9, "end" : 10},
		{"id" : 5, "text" : "혁신불교적", "type" : "", "begin" : 11, "end" : 13},
		{"id" : 6, "text" : "신앙결사단체", "type" : "", "begin" : 14, "end" : 16},
		{"id" : 7, "text" : "및", "type" : "", "begin" : 17, "end" : 17},
		{"id" : 8, "text" : "사찰의", "type" : "", "begin" : 18, "end" : 19},
		{"id" : 9, "text" : "이름.", "type" : "", "begin" : 20, "end" : 21}
	],
	"NE" : [
	],
	"chunk" : [
	],
	"dependency" : [
		{"id" : 0, "text" : "고려", "head" : 1, "label" : "NP", "mod" : [], "weight" : 0.645251 },
		{"id" : 1, "text" : "후기", "head" : 4, "label" : "NP", "mod" : [0], "weight" : 0.522136 },
		{"id" : 2, "text" : "보조국사", "head" : 3, "label" : "NP", "mod" : [], "weight" : 0.826378 },
		{"id" : 3, "text" : "지눌(知訥)이", "head" : 4, "label" : "NP_SBJ", "mod" : [2], "weight" : 0.89675 },
		{"id" : 4, "text" : "만든", "head" : 8, "label" : "VP_MOD", "mod" : [1, 3], "weight" : 0.61804 },
		{"id" : 5, "text" : "혁신불교적", "head" : 6, "label" : "NP", "mod" : [], "weight" : 0.592288 },
		{"id" : 6, "text" : "신앙결사단체", "head" : 8, "label" : "NP_CNJ", "mod" : [5], "weight" : 0.771441 },
		{"id" : 7, "text" : "및", "head" : 8, "label" : "AP", "mod" : [], "weight" : 0.536817 },
		{"id" : 8, "text" : "사찰의", "head" : 9, "label" : "NP_MOD", "mod" : [4, 6, 7], "weight" : 0.520042 },
		{"id" : 9, "text" : "이름.", "head" : -1, "label" : "NP", "mod" : [8], "weight" : 0.107383 }
	],
	"phrase_dependency" : [
	],
	"SRL" : [
	],
	"relation" : [
	],
	"SA" : [
	],
	"ZA" : [
	]
	}
 ],
 "entity" : [
 ]
}

