{"doc_id" : "935.013_Q.01",
 "DCT" : "",
 "category" : "",
 "category_weight" : 0,
 "title" : {"text" : "Q13", "NE" : ""},
 "metaInfo" : { },
 "sentence" : [
	{
	"id" : 0,
	"reserve_str" : "",
	"text" : "행성은 지구와 공전 속도가 다르므로 순행하거나 역행하는 것으로 관측된다.",
	"morp" : [
	],
	"morp_eval" : [
	],
	"WSD" : [
	],
	"word" : [
		{"id" : 0, "text" : "행성은", "type" : "", "begin" : 0, "end" : 1},
		{"id" : 1, "text" : "지구와", "type" : "", "begin" : 2, "end" : 3},
		{"id" : 2, "text" : "공전", "type" : "", "begin" : 4, "end" : 4},
		{"id" : 3, "text" : "속도가", "type" : "", "begin" : 5, "end" : 6},
		{"id" : 4, "text" : "다르므로", "type" : "", "begin" : 7, "end" : 8},
		{"id" : 5, "text" : "순행하거나", "type" : "", "begin" : 9, "end" : 11},
		{"id" : 6, "text" : "역행하는", "type" : "", "begin" : 12, "end" : 14},
		{"id" : 7, "text" : "것으로", "type" : "", "begin" : 15, "end" : 16},
		{"id" : 8, "text" : "관측된다.", "type" : "", "begin" : 17, "end" : 20}
	],
	"NE" : [
	],
	"chunk" : [
	],
	"dependency" : [
		{"id" : 0, "text" : "행성은", "head" : 4, "label" : "NP_SBJ", "mod" : [], "weight" : 0.841594 },
		{"id" : 1, "text" : "지구와", "head" : 4, "label" : "NP_AJT", "mod" : [], "weight" : 0.649755 },
		{"id" : 2, "text" : "공전", "head" : 3, "label" : "NP", "mod" : [], "weight" : 0.786646 },
		{"id" : 3, "text" : "속도가", "head" : 4, "label" : "NP_SBJ", "mod" : [2], "weight" : 0.828804 },
		{"id" : 4, "text" : "다르므로", "head" : 8, "label" : "VP", "mod" : [0, 1, 3], "weight" : 0.542167 },
		{"id" : 5, "text" : "순행하거나", "head" : 6, "label" : "VP", "mod" : [], "weight" : 0.936393 },
		{"id" : 6, "text" : "역행하는", "head" : 7, "label" : "VP_MOD", "mod" : [5], "weight" : 0.867223 },
		{"id" : 7, "text" : "것으로", "head" : 8, "label" : "NP_AJT", "mod" : [6], "weight" : 0.630063 },
		{"id" : 8, "text" : "관측된다.", "head" : -1, "label" : "VP", "mod" : [4, 7], "weight" : 0.697495 }
	],
	"phrase_dependency" : [
	],
	"SRL" : [
	],
	"relation" : [
	],
	"SA" : [
	],
	"ZA" : [
	]
	},
	{
	"id" : 1,
	"reserve_str" : "",
	"text" : "역행하는 것으로 관측되는 행성은 무엇일까?",
	"morp" : [
	],
	"morp_eval" : [
	],
	"WSD" : [
	],
	"word" : [
		{"id" : 0, "text" : "역행하는", "type" : "", "begin" : 0, "end" : 2},
		{"id" : 1, "text" : "것으로", "type" : "", "begin" : 3, "end" : 4},
		{"id" : 2, "text" : "관측되는", "type" : "", "begin" : 5, "end" : 7},
		{"id" : 3, "text" : "행성은", "type" : "", "begin" : 8, "end" : 9},
		{"id" : 4, "text" : "무엇일까?", "type" : "", "begin" : 10, "end" : 13}
	],
	"NE" : [
	],
	"chunk" : [
	],
	"dependency" : [
		{"id" : 0, "text" : "역행하는", "head" : 1, "label" : "VP_MOD", "mod" : [], "weight" : 0.981211 },
		{"id" : 1, "text" : "것으로", "head" : 2, "label" : "NP_AJT", "mod" : [0], "weight" : 0.716677 },
		{"id" : 2, "text" : "관측되는", "head" : 3, "label" : "VP_MOD", "mod" : [1], "weight" : 0.697019 },
		{"id" : 3, "text" : "행성은", "head" : 4, "label" : "NP_SBJ", "mod" : [2], "weight" : 0.751102 },
		{"id" : 4, "text" : "무엇일까?", "head" : -1, "label" : "VNP", "mod" : [3], "weight" : 0.269677 }
	],
	"phrase_dependency" : [
	],
	"SRL" : [
	],
	"relation" : [
	],
	"SA" : [
	],
	"ZA" : [
	]
	}
 ],
 "entity" : [
 ]
}

