{"doc_id" : "935.030_Q.01",
 "DCT" : "",
 "category" : "",
 "category_weight" : 0,
 "title" : {"text" : "Q30", "NE" : ""},
 "metaInfo" : { },
 "sentence" : [
	{
	"id" : 0,
	"reserve_str" : "",
	"text" : "이것은 조선 순조 때 효명 세자가 봄날 버드나뭇가지를 날아다니며 지저귀는 꾀꼬리 소리에 감동해 만든 춤이다.",
	"morp" : [
	],
	"morp_eval" : [
	],
	"WSD" : [
	],
	"word" : [
		{"id" : 0, "text" : "이것은", "type" : "", "begin" : 0, "end" : 1},
		{"id" : 1, "text" : "조선", "type" : "", "begin" : 2, "end" : 2},
		{"id" : 2, "text" : "순조", "type" : "", "begin" : 3, "end" : 3},
		{"id" : 3, "text" : "때", "type" : "", "begin" : 4, "end" : 4},
		{"id" : 4, "text" : "효명", "type" : "", "begin" : 5, "end" : 5},
		{"id" : 5, "text" : "세자가", "type" : "", "begin" : 6, "end" : 7},
		{"id" : 6, "text" : "봄날", "type" : "", "begin" : 8, "end" : 8},
		{"id" : 7, "text" : "버드나뭇가지를", "type" : "", "begin" : 9, "end" : 11},
		{"id" : 8, "text" : "날아다니며", "type" : "", "begin" : 12, "end" : 13},
		{"id" : 9, "text" : "지저귀는", "type" : "", "begin" : 14, "end" : 15},
		{"id" : 10, "text" : "꾀꼬리", "type" : "", "begin" : 16, "end" : 16},
		{"id" : 11, "text" : "소리에", "type" : "", "begin" : 17, "end" : 18},
		{"id" : 12, "text" : "감동해", "type" : "", "begin" : 19, "end" : 21},
		{"id" : 13, "text" : "만든", "type" : "", "begin" : 22, "end" : 23},
		{"id" : 14, "text" : "춤이다.", "type" : "", "begin" : 24, "end" : 27}
	],
	"NE" : [
	],
	"chunk" : [
	],
	"dependency" : [
		{"id" : 0, "text" : "이것은", "head" : 14, "label" : "NP_SBJ", "mod" : [], "weight" : 0.577808 },
		{"id" : 1, "text" : "조선", "head" : 2, "label" : "NP", "mod" : [], "weight" : 0.773511 },
		{"id" : 2, "text" : "순조", "head" : 3, "label" : "NP", "mod" : [1], "weight" : 0.890147 },
		{"id" : 3, "text" : "때", "head" : 12, "label" : "NP_AJT", "mod" : [2], "weight" : 0.923769 },
		{"id" : 4, "text" : "효명", "head" : 5, "label" : "NP", "mod" : [], "weight" : 0.849283 },
		{"id" : 5, "text" : "세자가", "head" : 12, "label" : "NP_SBJ", "mod" : [4], "weight" : 0.890157 },
		{"id" : 6, "text" : "봄날", "head" : 8, "label" : "NP", "mod" : [], "weight" : 0.660554 },
		{"id" : 7, "text" : "버드나뭇가지를", "head" : 8, "label" : "NP_OBJ", "mod" : [], "weight" : 0.748635 },
		{"id" : 8, "text" : "날아다니며", "head" : 9, "label" : "VP", "mod" : [7, 6], "weight" : 0.957031 },
		{"id" : 9, "text" : "지저귀는", "head" : 10, "label" : "VP_MOD", "mod" : [8], "weight" : 0.871577 },
		{"id" : 10, "text" : "꾀꼬리", "head" : 11, "label" : "NP", "mod" : [9], "weight" : 0.699981 },
		{"id" : 11, "text" : "소리에", "head" : 12, "label" : "NP_AJT", "mod" : [10], "weight" : 0.764446 },
		{"id" : 12, "text" : "감동해", "head" : 13, "label" : "VP", "mod" : [3, 5, 11], "weight" : 0.581713 },
		{"id" : 13, "text" : "만든", "head" : 14, "label" : "VP_MOD", "mod" : [12], "weight" : 0.505491 },
		{"id" : 14, "text" : "춤이다.", "head" : -1, "label" : "VNP", "mod" : [0, 13], "weight" : 0.130278 }
	],
	"phrase_dependency" : [
	],
	"SRL" : [
	],
	"relation" : [
	],
	"SA" : [
	],
	"ZA" : [
	]
	},
	{
	"id" : 1,
	"reserve_str" : "",
	"text" : "길이 여섯 자의 제한된 화문석 위에서 한없이 느리게 추는 우아한 독무인 이것은 무엇일까?",
	"morp" : [
	],
	"morp_eval" : [
	],
	"WSD" : [
	],
	"word" : [
		{"id" : 0, "text" : "길이", "type" : "", "begin" : 0, "end" : 1},
		{"id" : 1, "text" : "여섯", "type" : "", "begin" : 2, "end" : 2},
		{"id" : 2, "text" : "자의", "type" : "", "begin" : 3, "end" : 4},
		{"id" : 3, "text" : "제한된", "type" : "", "begin" : 5, "end" : 7},
		{"id" : 4, "text" : "화문석", "type" : "", "begin" : 8, "end" : 9},
		{"id" : 5, "text" : "위에서", "type" : "", "begin" : 10, "end" : 11},
		{"id" : 6, "text" : "한없이", "type" : "", "begin" : 12, "end" : 13},
		{"id" : 7, "text" : "느리게", "type" : "", "begin" : 14, "end" : 15},
		{"id" : 8, "text" : "추는", "type" : "", "begin" : 16, "end" : 17},
		{"id" : 9, "text" : "우아한", "type" : "", "begin" : 18, "end" : 20},
		{"id" : 10, "text" : "독무인", "type" : "", "begin" : 21, "end" : 23},
		{"id" : 11, "text" : "이것은", "type" : "", "begin" : 24, "end" : 25},
		{"id" : 12, "text" : "무엇일까?", "type" : "", "begin" : 26, "end" : 29}
	],
	"NE" : [
	],
	"chunk" : [
	],
	"dependency" : [
		{"id" : 0, "text" : "길이", "head" : 2, "label" : "NP_SBJ", "mod" : [], "weight" : 0.776319 },
		{"id" : 1, "text" : "여섯", "head" : 2, "label" : "NP", "mod" : [], "weight" : 0.952733 },
		{"id" : 2, "text" : "자의", "head" : 4, "label" : "NP_MOD", "mod" : [0, 1], "weight" : 0.593479 },
		{"id" : 3, "text" : "제한된", "head" : 4, "label" : "VP_MOD", "mod" : [], "weight" : 0.614459 },
		{"id" : 4, "text" : "화문석", "head" : 5, "label" : "NP", "mod" : [2, 3], "weight" : 0.790312 },
		{"id" : 5, "text" : "위에서", "head" : 8, "label" : "NP_AJT", "mod" : [4], "weight" : 0.867871 },
		{"id" : 6, "text" : "한없이", "head" : 7, "label" : "AP", "mod" : [], "weight" : 0.605062 },
		{"id" : 7, "text" : "느리게", "head" : 8, "label" : "VP_AJT", "mod" : [6], "weight" : 0.74738 },
		{"id" : 8, "text" : "추는", "head" : 10, "label" : "VP_MOD", "mod" : [5, 7], "weight" : 0.670776 },
		{"id" : 9, "text" : "우아한", "head" : 10, "label" : "VP_MOD", "mod" : [], "weight" : 0.75224 },
		{"id" : 10, "text" : "독무인", "head" : 11, "label" : "VNP_MOD", "mod" : [8, 9], "weight" : 0.743927 },
		{"id" : 11, "text" : "이것은", "head" : 12, "label" : "NP_SBJ", "mod" : [10], "weight" : 0.662501 },
		{"id" : 12, "text" : "무엇일까?", "head" : -1, "label" : "VNP", "mod" : [11], "weight" : 0.153185 }
	],
	"phrase_dependency" : [
	],
	"SRL" : [
	],
	"relation" : [
	],
	"SA" : [
	],
	"ZA" : [
	]
	}
 ],
 "entity" : [
 ]
}

