{"doc_id" : "935.028_A.02",
 "DCT" : "",
 "category" : "",
 "category_weight" : 0,
 "title" : {"text" : "양공", "NE" : ""},
 "metaInfo" : { },
 "sentence" : [
	{
	"id" : 0,
	"reserve_str" : "",
	"text" : "<물리> 절연체나 반도체의 원자 간을 결합하고 있는 전자가 밖에서 에너지를 받아 보다 높은 상태로 이동하면서 그 뒤에 남은 결합이 빠져나간 구멍.",
	"morp" : [
	],
	"morp_eval" : [
	],
	"WSD" : [
	],
	"word" : [
		{"id" : 0, "text" : "<물리>", "type" : "", "begin" : 0, "end" : 2},
		{"id" : 1, "text" : "절연체나", "type" : "", "begin" : 3, "end" : 5},
		{"id" : 2, "text" : "반도체의", "type" : "", "begin" : 6, "end" : 8},
		{"id" : 3, "text" : "원자", "type" : "", "begin" : 9, "end" : 9},
		{"id" : 4, "text" : "간을", "type" : "", "begin" : 10, "end" : 11},
		{"id" : 5, "text" : "결합하고", "type" : "", "begin" : 12, "end" : 14},
		{"id" : 6, "text" : "있는", "type" : "", "begin" : 15, "end" : 16},
		{"id" : 7, "text" : "전자가", "type" : "", "begin" : 17, "end" : 18},
		{"id" : 8, "text" : "밖에서", "type" : "", "begin" : 19, "end" : 20},
		{"id" : 9, "text" : "에너지를", "type" : "", "begin" : 21, "end" : 22},
		{"id" : 10, "text" : "받아", "type" : "", "begin" : 23, "end" : 24},
		{"id" : 11, "text" : "보다", "type" : "", "begin" : 25, "end" : 25},
		{"id" : 12, "text" : "높은", "type" : "", "begin" : 26, "end" : 27},
		{"id" : 13, "text" : "상태로", "type" : "", "begin" : 28, "end" : 29},
		{"id" : 14, "text" : "이동하면서", "type" : "", "begin" : 30, "end" : 32},
		{"id" : 15, "text" : "그", "type" : "", "begin" : 33, "end" : 33},
		{"id" : 16, "text" : "뒤에", "type" : "", "begin" : 34, "end" : 35},
		{"id" : 17, "text" : "남은", "type" : "", "begin" : 36, "end" : 37},
		{"id" : 18, "text" : "결합이", "type" : "", "begin" : 38, "end" : 39},
		{"id" : 19, "text" : "빠져나간", "type" : "", "begin" : 40, "end" : 41},
		{"id" : 20, "text" : "구멍.", "type" : "", "begin" : 42, "end" : 43}
	],
	"NE" : [
	],
	"chunk" : [
	],
	"dependency" : [
		{"id" : 0, "text" : "<물리>", "head" : 20, "label" : "NP", "mod" : [], "weight" : 0.519433 },
		{"id" : 1, "text" : "절연체나", "head" : 2, "label" : "NP_CNJ", "mod" : [], "weight" : 0.542851 },
		{"id" : 2, "text" : "반도체의", "head" : 3, "label" : "NP_MOD", "mod" : [1], "weight" : 0.762491 },
		{"id" : 3, "text" : "원자", "head" : 4, "label" : "NP", "mod" : [2], "weight" : 0.785687 },
		{"id" : 4, "text" : "간을", "head" : 5, "label" : "NP_OBJ", "mod" : [3], "weight" : 0.830782 },
		{"id" : 5, "text" : "결합하고", "head" : 6, "label" : "VP", "mod" : [4], "weight" : 0.834608 },
		{"id" : 6, "text" : "있는", "head" : 7, "label" : "VP_MOD", "mod" : [5], "weight" : 0.727148 },
		{"id" : 7, "text" : "전자가", "head" : 10, "label" : "NP_SBJ", "mod" : [6], "weight" : 0.937238 },
		{"id" : 8, "text" : "밖에서", "head" : 10, "label" : "NP_AJT", "mod" : [], "weight" : 0.971753 },
		{"id" : 9, "text" : "에너지를", "head" : 10, "label" : "NP_OBJ", "mod" : [], "weight" : 0.743798 },
		{"id" : 10, "text" : "받아", "head" : 14, "label" : "VP", "mod" : [7, 8, 9], "weight" : 0.71206 },
		{"id" : 11, "text" : "보다", "head" : 12, "label" : "AP", "mod" : [], "weight" : 0.724 },
		{"id" : 12, "text" : "높은", "head" : 13, "label" : "VP_MOD", "mod" : [11], "weight" : 0.848601 },
		{"id" : 13, "text" : "상태로", "head" : 14, "label" : "NP_AJT", "mod" : [12], "weight" : 0.890852 },
		{"id" : 14, "text" : "이동하면서", "head" : 20, "label" : "VP", "mod" : [13], "weight" : 0.847992 },
		{"id" : 15, "text" : "그", "head" : 16, "label" : "DP", "mod" : [], "weight" : 0.815453 },
		{"id" : 16, "text" : "뒤에", "head" : 17, "label" : "NP_AJT", "mod" : [15], "weight" : 0.615834 },
		{"id" : 17, "text" : "남은", "head" : 20, "label" : "VP_MOD", "mod" : [16], "weight" : 0.709122 },
		{"id" : 18, "text" : "결합이", "head" : 19, "label" : "NP_SBJ", "mod" : [], "weight" : 0.8539 },
		{"id" : 19, "text" : "빠져나간", "head" : 20, "label" : "VP_MOD", "mod" : [18], "weight" : 0.550256 },
		{"id" : 20, "text" : "구멍.", "head" : -1, "label" : "NP", "mod" : [0, 19, 17, 14], "weight" : 0.175748 }
	],
	"phrase_dependency" : [
	],
	"SRL" : [
	],
	"relation" : [
	],
	"SA" : [
	],
	"ZA" : [
	]
	},
	{
	"id" : 1,
	"reserve_str" : "",
	"text" : "마치 양의 전하를 가진 자유 입자와 같이 동작한다.",
	"morp" : [
	],
	"morp_eval" : [
	],
	"WSD" : [
	],
	"word" : [
		{"id" : 0, "text" : "마치", "type" : "", "begin" : 0, "end" : 0},
		{"id" : 1, "text" : "양의", "type" : "", "begin" : 1, "end" : 2},
		{"id" : 2, "text" : "전하를", "type" : "", "begin" : 3, "end" : 4},
		{"id" : 3, "text" : "가진", "type" : "", "begin" : 5, "end" : 6},
		{"id" : 4, "text" : "자유", "type" : "", "begin" : 7, "end" : 7},
		{"id" : 5, "text" : "입자와", "type" : "", "begin" : 8, "end" : 9},
		{"id" : 6, "text" : "같이", "type" : "", "begin" : 10, "end" : 10},
		{"id" : 7, "text" : "동작한다.", "type" : "", "begin" : 11, "end" : 14}
	],
	"NE" : [
	],
	"chunk" : [
	],
	"dependency" : [
		{"id" : 0, "text" : "마치", "head" : 6, "label" : "AP", "mod" : [], "weight" : 0.714239 },
		{"id" : 1, "text" : "양의", "head" : 2, "label" : "NP_MOD", "mod" : [], "weight" : 0.732053 },
		{"id" : 2, "text" : "전하를", "head" : 3, "label" : "NP_OBJ", "mod" : [1], "weight" : 0.739421 },
		{"id" : 3, "text" : "가진", "head" : 5, "label" : "VP_MOD", "mod" : [2], "weight" : 0.768997 },
		{"id" : 4, "text" : "자유", "head" : 5, "label" : "NP", "mod" : [], "weight" : 0.675047 },
		{"id" : 5, "text" : "입자와", "head" : 6, "label" : "NP_AJT", "mod" : [3, 4], "weight" : 0.612221 },
		{"id" : 6, "text" : "같이", "head" : 7, "label" : "AP", "mod" : [0, 5], "weight" : 0.607525 },
		{"id" : 7, "text" : "동작한다.", "head" : -1, "label" : "VP", "mod" : [6], "weight" : 0.520205 }
	],
	"phrase_dependency" : [
	],
	"SRL" : [
	],
	"relation" : [
	],
	"SA" : [
	],
	"ZA" : [
	]
	}
 ],
 "entity" : [
 ]
}

