{"doc_id" : "935.015_Q.01",
 "DCT" : "",
 "category" : "",
 "category_weight" : 0,
 "title" : {"text" : "Q15", "NE" : ""},
 "metaInfo" : { },
 "sentence" : [
	{
	"id" : 0,
	"reserve_str" : "",
	"text" : "삼척시에 있는 이 동굴은 2003년에 처음 발견돼 2007년에 일반인에게 공개됐다.",
	"morp" : [
	],
	"morp_eval" : [
	],
	"WSD" : [
	],
	"word" : [
		{"id" : 0, "text" : "삼척시에", "type" : "", "begin" : 0, "end" : 1},
		{"id" : 1, "text" : "있는", "type" : "", "begin" : 2, "end" : 3},
		{"id" : 2, "text" : "이", "type" : "", "begin" : 4, "end" : 4},
		{"id" : 3, "text" : "동굴은", "type" : "", "begin" : 5, "end" : 6},
		{"id" : 4, "text" : "2003년에", "type" : "", "begin" : 7, "end" : 9},
		{"id" : 5, "text" : "처음", "type" : "", "begin" : 10, "end" : 10},
		{"id" : 6, "text" : "발견돼", "type" : "", "begin" : 11, "end" : 13},
		{"id" : 7, "text" : "2007년에", "type" : "", "begin" : 14, "end" : 16},
		{"id" : 8, "text" : "일반인에게", "type" : "", "begin" : 17, "end" : 19},
		{"id" : 9, "text" : "공개됐다.", "type" : "", "begin" : 20, "end" : 24}
	],
	"NE" : [
	],
	"chunk" : [
	],
	"dependency" : [
		{"id" : 0, "text" : "삼척시에", "head" : 1, "label" : "NP_AJT", "mod" : [], "weight" : 0.963692 },
		{"id" : 1, "text" : "있는", "head" : 3, "label" : "VP_MOD", "mod" : [0], "weight" : 0.777662 },
		{"id" : 2, "text" : "이", "head" : 3, "label" : "DP", "mod" : [], "weight" : 0.891708 },
		{"id" : 3, "text" : "동굴은", "head" : 6, "label" : "NP_SBJ", "mod" : [1, 2], "weight" : 0.897288 },
		{"id" : 4, "text" : "2003년에", "head" : 6, "label" : "NP_AJT", "mod" : [], "weight" : 0.974448 },
		{"id" : 5, "text" : "처음", "head" : 6, "label" : "NP_AJT", "mod" : [], "weight" : 0.560959 },
		{"id" : 6, "text" : "발견돼", "head" : 9, "label" : "VP", "mod" : [3, 4, 5], "weight" : 0.649188 },
		{"id" : 7, "text" : "2007년에", "head" : 9, "label" : "NP_AJT", "mod" : [], "weight" : 0.64424 },
		{"id" : 8, "text" : "일반인에게", "head" : 9, "label" : "NP_AJT", "mod" : [], "weight" : 0.531329 },
		{"id" : 9, "text" : "공개됐다.", "head" : -1, "label" : "VP", "mod" : [6, 7, 8], "weight" : 0.379184 }
	],
	"phrase_dependency" : [
	],
	"SRL" : [
	],
	"relation" : [
	],
	"SA" : [
	],
	"ZA" : [
	]
	},
	{
	"id" : 1,
	"reserve_str" : "",
	"text" : "동굴 보존을 위해 1일 관광객을 제한하고 있으며, 동굴을 관람할 때 모노레일을 이용해야 하는 이 동굴은 어디일까?",
	"morp" : [
	],
	"morp_eval" : [
	],
	"WSD" : [
	],
	"word" : [
		{"id" : 0, "text" : "동굴", "type" : "", "begin" : 0, "end" : 0},
		{"id" : 1, "text" : "보존을", "type" : "", "begin" : 1, "end" : 2},
		{"id" : 2, "text" : "위해", "type" : "", "begin" : 3, "end" : 4},
		{"id" : 3, "text" : "1일", "type" : "", "begin" : 5, "end" : 6},
		{"id" : 4, "text" : "관광객을", "type" : "", "begin" : 7, "end" : 9},
		{"id" : 5, "text" : "제한하고", "type" : "", "begin" : 10, "end" : 12},
		{"id" : 6, "text" : "있으며,", "type" : "", "begin" : 13, "end" : 15},
		{"id" : 7, "text" : "동굴을", "type" : "", "begin" : 16, "end" : 17},
		{"id" : 8, "text" : "관람할", "type" : "", "begin" : 18, "end" : 20},
		{"id" : 9, "text" : "때", "type" : "", "begin" : 21, "end" : 21},
		{"id" : 10, "text" : "모노레일을", "type" : "", "begin" : 22, "end" : 24},
		{"id" : 11, "text" : "이용해야", "type" : "", "begin" : 25, "end" : 27},
		{"id" : 12, "text" : "하는", "type" : "", "begin" : 28, "end" : 29},
		{"id" : 13, "text" : "이", "type" : "", "begin" : 30, "end" : 30},
		{"id" : 14, "text" : "동굴은", "type" : "", "begin" : 31, "end" : 32},
		{"id" : 15, "text" : "어디일까?", "type" : "", "begin" : 33, "end" : 36}
	],
	"NE" : [
	],
	"chunk" : [
	],
	"dependency" : [
		{"id" : 0, "text" : "동굴", "head" : 1, "label" : "NP", "mod" : [], "weight" : 0.652801 },
		{"id" : 1, "text" : "보존을", "head" : 2, "label" : "NP_OBJ", "mod" : [0], "weight" : 0.816364 },
		{"id" : 2, "text" : "위해", "head" : 5, "label" : "VP", "mod" : [1], "weight" : 0.900464 },
		{"id" : 3, "text" : "1일", "head" : 4, "label" : "NP", "mod" : [], "weight" : 0.859063 },
		{"id" : 4, "text" : "관광객을", "head" : 5, "label" : "NP_OBJ", "mod" : [3], "weight" : 0.711048 },
		{"id" : 5, "text" : "제한하고", "head" : 6, "label" : "VP", "mod" : [2, 4], "weight" : 0.664604 },
		{"id" : 6, "text" : "있으며,", "head" : 11, "label" : "VP", "mod" : [5], "weight" : 0.909593 },
		{"id" : 7, "text" : "동굴을", "head" : 8, "label" : "NP_OBJ", "mod" : [], "weight" : 0.711933 },
		{"id" : 8, "text" : "관람할", "head" : 9, "label" : "VP_MOD", "mod" : [7], "weight" : 0.809819 },
		{"id" : 9, "text" : "때", "head" : 11, "label" : "NP_AJT", "mod" : [8], "weight" : 0.717028 },
		{"id" : 10, "text" : "모노레일을", "head" : 11, "label" : "NP_OBJ", "mod" : [], "weight" : 0.920344 },
		{"id" : 11, "text" : "이용해야", "head" : 12, "label" : "VP", "mod" : [6, 9, 10], "weight" : 0.883782 },
		{"id" : 12, "text" : "하는", "head" : 14, "label" : "VP_MOD", "mod" : [11], "weight" : 0.917998 },
		{"id" : 13, "text" : "이", "head" : 14, "label" : "DP", "mod" : [], "weight" : 0.982396 },
		{"id" : 14, "text" : "동굴은", "head" : 15, "label" : "NP_SBJ", "mod" : [12, 13], "weight" : 0.75524 },
		{"id" : 15, "text" : "어디일까?", "head" : -1, "label" : "VNP", "mod" : [14], "weight" : 0.282573 }
	],
	"phrase_dependency" : [
	],
	"SRL" : [
	],
	"relation" : [
	],
	"SA" : [
	],
	"ZA" : [
	]
	}
 ],
 "entity" : [
 ]
}

