{"doc_id" : "935.021_A.02",
 "DCT" : "",
 "category" : "",
 "category_weight" : 0,
 "title" : {"text" : "법의 정신", "NE" : ""},
 "metaInfo" : { },
 "sentence" : [
	{
	"id" : 0,
	"reserve_str" : "",
	"text" : "<책명> 1748년에 프랑스의 몽테스키외가 쓴 정치학서.",
	"morp" : [
	],
	"morp_eval" : [
	],
	"WSD" : [
	],
	"word" : [
		{"id" : 0, "text" : "<책명>", "type" : "", "begin" : 0, "end" : 2},
		{"id" : 1, "text" : "1748년에", "type" : "", "begin" : 3, "end" : 5},
		{"id" : 2, "text" : "프랑스의", "type" : "", "begin" : 6, "end" : 7},
		{"id" : 3, "text" : "몽테스키외가", "type" : "", "begin" : 8, "end" : 9},
		{"id" : 4, "text" : "쓴", "type" : "", "begin" : 10, "end" : 11},
		{"id" : 5, "text" : "정치학서.", "type" : "", "begin" : 12, "end" : 15}
	],
	"NE" : [
	],
	"chunk" : [
	],
	"dependency" : [
		{"id" : 0, "text" : "<책명>", "head" : 5, "label" : "NP", "mod" : [], "weight" : 0.718239 },
		{"id" : 1, "text" : "1748년에", "head" : 4, "label" : "NP_AJT", "mod" : [], "weight" : 0.999193 },
		{"id" : 2, "text" : "프랑스의", "head" : 3, "label" : "NP_MOD", "mod" : [], "weight" : 0.847011 },
		{"id" : 3, "text" : "몽테스키외가", "head" : 4, "label" : "NP_SBJ", "mod" : [2], "weight" : 0.6486 },
		{"id" : 4, "text" : "쓴", "head" : 5, "label" : "VP_MOD", "mod" : [1, 3], "weight" : 0.441519 },
		{"id" : 5, "text" : "정치학서.", "head" : -1, "label" : "VNP", "mod" : [0, 4], "weight" : 0.832567 }
	],
	"phrase_dependency" : [
	],
	"SRL" : [
	],
	"relation" : [
	],
	"SA" : [
	],
	"ZA" : [
	]
	}
 ],
 "entity" : [
 ]
}

