{"doc_id" : "935.033_A.01",
 "DCT" : "",
 "category" : "",
 "category_weight" : 0,
 "title" : {"text" : "수제천", "NE" : ""},
 "metaInfo" : { },
 "sentence" : [
	{
	"id" : 0,
	"reserve_str" : "",
	"text" : "백제의 가요 '정읍사'의 반주였으나 지금은 독립적인 기악곡으로 연주된다.",
	"morp" : [
	],
	"morp_eval" : [
	],
	"WSD" : [
	],
	"word" : [
		{"id" : 0, "text" : "백제의", "type" : "", "begin" : 0, "end" : 1},
		{"id" : 1, "text" : "가요", "type" : "", "begin" : 2, "end" : 2},
		{"id" : 2, "text" : "'정읍사'의", "type" : "", "begin" : 3, "end" : 7},
		{"id" : 3, "text" : "반주였으나", "type" : "", "begin" : 8, "end" : 11},
		{"id" : 4, "text" : "지금은", "type" : "", "begin" : 12, "end" : 13},
		{"id" : 5, "text" : "독립적인", "type" : "", "begin" : 14, "end" : 17},
		{"id" : 6, "text" : "기악곡으로", "type" : "", "begin" : 18, "end" : 20},
		{"id" : 7, "text" : "연주된다.", "type" : "", "begin" : 21, "end" : 24}
	],
	"NE" : [
	],
	"chunk" : [
	],
	"dependency" : [
		{"id" : 0, "text" : "백제의", "head" : 1, "label" : "NP_MOD", "mod" : [], "weight" : 0.544256 },
		{"id" : 1, "text" : "가요", "head" : 2, "label" : "NP", "mod" : [0], "weight" : 0.766338 },
		{"id" : 2, "text" : "'정읍사'의", "head" : 3, "label" : "NP_MOD", "mod" : [1], "weight" : 0.704018 },
		{"id" : 3, "text" : "반주였으나", "head" : 7, "label" : "VNP", "mod" : [2], "weight" : 0.65194 },
		{"id" : 4, "text" : "지금은", "head" : 7, "label" : "NP_AJT", "mod" : [], "weight" : 0.640871 },
		{"id" : 5, "text" : "독립적인", "head" : 6, "label" : "VNP_MOD", "mod" : [], "weight" : 0.952034 },
		{"id" : 6, "text" : "기악곡으로", "head" : 7, "label" : "NP_AJT", "mod" : [5], "weight" : 0.640089 },
		{"id" : 7, "text" : "연주된다.", "head" : -1, "label" : "VP", "mod" : [3, 4, 6], "weight" : 0.527168 }
	],
	"phrase_dependency" : [
	],
	"SRL" : [
	],
	"relation" : [
	],
	"SA" : [
	],
	"ZA" : [
	]
	},
	{
	"id" : 1,
	"reserve_str" : "",
	"text" : "작곡자는 알 수 없다.",
	"morp" : [
	],
	"morp_eval" : [
	],
	"WSD" : [
	],
	"word" : [
		{"id" : 0, "text" : "작곡자는", "type" : "", "begin" : 0, "end" : 2},
		{"id" : 1, "text" : "알", "type" : "", "begin" : 3, "end" : 4},
		{"id" : 2, "text" : "수", "type" : "", "begin" : 5, "end" : 5},
		{"id" : 3, "text" : "없다.", "type" : "", "begin" : 6, "end" : 8}
	],
	"NE" : [
	],
	"chunk" : [
	],
	"dependency" : [
		{"id" : 0, "text" : "작곡자는", "head" : 1, "label" : "NP_OBJ", "mod" : [], "weight" : 0.903698 },
		{"id" : 1, "text" : "알", "head" : 2, "label" : "VP_MOD", "mod" : [0], "weight" : 0.781389 },
		{"id" : 2, "text" : "수", "head" : 3, "label" : "NP_SBJ", "mod" : [1], "weight" : 0.520633 },
		{"id" : 3, "text" : "없다.", "head" : -1, "label" : "VP", "mod" : [2], "weight" : 0.332902 }
	],
	"phrase_dependency" : [
	],
	"SRL" : [
	],
	"relation" : [
	],
	"SA" : [
	],
	"ZA" : [
	]
	},
	{
	"id" : 2,
	"reserve_str" : "",
	"text" : "[2] 주로 궁중의 연례악으로 쓰였다.",
	"morp" : [
	],
	"morp_eval" : [
	],
	"WSD" : [
	],
	"word" : [
		{"id" : 0, "text" : "[2]", "type" : "", "begin" : 0, "end" : 2},
		{"id" : 1, "text" : "주로", "type" : "", "begin" : 3, "end" : 3},
		{"id" : 2, "text" : "궁중의", "type" : "", "begin" : 4, "end" : 5},
		{"id" : 3, "text" : "연례악으로", "type" : "", "begin" : 6, "end" : 7},
		{"id" : 4, "text" : "쓰였다.", "type" : "", "begin" : 8, "end" : 11}
	],
	"NE" : [
	],
	"chunk" : [
	],
	"dependency" : [
		{"id" : 0, "text" : "[2]", "head" : 4, "label" : "NP", "mod" : [], "weight" : 0.482992 },
		{"id" : 1, "text" : "주로", "head" : 4, "label" : "AP", "mod" : [], "weight" : 0.573685 },
		{"id" : 2, "text" : "궁중의", "head" : 3, "label" : "NP_MOD", "mod" : [], "weight" : 0.854745 },
		{"id" : 3, "text" : "연례악으로", "head" : 4, "label" : "NP_AJT", "mod" : [2], "weight" : 0.606148 },
		{"id" : 4, "text" : "쓰였다.", "head" : -1, "label" : "VP", "mod" : [0, 1, 3], "weight" : 0.106423 }
	],
	"phrase_dependency" : [
	],
	"SRL" : [
	],
	"relation" : [
	],
	"SA" : [
	],
	"ZA" : [
	]
	},
	{
	"id" : 3,
	"reserve_str" : "",
	"text" : "처용무의 반주악으로도 쓰인다.",
	"morp" : [
	],
	"morp_eval" : [
	],
	"WSD" : [
	],
	"word" : [
		{"id" : 0, "text" : "처용무의", "type" : "", "begin" : 0, "end" : 2},
		{"id" : 1, "text" : "반주악으로도", "type" : "", "begin" : 3, "end" : 6},
		{"id" : 2, "text" : "쓰인다.", "type" : "", "begin" : 7, "end" : 9}
	],
	"NE" : [
	],
	"chunk" : [
	],
	"dependency" : [
		{"id" : 0, "text" : "처용무의", "head" : 1, "label" : "NP_MOD", "mod" : [], "weight" : 0.767157 },
		{"id" : 1, "text" : "반주악으로도", "head" : 2, "label" : "NP_AJT", "mod" : [0], "weight" : 0.486349 },
		{"id" : 2, "text" : "쓰인다.", "head" : -1, "label" : "VP", "mod" : [1], "weight" : 0.270344 }
	],
	"phrase_dependency" : [
	],
	"SRL" : [
	],
	"relation" : [
	],
	"SA" : [
	],
	"ZA" : [
	]
	}
 ],
 "entity" : [
 ]
}

