{"doc_id" : "935.012_A.05",
 "DCT" : "",
 "category" : "",
 "category_weight" : 0,
 "title" : {"text" : "속오군", "NE" : ""},
 "metaInfo" : { },
 "sentence" : [
	{
	"id" : 0,
	"reserve_str" : "",
	"text" : "속오군은 1년 중 일정기간 고을에서 병역으로 훈련을 받고 유사시엔 전선에 배치되어 싸우는 것이 원칙이었으나 특별한 경우에는 군포를 내고 그 역을 벗을 수 있었다.",
	"morp" : [
	],
	"morp_eval" : [
	],
	"WSD" : [
	],
	"word" : [
		{"id" : 0, "text" : "속오군은", "type" : "", "begin" : 0, "end" : 1},
		{"id" : 1, "text" : "1년", "type" : "", "begin" : 2, "end" : 3},
		{"id" : 2, "text" : "중", "type" : "", "begin" : 4, "end" : 4},
		{"id" : 3, "text" : "일정기간", "type" : "", "begin" : 5, "end" : 6},
		{"id" : 4, "text" : "고을에서", "type" : "", "begin" : 7, "end" : 8},
		{"id" : 5, "text" : "병역으로", "type" : "", "begin" : 9, "end" : 10},
		{"id" : 6, "text" : "훈련을", "type" : "", "begin" : 11, "end" : 12},
		{"id" : 7, "text" : "받고", "type" : "", "begin" : 13, "end" : 14},
		{"id" : 8, "text" : "유사시엔", "type" : "", "begin" : 15, "end" : 17},
		{"id" : 9, "text" : "전선에", "type" : "", "begin" : 18, "end" : 19},
		{"id" : 10, "text" : "배치되어", "type" : "", "begin" : 20, "end" : 22},
		{"id" : 11, "text" : "싸우는", "type" : "", "begin" : 23, "end" : 24},
		{"id" : 12, "text" : "것이", "type" : "", "begin" : 25, "end" : 26},
		{"id" : 13, "text" : "원칙이었으나", "type" : "", "begin" : 27, "end" : 30},
		{"id" : 14, "text" : "특별한", "type" : "", "begin" : 31, "end" : 33},
		{"id" : 15, "text" : "경우에는", "type" : "", "begin" : 34, "end" : 36},
		{"id" : 16, "text" : "군포를", "type" : "", "begin" : 37, "end" : 38},
		{"id" : 17, "text" : "내고", "type" : "", "begin" : 39, "end" : 40},
		{"id" : 18, "text" : "그", "type" : "", "begin" : 41, "end" : 41},
		{"id" : 19, "text" : "역을", "type" : "", "begin" : 42, "end" : 43},
		{"id" : 20, "text" : "벗을", "type" : "", "begin" : 44, "end" : 45},
		{"id" : 21, "text" : "수", "type" : "", "begin" : 46, "end" : 46},
		{"id" : 22, "text" : "있었다.", "type" : "", "begin" : 47, "end" : 50}
	],
	"NE" : [
	],
	"chunk" : [
	],
	"dependency" : [
		{"id" : 0, "text" : "속오군은", "head" : 7, "label" : "NP_SBJ", "mod" : [], "weight" : 0.639213 },
		{"id" : 1, "text" : "1년", "head" : 2, "label" : "NP", "mod" : [], "weight" : 0.983337 },
		{"id" : 2, "text" : "중", "head" : 7, "label" : "NP_AJT", "mod" : [1], "weight" : 0.846143 },
		{"id" : 3, "text" : "일정기간", "head" : 7, "label" : "NP", "mod" : [], "weight" : 0.762232 },
		{"id" : 4, "text" : "고을에서", "head" : 7, "label" : "NP_AJT", "mod" : [], "weight" : 0.943398 },
		{"id" : 5, "text" : "병역으로", "head" : 7, "label" : "NP_AJT", "mod" : [], "weight" : 0.901615 },
		{"id" : 6, "text" : "훈련을", "head" : 7, "label" : "NP_OBJ", "mod" : [], "weight" : 0.798771 },
		{"id" : 7, "text" : "받고", "head" : 10, "label" : "VP", "mod" : [0, 2, 3, 4, 5, 6], "weight" : 0.677489 },
		{"id" : 8, "text" : "유사시엔", "head" : 10, "label" : "NP_AJT", "mod" : [], "weight" : 0.643067 },
		{"id" : 9, "text" : "전선에", "head" : 10, "label" : "NP_AJT", "mod" : [], "weight" : 0.994107 },
		{"id" : 10, "text" : "배치되어", "head" : 11, "label" : "VP", "mod" : [7, 8, 9], "weight" : 0.824956 },
		{"id" : 11, "text" : "싸우는", "head" : 12, "label" : "VP_MOD", "mod" : [10], "weight" : 0.973394 },
		{"id" : 12, "text" : "것이", "head" : 13, "label" : "NP_SBJ", "mod" : [11], "weight" : 0.90588 },
		{"id" : 13, "text" : "원칙이었으나", "head" : 17, "label" : "VNP", "mod" : [12], "weight" : 0.538345 },
		{"id" : 14, "text" : "특별한", "head" : 15, "label" : "VP_MOD", "mod" : [], "weight" : 0.965504 },
		{"id" : 15, "text" : "경우에는", "head" : 17, "label" : "NP_AJT", "mod" : [14], "weight" : 0.566598 },
		{"id" : 16, "text" : "군포를", "head" : 17, "label" : "NP_OBJ", "mod" : [], "weight" : 0.897194 },
		{"id" : 17, "text" : "내고", "head" : 20, "label" : "VP", "mod" : [13, 15, 16], "weight" : 0.860247 },
		{"id" : 18, "text" : "그", "head" : 19, "label" : "DP", "mod" : [], "weight" : 0.766669 },
		{"id" : 19, "text" : "역을", "head" : 20, "label" : "NP_OBJ", "mod" : [18], "weight" : 0.832862 },
		{"id" : 20, "text" : "벗을", "head" : 21, "label" : "VP_MOD", "mod" : [17, 19], "weight" : 0.800918 },
		{"id" : 21, "text" : "수", "head" : 22, "label" : "NP_SBJ", "mod" : [20], "weight" : 0.537771 },
		{"id" : 22, "text" : "있었다.", "head" : -1, "label" : "VP", "mod" : [21], "weight" : 0.418236 }
	],
	"phrase_dependency" : [
	],
	"SRL" : [
	],
	"relation" : [
	],
	"SA" : [
	],
	"ZA" : [
	]
	}
 ],
 "entity" : [
 ]
}

