{"doc_id" : "935.018_A.05",
 "DCT" : "",
 "category" : "",
 "category_weight" : 0,
 "title" : {"text" : "이스탄불", "NE" : ""},
 "metaInfo" : { },
 "sentence" : [
	{
	"id" : 0,
	"reserve_str" : "",
	"text" : "터키 서단의 아시아와 유럽에 걸치는 이 나라 최대의 도시.",
	"morp" : [
	],
	"morp_eval" : [
	],
	"WSD" : [
	],
	"word" : [
		{"id" : 0, "text" : "터키", "type" : "", "begin" : 0, "end" : 0},
		{"id" : 1, "text" : "서단의", "type" : "", "begin" : 1, "end" : 2},
		{"id" : 2, "text" : "아시아와", "type" : "", "begin" : 3, "end" : 4},
		{"id" : 3, "text" : "유럽에", "type" : "", "begin" : 5, "end" : 6},
		{"id" : 4, "text" : "걸치는", "type" : "", "begin" : 7, "end" : 8},
		{"id" : 5, "text" : "이", "type" : "", "begin" : 9, "end" : 9},
		{"id" : 6, "text" : "나라", "type" : "", "begin" : 10, "end" : 10},
		{"id" : 7, "text" : "최대의", "type" : "", "begin" : 11, "end" : 12},
		{"id" : 8, "text" : "도시.", "type" : "", "begin" : 13, "end" : 14}
	],
	"NE" : [
	],
	"chunk" : [
	],
	"dependency" : [
		{"id" : 0, "text" : "터키", "head" : 1, "label" : "NP", "mod" : [], "weight" : 0.667354 },
		{"id" : 1, "text" : "서단의", "head" : 2, "label" : "NP_MOD", "mod" : [0], "weight" : 0.590901 },
		{"id" : 2, "text" : "아시아와", "head" : 3, "label" : "NP_CNJ", "mod" : [1], "weight" : 0.800927 },
		{"id" : 3, "text" : "유럽에", "head" : 4, "label" : "NP_AJT", "mod" : [2], "weight" : 0.77065 },
		{"id" : 4, "text" : "걸치는", "head" : 8, "label" : "VP_MOD", "mod" : [3], "weight" : 0.719582 },
		{"id" : 5, "text" : "이", "head" : 6, "label" : "DP", "mod" : [], "weight" : 0.608606 },
		{"id" : 6, "text" : "나라", "head" : 7, "label" : "NP", "mod" : [5], "weight" : 0.747037 },
		{"id" : 7, "text" : "최대의", "head" : 8, "label" : "NP_MOD", "mod" : [6], "weight" : 0.553071 },
		{"id" : 8, "text" : "도시.", "head" : -1, "label" : "NP", "mod" : [4, 7], "weight" : 0.234639 }
	],
	"phrase_dependency" : [
	],
	"SRL" : [
	],
	"relation" : [
	],
	"SA" : [
	],
	"ZA" : [
	]
	},
	{
	"id" : 1,
	"reserve_str" : "",
	"text" : "보스포로스 해협의 남쪽 입구에 있다.",
	"morp" : [
	],
	"morp_eval" : [
	],
	"WSD" : [
	],
	"word" : [
		{"id" : 0, "text" : "보스포로스", "type" : "", "begin" : 0, "end" : 0},
		{"id" : 1, "text" : "해협의", "type" : "", "begin" : 1, "end" : 2},
		{"id" : 2, "text" : "남쪽", "type" : "", "begin" : 3, "end" : 3},
		{"id" : 3, "text" : "입구에", "type" : "", "begin" : 4, "end" : 5},
		{"id" : 4, "text" : "있다.", "type" : "", "begin" : 6, "end" : 8}
	],
	"NE" : [
	],
	"chunk" : [
	],
	"dependency" : [
		{"id" : 0, "text" : "보스포로스", "head" : 1, "label" : "NP", "mod" : [], "weight" : 0.788552 },
		{"id" : 1, "text" : "해협의", "head" : 2, "label" : "NP_MOD", "mod" : [0], "weight" : 0.743755 },
		{"id" : 2, "text" : "남쪽", "head" : 3, "label" : "NP", "mod" : [1], "weight" : 0.944066 },
		{"id" : 3, "text" : "입구에", "head" : 4, "label" : "NP_AJT", "mod" : [2], "weight" : 0.57935 },
		{"id" : 4, "text" : "있다.", "head" : -1, "label" : "VP", "mod" : [3], "weight" : 0.240739 }
	],
	"phrase_dependency" : [
	],
	"SRL" : [
	],
	"relation" : [
	],
	"SA" : [
	],
	"ZA" : [
	]
	}
 ],
 "entity" : [
 ]
}

