{"doc_id" : "935.016_A.02",
 "DCT" : "",
 "category" : "",
 "category_weight" : 0,
 "title" : {"text" : "저생전", "NE" : ""},
 "metaInfo" : { },
 "sentence" : [
	{
	"id" : 0,
	"reserve_str" : "",
	"text" : "종이를 의인화한 작품으로 『동문선』 권101에 실려 있다.",
	"morp" : [
	],
	"morp_eval" : [
	],
	"WSD" : [
	],
	"word" : [
		{"id" : 0, "text" : "종이를", "type" : "", "begin" : 0, "end" : 1},
		{"id" : 1, "text" : "의인화한", "type" : "", "begin" : 2, "end" : 5},
		{"id" : 2, "text" : "작품으로", "type" : "", "begin" : 6, "end" : 7},
		{"id" : 3, "text" : "『동문선』", "type" : "", "begin" : 8, "end" : 10},
		{"id" : 4, "text" : "권101에", "type" : "", "begin" : 11, "end" : 13},
		{"id" : 5, "text" : "실려", "type" : "", "begin" : 14, "end" : 15},
		{"id" : 6, "text" : "있다.", "type" : "", "begin" : 16, "end" : 18}
	],
	"NE" : [
	],
	"chunk" : [
	],
	"dependency" : [
		{"id" : 0, "text" : "종이를", "head" : 1, "label" : "NP_OBJ", "mod" : [], "weight" : 0.57762 },
		{"id" : 1, "text" : "의인화한", "head" : 2, "label" : "VP_MOD", "mod" : [0], "weight" : 0.9592 },
		{"id" : 2, "text" : "작품으로", "head" : 5, "label" : "NP_AJT", "mod" : [1], "weight" : 0.813301 },
		{"id" : 3, "text" : "『동문선』", "head" : 4, "label" : "NP", "mod" : [], "weight" : 0.964395 },
		{"id" : 4, "text" : "권101에", "head" : 5, "label" : "NP_AJT", "mod" : [3], "weight" : 0.571049 },
		{"id" : 5, "text" : "실려", "head" : 6, "label" : "VP", "mod" : [2, 4], "weight" : 0.588283 },
		{"id" : 6, "text" : "있다.", "head" : -1, "label" : "VP", "mod" : [5], "weight" : 0.128347 }
	],
	"phrase_dependency" : [
	],
	"SRL" : [
	],
	"relation" : [
	],
	"SA" : [
	],
	"ZA" : [
	]
	}
 ],
 "entity" : [
 ]
}

