{"doc_id" : "935.019_Q.01",
 "DCT" : "",
 "category" : "",
 "category_weight" : 0,
 "title" : {"text" : "Q19", "NE" : ""},
 "metaInfo" : { },
 "sentence" : [
	{
	"id" : 0,
	"reserve_str" : "",
	"text" : "이것은 원래 조선 시기 정삼품 이상의 벼슬아치를 가리키는 말이다.",
	"morp" : [
	],
	"morp_eval" : [
	],
	"WSD" : [
	],
	"word" : [
		{"id" : 0, "text" : "이것은", "type" : "", "begin" : 0, "end" : 1},
		{"id" : 1, "text" : "원래", "type" : "", "begin" : 2, "end" : 2},
		{"id" : 2, "text" : "조선", "type" : "", "begin" : 3, "end" : 3},
		{"id" : 3, "text" : "시기", "type" : "", "begin" : 4, "end" : 4},
		{"id" : 4, "text" : "정삼품", "type" : "", "begin" : 5, "end" : 5},
		{"id" : 5, "text" : "이상의", "type" : "", "begin" : 6, "end" : 7},
		{"id" : 6, "text" : "벼슬아치를", "type" : "", "begin" : 8, "end" : 10},
		{"id" : 7, "text" : "가리키는", "type" : "", "begin" : 11, "end" : 12},
		{"id" : 8, "text" : "말이다.", "type" : "", "begin" : 13, "end" : 16}
	],
	"NE" : [
	],
	"chunk" : [
	],
	"dependency" : [
		{"id" : 0, "text" : "이것은", "head" : 8, "label" : "NP_SBJ", "mod" : [], "weight" : 0.74655 },
		{"id" : 1, "text" : "원래", "head" : 7, "label" : "NP_AJT", "mod" : [], "weight" : 0.717005 },
		{"id" : 2, "text" : "조선", "head" : 3, "label" : "NP", "mod" : [], "weight" : 0.721958 },
		{"id" : 3, "text" : "시기", "head" : 6, "label" : "NP", "mod" : [2], "weight" : 0.693916 },
		{"id" : 4, "text" : "정삼품", "head" : 5, "label" : "NP", "mod" : [], "weight" : 0.943802 },
		{"id" : 5, "text" : "이상의", "head" : 6, "label" : "NP_MOD", "mod" : [4], "weight" : 0.793884 },
		{"id" : 6, "text" : "벼슬아치를", "head" : 7, "label" : "NP_OBJ", "mod" : [3, 5], "weight" : 0.588434 },
		{"id" : 7, "text" : "가리키는", "head" : 8, "label" : "VP_MOD", "mod" : [1, 6], "weight" : 0.534443 },
		{"id" : 8, "text" : "말이다.", "head" : -1, "label" : "VNP", "mod" : [0, 7], "weight" : 0.475898 }
	],
	"phrase_dependency" : [
	],
	"SRL" : [
	],
	"relation" : [
	],
	"SA" : [
	],
	"ZA" : [
	]
	},
	{
	"id" : 1,
	"reserve_str" : "",
	"text" : "우리가 흔히 어떤 일이 확실해서 조금도 염려가 없을 때 \"떼어놓은 이것'이라는 말을 쓰는데, 이 한자어는 무엇일까?",
	"morp" : [
	],
	"morp_eval" : [
	],
	"WSD" : [
	],
	"word" : [
		{"id" : 0, "text" : "우리가", "type" : "", "begin" : 0, "end" : 1},
		{"id" : 1, "text" : "흔히", "type" : "", "begin" : 2, "end" : 2},
		{"id" : 2, "text" : "어떤", "type" : "", "begin" : 3, "end" : 3},
		{"id" : 3, "text" : "일이", "type" : "", "begin" : 4, "end" : 5},
		{"id" : 4, "text" : "확실해서", "type" : "", "begin" : 6, "end" : 8},
		{"id" : 5, "text" : "조금도", "type" : "", "begin" : 9, "end" : 10},
		{"id" : 6, "text" : "염려가", "type" : "", "begin" : 11, "end" : 12},
		{"id" : 7, "text" : "없을", "type" : "", "begin" : 13, "end" : 14},
		{"id" : 8, "text" : "때", "type" : "", "begin" : 15, "end" : 15},
		{"id" : 9, "text" : "\"떼어놓은", "type" : "", "begin" : 16, "end" : 20},
		{"id" : 10, "text" : "이것'이라는", "type" : "", "begin" : 21, "end" : 24},
		{"id" : 11, "text" : "말을", "type" : "", "begin" : 25, "end" : 26},
		{"id" : 12, "text" : "쓰는데,", "type" : "", "begin" : 27, "end" : 29},
		{"id" : 13, "text" : "이", "type" : "", "begin" : 30, "end" : 30},
		{"id" : 14, "text" : "한자어는", "type" : "", "begin" : 31, "end" : 33},
		{"id" : 15, "text" : "무엇일까?", "type" : "", "begin" : 34, "end" : 37}
	],
	"NE" : [
	],
	"chunk" : [
	],
	"dependency" : [
		{"id" : 0, "text" : "우리가", "head" : 12, "label" : "NP_SBJ", "mod" : [], "weight" : 0.673323 },
		{"id" : 1, "text" : "흔히", "head" : 12, "label" : "AP", "mod" : [], "weight" : 0.639959 },
		{"id" : 2, "text" : "어떤", "head" : 3, "label" : "DP", "mod" : [], "weight" : 0.74121 },
		{"id" : 3, "text" : "일이", "head" : 4, "label" : "NP_SBJ", "mod" : [2], "weight" : 0.890723 },
		{"id" : 4, "text" : "확실해서", "head" : 7, "label" : "VP", "mod" : [3], "weight" : 0.589183 },
		{"id" : 5, "text" : "조금도", "head" : 7, "label" : "NP_AJT", "mod" : [], "weight" : 0.509688 },
		{"id" : 6, "text" : "염려가", "head" : 7, "label" : "NP_SBJ", "mod" : [], "weight" : 0.727781 },
		{"id" : 7, "text" : "없을", "head" : 8, "label" : "VP_MOD", "mod" : [4, 5, 6], "weight" : 0.860416 },
		{"id" : 8, "text" : "때", "head" : 12, "label" : "NP_AJT", "mod" : [7], "weight" : 0.893045 },
		{"id" : 9, "text" : "\"떼어놓은", "head" : 10, "label" : "VP_MOD", "mod" : [], "weight" : 0.582441 },
		{"id" : 10, "text" : "이것'이라는", "head" : 11, "label" : "VNP_MOD", "mod" : [9], "weight" : 0.856319 },
		{"id" : 11, "text" : "말을", "head" : 12, "label" : "NP_OBJ", "mod" : [10], "weight" : 0.710599 },
		{"id" : 12, "text" : "쓰는데,", "head" : 15, "label" : "VP", "mod" : [0, 1, 8, 11], "weight" : 0.984857 },
		{"id" : 13, "text" : "이", "head" : 14, "label" : "DP", "mod" : [], "weight" : 0.828389 },
		{"id" : 14, "text" : "한자어는", "head" : 15, "label" : "NP_SBJ", "mod" : [13], "weight" : 0.686504 },
		{"id" : 15, "text" : "무엇일까?", "head" : -1, "label" : "VNP", "mod" : [12, 14], "weight" : 0.745927 }
	],
	"phrase_dependency" : [
	],
	"SRL" : [
	],
	"relation" : [
	],
	"SA" : [
	],
	"ZA" : [
	]
	}
 ],
 "entity" : [
 ]
}

