{"doc_id" : "936.002_Q.01",
 "DCT" : "",
 "category" : "",
 "category_weight" : 0,
 "title" : {"text" : "Q2", "NE" : ""},
 "metaInfo" : { },
 "sentence" : [
	{
	"id" : 0,
	"reserve_str" : "",
	"text" : "우리나라 산 중에서 형성원인이 다른 산은 무엇일까?",
	"morp" : [
	],
	"morp_eval" : [
	],
	"WSD" : [
	],
	"word" : [
		{"id" : 0, "text" : "우리나라", "type" : "", "begin" : 0, "end" : 0},
		{"id" : 1, "text" : "산", "type" : "", "begin" : 1, "end" : 1},
		{"id" : 2, "text" : "중에서", "type" : "", "begin" : 2, "end" : 3},
		{"id" : 3, "text" : "형성원인이", "type" : "", "begin" : 4, "end" : 5},
		{"id" : 4, "text" : "다른", "type" : "", "begin" : 6, "end" : 6},
		{"id" : 5, "text" : "산은", "type" : "", "begin" : 7, "end" : 8},
		{"id" : 6, "text" : "무엇일까?", "type" : "", "begin" : 9, "end" : 12}
	],
	"NE" : [
	],
	"chunk" : [
	],
	"dependency" : [
		{"id" : 0, "text" : "우리나라", "head" : 1, "label" : "NP", "mod" : [], "weight" : 0.778544 },
		{"id" : 1, "text" : "산", "head" : 2, "label" : "NP", "mod" : [0], "weight" : 0.941981 },
		{"id" : 2, "text" : "중에서", "head" : 4, "label" : "NP_AJT", "mod" : [1], "weight" : 0.533133 },
		{"id" : 3, "text" : "형성원인이", "head" : 4, "label" : "NP_SBJ", "mod" : [], "weight" : 0.787419 },
		{"id" : 4, "text" : "다른", "head" : 5, "label" : "VP_MOD", "mod" : [2, 3], "weight" : 0.943691 },
		{"id" : 5, "text" : "산은", "head" : 6, "label" : "NP_SBJ", "mod" : [4], "weight" : 0.605358 },
		{"id" : 6, "text" : "무엇일까?", "head" : -1, "label" : "VNP", "mod" : [5], "weight" : 0.129096 }
	],
	"phrase_dependency" : [
	],
	"SRL" : [
	],
	"relation" : [
	],
	"SA" : [
	],
	"ZA" : [
	]
	}
 ],
 "entity" : [
 ]
}

