{"doc_id" : "936.008_Q.01",
 "DCT" : "",
 "category" : "",
 "category_weight" : 0,
 "title" : {"text" : "Q8", "NE" : ""},
 "metaInfo" : { },
 "sentence" : [
	{
	"id" : 0,
	"reserve_str" : "",
	"text" : "마이클 잭슨의 앨범 <Dangerous>에 수록된 노래로 기아나 병으로 죽어가는 아이들을 함께 도와주자는 내용을 담고 있는 노래는 무엇일까?",
	"morp" : [
	],
	"morp_eval" : [
	],
	"WSD" : [
	],
	"word" : [
		{"id" : 0, "text" : "마이클", "type" : "", "begin" : 0, "end" : 0},
		{"id" : 1, "text" : "잭슨의", "type" : "", "begin" : 1, "end" : 2},
		{"id" : 2, "text" : "앨범", "type" : "", "begin" : 3, "end" : 3},
		{"id" : 3, "text" : "<Dangerous>에", "type" : "", "begin" : 4, "end" : 7},
		{"id" : 4, "text" : "수록된", "type" : "", "begin" : 8, "end" : 10},
		{"id" : 5, "text" : "노래로", "type" : "", "begin" : 11, "end" : 12},
		{"id" : 6, "text" : "기아나", "type" : "", "begin" : 13, "end" : 13},
		{"id" : 7, "text" : "병으로", "type" : "", "begin" : 14, "end" : 15},
		{"id" : 8, "text" : "죽어가는", "type" : "", "begin" : 16, "end" : 19},
		{"id" : 9, "text" : "아이들을", "type" : "", "begin" : 20, "end" : 22},
		{"id" : 10, "text" : "함께", "type" : "", "begin" : 23, "end" : 23},
		{"id" : 11, "text" : "도와주자는", "type" : "", "begin" : 24, "end" : 25},
		{"id" : 12, "text" : "내용을", "type" : "", "begin" : 26, "end" : 27},
		{"id" : 13, "text" : "담고", "type" : "", "begin" : 28, "end" : 29},
		{"id" : 14, "text" : "있는", "type" : "", "begin" : 30, "end" : 31},
		{"id" : 15, "text" : "노래는", "type" : "", "begin" : 32, "end" : 33},
		{"id" : 16, "text" : "무엇일까?", "type" : "", "begin" : 34, "end" : 37}
	],
	"NE" : [
	],
	"chunk" : [
	],
	"dependency" : [
		{"id" : 0, "text" : "마이클", "head" : 1, "label" : "NP", "mod" : [], "weight" : 0.59975 },
		{"id" : 1, "text" : "잭슨의", "head" : 2, "label" : "NP_MOD", "mod" : [0], "weight" : 0.522262 },
		{"id" : 2, "text" : "앨범", "head" : 3, "label" : "NP", "mod" : [1], "weight" : 0.76467 },
		{"id" : 3, "text" : "<Dangerous>에", "head" : 4, "label" : "NP_AJT", "mod" : [2], "weight" : 0.685979 },
		{"id" : 4, "text" : "수록된", "head" : 5, "label" : "VP_MOD", "mod" : [3], "weight" : 0.727758 },
		{"id" : 5, "text" : "노래로", "head" : 15, "label" : "NP_AJT", "mod" : [4], "weight" : 0.576407 },
		{"id" : 6, "text" : "기아나", "head" : 7, "label" : "NP", "mod" : [], "weight" : 0.754109 },
		{"id" : 7, "text" : "병으로", "head" : 8, "label" : "NP_AJT", "mod" : [6], "weight" : 0.623172 },
		{"id" : 8, "text" : "죽어가는", "head" : 9, "label" : "VP_MOD", "mod" : [7], "weight" : 0.784736 },
		{"id" : 9, "text" : "아이들을", "head" : 11, "label" : "NP_OBJ", "mod" : [8], "weight" : 0.729404 },
		{"id" : 10, "text" : "함께", "head" : 11, "label" : "AP", "mod" : [], "weight" : 0.848435 },
		{"id" : 11, "text" : "도와주자는", "head" : 12, "label" : "VP_MOD", "mod" : [9, 10], "weight" : 0.672149 },
		{"id" : 12, "text" : "내용을", "head" : 13, "label" : "NP_OBJ", "mod" : [11], "weight" : 0.866613 },
		{"id" : 13, "text" : "담고", "head" : 14, "label" : "VP", "mod" : [12], "weight" : 0.887045 },
		{"id" : 14, "text" : "있는", "head" : 15, "label" : "VP_MOD", "mod" : [13], "weight" : 0.811714 },
		{"id" : 15, "text" : "노래는", "head" : 16, "label" : "NP_SBJ", "mod" : [5, 14], "weight" : 0.642829 },
		{"id" : 16, "text" : "무엇일까?", "head" : -1, "label" : "VNP", "mod" : [15], "weight" : 0.332038 }
	],
	"phrase_dependency" : [
	],
	"SRL" : [
	],
	"relation" : [
	],
	"SA" : [
	],
	"ZA" : [
	]
	}
 ],
 "entity" : [
 ]
}

