{"doc_id" : "936.038_A.03",
 "DCT" : "",
 "category" : "",
 "category_weight" : 0,
 "title" : {"text" : "토문강", "NE" : ""},
 "metaInfo" : { },
 "sentence" : [
	{
	"id" : 0,
	"reserve_str" : "",
	"text" : "백두산 천지(天池)에서 발원하여 북으로 흐르는 송화(松花, 쑹화)강의 한 지류.",
	"morp" : [
	],
	"morp_eval" : [
	],
	"WSD" : [
	],
	"word" : [
		{"id" : 0, "text" : "백두산", "type" : "", "begin" : 0, "end" : 1},
		{"id" : 1, "text" : "천지(天池)에서", "type" : "", "begin" : 2, "end" : 6},
		{"id" : 2, "text" : "발원하여", "type" : "", "begin" : 7, "end" : 9},
		{"id" : 3, "text" : "북으로", "type" : "", "begin" : 10, "end" : 11},
		{"id" : 4, "text" : "흐르는", "type" : "", "begin" : 12, "end" : 13},
		{"id" : 5, "text" : "송화(松花,", "type" : "", "begin" : 14, "end" : 17},
		{"id" : 6, "text" : "쑹화)강의", "type" : "", "begin" : 18, "end" : 21},
		{"id" : 7, "text" : "한", "type" : "", "begin" : 22, "end" : 22},
		{"id" : 8, "text" : "지류.", "type" : "", "begin" : 23, "end" : 24}
	],
	"NE" : [
	],
	"chunk" : [
	],
	"dependency" : [
		{"id" : 0, "text" : "백두산", "head" : 1, "label" : "NP", "mod" : [], "weight" : 0.748872 },
		{"id" : 1, "text" : "천지(天池)에서", "head" : 2, "label" : "NP_AJT", "mod" : [0], "weight" : 0.696931 },
		{"id" : 2, "text" : "발원하여", "head" : 4, "label" : "VP", "mod" : [1], "weight" : 0.776322 },
		{"id" : 3, "text" : "북으로", "head" : 4, "label" : "NP_AJT", "mod" : [], "weight" : 0.898531 },
		{"id" : 4, "text" : "흐르는", "head" : 6, "label" : "VP_MOD", "mod" : [2, 3], "weight" : 0.643516 },
		{"id" : 5, "text" : "송화(松花,", "head" : 6, "label" : "NP", "mod" : [], "weight" : 0.674986 },
		{"id" : 6, "text" : "쑹화)강의", "head" : 8, "label" : "NP_MOD", "mod" : [4, 5], "weight" : 0.448566 },
		{"id" : 7, "text" : "한", "head" : 8, "label" : "DP", "mod" : [], "weight" : 0.443699 },
		{"id" : 8, "text" : "지류.", "head" : -1, "label" : "NP", "mod" : [6, 7], "weight" : 0.176577 }
	],
	"phrase_dependency" : [
	],
	"SRL" : [
	],
	"relation" : [
	],
	"SA" : [
	],
	"ZA" : [
	]
	},
	{
	"id" : 1,
	"reserve_str" : "",
	"text" : "1712년(숙종 38)에 세워진 백두산 정계비의 비문에 중국(淸)과 조선의 국경은 <서쪽은 압록강으로, 동쪽은 토문강으로써 분계선을 삼는다>고 새겨져 있다.",
	"morp" : [
	],
	"morp_eval" : [
	],
	"WSD" : [
	],
	"word" : [
		{"id" : 0, "text" : "1712년(숙종", "type" : "", "begin" : 0, "end" : 3},
		{"id" : 1, "text" : "38)에", "type" : "", "begin" : 4, "end" : 6},
		{"id" : 2, "text" : "세워진", "type" : "", "begin" : 7, "end" : 10},
		{"id" : 3, "text" : "백두산", "type" : "", "begin" : 11, "end" : 12},
		{"id" : 4, "text" : "정계비의", "type" : "", "begin" : 13, "end" : 15},
		{"id" : 5, "text" : "비문에", "type" : "", "begin" : 16, "end" : 17},
		{"id" : 6, "text" : "중국(淸)과", "type" : "", "begin" : 18, "end" : 22},
		{"id" : 7, "text" : "조선의", "type" : "", "begin" : 23, "end" : 24},
		{"id" : 8, "text" : "국경은", "type" : "", "begin" : 25, "end" : 26},
		{"id" : 9, "text" : "<서쪽은", "type" : "", "begin" : 27, "end" : 29},
		{"id" : 10, "text" : "압록강으로,", "type" : "", "begin" : 30, "end" : 33},
		{"id" : 11, "text" : "동쪽은", "type" : "", "begin" : 34, "end" : 35},
		{"id" : 12, "text" : "토문강으로써", "type" : "", "begin" : 36, "end" : 37},
		{"id" : 13, "text" : "분계선을", "type" : "", "begin" : 38, "end" : 40},
		{"id" : 14, "text" : "삼는다>고", "type" : "", "begin" : 41, "end" : 44},
		{"id" : 15, "text" : "새겨져", "type" : "", "begin" : 45, "end" : 48},
		{"id" : 16, "text" : "있다.", "type" : "", "begin" : 49, "end" : 51}
	],
	"NE" : [
	],
	"chunk" : [
	],
	"dependency" : [
		{"id" : 0, "text" : "1712년(숙종", "head" : 1, "label" : "NP", "mod" : [], "weight" : 0.728081 },
		{"id" : 1, "text" : "38)에", "head" : 2, "label" : "NP_AJT", "mod" : [0], "weight" : 0.834061 },
		{"id" : 2, "text" : "세워진", "head" : 4, "label" : "VP_MOD", "mod" : [1], "weight" : 0.727311 },
		{"id" : 3, "text" : "백두산", "head" : 4, "label" : "NP", "mod" : [], "weight" : 0.651136 },
		{"id" : 4, "text" : "정계비의", "head" : 5, "label" : "NP_MOD", "mod" : [2, 3], "weight" : 0.917427 },
		{"id" : 5, "text" : "비문에", "head" : 15, "label" : "NP_AJT", "mod" : [4], "weight" : 0.827668 },
		{"id" : 6, "text" : "중국(淸)과", "head" : 7, "label" : "NP_CNJ", "mod" : [], "weight" : 0.57522 },
		{"id" : 7, "text" : "조선의", "head" : 8, "label" : "NP_MOD", "mod" : [6], "weight" : 0.891631 },
		{"id" : 8, "text" : "국경은", "head" : 14, "label" : "NP_SBJ", "mod" : [7], "weight" : 0.617272 },
		{"id" : 9, "text" : "<서쪽은", "head" : 10, "label" : "NP_SBJ", "mod" : [], "weight" : 0.669816 },
		{"id" : 10, "text" : "압록강으로,", "head" : 14, "label" : "NP_AJT", "mod" : [9], "weight" : 0.870477 },
		{"id" : 11, "text" : "동쪽은", "head" : 12, "label" : "NP_SBJ", "mod" : [], "weight" : 0.82996 },
		{"id" : 12, "text" : "토문강으로써", "head" : 14, "label" : "NP_AJT", "mod" : [11], "weight" : 0.841323 },
		{"id" : 13, "text" : "분계선을", "head" : 14, "label" : "NP_OBJ", "mod" : [], "weight" : 0.692033 },
		{"id" : 14, "text" : "삼는다>고", "head" : 15, "label" : "VP", "mod" : [8, 10, 12, 13], "weight" : 0.446399 },
		{"id" : 15, "text" : "새겨져", "head" : 16, "label" : "VP", "mod" : [5, 14], "weight" : 0.501355 },
		{"id" : 16, "text" : "있다.", "head" : -1, "label" : "VP", "mod" : [15], "weight" : 0.356661 }
	],
	"phrase_dependency" : [
	],
	"SRL" : [
	],
	"relation" : [
	],
	"SA" : [
	],
	"ZA" : [
	]
	},
	{
	"id" : 2,
	"reserve_str" : "",
	"text" : "간도는 토문강과 두만강 사이, 곧 토문강 동남에 있는 땅이다.",
	"morp" : [
	],
	"morp_eval" : [
	],
	"WSD" : [
	],
	"word" : [
		{"id" : 0, "text" : "간도는", "type" : "", "begin" : 0, "end" : 1},
		{"id" : 1, "text" : "토문강과", "type" : "", "begin" : 2, "end" : 3},
		{"id" : 2, "text" : "두만강", "type" : "", "begin" : 4, "end" : 5},
		{"id" : 3, "text" : "사이,", "type" : "", "begin" : 6, "end" : 7},
		{"id" : 4, "text" : "곧", "type" : "", "begin" : 8, "end" : 8},
		{"id" : 5, "text" : "토문강", "type" : "", "begin" : 9, "end" : 9},
		{"id" : 6, "text" : "동남에", "type" : "", "begin" : 10, "end" : 11},
		{"id" : 7, "text" : "있는", "type" : "", "begin" : 12, "end" : 13},
		{"id" : 8, "text" : "땅이다.", "type" : "", "begin" : 14, "end" : 17}
	],
	"NE" : [
	],
	"chunk" : [
	],
	"dependency" : [
		{"id" : 0, "text" : "간도는", "head" : 8, "label" : "NP_SBJ", "mod" : [], "weight" : 0.504644 },
		{"id" : 1, "text" : "토문강과", "head" : 2, "label" : "NP_CNJ", "mod" : [], "weight" : 0.632695 },
		{"id" : 2, "text" : "두만강", "head" : 3, "label" : "NP", "mod" : [1], "weight" : 0.624111 },
		{"id" : 3, "text" : "사이,", "head" : 6, "label" : "NP_CNJ", "mod" : [2], "weight" : 0.496665 },
		{"id" : 4, "text" : "곧", "head" : 6, "label" : "AP", "mod" : [], "weight" : 0.903373 },
		{"id" : 5, "text" : "토문강", "head" : 6, "label" : "NP", "mod" : [], "weight" : 0.942196 },
		{"id" : 6, "text" : "동남에", "head" : 7, "label" : "NP_AJT", "mod" : [3, 4, 5], "weight" : 0.499862 },
		{"id" : 7, "text" : "있는", "head" : 8, "label" : "VP_MOD", "mod" : [6], "weight" : 0.533689 },
		{"id" : 8, "text" : "땅이다.", "head" : -1, "label" : "VNP", "mod" : [0, 7], "weight" : 0.169707 }
	],
	"phrase_dependency" : [
	],
	"SRL" : [
	],
	"relation" : [
	],
	"SA" : [
	],
	"ZA" : [
	]
	}
 ],
 "entity" : [
 ]
}

