{"doc_id" : "936.023_A.01",
 "DCT" : "",
 "category" : "",
 "category_weight" : 0,
 "title" : {"text" : "팔관회", "NE" : ""},
 "metaInfo" : { },
 "sentence" : [
	{
	"id" : 0,
	"reserve_str" : "",
	"text" : "다만 팔관회 때는 지방의 장관들이 글을 올려 하례하고, 송(宋) 상인이나 여진(女眞) 및 탐라(耽羅)의 사절이 축하의 선물을 바치고 무역을 크게 행하는 국제적 행사였다는 점에서 차이가 있다.",
	"morp" : [
	],
	"morp_eval" : [
	],
	"WSD" : [
	],
	"word" : [
		{"id" : 0, "text" : "다만", "type" : "", "begin" : 0, "end" : 0},
		{"id" : 1, "text" : "팔관회", "type" : "", "begin" : 1, "end" : 1},
		{"id" : 2, "text" : "때는", "type" : "", "begin" : 2, "end" : 3},
		{"id" : 3, "text" : "지방의", "type" : "", "begin" : 4, "end" : 5},
		{"id" : 4, "text" : "장관들이", "type" : "", "begin" : 6, "end" : 8},
		{"id" : 5, "text" : "글을", "type" : "", "begin" : 9, "end" : 10},
		{"id" : 6, "text" : "올려", "type" : "", "begin" : 11, "end" : 12},
		{"id" : 7, "text" : "하례하고,", "type" : "", "begin" : 13, "end" : 16},
		{"id" : 8, "text" : "송(宋)", "type" : "", "begin" : 17, "end" : 20},
		{"id" : 9, "text" : "상인이나", "type" : "", "begin" : 21, "end" : 22},
		{"id" : 10, "text" : "여진(女眞)", "type" : "", "begin" : 23, "end" : 26},
		{"id" : 11, "text" : "및", "type" : "", "begin" : 27, "end" : 27},
		{"id" : 12, "text" : "탐라(耽羅)의", "type" : "", "begin" : 28, "end" : 32},
		{"id" : 13, "text" : "사절이", "type" : "", "begin" : 33, "end" : 34},
		{"id" : 14, "text" : "축하의", "type" : "", "begin" : 35, "end" : 36},
		{"id" : 15, "text" : "선물을", "type" : "", "begin" : 37, "end" : 38},
		{"id" : 16, "text" : "바치고", "type" : "", "begin" : 39, "end" : 40},
		{"id" : 17, "text" : "무역을", "type" : "", "begin" : 41, "end" : 42},
		{"id" : 18, "text" : "크게", "type" : "", "begin" : 43, "end" : 44},
		{"id" : 19, "text" : "행하는", "type" : "", "begin" : 45, "end" : 46},
		{"id" : 20, "text" : "국제적", "type" : "", "begin" : 47, "end" : 48},
		{"id" : 21, "text" : "행사였다는", "type" : "", "begin" : 49, "end" : 52},
		{"id" : 22, "text" : "점에서", "type" : "", "begin" : 53, "end" : 54},
		{"id" : 23, "text" : "차이가", "type" : "", "begin" : 55, "end" : 56},
		{"id" : 24, "text" : "있다.", "type" : "", "begin" : 57, "end" : 59}
	],
	"NE" : [
	],
	"chunk" : [
	],
	"dependency" : [
		{"id" : 0, "text" : "다만", "head" : 6, "label" : "AP", "mod" : [], "weight" : 0.761582 },
		{"id" : 1, "text" : "팔관회", "head" : 2, "label" : "NP", "mod" : [], "weight" : 0.978159 },
		{"id" : 2, "text" : "때는", "head" : 6, "label" : "NP_AJT", "mod" : [1], "weight" : 0.74007 },
		{"id" : 3, "text" : "지방의", "head" : 4, "label" : "NP_MOD", "mod" : [], "weight" : 0.91268 },
		{"id" : 4, "text" : "장관들이", "head" : 6, "label" : "NP_SBJ", "mod" : [3], "weight" : 0.983589 },
		{"id" : 5, "text" : "글을", "head" : 6, "label" : "NP_OBJ", "mod" : [], "weight" : 0.797359 },
		{"id" : 6, "text" : "올려", "head" : 7, "label" : "VP", "mod" : [0, 2, 4, 5], "weight" : 0.993018 },
		{"id" : 7, "text" : "하례하고,", "head" : 16, "label" : "VP", "mod" : [6], "weight" : 0.539482 },
		{"id" : 8, "text" : "송(宋)", "head" : 9, "label" : "NP", "mod" : [], "weight" : 0.559875 },
		{"id" : 9, "text" : "상인이나", "head" : 13, "label" : "NP_CNJ", "mod" : [8], "weight" : 0.589708 },
		{"id" : 10, "text" : "여진(女眞)", "head" : 12, "label" : "NP_CNJ", "mod" : [], "weight" : 0.979373 },
		{"id" : 11, "text" : "및", "head" : 12, "label" : "AP", "mod" : [], "weight" : 0.504205 },
		{"id" : 12, "text" : "탐라(耽羅)의", "head" : 13, "label" : "NP_MOD", "mod" : [10, 11], "weight" : 0.841754 },
		{"id" : 13, "text" : "사절이", "head" : 16, "label" : "NP_SBJ", "mod" : [9, 12], "weight" : 0.637294 },
		{"id" : 14, "text" : "축하의", "head" : 15, "label" : "NP_MOD", "mod" : [], "weight" : 0.77128 },
		{"id" : 15, "text" : "선물을", "head" : 16, "label" : "NP_OBJ", "mod" : [14], "weight" : 0.874007 },
		{"id" : 16, "text" : "바치고", "head" : 19, "label" : "VP", "mod" : [7, 13, 15], "weight" : 0.960017 },
		{"id" : 17, "text" : "무역을", "head" : 19, "label" : "NP_OBJ", "mod" : [], "weight" : 0.968407 },
		{"id" : 18, "text" : "크게", "head" : 19, "label" : "VP_AJT", "mod" : [], "weight" : 0.763538 },
		{"id" : 19, "text" : "행하는", "head" : 21, "label" : "VP_MOD", "mod" : [16, 17, 18], "weight" : 0.930623 },
		{"id" : 20, "text" : "국제적", "head" : 21, "label" : "NP", "mod" : [], "weight" : 0.565716 },
		{"id" : 21, "text" : "행사였다는", "head" : 22, "label" : "VNP_MOD", "mod" : [19, 20], "weight" : 0.919624 },
		{"id" : 22, "text" : "점에서", "head" : 24, "label" : "NP_AJT", "mod" : [21], "weight" : 0.720795 },
		{"id" : 23, "text" : "차이가", "head" : 24, "label" : "NP_SBJ", "mod" : [], "weight" : 0.569921 },
		{"id" : 24, "text" : "있다.", "head" : -1, "label" : "VP", "mod" : [22, 23], "weight" : 0.138077 }
	],
	"phrase_dependency" : [
	],
	"SRL" : [
	],
	"relation" : [
	],
	"SA" : [
	],
	"ZA" : [
	]
	}
 ],
 "entity" : [
 ]
}

