{"doc_id" : "936.023_Q.01",
 "DCT" : "",
 "category" : "",
 "category_weight" : 0,
 "title" : {"text" : "Q23", "NE" : ""},
 "metaInfo" : { },
 "sentence" : [
	{
	"id" : 0,
	"reserve_str" : "",
	"text" : "이 행사는 고려 시기 도교, 토착 신앙, 불교가 어우러진 행사로 여러 신에게 제사를 지내며 국가와 왕실의 태평을 기원했다.",
	"morp" : [
	],
	"morp_eval" : [
	],
	"WSD" : [
	],
	"word" : [
		{"id" : 0, "text" : "이", "type" : "", "begin" : 0, "end" : 0},
		{"id" : 1, "text" : "행사는", "type" : "", "begin" : 1, "end" : 2},
		{"id" : 2, "text" : "고려", "type" : "", "begin" : 3, "end" : 3},
		{"id" : 3, "text" : "시기", "type" : "", "begin" : 4, "end" : 4},
		{"id" : 4, "text" : "도교,", "type" : "", "begin" : 5, "end" : 6},
		{"id" : 5, "text" : "토착", "type" : "", "begin" : 7, "end" : 7},
		{"id" : 6, "text" : "신앙,", "type" : "", "begin" : 8, "end" : 9},
		{"id" : 7, "text" : "불교가", "type" : "", "begin" : 10, "end" : 11},
		{"id" : 8, "text" : "어우러진", "type" : "", "begin" : 12, "end" : 13},
		{"id" : 9, "text" : "행사로", "type" : "", "begin" : 14, "end" : 15},
		{"id" : 10, "text" : "여러", "type" : "", "begin" : 16, "end" : 16},
		{"id" : 11, "text" : "신에게", "type" : "", "begin" : 17, "end" : 18},
		{"id" : 12, "text" : "제사를", "type" : "", "begin" : 19, "end" : 20},
		{"id" : 13, "text" : "지내며", "type" : "", "begin" : 21, "end" : 22},
		{"id" : 14, "text" : "국가와", "type" : "", "begin" : 23, "end" : 24},
		{"id" : 15, "text" : "왕실의", "type" : "", "begin" : 25, "end" : 26},
		{"id" : 16, "text" : "태평을", "type" : "", "begin" : 27, "end" : 28},
		{"id" : 17, "text" : "기원했다.", "type" : "", "begin" : 29, "end" : 33}
	],
	"NE" : [
	],
	"chunk" : [
	],
	"dependency" : [
		{"id" : 0, "text" : "이", "head" : 1, "label" : "DP", "mod" : [], "weight" : 0.956893 },
		{"id" : 1, "text" : "행사는", "head" : 9, "label" : "NP_SBJ", "mod" : [0], "weight" : 0.78411 },
		{"id" : 2, "text" : "고려", "head" : 3, "label" : "NP", "mod" : [], "weight" : 0.704797 },
		{"id" : 3, "text" : "시기", "head" : 9, "label" : "NP", "mod" : [2], "weight" : 0.76855 },
		{"id" : 4, "text" : "도교,", "head" : 7, "label" : "NP_CNJ", "mod" : [], "weight" : 0.632745 },
		{"id" : 5, "text" : "토착", "head" : 6, "label" : "NP", "mod" : [], "weight" : 0.991905 },
		{"id" : 6, "text" : "신앙,", "head" : 7, "label" : "NP_CNJ", "mod" : [5], "weight" : 0.572574 },
		{"id" : 7, "text" : "불교가", "head" : 8, "label" : "NP_SBJ", "mod" : [4, 6], "weight" : 0.81248 },
		{"id" : 8, "text" : "어우러진", "head" : 9, "label" : "VP_MOD", "mod" : [7], "weight" : 0.908667 },
		{"id" : 9, "text" : "행사로", "head" : 13, "label" : "NP_AJT", "mod" : [1, 3, 8], "weight" : 0.840157 },
		{"id" : 10, "text" : "여러", "head" : 11, "label" : "DP", "mod" : [], "weight" : 0.812537 },
		{"id" : 11, "text" : "신에게", "head" : 13, "label" : "NP_AJT", "mod" : [10], "weight" : 0.758706 },
		{"id" : 12, "text" : "제사를", "head" : 13, "label" : "NP_OBJ", "mod" : [], "weight" : 0.560368 },
		{"id" : 13, "text" : "지내며", "head" : 17, "label" : "VP", "mod" : [9, 11, 12], "weight" : 0.684233 },
		{"id" : 14, "text" : "국가와", "head" : 15, "label" : "NP_CNJ", "mod" : [], "weight" : 0.86321 },
		{"id" : 15, "text" : "왕실의", "head" : 16, "label" : "NP_MOD", "mod" : [14], "weight" : 0.93646 },
		{"id" : 16, "text" : "태평을", "head" : 17, "label" : "NP_OBJ", "mod" : [15], "weight" : 0.552627 },
		{"id" : 17, "text" : "기원했다.", "head" : -1, "label" : "VP", "mod" : [13, 16], "weight" : 0.740773 }
	],
	"phrase_dependency" : [
	],
	"SRL" : [
	],
	"relation" : [
	],
	"SA" : [
	],
	"ZA" : [
	]
	},
	{
	"id" : 1,
	"reserve_str" : "",
	"text" : "행사가 열릴 때면 송, 여진, 일본 등 외국 사신들도 방문해 각종 물품을 바치는 등 활발한 교류가 이뤄졌는데 고려의 개방성을 보여주는 이 행사는 무엇일까",
	"morp" : [
	],
	"morp_eval" : [
	],
	"WSD" : [
	],
	"word" : [
		{"id" : 0, "text" : "행사가", "type" : "", "begin" : 0, "end" : 1},
		{"id" : 1, "text" : "열릴", "type" : "", "begin" : 2, "end" : 3},
		{"id" : 2, "text" : "때면", "type" : "", "begin" : 4, "end" : 6},
		{"id" : 3, "text" : "송,", "type" : "", "begin" : 7, "end" : 8},
		{"id" : 4, "text" : "여진,", "type" : "", "begin" : 9, "end" : 10},
		{"id" : 5, "text" : "일본", "type" : "", "begin" : 11, "end" : 11},
		{"id" : 6, "text" : "등", "type" : "", "begin" : 12, "end" : 12},
		{"id" : 7, "text" : "외국", "type" : "", "begin" : 13, "end" : 13},
		{"id" : 8, "text" : "사신들도", "type" : "", "begin" : 14, "end" : 16},
		{"id" : 9, "text" : "방문해", "type" : "", "begin" : 17, "end" : 19},
		{"id" : 10, "text" : "각종", "type" : "", "begin" : 20, "end" : 20},
		{"id" : 11, "text" : "물품을", "type" : "", "begin" : 21, "end" : 22},
		{"id" : 12, "text" : "바치는", "type" : "", "begin" : 23, "end" : 24},
		{"id" : 13, "text" : "등", "type" : "", "begin" : 25, "end" : 25},
		{"id" : 14, "text" : "활발한", "type" : "", "begin" : 26, "end" : 28},
		{"id" : 15, "text" : "교류가", "type" : "", "begin" : 29, "end" : 30},
		{"id" : 16, "text" : "이뤄졌는데", "type" : "", "begin" : 31, "end" : 33},
		{"id" : 17, "text" : "고려의", "type" : "", "begin" : 34, "end" : 35},
		{"id" : 18, "text" : "개방성을", "type" : "", "begin" : 36, "end" : 38},
		{"id" : 19, "text" : "보여주는", "type" : "", "begin" : 39, "end" : 42},
		{"id" : 20, "text" : "이", "type" : "", "begin" : 43, "end" : 43},
		{"id" : 21, "text" : "행사는", "type" : "", "begin" : 44, "end" : 45},
		{"id" : 22, "text" : "무엇일까", "type" : "", "begin" : 46, "end" : 48}
	],
	"NE" : [
	],
	"chunk" : [
	],
	"dependency" : [
		{"id" : 0, "text" : "행사가", "head" : 1, "label" : "NP_SBJ", "mod" : [], "weight" : 0.583446 },
		{"id" : 1, "text" : "열릴", "head" : 2, "label" : "VP_MOD", "mod" : [0], "weight" : 0.752438 },
		{"id" : 2, "text" : "때면", "head" : 9, "label" : "VNP", "mod" : [1], "weight" : 0.547367 },
		{"id" : 3, "text" : "송,", "head" : 5, "label" : "NP_CNJ", "mod" : [], "weight" : 0.976566 },
		{"id" : 4, "text" : "여진,", "head" : 5, "label" : "NP_CNJ", "mod" : [], "weight" : 0.803072 },
		{"id" : 5, "text" : "일본", "head" : 6, "label" : "NP", "mod" : [3, 4], "weight" : 0.969193 },
		{"id" : 6, "text" : "등", "head" : 8, "label" : "NP", "mod" : [5], "weight" : 0.693795 },
		{"id" : 7, "text" : "외국", "head" : 8, "label" : "NP", "mod" : [], "weight" : 0.762066 },
		{"id" : 8, "text" : "사신들도", "head" : 9, "label" : "NP_OBJ", "mod" : [6, 7], "weight" : 0.578257 },
		{"id" : 9, "text" : "방문해", "head" : 12, "label" : "VP", "mod" : [2, 8], "weight" : 0.755654 },
		{"id" : 10, "text" : "각종", "head" : 11, "label" : "NP", "mod" : [], "weight" : 0.7013 },
		{"id" : 11, "text" : "물품을", "head" : 12, "label" : "NP_OBJ", "mod" : [10], "weight" : 0.815448 },
		{"id" : 12, "text" : "바치는", "head" : 13, "label" : "VP_MOD", "mod" : [9, 11], "weight" : 0.999639 },
		{"id" : 13, "text" : "등", "head" : 16, "label" : "NP_AJT", "mod" : [12], "weight" : 0.767615 },
		{"id" : 14, "text" : "활발한", "head" : 15, "label" : "VP_MOD", "mod" : [], "weight" : 0.837021 },
		{"id" : 15, "text" : "교류가", "head" : 16, "label" : "NP_SBJ", "mod" : [14], "weight" : 0.808431 },
		{"id" : 16, "text" : "이뤄졌는데", "head" : 19, "label" : "VP", "mod" : [13, 15], "weight" : 0.548635 },
		{"id" : 17, "text" : "고려의", "head" : 18, "label" : "NP_MOD", "mod" : [], "weight" : 0.816476 },
		{"id" : 18, "text" : "개방성을", "head" : 19, "label" : "NP_OBJ", "mod" : [17], "weight" : 0.986904 },
		{"id" : 19, "text" : "보여주는", "head" : 21, "label" : "VP_MOD", "mod" : [16, 18], "weight" : 0.59449 },
		{"id" : 20, "text" : "이", "head" : 21, "label" : "DP", "mod" : [], "weight" : 0.6694 },
		{"id" : 21, "text" : "행사는", "head" : 22, "label" : "NP_SBJ", "mod" : [19, 20], "weight" : 0.704956 },
		{"id" : 22, "text" : "무엇일까", "head" : -1, "label" : "VNP", "mod" : [21], "weight" : 0.126694 }
	],
	"phrase_dependency" : [
	],
	"SRL" : [
	],
	"relation" : [
	],
	"SA" : [
	],
	"ZA" : [
	]
	}
 ],
 "entity" : [
 ]
}

