{"doc_id" : "",
 "DCT" : "",
 "category" : "",
 "category_weight" : 0,
 "title" : {"text" : "Q29", "NE" : ""},
 "metaInfo" : { },
 "sentence" : [
	{
	"id" : 0,
	"reserve_str" : "",
	"text" : "보통 각 당의 총수가 만나는 것을 '이것' 회담이라고 한다.",
	"morp" : [
	],
	"morp_eval" : [
	],
	"WSD" : [
	],
	"word" : [
		{"id" : 0, "text" : "보통", "type" : "", "begin" : 0, "end" : 0},
		{"id" : 1, "text" : "각", "type" : "", "begin" : 1, "end" : 1},
		{"id" : 2, "text" : "당의", "type" : "", "begin" : 2, "end" : 3},
		{"id" : 3, "text" : "총수가", "type" : "", "begin" : 4, "end" : 5},
		{"id" : 4, "text" : "만나는", "type" : "", "begin" : 6, "end" : 7},
		{"id" : 5, "text" : "것을", "type" : "", "begin" : 8, "end" : 9},
		{"id" : 6, "text" : "'이것'", "type" : "", "begin" : 10, "end" : 12},
		{"id" : 7, "text" : "회담이라고", "type" : "", "begin" : 13, "end" : 15},
		{"id" : 8, "text" : "한다.", "type" : "", "begin" : 16, "end" : 18}
	],
	"NE" : [
	],
	"chunk" : [
	],
	"dependency" : [
		{"id" : 0, "text" : "보통", "head" : 8, "label" : "NP_AJT", "mod" : [], "weight" : 0.576072 },
		{"id" : 1, "text" : "각", "head" : 2, "label" : "DP", "mod" : [], "weight" : 0.828434 },
		{"id" : 2, "text" : "당의", "head" : 3, "label" : "NP_MOD", "mod" : [1], "weight" : 0.796169 },
		{"id" : 3, "text" : "총수가", "head" : 4, "label" : "NP_SBJ", "mod" : [2], "weight" : 0.915842 },
		{"id" : 4, "text" : "만나는", "head" : 5, "label" : "VP_MOD", "mod" : [3], "weight" : 0.820709 },
		{"id" : 5, "text" : "것을", "head" : 7, "label" : "NP_OBJ", "mod" : [4], "weight" : 0.725706 },
		{"id" : 6, "text" : "'이것'", "head" : 7, "label" : "NP", "mod" : [], "weight" : 0.595886 },
		{"id" : 7, "text" : "회담이라고", "head" : 8, "label" : "VNP_CMP", "mod" : [5, 6], "weight" : 0.485777 },
		{"id" : 8, "text" : "한다.", "head" : -1, "label" : "VP", "mod" : [0, 7], "weight" : 0.417563 }
	],
	"phrase_dependency" : [
	],
	"SRL" : [
	],
	"relation" : [
	],
	"SA" : [
	],
	"ZA" : [
	]
	},
	{
	"id" : 1,
	"reserve_str" : "",
	"text" : " 본래 이것의 의미는 옷깃과 소매로, 옷깃과 소매는 남의 눈에 잘 띈다는 이유에서 수많은 사람 중 특출난 사람 즉 우두머리를 일컫는 말인데, 이것은 무엇일까?",
	"morp" : [
	],
	"morp_eval" : [
	],
	"WSD" : [
	],
	"word" : [
		{"id" : 0, "text" : "본래", "type" : "", "begin" : 0, "end" : 0},
		{"id" : 1, "text" : "이것의", "type" : "", "begin" : 1, "end" : 2},
		{"id" : 2, "text" : "의미는", "type" : "", "begin" : 3, "end" : 4},
		{"id" : 3, "text" : "옷깃과", "type" : "", "begin" : 5, "end" : 6},
		{"id" : 4, "text" : "소매로,", "type" : "", "begin" : 7, "end" : 9},
		{"id" : 5, "text" : "옷깃과", "type" : "", "begin" : 10, "end" : 11},
		{"id" : 6, "text" : "소매는", "type" : "", "begin" : 12, "end" : 13},
		{"id" : 7, "text" : "남의", "type" : "", "begin" : 14, "end" : 15},
		{"id" : 8, "text" : "눈에", "type" : "", "begin" : 16, "end" : 17},
		{"id" : 9, "text" : "잘", "type" : "", "begin" : 18, "end" : 18},
		{"id" : 10, "text" : "띈다는", "type" : "", "begin" : 19, "end" : 20},
		{"id" : 11, "text" : "이유에서", "type" : "", "begin" : 21, "end" : 22},
		{"id" : 12, "text" : "수많은", "type" : "", "begin" : 23, "end" : 24},
		{"id" : 13, "text" : "사람", "type" : "", "begin" : 25, "end" : 25},
		{"id" : 14, "text" : "중", "type" : "", "begin" : 26, "end" : 26},
		{"id" : 15, "text" : "특출난", "type" : "", "begin" : 27, "end" : 29},
		{"id" : 16, "text" : "사람", "type" : "", "begin" : 30, "end" : 30},
		{"id" : 17, "text" : "즉", "type" : "", "begin" : 31, "end" : 31},
		{"id" : 18, "text" : "우두머리를", "type" : "", "begin" : 32, "end" : 33},
		{"id" : 19, "text" : "일컫는", "type" : "", "begin" : 34, "end" : 35},
		{"id" : 20, "text" : "말인데,", "type" : "", "begin" : 36, "end" : 39},
		{"id" : 21, "text" : "이것은", "type" : "", "begin" : 40, "end" : 41},
		{"id" : 22, "text" : "무엇일까?", "type" : "", "begin" : 42, "end" : 45}
	],
	"NE" : [
	],
	"chunk" : [
	],
	"dependency" : [
		{"id" : 0, "text" : "본래", "head" : 4, "label" : "NP_AJT", "mod" : [], "weight" : 0.817927 },
		{"id" : 1, "text" : "이것의", "head" : 2, "label" : "NP_MOD", "mod" : [], "weight" : 0.972536 },
		{"id" : 2, "text" : "의미는", "head" : 4, "label" : "NP_SBJ", "mod" : [1], "weight" : 0.927505 },
		{"id" : 3, "text" : "옷깃과", "head" : 4, "label" : "NP_CNJ", "mod" : [], "weight" : 0.558289 },
		{"id" : 4, "text" : "소매로,", "head" : 20, "label" : "NP_AJT", "mod" : [0, 2, 3], "weight" : 0.897346 },
		{"id" : 5, "text" : "옷깃과", "head" : 6, "label" : "NP_CNJ", "mod" : [], "weight" : 0.808524 },
		{"id" : 6, "text" : "소매는", "head" : 10, "label" : "NP_SBJ", "mod" : [5], "weight" : 0.741152 },
		{"id" : 7, "text" : "남의", "head" : 8, "label" : "NP_MOD", "mod" : [], "weight" : 0.810048 },
		{"id" : 8, "text" : "눈에", "head" : 10, "label" : "NP_AJT", "mod" : [7], "weight" : 0.892772 },
		{"id" : 9, "text" : "잘", "head" : 10, "label" : "AP", "mod" : [], "weight" : 0.93977 },
		{"id" : 10, "text" : "띈다는", "head" : 11, "label" : "VP_MOD", "mod" : [6, 8, 9], "weight" : 0.8528 },
		{"id" : 11, "text" : "이유에서", "head" : 19, "label" : "NP_AJT", "mod" : [10], "weight" : 0.82294 },
		{"id" : 12, "text" : "수많은", "head" : 13, "label" : "VP_MOD", "mod" : [], "weight" : 0.740867 },
		{"id" : 13, "text" : "사람", "head" : 14, "label" : "NP", "mod" : [12], "weight" : 0.790344 },
		{"id" : 14, "text" : "중", "head" : 15, "label" : "NP_AJT", "mod" : [13], "weight" : 0.7975 },
		{"id" : 15, "text" : "특출난", "head" : 16, "label" : "VP_MOD", "mod" : [14], "weight" : 0.556036 },
		{"id" : 16, "text" : "사람", "head" : 18, "label" : "NP_CNJ", "mod" : [15], "weight" : 0.973274 },
		{"id" : 17, "text" : "즉", "head" : 18, "label" : "AP", "mod" : [], "weight" : 0.73429 },
		{"id" : 18, "text" : "우두머리를", "head" : 19, "label" : "NP_OBJ", "mod" : [16, 17], "weight" : 0.533053 },
		{"id" : 19, "text" : "일컫는", "head" : 20, "label" : "VP_MOD", "mod" : [11, 18], "weight" : 0.567525 },
		{"id" : 20, "text" : "말인데,", "head" : 22, "label" : "VNP", "mod" : [4, 19], "weight" : 0.875011 },
		{"id" : 21, "text" : "이것은", "head" : 22, "label" : "NP_SBJ", "mod" : [], "weight" : 0.680946 },
		{"id" : 22, "text" : "무엇일까?", "head" : -1, "label" : "VNP", "mod" : [20, 21], "weight" : 0.249663 }
	],
	"phrase_dependency" : [
	],
	"SRL" : [
	],
	"relation" : [
	],
	"SA" : [
	],
	"ZA" : [
	]
	}
 ],
 "entity" : [
 ]
}

