{"doc_id" : "936.019_Q.01",
 "DCT" : "",
 "category" : "",
 "category_weight" : 0,
 "title" : {"text" : "Q19", "NE" : ""},
 "metaInfo" : { },
 "sentence" : [
	{
	"id" : 0,
	"reserve_str" : "",
	"text" : "같은 범죄에 대해 거듭 처벌하지 않는다는 원칙으로 판결이 내려진 어떤 사건에 대해 두 번 이상 심리, 재판하지 않는다는 형사상의 원칙은 무엇일까?",
	"morp" : [
	],
	"morp_eval" : [
	],
	"WSD" : [
	],
	"word" : [
		{"id" : 0, "text" : "같은", "type" : "", "begin" : 0, "end" : 1},
		{"id" : 1, "text" : "범죄에", "type" : "", "begin" : 2, "end" : 3},
		{"id" : 2, "text" : "대해", "type" : "", "begin" : 4, "end" : 5},
		{"id" : 3, "text" : "거듭", "type" : "", "begin" : 6, "end" : 6},
		{"id" : 4, "text" : "처벌하지", "type" : "", "begin" : 7, "end" : 9},
		{"id" : 5, "text" : "않는다는", "type" : "", "begin" : 10, "end" : 11},
		{"id" : 6, "text" : "원칙으로", "type" : "", "begin" : 12, "end" : 13},
		{"id" : 7, "text" : "판결이", "type" : "", "begin" : 14, "end" : 15},
		{"id" : 8, "text" : "내려진", "type" : "", "begin" : 16, "end" : 17},
		{"id" : 9, "text" : "어떤", "type" : "", "begin" : 18, "end" : 18},
		{"id" : 10, "text" : "사건에", "type" : "", "begin" : 19, "end" : 20},
		{"id" : 11, "text" : "대해", "type" : "", "begin" : 21, "end" : 22},
		{"id" : 12, "text" : "두", "type" : "", "begin" : 23, "end" : 23},
		{"id" : 13, "text" : "번", "type" : "", "begin" : 24, "end" : 24},
		{"id" : 14, "text" : "이상", "type" : "", "begin" : 25, "end" : 25},
		{"id" : 15, "text" : "심리,", "type" : "", "begin" : 26, "end" : 27},
		{"id" : 16, "text" : "재판하지", "type" : "", "begin" : 28, "end" : 30},
		{"id" : 17, "text" : "않는다는", "type" : "", "begin" : 31, "end" : 32},
		{"id" : 18, "text" : "형사상의", "type" : "", "begin" : 33, "end" : 35},
		{"id" : 19, "text" : "원칙은", "type" : "", "begin" : 36, "end" : 37},
		{"id" : 20, "text" : "무엇일까?", "type" : "", "begin" : 38, "end" : 41}
	],
	"NE" : [
	],
	"chunk" : [
	],
	"dependency" : [
		{"id" : 0, "text" : "같은", "head" : 1, "label" : "VP_MOD", "mod" : [], "weight" : 0.72618 },
		{"id" : 1, "text" : "범죄에", "head" : 2, "label" : "NP_AJT", "mod" : [0], "weight" : 0.846099 },
		{"id" : 2, "text" : "대해", "head" : 4, "label" : "VP", "mod" : [1], "weight" : 0.658204 },
		{"id" : 3, "text" : "거듭", "head" : 4, "label" : "AP", "mod" : [], "weight" : 0.752101 },
		{"id" : 4, "text" : "처벌하지", "head" : 5, "label" : "VP", "mod" : [2, 3], "weight" : 0.924768 },
		{"id" : 5, "text" : "않는다는", "head" : 6, "label" : "VP_MOD", "mod" : [4], "weight" : 0.710476 },
		{"id" : 6, "text" : "원칙으로", "head" : 19, "label" : "NP_AJT", "mod" : [5], "weight" : 0.545292 },
		{"id" : 7, "text" : "판결이", "head" : 8, "label" : "NP_SBJ", "mod" : [], "weight" : 0.997874 },
		{"id" : 8, "text" : "내려진", "head" : 10, "label" : "VP_MOD", "mod" : [7], "weight" : 0.752274 },
		{"id" : 9, "text" : "어떤", "head" : 10, "label" : "DP", "mod" : [], "weight" : 0.7848 },
		{"id" : 10, "text" : "사건에", "head" : 11, "label" : "NP_AJT", "mod" : [8, 9], "weight" : 0.79297 },
		{"id" : 11, "text" : "대해", "head" : 16, "label" : "VP", "mod" : [10], "weight" : 0.762527 },
		{"id" : 12, "text" : "두", "head" : 13, "label" : "DP", "mod" : [], "weight" : 0.914167 },
		{"id" : 13, "text" : "번", "head" : 14, "label" : "NP", "mod" : [12], "weight" : 0.495585 },
		{"id" : 14, "text" : "이상", "head" : 16, "label" : "NP", "mod" : [13], "weight" : 0.678326 },
		{"id" : 15, "text" : "심리,", "head" : 16, "label" : "NP_CNJ", "mod" : [], "weight" : 0.673013 },
		{"id" : 16, "text" : "재판하지", "head" : 17, "label" : "VP", "mod" : [11, 14, 15], "weight" : 0.991368 },
		{"id" : 17, "text" : "않는다는", "head" : 19, "label" : "VP_MOD", "mod" : [16], "weight" : 0.785031 },
		{"id" : 18, "text" : "형사상의", "head" : 19, "label" : "NP_MOD", "mod" : [], "weight" : 0.822989 },
		{"id" : 19, "text" : "원칙은", "head" : 20, "label" : "NP_SBJ", "mod" : [6, 17, 18], "weight" : 0.70046 },
		{"id" : 20, "text" : "무엇일까?", "head" : -1, "label" : "VNP", "mod" : [19], "weight" : 0.268486 }
	],
	"phrase_dependency" : [
	],
	"SRL" : [
	],
	"relation" : [
	],
	"SA" : [
	],
	"ZA" : [
	]
	}
 ],
 "entity" : [
 ]
}

