{"doc_id" : "936.026_A.05",
 "DCT" : "",
 "category" : "",
 "category_weight" : 0,
 "title" : {"text" : "슈뢰딩거의 고양이", "NE" : ""},
 "metaInfo" : { },
 "sentence" : [
	{
	"id" : 0,
	"reserve_str" : "",
	"text" : "오스트리아의 물리학자 슈뢰딩거가 설명한 이론으로, 밀폐된 상자 속에 독극물과 함께 있는 고양이의 생존 여부를 이용하여 양자역학의 원리를 설명한 것이다.",
	"morp" : [
	],
	"morp_eval" : [
	],
	"WSD" : [
	],
	"word" : [
		{"id" : 0, "text" : "오스트리아의", "type" : "", "begin" : 0, "end" : 1},
		{"id" : 1, "text" : "물리학자", "type" : "", "begin" : 2, "end" : 3},
		{"id" : 2, "text" : "슈뢰딩거가", "type" : "", "begin" : 4, "end" : 5},
		{"id" : 3, "text" : "설명한", "type" : "", "begin" : 6, "end" : 8},
		{"id" : 4, "text" : "이론으로,", "type" : "", "begin" : 9, "end" : 11},
		{"id" : 5, "text" : "밀폐된", "type" : "", "begin" : 12, "end" : 14},
		{"id" : 6, "text" : "상자", "type" : "", "begin" : 15, "end" : 15},
		{"id" : 7, "text" : "속에", "type" : "", "begin" : 16, "end" : 17},
		{"id" : 8, "text" : "독극물과", "type" : "", "begin" : 18, "end" : 20},
		{"id" : 9, "text" : "함께", "type" : "", "begin" : 21, "end" : 21},
		{"id" : 10, "text" : "있는", "type" : "", "begin" : 22, "end" : 23},
		{"id" : 11, "text" : "고양이의", "type" : "", "begin" : 24, "end" : 25},
		{"id" : 12, "text" : "생존", "type" : "", "begin" : 26, "end" : 26},
		{"id" : 13, "text" : "여부를", "type" : "", "begin" : 27, "end" : 28},
		{"id" : 14, "text" : "이용하여", "type" : "", "begin" : 29, "end" : 31},
		{"id" : 15, "text" : "양자역학의", "type" : "", "begin" : 32, "end" : 34},
		{"id" : 16, "text" : "원리를", "type" : "", "begin" : 35, "end" : 36},
		{"id" : 17, "text" : "설명한", "type" : "", "begin" : 37, "end" : 39},
		{"id" : 18, "text" : "것이다.", "type" : "", "begin" : 40, "end" : 43}
	],
	"NE" : [
	],
	"chunk" : [
	],
	"dependency" : [
		{"id" : 0, "text" : "오스트리아의", "head" : 1, "label" : "NP_MOD", "mod" : [], "weight" : 0.575674 },
		{"id" : 1, "text" : "물리학자", "head" : 2, "label" : "NP", "mod" : [0], "weight" : 0.676895 },
		{"id" : 2, "text" : "슈뢰딩거가", "head" : 3, "label" : "NP_SBJ", "mod" : [1], "weight" : 0.622723 },
		{"id" : 3, "text" : "설명한", "head" : 4, "label" : "VP_MOD", "mod" : [2], "weight" : 0.882924 },
		{"id" : 4, "text" : "이론으로,", "head" : 14, "label" : "NP_AJT", "mod" : [3], "weight" : 0.819996 },
		{"id" : 5, "text" : "밀폐된", "head" : 6, "label" : "VP_MOD", "mod" : [], "weight" : 0.558813 },
		{"id" : 6, "text" : "상자", "head" : 7, "label" : "NP", "mod" : [5], "weight" : 0.810336 },
		{"id" : 7, "text" : "속에", "head" : 10, "label" : "NP_AJT", "mod" : [6], "weight" : 0.700424 },
		{"id" : 8, "text" : "독극물과", "head" : 9, "label" : "NP_AJT", "mod" : [], "weight" : 0.550644 },
		{"id" : 9, "text" : "함께", "head" : 10, "label" : "AP", "mod" : [8], "weight" : 0.730661 },
		{"id" : 10, "text" : "있는", "head" : 11, "label" : "VP_MOD", "mod" : [7, 9], "weight" : 0.530981 },
		{"id" : 11, "text" : "고양이의", "head" : 12, "label" : "NP_MOD", "mod" : [10], "weight" : 0.935935 },
		{"id" : 12, "text" : "생존", "head" : 13, "label" : "NP", "mod" : [11], "weight" : 0.989284 },
		{"id" : 13, "text" : "여부를", "head" : 14, "label" : "NP_OBJ", "mod" : [12], "weight" : 0.887729 },
		{"id" : 14, "text" : "이용하여", "head" : 17, "label" : "VP", "mod" : [4, 13], "weight" : 0.685837 },
		{"id" : 15, "text" : "양자역학의", "head" : 16, "label" : "NP_MOD", "mod" : [], "weight" : 0.872011 },
		{"id" : 16, "text" : "원리를", "head" : 17, "label" : "NP_OBJ", "mod" : [15], "weight" : 0.507366 },
		{"id" : 17, "text" : "설명한", "head" : 18, "label" : "VP_MOD", "mod" : [14, 16], "weight" : 0.618332 },
		{"id" : 18, "text" : "것이다.", "head" : -1, "label" : "VNP", "mod" : [17], "weight" : 0.126949 }
	],
	"phrase_dependency" : [
	],
	"SRL" : [
	],
	"relation" : [
	],
	"SA" : [
	],
	"ZA" : [
	]
	}
 ],
 "entity" : [
 ]
}

