{"doc_id" : "936.013_A.04",
 "DCT" : "",
 "category" : "",
 "category_weight" : 0,
 "title" : {"text" : "하와이안 코나", "NE" : ""},
 "metaInfo" : { },
 "sentence" : [
	{
	"id" : 0,
	"reserve_str" : "",
	"text" : "미국 하와이제도 중 가장 큰 섬인 하와이 섬(Hawaii Island)의 코나(Kona) 지역에서 재배되는 세계 3대 커피 중 하나이다.",
	"morp" : [
	],
	"morp_eval" : [
	],
	"WSD" : [
	],
	"word" : [
		{"id" : 0, "text" : "미국", "type" : "", "begin" : 0, "end" : 0},
		{"id" : 1, "text" : "하와이제도", "type" : "", "begin" : 1, "end" : 1},
		{"id" : 2, "text" : "중", "type" : "", "begin" : 2, "end" : 2},
		{"id" : 3, "text" : "가장", "type" : "", "begin" : 3, "end" : 3},
		{"id" : 4, "text" : "큰", "type" : "", "begin" : 4, "end" : 5},
		{"id" : 5, "text" : "섬인", "type" : "", "begin" : 6, "end" : 8},
		{"id" : 6, "text" : "하와이", "type" : "", "begin" : 9, "end" : 9},
		{"id" : 7, "text" : "섬(Hawaii", "type" : "", "begin" : 10, "end" : 12},
		{"id" : 8, "text" : "Island)의", "type" : "", "begin" : 13, "end" : 15},
		{"id" : 9, "text" : "코나(Kona)", "type" : "", "begin" : 16, "end" : 19},
		{"id" : 10, "text" : "지역에서", "type" : "", "begin" : 20, "end" : 21},
		{"id" : 11, "text" : "재배되는", "type" : "", "begin" : 22, "end" : 24},
		{"id" : 12, "text" : "세계", "type" : "", "begin" : 25, "end" : 25},
		{"id" : 13, "text" : "3대", "type" : "", "begin" : 26, "end" : 27},
		{"id" : 14, "text" : "커피", "type" : "", "begin" : 28, "end" : 28},
		{"id" : 15, "text" : "중", "type" : "", "begin" : 29, "end" : 29},
		{"id" : 16, "text" : "하나이다.", "type" : "", "begin" : 30, "end" : 33}
	],
	"NE" : [
	],
	"chunk" : [
	],
	"dependency" : [
		{"id" : 0, "text" : "미국", "head" : 1, "label" : "NP", "mod" : [], "weight" : 0.904369 },
		{"id" : 1, "text" : "하와이제도", "head" : 2, "label" : "NP", "mod" : [0], "weight" : 0.902809 },
		{"id" : 2, "text" : "중", "head" : 4, "label" : "NP_AJT", "mod" : [1], "weight" : 0.621293 },
		{"id" : 3, "text" : "가장", "head" : 4, "label" : "AP", "mod" : [], "weight" : 0.984695 },
		{"id" : 4, "text" : "큰", "head" : 5, "label" : "VP_MOD", "mod" : [2, 3], "weight" : 0.725412 },
		{"id" : 5, "text" : "섬인", "head" : 8, "label" : "VNP_MOD", "mod" : [4], "weight" : 0.555048 },
		{"id" : 6, "text" : "하와이", "head" : 7, "label" : "NP", "mod" : [], "weight" : 0.707212 },
		{"id" : 7, "text" : "섬(Hawaii", "head" : 8, "label" : "NP", "mod" : [6], "weight" : 0.758724 },
		{"id" : 8, "text" : "Island)의", "head" : 9, "label" : "NP_MOD", "mod" : [5, 7], "weight" : 0.51905 },
		{"id" : 9, "text" : "코나(Kona)", "head" : 10, "label" : "NP", "mod" : [8], "weight" : 0.670866 },
		{"id" : 10, "text" : "지역에서", "head" : 11, "label" : "NP_AJT", "mod" : [9], "weight" : 0.96451 },
		{"id" : 11, "text" : "재배되는", "head" : 14, "label" : "VP_MOD", "mod" : [10], "weight" : 0.583613 },
		{"id" : 12, "text" : "세계", "head" : 14, "label" : "NP", "mod" : [], "weight" : 0.743367 },
		{"id" : 13, "text" : "3대", "head" : 14, "label" : "NP", "mod" : [], "weight" : 0.719273 },
		{"id" : 14, "text" : "커피", "head" : 15, "label" : "NP", "mod" : [11, 12, 13], "weight" : 0.764206 },
		{"id" : 15, "text" : "중", "head" : 16, "label" : "NP", "mod" : [14], "weight" : 0.351481 },
		{"id" : 16, "text" : "하나이다.", "head" : -1, "label" : "VNP", "mod" : [15], "weight" : 0.214555 }
	],
	"phrase_dependency" : [
	],
	"SRL" : [
	],
	"relation" : [
	],
	"SA" : [
	],
	"ZA" : [
	]
	}
 ],
 "entity" : [
 ]
}

