{"doc_id" : "936.038_A.04",
 "DCT" : "",
 "category" : "",
 "category_weight" : 0,
 "title" : {"text" : "백두산정계비", "NE" : ""},
 "metaInfo" : { },
 "sentence" : [
	{
	"id" : 0,
	"reserve_str" : "",
	"text" : "1712년에 조선과 청, 두 나라 대표가 백두산 일대를 답사하고 세운 것으로, 서쪽으로는 압록강, 동쪽으로는 토문강을 두 나라 사이의 경계로 삼고 있음",
	"morp" : [
	],
	"morp_eval" : [
	],
	"WSD" : [
	],
	"word" : [
		{"id" : 0, "text" : "1712년에", "type" : "", "begin" : 0, "end" : 2},
		{"id" : 1, "text" : "조선과", "type" : "", "begin" : 3, "end" : 4},
		{"id" : 2, "text" : "청,", "type" : "", "begin" : 5, "end" : 6},
		{"id" : 3, "text" : "두", "type" : "", "begin" : 7, "end" : 7},
		{"id" : 4, "text" : "나라", "type" : "", "begin" : 8, "end" : 8},
		{"id" : 5, "text" : "대표가", "type" : "", "begin" : 9, "end" : 10},
		{"id" : 6, "text" : "백두산", "type" : "", "begin" : 11, "end" : 12},
		{"id" : 7, "text" : "일대를", "type" : "", "begin" : 13, "end" : 14},
		{"id" : 8, "text" : "답사하고", "type" : "", "begin" : 15, "end" : 17},
		{"id" : 9, "text" : "세운", "type" : "", "begin" : 18, "end" : 19},
		{"id" : 10, "text" : "것으로,", "type" : "", "begin" : 20, "end" : 22},
		{"id" : 11, "text" : "서쪽으로는", "type" : "", "begin" : 23, "end" : 25},
		{"id" : 12, "text" : "압록강,", "type" : "", "begin" : 26, "end" : 28},
		{"id" : 13, "text" : "동쪽으로는", "type" : "", "begin" : 29, "end" : 31},
		{"id" : 14, "text" : "토문강을", "type" : "", "begin" : 32, "end" : 33},
		{"id" : 15, "text" : "두", "type" : "", "begin" : 34, "end" : 34},
		{"id" : 16, "text" : "나라", "type" : "", "begin" : 35, "end" : 35},
		{"id" : 17, "text" : "사이의", "type" : "", "begin" : 36, "end" : 37},
		{"id" : 18, "text" : "경계로", "type" : "", "begin" : 38, "end" : 39},
		{"id" : 19, "text" : "삼고", "type" : "", "begin" : 40, "end" : 41},
		{"id" : 20, "text" : "있음", "type" : "", "begin" : 42, "end" : 43}
	],
	"NE" : [
	],
	"chunk" : [
	],
	"dependency" : [
		{"id" : 0, "text" : "1712년에", "head" : 9, "label" : "NP_AJT", "mod" : [], "weight" : 0.550104 },
		{"id" : 1, "text" : "조선과", "head" : 2, "label" : "NP_CNJ", "mod" : [], "weight" : 0.656174 },
		{"id" : 2, "text" : "청,", "head" : 4, "label" : "NP_CNJ", "mod" : [1], "weight" : 0.95486 },
		{"id" : 3, "text" : "두", "head" : 4, "label" : "DP", "mod" : [], "weight" : 0.682102 },
		{"id" : 4, "text" : "나라", "head" : 5, "label" : "NP", "mod" : [2, 3], "weight" : 0.915749 },
		{"id" : 5, "text" : "대표가", "head" : 8, "label" : "NP_SBJ", "mod" : [4], "weight" : 0.617555 },
		{"id" : 6, "text" : "백두산", "head" : 7, "label" : "NP", "mod" : [], "weight" : 0.86126 },
		{"id" : 7, "text" : "일대를", "head" : 8, "label" : "NP_OBJ", "mod" : [6], "weight" : 0.853007 },
		{"id" : 8, "text" : "답사하고", "head" : 9, "label" : "VP", "mod" : [5, 7], "weight" : 0.864733 },
		{"id" : 9, "text" : "세운", "head" : 10, "label" : "VP_MOD", "mod" : [0, 8], "weight" : 0.610005 },
		{"id" : 10, "text" : "것으로,", "head" : 19, "label" : "NP_AJT", "mod" : [9], "weight" : 0.70691 },
		{"id" : 11, "text" : "서쪽으로는", "head" : 12, "label" : "NP_AJT", "mod" : [], "weight" : 0.514062 },
		{"id" : 12, "text" : "압록강,", "head" : 19, "label" : "NP", "mod" : [11], "weight" : 0.753836 },
		{"id" : 13, "text" : "동쪽으로는", "head" : 19, "label" : "NP_AJT", "mod" : [], "weight" : 0.968219 },
		{"id" : 14, "text" : "토문강을", "head" : 19, "label" : "NP_OBJ", "mod" : [], "weight" : 0.857094 },
		{"id" : 15, "text" : "두", "head" : 16, "label" : "DP", "mod" : [], "weight" : 0.943686 },
		{"id" : 16, "text" : "나라", "head" : 17, "label" : "NP", "mod" : [15], "weight" : 0.982997 },
		{"id" : 17, "text" : "사이의", "head" : 18, "label" : "NP_MOD", "mod" : [16], "weight" : 0.775542 },
		{"id" : 18, "text" : "경계로", "head" : 19, "label" : "NP_AJT", "mod" : [17], "weight" : 0.868428 },
		{"id" : 19, "text" : "삼고", "head" : 20, "label" : "VP", "mod" : [10, 12, 13, 14, 18], "weight" : 0.646777 },
		{"id" : 20, "text" : "있음", "head" : -1, "label" : "VP", "mod" : [19], "weight" : 0.273235 }
	],
	"phrase_dependency" : [
	],
	"SRL" : [
	],
	"relation" : [
	],
	"SA" : [
	],
	"ZA" : [
	]
	}
 ],
 "entity" : [
 ]
}

