{"doc_id" : "936.022_A.03",
 "DCT" : "",
 "category" : "",
 "category_weight" : 0,
 "title" : {"text" : "적색편이", "NE" : ""},
 "metaInfo" : { },
 "sentence" : [
	{
	"id" : 0,
	"reserve_str" : "",
	"text" : "천체의 스펙트럼선이 원래의 파장에서 파장이 약간 긴 쪽으로 치우쳐 나타나는 현상.",
	"morp" : [
	],
	"morp_eval" : [
	],
	"WSD" : [
	],
	"word" : [
		{"id" : 0, "text" : "천체의", "type" : "", "begin" : 0, "end" : 1},
		{"id" : 1, "text" : "스펙트럼선이", "type" : "", "begin" : 2, "end" : 4},
		{"id" : 2, "text" : "원래의", "type" : "", "begin" : 5, "end" : 6},
		{"id" : 3, "text" : "파장에서", "type" : "", "begin" : 7, "end" : 8},
		{"id" : 4, "text" : "파장이", "type" : "", "begin" : 9, "end" : 10},
		{"id" : 5, "text" : "약간", "type" : "", "begin" : 11, "end" : 11},
		{"id" : 6, "text" : "긴", "type" : "", "begin" : 12, "end" : 13},
		{"id" : 7, "text" : "쪽으로", "type" : "", "begin" : 14, "end" : 15},
		{"id" : 8, "text" : "치우쳐", "type" : "", "begin" : 16, "end" : 17},
		{"id" : 9, "text" : "나타나는", "type" : "", "begin" : 18, "end" : 19},
		{"id" : 10, "text" : "현상.", "type" : "", "begin" : 20, "end" : 21}
	],
	"NE" : [
	],
	"chunk" : [
	],
	"dependency" : [
		{"id" : 0, "text" : "천체의", "head" : 1, "label" : "NP_MOD", "mod" : [], "weight" : 0.830687 },
		{"id" : 1, "text" : "스펙트럼선이", "head" : 8, "label" : "NP_SBJ", "mod" : [0], "weight" : 0.788242 },
		{"id" : 2, "text" : "원래의", "head" : 3, "label" : "NP_MOD", "mod" : [], "weight" : 0.659897 },
		{"id" : 3, "text" : "파장에서", "head" : 8, "label" : "NP_AJT", "mod" : [2], "weight" : 0.57927 },
		{"id" : 4, "text" : "파장이", "head" : 6, "label" : "NP_SBJ", "mod" : [], "weight" : 0.598838 },
		{"id" : 5, "text" : "약간", "head" : 6, "label" : "AP", "mod" : [], "weight" : 0.751257 },
		{"id" : 6, "text" : "긴", "head" : 7, "label" : "VP_MOD", "mod" : [4, 5], "weight" : 0.909836 },
		{"id" : 7, "text" : "쪽으로", "head" : 8, "label" : "NP_AJT", "mod" : [6], "weight" : 0.943833 },
		{"id" : 8, "text" : "치우쳐", "head" : 9, "label" : "VP", "mod" : [1, 3, 7], "weight" : 0.95718 },
		{"id" : 9, "text" : "나타나는", "head" : 10, "label" : "VP_MOD", "mod" : [8], "weight" : 0.550589 },
		{"id" : 10, "text" : "현상.", "head" : -1, "label" : "NP", "mod" : [9], "weight" : 0.269873 }
	],
	"phrase_dependency" : [
	],
	"SRL" : [
	],
	"relation" : [
	],
	"SA" : [
	],
	"ZA" : [
	]
	},
	{
	"id" : 1,
	"reserve_str" : "",
	"text" : "후퇴하는 천체들에서 도플러 효과에 의해 나타나는 것으로, 편이량을 조사하면 시선 방향의 후퇴 속도를 측정할 수 있다.",
	"morp" : [
	],
	"morp_eval" : [
	],
	"WSD" : [
	],
	"word" : [
		{"id" : 0, "text" : "후퇴하는", "type" : "", "begin" : 0, "end" : 2},
		{"id" : 1, "text" : "천체들에서", "type" : "", "begin" : 3, "end" : 5},
		{"id" : 2, "text" : "도플러", "type" : "", "begin" : 6, "end" : 6},
		{"id" : 3, "text" : "효과에", "type" : "", "begin" : 7, "end" : 8},
		{"id" : 4, "text" : "의해", "type" : "", "begin" : 9, "end" : 10},
		{"id" : 5, "text" : "나타나는", "type" : "", "begin" : 11, "end" : 12},
		{"id" : 6, "text" : "것으로,", "type" : "", "begin" : 13, "end" : 15},
		{"id" : 7, "text" : "편이량을", "type" : "", "begin" : 16, "end" : 17},
		{"id" : 8, "text" : "조사하면", "type" : "", "begin" : 18, "end" : 20},
		{"id" : 9, "text" : "시선", "type" : "", "begin" : 21, "end" : 21},
		{"id" : 10, "text" : "방향의", "type" : "", "begin" : 22, "end" : 23},
		{"id" : 11, "text" : "후퇴", "type" : "", "begin" : 24, "end" : 24},
		{"id" : 12, "text" : "속도를", "type" : "", "begin" : 25, "end" : 26},
		{"id" : 13, "text" : "측정할", "type" : "", "begin" : 27, "end" : 29},
		{"id" : 14, "text" : "수", "type" : "", "begin" : 30, "end" : 30},
		{"id" : 15, "text" : "있다.", "type" : "", "begin" : 31, "end" : 33}
	],
	"NE" : [
	],
	"chunk" : [
	],
	"dependency" : [
		{"id" : 0, "text" : "후퇴하는", "head" : 1, "label" : "VP_MOD", "mod" : [], "weight" : 0.898052 },
		{"id" : 1, "text" : "천체들에서", "head" : 5, "label" : "NP_AJT", "mod" : [0], "weight" : 0.618839 },
		{"id" : 2, "text" : "도플러", "head" : 3, "label" : "NP", "mod" : [], "weight" : 0.74503 },
		{"id" : 3, "text" : "효과에", "head" : 4, "label" : "NP_AJT", "mod" : [2], "weight" : 0.970697 },
		{"id" : 4, "text" : "의해", "head" : 5, "label" : "VP", "mod" : [3], "weight" : 0.986252 },
		{"id" : 5, "text" : "나타나는", "head" : 6, "label" : "VP_MOD", "mod" : [1, 4], "weight" : 0.719294 },
		{"id" : 6, "text" : "것으로,", "head" : 8, "label" : "NP_AJT", "mod" : [5], "weight" : 0.59995 },
		{"id" : 7, "text" : "편이량을", "head" : 8, "label" : "NP_OBJ", "mod" : [], "weight" : 0.875188 },
		{"id" : 8, "text" : "조사하면", "head" : 13, "label" : "VP", "mod" : [6, 7], "weight" : 0.916779 },
		{"id" : 9, "text" : "시선", "head" : 10, "label" : "NP", "mod" : [], "weight" : 0.74874 },
		{"id" : 10, "text" : "방향의", "head" : 12, "label" : "NP_MOD", "mod" : [9], "weight" : 0.849887 },
		{"id" : 11, "text" : "후퇴", "head" : 12, "label" : "NP", "mod" : [], "weight" : 0.851588 },
		{"id" : 12, "text" : "속도를", "head" : 13, "label" : "NP_OBJ", "mod" : [10, 11], "weight" : 0.79179 },
		{"id" : 13, "text" : "측정할", "head" : 14, "label" : "VP_MOD", "mod" : [8, 12], "weight" : 0.871625 },
		{"id" : 14, "text" : "수", "head" : 15, "label" : "NP_SBJ", "mod" : [13], "weight" : 0.54954 },
		{"id" : 15, "text" : "있다.", "head" : -1, "label" : "VP", "mod" : [14], "weight" : 0.212685 }
	],
	"phrase_dependency" : [
	],
	"SRL" : [
	],
	"relation" : [
	],
	"SA" : [
	],
	"ZA" : [
	]
	}
 ],
 "entity" : [
 ]
}

