{"doc_id" : "936.020_Q.01",
 "DCT" : "",
 "category" : "",
 "category_weight" : 0,
 "title" : {"text" : "Q20", "NE" : ""},
 "metaInfo" : { },
 "sentence" : [
	{
	"id" : 0,
	"reserve_str" : "",
	"text" : "조지훈의 시 <승무>에서는 승무를 추는 비구니의 하얀 고깔을 살아있는 이 곤충에 빗대어 표현하고 있다.",
	"morp" : [
	],
	"morp_eval" : [
	],
	"WSD" : [
	],
	"word" : [
		{"id" : 0, "text" : "조지훈의", "type" : "", "begin" : 0, "end" : 1},
		{"id" : 1, "text" : "시", "type" : "", "begin" : 2, "end" : 2},
		{"id" : 2, "text" : "<승무>에서는", "type" : "", "begin" : 3, "end" : 7},
		{"id" : 3, "text" : "승무를", "type" : "", "begin" : 8, "end" : 9},
		{"id" : 4, "text" : "추는", "type" : "", "begin" : 10, "end" : 11},
		{"id" : 5, "text" : "비구니의", "type" : "", "begin" : 12, "end" : 13},
		{"id" : 6, "text" : "하얀", "type" : "", "begin" : 14, "end" : 15},
		{"id" : 7, "text" : "고깔을", "type" : "", "begin" : 16, "end" : 17},
		{"id" : 8, "text" : "살아있는", "type" : "", "begin" : 18, "end" : 21},
		{"id" : 9, "text" : "이", "type" : "", "begin" : 22, "end" : 22},
		{"id" : 10, "text" : "곤충에", "type" : "", "begin" : 23, "end" : 24},
		{"id" : 11, "text" : "빗대어", "type" : "", "begin" : 25, "end" : 26},
		{"id" : 12, "text" : "표현하고", "type" : "", "begin" : 27, "end" : 29},
		{"id" : 13, "text" : "있다.", "type" : "", "begin" : 30, "end" : 32}
	],
	"NE" : [
	],
	"chunk" : [
	],
	"dependency" : [
		{"id" : 0, "text" : "조지훈의", "head" : 1, "label" : "NP_MOD", "mod" : [], "weight" : 0.737525 },
		{"id" : 1, "text" : "시", "head" : 2, "label" : "NP", "mod" : [0], "weight" : 0.748982 },
		{"id" : 2, "text" : "<승무>에서는", "head" : 11, "label" : "NP_AJT", "mod" : [1], "weight" : 0.70528 },
		{"id" : 3, "text" : "승무를", "head" : 4, "label" : "NP_OBJ", "mod" : [], "weight" : 0.788762 },
		{"id" : 4, "text" : "추는", "head" : 5, "label" : "VP_MOD", "mod" : [3], "weight" : 0.54399 },
		{"id" : 5, "text" : "비구니의", "head" : 7, "label" : "NP_MOD", "mod" : [4], "weight" : 0.757963 },
		{"id" : 6, "text" : "하얀", "head" : 7, "label" : "VP_MOD", "mod" : [], "weight" : 0.814838 },
		{"id" : 7, "text" : "고깔을", "head" : 11, "label" : "NP_OBJ", "mod" : [5, 6], "weight" : 0.941769 },
		{"id" : 8, "text" : "살아있는", "head" : 10, "label" : "VP_MOD", "mod" : [], "weight" : 0.648064 },
		{"id" : 9, "text" : "이", "head" : 10, "label" : "DP", "mod" : [], "weight" : 0.681183 },
		{"id" : 10, "text" : "곤충에", "head" : 11, "label" : "NP_AJT", "mod" : [8, 9], "weight" : 0.772264 },
		{"id" : 11, "text" : "빗대어", "head" : 12, "label" : "VP", "mod" : [2, 7, 10], "weight" : 0.556181 },
		{"id" : 12, "text" : "표현하고", "head" : 13, "label" : "VP", "mod" : [11], "weight" : 0.559249 },
		{"id" : 13, "text" : "있다.", "head" : -1, "label" : "VP", "mod" : [12], "weight" : 0.805705 }
	],
	"phrase_dependency" : [
	],
	"SRL" : [
	],
	"relation" : [
	],
	"SA" : [
	],
	"ZA" : [
	]
	},
	{
	"id" : 1,
	"reserve_str" : "",
	"text" : "이 곤충은 무엇일까?",
	"morp" : [
	],
	"morp_eval" : [
	],
	"WSD" : [
	],
	"word" : [
		{"id" : 0, "text" : "이", "type" : "", "begin" : 0, "end" : 0},
		{"id" : 1, "text" : "곤충은", "type" : "", "begin" : 1, "end" : 2},
		{"id" : 2, "text" : "무엇일까?", "type" : "", "begin" : 3, "end" : 6}
	],
	"NE" : [
	],
	"chunk" : [
	],
	"dependency" : [
		{"id" : 0, "text" : "이", "head" : 1, "label" : "DP", "mod" : [], "weight" : 0.792493 },
		{"id" : 1, "text" : "곤충은", "head" : 2, "label" : "NP_SBJ", "mod" : [0], "weight" : 0.680802 },
		{"id" : 2, "text" : "무엇일까?", "head" : -1, "label" : "VNP", "mod" : [1], "weight" : 0.390509 }
	],
	"phrase_dependency" : [
	],
	"SRL" : [
	],
	"relation" : [
	],
	"SA" : [
	],
	"ZA" : [
	]
	}
 ],
 "entity" : [
 ]
}

