{"doc_id" : "936.031_Q.01",
 "DCT" : "",
 "category" : "",
 "category_weight" : 0,
 "title" : {"text" : "Q31", "NE" : ""},
 "metaInfo" : { },
 "sentence" : [
	{
	"id" : 0,
	"reserve_str" : "",
	"text" : "헝가리에서 태어나 체르니에게 피아노를 배우며 음악 공부를 시작한 이 사람은 9세 때에 첫 피아노 독주회를 열면서 '피아노의 천재'라는 칭호를 얻었다.",
	"morp" : [
	],
	"morp_eval" : [
	],
	"WSD" : [
	],
	"word" : [
		{"id" : 0, "text" : "헝가리에서", "type" : "", "begin" : 0, "end" : 1},
		{"id" : 1, "text" : "태어나", "type" : "", "begin" : 2, "end" : 3},
		{"id" : 2, "text" : "체르니에게", "type" : "", "begin" : 4, "end" : 5},
		{"id" : 3, "text" : "피아노를", "type" : "", "begin" : 6, "end" : 7},
		{"id" : 4, "text" : "배우며", "type" : "", "begin" : 8, "end" : 9},
		{"id" : 5, "text" : "음악", "type" : "", "begin" : 10, "end" : 10},
		{"id" : 6, "text" : "공부를", "type" : "", "begin" : 11, "end" : 12},
		{"id" : 7, "text" : "시작한", "type" : "", "begin" : 13, "end" : 15},
		{"id" : 8, "text" : "이", "type" : "", "begin" : 16, "end" : 16},
		{"id" : 9, "text" : "사람은", "type" : "", "begin" : 17, "end" : 18},
		{"id" : 10, "text" : "9세", "type" : "", "begin" : 19, "end" : 20},
		{"id" : 11, "text" : "때에", "type" : "", "begin" : 21, "end" : 22},
		{"id" : 12, "text" : "첫", "type" : "", "begin" : 23, "end" : 23},
		{"id" : 13, "text" : "피아노", "type" : "", "begin" : 24, "end" : 24},
		{"id" : 14, "text" : "독주회를", "type" : "", "begin" : 25, "end" : 27},
		{"id" : 15, "text" : "열면서", "type" : "", "begin" : 28, "end" : 29},
		{"id" : 16, "text" : "'피아노의", "type" : "", "begin" : 30, "end" : 32},
		{"id" : 17, "text" : "천재'라는", "type" : "", "begin" : 33, "end" : 36},
		{"id" : 18, "text" : "칭호를", "type" : "", "begin" : 37, "end" : 38},
		{"id" : 19, "text" : "얻었다.", "type" : "", "begin" : 39, "end" : 42}
	],
	"NE" : [
	],
	"chunk" : [
	],
	"dependency" : [
		{"id" : 0, "text" : "헝가리에서", "head" : 1, "label" : "NP_AJT", "mod" : [], "weight" : 0.959238 },
		{"id" : 1, "text" : "태어나", "head" : 4, "label" : "VP", "mod" : [0], "weight" : 0.894165 },
		{"id" : 2, "text" : "체르니에게", "head" : 4, "label" : "NP_AJT", "mod" : [], "weight" : 0.756754 },
		{"id" : 3, "text" : "피아노를", "head" : 4, "label" : "NP_OBJ", "mod" : [], "weight" : 0.914524 },
		{"id" : 4, "text" : "배우며", "head" : 7, "label" : "VP", "mod" : [1, 2, 3], "weight" : 0.578533 },
		{"id" : 5, "text" : "음악", "head" : 6, "label" : "NP", "mod" : [], "weight" : 0.802369 },
		{"id" : 6, "text" : "공부를", "head" : 7, "label" : "NP_OBJ", "mod" : [5], "weight" : 0.966612 },
		{"id" : 7, "text" : "시작한", "head" : 9, "label" : "VP_MOD", "mod" : [4, 6], "weight" : 0.687891 },
		{"id" : 8, "text" : "이", "head" : 9, "label" : "DP", "mod" : [], "weight" : 0.81513 },
		{"id" : 9, "text" : "사람은", "head" : 15, "label" : "NP_SBJ", "mod" : [7, 8], "weight" : 0.940563 },
		{"id" : 10, "text" : "9세", "head" : 11, "label" : "NP", "mod" : [], "weight" : 0.761533 },
		{"id" : 11, "text" : "때에", "head" : 15, "label" : "NP_AJT", "mod" : [10], "weight" : 0.979581 },
		{"id" : 12, "text" : "첫", "head" : 13, "label" : "DP", "mod" : [], "weight" : 0.516084 },
		{"id" : 13, "text" : "피아노", "head" : 14, "label" : "NP", "mod" : [12], "weight" : 0.81778 },
		{"id" : 14, "text" : "독주회를", "head" : 15, "label" : "NP_OBJ", "mod" : [13], "weight" : 0.707681 },
		{"id" : 15, "text" : "열면서", "head" : 19, "label" : "VP", "mod" : [9, 11, 14], "weight" : 0.995395 },
		{"id" : 16, "text" : "'피아노의", "head" : 17, "label" : "NP_MOD", "mod" : [], "weight" : 0.746439 },
		{"id" : 17, "text" : "천재'라는", "head" : 18, "label" : "VNP_MOD", "mod" : [16], "weight" : 0.81546 },
		{"id" : 18, "text" : "칭호를", "head" : 19, "label" : "NP_OBJ", "mod" : [17], "weight" : 0.560322 },
		{"id" : 19, "text" : "얻었다.", "head" : -1, "label" : "VP", "mod" : [15, 18], "weight" : 0.836581 }
	],
	"phrase_dependency" : [
	],
	"SRL" : [
	],
	"relation" : [
	],
	"SA" : [
	],
	"ZA" : [
	]
	},
	{
	"id" : 1,
	"reserve_str" : "",
	"text" : "교향시의 창시자로 시적, 회화적 음악을 작곡했으며 대표곡으로는 <헝가리 광시곡>이 있는 이 사람은 누구일까?",
	"morp" : [
	],
	"morp_eval" : [
	],
	"WSD" : [
	],
	"word" : [
		{"id" : 0, "text" : "교향시의", "type" : "", "begin" : 0, "end" : 2},
		{"id" : 1, "text" : "창시자로", "type" : "", "begin" : 3, "end" : 5},
		{"id" : 2, "text" : "시적,", "type" : "", "begin" : 6, "end" : 7},
		{"id" : 3, "text" : "회화적", "type" : "", "begin" : 8, "end" : 9},
		{"id" : 4, "text" : "음악을", "type" : "", "begin" : 10, "end" : 11},
		{"id" : 5, "text" : "작곡했으며", "type" : "", "begin" : 12, "end" : 15},
		{"id" : 6, "text" : "대표곡으로는", "type" : "", "begin" : 16, "end" : 19},
		{"id" : 7, "text" : "<헝가리", "type" : "", "begin" : 20, "end" : 21},
		{"id" : 8, "text" : "광시곡>이", "type" : "", "begin" : 22, "end" : 25},
		{"id" : 9, "text" : "있는", "type" : "", "begin" : 26, "end" : 27},
		{"id" : 10, "text" : "이", "type" : "", "begin" : 28, "end" : 28},
		{"id" : 11, "text" : "사람은", "type" : "", "begin" : 29, "end" : 30},
		{"id" : 12, "text" : "누구일까?", "type" : "", "begin" : 31, "end" : 34}
	],
	"NE" : [
	],
	"chunk" : [
	],
	"dependency" : [
		{"id" : 0, "text" : "교향시의", "head" : 1, "label" : "NP_MOD", "mod" : [], "weight" : 0.924419 },
		{"id" : 1, "text" : "창시자로", "head" : 5, "label" : "NP_AJT", "mod" : [0], "weight" : 0.642292 },
		{"id" : 2, "text" : "시적,", "head" : 3, "label" : "NP_CNJ", "mod" : [], "weight" : 0.905217 },
		{"id" : 3, "text" : "회화적", "head" : 4, "label" : "NP", "mod" : [2], "weight" : 0.917154 },
		{"id" : 4, "text" : "음악을", "head" : 5, "label" : "NP_OBJ", "mod" : [3], "weight" : 0.876074 },
		{"id" : 5, "text" : "작곡했으며", "head" : 9, "label" : "VP", "mod" : [1, 4], "weight" : 0.819389 },
		{"id" : 6, "text" : "대표곡으로는", "head" : 9, "label" : "NP_AJT", "mod" : [], "weight" : 0.901138 },
		{"id" : 7, "text" : "<헝가리", "head" : 8, "label" : "NP", "mod" : [], "weight" : 0.717548 },
		{"id" : 8, "text" : "광시곡>이", "head" : 9, "label" : "NP_SBJ", "mod" : [7], "weight" : 0.814063 },
		{"id" : 9, "text" : "있는", "head" : 11, "label" : "VP_MOD", "mod" : [5, 6, 8], "weight" : 0.699326 },
		{"id" : 10, "text" : "이", "head" : 11, "label" : "DP", "mod" : [], "weight" : 0.824913 },
		{"id" : 11, "text" : "사람은", "head" : 12, "label" : "NP_SBJ", "mod" : [9, 10], "weight" : 0.798164 },
		{"id" : 12, "text" : "누구일까?", "head" : -1, "label" : "VNP", "mod" : [11], "weight" : 0.642499 }
	],
	"phrase_dependency" : [
	],
	"SRL" : [
	],
	"relation" : [
	],
	"SA" : [
	],
	"ZA" : [
	]
	}
 ],
 "entity" : [
 ]
}

