{"doc_id" : "936.007_A.05",
 "DCT" : "",
 "category" : "",
 "category_weight" : 0,
 "title" : {"text" : "모스크바3상회의", "NE" : ""},
 "metaInfo" : { },
 "sentence" : [
	{
	"id" : 0,
	"reserve_str" : "",
	"text" : "1945년 12월, 모스크바에서 개최되었던 미·영·소 3국의 외상회의.",
	"morp" : [
	],
	"morp_eval" : [
	],
	"WSD" : [
	],
	"word" : [
		{"id" : 0, "text" : "1945년", "type" : "", "begin" : 0, "end" : 1},
		{"id" : 1, "text" : "12월,", "type" : "", "begin" : 2, "end" : 4},
		{"id" : 2, "text" : "모스크바에서", "type" : "", "begin" : 5, "end" : 6},
		{"id" : 3, "text" : "개최되었던", "type" : "", "begin" : 7, "end" : 10},
		{"id" : 4, "text" : "미·영·소", "type" : "", "begin" : 11, "end" : 15},
		{"id" : 5, "text" : "3국의", "type" : "", "begin" : 16, "end" : 18},
		{"id" : 6, "text" : "외상회의.", "type" : "", "begin" : 19, "end" : 21}
	],
	"NE" : [
	],
	"chunk" : [
	],
	"dependency" : [
		{"id" : 0, "text" : "1945년", "head" : 1, "label" : "NP", "mod" : [], "weight" : 0.838705 },
		{"id" : 1, "text" : "12월,", "head" : 3, "label" : "NP_AJT", "mod" : [0], "weight" : 0.521966 },
		{"id" : 2, "text" : "모스크바에서", "head" : 3, "label" : "NP_AJT", "mod" : [], "weight" : 0.800694 },
		{"id" : 3, "text" : "개최되었던", "head" : 6, "label" : "VP_MOD", "mod" : [1, 2], "weight" : 0.53969 },
		{"id" : 4, "text" : "미·영·소", "head" : 5, "label" : "NP", "mod" : [], "weight" : 0.64897 },
		{"id" : 5, "text" : "3국의", "head" : 6, "label" : "NP_MOD", "mod" : [4], "weight" : 0.524888 },
		{"id" : 6, "text" : "외상회의.", "head" : -1, "label" : "NP", "mod" : [3, 5], "weight" : 0.343992 }
	],
	"phrase_dependency" : [
	],
	"SRL" : [
	],
	"relation" : [
	],
	"SA" : [
	],
	"ZA" : [
	]
	}
 ],
 "entity" : [
 ]
}

