{"doc_id" : "936.017_Q.01",
 "DCT" : "",
 "category" : "",
 "category_weight" : 0,
 "title" : {"text" : "Q17", "NE" : ""},
 "metaInfo" : { },
 "sentence" : [
	{
	"id" : 0,
	"reserve_str" : "",
	"text" : "이 용어는 원래 성악에서 가장 낮은 음역이라는 의미로 쓰이다가 17세기에 남성의 중간 성부로 정의되기 시작했다.",
	"morp" : [
	],
	"morp_eval" : [
	],
	"WSD" : [
	],
	"word" : [
		{"id" : 0, "text" : "이", "type" : "", "begin" : 0, "end" : 0},
		{"id" : 1, "text" : "용어는", "type" : "", "begin" : 1, "end" : 2},
		{"id" : 2, "text" : "원래", "type" : "", "begin" : 3, "end" : 3},
		{"id" : 3, "text" : "성악에서", "type" : "", "begin" : 4, "end" : 5},
		{"id" : 4, "text" : "가장", "type" : "", "begin" : 6, "end" : 6},
		{"id" : 5, "text" : "낮은", "type" : "", "begin" : 7, "end" : 8},
		{"id" : 6, "text" : "음역이라는", "type" : "", "begin" : 9, "end" : 11},
		{"id" : 7, "text" : "의미로", "type" : "", "begin" : 12, "end" : 13},
		{"id" : 8, "text" : "쓰이다가", "type" : "", "begin" : 14, "end" : 15},
		{"id" : 9, "text" : "17세기에", "type" : "", "begin" : 16, "end" : 18},
		{"id" : 10, "text" : "남성의", "type" : "", "begin" : 19, "end" : 20},
		{"id" : 11, "text" : "중간", "type" : "", "begin" : 21, "end" : 21},
		{"id" : 12, "text" : "성부로", "type" : "", "begin" : 22, "end" : 23},
		{"id" : 13, "text" : "정의되기", "type" : "", "begin" : 24, "end" : 26},
		{"id" : 14, "text" : "시작했다.", "type" : "", "begin" : 27, "end" : 31}
	],
	"NE" : [
	],
	"chunk" : [
	],
	"dependency" : [
		{"id" : 0, "text" : "이", "head" : 1, "label" : "DP", "mod" : [], "weight" : 0.811589 },
		{"id" : 1, "text" : "용어는", "head" : 7, "label" : "NP_SBJ", "mod" : [0], "weight" : 0.905859 },
		{"id" : 2, "text" : "원래", "head" : 5, "label" : "NP_AJT", "mod" : [], "weight" : 0.576905 },
		{"id" : 3, "text" : "성악에서", "head" : 5, "label" : "NP_AJT", "mod" : [], "weight" : 0.65014 },
		{"id" : 4, "text" : "가장", "head" : 5, "label" : "AP", "mod" : [], "weight" : 0.906763 },
		{"id" : 5, "text" : "낮은", "head" : 6, "label" : "VP_MOD", "mod" : [2, 3, 4], "weight" : 0.718628 },
		{"id" : 6, "text" : "음역이라는", "head" : 7, "label" : "VNP_MOD", "mod" : [5], "weight" : 0.758437 },
		{"id" : 7, "text" : "의미로", "head" : 8, "label" : "NP_AJT", "mod" : [1, 6], "weight" : 0.865341 },
		{"id" : 8, "text" : "쓰이다가", "head" : 13, "label" : "VP", "mod" : [7], "weight" : 0.79236 },
		{"id" : 9, "text" : "17세기에", "head" : 13, "label" : "NP_AJT", "mod" : [], "weight" : 0.85882 },
		{"id" : 10, "text" : "남성의", "head" : 12, "label" : "NP_MOD", "mod" : [], "weight" : 0.812827 },
		{"id" : 11, "text" : "중간", "head" : 12, "label" : "NP", "mod" : [], "weight" : 0.777167 },
		{"id" : 12, "text" : "성부로", "head" : 13, "label" : "NP_AJT", "mod" : [10, 11], "weight" : 0.732359 },
		{"id" : 13, "text" : "정의되기", "head" : 14, "label" : "VP_OBJ", "mod" : [8, 9, 12], "weight" : 0.439453 },
		{"id" : 14, "text" : "시작했다.", "head" : -1, "label" : "VP", "mod" : [13], "weight" : 0.128602 }
	],
	"phrase_dependency" : [
	],
	"SRL" : [
	],
	"relation" : [
	],
	"SA" : [
	],
	"ZA" : [
	]
	},
	{
	"id" : 1,
	"reserve_str" : "",
	"text" : "그리스어 바리스와 토노스라는 단어가 합쳐진 이 용어는 무엇일까?",
	"morp" : [
	],
	"morp_eval" : [
	],
	"WSD" : [
	],
	"word" : [
		{"id" : 0, "text" : "그리스어", "type" : "", "begin" : 0, "end" : 1},
		{"id" : 1, "text" : "바리스와", "type" : "", "begin" : 2, "end" : 3},
		{"id" : 2, "text" : "토노스라는", "type" : "", "begin" : 4, "end" : 7},
		{"id" : 3, "text" : "단어가", "type" : "", "begin" : 8, "end" : 9},
		{"id" : 4, "text" : "합쳐진", "type" : "", "begin" : 10, "end" : 13},
		{"id" : 5, "text" : "이", "type" : "", "begin" : 14, "end" : 14},
		{"id" : 6, "text" : "용어는", "type" : "", "begin" : 15, "end" : 16},
		{"id" : 7, "text" : "무엇일까?", "type" : "", "begin" : 17, "end" : 20}
	],
	"NE" : [
	],
	"chunk" : [
	],
	"dependency" : [
		{"id" : 0, "text" : "그리스어", "head" : 2, "label" : "NP", "mod" : [], "weight" : 0.651756 },
		{"id" : 1, "text" : "바리스와", "head" : 2, "label" : "NP_CNJ", "mod" : [], "weight" : 0.684931 },
		{"id" : 2, "text" : "토노스라는", "head" : 3, "label" : "VNP_MOD", "mod" : [0, 1], "weight" : 0.71068 },
		{"id" : 3, "text" : "단어가", "head" : 4, "label" : "NP_SBJ", "mod" : [2], "weight" : 0.814756 },
		{"id" : 4, "text" : "합쳐진", "head" : 6, "label" : "VP_MOD", "mod" : [3], "weight" : 0.752135 },
		{"id" : 5, "text" : "이", "head" : 6, "label" : "DP", "mod" : [], "weight" : 0.804588 },
		{"id" : 6, "text" : "용어는", "head" : 7, "label" : "NP_SBJ", "mod" : [4, 5], "weight" : 0.663943 },
		{"id" : 7, "text" : "무엇일까?", "head" : -1, "label" : "VNP", "mod" : [6], "weight" : 0.81171 }
	],
	"phrase_dependency" : [
	],
	"SRL" : [
	],
	"relation" : [
	],
	"SA" : [
	],
	"ZA" : [
	]
	}
 ],
 "entity" : [
 ]
}

