{"doc_id" : "936.015_Q.01",
 "DCT" : "",
 "category" : "",
 "category_weight" : 0,
 "title" : {"text" : "Q15", "NE" : ""},
 "metaInfo" : { },
 "sentence" : [
	{
	"id" : 0,
	"reserve_str" : "",
	"text" : "이 말의 원래 뜻은 앞서 지나간 수레바퀴의 자국을 의미한다.",
	"morp" : [
	],
	"morp_eval" : [
	],
	"WSD" : [
	],
	"word" : [
		{"id" : 0, "text" : "이", "type" : "", "begin" : 0, "end" : 0},
		{"id" : 1, "text" : "말의", "type" : "", "begin" : 1, "end" : 2},
		{"id" : 2, "text" : "원래", "type" : "", "begin" : 3, "end" : 3},
		{"id" : 3, "text" : "뜻은", "type" : "", "begin" : 4, "end" : 5},
		{"id" : 4, "text" : "앞서", "type" : "", "begin" : 6, "end" : 7},
		{"id" : 5, "text" : "지나간", "type" : "", "begin" : 8, "end" : 9},
		{"id" : 6, "text" : "수레바퀴의", "type" : "", "begin" : 10, "end" : 11},
		{"id" : 7, "text" : "자국을", "type" : "", "begin" : 12, "end" : 13},
		{"id" : 8, "text" : "의미한다.", "type" : "", "begin" : 14, "end" : 17}
	],
	"NE" : [
	],
	"chunk" : [
	],
	"dependency" : [
		{"id" : 0, "text" : "이", "head" : 1, "label" : "DP", "mod" : [], "weight" : 0.745139 },
		{"id" : 1, "text" : "말의", "head" : 3, "label" : "NP_MOD", "mod" : [0], "weight" : 0.808321 },
		{"id" : 2, "text" : "원래", "head" : 3, "label" : "NP", "mod" : [], "weight" : 0.653475 },
		{"id" : 3, "text" : "뜻은", "head" : 8, "label" : "NP_SBJ", "mod" : [1, 2], "weight" : 0.67268 },
		{"id" : 4, "text" : "앞서", "head" : 5, "label" : "AP", "mod" : [], "weight" : 0.708496 },
		{"id" : 5, "text" : "지나간", "head" : 6, "label" : "VP_MOD", "mod" : [4], "weight" : 0.873959 },
		{"id" : 6, "text" : "수레바퀴의", "head" : 7, "label" : "NP_MOD", "mod" : [5], "weight" : 0.951814 },
		{"id" : 7, "text" : "자국을", "head" : 8, "label" : "NP_OBJ", "mod" : [6], "weight" : 0.54043 },
		{"id" : 8, "text" : "의미한다.", "head" : -1, "label" : "VP", "mod" : [3, 7], "weight" : 0.637499 }
	],
	"phrase_dependency" : [
	],
	"SRL" : [
	],
	"relation" : [
	],
	"SA" : [
	],
	"ZA" : [
	]
	},
	{
	"id" : 1,
	"reserve_str" : "",
	"text" : "지금은 이 사람이 한 그릇된 일이나 그 행동의 자취란 의미로 사용하는데, 흔히 '이것을 밟다'란 표현으로 쓰는 이 한자어는 무엇일까?",
	"morp" : [
	],
	"morp_eval" : [
	],
	"WSD" : [
	],
	"word" : [
		{"id" : 0, "text" : "지금은", "type" : "", "begin" : 0, "end" : 1},
		{"id" : 1, "text" : "이", "type" : "", "begin" : 2, "end" : 2},
		{"id" : 2, "text" : "사람이", "type" : "", "begin" : 3, "end" : 4},
		{"id" : 3, "text" : "한", "type" : "", "begin" : 5, "end" : 5},
		{"id" : 4, "text" : "그릇된", "type" : "", "begin" : 6, "end" : 8},
		{"id" : 5, "text" : "일이나", "type" : "", "begin" : 9, "end" : 10},
		{"id" : 6, "text" : "그", "type" : "", "begin" : 11, "end" : 11},
		{"id" : 7, "text" : "행동의", "type" : "", "begin" : 12, "end" : 13},
		{"id" : 8, "text" : "자취란", "type" : "", "begin" : 14, "end" : 14},
		{"id" : 9, "text" : "의미로", "type" : "", "begin" : 15, "end" : 16},
		{"id" : 10, "text" : "사용하는데,", "type" : "", "begin" : 17, "end" : 20},
		{"id" : 11, "text" : "흔히", "type" : "", "begin" : 21, "end" : 21},
		{"id" : 12, "text" : "'이것을", "type" : "", "begin" : 22, "end" : 24},
		{"id" : 13, "text" : "밟다'란", "type" : "", "begin" : 25, "end" : 29},
		{"id" : 14, "text" : "표현으로", "type" : "", "begin" : 30, "end" : 31},
		{"id" : 15, "text" : "쓰는", "type" : "", "begin" : 32, "end" : 33},
		{"id" : 16, "text" : "이", "type" : "", "begin" : 34, "end" : 34},
		{"id" : 17, "text" : "한자어는", "type" : "", "begin" : 35, "end" : 37},
		{"id" : 18, "text" : "무엇일까?", "type" : "", "begin" : 38, "end" : 41}
	],
	"NE" : [
	],
	"chunk" : [
	],
	"dependency" : [
		{"id" : 0, "text" : "지금은", "head" : 10, "label" : "NP_AJT", "mod" : [], "weight" : 0.76579 },
		{"id" : 1, "text" : "이", "head" : 2, "label" : "DP", "mod" : [], "weight" : 0.88634 },
		{"id" : 2, "text" : "사람이", "head" : 3, "label" : "NP_SBJ", "mod" : [1], "weight" : 0.934953 },
		{"id" : 3, "text" : "한", "head" : 7, "label" : "VP_MOD", "mod" : [2], "weight" : 0.269422 },
		{"id" : 4, "text" : "그릇된", "head" : 7, "label" : "VP_MOD", "mod" : [], "weight" : 0.786058 },
		{"id" : 5, "text" : "일이나", "head" : 7, "label" : "NP_CNJ", "mod" : [], "weight" : 0.647451 },
		{"id" : 6, "text" : "그", "head" : 7, "label" : "DP", "mod" : [], "weight" : 0.801375 },
		{"id" : 7, "text" : "행동의", "head" : 8, "label" : "NP_MOD", "mod" : [3, 4, 5, 6], "weight" : 0.749064 },
		{"id" : 8, "text" : "자취란", "head" : 9, "label" : "VNP_MOD", "mod" : [7], "weight" : 0.753177 },
		{"id" : 9, "text" : "의미로", "head" : 10, "label" : "NP_AJT", "mod" : [8], "weight" : 0.654983 },
		{"id" : 10, "text" : "사용하는데,", "head" : 18, "label" : "VP", "mod" : [0, 9], "weight" : 0.857997 },
		{"id" : 11, "text" : "흔히", "head" : 15, "label" : "AP", "mod" : [], "weight" : 0.647859 },
		{"id" : 12, "text" : "'이것을", "head" : 13, "label" : "NP_OBJ", "mod" : [], "weight" : 0.492508 },
		{"id" : 13, "text" : "밟다'란", "head" : 14, "label" : "VP_MOD", "mod" : [12], "weight" : 0.608578 },
		{"id" : 14, "text" : "표현으로", "head" : 15, "label" : "NP_AJT", "mod" : [13], "weight" : 0.952368 },
		{"id" : 15, "text" : "쓰는", "head" : 17, "label" : "VP_MOD", "mod" : [11, 14], "weight" : 0.669533 },
		{"id" : 16, "text" : "이", "head" : 17, "label" : "DP", "mod" : [], "weight" : 0.707739 },
		{"id" : 17, "text" : "한자어는", "head" : 18, "label" : "NP_SBJ", "mod" : [15, 16], "weight" : 0.699626 },
		{"id" : 18, "text" : "무엇일까?", "head" : -1, "label" : "VNP", "mod" : [10, 17], "weight" : 0.106616 }
	],
	"phrase_dependency" : [
	],
	"SRL" : [
	],
	"relation" : [
	],
	"SA" : [
	],
	"ZA" : [
	]
	}
 ],
 "entity" : [
 ]
}

