{"doc_id" : "936.003_Q.01",
 "DCT" : "",
 "category" : "",
 "category_weight" : 0,
 "title" : {"text" : "Q3", "NE" : ""},
 "metaInfo" : { },
 "sentence" : [
	{
	"id" : 0,
	"reserve_str" : "",
	"text" : "이것은 무색, 무취의 가연성 기체로서 끓는점이 매우 낮아 액화가 어렵다.",
	"morp" : [
	],
	"morp_eval" : [
	],
	"WSD" : [
	],
	"word" : [
		{"id" : 0, "text" : "이것은", "type" : "", "begin" : 0, "end" : 1},
		{"id" : 1, "text" : "무색,", "type" : "", "begin" : 2, "end" : 3},
		{"id" : 2, "text" : "무취의", "type" : "", "begin" : 4, "end" : 5},
		{"id" : 3, "text" : "가연성", "type" : "", "begin" : 6, "end" : 7},
		{"id" : 4, "text" : "기체로서", "type" : "", "begin" : 8, "end" : 9},
		{"id" : 5, "text" : "끓는점이", "type" : "", "begin" : 10, "end" : 11},
		{"id" : 6, "text" : "매우", "type" : "", "begin" : 12, "end" : 12},
		{"id" : 7, "text" : "낮아", "type" : "", "begin" : 13, "end" : 14},
		{"id" : 8, "text" : "액화가", "type" : "", "begin" : 15, "end" : 16},
		{"id" : 9, "text" : "어렵다.", "type" : "", "begin" : 17, "end" : 19}
	],
	"NE" : [
	],
	"chunk" : [
	],
	"dependency" : [
		{"id" : 0, "text" : "이것은", "head" : 4, "label" : "NP_SBJ", "mod" : [], "weight" : 0.704696 },
		{"id" : 1, "text" : "무색,", "head" : 2, "label" : "NP_CNJ", "mod" : [], "weight" : 0.534257 },
		{"id" : 2, "text" : "무취의", "head" : 4, "label" : "NP_MOD", "mod" : [1], "weight" : 0.531131 },
		{"id" : 3, "text" : "가연성", "head" : 4, "label" : "NP", "mod" : [], "weight" : 0.874091 },
		{"id" : 4, "text" : "기체로서", "head" : 7, "label" : "NP_AJT", "mod" : [0, 3, 2], "weight" : 0.887143 },
		{"id" : 5, "text" : "끓는점이", "head" : 7, "label" : "NP_SBJ", "mod" : [], "weight" : 0.841718 },
		{"id" : 6, "text" : "매우", "head" : 7, "label" : "AP", "mod" : [], "weight" : 0.643202 },
		{"id" : 7, "text" : "낮아", "head" : 9, "label" : "VP", "mod" : [4, 5, 6], "weight" : 0.612607 },
		{"id" : 8, "text" : "액화가", "head" : 9, "label" : "NP_SBJ", "mod" : [], "weight" : 0.496511 },
		{"id" : 9, "text" : "어렵다.", "head" : -1, "label" : "VP", "mod" : [7, 8], "weight" : 0.209536 }
	],
	"phrase_dependency" : [
	],
	"SRL" : [
	],
	"relation" : [
	],
	"SA" : [
	],
	"ZA" : [
	]
	},
	{
	"id" : 1,
	"reserve_str" : "",
	"text" : "중심에 하나의 탄소가 있고 정사면체의 꼭짓점에 수소가 있는 모양이며 천연가스의 주성분인 이것은 무엇일까?",
	"morp" : [
	],
	"morp_eval" : [
	],
	"WSD" : [
	],
	"word" : [
		{"id" : 0, "text" : "중심에", "type" : "", "begin" : 0, "end" : 1},
		{"id" : 1, "text" : "하나의", "type" : "", "begin" : 2, "end" : 3},
		{"id" : 2, "text" : "탄소가", "type" : "", "begin" : 4, "end" : 5},
		{"id" : 3, "text" : "있고", "type" : "", "begin" : 6, "end" : 7},
		{"id" : 4, "text" : "정사면체의", "type" : "", "begin" : 8, "end" : 11},
		{"id" : 5, "text" : "꼭짓점에", "type" : "", "begin" : 12, "end" : 14},
		{"id" : 6, "text" : "수소가", "type" : "", "begin" : 15, "end" : 16},
		{"id" : 7, "text" : "있는", "type" : "", "begin" : 17, "end" : 18},
		{"id" : 8, "text" : "모양이며", "type" : "", "begin" : 19, "end" : 21},
		{"id" : 9, "text" : "천연가스의", "type" : "", "begin" : 22, "end" : 24},
		{"id" : 10, "text" : "주성분인", "type" : "", "begin" : 25, "end" : 28},
		{"id" : 11, "text" : "이것은", "type" : "", "begin" : 29, "end" : 30},
		{"id" : 12, "text" : "무엇일까?", "type" : "", "begin" : 31, "end" : 34}
	],
	"NE" : [
	],
	"chunk" : [
	],
	"dependency" : [
		{"id" : 0, "text" : "중심에", "head" : 3, "label" : "NP_AJT", "mod" : [], "weight" : 0.876514 },
		{"id" : 1, "text" : "하나의", "head" : 2, "label" : "NP_MOD", "mod" : [], "weight" : 0.744385 },
		{"id" : 2, "text" : "탄소가", "head" : 3, "label" : "NP_SBJ", "mod" : [1], "weight" : 0.940114 },
		{"id" : 3, "text" : "있고", "head" : 7, "label" : "VP", "mod" : [0, 2], "weight" : 0.793735 },
		{"id" : 4, "text" : "정사면체의", "head" : 5, "label" : "NP_MOD", "mod" : [], "weight" : 0.838243 },
		{"id" : 5, "text" : "꼭짓점에", "head" : 7, "label" : "NP_AJT", "mod" : [4], "weight" : 0.831398 },
		{"id" : 6, "text" : "수소가", "head" : 7, "label" : "NP_SBJ", "mod" : [], "weight" : 0.573881 },
		{"id" : 7, "text" : "있는", "head" : 8, "label" : "VP_MOD", "mod" : [3, 5, 6], "weight" : 0.75459 },
		{"id" : 8, "text" : "모양이며", "head" : 10, "label" : "VNP", "mod" : [7], "weight" : 0.5061 },
		{"id" : 9, "text" : "천연가스의", "head" : 10, "label" : "NP_MOD", "mod" : [], "weight" : 0.859396 },
		{"id" : 10, "text" : "주성분인", "head" : 11, "label" : "VNP_MOD", "mod" : [8, 9], "weight" : 0.828686 },
		{"id" : 11, "text" : "이것은", "head" : 12, "label" : "NP_SBJ", "mod" : [10], "weight" : 0.611384 },
		{"id" : 12, "text" : "무엇일까?", "head" : -1, "label" : "VNP", "mod" : [11], "weight" : 0.238672 }
	],
	"phrase_dependency" : [
	],
	"SRL" : [
	],
	"relation" : [
	],
	"SA" : [
	],
	"ZA" : [
	]
	}
 ],
 "entity" : [
 ]
}

