{"doc_id" : "936.023_A.02",
 "DCT" : "",
 "category" : "",
 "category_weight" : 0,
 "title" : {"text" : "팔관회", "NE" : ""},
 "metaInfo" : { },
 "sentence" : [
	{
	"id" : 0,
	"reserve_str" : "",
	"text" : "이 때 송나라 상인과 여진, 탐라, 왜에서 파견된 사신들이 축하 표문과 특산물들을 바쳤는데, 국왕은 이에 대한 답례로 음악공연과 가무백회를 관람할 수 있는 좌석을 배정하고 함께 즐길 수 있도록 하였다.",
	"morp" : [
	],
	"morp_eval" : [
	],
	"WSD" : [
	],
	"word" : [
		{"id" : 0, "text" : "이", "type" : "", "begin" : 0, "end" : 0},
		{"id" : 1, "text" : "때", "type" : "", "begin" : 1, "end" : 1},
		{"id" : 2, "text" : "송나라", "type" : "", "begin" : 2, "end" : 2},
		{"id" : 3, "text" : "상인과", "type" : "", "begin" : 3, "end" : 4},
		{"id" : 4, "text" : "여진,", "type" : "", "begin" : 5, "end" : 6},
		{"id" : 5, "text" : "탐라,", "type" : "", "begin" : 7, "end" : 8},
		{"id" : 6, "text" : "왜에서", "type" : "", "begin" : 9, "end" : 10},
		{"id" : 7, "text" : "파견된", "type" : "", "begin" : 11, "end" : 13},
		{"id" : 8, "text" : "사신들이", "type" : "", "begin" : 14, "end" : 16},
		{"id" : 9, "text" : "축하", "type" : "", "begin" : 17, "end" : 17},
		{"id" : 10, "text" : "표문과", "type" : "", "begin" : 18, "end" : 19},
		{"id" : 11, "text" : "특산물들을", "type" : "", "begin" : 20, "end" : 23},
		{"id" : 12, "text" : "바쳤는데,", "type" : "", "begin" : 24, "end" : 27},
		{"id" : 13, "text" : "국왕은", "type" : "", "begin" : 28, "end" : 29},
		{"id" : 14, "text" : "이에", "type" : "", "begin" : 30, "end" : 31},
		{"id" : 15, "text" : "대한", "type" : "", "begin" : 32, "end" : 33},
		{"id" : 16, "text" : "답례로", "type" : "", "begin" : 34, "end" : 35},
		{"id" : 17, "text" : "음악공연과", "type" : "", "begin" : 36, "end" : 38},
		{"id" : 18, "text" : "가무백회를", "type" : "", "begin" : 39, "end" : 40},
		{"id" : 19, "text" : "관람할", "type" : "", "begin" : 41, "end" : 43},
		{"id" : 20, "text" : "수", "type" : "", "begin" : 44, "end" : 44},
		{"id" : 21, "text" : "있는", "type" : "", "begin" : 45, "end" : 46},
		{"id" : 22, "text" : "좌석을", "type" : "", "begin" : 47, "end" : 48},
		{"id" : 23, "text" : "배정하고", "type" : "", "begin" : 49, "end" : 51},
		{"id" : 24, "text" : "함께", "type" : "", "begin" : 52, "end" : 52},
		{"id" : 25, "text" : "즐길", "type" : "", "begin" : 53, "end" : 54},
		{"id" : 26, "text" : "수", "type" : "", "begin" : 55, "end" : 55},
		{"id" : 27, "text" : "있도록", "type" : "", "begin" : 56, "end" : 57},
		{"id" : 28, "text" : "하였다.", "type" : "", "begin" : 58, "end" : 61}
	],
	"NE" : [
	],
	"chunk" : [
	],
	"dependency" : [
		{"id" : 0, "text" : "이", "head" : 1, "label" : "DP", "mod" : [], "weight" : 0.846989 },
		{"id" : 1, "text" : "때", "head" : 12, "label" : "NP_AJT", "mod" : [0], "weight" : 0.504571 },
		{"id" : 2, "text" : "송나라", "head" : 3, "label" : "NP", "mod" : [], "weight" : 0.583657 },
		{"id" : 3, "text" : "상인과", "head" : 8, "label" : "NP_CNJ", "mod" : [2], "weight" : 0.631913 },
		{"id" : 4, "text" : "여진,", "head" : 6, "label" : "NP_CNJ", "mod" : [], "weight" : 0.772289 },
		{"id" : 5, "text" : "탐라,", "head" : 6, "label" : "NP_CNJ", "mod" : [], "weight" : 0.612395 },
		{"id" : 6, "text" : "왜에서", "head" : 7, "label" : "NP_AJT", "mod" : [4, 5], "weight" : 0.754928 },
		{"id" : 7, "text" : "파견된", "head" : 8, "label" : "VP_MOD", "mod" : [6], "weight" : 0.881443 },
		{"id" : 8, "text" : "사신들이", "head" : 12, "label" : "NP_SBJ", "mod" : [3, 7], "weight" : 0.9673 },
		{"id" : 9, "text" : "축하", "head" : 10, "label" : "NP", "mod" : [], "weight" : 0.511053 },
		{"id" : 10, "text" : "표문과", "head" : 11, "label" : "NP_CNJ", "mod" : [9], "weight" : 0.844432 },
		{"id" : 11, "text" : "특산물들을", "head" : 12, "label" : "NP_OBJ", "mod" : [10], "weight" : 0.699161 },
		{"id" : 12, "text" : "바쳤는데,", "head" : 23, "label" : "VP", "mod" : [1, 8, 11], "weight" : 0.588275 },
		{"id" : 13, "text" : "국왕은", "head" : 23, "label" : "NP_SBJ", "mod" : [], "weight" : 0.639134 },
		{"id" : 14, "text" : "이에", "head" : 15, "label" : "NP_AJT", "mod" : [], "weight" : 0.847018 },
		{"id" : 15, "text" : "대한", "head" : 16, "label" : "VP_MOD", "mod" : [14], "weight" : 0.853198 },
		{"id" : 16, "text" : "답례로", "head" : 23, "label" : "NP_AJT", "mod" : [15], "weight" : 0.572245 },
		{"id" : 17, "text" : "음악공연과", "head" : 18, "label" : "NP_CNJ", "mod" : [], "weight" : 0.749626 },
		{"id" : 18, "text" : "가무백회를", "head" : 19, "label" : "NP_OBJ", "mod" : [17], "weight" : 0.853253 },
		{"id" : 19, "text" : "관람할", "head" : 20, "label" : "VP_MOD", "mod" : [18], "weight" : 0.77297 },
		{"id" : 20, "text" : "수", "head" : 21, "label" : "NP_SBJ", "mod" : [19], "weight" : 0.874885 },
		{"id" : 21, "text" : "있는", "head" : 22, "label" : "VP_MOD", "mod" : [20], "weight" : 0.696352 },
		{"id" : 22, "text" : "좌석을", "head" : 23, "label" : "NP_OBJ", "mod" : [21], "weight" : 0.875154 },
		{"id" : 23, "text" : "배정하고", "head" : 25, "label" : "VP", "mod" : [12, 13, 16, 22], "weight" : 0.926852 },
		{"id" : 24, "text" : "함께", "head" : 25, "label" : "AP", "mod" : [], "weight" : 0.848481 },
		{"id" : 25, "text" : "즐길", "head" : 26, "label" : "VP_MOD", "mod" : [23, 24], "weight" : 0.960911 },
		{"id" : 26, "text" : "수", "head" : 27, "label" : "NP_SBJ", "mod" : [25], "weight" : 0.668575 },
		{"id" : 27, "text" : "있도록", "head" : 28, "label" : "VP", "mod" : [26], "weight" : 0.458472 },
		{"id" : 28, "text" : "하였다.", "head" : -1, "label" : "VP", "mod" : [27], "weight" : 0.104701 }
	],
	"phrase_dependency" : [
	],
	"SRL" : [
	],
	"relation" : [
	],
	"SA" : [
	],
	"ZA" : [
	]
	}
 ],
 "entity" : [
 ]
}

