{"doc_id" : "936.028_A.01",
 "DCT" : "",
 "category" : "",
 "category_weight" : 0,
 "title" : {"text" : "김원봉", "NE" : ""},
 "metaInfo" : { },
 "sentence" : [
	{
	"id" : 0,
	"reserve_str" : "",
	"text" : "김원봉(金元鳳, 1898년 9월 28일(음력 8월 13일) ~ 1958년 11월?)은 한국의 독립운동가이자 군인이며, 혁명가·정치가이고, 조선민주주의인민공화국의 정치인이다.",
	"morp" : [
	],
	"morp_eval" : [
	],
	"WSD" : [
	],
	"word" : [
		{"id" : 0, "text" : "김원봉(金元鳳,", "type" : "", "begin" : 0, "end" : 3},
		{"id" : 1, "text" : "1898년", "type" : "", "begin" : 4, "end" : 5},
		{"id" : 2, "text" : "9월", "type" : "", "begin" : 6, "end" : 7},
		{"id" : 3, "text" : "28일(음력", "type" : "", "begin" : 8, "end" : 11},
		{"id" : 4, "text" : "8월", "type" : "", "begin" : 12, "end" : 13},
		{"id" : 5, "text" : "13일)", "type" : "", "begin" : 14, "end" : 16},
		{"id" : 6, "text" : "~", "type" : "", "begin" : 17, "end" : 17},
		{"id" : 7, "text" : "1958년", "type" : "", "begin" : 18, "end" : 19},
		{"id" : 8, "text" : "11월?)은", "type" : "", "begin" : 20, "end" : 24},
		{"id" : 9, "text" : "한국의", "type" : "", "begin" : 25, "end" : 26},
		{"id" : 10, "text" : "독립운동가이자", "type" : "", "begin" : 27, "end" : 30},
		{"id" : 11, "text" : "군인이며,", "type" : "", "begin" : 31, "end" : 34},
		{"id" : 12, "text" : "혁명가·정치가이고,", "type" : "", "begin" : 35, "end" : 40},
		{"id" : 13, "text" : "조선민주주의인민공화국의", "type" : "", "begin" : 41, "end" : 46},
		{"id" : 14, "text" : "정치인이다.", "type" : "", "begin" : 47, "end" : 50}
	],
	"NE" : [
	],
	"chunk" : [
	],
	"dependency" : [
		{"id" : 0, "text" : "김원봉(金元鳳,", "head" : 8, "label" : "NP", "mod" : [], "weight" : 0.61858 },
		{"id" : 1, "text" : "1898년", "head" : 2, "label" : "NP", "mod" : [], "weight" : 0.634961 },
		{"id" : 2, "text" : "9월", "head" : 3, "label" : "NP", "mod" : [1], "weight" : 0.692952 },
		{"id" : 3, "text" : "28일(음력", "head" : 5, "label" : "NP", "mod" : [2], "weight" : 0.846733 },
		{"id" : 4, "text" : "8월", "head" : 5, "label" : "NP", "mod" : [], "weight" : 0.815341 },
		{"id" : 5, "text" : "13일)", "head" : 6, "label" : "NP_PRN", "mod" : [3, 4], "weight" : 0.571628 },
		{"id" : 6, "text" : "~", "head" : 7, "label" : "NP", "mod" : [5], "weight" : 0.75355 },
		{"id" : 7, "text" : "1958년", "head" : 8, "label" : "NP", "mod" : [6], "weight" : 0.882081 },
		{"id" : 8, "text" : "11월?)은", "head" : 10, "label" : "NP_SBJ", "mod" : [0, 7], "weight" : 0.829736 },
		{"id" : 9, "text" : "한국의", "head" : 10, "label" : "NP_MOD", "mod" : [], "weight" : 0.725465 },
		{"id" : 10, "text" : "독립운동가이자", "head" : 11, "label" : "VNP", "mod" : [8, 9], "weight" : 0.739157 },
		{"id" : 11, "text" : "군인이며,", "head" : 12, "label" : "VNP", "mod" : [10], "weight" : 0.808951 },
		{"id" : 12, "text" : "혁명가·정치가이고,", "head" : 14, "label" : "VNP", "mod" : [11], "weight" : 0.550317 },
		{"id" : 13, "text" : "조선민주주의인민공화국의", "head" : 14, "label" : "NP_MOD", "mod" : [], "weight" : 0.430061 },
		{"id" : 14, "text" : "정치인이다.", "head" : -1, "label" : "VNP", "mod" : [12, 13], "weight" : 0.408717 }
	],
	"phrase_dependency" : [
	],
	"SRL" : [
	],
	"relation" : [
	],
	"SA" : [
	],
	"ZA" : [
	]
	},
	{
	"id" : 1,
	"reserve_str" : "",
	"text" : "1948년 4월 월북 후에는 조선민주주의인민공화국의 정치인으로 활동했다.",
	"morp" : [
	],
	"morp_eval" : [
	],
	"WSD" : [
	],
	"word" : [
		{"id" : 0, "text" : "1948년", "type" : "", "begin" : 0, "end" : 1},
		{"id" : 1, "text" : "4월", "type" : "", "begin" : 2, "end" : 3},
		{"id" : 2, "text" : "월북", "type" : "", "begin" : 4, "end" : 4},
		{"id" : 3, "text" : "후에는", "type" : "", "begin" : 5, "end" : 7},
		{"id" : 4, "text" : "조선민주주의인민공화국의", "type" : "", "begin" : 8, "end" : 13},
		{"id" : 5, "text" : "정치인으로", "type" : "", "begin" : 14, "end" : 15},
		{"id" : 6, "text" : "활동했다.", "type" : "", "begin" : 16, "end" : 20}
	],
	"NE" : [
	],
	"chunk" : [
	],
	"dependency" : [
		{"id" : 0, "text" : "1948년", "head" : 1, "label" : "NP", "mod" : [], "weight" : 0.940815 },
		{"id" : 1, "text" : "4월", "head" : 6, "label" : "NP_AJT", "mod" : [0], "weight" : 0.554523 },
		{"id" : 2, "text" : "월북", "head" : 3, "label" : "NP", "mod" : [], "weight" : 0.990448 },
		{"id" : 3, "text" : "후에는", "head" : 6, "label" : "NP_AJT", "mod" : [2], "weight" : 0.782753 },
		{"id" : 4, "text" : "조선민주주의인민공화국의", "head" : 5, "label" : "NP_MOD", "mod" : [], "weight" : 0.901405 },
		{"id" : 5, "text" : "정치인으로", "head" : 6, "label" : "NP_AJT", "mod" : [4], "weight" : 0.590157 },
		{"id" : 6, "text" : "활동했다.", "head" : -1, "label" : "VP", "mod" : [1, 3, 5], "weight" : 0.149702 }
	],
	"phrase_dependency" : [
	],
	"SRL" : [
	],
	"relation" : [
	],
	"SA" : [
	],
	"ZA" : [
	]
	},
	{
	"id" : 2,
	"reserve_str" : "",
	"text" : "1919년 의열단(義烈團)을 조직하여 조선총독부와 일본정부를 상대로 항일무장투쟁을 하였으나 실력의 한계를 느껴 이후 황푸군관학교에 입학하였으며, 졸업후 국민당 장교 신분으로 제1차 국공합작에 참여해 국민혁명(북벌)에 가담했다.",
	"morp" : [
	],
	"morp_eval" : [
	],
	"WSD" : [
	],
	"word" : [
		{"id" : 0, "text" : "1919년", "type" : "", "begin" : 0, "end" : 1},
		{"id" : 1, "text" : "의열단(義烈團)을", "type" : "", "begin" : 2, "end" : 7},
		{"id" : 2, "text" : "조직하여", "type" : "", "begin" : 8, "end" : 10},
		{"id" : 3, "text" : "조선총독부와", "type" : "", "begin" : 11, "end" : 13},
		{"id" : 4, "text" : "일본정부를", "type" : "", "begin" : 14, "end" : 16},
		{"id" : 5, "text" : "상대로", "type" : "", "begin" : 17, "end" : 18},
		{"id" : 6, "text" : "항일무장투쟁을", "type" : "", "begin" : 19, "end" : 22},
		{"id" : 7, "text" : "하였으나", "type" : "", "begin" : 23, "end" : 25},
		{"id" : 8, "text" : "실력의", "type" : "", "begin" : 26, "end" : 27},
		{"id" : 9, "text" : "한계를", "type" : "", "begin" : 28, "end" : 29},
		{"id" : 10, "text" : "느껴", "type" : "", "begin" : 30, "end" : 31},
		{"id" : 11, "text" : "이후", "type" : "", "begin" : 32, "end" : 32},
		{"id" : 12, "text" : "황푸군관학교에", "type" : "", "begin" : 33, "end" : 35},
		{"id" : 13, "text" : "입학하였으며,", "type" : "", "begin" : 36, "end" : 40},
		{"id" : 14, "text" : "졸업후", "type" : "", "begin" : 41, "end" : 42},
		{"id" : 15, "text" : "국민당", "type" : "", "begin" : 43, "end" : 44},
		{"id" : 16, "text" : "장교", "type" : "", "begin" : 45, "end" : 45},
		{"id" : 17, "text" : "신분으로", "type" : "", "begin" : 46, "end" : 47},
		{"id" : 18, "text" : "제1차", "type" : "", "begin" : 48, "end" : 50},
		{"id" : 19, "text" : "국공합작에", "type" : "", "begin" : 51, "end" : 53},
		{"id" : 20, "text" : "참여해", "type" : "", "begin" : 54, "end" : 56},
		{"id" : 21, "text" : "국민혁명(북벌)에", "type" : "", "begin" : 57, "end" : 62},
		{"id" : 22, "text" : "가담했다.", "type" : "", "begin" : 63, "end" : 67}
	],
	"NE" : [
	],
	"chunk" : [
	],
	"dependency" : [
		{"id" : 0, "text" : "1919년", "head" : 2, "label" : "NP", "mod" : [], "weight" : 0.539127 },
		{"id" : 1, "text" : "의열단(義烈團)을", "head" : 2, "label" : "NP_OBJ", "mod" : [], "weight" : 0.722634 },
		{"id" : 2, "text" : "조직하여", "head" : 7, "label" : "VP", "mod" : [0, 1], "weight" : 0.857303 },
		{"id" : 3, "text" : "조선총독부와", "head" : 4, "label" : "NP_CNJ", "mod" : [], "weight" : 0.790347 },
		{"id" : 4, "text" : "일본정부를", "head" : 5, "label" : "NP_OBJ", "mod" : [3], "weight" : 0.550957 },
		{"id" : 5, "text" : "상대로", "head" : 7, "label" : "NP_AJT", "mod" : [4], "weight" : 0.68121 },
		{"id" : 6, "text" : "항일무장투쟁을", "head" : 7, "label" : "NP_OBJ", "mod" : [], "weight" : 0.576339 },
		{"id" : 7, "text" : "하였으나", "head" : 10, "label" : "VP", "mod" : [2, 5, 6], "weight" : 0.896898 },
		{"id" : 8, "text" : "실력의", "head" : 9, "label" : "NP_MOD", "mod" : [], "weight" : 0.981772 },
		{"id" : 9, "text" : "한계를", "head" : 10, "label" : "NP_OBJ", "mod" : [8], "weight" : 0.782966 },
		{"id" : 10, "text" : "느껴", "head" : 13, "label" : "VP", "mod" : [7, 9], "weight" : 0.808213 },
		{"id" : 11, "text" : "이후", "head" : 13, "label" : "NP_AJT", "mod" : [], "weight" : 0.629662 },
		{"id" : 12, "text" : "황푸군관학교에", "head" : 13, "label" : "NP_AJT", "mod" : [], "weight" : 0.692367 },
		{"id" : 13, "text" : "입학하였으며,", "head" : 20, "label" : "VP", "mod" : [10, 11, 12], "weight" : 0.963313 },
		{"id" : 14, "text" : "졸업후", "head" : 20, "label" : "NP_AJT", "mod" : [], "weight" : 0.72878 },
		{"id" : 15, "text" : "국민당", "head" : 16, "label" : "NP", "mod" : [], "weight" : 0.552069 },
		{"id" : 16, "text" : "장교", "head" : 17, "label" : "NP", "mod" : [15], "weight" : 0.827295 },
		{"id" : 17, "text" : "신분으로", "head" : 20, "label" : "NP_AJT", "mod" : [16], "weight" : 0.908405 },
		{"id" : 18, "text" : "제1차", "head" : 19, "label" : "NP", "mod" : [], "weight" : 0.710862 },
		{"id" : 19, "text" : "국공합작에", "head" : 20, "label" : "NP_AJT", "mod" : [18], "weight" : 0.773454 },
		{"id" : 20, "text" : "참여해", "head" : 22, "label" : "VP", "mod" : [13, 14, 17, 19], "weight" : 0.614654 },
		{"id" : 21, "text" : "국민혁명(북벌)에", "head" : 22, "label" : "NP_AJT", "mod" : [], "weight" : 0.475362 },
		{"id" : 22, "text" : "가담했다.", "head" : -1, "label" : "VP", "mod" : [20, 21], "weight" : 0.480543 }
	],
	"phrase_dependency" : [
	],
	"SRL" : [
	],
	"relation" : [
	],
	"SA" : [
	],
	"ZA" : [
	]
	},
	{
	"id" : 3,
	"reserve_str" : "",
	"text" : "이후 군사 양성을 위해 남경군관학교의 한인 입학을 추진했고, 군사조직인 조선의용대를 조직하여 게릴라 전투를 지휘했다.",
	"morp" : [
	],
	"morp_eval" : [
	],
	"WSD" : [
	],
	"word" : [
		{"id" : 0, "text" : "이후", "type" : "", "begin" : 0, "end" : 0},
		{"id" : 1, "text" : "군사", "type" : "", "begin" : 1, "end" : 1},
		{"id" : 2, "text" : "양성을", "type" : "", "begin" : 2, "end" : 3},
		{"id" : 3, "text" : "위해", "type" : "", "begin" : 4, "end" : 5},
		{"id" : 4, "text" : "남경군관학교의", "type" : "", "begin" : 6, "end" : 8},
		{"id" : 5, "text" : "한인", "type" : "", "begin" : 9, "end" : 9},
		{"id" : 6, "text" : "입학을", "type" : "", "begin" : 10, "end" : 11},
		{"id" : 7, "text" : "추진했고,", "type" : "", "begin" : 12, "end" : 16},
		{"id" : 8, "text" : "군사조직인", "type" : "", "begin" : 17, "end" : 20},
		{"id" : 9, "text" : "조선의용대를", "type" : "", "begin" : 21, "end" : 24},
		{"id" : 10, "text" : "조직하여", "type" : "", "begin" : 25, "end" : 27},
		{"id" : 11, "text" : "게릴라", "type" : "", "begin" : 28, "end" : 28},
		{"id" : 12, "text" : "전투를", "type" : "", "begin" : 29, "end" : 30},
		{"id" : 13, "text" : "지휘했다.", "type" : "", "begin" : 31, "end" : 35}
	],
	"NE" : [
	],
	"chunk" : [
	],
	"dependency" : [
		{"id" : 0, "text" : "이후", "head" : 3, "label" : "NP_AJT", "mod" : [], "weight" : 0.923393 },
		{"id" : 1, "text" : "군사", "head" : 2, "label" : "NP", "mod" : [], "weight" : 0.780527 },
		{"id" : 2, "text" : "양성을", "head" : 3, "label" : "NP_OBJ", "mod" : [1], "weight" : 0.821764 },
		{"id" : 3, "text" : "위해", "head" : 7, "label" : "VP", "mod" : [0, 2], "weight" : 0.924601 },
		{"id" : 4, "text" : "남경군관학교의", "head" : 6, "label" : "NP_MOD", "mod" : [], "weight" : 0.870511 },
		{"id" : 5, "text" : "한인", "head" : 6, "label" : "NP", "mod" : [], "weight" : 0.923371 },
		{"id" : 6, "text" : "입학을", "head" : 7, "label" : "NP_OBJ", "mod" : [4, 5], "weight" : 0.796884 },
		{"id" : 7, "text" : "추진했고,", "head" : 10, "label" : "VP", "mod" : [3, 6], "weight" : 0.851257 },
		{"id" : 8, "text" : "군사조직인", "head" : 9, "label" : "VNP_MOD", "mod" : [], "weight" : 0.846195 },
		{"id" : 9, "text" : "조선의용대를", "head" : 10, "label" : "NP_OBJ", "mod" : [8], "weight" : 0.699936 },
		{"id" : 10, "text" : "조직하여", "head" : 13, "label" : "VP", "mod" : [7, 9], "weight" : 0.565009 },
		{"id" : 11, "text" : "게릴라", "head" : 12, "label" : "NP", "mod" : [], "weight" : 0.854178 },
		{"id" : 12, "text" : "전투를", "head" : 13, "label" : "NP_OBJ", "mod" : [11], "weight" : 0.515401 },
		{"id" : 13, "text" : "지휘했다.", "head" : -1, "label" : "VP", "mod" : [10, 12], "weight" : 0.335208 }
	],
	"phrase_dependency" : [
	],
	"SRL" : [
	],
	"relation" : [
	],
	"SA" : [
	],
	"ZA" : [
	]
	},
	{
	"id" : 4,
	"reserve_str" : "",
	"text" : "1935년 김규식(金奎植) 등과 민족혁명당을 창당 활동하다가 중국 국민당의 한국 독립운동단체 통합 요구에 부응, 1940년대초, 대한민국 임시정부에 합류하여 임시의정원(경상도 지역구)의원, 광복군 부사령관 겸 제1지대장으로 활동하고 1944년 임시정부 군무부장에 선출됐다.",
	"morp" : [
	],
	"morp_eval" : [
	],
	"WSD" : [
	],
	"word" : [
		{"id" : 0, "text" : "1935년", "type" : "", "begin" : 0, "end" : 1},
		{"id" : 1, "text" : "김규식(金奎植)", "type" : "", "begin" : 2, "end" : 5},
		{"id" : 2, "text" : "등과", "type" : "", "begin" : 6, "end" : 7},
		{"id" : 3, "text" : "민족혁명당을", "type" : "", "begin" : 8, "end" : 10},
		{"id" : 4, "text" : "창당", "type" : "", "begin" : 11, "end" : 11},
		{"id" : 5, "text" : "활동하다가", "type" : "", "begin" : 12, "end" : 14},
		{"id" : 6, "text" : "중국", "type" : "", "begin" : 15, "end" : 15},
		{"id" : 7, "text" : "국민당의", "type" : "", "begin" : 16, "end" : 18},
		{"id" : 8, "text" : "한국", "type" : "", "begin" : 19, "end" : 19},
		{"id" : 9, "text" : "독립운동단체", "type" : "", "begin" : 20, "end" : 22},
		{"id" : 10, "text" : "통합", "type" : "", "begin" : 23, "end" : 23},
		{"id" : 11, "text" : "요구에", "type" : "", "begin" : 24, "end" : 25},
		{"id" : 12, "text" : "부응,", "type" : "", "begin" : 26, "end" : 27},
		{"id" : 13, "text" : "1940년대초,", "type" : "", "begin" : 28, "end" : 31},
		{"id" : 14, "text" : "대한민국", "type" : "", "begin" : 32, "end" : 32},
		{"id" : 15, "text" : "임시정부에", "type" : "", "begin" : 33, "end" : 35},
		{"id" : 16, "text" : "합류하여", "type" : "", "begin" : 36, "end" : 38},
		{"id" : 17, "text" : "임시의정원(경상도", "type" : "", "begin" : 39, "end" : 43},
		{"id" : 18, "text" : "지역구)의원,", "type" : "", "begin" : 44, "end" : 48},
		{"id" : 19, "text" : "광복군", "type" : "", "begin" : 49, "end" : 49},
		{"id" : 20, "text" : "부사령관", "type" : "", "begin" : 50, "end" : 52},
		{"id" : 21, "text" : "겸", "type" : "", "begin" : 53, "end" : 53},
		{"id" : 22, "text" : "제1지대장으로", "type" : "", "begin" : 54, "end" : 57},
		{"id" : 23, "text" : "활동하고", "type" : "", "begin" : 58, "end" : 60},
		{"id" : 24, "text" : "1944년", "type" : "", "begin" : 61, "end" : 62},
		{"id" : 25, "text" : "임시정부", "type" : "", "begin" : 63, "end" : 64},
		{"id" : 26, "text" : "군무부장에", "type" : "", "begin" : 65, "end" : 67},
		{"id" : 27, "text" : "선출됐다.", "type" : "", "begin" : 68, "end" : 72}
	],
	"NE" : [
	],
	"chunk" : [
	],
	"dependency" : [
		{"id" : 0, "text" : "1935년", "head" : 5, "label" : "NP", "mod" : [], "weight" : 0.509609 },
		{"id" : 1, "text" : "김규식(金奎植)", "head" : 2, "label" : "NP", "mod" : [], "weight" : 0.989723 },
		{"id" : 2, "text" : "등과", "head" : 5, "label" : "NP_AJT", "mod" : [1], "weight" : 0.656617 },
		{"id" : 3, "text" : "민족혁명당을", "head" : 5, "label" : "NP_OBJ", "mod" : [], "weight" : 0.948436 },
		{"id" : 4, "text" : "창당", "head" : 5, "label" : "NP", "mod" : [], "weight" : 0.595561 },
		{"id" : 5, "text" : "활동하다가", "head" : 12, "label" : "VP", "mod" : [0, 2, 3, 4], "weight" : 0.546457 },
		{"id" : 6, "text" : "중국", "head" : 7, "label" : "NP", "mod" : [], "weight" : 0.693894 },
		{"id" : 7, "text" : "국민당의", "head" : 11, "label" : "NP_MOD", "mod" : [6], "weight" : 0.624637 },
		{"id" : 8, "text" : "한국", "head" : 9, "label" : "NP", "mod" : [], "weight" : 0.653846 },
		{"id" : 9, "text" : "독립운동단체", "head" : 11, "label" : "NP", "mod" : [8], "weight" : 0.677762 },
		{"id" : 10, "text" : "통합", "head" : 11, "label" : "NP", "mod" : [], "weight" : 0.72392 },
		{"id" : 11, "text" : "요구에", "head" : 12, "label" : "NP_AJT", "mod" : [7, 9, 10], "weight" : 0.671806 },
		{"id" : 12, "text" : "부응,", "head" : 16, "label" : "NP", "mod" : [5, 11], "weight" : 0.699973 },
		{"id" : 13, "text" : "1940년대초,", "head" : 16, "label" : "NP_AJT", "mod" : [], "weight" : 0.665657 },
		{"id" : 14, "text" : "대한민국", "head" : 15, "label" : "NP", "mod" : [], "weight" : 0.736536 },
		{"id" : 15, "text" : "임시정부에", "head" : 16, "label" : "NP_AJT", "mod" : [14], "weight" : 0.718807 },
		{"id" : 16, "text" : "합류하여", "head" : 23, "label" : "VP", "mod" : [12, 13, 15], "weight" : 0.868031 },
		{"id" : 17, "text" : "임시의정원(경상도", "head" : 18, "label" : "NP", "mod" : [], "weight" : 0.901728 },
		{"id" : 18, "text" : "지역구)의원,", "head" : 22, "label" : "NP_CNJ", "mod" : [17], "weight" : 0.503064 },
		{"id" : 19, "text" : "광복군", "head" : 20, "label" : "NP", "mod" : [], "weight" : 0.852164 },
		{"id" : 20, "text" : "부사령관", "head" : 21, "label" : "NP", "mod" : [19], "weight" : 0.559702 },
		{"id" : 21, "text" : "겸", "head" : 22, "label" : "NP", "mod" : [20], "weight" : 0.640764 },
		{"id" : 22, "text" : "제1지대장으로", "head" : 23, "label" : "NP_AJT", "mod" : [18, 21], "weight" : 0.617996 },
		{"id" : 23, "text" : "활동하고", "head" : 27, "label" : "VP", "mod" : [16, 22], "weight" : 0.591078 },
		{"id" : 24, "text" : "1944년", "head" : 27, "label" : "NP_AJT", "mod" : [], "weight" : 0.476122 },
		{"id" : 25, "text" : "임시정부", "head" : 26, "label" : "NP", "mod" : [], "weight" : 0.941339 },
		{"id" : 26, "text" : "군무부장에", "head" : 27, "label" : "NP_AJT", "mod" : [25], "weight" : 0.608924 },
		{"id" : 27, "text" : "선출됐다.", "head" : -1, "label" : "VP", "mod" : [23, 24, 26], "weight" : 0.20451 }
	],
	"phrase_dependency" : [
	],
	"SRL" : [
	],
	"relation" : [
	],
	"SA" : [
	],
	"ZA" : [
	]
	}
 ],
 "entity" : [
 ]
}

