{"doc_id" : "936.033_A.04",
 "DCT" : "",
 "category" : "",
 "category_weight" : 0,
 "title" : {"text" : "죄와 벌", "NE" : ""},
 "metaInfo" : { },
 "sentence" : [
	{
	"id" : 0,
	"reserve_str" : "",
	"text" : "7월 어느 무더운 날 저녁, 대학생 라스콜리니코프는 페테르부르크의 거리를 방황하고 있었다.",
	"morp" : [
	],
	"morp_eval" : [
	],
	"WSD" : [
	],
	"word" : [
		{"id" : 0, "text" : "7월", "type" : "", "begin" : 0, "end" : 1},
		{"id" : 1, "text" : "어느", "type" : "", "begin" : 2, "end" : 2},
		{"id" : 2, "text" : "무더운", "type" : "", "begin" : 3, "end" : 4},
		{"id" : 3, "text" : "날", "type" : "", "begin" : 5, "end" : 5},
		{"id" : 4, "text" : "저녁,", "type" : "", "begin" : 6, "end" : 7},
		{"id" : 5, "text" : "대학생", "type" : "", "begin" : 8, "end" : 9},
		{"id" : 6, "text" : "라스콜리니코프는", "type" : "", "begin" : 10, "end" : 11},
		{"id" : 7, "text" : "페테르부르크의", "type" : "", "begin" : 12, "end" : 13},
		{"id" : 8, "text" : "거리를", "type" : "", "begin" : 14, "end" : 15},
		{"id" : 9, "text" : "방황하고", "type" : "", "begin" : 16, "end" : 18},
		{"id" : 10, "text" : "있었다.", "type" : "", "begin" : 19, "end" : 22}
	],
	"NE" : [
	],
	"chunk" : [
	],
	"dependency" : [
		{"id" : 0, "text" : "7월", "head" : 3, "label" : "NP", "mod" : [], "weight" : 0.519292 },
		{"id" : 1, "text" : "어느", "head" : 3, "label" : "DP", "mod" : [], "weight" : 0.593772 },
		{"id" : 2, "text" : "무더운", "head" : 3, "label" : "VP_MOD", "mod" : [], "weight" : 0.635873 },
		{"id" : 3, "text" : "날", "head" : 4, "label" : "NP", "mod" : [0, 1, 2], "weight" : 0.877144 },
		{"id" : 4, "text" : "저녁,", "head" : 9, "label" : "NP_AJT", "mod" : [3], "weight" : 0.576759 },
		{"id" : 5, "text" : "대학생", "head" : 6, "label" : "NP", "mod" : [], "weight" : 0.857926 },
		{"id" : 6, "text" : "라스콜리니코프는", "head" : 9, "label" : "NP_SBJ", "mod" : [5], "weight" : 0.709009 },
		{"id" : 7, "text" : "페테르부르크의", "head" : 8, "label" : "NP_MOD", "mod" : [], "weight" : 0.862752 },
		{"id" : 8, "text" : "거리를", "head" : 9, "label" : "NP_OBJ", "mod" : [7], "weight" : 0.666931 },
		{"id" : 9, "text" : "방황하고", "head" : 10, "label" : "VP", "mod" : [4, 6, 8], "weight" : 0.626276 },
		{"id" : 10, "text" : "있었다.", "head" : -1, "label" : "VP", "mod" : [9], "weight" : 0.165979 }
	],
	"phrase_dependency" : [
	],
	"SRL" : [
	],
	"relation" : [
	],
	"SA" : [
	],
	"ZA" : [
	]
	},
	{
	"id" : 1,
	"reserve_str" : "",
	"text" : "그는 남에게 백해무익한 사람의 돈을 빼앗아 훌륭한 사람을 위해 쓴다는 것은 아무런 죄가 될 것이 없다고 생각하고 있는 터였다.",
	"morp" : [
	],
	"morp_eval" : [
	],
	"WSD" : [
	],
	"word" : [
		{"id" : 0, "text" : "그는", "type" : "", "begin" : 0, "end" : 1},
		{"id" : 1, "text" : "남에게", "type" : "", "begin" : 2, "end" : 3},
		{"id" : 2, "text" : "백해무익한", "type" : "", "begin" : 4, "end" : 7},
		{"id" : 3, "text" : "사람의", "type" : "", "begin" : 8, "end" : 9},
		{"id" : 4, "text" : "돈을", "type" : "", "begin" : 10, "end" : 11},
		{"id" : 5, "text" : "빼앗아", "type" : "", "begin" : 12, "end" : 13},
		{"id" : 6, "text" : "훌륭한", "type" : "", "begin" : 14, "end" : 15},
		{"id" : 7, "text" : "사람을", "type" : "", "begin" : 16, "end" : 17},
		{"id" : 8, "text" : "위해", "type" : "", "begin" : 18, "end" : 19},
		{"id" : 9, "text" : "쓴다는", "type" : "", "begin" : 20, "end" : 21},
		{"id" : 10, "text" : "것은", "type" : "", "begin" : 22, "end" : 23},
		{"id" : 11, "text" : "아무런", "type" : "", "begin" : 24, "end" : 24},
		{"id" : 12, "text" : "죄가", "type" : "", "begin" : 25, "end" : 26},
		{"id" : 13, "text" : "될", "type" : "", "begin" : 27, "end" : 28},
		{"id" : 14, "text" : "것이", "type" : "", "begin" : 29, "end" : 30},
		{"id" : 15, "text" : "없다고", "type" : "", "begin" : 31, "end" : 32},
		{"id" : 16, "text" : "생각하고", "type" : "", "begin" : 33, "end" : 35},
		{"id" : 17, "text" : "있는", "type" : "", "begin" : 36, "end" : 37},
		{"id" : 18, "text" : "터였다.", "type" : "", "begin" : 38, "end" : 42}
	],
	"NE" : [
	],
	"chunk" : [
	],
	"dependency" : [
		{"id" : 0, "text" : "그는", "head" : 16, "label" : "NP_SBJ", "mod" : [], "weight" : 0.589577 },
		{"id" : 1, "text" : "남에게", "head" : 2, "label" : "NP_AJT", "mod" : [], "weight" : 0.759104 },
		{"id" : 2, "text" : "백해무익한", "head" : 3, "label" : "VP_MOD", "mod" : [1], "weight" : 0.651509 },
		{"id" : 3, "text" : "사람의", "head" : 4, "label" : "NP_MOD", "mod" : [2], "weight" : 0.860028 },
		{"id" : 4, "text" : "돈을", "head" : 5, "label" : "NP_OBJ", "mod" : [3], "weight" : 0.934778 },
		{"id" : 5, "text" : "빼앗아", "head" : 8, "label" : "VP", "mod" : [4], "weight" : 0.746363 },
		{"id" : 6, "text" : "훌륭한", "head" : 7, "label" : "VP_MOD", "mod" : [], "weight" : 0.828147 },
		{"id" : 7, "text" : "사람을", "head" : 8, "label" : "NP_OBJ", "mod" : [6], "weight" : 0.844814 },
		{"id" : 8, "text" : "위해", "head" : 9, "label" : "VP", "mod" : [5, 7], "weight" : 0.902337 },
		{"id" : 9, "text" : "쓴다는", "head" : 10, "label" : "VP_MOD", "mod" : [8], "weight" : 0.913458 },
		{"id" : 10, "text" : "것은", "head" : 13, "label" : "NP_SBJ", "mod" : [9], "weight" : 0.901306 },
		{"id" : 11, "text" : "아무런", "head" : 12, "label" : "DP", "mod" : [], "weight" : 0.653699 },
		{"id" : 12, "text" : "죄가", "head" : 13, "label" : "NP_CMP", "mod" : [11], "weight" : 0.83078 },
		{"id" : 13, "text" : "될", "head" : 14, "label" : "VP_MOD", "mod" : [10, 12], "weight" : 0.880702 },
		{"id" : 14, "text" : "것이", "head" : 15, "label" : "NP_SBJ", "mod" : [13], "weight" : 0.976607 },
		{"id" : 15, "text" : "없다고", "head" : 16, "label" : "VP_CMP", "mod" : [14], "weight" : 0.742287 },
		{"id" : 16, "text" : "생각하고", "head" : 17, "label" : "VP", "mod" : [0, 15], "weight" : 0.607742 },
		{"id" : 17, "text" : "있는", "head" : 18, "label" : "VP_MOD", "mod" : [16], "weight" : 0.563103 },
		{"id" : 18, "text" : "터였다.", "head" : -1, "label" : "VNP", "mod" : [17], "weight" : 0.756361 }
	],
	"phrase_dependency" : [
	],
	"SRL" : [
	],
	"relation" : [
	],
	"SA" : [
	],
	"ZA" : [
	]
	},
	{
	"id" : 2,
	"reserve_str" : "",
	"text" : "그는 신념의 실현을 위해 고리대금 업자인 노파를 대상으로 삼았다.",
	"morp" : [
	],
	"morp_eval" : [
	],
	"WSD" : [
	],
	"word" : [
		{"id" : 0, "text" : "그는", "type" : "", "begin" : 0, "end" : 1},
		{"id" : 1, "text" : "신념의", "type" : "", "begin" : 2, "end" : 3},
		{"id" : 2, "text" : "실현을", "type" : "", "begin" : 4, "end" : 5},
		{"id" : 3, "text" : "위해", "type" : "", "begin" : 6, "end" : 7},
		{"id" : 4, "text" : "고리대금", "type" : "", "begin" : 8, "end" : 9},
		{"id" : 5, "text" : "업자인", "type" : "", "begin" : 10, "end" : 12},
		{"id" : 6, "text" : "노파를", "type" : "", "begin" : 13, "end" : 14},
		{"id" : 7, "text" : "대상으로", "type" : "", "begin" : 15, "end" : 16},
		{"id" : 8, "text" : "삼았다.", "type" : "", "begin" : 17, "end" : 20}
	],
	"NE" : [
	],
	"chunk" : [
	],
	"dependency" : [
		{"id" : 0, "text" : "그는", "head" : 3, "label" : "NP_SBJ", "mod" : [], "weight" : 0.740896 },
		{"id" : 1, "text" : "신념의", "head" : 2, "label" : "NP_MOD", "mod" : [], "weight" : 0.884223 },
		{"id" : 2, "text" : "실현을", "head" : 3, "label" : "NP_OBJ", "mod" : [1], "weight" : 0.849271 },
		{"id" : 3, "text" : "위해", "head" : 8, "label" : "VP", "mod" : [0, 2], "weight" : 0.632443 },
		{"id" : 4, "text" : "고리대금", "head" : 5, "label" : "NP", "mod" : [], "weight" : 0.842126 },
		{"id" : 5, "text" : "업자인", "head" : 6, "label" : "VNP_MOD", "mod" : [4], "weight" : 0.918517 },
		{"id" : 6, "text" : "노파를", "head" : 8, "label" : "NP_OBJ", "mod" : [5], "weight" : 0.550066 },
		{"id" : 7, "text" : "대상으로", "head" : 8, "label" : "NP_AJT", "mod" : [], "weight" : 0.58752 },
		{"id" : 8, "text" : "삼았다.", "head" : -1, "label" : "VP", "mod" : [3, 6, 7], "weight" : 0.632011 }
	],
	"phrase_dependency" : [
	],
	"SRL" : [
	],
	"relation" : [
	],
	"SA" : [
	],
	"ZA" : [
	]
	}
 ],
 "entity" : [
 ]
}

