{"doc_id" : "936.026_A.04",
 "DCT" : "",
 "category" : "",
 "category_weight" : 0,
 "title" : {"text" : "에르빈 슈뢰딩거", "NE" : ""},
 "metaInfo" : { },
 "sentence" : [
	{
	"id" : 0,
	"reserve_str" : "",
	"text" : "슈뢰딩거의 파동방정식을 발표하고, 원자이론의 새로운 형식을 발견한 공로로 1933년 노벨 물리학상을 수상하였다.",
	"morp" : [
	],
	"morp_eval" : [
	],
	"WSD" : [
	],
	"word" : [
		{"id" : 0, "text" : "슈뢰딩거의", "type" : "", "begin" : 0, "end" : 1},
		{"id" : 1, "text" : "파동방정식을", "type" : "", "begin" : 2, "end" : 4},
		{"id" : 2, "text" : "발표하고,", "type" : "", "begin" : 5, "end" : 8},
		{"id" : 3, "text" : "원자이론의", "type" : "", "begin" : 9, "end" : 11},
		{"id" : 4, "text" : "새로운", "type" : "", "begin" : 12, "end" : 13},
		{"id" : 5, "text" : "형식을", "type" : "", "begin" : 14, "end" : 15},
		{"id" : 6, "text" : "발견한", "type" : "", "begin" : 16, "end" : 18},
		{"id" : 7, "text" : "공로로", "type" : "", "begin" : 19, "end" : 20},
		{"id" : 8, "text" : "1933년", "type" : "", "begin" : 21, "end" : 22},
		{"id" : 9, "text" : "노벨", "type" : "", "begin" : 23, "end" : 23},
		{"id" : 10, "text" : "물리학상을", "type" : "", "begin" : 24, "end" : 27},
		{"id" : 11, "text" : "수상하였다.", "type" : "", "begin" : 28, "end" : 32}
	],
	"NE" : [
	],
	"chunk" : [
	],
	"dependency" : [
		{"id" : 0, "text" : "슈뢰딩거의", "head" : 1, "label" : "NP_MOD", "mod" : [], "weight" : 0.812856 },
		{"id" : 1, "text" : "파동방정식을", "head" : 2, "label" : "NP_OBJ", "mod" : [0], "weight" : 0.700048 },
		{"id" : 2, "text" : "발표하고,", "head" : 6, "label" : "VP", "mod" : [1], "weight" : 0.816943 },
		{"id" : 3, "text" : "원자이론의", "head" : 5, "label" : "NP_MOD", "mod" : [], "weight" : 0.797865 },
		{"id" : 4, "text" : "새로운", "head" : 5, "label" : "VP_MOD", "mod" : [], "weight" : 0.88603 },
		{"id" : 5, "text" : "형식을", "head" : 6, "label" : "NP_OBJ", "mod" : [3, 4], "weight" : 0.653567 },
		{"id" : 6, "text" : "발견한", "head" : 7, "label" : "VP_MOD", "mod" : [2, 5], "weight" : 0.907712 },
		{"id" : 7, "text" : "공로로", "head" : 11, "label" : "NP_AJT", "mod" : [6], "weight" : 0.702061 },
		{"id" : 8, "text" : "1933년", "head" : 11, "label" : "NP_AJT", "mod" : [], "weight" : 0.429946 },
		{"id" : 9, "text" : "노벨", "head" : 10, "label" : "NP", "mod" : [], "weight" : 0.688456 },
		{"id" : 10, "text" : "물리학상을", "head" : 11, "label" : "NP_OBJ", "mod" : [9], "weight" : 0.547638 },
		{"id" : 11, "text" : "수상하였다.", "head" : -1, "label" : "VP", "mod" : [7, 8, 10], "weight" : 0.155038 }
	],
	"phrase_dependency" : [
	],
	"SRL" : [
	],
	"relation" : [
	],
	"SA" : [
	],
	"ZA" : [
	]
	}
 ],
 "entity" : [
 ]
}

