{"doc_id" : "936.022_Q.01",
 "DCT" : "",
 "category" : "",
 "category_weight" : 0,
 "title" : {"text" : "Q22", "NE" : ""},
 "metaInfo" : { },
 "sentence" : [
	{
	"id" : 0,
	"reserve_str" : "",
	"text" : "도플러 효과에서 빛을 내는 물체의 스펙트럼이 관측자와 멀어지면 파장이 긴 쪽으로 치우치는 이것이 나타난다.",
	"morp" : [
	],
	"morp_eval" : [
	],
	"WSD" : [
	],
	"word" : [
		{"id" : 0, "text" : "도플러", "type" : "", "begin" : 0, "end" : 0},
		{"id" : 1, "text" : "효과에서", "type" : "", "begin" : 1, "end" : 2},
		{"id" : 2, "text" : "빛을", "type" : "", "begin" : 3, "end" : 4},
		{"id" : 3, "text" : "내는", "type" : "", "begin" : 5, "end" : 6},
		{"id" : 4, "text" : "물체의", "type" : "", "begin" : 7, "end" : 8},
		{"id" : 5, "text" : "스펙트럼이", "type" : "", "begin" : 9, "end" : 10},
		{"id" : 6, "text" : "관측자와", "type" : "", "begin" : 11, "end" : 13},
		{"id" : 7, "text" : "멀어지면", "type" : "", "begin" : 14, "end" : 17},
		{"id" : 8, "text" : "파장이", "type" : "", "begin" : 18, "end" : 19},
		{"id" : 9, "text" : "긴", "type" : "", "begin" : 20, "end" : 21},
		{"id" : 10, "text" : "쪽으로", "type" : "", "begin" : 22, "end" : 23},
		{"id" : 11, "text" : "치우치는", "type" : "", "begin" : 24, "end" : 25},
		{"id" : 12, "text" : "이것이", "type" : "", "begin" : 26, "end" : 27},
		{"id" : 13, "text" : "나타난다.", "type" : "", "begin" : 28, "end" : 30}
	],
	"NE" : [
	],
	"chunk" : [
	],
	"dependency" : [
		{"id" : 0, "text" : "도플러", "head" : 1, "label" : "NP", "mod" : [], "weight" : 0.680339 },
		{"id" : 1, "text" : "효과에서", "head" : 13, "label" : "NP_AJT", "mod" : [0], "weight" : 0.576068 },
		{"id" : 2, "text" : "빛을", "head" : 3, "label" : "NP_OBJ", "mod" : [], "weight" : 0.752625 },
		{"id" : 3, "text" : "내는", "head" : 4, "label" : "VP_MOD", "mod" : [2], "weight" : 0.559413 },
		{"id" : 4, "text" : "물체의", "head" : 5, "label" : "NP_MOD", "mod" : [3], "weight" : 0.824272 },
		{"id" : 5, "text" : "스펙트럼이", "head" : 7, "label" : "NP_SBJ", "mod" : [4], "weight" : 0.671286 },
		{"id" : 6, "text" : "관측자와", "head" : 7, "label" : "NP_AJT", "mod" : [], "weight" : 0.750436 },
		{"id" : 7, "text" : "멀어지면", "head" : 11, "label" : "VP", "mod" : [5, 6], "weight" : 0.551749 },
		{"id" : 8, "text" : "파장이", "head" : 9, "label" : "NP_SBJ", "mod" : [], "weight" : 0.586112 },
		{"id" : 9, "text" : "긴", "head" : 10, "label" : "VP_MOD", "mod" : [8], "weight" : 0.920815 },
		{"id" : 10, "text" : "쪽으로", "head" : 11, "label" : "NP_AJT", "mod" : [9], "weight" : 0.896405 },
		{"id" : 11, "text" : "치우치는", "head" : 12, "label" : "VP_MOD", "mod" : [7, 10], "weight" : 0.69449 },
		{"id" : 12, "text" : "이것이", "head" : 13, "label" : "NP_SBJ", "mod" : [11], "weight" : 0.550094 },
		{"id" : 13, "text" : "나타난다.", "head" : -1, "label" : "VP", "mod" : [1, 12], "weight" : 0.528542 }
	],
	"phrase_dependency" : [
	],
	"SRL" : [
	],
	"relation" : [
	],
	"SA" : [
	],
	"ZA" : [
	]
	},
	{
	"id" : 1,
	"reserve_str" : "",
	"text" : "이것은 무엇일까?",
	"morp" : [
	],
	"morp_eval" : [
	],
	"WSD" : [
	],
	"word" : [
		{"id" : 0, "text" : "이것은", "type" : "", "begin" : 0, "end" : 1},
		{"id" : 1, "text" : "무엇일까?", "type" : "", "begin" : 2, "end" : 5}
	],
	"NE" : [
	],
	"chunk" : [
	],
	"dependency" : [
		{"id" : 0, "text" : "이것은", "head" : 1, "label" : "NP_SBJ", "mod" : [], "weight" : 0.717055 },
		{"id" : 1, "text" : "무엇일까?", "head" : -1, "label" : "VNP", "mod" : [0], "weight" : 0.533315 }
	],
	"phrase_dependency" : [
	],
	"SRL" : [
	],
	"relation" : [
	],
	"SA" : [
	],
	"ZA" : [
	]
	}
 ],
 "entity" : [
 ]
}

