{"doc_id" : "936.037_A.02",
 "DCT" : "",
 "category" : "",
 "category_weight" : 0,
 "title" : {"text" : "흠흠신서", "NE" : ""},
 "metaInfo" : { },
 "sentence" : [
	{
	"id" : 0,
	"reserve_str" : "",
	"text" : "<책명> 조선 정조 때에 정약용이 지은 책.",
	"morp" : [
	],
	"morp_eval" : [
	],
	"WSD" : [
	],
	"word" : [
		{"id" : 0, "text" : "<책명>", "type" : "", "begin" : 0, "end" : 2},
		{"id" : 1, "text" : "조선", "type" : "", "begin" : 3, "end" : 3},
		{"id" : 2, "text" : "정조", "type" : "", "begin" : 4, "end" : 4},
		{"id" : 3, "text" : "때에", "type" : "", "begin" : 5, "end" : 6},
		{"id" : 4, "text" : "정약용이", "type" : "", "begin" : 7, "end" : 8},
		{"id" : 5, "text" : "지은", "type" : "", "begin" : 9, "end" : 10},
		{"id" : 6, "text" : "책.", "type" : "", "begin" : 11, "end" : 12}
	],
	"NE" : [
	],
	"chunk" : [
	],
	"dependency" : [
		{"id" : 0, "text" : "<책명>", "head" : 6, "label" : "NP", "mod" : [], "weight" : 0.560193 },
		{"id" : 1, "text" : "조선", "head" : 2, "label" : "NP", "mod" : [], "weight" : 0.680464 },
		{"id" : 2, "text" : "정조", "head" : 3, "label" : "NP", "mod" : [1], "weight" : 0.823382 },
		{"id" : 3, "text" : "때에", "head" : 5, "label" : "NP_AJT", "mod" : [2], "weight" : 0.654029 },
		{"id" : 4, "text" : "정약용이", "head" : 5, "label" : "NP_SBJ", "mod" : [], "weight" : 0.887518 },
		{"id" : 5, "text" : "지은", "head" : 6, "label" : "VP_MOD", "mod" : [3, 4], "weight" : 0.460126 },
		{"id" : 6, "text" : "책.", "head" : -1, "label" : "NP", "mod" : [0, 5], "weight" : 0.407936 }
	],
	"phrase_dependency" : [
	],
	"SRL" : [
	],
	"relation" : [
	],
	"SA" : [
	],
	"ZA" : [
	]
	},
	{
	"id" : 1,
	"reserve_str" : "",
	"text" : "형벌 일을 맡은 벼슬아치들이 유의할 점에 관한내용이다.",
	"morp" : [
	],
	"morp_eval" : [
	],
	"WSD" : [
	],
	"word" : [
		{"id" : 0, "text" : "형벌", "type" : "", "begin" : 0, "end" : 0},
		{"id" : 1, "text" : "일을", "type" : "", "begin" : 1, "end" : 2},
		{"id" : 2, "text" : "맡은", "type" : "", "begin" : 3, "end" : 4},
		{"id" : 3, "text" : "벼슬아치들이", "type" : "", "begin" : 5, "end" : 8},
		{"id" : 4, "text" : "유의할", "type" : "", "begin" : 9, "end" : 11},
		{"id" : 5, "text" : "점에", "type" : "", "begin" : 12, "end" : 13},
		{"id" : 6, "text" : "관한내용이다.", "type" : "", "begin" : 14, "end" : 17}
	],
	"NE" : [
	],
	"chunk" : [
	],
	"dependency" : [
		{"id" : 0, "text" : "형벌", "head" : 1, "label" : "NP", "mod" : [], "weight" : 0.741601 },
		{"id" : 1, "text" : "일을", "head" : 2, "label" : "NP_OBJ", "mod" : [0], "weight" : 0.734057 },
		{"id" : 2, "text" : "맡은", "head" : 3, "label" : "VP_MOD", "mod" : [1], "weight" : 0.685721 },
		{"id" : 3, "text" : "벼슬아치들이", "head" : 4, "label" : "NP_SBJ", "mod" : [2], "weight" : 0.944123 },
		{"id" : 4, "text" : "유의할", "head" : 5, "label" : "VP_MOD", "mod" : [3], "weight" : 0.941612 },
		{"id" : 5, "text" : "점에", "head" : 6, "label" : "NP_AJT", "mod" : [4], "weight" : 0.545895 },
		{"id" : 6, "text" : "관한내용이다.", "head" : -1, "label" : "VNP", "mod" : [5], "weight" : 0.125618 }
	],
	"phrase_dependency" : [
	],
	"SRL" : [
	],
	"relation" : [
	],
	"SA" : [
	],
	"ZA" : [
	]
	},
	{
	"id" : 2,
	"reserve_str" : "",
	"text" : "순조 22년(1822)에 간행되었다.",
	"morp" : [
	],
	"morp_eval" : [
	],
	"WSD" : [
	],
	"word" : [
		{"id" : 0, "text" : "순조", "type" : "", "begin" : 0, "end" : 0},
		{"id" : 1, "text" : "22년(1822)에", "type" : "", "begin" : 1, "end" : 6},
		{"id" : 2, "text" : "간행되었다.", "type" : "", "begin" : 7, "end" : 11}
	],
	"NE" : [
	],
	"chunk" : [
	],
	"dependency" : [
		{"id" : 0, "text" : "순조", "head" : 1, "label" : "NP", "mod" : [], "weight" : 0.875083 },
		{"id" : 1, "text" : "22년(1822)에", "head" : 2, "label" : "NP_AJT", "mod" : [0], "weight" : 0.664669 },
		{"id" : 2, "text" : "간행되었다.", "head" : -1, "label" : "VP", "mod" : [1], "weight" : 0.398992 }
	],
	"phrase_dependency" : [
	],
	"SRL" : [
	],
	"relation" : [
	],
	"SA" : [
	],
	"ZA" : [
	]
	}
 ],
 "entity" : [
 ]
}

