{"doc_id" : "",
 "DCT" : "",
 "category" : "",
 "category_weight" : 0,
 "title" : {"text" : "지록위마", "NE" : ""},
 "metaInfo" : { },
 "paragraphInfo" : [
 ], 
 "sentence" : [
	{
	"id" : 0,
	"reserve_str" : "",
	"text" : "사슴을 가리켜 말이라 한다는 뜻으로, 윗사람을 농락하고 권세를 함부로 부리는 것을 비유한 말.",
	"morp" : [
	],
	"morp_eval" : [
	],
	"WSD" : [
	],
	"word" : [
		{"id" : 0, "text" : "사슴을", "type" : "", "begin" : 0, "end" : 1},
		{"id" : 1, "text" : "가리켜", "type" : "", "begin" : 2, "end" : 3},
		{"id" : 2, "text" : "말이라", "type" : "", "begin" : 4, "end" : 6},
		{"id" : 3, "text" : "한다는", "type" : "", "begin" : 7, "end" : 8},
		{"id" : 4, "text" : "뜻으로,", "type" : "", "begin" : 9, "end" : 11},
		{"id" : 5, "text" : "윗사람을", "type" : "", "begin" : 12, "end" : 13},
		{"id" : 6, "text" : "농락하고", "type" : "", "begin" : 14, "end" : 16},
		{"id" : 7, "text" : "권세를", "type" : "", "begin" : 17, "end" : 18},
		{"id" : 8, "text" : "함부로", "type" : "", "begin" : 19, "end" : 19},
		{"id" : 9, "text" : "부리는", "type" : "", "begin" : 20, "end" : 21},
		{"id" : 10, "text" : "것을", "type" : "", "begin" : 22, "end" : 23},
		{"id" : 11, "text" : "비유한", "type" : "", "begin" : 24, "end" : 26},
		{"id" : 12, "text" : "말.", "type" : "", "begin" : 27, "end" : 28}
	],
	"NE" : [
	],
	"chunk" : [
	],
	"dependency" : [
		{"id" : 0, "text" : "사슴을", "head" : 1, "label" : "NP_OBJ", "mod" : [], "weight" : 0.863214 },
		{"id" : 1, "text" : "가리켜", "head" : 2, "label" : "VP", "mod" : [0], "weight" : 0.820471 },
		{"id" : 2, "text" : "말이라", "head" : 3, "label" : "VNP_CMP", "mod" : [1], "weight" : 0.816679 },
		{"id" : 3, "text" : "한다는", "head" : 4, "label" : "VP_MOD", "mod" : [2], "weight" : 0.618403 },
		{"id" : 4, "text" : "뜻으로,", "head" : 11, "label" : "NP_AJT", "mod" : [3], "weight" : 0.577815 },
		{"id" : 5, "text" : "윗사람을", "head" : 6, "label" : "NP_OBJ", "mod" : [], "weight" : 0.808447 },
		{"id" : 6, "text" : "농락하고", "head" : 9, "label" : "VP", "mod" : [5], "weight" : 0.718726 },
		{"id" : 7, "text" : "권세를", "head" : 9, "label" : "NP_OBJ", "mod" : [], "weight" : 0.99282 },
		{"id" : 8, "text" : "함부로", "head" : 9, "label" : "AP", "mod" : [], "weight" : 0.823024 },
		{"id" : 9, "text" : "부리는", "head" : 10, "label" : "VP_MOD", "mod" : [6, 7, 8], "weight" : 0.856742 },
		{"id" : 10, "text" : "것을", "head" : 11, "label" : "NP_OBJ", "mod" : [9], "weight" : 0.901394 },
		{"id" : 11, "text" : "비유한", "head" : 12, "label" : "VP_MOD", "mod" : [4, 10], "weight" : 0.632373 },
		{"id" : 12, "text" : "말.", "head" : -1, "label" : "NP", "mod" : [11], "weight" : 0.249092 }
	],
	"phrase_dependency" : [
	],
	"SRL" : [
	],
	"relation" : [
	],
	"SA" : [
	],
	"ZA" : [
	]
	}
 ],
 "entity" : [
 ]
}

