{"doc_id" : "",
 "DCT" : "",
 "category" : "",
 "category_weight" : 0,
 "title" : {"text" : "Q11", "NE" : ""},
 "metaInfo" : { },
 "paragraphInfo" : [
 ], 
 "sentence" : [
	{
	"id" : 0,
	"reserve_str" : "",
	"text" : "카프카의 <변신>에서 아버지는, 벌레로 변한 그레고르에게 이것을 던져 깊은 상처를 입힌다.",
	"morp" : [
	],
	"morp_eval" : [
	],
	"WSD" : [
	],
	"word" : [
		{"id" : 0, "text" : "카프카의", "type" : "", "begin" : 0, "end" : 1},
		{"id" : 1, "text" : "<변신>에서", "type" : "", "begin" : 2, "end" : 5},
		{"id" : 2, "text" : "아버지는,", "type" : "", "begin" : 6, "end" : 8},
		{"id" : 3, "text" : "벌레로", "type" : "", "begin" : 9, "end" : 10},
		{"id" : 4, "text" : "변한", "type" : "", "begin" : 11, "end" : 12},
		{"id" : 5, "text" : "그레고르에게", "type" : "", "begin" : 13, "end" : 14},
		{"id" : 6, "text" : "이것을", "type" : "", "begin" : 15, "end" : 16},
		{"id" : 7, "text" : "던져", "type" : "", "begin" : 17, "end" : 18},
		{"id" : 8, "text" : "깊은", "type" : "", "begin" : 19, "end" : 20},
		{"id" : 9, "text" : "상처를", "type" : "", "begin" : 21, "end" : 22},
		{"id" : 10, "text" : "입힌다.", "type" : "", "begin" : 23, "end" : 25}
	],
	"NE" : [
	],
	"chunk" : [
	],
	"dependency" : [
		{"id" : 0, "text" : "카프카의", "head" : 1, "label" : "NP_MOD", "mod" : [], "weight" : 0.905142 },
		{"id" : 1, "text" : "<변신>에서", "head" : 7, "label" : "NP_AJT", "mod" : [0], "weight" : 0.794241 },
		{"id" : 2, "text" : "아버지는,", "head" : 7, "label" : "NP_SBJ", "mod" : [], "weight" : 0.969856 },
		{"id" : 3, "text" : "벌레로", "head" : 4, "label" : "NP_AJT", "mod" : [], "weight" : 0.918998 },
		{"id" : 4, "text" : "변한", "head" : 5, "label" : "VP_MOD", "mod" : [3], "weight" : 0.803702 },
		{"id" : 5, "text" : "그레고르에게", "head" : 7, "label" : "NP_AJT", "mod" : [4], "weight" : 0.940642 },
		{"id" : 6, "text" : "이것을", "head" : 7, "label" : "NP_OBJ", "mod" : [], "weight" : 0.87345 },
		{"id" : 7, "text" : "던져", "head" : 10, "label" : "VP", "mod" : [1, 2, 5, 6], "weight" : 0.717966 },
		{"id" : 8, "text" : "깊은", "head" : 9, "label" : "VP_MOD", "mod" : [], "weight" : 0.920282 },
		{"id" : 9, "text" : "상처를", "head" : 10, "label" : "NP_OBJ", "mod" : [8], "weight" : 0.584066 },
		{"id" : 10, "text" : "입힌다.", "head" : -1, "label" : "VP", "mod" : [7, 9], "weight" : 0.129715 }
	],
	"phrase_dependency" : [
	],
	"SRL" : [
	],
	"relation" : [
	],
	"SA" : [
	],
	"ZA" : [
	]
	},
	{
	"id" : 1,
	"reserve_str" : "",
	"text" : " 이것은 무엇일까?",
	"morp" : [
	],
	"morp_eval" : [
	],
	"WSD" : [
	],
	"word" : [
		{"id" : 0, "text" : "이것은", "type" : "", "begin" : 0, "end" : 1},
		{"id" : 1, "text" : "무엇일까?", "type" : "", "begin" : 2, "end" : 5}
	],
	"NE" : [
	],
	"chunk" : [
	],
	"dependency" : [
		{"id" : 0, "text" : "이것은", "head" : 1, "label" : "NP_SBJ", "mod" : [], "weight" : 0.769102 },
		{"id" : 1, "text" : "무엇일까?", "head" : -1, "label" : "VNP", "mod" : [0], "weight" : 0.556699 }
	],
	"phrase_dependency" : [
	],
	"SRL" : [
	],
	"relation" : [
	],
	"SA" : [
	],
	"ZA" : [
	]
	}
 ],
 "entity" : [
 ]
}

