{"doc_id" : "",
 "DCT" : "",
 "category" : "",
 "category_weight" : 0,
 "title" : {"text" : "르완다대학살", "NE" : ""},
 "metaInfo" : { },
 "paragraphInfo" : [
 ], 
 "sentence" : [
	{
	"id" : 0,
	"reserve_str" : "",
	"text" : "1994년 발생한 르완다의 후투족과 투치족 간의 종족 전쟁.",
	"morp" : [
	],
	"morp_eval" : [
	],
	"WSD" : [
	],
	"word" : [
		{"id" : 0, "text" : "1994년", "type" : "", "begin" : 0, "end" : 1},
		{"id" : 1, "text" : "발생한", "type" : "", "begin" : 2, "end" : 4},
		{"id" : 2, "text" : "르완다의", "type" : "", "begin" : 5, "end" : 6},
		{"id" : 3, "text" : "후투족과", "type" : "", "begin" : 7, "end" : 9},
		{"id" : 4, "text" : "투치족", "type" : "", "begin" : 10, "end" : 11},
		{"id" : 5, "text" : "간의", "type" : "", "begin" : 12, "end" : 13},
		{"id" : 6, "text" : "종족", "type" : "", "begin" : 14, "end" : 14},
		{"id" : 7, "text" : "전쟁.", "type" : "", "begin" : 15, "end" : 16}
	],
	"NE" : [
	],
	"chunk" : [
	],
	"dependency" : [
		{"id" : 0, "text" : "1994년", "head" : 1, "label" : "NP_AJT", "mod" : [], "weight" : 0.897318 },
		{"id" : 1, "text" : "발생한", "head" : 7, "label" : "VP_MOD", "mod" : [0], "weight" : 0.573429 },
		{"id" : 2, "text" : "르완다의", "head" : 3, "label" : "NP_MOD", "mod" : [], "weight" : 0.513583 },
		{"id" : 3, "text" : "후투족과", "head" : 4, "label" : "NP_CNJ", "mod" : [2], "weight" : 0.658831 },
		{"id" : 4, "text" : "투치족", "head" : 5, "label" : "NP", "mod" : [3], "weight" : 0.778281 },
		{"id" : 5, "text" : "간의", "head" : 7, "label" : "NP_MOD", "mod" : [4], "weight" : 0.49159 },
		{"id" : 6, "text" : "종족", "head" : 7, "label" : "NP", "mod" : [], "weight" : 0.412908 },
		{"id" : 7, "text" : "전쟁.", "head" : -1, "label" : "NP", "mod" : [5, 6, 1], "weight" : 0.141485 }
	],
	"phrase_dependency" : [
	],
	"SRL" : [
	],
	"relation" : [
	],
	"SA" : [
	],
	"ZA" : [
	]
	},
	{
	"id" : 1,
	"reserve_str" : "",
	"text" : " 1994년 4월 르완다에서 후투족 출신 쥐베날 하비야리마나 대통령이 전용기 격추 사고로 숨지자, 인구의 85%를 차지하는 후투족 강경파가 100여 일 동안 인구의 14%인 투치족과 후투족 온건파 등 전체 인구의 10%에 달하는 80만 명 이상을 학살한 사건이다.",
	"morp" : [
	],
	"morp_eval" : [
	],
	"WSD" : [
	],
	"word" : [
		{"id" : 0, "text" : "1994년", "type" : "", "begin" : 0, "end" : 1},
		{"id" : 1, "text" : "4월", "type" : "", "begin" : 2, "end" : 3},
		{"id" : 2, "text" : "르완다에서", "type" : "", "begin" : 4, "end" : 5},
		{"id" : 3, "text" : "후투족", "type" : "", "begin" : 6, "end" : 6},
		{"id" : 4, "text" : "출신", "type" : "", "begin" : 7, "end" : 7},
		{"id" : 5, "text" : "쥐베날", "type" : "", "begin" : 8, "end" : 8},
		{"id" : 6, "text" : "하비야리마나", "type" : "", "begin" : 9, "end" : 12},
		{"id" : 7, "text" : "대통령이", "type" : "", "begin" : 13, "end" : 14},
		{"id" : 8, "text" : "전용기", "type" : "", "begin" : 15, "end" : 16},
		{"id" : 9, "text" : "격추", "type" : "", "begin" : 17, "end" : 17},
		{"id" : 10, "text" : "사고로", "type" : "", "begin" : 18, "end" : 19},
		{"id" : 11, "text" : "숨지자,", "type" : "", "begin" : 20, "end" : 22},
		{"id" : 12, "text" : "인구의", "type" : "", "begin" : 23, "end" : 24},
		{"id" : 13, "text" : "85%를", "type" : "", "begin" : 25, "end" : 27},
		{"id" : 14, "text" : "차지하는", "type" : "", "begin" : 28, "end" : 30},
		{"id" : 15, "text" : "후투족", "type" : "", "begin" : 31, "end" : 31},
		{"id" : 16, "text" : "강경파가", "type" : "", "begin" : 32, "end" : 34},
		{"id" : 17, "text" : "100여", "type" : "", "begin" : 35, "end" : 36},
		{"id" : 18, "text" : "일", "type" : "", "begin" : 37, "end" : 37},
		{"id" : 19, "text" : "동안", "type" : "", "begin" : 38, "end" : 38},
		{"id" : 20, "text" : "인구의", "type" : "", "begin" : 39, "end" : 40},
		{"id" : 21, "text" : "14%인", "type" : "", "begin" : 41, "end" : 44},
		{"id" : 22, "text" : "투치족과", "type" : "", "begin" : 45, "end" : 47},
		{"id" : 23, "text" : "후투족", "type" : "", "begin" : 48, "end" : 48},
		{"id" : 24, "text" : "온건파", "type" : "", "begin" : 49, "end" : 50},
		{"id" : 25, "text" : "등", "type" : "", "begin" : 51, "end" : 51},
		{"id" : 26, "text" : "전체", "type" : "", "begin" : 52, "end" : 52},
		{"id" : 27, "text" : "인구의", "type" : "", "begin" : 53, "end" : 54},
		{"id" : 28, "text" : "10%에", "type" : "", "begin" : 55, "end" : 57},
		{"id" : 29, "text" : "달하는", "type" : "", "begin" : 58, "end" : 59},
		{"id" : 30, "text" : "80만", "type" : "", "begin" : 60, "end" : 61},
		{"id" : 31, "text" : "명", "type" : "", "begin" : 62, "end" : 62},
		{"id" : 32, "text" : "이상을", "type" : "", "begin" : 63, "end" : 64},
		{"id" : 33, "text" : "학살한", "type" : "", "begin" : 65, "end" : 67},
		{"id" : 34, "text" : "사건이다.", "type" : "", "begin" : 68, "end" : 71}
	],
	"NE" : [
	],
	"chunk" : [
	],
	"dependency" : [
		{"id" : 0, "text" : "1994년", "head" : 1, "label" : "NP", "mod" : [], "weight" : 0.997487 },
		{"id" : 1, "text" : "4월", "head" : 11, "label" : "NP_AJT", "mod" : [0], "weight" : 0.781593 },
		{"id" : 2, "text" : "르완다에서", "head" : 11, "label" : "NP_AJT", "mod" : [], "weight" : 0.951207 },
		{"id" : 3, "text" : "후투족", "head" : 4, "label" : "NP", "mod" : [], "weight" : 0.77569 },
		{"id" : 4, "text" : "출신", "head" : 7, "label" : "NP", "mod" : [3], "weight" : 0.639864 },
		{"id" : 5, "text" : "쥐베날", "head" : 6, "label" : "NP", "mod" : [], "weight" : 0.707546 },
		{"id" : 6, "text" : "하비야리마나", "head" : 7, "label" : "NP", "mod" : [5], "weight" : 0.507355 },
		{"id" : 7, "text" : "대통령이", "head" : 11, "label" : "NP_SBJ", "mod" : [6, 4], "weight" : 0.885394 },
		{"id" : 8, "text" : "전용기", "head" : 10, "label" : "NP", "mod" : [], "weight" : 0.711543 },
		{"id" : 9, "text" : "격추", "head" : 10, "label" : "NP", "mod" : [], "weight" : 0.690301 },
		{"id" : 10, "text" : "사고로", "head" : 11, "label" : "NP_AJT", "mod" : [8, 9], "weight" : 0.865949 },
		{"id" : 11, "text" : "숨지자,", "head" : 33, "label" : "VP", "mod" : [1, 2, 7, 10], "weight" : 0.767226 },
		{"id" : 12, "text" : "인구의", "head" : 13, "label" : "NP_MOD", "mod" : [], "weight" : 0.732653 },
		{"id" : 13, "text" : "85%를", "head" : 14, "label" : "NP_OBJ", "mod" : [12], "weight" : 0.934579 },
		{"id" : 14, "text" : "차지하는", "head" : 16, "label" : "VP_MOD", "mod" : [13], "weight" : 0.756555 },
		{"id" : 15, "text" : "후투족", "head" : 16, "label" : "NP", "mod" : [], "weight" : 0.925694 },
		{"id" : 16, "text" : "강경파가", "head" : 33, "label" : "NP_SBJ", "mod" : [14, 15], "weight" : 0.912039 },
		{"id" : 17, "text" : "100여", "head" : 18, "label" : "NP", "mod" : [], "weight" : 0.713316 },
		{"id" : 18, "text" : "일", "head" : 19, "label" : "NP", "mod" : [17], "weight" : 0.744336 },
		{"id" : 19, "text" : "동안", "head" : 33, "label" : "NP_AJT", "mod" : [18], "weight" : 0.853758 },
		{"id" : 20, "text" : "인구의", "head" : 21, "label" : "NP_MOD", "mod" : [], "weight" : 0.547287 },
		{"id" : 21, "text" : "14%인", "head" : 24, "label" : "VNP_MOD", "mod" : [20], "weight" : 0.615343 },
		{"id" : 22, "text" : "투치족과", "head" : 24, "label" : "NP_CNJ", "mod" : [], "weight" : 0.673277 },
		{"id" : 23, "text" : "후투족", "head" : 24, "label" : "NP", "mod" : [], "weight" : 0.903772 },
		{"id" : 24, "text" : "온건파", "head" : 25, "label" : "NP", "mod" : [22, 23, 21], "weight" : 0.991108 },
		{"id" : 25, "text" : "등", "head" : 32, "label" : "NP", "mod" : [24], "weight" : 0.583938 },
		{"id" : 26, "text" : "전체", "head" : 27, "label" : "NP", "mod" : [], "weight" : 0.882065 },
		{"id" : 27, "text" : "인구의", "head" : 28, "label" : "NP_MOD", "mod" : [26], "weight" : 0.70261 },
		{"id" : 28, "text" : "10%에", "head" : 29, "label" : "NP_AJT", "mod" : [27], "weight" : 0.699188 },
		{"id" : 29, "text" : "달하는", "head" : 32, "label" : "VP_MOD", "mod" : [28], "weight" : 0.715931 },
		{"id" : 30, "text" : "80만", "head" : 31, "label" : "NP", "mod" : [], "weight" : 0.96388 },
		{"id" : 31, "text" : "명", "head" : 32, "label" : "NP", "mod" : [30], "weight" : 0.857581 },
		{"id" : 32, "text" : "이상을", "head" : 33, "label" : "NP_OBJ", "mod" : [25, 29, 31], "weight" : 0.63895 },
		{"id" : 33, "text" : "학살한", "head" : 34, "label" : "VP_MOD", "mod" : [11, 16, 19, 32], "weight" : 0.533086 },
		{"id" : 34, "text" : "사건이다.", "head" : -1, "label" : "VNP", "mod" : [33], "weight" : 0.478338 }
	],
	"phrase_dependency" : [
	],
	"SRL" : [
	],
	"relation" : [
	],
	"SA" : [
	],
	"ZA" : [
	]
	}
 ],
 "entity" : [
 ]
}

