{"doc_id" : "",
 "DCT" : "",
 "category" : "",
 "category_weight" : 0,
 "title" : {"text" : "사무엘 바버", "NE" : ""},
 "metaInfo" : { },
 "paragraphInfo" : [
 ], 
 "sentence" : [
	{
	"id" : 0,
	"reserve_str" : "",
	"text" : "이 동안에 씌어진 《1악장의 교향곡》 및 《현악을 위한 아다지오》는 그의 출세작이 되었다.",
	"morp" : [
	],
	"morp_eval" : [
	],
	"WSD" : [
	],
	"word" : [
		{"id" : 0, "text" : "이", "type" : "", "begin" : 0, "end" : 0},
		{"id" : 1, "text" : "동안에", "type" : "", "begin" : 1, "end" : 2},
		{"id" : 2, "text" : "씌어진", "type" : "", "begin" : 3, "end" : 6},
		{"id" : 3, "text" : "《1악장의", "type" : "", "begin" : 7, "end" : 10},
		{"id" : 4, "text" : "교향곡》", "type" : "", "begin" : 11, "end" : 13},
		{"id" : 5, "text" : "및", "type" : "", "begin" : 14, "end" : 14},
		{"id" : 6, "text" : "《현악을", "type" : "", "begin" : 15, "end" : 17},
		{"id" : 7, "text" : "위한", "type" : "", "begin" : 18, "end" : 19},
		{"id" : 8, "text" : "아다지오》는", "type" : "", "begin" : 20, "end" : 22},
		{"id" : 9, "text" : "그의", "type" : "", "begin" : 23, "end" : 24},
		{"id" : 10, "text" : "출세작이", "type" : "", "begin" : 25, "end" : 27},
		{"id" : 11, "text" : "되었다.", "type" : "", "begin" : 28, "end" : 31}
	],
	"NE" : [
	],
	"chunk" : [
	],
	"dependency" : [
		{"id" : 0, "text" : "이", "head" : 1, "label" : "DP", "mod" : [], "weight" : 0.841141 },
		{"id" : 1, "text" : "동안에", "head" : 2, "label" : "NP_AJT", "mod" : [0], "weight" : 0.689077 },
		{"id" : 2, "text" : "씌어진", "head" : 8, "label" : "VP_MOD", "mod" : [1], "weight" : 0.839455 },
		{"id" : 3, "text" : "《1악장의", "head" : 4, "label" : "NP_MOD", "mod" : [], "weight" : 0.736703 },
		{"id" : 4, "text" : "교향곡》", "head" : 8, "label" : "NP_CNJ", "mod" : [3], "weight" : 0.902496 },
		{"id" : 5, "text" : "및", "head" : 8, "label" : "AP", "mod" : [], "weight" : 0.644473 },
		{"id" : 6, "text" : "《현악을", "head" : 7, "label" : "NP_OBJ", "mod" : [], "weight" : 0.993159 },
		{"id" : 7, "text" : "위한", "head" : 8, "label" : "VP_MOD", "mod" : [6], "weight" : 0.934567 },
		{"id" : 8, "text" : "아다지오》는", "head" : 11, "label" : "NP_SBJ", "mod" : [2, 4, 5, 7], "weight" : 0.768478 },
		{"id" : 9, "text" : "그의", "head" : 10, "label" : "NP_MOD", "mod" : [], "weight" : 0.667391 },
		{"id" : 10, "text" : "출세작이", "head" : 11, "label" : "NP_CMP", "mod" : [9], "weight" : 0.46074 },
		{"id" : 11, "text" : "되었다.", "head" : -1, "label" : "VP", "mod" : [8, 10], "weight" : 0.353993 }
	],
	"phrase_dependency" : [
	],
	"SRL" : [
	],
	"relation" : [
	],
	"SA" : [
	],
	"ZA" : [
	]
	}
 ],
 "entity" : [
 ]
}

