{"doc_id" : "",
 "DCT" : "",
 "category" : "",
 "category_weight" : 0,
 "title" : {"text" : "해파리", "NE" : ""},
 "metaInfo" : { },
 "paragraphInfo" : [
 ], 
 "sentence" : [
	{
	"id" : 0,
	"reserve_str" : "",
	"text" : "자포동물문 해파리강에 속하는 동물의 총칭",
	"morp" : [
	],
	"morp_eval" : [
	],
	"WSD" : [
	],
	"word" : [
		{"id" : 0, "text" : "자포동물문", "type" : "", "begin" : 0, "end" : 0},
		{"id" : 1, "text" : "해파리강에", "type" : "", "begin" : 1, "end" : 3},
		{"id" : 2, "text" : "속하는", "type" : "", "begin" : 4, "end" : 6},
		{"id" : 3, "text" : "동물의", "type" : "", "begin" : 7, "end" : 8},
		{"id" : 4, "text" : "총칭", "type" : "", "begin" : 9, "end" : 9}
	],
	"NE" : [
	],
	"chunk" : [
	],
	"dependency" : [
		{"id" : 0, "text" : "자포동물문", "head" : 1, "label" : "NP", "mod" : [], "weight" : 0.628777 },
		{"id" : 1, "text" : "해파리강에", "head" : 2, "label" : "NP_AJT", "mod" : [0], "weight" : 0.756978 },
		{"id" : 2, "text" : "속하는", "head" : 3, "label" : "VP_MOD", "mod" : [1], "weight" : 0.614823 },
		{"id" : 3, "text" : "동물의", "head" : 4, "label" : "NP_MOD", "mod" : [2], "weight" : 0.574498 },
		{"id" : 4, "text" : "총칭", "head" : -1, "label" : "NP", "mod" : [3], "weight" : 0.8584 }
	],
	"phrase_dependency" : [
	],
	"SRL" : [
	],
	"relation" : [
	],
	"SA" : [
	],
	"ZA" : [
	]
	}
 ],
 "entity" : [
 ]
}

