{"doc_id" : "",
 "DCT" : "",
 "category" : "",
 "category_weight" : 0,
 "title" : {"text" : "황반", "NE" : ""},
 "metaInfo" : { },
 "paragraphInfo" : [
 ], 
 "sentence" : [
	{
	"id" : 0,
	"reserve_str" : "",
	"text" : "망막의 중앙부에 있는 누런색으로 된 부분으로 시세포가 밀집되어 있다.",
	"morp" : [
	],
	"morp_eval" : [
	],
	"WSD" : [
	],
	"word" : [
		{"id" : 0, "text" : "망막의", "type" : "", "begin" : 0, "end" : 1},
		{"id" : 1, "text" : "중앙부에", "type" : "", "begin" : 2, "end" : 4},
		{"id" : 2, "text" : "있는", "type" : "", "begin" : 5, "end" : 6},
		{"id" : 3, "text" : "누런색으로", "type" : "", "begin" : 7, "end" : 8},
		{"id" : 4, "text" : "된", "type" : "", "begin" : 9, "end" : 10},
		{"id" : 5, "text" : "부분으로", "type" : "", "begin" : 11, "end" : 12},
		{"id" : 6, "text" : "시세포가", "type" : "", "begin" : 13, "end" : 15},
		{"id" : 7, "text" : "밀집되어", "type" : "", "begin" : 16, "end" : 18},
		{"id" : 8, "text" : "있다.", "type" : "", "begin" : 19, "end" : 21}
	],
	"NE" : [
	],
	"chunk" : [
	],
	"dependency" : [
		{"id" : 0, "text" : "망막의", "head" : 1, "label" : "NP_MOD", "mod" : [], "weight" : 0.667813 },
		{"id" : 1, "text" : "중앙부에", "head" : 2, "label" : "NP_AJT", "mod" : [0], "weight" : 0.750056 },
		{"id" : 2, "text" : "있는", "head" : 5, "label" : "VP_MOD", "mod" : [1], "weight" : 0.597316 },
		{"id" : 3, "text" : "누런색으로", "head" : 4, "label" : "NP_AJT", "mod" : [], "weight" : 0.698926 },
		{"id" : 4, "text" : "된", "head" : 5, "label" : "VP_MOD", "mod" : [3], "weight" : 0.873574 },
		{"id" : 5, "text" : "부분으로", "head" : 7, "label" : "NP_AJT", "mod" : [4, 2], "weight" : 0.973024 },
		{"id" : 6, "text" : "시세포가", "head" : 7, "label" : "NP_SBJ", "mod" : [], "weight" : 0.57167 },
		{"id" : 7, "text" : "밀집되어", "head" : 8, "label" : "VP", "mod" : [5, 6], "weight" : 0.464211 },
		{"id" : 8, "text" : "있다.", "head" : -1, "label" : "VP", "mod" : [7], "weight" : 0.360296 }
	],
	"phrase_dependency" : [
	],
	"SRL" : [
	],
	"relation" : [
	],
	"SA" : [
	],
	"ZA" : [
	]
	}
 ],
 "entity" : [
 ]
}

