{"doc_id" : "",
 "DCT" : "",
 "category" : "",
 "category_weight" : 0,
 "title" : {"text" : "지록위마", "NE" : ""},
 "metaInfo" : { },
 "paragraphInfo" : [
 ], 
 "sentence" : [
	{
	"id" : 0,
	"reserve_str" : "",
	"text" : "사슴을 가리켜 말이라 한다는 뜻으로, 윗사람을 농락하여 권세를 휘두르는 경우를 말한다.",
	"morp" : [
	],
	"morp_eval" : [
	],
	"WSD" : [
	],
	"word" : [
		{"id" : 0, "text" : "사슴을", "type" : "", "begin" : 0, "end" : 1},
		{"id" : 1, "text" : "가리켜", "type" : "", "begin" : 2, "end" : 3},
		{"id" : 2, "text" : "말이라", "type" : "", "begin" : 4, "end" : 6},
		{"id" : 3, "text" : "한다는", "type" : "", "begin" : 7, "end" : 8},
		{"id" : 4, "text" : "뜻으로,", "type" : "", "begin" : 9, "end" : 11},
		{"id" : 5, "text" : "윗사람을", "type" : "", "begin" : 12, "end" : 13},
		{"id" : 6, "text" : "농락하여", "type" : "", "begin" : 14, "end" : 16},
		{"id" : 7, "text" : "권세를", "type" : "", "begin" : 17, "end" : 18},
		{"id" : 8, "text" : "휘두르는", "type" : "", "begin" : 19, "end" : 20},
		{"id" : 9, "text" : "경우를", "type" : "", "begin" : 21, "end" : 22},
		{"id" : 10, "text" : "말한다.", "type" : "", "begin" : 23, "end" : 26}
	],
	"NE" : [
	],
	"chunk" : [
	],
	"dependency" : [
		{"id" : 0, "text" : "사슴을", "head" : 1, "label" : "NP_OBJ", "mod" : [], "weight" : 0.863214 },
		{"id" : 1, "text" : "가리켜", "head" : 2, "label" : "VP", "mod" : [0], "weight" : 0.820471 },
		{"id" : 2, "text" : "말이라", "head" : 3, "label" : "VNP_CMP", "mod" : [1], "weight" : 0.948287 },
		{"id" : 3, "text" : "한다는", "head" : 4, "label" : "VP_MOD", "mod" : [2], "weight" : 0.570782 },
		{"id" : 4, "text" : "뜻으로,", "head" : 10, "label" : "NP_AJT", "mod" : [3], "weight" : 0.735631 },
		{"id" : 5, "text" : "윗사람을", "head" : 6, "label" : "NP_OBJ", "mod" : [], "weight" : 0.808945 },
		{"id" : 6, "text" : "농락하여", "head" : 8, "label" : "VP", "mod" : [5], "weight" : 0.72268 },
		{"id" : 7, "text" : "권세를", "head" : 8, "label" : "NP_OBJ", "mod" : [], "weight" : 0.788457 },
		{"id" : 8, "text" : "휘두르는", "head" : 9, "label" : "VP_MOD", "mod" : [6, 7], "weight" : 0.878858 },
		{"id" : 9, "text" : "경우를", "head" : 10, "label" : "NP_OBJ", "mod" : [8], "weight" : 0.612256 },
		{"id" : 10, "text" : "말한다.", "head" : -1, "label" : "VP", "mod" : [4, 9], "weight" : 0.474949 }
	],
	"phrase_dependency" : [
	],
	"SRL" : [
	],
	"relation" : [
	],
	"SA" : [
	],
	"ZA" : [
	]
	}
 ],
 "entity" : [
 ]
}

