{"doc_id" : "938016",
 "DCT" : "",
 "category" : "",
 "category_weight" : 0,
 "title" : {"text" : "타지마할", "NE" : ""},
 "metaInfo" : { },
 "paragraphInfo" : [
 ], 
 "sentence" : [
	{
	"id" : 0,
	"reserve_str" : "",
	"text" : "인도의 대표적 이슬람 건축.",
	"morp" : [
	],
	"morp_eval" : [
	],
	"WSD" : [
	],
	"word" : [
		{"id" : 0, "text" : "인도의", "type" : "", "begin" : 0, "end" : 1},
		{"id" : 1, "text" : "대표적", "type" : "", "begin" : 2, "end" : 3},
		{"id" : 2, "text" : "이슬람", "type" : "", "begin" : 4, "end" : 4},
		{"id" : 3, "text" : "건축.", "type" : "", "begin" : 5, "end" : 6}
	],
	"NE" : [
	],
	"chunk" : [
	],
	"dependency" : [
		{"id" : 0, "text" : "인도의", "head" : 3, "label" : "NP_MOD", "mod" : [], "weight" : 0.531962 },
		{"id" : 1, "text" : "대표적", "head" : 3, "label" : "NP", "mod" : [], "weight" : 0.48754 },
		{"id" : 2, "text" : "이슬람", "head" : 3, "label" : "NP", "mod" : [], "weight" : 0.403997 },
		{"id" : 3, "text" : "건축.", "head" : -1, "label" : "NP", "mod" : [0, 1, 2], "weight" : 0.494922 }
	],
	"phrase_dependency" : [
	],
	"SRL" : [
	],
	"relation" : [
	],
	"SA" : [
	],
	"ZA" : [
	]
	},
	{
	"id" : 1,
	"reserve_str" : "",
	"text" : " 인도 아그라(Agra)의 남쪽, 자무나(Jamuna) 강가에 자리 잡은 궁전 형식의 묘지로 무굴제국의 황제였던 샤 자한이 왕비 뭄타즈 마할을 추모하여 건축한 것이다.",
	"morp" : [
	],
	"morp_eval" : [
	],
	"WSD" : [
	],
	"word" : [
		{"id" : 0, "text" : "인도", "type" : "", "begin" : 0, "end" : 0},
		{"id" : 1, "text" : "아그라(Agra)의", "type" : "", "begin" : 1, "end" : 5},
		{"id" : 2, "text" : "남쪽,", "type" : "", "begin" : 6, "end" : 7},
		{"id" : 3, "text" : "자무나(Jamuna)", "type" : "", "begin" : 8, "end" : 11},
		{"id" : 4, "text" : "강가에", "type" : "", "begin" : 12, "end" : 13},
		{"id" : 5, "text" : "자리", "type" : "", "begin" : 14, "end" : 14},
		{"id" : 6, "text" : "잡은", "type" : "", "begin" : 15, "end" : 16},
		{"id" : 7, "text" : "궁전", "type" : "", "begin" : 17, "end" : 17},
		{"id" : 8, "text" : "형식의", "type" : "", "begin" : 18, "end" : 19},
		{"id" : 9, "text" : "묘지로", "type" : "", "begin" : 20, "end" : 21},
		{"id" : 10, "text" : "무굴제국의", "type" : "", "begin" : 22, "end" : 24},
		{"id" : 11, "text" : "황제였던", "type" : "", "begin" : 25, "end" : 28},
		{"id" : 12, "text" : "샤", "type" : "", "begin" : 29, "end" : 29},
		{"id" : 13, "text" : "자한이", "type" : "", "begin" : 30, "end" : 31},
		{"id" : 14, "text" : "왕비", "type" : "", "begin" : 32, "end" : 32},
		{"id" : 15, "text" : "뭄타즈", "type" : "", "begin" : 33, "end" : 33},
		{"id" : 16, "text" : "마할을", "type" : "", "begin" : 34, "end" : 35},
		{"id" : 17, "text" : "추모하여", "type" : "", "begin" : 36, "end" : 38},
		{"id" : 18, "text" : "건축한", "type" : "", "begin" : 39, "end" : 41},
		{"id" : 19, "text" : "것이다.", "type" : "", "begin" : 42, "end" : 45}
	],
	"NE" : [
	],
	"chunk" : [
	],
	"dependency" : [
		{"id" : 0, "text" : "인도", "head" : 1, "label" : "NP", "mod" : [], "weight" : 0.829691 },
		{"id" : 1, "text" : "아그라(Agra)의", "head" : 2, "label" : "NP_MOD", "mod" : [0], "weight" : 0.522051 },
		{"id" : 2, "text" : "남쪽,", "head" : 4, "label" : "NP_CNJ", "mod" : [1], "weight" : 0.530225 },
		{"id" : 3, "text" : "자무나(Jamuna)", "head" : 4, "label" : "NP", "mod" : [], "weight" : 0.56092 },
		{"id" : 4, "text" : "강가에", "head" : 6, "label" : "NP_AJT", "mod" : [3, 2], "weight" : 0.690376 },
		{"id" : 5, "text" : "자리", "head" : 6, "label" : "NP_OBJ", "mod" : [], "weight" : 0.773647 },
		{"id" : 6, "text" : "잡은", "head" : 9, "label" : "VP_MOD", "mod" : [4, 5], "weight" : 0.536578 },
		{"id" : 7, "text" : "궁전", "head" : 8, "label" : "NP", "mod" : [], "weight" : 0.859455 },
		{"id" : 8, "text" : "형식의", "head" : 9, "label" : "NP_MOD", "mod" : [7], "weight" : 0.954722 },
		{"id" : 9, "text" : "묘지로", "head" : 18, "label" : "NP_AJT", "mod" : [8, 6], "weight" : 0.747192 },
		{"id" : 10, "text" : "무굴제국의", "head" : 11, "label" : "NP_MOD", "mod" : [], "weight" : 0.958226 },
		{"id" : 11, "text" : "황제였던", "head" : 13, "label" : "VNP_MOD", "mod" : [10], "weight" : 0.992971 },
		{"id" : 12, "text" : "샤", "head" : 13, "label" : "NP", "mod" : [], "weight" : 0.937413 },
		{"id" : 13, "text" : "자한이", "head" : 17, "label" : "NP_SBJ", "mod" : [11, 12], "weight" : 0.701763 },
		{"id" : 14, "text" : "왕비", "head" : 16, "label" : "NP", "mod" : [], "weight" : 0.736114 },
		{"id" : 15, "text" : "뭄타즈", "head" : 16, "label" : "NP", "mod" : [], "weight" : 0.932842 },
		{"id" : 16, "text" : "마할을", "head" : 17, "label" : "NP_OBJ", "mod" : [14, 15], "weight" : 0.8968 },
		{"id" : 17, "text" : "추모하여", "head" : 18, "label" : "VP", "mod" : [13, 16], "weight" : 0.633124 },
		{"id" : 18, "text" : "건축한", "head" : 19, "label" : "VP_MOD", "mod" : [17, 9], "weight" : 0.48979 },
		{"id" : 19, "text" : "것이다.", "head" : -1, "label" : "VNP", "mod" : [18], "weight" : 0.156434 }
	],
	"phrase_dependency" : [
	],
	"SRL" : [
	],
	"relation" : [
	],
	"SA" : [
	],
	"ZA" : [
	]
	}
 ],
 "entity" : [
 ]
}

