{"doc_id" : "",
 "DCT" : "",
 "category" : "",
 "category_weight" : 0,
 "title" : {"text" : "아스타나", "NE" : ""},
 "metaInfo" : { },
 "paragraphInfo" : [
 ], 
 "sentence" : [
	{
	"id" : 0,
	"reserve_str" : "",
	"text" : "<지명> 카자흐스탄에 있는 도시.",
	"morp" : [
	],
	"morp_eval" : [
	],
	"WSD" : [
	],
	"word" : [
		{"id" : 0, "text" : "<지명>", "type" : "", "begin" : 0, "end" : 2},
		{"id" : 1, "text" : "카자흐스탄에", "type" : "", "begin" : 3, "end" : 4},
		{"id" : 2, "text" : "있는", "type" : "", "begin" : 5, "end" : 6},
		{"id" : 3, "text" : "도시.", "type" : "", "begin" : 7, "end" : 8}
	],
	"NE" : [
	],
	"chunk" : [
	],
	"dependency" : [
		{"id" : 0, "text" : "<지명>", "head" : 3, "label" : "NP", "mod" : [], "weight" : 0.993728 },
		{"id" : 1, "text" : "카자흐스탄에", "head" : 2, "label" : "NP_AJT", "mod" : [], "weight" : 0.953383 },
		{"id" : 2, "text" : "있는", "head" : 3, "label" : "VP_MOD", "mod" : [1], "weight" : 0.607403 },
		{"id" : 3, "text" : "도시.", "head" : -1, "label" : "NP", "mod" : [0, 2], "weight" : 0.297461 }
	],
	"phrase_dependency" : [
	],
	"SRL" : [
	],
	"relation" : [
	],
	"SA" : [
	],
	"ZA" : [
	]
	},
	{
	"id" : 1,
	"reserve_str" : "",
	"text" : " 카자흐스탄의 수도이다.",
	"morp" : [
	],
	"morp_eval" : [
	],
	"WSD" : [
	],
	"word" : [
		{"id" : 0, "text" : "카자흐스탄의", "type" : "", "begin" : 0, "end" : 1},
		{"id" : 1, "text" : "수도이다.", "type" : "", "begin" : 2, "end" : 5}
	],
	"NE" : [
	],
	"chunk" : [
	],
	"dependency" : [
		{"id" : 0, "text" : "카자흐스탄의", "head" : 1, "label" : "NP_MOD", "mod" : [], "weight" : 0.487783 },
		{"id" : 1, "text" : "수도이다.", "head" : -1, "label" : "VNP", "mod" : [0], "weight" : 0.285691 }
	],
	"phrase_dependency" : [
	],
	"SRL" : [
	],
	"relation" : [
	],
	"SA" : [
	],
	"ZA" : [
	]
	}
 ],
 "entity" : [
 ]
}

