{"doc_id" : "",
 "DCT" : "",
 "category" : "",
 "category_weight" : 0,
 "title" : {"text" : "산달", "NE" : ""},
 "metaInfo" : { },
 "paragraphInfo" : [
 ], 
 "sentence" : [
	{
	"id" : 0,
	"reserve_str" : "",
	"text" : "수축(獸畜)의 하나.",
	"morp" : [
	],
	"morp_eval" : [
	],
	"WSD" : [
	],
	"word" : [
		{"id" : 0, "text" : "수축(獸畜)의", "type" : "", "begin" : 0, "end" : 4},
		{"id" : 1, "text" : "하나.", "type" : "", "begin" : 5, "end" : 6}
	],
	"NE" : [
	],
	"chunk" : [
	],
	"dependency" : [
		{"id" : 0, "text" : "수축(獸畜)의", "head" : 1, "label" : "NP_MOD", "mod" : [], "weight" : 0.454999 },
		{"id" : 1, "text" : "하나.", "head" : -1, "label" : "NP", "mod" : [0], "weight" : 0.230645 }
	],
	"phrase_dependency" : [
	],
	"SRL" : [
	],
	"relation" : [
	],
	"SA" : [
	],
	"ZA" : [
	]
	},
	{
	"id" : 1,
	"reserve_str" : "",
	"text" : " 담비.",
	"morp" : [
	],
	"morp_eval" : [
	],
	"WSD" : [
	],
	"word" : [
		{"id" : 0, "text" : "담비.", "type" : "", "begin" : 0, "end" : 1}
	],
	"NE" : [
	],
	"chunk" : [
	],
	"dependency" : [
		{"id" : 0, "text" : "담비.", "head" : -1, "label" : "NP", "mod" : [], "weight" : 0.514736 }
	],
	"phrase_dependency" : [
	],
	"SRL" : [
	],
	"relation" : [
	],
	"SA" : [
	],
	"ZA" : [
	]
	}
 ],
 "entity" : [
 ]
}

