{"doc_id" : "",
 "DCT" : "",
 "category" : "",
 "category_weight" : 0,
 "title" : {"text" : "넙치", "NE" : ""},
 "metaInfo" : { },
 "paragraphInfo" : [
 ], 
 "sentence" : [
	{
	"id" : 0,
	"reserve_str" : "",
	"text" : "두 눈이 비대칭적으로 머리의 왼쪽에 쏠려 있고 몸이 납작한 이 물고기는 넙적한 물고기라는 의미의 광어(廣魚)라고 불리우기도 한다.",
	"morp" : [
	],
	"morp_eval" : [
	],
	"WSD" : [
	],
	"word" : [
		{"id" : 0, "text" : "두", "type" : "", "begin" : 0, "end" : 0},
		{"id" : 1, "text" : "눈이", "type" : "", "begin" : 1, "end" : 2},
		{"id" : 2, "text" : "비대칭적으로", "type" : "", "begin" : 3, "end" : 4},
		{"id" : 3, "text" : "머리의", "type" : "", "begin" : 5, "end" : 6},
		{"id" : 4, "text" : "왼쪽에", "type" : "", "begin" : 7, "end" : 8},
		{"id" : 5, "text" : "쏠려", "type" : "", "begin" : 9, "end" : 10},
		{"id" : 6, "text" : "있고", "type" : "", "begin" : 11, "end" : 12},
		{"id" : 7, "text" : "몸이", "type" : "", "begin" : 13, "end" : 14},
		{"id" : 8, "text" : "납작한", "type" : "", "begin" : 15, "end" : 17},
		{"id" : 9, "text" : "이", "type" : "", "begin" : 18, "end" : 18},
		{"id" : 10, "text" : "물고기는", "type" : "", "begin" : 19, "end" : 21},
		{"id" : 11, "text" : "넙적한", "type" : "", "begin" : 22, "end" : 24},
		{"id" : 12, "text" : "물고기라는", "type" : "", "begin" : 25, "end" : 28},
		{"id" : 13, "text" : "의미의", "type" : "", "begin" : 29, "end" : 30},
		{"id" : 14, "text" : "광어(廣魚)라고", "type" : "", "begin" : 31, "end" : 35},
		{"id" : 15, "text" : "불리우기도", "type" : "", "begin" : 36, "end" : 38},
		{"id" : 16, "text" : "한다.", "type" : "", "begin" : 39, "end" : 41}
	],
	"NE" : [
	],
	"chunk" : [
	],
	"dependency" : [
		{"id" : 0, "text" : "두", "head" : 1, "label" : "DP", "mod" : [], "weight" : 0.887872 },
		{"id" : 1, "text" : "눈이", "head" : 5, "label" : "NP_SBJ", "mod" : [0], "weight" : 0.985817 },
		{"id" : 2, "text" : "비대칭적으로", "head" : 5, "label" : "NP_AJT", "mod" : [], "weight" : 0.794823 },
		{"id" : 3, "text" : "머리의", "head" : 4, "label" : "NP_MOD", "mod" : [], "weight" : 0.953502 },
		{"id" : 4, "text" : "왼쪽에", "head" : 5, "label" : "NP_AJT", "mod" : [3], "weight" : 0.829641 },
		{"id" : 5, "text" : "쏠려", "head" : 6, "label" : "VP", "mod" : [1, 2, 4], "weight" : 0.93503 },
		{"id" : 6, "text" : "있고", "head" : 8, "label" : "VP", "mod" : [5], "weight" : 0.615695 },
		{"id" : 7, "text" : "몸이", "head" : 8, "label" : "NP_SBJ", "mod" : [], "weight" : 0.90722 },
		{"id" : 8, "text" : "납작한", "head" : 10, "label" : "VP_MOD", "mod" : [7, 6], "weight" : 0.813365 },
		{"id" : 9, "text" : "이", "head" : 10, "label" : "DP", "mod" : [], "weight" : 0.672812 },
		{"id" : 10, "text" : "물고기는", "head" : 14, "label" : "NP_SBJ", "mod" : [8, 9], "weight" : 0.93074 },
		{"id" : 11, "text" : "넙적한", "head" : 12, "label" : "VP_MOD", "mod" : [], "weight" : 0.624412 },
		{"id" : 12, "text" : "물고기라는", "head" : 13, "label" : "VNP_MOD", "mod" : [11], "weight" : 0.552768 },
		{"id" : 13, "text" : "의미의", "head" : 14, "label" : "NP_MOD", "mod" : [12], "weight" : 0.722693 },
		{"id" : 14, "text" : "광어(廣魚)라고", "head" : 15, "label" : "VNP_CMP", "mod" : [10, 13], "weight" : 0.495667 },
		{"id" : 15, "text" : "불리우기도", "head" : 16, "label" : "VP", "mod" : [14], "weight" : 0.491507 },
		{"id" : 16, "text" : "한다.", "head" : -1, "label" : "VP", "mod" : [15], "weight" : 0.673982 }
	],
	"phrase_dependency" : [
	],
	"SRL" : [
	],
	"relation" : [
	],
	"SA" : [
	],
	"ZA" : [
	]
	}
 ],
 "entity" : [
 ]
}

