{"doc_id" : "",
 "DCT" : "",
 "category" : "",
 "category_weight" : 0,
 "title" : {"text" : "낭트 칙령", "NE" : ""},
 "metaInfo" : { },
 "paragraphInfo" : [
 ], 
 "sentence" : [
	{
	"id" : 0,
	"reserve_str" : "",
	"text" : "낭트 칙령(Edict of Nantes)은 앙리 4세가 1598년 4월 13일 선포한 칙령으로, 프랑스 내에서 가톨릭 이외에도 칼뱅주의 개신교 교파인 위그노의 종교적 자유를 인정하였다.",
	"morp" : [
	],
	"morp_eval" : [
	],
	"WSD" : [
	],
	"word" : [
		{"id" : 0, "text" : "낭트", "type" : "", "begin" : 0, "end" : 0},
		{"id" : 1, "text" : "칙령(Edict", "type" : "", "begin" : 1, "end" : 3},
		{"id" : 2, "text" : "of", "type" : "", "begin" : 4, "end" : 4},
		{"id" : 3, "text" : "Nantes)은", "type" : "", "begin" : 5, "end" : 7},
		{"id" : 4, "text" : "앙리", "type" : "", "begin" : 8, "end" : 8},
		{"id" : 5, "text" : "4세가", "type" : "", "begin" : 9, "end" : 11},
		{"id" : 6, "text" : "1598년", "type" : "", "begin" : 12, "end" : 13},
		{"id" : 7, "text" : "4월", "type" : "", "begin" : 14, "end" : 15},
		{"id" : 8, "text" : "13일", "type" : "", "begin" : 16, "end" : 17},
		{"id" : 9, "text" : "선포한", "type" : "", "begin" : 18, "end" : 20},
		{"id" : 10, "text" : "칙령으로,", "type" : "", "begin" : 21, "end" : 23},
		{"id" : 11, "text" : "프랑스", "type" : "", "begin" : 24, "end" : 24},
		{"id" : 12, "text" : "내에서", "type" : "", "begin" : 25, "end" : 26},
		{"id" : 13, "text" : "가톨릭", "type" : "", "begin" : 27, "end" : 27},
		{"id" : 14, "text" : "이외에도", "type" : "", "begin" : 28, "end" : 30},
		{"id" : 15, "text" : "칼뱅주의", "type" : "", "begin" : 31, "end" : 33},
		{"id" : 16, "text" : "개신교", "type" : "", "begin" : 34, "end" : 35},
		{"id" : 17, "text" : "교파인", "type" : "", "begin" : 36, "end" : 38},
		{"id" : 18, "text" : "위그노의", "type" : "", "begin" : 39, "end" : 40},
		{"id" : 19, "text" : "종교적", "type" : "", "begin" : 41, "end" : 42},
		{"id" : 20, "text" : "자유를", "type" : "", "begin" : 43, "end" : 44},
		{"id" : 21, "text" : "인정하였다.", "type" : "", "begin" : 45, "end" : 49}
	],
	"NE" : [
	],
	"chunk" : [
	],
	"dependency" : [
		{"id" : 0, "text" : "낭트", "head" : 1, "label" : "NP", "mod" : [], "weight" : 0.75468 },
		{"id" : 1, "text" : "칙령(Edict", "head" : 2, "label" : "NP", "mod" : [0], "weight" : 0.747299 },
		{"id" : 2, "text" : "of", "head" : 3, "label" : "NP", "mod" : [1], "weight" : 0.801294 },
		{"id" : 3, "text" : "Nantes)은", "head" : 10, "label" : "NP_SBJ", "mod" : [2], "weight" : 0.615531 },
		{"id" : 4, "text" : "앙리", "head" : 5, "label" : "NP", "mod" : [], "weight" : 0.833671 },
		{"id" : 5, "text" : "4세가", "head" : 9, "label" : "NP_SBJ", "mod" : [4], "weight" : 0.728212 },
		{"id" : 6, "text" : "1598년", "head" : 7, "label" : "NP", "mod" : [], "weight" : 0.653265 },
		{"id" : 7, "text" : "4월", "head" : 8, "label" : "NP", "mod" : [6], "weight" : 0.865359 },
		{"id" : 8, "text" : "13일", "head" : 9, "label" : "NP_AJT", "mod" : [7], "weight" : 0.89194 },
		{"id" : 9, "text" : "선포한", "head" : 10, "label" : "VP_MOD", "mod" : [5, 8], "weight" : 0.596551 },
		{"id" : 10, "text" : "칙령으로,", "head" : 21, "label" : "NP_AJT", "mod" : [3, 9], "weight" : 0.740005 },
		{"id" : 11, "text" : "프랑스", "head" : 12, "label" : "NP", "mod" : [], "weight" : 0.771061 },
		{"id" : 12, "text" : "내에서", "head" : 21, "label" : "NP_AJT", "mod" : [11], "weight" : 0.750082 },
		{"id" : 13, "text" : "가톨릭", "head" : 14, "label" : "NP", "mod" : [], "weight" : 0.802168 },
		{"id" : 14, "text" : "이외에도", "head" : 21, "label" : "NP_AJT", "mod" : [13], "weight" : 0.735864 },
		{"id" : 15, "text" : "칼뱅주의", "head" : 17, "label" : "NP_MOD", "mod" : [], "weight" : 0.543261 },
		{"id" : 16, "text" : "개신교", "head" : 17, "label" : "NP", "mod" : [], "weight" : 0.839158 },
		{"id" : 17, "text" : "교파인", "head" : 18, "label" : "VNP_MOD", "mod" : [15, 16], "weight" : 0.655236 },
		{"id" : 18, "text" : "위그노의", "head" : 20, "label" : "NP_MOD", "mod" : [17], "weight" : 0.992505 },
		{"id" : 19, "text" : "종교적", "head" : 20, "label" : "NP", "mod" : [], "weight" : 0.909823 },
		{"id" : 20, "text" : "자유를", "head" : 21, "label" : "NP_OBJ", "mod" : [18, 19], "weight" : 0.534711 },
		{"id" : 21, "text" : "인정하였다.", "head" : -1, "label" : "VP", "mod" : [10, 12, 14, 20], "weight" : 0.10897 }
	],
	"phrase_dependency" : [
	],
	"SRL" : [
	],
	"relation" : [
	],
	"SA" : [
	],
	"ZA" : [
	]
	}
 ],
 "entity" : [
 ]
}

