{"doc_id" : "",
 "DCT" : "",
 "category" : "",
 "category_weight" : 0,
 "title" : {"text" : "Q24", "NE" : ""},
 "metaInfo" : { },
 "paragraphInfo" : [
 ], 
 "sentence" : [
	{
	"id" : 0,
	"reserve_str" : "",
	"text" : "다른 사람과 두루 친하되 편을 가르지 않는 것이 군자의 마음이요, 편을 짓기만 하고 다른 사람과 두루 친하지 못하는 것은 소인배의 사사로운 마음이다'라는 내용이 새겨진 비석으로, 영조가 성균관 입구에 세운 비석은 무엇일까?",
	"morp" : [
	],
	"morp_eval" : [
	],
	"WSD" : [
	],
	"word" : [
		{"id" : 0, "text" : "다른", "type" : "", "begin" : 0, "end" : 0},
		{"id" : 1, "text" : "사람과", "type" : "", "begin" : 1, "end" : 2},
		{"id" : 2, "text" : "두루", "type" : "", "begin" : 3, "end" : 3},
		{"id" : 3, "text" : "친하되", "type" : "", "begin" : 4, "end" : 5},
		{"id" : 4, "text" : "편을", "type" : "", "begin" : 6, "end" : 7},
		{"id" : 5, "text" : "가르지", "type" : "", "begin" : 8, "end" : 9},
		{"id" : 6, "text" : "않는", "type" : "", "begin" : 10, "end" : 11},
		{"id" : 7, "text" : "것이", "type" : "", "begin" : 12, "end" : 13},
		{"id" : 8, "text" : "군자의", "type" : "", "begin" : 14, "end" : 15},
		{"id" : 9, "text" : "마음이요,", "type" : "", "begin" : 16, "end" : 19},
		{"id" : 10, "text" : "편을", "type" : "", "begin" : 20, "end" : 21},
		{"id" : 11, "text" : "짓기만", "type" : "", "begin" : 22, "end" : 24},
		{"id" : 12, "text" : "하고", "type" : "", "begin" : 25, "end" : 26},
		{"id" : 13, "text" : "다른", "type" : "", "begin" : 27, "end" : 27},
		{"id" : 14, "text" : "사람과", "type" : "", "begin" : 28, "end" : 29},
		{"id" : 15, "text" : "두루", "type" : "", "begin" : 30, "end" : 30},
		{"id" : 16, "text" : "친하지", "type" : "", "begin" : 31, "end" : 32},
		{"id" : 17, "text" : "못하는", "type" : "", "begin" : 33, "end" : 34},
		{"id" : 18, "text" : "것은", "type" : "", "begin" : 35, "end" : 36},
		{"id" : 19, "text" : "소인배의", "type" : "", "begin" : 37, "end" : 39},
		{"id" : 20, "text" : "사사로운", "type" : "", "begin" : 40, "end" : 42},
		{"id" : 21, "text" : "마음이다'라는", "type" : "", "begin" : 43, "end" : 48},
		{"id" : 22, "text" : "내용이", "type" : "", "begin" : 49, "end" : 50},
		{"id" : 23, "text" : "새겨진", "type" : "", "begin" : 51, "end" : 54},
		{"id" : 24, "text" : "비석으로,", "type" : "", "begin" : 55, "end" : 57},
		{"id" : 25, "text" : "영조가", "type" : "", "begin" : 58, "end" : 59},
		{"id" : 26, "text" : "성균관", "type" : "", "begin" : 60, "end" : 60},
		{"id" : 27, "text" : "입구에", "type" : "", "begin" : 61, "end" : 62},
		{"id" : 28, "text" : "세운", "type" : "", "begin" : 63, "end" : 64},
		{"id" : 29, "text" : "비석은", "type" : "", "begin" : 65, "end" : 66},
		{"id" : 30, "text" : "무엇일까?", "type" : "", "begin" : 67, "end" : 70}
	],
	"NE" : [
	],
	"chunk" : [
	],
	"dependency" : [
		{"id" : 0, "text" : "다른", "head" : 1, "label" : "DP", "mod" : [], "weight" : 0.970525 },
		{"id" : 1, "text" : "사람과", "head" : 3, "label" : "NP_AJT", "mod" : [0], "weight" : 0.981012 },
		{"id" : 2, "text" : "두루", "head" : 3, "label" : "AP", "mod" : [], "weight" : 0.721738 },
		{"id" : 3, "text" : "친하되", "head" : 5, "label" : "VP", "mod" : [1, 2], "weight" : 0.569435 },
		{"id" : 4, "text" : "편을", "head" : 5, "label" : "NP_OBJ", "mod" : [], "weight" : 0.748442 },
		{"id" : 5, "text" : "가르지", "head" : 6, "label" : "VP", "mod" : [3, 4], "weight" : 0.840893 },
		{"id" : 6, "text" : "않는", "head" : 7, "label" : "VP_MOD", "mod" : [5], "weight" : 0.844905 },
		{"id" : 7, "text" : "것이", "head" : 9, "label" : "NP_SBJ", "mod" : [6], "weight" : 0.684458 },
		{"id" : 8, "text" : "군자의", "head" : 9, "label" : "NP_MOD", "mod" : [], "weight" : 0.754004 },
		{"id" : 9, "text" : "마음이요,", "head" : 11, "label" : "VNP", "mod" : [7, 8], "weight" : 0.606762 },
		{"id" : 10, "text" : "편을", "head" : 11, "label" : "NP_OBJ", "mod" : [], "weight" : 0.910222 },
		{"id" : 11, "text" : "짓기만", "head" : 12, "label" : "VP", "mod" : [9, 10], "weight" : 0.868955 },
		{"id" : 12, "text" : "하고", "head" : 16, "label" : "VP", "mod" : [11], "weight" : 0.612063 },
		{"id" : 13, "text" : "다른", "head" : 14, "label" : "DP", "mod" : [], "weight" : 0.977552 },
		{"id" : 14, "text" : "사람과", "head" : 16, "label" : "NP_AJT", "mod" : [13], "weight" : 0.814351 },
		{"id" : 15, "text" : "두루", "head" : 16, "label" : "AP", "mod" : [], "weight" : 0.677395 },
		{"id" : 16, "text" : "친하지", "head" : 17, "label" : "VP", "mod" : [12, 14, 15], "weight" : 0.722184 },
		{"id" : 17, "text" : "못하는", "head" : 18, "label" : "VP_MOD", "mod" : [16], "weight" : 0.865506 },
		{"id" : 18, "text" : "것은", "head" : 21, "label" : "NP_SBJ", "mod" : [17], "weight" : 0.799852 },
		{"id" : 19, "text" : "소인배의", "head" : 20, "label" : "NP_MOD", "mod" : [], "weight" : 0.677008 },
		{"id" : 20, "text" : "사사로운", "head" : 21, "label" : "VP_MOD", "mod" : [19], "weight" : 0.630318 },
		{"id" : 21, "text" : "마음이다'라는", "head" : 22, "label" : "VNP_MOD", "mod" : [20, 18], "weight" : 0.805351 },
		{"id" : 22, "text" : "내용이", "head" : 23, "label" : "NP_SBJ", "mod" : [21], "weight" : 0.756196 },
		{"id" : 23, "text" : "새겨진", "head" : 24, "label" : "VP_MOD", "mod" : [22], "weight" : 0.802215 },
		{"id" : 24, "text" : "비석으로,", "head" : 29, "label" : "NP_AJT", "mod" : [23], "weight" : 0.515528 },
		{"id" : 25, "text" : "영조가", "head" : 28, "label" : "NP_SBJ", "mod" : [], "weight" : 0.803245 },
		{"id" : 26, "text" : "성균관", "head" : 27, "label" : "NP", "mod" : [], "weight" : 0.777861 },
		{"id" : 27, "text" : "입구에", "head" : 28, "label" : "NP_AJT", "mod" : [26], "weight" : 0.862438 },
		{"id" : 28, "text" : "세운", "head" : 29, "label" : "VP_MOD", "mod" : [25, 27], "weight" : 0.749382 },
		{"id" : 29, "text" : "비석은", "head" : 30, "label" : "NP_SBJ", "mod" : [28, 24], "weight" : 0.685168 },
		{"id" : 30, "text" : "무엇일까?", "head" : -1, "label" : "VNP", "mod" : [29], "weight" : 0.183149 }
	],
	"phrase_dependency" : [
	],
	"SRL" : [
	],
	"relation" : [
	],
	"SA" : [
	],
	"ZA" : [
	]
	}
 ],
 "entity" : [
 ]
}

