{"doc_id" : "",
 "DCT" : "",
 "category" : "",
 "category_weight" : 0,
 "title" : {"text" : "안찰사", "NE" : ""},
 "metaInfo" : { },
 "paragraphInfo" : [
 ], 
 "sentence" : [
	{
	"id" : 0,
	"reserve_str" : "",
	"text" : "고려 최고 지방행정구획인 5도의 장관.",
	"morp" : [
	],
	"morp_eval" : [
	],
	"WSD" : [
	],
	"word" : [
		{"id" : 0, "text" : "고려", "type" : "", "begin" : 0, "end" : 0},
		{"id" : 1, "text" : "최고", "type" : "", "begin" : 1, "end" : 1},
		{"id" : 2, "text" : "지방행정구획인", "type" : "", "begin" : 2, "end" : 6},
		{"id" : 3, "text" : "5도의", "type" : "", "begin" : 7, "end" : 9},
		{"id" : 4, "text" : "장관.", "type" : "", "begin" : 10, "end" : 11}
	],
	"NE" : [
	],
	"chunk" : [
	],
	"dependency" : [
		{"id" : 0, "text" : "고려", "head" : 1, "label" : "NP", "mod" : [], "weight" : 0.608861 },
		{"id" : 1, "text" : "최고", "head" : 2, "label" : "NP", "mod" : [0], "weight" : 0.898248 },
		{"id" : 2, "text" : "지방행정구획인", "head" : 3, "label" : "VNP_MOD", "mod" : [1], "weight" : 0.598519 },
		{"id" : 3, "text" : "5도의", "head" : 4, "label" : "NP_MOD", "mod" : [2], "weight" : 0.54839 },
		{"id" : 4, "text" : "장관.", "head" : -1, "label" : "NP", "mod" : [3], "weight" : 0.894296 }
	],
	"phrase_dependency" : [
	],
	"SRL" : [
	],
	"relation" : [
	],
	"SA" : [
	],
	"ZA" : [
	]
	}
 ],
 "entity" : [
 ]
}

