{"doc_id" : "",
 "DCT" : "",
 "category" : "",
 "category_weight" : 0,
 "title" : {"text" : "가시광선", "NE" : ""},
 "metaInfo" : { },
 "paragraphInfo" : [
 ], 
 "sentence" : [
	{
	"id" : 0,
	"reserve_str" : "",
	"text" : "가시광선(可視光線, 문화어: 보임광선)은 사람의 눈에 보이는 전자기파의 영역이다.",
	"morp" : [
	],
	"morp_eval" : [
	],
	"WSD" : [
	],
	"word" : [
		{"id" : 0, "text" : "가시광선(可視光線,", "type" : "", "begin" : 0, "end" : 4},
		{"id" : 1, "text" : "문화어:", "type" : "", "begin" : 5, "end" : 7},
		{"id" : 2, "text" : "보임광선)은", "type" : "", "begin" : 8, "end" : 10},
		{"id" : 3, "text" : "사람의", "type" : "", "begin" : 11, "end" : 12},
		{"id" : 4, "text" : "눈에", "type" : "", "begin" : 13, "end" : 14},
		{"id" : 5, "text" : "보이는", "type" : "", "begin" : 15, "end" : 16},
		{"id" : 6, "text" : "전자기파의", "type" : "", "begin" : 17, "end" : 19},
		{"id" : 7, "text" : "영역이다.", "type" : "", "begin" : 20, "end" : 23}
	],
	"NE" : [
	],
	"chunk" : [
	],
	"dependency" : [
		{"id" : 0, "text" : "가시광선(可視光線,", "head" : 2, "label" : "NP_CNJ", "mod" : [], "weight" : 0.971637 },
		{"id" : 1, "text" : "문화어:", "head" : 2, "label" : "NP", "mod" : [], "weight" : 0.940591 },
		{"id" : 2, "text" : "보임광선)은", "head" : 7, "label" : "NP_SBJ", "mod" : [0, 1], "weight" : 0.622854 },
		{"id" : 3, "text" : "사람의", "head" : 4, "label" : "NP_MOD", "mod" : [], "weight" : 0.833919 },
		{"id" : 4, "text" : "눈에", "head" : 5, "label" : "NP_AJT", "mod" : [3], "weight" : 0.657599 },
		{"id" : 5, "text" : "보이는", "head" : 7, "label" : "VP_MOD", "mod" : [4], "weight" : 0.571808 },
		{"id" : 6, "text" : "전자기파의", "head" : 7, "label" : "NP_MOD", "mod" : [], "weight" : 0.513445 },
		{"id" : 7, "text" : "영역이다.", "head" : -1, "label" : "VNP", "mod" : [5, 6, 2], "weight" : 0.532945 }
	],
	"phrase_dependency" : [
	],
	"SRL" : [
	],
	"relation" : [
	],
	"SA" : [
	],
	"ZA" : [
	]
	},
	{
	"id" : 1,
	"reserve_str" : "",
	"text" : " 개인별로 가시광선 범위의 차이가 존재하지만 보통의 인간의 눈은 400에서 700 nm까지의 범위를 감지한다.",
	"morp" : [
	],
	"morp_eval" : [
	],
	"WSD" : [
	],
	"word" : [
		{"id" : 0, "text" : "개인별로", "type" : "", "begin" : 0, "end" : 2},
		{"id" : 1, "text" : "가시광선", "type" : "", "begin" : 3, "end" : 4},
		{"id" : 2, "text" : "범위의", "type" : "", "begin" : 5, "end" : 6},
		{"id" : 3, "text" : "차이가", "type" : "", "begin" : 7, "end" : 8},
		{"id" : 4, "text" : "존재하지만", "type" : "", "begin" : 9, "end" : 11},
		{"id" : 5, "text" : "보통의", "type" : "", "begin" : 12, "end" : 13},
		{"id" : 6, "text" : "인간의", "type" : "", "begin" : 14, "end" : 15},
		{"id" : 7, "text" : "눈은", "type" : "", "begin" : 16, "end" : 17},
		{"id" : 8, "text" : "400에서", "type" : "", "begin" : 18, "end" : 19},
		{"id" : 9, "text" : "700", "type" : "", "begin" : 20, "end" : 20},
		{"id" : 10, "text" : "nm까지의", "type" : "", "begin" : 21, "end" : 23},
		{"id" : 11, "text" : "범위를", "type" : "", "begin" : 24, "end" : 25},
		{"id" : 12, "text" : "감지한다.", "type" : "", "begin" : 26, "end" : 29}
	],
	"NE" : [
	],
	"chunk" : [
	],
	"dependency" : [
		{"id" : 0, "text" : "개인별로", "head" : 4, "label" : "NP_AJT", "mod" : [], "weight" : 0.956817 },
		{"id" : 1, "text" : "가시광선", "head" : 2, "label" : "NP", "mod" : [], "weight" : 0.855719 },
		{"id" : 2, "text" : "범위의", "head" : 3, "label" : "NP_MOD", "mod" : [1], "weight" : 0.930939 },
		{"id" : 3, "text" : "차이가", "head" : 4, "label" : "NP_SBJ", "mod" : [2], "weight" : 0.74478 },
		{"id" : 4, "text" : "존재하지만", "head" : 12, "label" : "VP", "mod" : [0, 3], "weight" : 0.743029 },
		{"id" : 5, "text" : "보통의", "head" : 7, "label" : "NP_MOD", "mod" : [], "weight" : 0.738029 },
		{"id" : 6, "text" : "인간의", "head" : 7, "label" : "NP_MOD", "mod" : [], "weight" : 0.976684 },
		{"id" : 7, "text" : "눈은", "head" : 12, "label" : "NP_SBJ", "mod" : [5, 6], "weight" : 0.626414 },
		{"id" : 8, "text" : "400에서", "head" : 10, "label" : "NP_AJT", "mod" : [], "weight" : 0.463413 },
		{"id" : 9, "text" : "700", "head" : 10, "label" : "NP", "mod" : [], "weight" : 0.733833 },
		{"id" : 10, "text" : "nm까지의", "head" : 11, "label" : "NP_MOD", "mod" : [9, 8], "weight" : 0.739795 },
		{"id" : 11, "text" : "범위를", "head" : 12, "label" : "NP_OBJ", "mod" : [10], "weight" : 0.507679 },
		{"id" : 12, "text" : "감지한다.", "head" : -1, "label" : "VP", "mod" : [4, 7, 11], "weight" : 0.156398 }
	],
	"phrase_dependency" : [
	],
	"SRL" : [
	],
	"relation" : [
	],
	"SA" : [
	],
	"ZA" : [
	]
	},
	{
	"id" : 2,
	"reserve_str" : "",
	"text" : " 최대 380에서 800 nm까지를 감지하는 사람이 있다고 한다.",
	"morp" : [
	],
	"morp_eval" : [
	],
	"WSD" : [
	],
	"word" : [
		{"id" : 0, "text" : "최대", "type" : "", "begin" : 0, "end" : 0},
		{"id" : 1, "text" : "380에서", "type" : "", "begin" : 1, "end" : 2},
		{"id" : 2, "text" : "800", "type" : "", "begin" : 3, "end" : 3},
		{"id" : 3, "text" : "nm까지를", "type" : "", "begin" : 4, "end" : 6},
		{"id" : 4, "text" : "감지하는", "type" : "", "begin" : 7, "end" : 9},
		{"id" : 5, "text" : "사람이", "type" : "", "begin" : 10, "end" : 11},
		{"id" : 6, "text" : "있다고", "type" : "", "begin" : 12, "end" : 13},
		{"id" : 7, "text" : "한다.", "type" : "", "begin" : 14, "end" : 16}
	],
	"NE" : [
	],
	"chunk" : [
	],
	"dependency" : [
		{"id" : 0, "text" : "최대", "head" : 3, "label" : "NP", "mod" : [], "weight" : 0.586251 },
		{"id" : 1, "text" : "380에서", "head" : 3, "label" : "NP_AJT", "mod" : [], "weight" : 0.509337 },
		{"id" : 2, "text" : "800", "head" : 3, "label" : "NP", "mod" : [], "weight" : 0.735811 },
		{"id" : 3, "text" : "nm까지를", "head" : 4, "label" : "NP_OBJ", "mod" : [2, 1, 0], "weight" : 0.71496 },
		{"id" : 4, "text" : "감지하는", "head" : 5, "label" : "VP_MOD", "mod" : [3], "weight" : 0.834427 },
		{"id" : 5, "text" : "사람이", "head" : 6, "label" : "NP_SBJ", "mod" : [4], "weight" : 0.983373 },
		{"id" : 6, "text" : "있다고", "head" : 7, "label" : "VP_CMP", "mod" : [5], "weight" : 0.577735 },
		{"id" : 7, "text" : "한다.", "head" : -1, "label" : "VP", "mod" : [6], "weight" : 0.556966 }
	],
	"phrase_dependency" : [
	],
	"SRL" : [
	],
	"relation" : [
	],
	"SA" : [
	],
	"ZA" : [
	]
	}
 ],
 "entity" : [
 ]
}

