{"doc_id" : "",
 "DCT" : "",
 "category" : "",
 "category_weight" : 0,
 "title" : {"text" : "왕방연", "NE" : ""},
 "metaInfo" : { },
 "paragraphInfo" : [
 ], 
 "sentence" : [
	{
	"id" : 0,
	"reserve_str" : "",
	"text" : "조선시대 문신 겸 시인.",
	"morp" : [
	],
	"morp_eval" : [
	],
	"WSD" : [
	],
	"word" : [
		{"id" : 0, "text" : "조선시대", "type" : "", "begin" : 0, "end" : 1},
		{"id" : 1, "text" : "문신", "type" : "", "begin" : 2, "end" : 2},
		{"id" : 2, "text" : "겸", "type" : "", "begin" : 3, "end" : 3},
		{"id" : 3, "text" : "시인.", "type" : "", "begin" : 4, "end" : 5}
	],
	"NE" : [
	],
	"chunk" : [
	],
	"dependency" : [
		{"id" : 0, "text" : "조선시대", "head" : 1, "label" : "NP", "mod" : [], "weight" : 0.598169 },
		{"id" : 1, "text" : "문신", "head" : 2, "label" : "NP", "mod" : [0], "weight" : 0.853336 },
		{"id" : 2, "text" : "겸", "head" : 3, "label" : "NP", "mod" : [1], "weight" : 0.429161 },
		{"id" : 3, "text" : "시인.", "head" : -1, "label" : "NP", "mod" : [2], "weight" : 0.109749 }
	],
	"phrase_dependency" : [
	],
	"SRL" : [
	],
	"relation" : [
	],
	"SA" : [
	],
	"ZA" : [
	]
	},
	{
	"id" : 1,
	"reserve_str" : "",
	"text" : " 세조 때 금부도사(禁府都事)로 있었는데 사육신(死六臣) 사건이 있은 뒤 1457년(세조 3) 왕명에 따라 상왕(上王) 단종이 노산군(魯山君)으로 격하되어 영월(寧越)로 귀양갈 때 호송하였다.",
	"morp" : [
	],
	"morp_eval" : [
	],
	"WSD" : [
	],
	"word" : [
		{"id" : 0, "text" : "세조", "type" : "", "begin" : 0, "end" : 0},
		{"id" : 1, "text" : "때", "type" : "", "begin" : 1, "end" : 1},
		{"id" : 2, "text" : "금부도사(禁府都事)로", "type" : "", "begin" : 2, "end" : 7},
		{"id" : 3, "text" : "있었는데", "type" : "", "begin" : 8, "end" : 10},
		{"id" : 4, "text" : "사육신(死六臣)", "type" : "", "begin" : 11, "end" : 15},
		{"id" : 5, "text" : "사건이", "type" : "", "begin" : 16, "end" : 17},
		{"id" : 6, "text" : "있은", "type" : "", "begin" : 18, "end" : 19},
		{"id" : 7, "text" : "뒤", "type" : "", "begin" : 20, "end" : 20},
		{"id" : 8, "text" : "1457년(세조", "type" : "", "begin" : 21, "end" : 24},
		{"id" : 9, "text" : "3)", "type" : "", "begin" : 25, "end" : 26},
		{"id" : 10, "text" : "왕명에", "type" : "", "begin" : 27, "end" : 28},
		{"id" : 11, "text" : "따라", "type" : "", "begin" : 29, "end" : 30},
		{"id" : 12, "text" : "상왕(上王)", "type" : "", "begin" : 31, "end" : 34},
		{"id" : 13, "text" : "단종이", "type" : "", "begin" : 35, "end" : 36},
		{"id" : 14, "text" : "노산군(魯山君)으로", "type" : "", "begin" : 37, "end" : 41},
		{"id" : 15, "text" : "격하되어", "type" : "", "begin" : 42, "end" : 44},
		{"id" : 16, "text" : "영월(寧越)로", "type" : "", "begin" : 45, "end" : 49},
		{"id" : 17, "text" : "귀양갈", "type" : "", "begin" : 50, "end" : 52},
		{"id" : 18, "text" : "때", "type" : "", "begin" : 53, "end" : 53},
		{"id" : 19, "text" : "호송하였다.", "type" : "", "begin" : 54, "end" : 58}
	],
	"NE" : [
	],
	"chunk" : [
	],
	"dependency" : [
		{"id" : 0, "text" : "세조", "head" : 1, "label" : "NP", "mod" : [], "weight" : 0.988241 },
		{"id" : 1, "text" : "때", "head" : 3, "label" : "NP_AJT", "mod" : [0], "weight" : 0.798723 },
		{"id" : 2, "text" : "금부도사(禁府都事)로", "head" : 3, "label" : "NP_AJT", "mod" : [], "weight" : 0.67358 },
		{"id" : 3, "text" : "있었는데", "head" : 11, "label" : "VP", "mod" : [1, 2], "weight" : 0.956579 },
		{"id" : 4, "text" : "사육신(死六臣)", "head" : 5, "label" : "NP", "mod" : [], "weight" : 0.587913 },
		{"id" : 5, "text" : "사건이", "head" : 6, "label" : "NP_SBJ", "mod" : [4], "weight" : 0.886369 },
		{"id" : 6, "text" : "있은", "head" : 7, "label" : "VP_MOD", "mod" : [5], "weight" : 0.537418 },
		{"id" : 7, "text" : "뒤", "head" : 9, "label" : "NP", "mod" : [6], "weight" : 0.594748 },
		{"id" : 8, "text" : "1457년(세조", "head" : 9, "label" : "NP", "mod" : [], "weight" : 0.869991 },
		{"id" : 9, "text" : "3)", "head" : 10, "label" : "NP_PRN", "mod" : [7, 8], "weight" : 0.559615 },
		{"id" : 10, "text" : "왕명에", "head" : 11, "label" : "NP_AJT", "mod" : [9], "weight" : 0.651683 },
		{"id" : 11, "text" : "따라", "head" : 19, "label" : "VP", "mod" : [3, 10], "weight" : 0.635522 },
		{"id" : 12, "text" : "상왕(上王)", "head" : 13, "label" : "NP", "mod" : [], "weight" : 0.940153 },
		{"id" : 13, "text" : "단종이", "head" : 15, "label" : "NP_SBJ", "mod" : [12], "weight" : 0.793794 },
		{"id" : 14, "text" : "노산군(魯山君)으로", "head" : 15, "label" : "NP_AJT", "mod" : [], "weight" : 0.992464 },
		{"id" : 15, "text" : "격하되어", "head" : 17, "label" : "VP", "mod" : [13, 14], "weight" : 0.608168 },
		{"id" : 16, "text" : "영월(寧越)로", "head" : 17, "label" : "NP_AJT", "mod" : [], "weight" : 0.738803 },
		{"id" : 17, "text" : "귀양갈", "head" : 18, "label" : "VP_MOD", "mod" : [15, 16], "weight" : 0.812503 },
		{"id" : 18, "text" : "때", "head" : 19, "label" : "NP_AJT", "mod" : [17], "weight" : 0.479193 },
		{"id" : 19, "text" : "호송하였다.", "head" : -1, "label" : "VP", "mod" : [18, 11], "weight" : 0.119446 }
	],
	"phrase_dependency" : [
	],
	"SRL" : [
	],
	"relation" : [
	],
	"SA" : [
	],
	"ZA" : [
	]
	},
	{
	"id" : 2,
	"reserve_str" : "",
	"text" : " 당시의 심경을 읊은 시조 한 수를 남겼다.",
	"morp" : [
	],
	"morp_eval" : [
	],
	"WSD" : [
	],
	"word" : [
		{"id" : 0, "text" : "당시의", "type" : "", "begin" : 0, "end" : 1},
		{"id" : 1, "text" : "심경을", "type" : "", "begin" : 2, "end" : 3},
		{"id" : 2, "text" : "읊은", "type" : "", "begin" : 4, "end" : 5},
		{"id" : 3, "text" : "시조", "type" : "", "begin" : 6, "end" : 6},
		{"id" : 4, "text" : "한", "type" : "", "begin" : 7, "end" : 7},
		{"id" : 5, "text" : "수를", "type" : "", "begin" : 8, "end" : 9},
		{"id" : 6, "text" : "남겼다.", "type" : "", "begin" : 10, "end" : 13}
	],
	"NE" : [
	],
	"chunk" : [
	],
	"dependency" : [
		{"id" : 0, "text" : "당시의", "head" : 1, "label" : "NP_MOD", "mod" : [], "weight" : 0.70443 },
		{"id" : 1, "text" : "심경을", "head" : 2, "label" : "NP_OBJ", "mod" : [0], "weight" : 0.646884 },
		{"id" : 2, "text" : "읊은", "head" : 3, "label" : "VP_MOD", "mod" : [1], "weight" : 0.607314 },
		{"id" : 3, "text" : "시조", "head" : 5, "label" : "NP", "mod" : [2], "weight" : 0.567871 },
		{"id" : 4, "text" : "한", "head" : 5, "label" : "DP", "mod" : [], "weight" : 0.910834 },
		{"id" : 5, "text" : "수를", "head" : 6, "label" : "NP_OBJ", "mod" : [3, 4], "weight" : 0.585691 },
		{"id" : 6, "text" : "남겼다.", "head" : -1, "label" : "VP", "mod" : [5], "weight" : 0.670532 }
	],
	"phrase_dependency" : [
	],
	"SRL" : [
	],
	"relation" : [
	],
	"SA" : [
	],
	"ZA" : [
	]
	}
 ],
 "entity" : [
 ]
}

