{"doc_id" : "",
 "DCT" : "",
 "category" : "",
 "category_weight" : 0,
 "title" : {"text" : "낭트 칙령", "NE" : ""},
 "metaInfo" : { },
 "paragraphInfo" : [
 ], 
 "sentence" : [
	{
	"id" : 0,
	"reserve_str" : "",
	"text" : "프랑스의 앙리 4세가 국내의 프로테스탄트에게 신앙의 자유를 인정한 칙령이다.",
	"morp" : [
	],
	"morp_eval" : [
	],
	"WSD" : [
	],
	"word" : [
		{"id" : 0, "text" : "프랑스의", "type" : "", "begin" : 0, "end" : 1},
		{"id" : 1, "text" : "앙리", "type" : "", "begin" : 2, "end" : 2},
		{"id" : 2, "text" : "4세가", "type" : "", "begin" : 3, "end" : 5},
		{"id" : 3, "text" : "국내의", "type" : "", "begin" : 6, "end" : 7},
		{"id" : 4, "text" : "프로테스탄트에게", "type" : "", "begin" : 8, "end" : 9},
		{"id" : 5, "text" : "신앙의", "type" : "", "begin" : 10, "end" : 11},
		{"id" : 6, "text" : "자유를", "type" : "", "begin" : 12, "end" : 13},
		{"id" : 7, "text" : "인정한", "type" : "", "begin" : 14, "end" : 16},
		{"id" : 8, "text" : "칙령이다.", "type" : "", "begin" : 17, "end" : 20}
	],
	"NE" : [
	],
	"chunk" : [
	],
	"dependency" : [
		{"id" : 0, "text" : "프랑스의", "head" : 2, "label" : "NP_MOD", "mod" : [], "weight" : 0.9538 },
		{"id" : 1, "text" : "앙리", "head" : 2, "label" : "NP", "mod" : [], "weight" : 0.875882 },
		{"id" : 2, "text" : "4세가", "head" : 7, "label" : "NP_SBJ", "mod" : [0, 1], "weight" : 0.93546 },
		{"id" : 3, "text" : "국내의", "head" : 4, "label" : "NP_MOD", "mod" : [], "weight" : 0.772961 },
		{"id" : 4, "text" : "프로테스탄트에게", "head" : 7, "label" : "NP_AJT", "mod" : [3], "weight" : 0.894267 },
		{"id" : 5, "text" : "신앙의", "head" : 6, "label" : "NP_MOD", "mod" : [], "weight" : 0.836188 },
		{"id" : 6, "text" : "자유를", "head" : 7, "label" : "NP_OBJ", "mod" : [5], "weight" : 0.588315 },
		{"id" : 7, "text" : "인정한", "head" : 8, "label" : "VP_MOD", "mod" : [2, 4, 6], "weight" : 0.571696 },
		{"id" : 8, "text" : "칙령이다.", "head" : -1, "label" : "VNP", "mod" : [7], "weight" : 0.925274 }
	],
	"phrase_dependency" : [
	],
	"SRL" : [
	],
	"relation" : [
	],
	"SA" : [
	],
	"ZA" : [
	]
	}
 ],
 "entity" : [
 ]
}

