{"doc_id" : "",
 "DCT" : "",
 "category" : "",
 "category_weight" : 0,
 "title" : {"text" : "금강산", "NE" : ""},
 "metaInfo" : { },
 "paragraphInfo" : [
 ], 
 "sentence" : [
	{
	"id" : 0,
	"reserve_str" : "",
	"text" : "계절에 따른 아름다움이 각각 달라, 봄에는 금강산, 여름에는 봉래산(蓬萊山), 가을에는 풍악산(楓嶽山), 겨울에는 개골산(皆骨山)이라고 한다.",
	"morp" : [
	],
	"morp_eval" : [
	],
	"WSD" : [
	],
	"word" : [
		{"id" : 0, "text" : "계절에", "type" : "", "begin" : 0, "end" : 1},
		{"id" : 1, "text" : "따른", "type" : "", "begin" : 2, "end" : 3},
		{"id" : 2, "text" : "아름다움이", "type" : "", "begin" : 4, "end" : 7},
		{"id" : 3, "text" : "각각", "type" : "", "begin" : 8, "end" : 8},
		{"id" : 4, "text" : "달라,", "type" : "", "begin" : 9, "end" : 11},
		{"id" : 5, "text" : "봄에는", "type" : "", "begin" : 12, "end" : 14},
		{"id" : 6, "text" : "금강산,", "type" : "", "begin" : 15, "end" : 16},
		{"id" : 7, "text" : "여름에는", "type" : "", "begin" : 17, "end" : 19},
		{"id" : 8, "text" : "봉래산(蓬萊山),", "type" : "", "begin" : 20, "end" : 25},
		{"id" : 9, "text" : "가을에는", "type" : "", "begin" : 26, "end" : 28},
		{"id" : 10, "text" : "풍악산(楓嶽山),", "type" : "", "begin" : 29, "end" : 34},
		{"id" : 11, "text" : "겨울에는", "type" : "", "begin" : 35, "end" : 37},
		{"id" : 12, "text" : "개골산(皆骨山)이라고", "type" : "", "begin" : 38, "end" : 44},
		{"id" : 13, "text" : "한다.", "type" : "", "begin" : 45, "end" : 47}
	],
	"NE" : [
	],
	"chunk" : [
	],
	"dependency" : [
		{"id" : 0, "text" : "계절에", "head" : 1, "label" : "NP_AJT", "mod" : [], "weight" : 0.681843 },
		{"id" : 1, "text" : "따른", "head" : 2, "label" : "VP_MOD", "mod" : [0], "weight" : 0.758036 },
		{"id" : 2, "text" : "아름다움이", "head" : 4, "label" : "VP_SBJ", "mod" : [1], "weight" : 0.938185 },
		{"id" : 3, "text" : "각각", "head" : 4, "label" : "AP", "mod" : [], "weight" : 0.782996 },
		{"id" : 4, "text" : "달라,", "head" : 12, "label" : "VP", "mod" : [2, 3], "weight" : 0.792679 },
		{"id" : 5, "text" : "봄에는", "head" : 6, "label" : "NP_AJT", "mod" : [], "weight" : 0.850598 },
		{"id" : 6, "text" : "금강산,", "head" : 12, "label" : "NP_CNJ", "mod" : [5], "weight" : 0.551801 },
		{"id" : 7, "text" : "여름에는", "head" : 8, "label" : "NP_AJT", "mod" : [], "weight" : 0.56925 },
		{"id" : 8, "text" : "봉래산(蓬萊山),", "head" : 12, "label" : "NP_CNJ", "mod" : [7], "weight" : 0.686755 },
		{"id" : 9, "text" : "가을에는", "head" : 10, "label" : "NP_AJT", "mod" : [], "weight" : 0.887942 },
		{"id" : 10, "text" : "풍악산(楓嶽山),", "head" : 12, "label" : "NP_CNJ", "mod" : [9], "weight" : 0.589072 },
		{"id" : 11, "text" : "겨울에는", "head" : 12, "label" : "NP_AJT", "mod" : [], "weight" : 0.874895 },
		{"id" : 12, "text" : "개골산(皆骨山)이라고", "head" : 13, "label" : "VNP_CMP", "mod" : [4, 11, 6, 8, 10], "weight" : 0.406824 },
		{"id" : 13, "text" : "한다.", "head" : -1, "label" : "VP", "mod" : [12], "weight" : 0.740212 }
	],
	"phrase_dependency" : [
	],
	"SRL" : [
	],
	"relation" : [
	],
	"SA" : [
	],
	"ZA" : [
	]
	}
 ],
 "entity" : [
 ]
}

