{"doc_id" : "",
 "DCT" : "",
 "category" : "",
 "category_weight" : 0,
 "title" : {"text" : "Q37", "NE" : ""},
 "metaInfo" : { },
 "paragraphInfo" : [
 ], 
 "sentence" : [
	{
	"id" : 0,
	"reserve_str" : "",
	"text" : "지금 들리는 곡은 이 사람이 작곡한 <현을 위한 아다지오>로 영화 <플래툰>의 배경음악으로 사용돼 아카데미 음악상을 받았다.",
	"morp" : [
	],
	"morp_eval" : [
	],
	"WSD" : [
	],
	"word" : [
		{"id" : 0, "text" : "지금", "type" : "", "begin" : 0, "end" : 0},
		{"id" : 1, "text" : "들리는", "type" : "", "begin" : 1, "end" : 2},
		{"id" : 2, "text" : "곡은", "type" : "", "begin" : 3, "end" : 4},
		{"id" : 3, "text" : "이", "type" : "", "begin" : 5, "end" : 5},
		{"id" : 4, "text" : "사람이", "type" : "", "begin" : 6, "end" : 7},
		{"id" : 5, "text" : "작곡한", "type" : "", "begin" : 8, "end" : 10},
		{"id" : 6, "text" : "<현을", "type" : "", "begin" : 11, "end" : 13},
		{"id" : 7, "text" : "위한", "type" : "", "begin" : 14, "end" : 15},
		{"id" : 8, "text" : "아다지오>로", "type" : "", "begin" : 16, "end" : 18},
		{"id" : 9, "text" : "영화", "type" : "", "begin" : 19, "end" : 19},
		{"id" : 10, "text" : "<플래툰>의", "type" : "", "begin" : 20, "end" : 23},
		{"id" : 11, "text" : "배경음악으로", "type" : "", "begin" : 24, "end" : 26},
		{"id" : 12, "text" : "사용돼", "type" : "", "begin" : 27, "end" : 29},
		{"id" : 13, "text" : "아카데미", "type" : "", "begin" : 30, "end" : 30},
		{"id" : 14, "text" : "음악상을", "type" : "", "begin" : 31, "end" : 33},
		{"id" : 15, "text" : "받았다.", "type" : "", "begin" : 34, "end" : 37}
	],
	"NE" : [
	],
	"chunk" : [
	],
	"dependency" : [
		{"id" : 0, "text" : "지금", "head" : 1, "label" : "AP", "mod" : [], "weight" : 0.849442 },
		{"id" : 1, "text" : "들리는", "head" : 2, "label" : "VP_MOD", "mod" : [0], "weight" : 0.918875 },
		{"id" : 2, "text" : "곡은", "head" : 8, "label" : "NP_SBJ", "mod" : [1], "weight" : 0.819916 },
		{"id" : 3, "text" : "이", "head" : 4, "label" : "DP", "mod" : [], "weight" : 0.878137 },
		{"id" : 4, "text" : "사람이", "head" : 5, "label" : "NP_SBJ", "mod" : [3], "weight" : 0.538437 },
		{"id" : 5, "text" : "작곡한", "head" : 8, "label" : "VP_MOD", "mod" : [4], "weight" : 0.818226 },
		{"id" : 6, "text" : "<현을", "head" : 7, "label" : "NP_OBJ", "mod" : [], "weight" : 0.70041 },
		{"id" : 7, "text" : "위한", "head" : 8, "label" : "VP_MOD", "mod" : [6], "weight" : 0.735139 },
		{"id" : 8, "text" : "아다지오>로", "head" : 12, "label" : "NP_AJT", "mod" : [5, 7, 2], "weight" : 0.959853 },
		{"id" : 9, "text" : "영화", "head" : 10, "label" : "NP", "mod" : [], "weight" : 0.74269 },
		{"id" : 10, "text" : "<플래툰>의", "head" : 11, "label" : "NP_MOD", "mod" : [9], "weight" : 0.858538 },
		{"id" : 11, "text" : "배경음악으로", "head" : 12, "label" : "NP_AJT", "mod" : [10], "weight" : 0.816999 },
		{"id" : 12, "text" : "사용돼", "head" : 15, "label" : "VP", "mod" : [8, 11], "weight" : 0.720456 },
		{"id" : 13, "text" : "아카데미", "head" : 14, "label" : "NP", "mod" : [], "weight" : 0.717395 },
		{"id" : 14, "text" : "음악상을", "head" : 15, "label" : "NP_OBJ", "mod" : [13], "weight" : 0.659261 },
		{"id" : 15, "text" : "받았다.", "head" : -1, "label" : "VP", "mod" : [12, 14], "weight" : 0.147505 }
	],
	"phrase_dependency" : [
	],
	"SRL" : [
	],
	"relation" : [
	],
	"SA" : [
	],
	"ZA" : [
	]
	},
	{
	"id" : 1,
	"reserve_str" : "",
	"text" : " 1935년 퓰리처상을 받기도 한 이 사람은 누구일까?",
	"morp" : [
	],
	"morp_eval" : [
	],
	"WSD" : [
	],
	"word" : [
		{"id" : 0, "text" : "1935년", "type" : "", "begin" : 0, "end" : 1},
		{"id" : 1, "text" : "퓰리처상을", "type" : "", "begin" : 2, "end" : 4},
		{"id" : 2, "text" : "받기도", "type" : "", "begin" : 5, "end" : 7},
		{"id" : 3, "text" : "한", "type" : "", "begin" : 8, "end" : 8},
		{"id" : 4, "text" : "이", "type" : "", "begin" : 9, "end" : 9},
		{"id" : 5, "text" : "사람은", "type" : "", "begin" : 10, "end" : 11},
		{"id" : 6, "text" : "누구일까?", "type" : "", "begin" : 12, "end" : 15}
	],
	"NE" : [
	],
	"chunk" : [
	],
	"dependency" : [
		{"id" : 0, "text" : "1935년", "head" : 2, "label" : "NP_AJT", "mod" : [], "weight" : 0.935296 },
		{"id" : 1, "text" : "퓰리처상을", "head" : 2, "label" : "NP_OBJ", "mod" : [], "weight" : 0.963695 },
		{"id" : 2, "text" : "받기도", "head" : 3, "label" : "VP", "mod" : [0, 1], "weight" : 0.711547 },
		{"id" : 3, "text" : "한", "head" : 5, "label" : "VP_MOD", "mod" : [2], "weight" : 0.858781 },
		{"id" : 4, "text" : "이", "head" : 5, "label" : "DP", "mod" : [], "weight" : 0.85956 },
		{"id" : 5, "text" : "사람은", "head" : 6, "label" : "NP_SBJ", "mod" : [3, 4], "weight" : 0.765065 },
		{"id" : 6, "text" : "누구일까?", "head" : -1, "label" : "VNP", "mod" : [5], "weight" : 0.242986 }
	],
	"phrase_dependency" : [
	],
	"SRL" : [
	],
	"relation" : [
	],
	"SA" : [
	],
	"ZA" : [
	]
	}
 ],
 "entity" : [
 ]
}

