{"doc_id" : "",
 "DCT" : "",
 "category" : "",
 "category_weight" : 0,
 "title" : {"text" : "천만리 머나먼 길에", "NE" : ""},
 "metaInfo" : { },
 "paragraphInfo" : [
 ], 
 "sentence" : [
	{
	"id" : 0,
	"reserve_str" : "",
	"text" : "한때 왕이었던 단종을 영월에 모신 후 돌아오는 왕방연의 슬픈 심정을 이 작품은 잘 보여준다.",
	"morp" : [
	],
	"morp_eval" : [
	],
	"WSD" : [
	],
	"word" : [
		{"id" : 0, "text" : "한때", "type" : "", "begin" : 0, "end" : 0},
		{"id" : 1, "text" : "왕이었던", "type" : "", "begin" : 1, "end" : 4},
		{"id" : 2, "text" : "단종을", "type" : "", "begin" : 5, "end" : 6},
		{"id" : 3, "text" : "영월에", "type" : "", "begin" : 7, "end" : 8},
		{"id" : 4, "text" : "모신", "type" : "", "begin" : 9, "end" : 10},
		{"id" : 5, "text" : "후", "type" : "", "begin" : 11, "end" : 11},
		{"id" : 6, "text" : "돌아오는", "type" : "", "begin" : 12, "end" : 13},
		{"id" : 7, "text" : "왕방연의", "type" : "", "begin" : 14, "end" : 15},
		{"id" : 8, "text" : "슬픈", "type" : "", "begin" : 16, "end" : 17},
		{"id" : 9, "text" : "심정을", "type" : "", "begin" : 18, "end" : 19},
		{"id" : 10, "text" : "이", "type" : "", "begin" : 20, "end" : 20},
		{"id" : 11, "text" : "작품은", "type" : "", "begin" : 21, "end" : 22},
		{"id" : 12, "text" : "잘", "type" : "", "begin" : 23, "end" : 23},
		{"id" : 13, "text" : "보여준다.", "type" : "", "begin" : 24, "end" : 28}
	],
	"NE" : [
	],
	"chunk" : [
	],
	"dependency" : [
		{"id" : 0, "text" : "한때", "head" : 1, "label" : "AP", "mod" : [], "weight" : 0.695466 },
		{"id" : 1, "text" : "왕이었던", "head" : 2, "label" : "VNP_MOD", "mod" : [0], "weight" : 0.703487 },
		{"id" : 2, "text" : "단종을", "head" : 4, "label" : "NP_OBJ", "mod" : [1], "weight" : 0.711701 },
		{"id" : 3, "text" : "영월에", "head" : 4, "label" : "NP_AJT", "mod" : [], "weight" : 0.875928 },
		{"id" : 4, "text" : "모신", "head" : 5, "label" : "VP_MOD", "mod" : [2, 3], "weight" : 0.706228 },
		{"id" : 5, "text" : "후", "head" : 6, "label" : "NP_AJT", "mod" : [4], "weight" : 0.925465 },
		{"id" : 6, "text" : "돌아오는", "head" : 7, "label" : "VP_MOD", "mod" : [5], "weight" : 0.86275 },
		{"id" : 7, "text" : "왕방연의", "head" : 9, "label" : "NP_MOD", "mod" : [6], "weight" : 0.959247 },
		{"id" : 8, "text" : "슬픈", "head" : 9, "label" : "VP_MOD", "mod" : [], "weight" : 0.720975 },
		{"id" : 9, "text" : "심정을", "head" : 13, "label" : "NP_OBJ", "mod" : [7, 8], "weight" : 0.613562 },
		{"id" : 10, "text" : "이", "head" : 11, "label" : "DP", "mod" : [], "weight" : 0.894563 },
		{"id" : 11, "text" : "작품은", "head" : 13, "label" : "NP_SBJ", "mod" : [10], "weight" : 0.716499 },
		{"id" : 12, "text" : "잘", "head" : 13, "label" : "AP", "mod" : [], "weight" : 0.53429 },
		{"id" : 13, "text" : "보여준다.", "head" : -1, "label" : "VP", "mod" : [9, 11, 12], "weight" : 0.173399 }
	],
	"phrase_dependency" : [
	],
	"SRL" : [
	],
	"relation" : [
	],
	"SA" : [
	],
	"ZA" : [
	]
	}
 ],
 "entity" : [
 ]
}

