{"doc_id" : "",
 "DCT" : "",
 "category" : "",
 "category_weight" : 0,
 "title" : {"text" : "담비", "NE" : ""},
 "metaInfo" : { },
 "paragraphInfo" : [
 ], 
 "sentence" : [
	{
	"id" : 0,
	"reserve_str" : "",
	"text" : "한자어로는 산달(山獺)·초(貂)·학(貉·貈·狢)·앙사(0x968d0x9662)·훤(貆)이라고 하였다.",
	"morp" : [
	],
	"morp_eval" : [
	],
	"WSD" : [
	],
	"word" : [
		{"id" : 0, "text" : "한자어로는", "type" : "", "begin" : 0, "end" : 3},
		{"id" : 1, "text" : "산달(山獺)·초(貂)·학(貉·貈·狢)·앙사(0x968d0x9662)·훤(貆)이라고", "type" : "", "begin" : 4, "end" : 39},
		{"id" : 2, "text" : "하였다.", "type" : "", "begin" : 40, "end" : 43}
	],
	"NE" : [
	],
	"chunk" : [
	],
	"dependency" : [
		{"id" : 0, "text" : "한자어로는", "head" : 1, "label" : "NP_AJT", "mod" : [], "weight" : 0.838743 },
		{"id" : 1, "text" : "산달(山獺)·초(貂)·학(貉·貈·狢)·앙사(0x968d0x9662)·훤(貆)이라고", "head" : 2, "label" : "VNP_CMP", "mod" : [0], "weight" : 0.413225 },
		{"id" : 2, "text" : "하였다.", "head" : -1, "label" : "VP", "mod" : [1], "weight" : 0.23793 }
	],
	"phrase_dependency" : [
	],
	"SRL" : [
	],
	"relation" : [
	],
	"SA" : [
	],
	"ZA" : [
	]
	}
 ],
 "entity" : [
 ]
}

