{"doc_id" : "",
 "DCT" : "",
 "category" : "",
 "category_weight" : 0,
 "title" : {"text" : "최팔용", "NE" : ""},
 "metaInfo" : { },
 "paragraphInfo" : [
 ], 
 "sentence" : [
	{
	"id" : 0,
	"reserve_str" : "",
	"text" : "행사 당일에도 조선청년독립단의 결성을 선포하였다.",
	"morp" : [
	],
	"morp_eval" : [
	],
	"WSD" : [
	],
	"word" : [
		{"id" : 0, "text" : "행사", "type" : "", "begin" : 0, "end" : 0},
		{"id" : 1, "text" : "당일에도", "type" : "", "begin" : 1, "end" : 3},
		{"id" : 2, "text" : "조선청년독립단의", "type" : "", "begin" : 4, "end" : 5},
		{"id" : 3, "text" : "결성을", "type" : "", "begin" : 6, "end" : 7},
		{"id" : 4, "text" : "선포하였다.", "type" : "", "begin" : 8, "end" : 12}
	],
	"NE" : [
	],
	"chunk" : [
	],
	"dependency" : [
		{"id" : 0, "text" : "행사", "head" : 1, "label" : "NP", "mod" : [], "weight" : 0.927742 },
		{"id" : 1, "text" : "당일에도", "head" : 4, "label" : "NP_AJT", "mod" : [0], "weight" : 0.762245 },
		{"id" : 2, "text" : "조선청년독립단의", "head" : 3, "label" : "NP_MOD", "mod" : [], "weight" : 0.826216 },
		{"id" : 3, "text" : "결성을", "head" : 4, "label" : "NP_OBJ", "mod" : [2], "weight" : 0.526368 },
		{"id" : 4, "text" : "선포하였다.", "head" : -1, "label" : "VP", "mod" : [1, 3], "weight" : 0.180041 }
	],
	"phrase_dependency" : [
	],
	"SRL" : [
	],
	"relation" : [
	],
	"SA" : [
	],
	"ZA" : [
	]
	}
 ],
 "entity" : [
 ]
}

