{"doc_id" : "",
 "DCT" : "",
 "category" : "",
 "category_weight" : 0,
 "title" : {"text" : "아이티", "NE" : ""},
 "metaInfo" : { },
 "paragraphInfo" : [
 ], 
 "sentence" : [
	{
	"id" : 0,
	"reserve_str" : "",
	"text" : "투생 루베르튀르는 잘 훈련된 유연한 군대를 이끌고, 식민지를 침범하려는 스페인군과 영국군을 모두 물리쳤다.",
	"morp" : [
	],
	"morp_eval" : [
	],
	"WSD" : [
	],
	"word" : [
		{"id" : 0, "text" : "투생", "type" : "", "begin" : 0, "end" : 0},
		{"id" : 1, "text" : "루베르튀르는", "type" : "", "begin" : 1, "end" : 2},
		{"id" : 2, "text" : "잘", "type" : "", "begin" : 3, "end" : 3},
		{"id" : 3, "text" : "훈련된", "type" : "", "begin" : 4, "end" : 6},
		{"id" : 4, "text" : "유연한", "type" : "", "begin" : 7, "end" : 9},
		{"id" : 5, "text" : "군대를", "type" : "", "begin" : 10, "end" : 11},
		{"id" : 6, "text" : "이끌고,", "type" : "", "begin" : 12, "end" : 14},
		{"id" : 7, "text" : "식민지를", "type" : "", "begin" : 15, "end" : 17},
		{"id" : 8, "text" : "침범하려는", "type" : "", "begin" : 18, "end" : 20},
		{"id" : 9, "text" : "스페인군과", "type" : "", "begin" : 21, "end" : 23},
		{"id" : 10, "text" : "영국군을", "type" : "", "begin" : 24, "end" : 26},
		{"id" : 11, "text" : "모두", "type" : "", "begin" : 27, "end" : 27},
		{"id" : 12, "text" : "물리쳤다.", "type" : "", "begin" : 28, "end" : 31}
	],
	"NE" : [
	],
	"chunk" : [
	],
	"dependency" : [
		{"id" : 0, "text" : "투생", "head" : 1, "label" : "NP", "mod" : [], "weight" : 0.945151 },
		{"id" : 1, "text" : "루베르튀르는", "head" : 6, "label" : "NP_SBJ", "mod" : [0], "weight" : 0.805472 },
		{"id" : 2, "text" : "잘", "head" : 3, "label" : "AP", "mod" : [], "weight" : 0.657763 },
		{"id" : 3, "text" : "훈련된", "head" : 5, "label" : "VP_MOD", "mod" : [2], "weight" : 0.788111 },
		{"id" : 4, "text" : "유연한", "head" : 5, "label" : "VP_MOD", "mod" : [], "weight" : 0.93152 },
		{"id" : 5, "text" : "군대를", "head" : 6, "label" : "NP_OBJ", "mod" : [3, 4], "weight" : 0.753944 },
		{"id" : 6, "text" : "이끌고,", "head" : 12, "label" : "VP", "mod" : [1, 5], "weight" : 0.687291 },
		{"id" : 7, "text" : "식민지를", "head" : 8, "label" : "NP_OBJ", "mod" : [], "weight" : 0.91118 },
		{"id" : 8, "text" : "침범하려는", "head" : 10, "label" : "VP_MOD", "mod" : [7], "weight" : 0.849699 },
		{"id" : 9, "text" : "스페인군과", "head" : 10, "label" : "NP_CNJ", "mod" : [], "weight" : 0.683688 },
		{"id" : 10, "text" : "영국군을", "head" : 12, "label" : "NP_OBJ", "mod" : [8, 9], "weight" : 0.55709 },
		{"id" : 11, "text" : "모두", "head" : 12, "label" : "AP", "mod" : [], "weight" : 0.447482 },
		{"id" : 12, "text" : "물리쳤다.", "head" : -1, "label" : "VP", "mod" : [6, 10, 11], "weight" : 0.161237 }
	],
	"phrase_dependency" : [
	],
	"SRL" : [
	],
	"relation" : [
	],
	"SA" : [
	],
	"ZA" : [
	]
	},
	{
	"id" : 1,
	"reserve_str" : "",
	"text" : " 1804년 1월 1일 그가 주도한 흑인 노예들의 혁명으로 프랑스로부터 결국 독립을 쟁취하게 된다.",
	"morp" : [
	],
	"morp_eval" : [
	],
	"WSD" : [
	],
	"word" : [
		{"id" : 0, "text" : "1804년", "type" : "", "begin" : 0, "end" : 1},
		{"id" : 1, "text" : "1월", "type" : "", "begin" : 2, "end" : 3},
		{"id" : 2, "text" : "1일", "type" : "", "begin" : 4, "end" : 5},
		{"id" : 3, "text" : "그가", "type" : "", "begin" : 6, "end" : 7},
		{"id" : 4, "text" : "주도한", "type" : "", "begin" : 8, "end" : 10},
		{"id" : 5, "text" : "흑인", "type" : "", "begin" : 11, "end" : 11},
		{"id" : 6, "text" : "노예들의", "type" : "", "begin" : 12, "end" : 14},
		{"id" : 7, "text" : "혁명으로", "type" : "", "begin" : 15, "end" : 16},
		{"id" : 8, "text" : "프랑스로부터", "type" : "", "begin" : 17, "end" : 18},
		{"id" : 9, "text" : "결국", "type" : "", "begin" : 19, "end" : 19},
		{"id" : 10, "text" : "독립을", "type" : "", "begin" : 20, "end" : 21},
		{"id" : 11, "text" : "쟁취하게", "type" : "", "begin" : 22, "end" : 24},
		{"id" : 12, "text" : "된다.", "type" : "", "begin" : 25, "end" : 27}
	],
	"NE" : [
	],
	"chunk" : [
	],
	"dependency" : [
		{"id" : 0, "text" : "1804년", "head" : 1, "label" : "NP", "mod" : [], "weight" : 0.740086 },
		{"id" : 1, "text" : "1월", "head" : 2, "label" : "NP", "mod" : [0], "weight" : 0.872966 },
		{"id" : 2, "text" : "1일", "head" : 4, "label" : "NP_AJT", "mod" : [1], "weight" : 0.964185 },
		{"id" : 3, "text" : "그가", "head" : 4, "label" : "NP_SBJ", "mod" : [], "weight" : 0.668757 },
		{"id" : 4, "text" : "주도한", "head" : 7, "label" : "VP_MOD", "mod" : [3, 2], "weight" : 0.528943 },
		{"id" : 5, "text" : "흑인", "head" : 6, "label" : "NP", "mod" : [], "weight" : 0.871666 },
		{"id" : 6, "text" : "노예들의", "head" : 7, "label" : "NP_MOD", "mod" : [5], "weight" : 0.968866 },
		{"id" : 7, "text" : "혁명으로", "head" : 11, "label" : "NP_AJT", "mod" : [6, 4], "weight" : 0.89763 },
		{"id" : 8, "text" : "프랑스로부터", "head" : 11, "label" : "NP_AJT", "mod" : [], "weight" : 0.62864 },
		{"id" : 9, "text" : "결국", "head" : 11, "label" : "NP_AJT", "mod" : [], "weight" : 0.555038 },
		{"id" : 10, "text" : "독립을", "head" : 11, "label" : "NP_OBJ", "mod" : [], "weight" : 0.658367 },
		{"id" : 11, "text" : "쟁취하게", "head" : 12, "label" : "VP", "mod" : [7, 8, 9, 10], "weight" : 0.589318 },
		{"id" : 12, "text" : "된다.", "head" : -1, "label" : "VP", "mod" : [11], "weight" : 0.178445 }
	],
	"phrase_dependency" : [
	],
	"SRL" : [
	],
	"relation" : [
	],
	"SA" : [
	],
	"ZA" : [
	]
	},
	{
	"id" : 2,
	"reserve_str" : "",
	"text" : " 이 나라는 아메리카에서는 미국 다음으로 두 번째로 독립하였으며, 노예제 폐지를 법령화한 최초의 북아메리카 국가이다.",
	"morp" : [
	],
	"morp_eval" : [
	],
	"WSD" : [
	],
	"word" : [
		{"id" : 0, "text" : "이", "type" : "", "begin" : 0, "end" : 0},
		{"id" : 1, "text" : "나라는", "type" : "", "begin" : 1, "end" : 2},
		{"id" : 2, "text" : "아메리카에서는", "type" : "", "begin" : 3, "end" : 5},
		{"id" : 3, "text" : "미국", "type" : "", "begin" : 6, "end" : 6},
		{"id" : 4, "text" : "다음으로", "type" : "", "begin" : 7, "end" : 8},
		{"id" : 5, "text" : "두", "type" : "", "begin" : 9, "end" : 9},
		{"id" : 6, "text" : "번째로", "type" : "", "begin" : 10, "end" : 11},
		{"id" : 7, "text" : "독립하였으며,", "type" : "", "begin" : 12, "end" : 16},
		{"id" : 8, "text" : "노예제", "type" : "", "begin" : 17, "end" : 18},
		{"id" : 9, "text" : "폐지를", "type" : "", "begin" : 19, "end" : 20},
		{"id" : 10, "text" : "법령화한", "type" : "", "begin" : 21, "end" : 24},
		{"id" : 11, "text" : "최초의", "type" : "", "begin" : 25, "end" : 26},
		{"id" : 12, "text" : "북아메리카", "type" : "", "begin" : 27, "end" : 27},
		{"id" : 13, "text" : "국가이다.", "type" : "", "begin" : 28, "end" : 31}
	],
	"NE" : [
	],
	"chunk" : [
	],
	"dependency" : [
		{"id" : 0, "text" : "이", "head" : 1, "label" : "DP", "mod" : [], "weight" : 0.930143 },
		{"id" : 1, "text" : "나라는", "head" : 7, "label" : "NP_SBJ", "mod" : [0], "weight" : 0.655604 },
		{"id" : 2, "text" : "아메리카에서는", "head" : 7, "label" : "NP_AJT", "mod" : [], "weight" : 0.822676 },
		{"id" : 3, "text" : "미국", "head" : 4, "label" : "NP", "mod" : [], "weight" : 0.81823 },
		{"id" : 4, "text" : "다음으로", "head" : 7, "label" : "NP_AJT", "mod" : [3], "weight" : 0.849052 },
		{"id" : 5, "text" : "두", "head" : 6, "label" : "DP", "mod" : [], "weight" : 0.960999 },
		{"id" : 6, "text" : "번째로", "head" : 7, "label" : "NP_AJT", "mod" : [5], "weight" : 0.97028 },
		{"id" : 7, "text" : "독립하였으며,", "head" : 10, "label" : "VP", "mod" : [1, 2, 4, 6], "weight" : 0.803962 },
		{"id" : 8, "text" : "노예제", "head" : 9, "label" : "NP", "mod" : [], "weight" : 0.712696 },
		{"id" : 9, "text" : "폐지를", "head" : 10, "label" : "NP_OBJ", "mod" : [8], "weight" : 0.820852 },
		{"id" : 10, "text" : "법령화한", "head" : 13, "label" : "VP_MOD", "mod" : [7, 9], "weight" : 0.53804 },
		{"id" : 11, "text" : "최초의", "head" : 13, "label" : "NP_MOD", "mod" : [], "weight" : 0.553367 },
		{"id" : 12, "text" : "북아메리카", "head" : 13, "label" : "NP", "mod" : [], "weight" : 0.362489 },
		{"id" : 13, "text" : "국가이다.", "head" : -1, "label" : "VNP", "mod" : [10, 11, 12], "weight" : 0.10123 }
	],
	"phrase_dependency" : [
	],
	"SRL" : [
	],
	"relation" : [
	],
	"SA" : [
	],
	"ZA" : [
	]
	}
 ],
 "entity" : [
 ]
}

