{"doc_id" : "",
 "DCT" : "",
 "category" : "",
 "category_weight" : 0,
 "title" : {"text" : "입춘", "NE" : ""},
 "metaInfo" : { },
 "paragraphInfo" : [
 ], 
 "sentence" : [
	{
	"id" : 0,
	"reserve_str" : "",
	"text" : "입춘이 되면 '입춘에는 크게 길하다'라는 의미의 입춘대길(立春大吉)이란 글을 써서 대문 기둥이나 대들보, 천장 등에 붙이는데 이를 입춘방(立春榜)이라 한다.",
	"morp" : [
	],
	"morp_eval" : [
	],
	"WSD" : [
	],
	"word" : [
		{"id" : 0, "text" : "입춘이", "type" : "", "begin" : 0, "end" : 1},
		{"id" : 1, "text" : "되면", "type" : "", "begin" : 2, "end" : 3},
		{"id" : 2, "text" : "'입춘에는", "type" : "", "begin" : 4, "end" : 7},
		{"id" : 3, "text" : "크게", "type" : "", "begin" : 8, "end" : 9},
		{"id" : 4, "text" : "길하다'라는", "type" : "", "begin" : 10, "end" : 15},
		{"id" : 5, "text" : "의미의", "type" : "", "begin" : 16, "end" : 17},
		{"id" : 6, "text" : "입춘대길(立春大吉)이란", "type" : "", "begin" : 18, "end" : 24},
		{"id" : 7, "text" : "글을", "type" : "", "begin" : 25, "end" : 26},
		{"id" : 8, "text" : "써서", "type" : "", "begin" : 27, "end" : 28},
		{"id" : 9, "text" : "대문", "type" : "", "begin" : 29, "end" : 29},
		{"id" : 10, "text" : "기둥이나", "type" : "", "begin" : 30, "end" : 31},
		{"id" : 11, "text" : "대들보,", "type" : "", "begin" : 32, "end" : 34},
		{"id" : 12, "text" : "천장", "type" : "", "begin" : 35, "end" : 35},
		{"id" : 13, "text" : "등에", "type" : "", "begin" : 36, "end" : 37},
		{"id" : 14, "text" : "붙이는데", "type" : "", "begin" : 38, "end" : 39},
		{"id" : 15, "text" : "이를", "type" : "", "begin" : 40, "end" : 41},
		{"id" : 16, "text" : "입춘방(立春榜)이라", "type" : "", "begin" : 42, "end" : 48},
		{"id" : 17, "text" : "한다.", "type" : "", "begin" : 49, "end" : 51}
	],
	"NE" : [
	],
	"chunk" : [
	],
	"dependency" : [
		{"id" : 0, "text" : "입춘이", "head" : 1, "label" : "NP_CMP", "mod" : [], "weight" : 0.622245 },
		{"id" : 1, "text" : "되면", "head" : 8, "label" : "VP", "mod" : [0], "weight" : 0.680397 },
		{"id" : 2, "text" : "'입춘에는", "head" : 4, "label" : "NP_AJT", "mod" : [], "weight" : 0.353447 },
		{"id" : 3, "text" : "크게", "head" : 4, "label" : "VP_AJT", "mod" : [], "weight" : 0.574396 },
		{"id" : 4, "text" : "길하다'라는", "head" : 5, "label" : "VP_MOD", "mod" : [2, 3], "weight" : 0.579456 },
		{"id" : 5, "text" : "의미의", "head" : 6, "label" : "NP_MOD", "mod" : [4], "weight" : 0.63793 },
		{"id" : 6, "text" : "입춘대길(立春大吉)이란", "head" : 7, "label" : "VNP_MOD", "mod" : [5], "weight" : 0.80716 },
		{"id" : 7, "text" : "글을", "head" : 8, "label" : "NP_OBJ", "mod" : [6], "weight" : 0.944925 },
		{"id" : 8, "text" : "써서", "head" : 14, "label" : "VP", "mod" : [1, 7], "weight" : 0.888575 },
		{"id" : 9, "text" : "대문", "head" : 10, "label" : "NP", "mod" : [], "weight" : 0.878162 },
		{"id" : 10, "text" : "기둥이나", "head" : 12, "label" : "NP_CNJ", "mod" : [9], "weight" : 0.898101 },
		{"id" : 11, "text" : "대들보,", "head" : 12, "label" : "NP_CNJ", "mod" : [], "weight" : 0.717924 },
		{"id" : 12, "text" : "천장", "head" : 13, "label" : "NP", "mod" : [10, 11], "weight" : 0.738271 },
		{"id" : 13, "text" : "등에", "head" : 14, "label" : "NP_AJT", "mod" : [12], "weight" : 0.829989 },
		{"id" : 14, "text" : "붙이는데", "head" : 16, "label" : "VP", "mod" : [8, 13], "weight" : 0.709702 },
		{"id" : 15, "text" : "이를", "head" : 16, "label" : "NP_OBJ", "mod" : [], "weight" : 0.868242 },
		{"id" : 16, "text" : "입춘방(立春榜)이라", "head" : 17, "label" : "VNP_CMP", "mod" : [14, 15], "weight" : 0.517674 },
		{"id" : 17, "text" : "한다.", "head" : -1, "label" : "VP", "mod" : [16], "weight" : 0.169769 }
	],
	"phrase_dependency" : [
	],
	"SRL" : [
	],
	"relation" : [
	],
	"SA" : [
	],
	"ZA" : [
	]
	}
 ],
 "entity" : [
 ]
}

