{"doc_id" : "",
 "DCT" : "",
 "category" : "",
 "category_weight" : 0,
 "title" : {"text" : "구제역", "NE" : ""},
 "metaInfo" : { },
 "paragraphInfo" : [
 ], 
 "sentence" : [
	{
	"id" : 0,
	"reserve_str" : "",
	"text" : "발굽이 2개인 소·돼지 등의 우제류 가축이 구제역 바이러스에 노출되어 감염되는 법정전염병을 말한다.",
	"morp" : [
	],
	"morp_eval" : [
	],
	"WSD" : [
	],
	"word" : [
		{"id" : 0, "text" : "발굽이", "type" : "", "begin" : 0, "end" : 1},
		{"id" : 1, "text" : "2개인", "type" : "", "begin" : 2, "end" : 5},
		{"id" : 2, "text" : "소·돼지", "type" : "", "begin" : 6, "end" : 8},
		{"id" : 3, "text" : "등의", "type" : "", "begin" : 9, "end" : 10},
		{"id" : 4, "text" : "우제류", "type" : "", "begin" : 11, "end" : 12},
		{"id" : 5, "text" : "가축이", "type" : "", "begin" : 13, "end" : 14},
		{"id" : 6, "text" : "구제역", "type" : "", "begin" : 15, "end" : 16},
		{"id" : 7, "text" : "바이러스에", "type" : "", "begin" : 17, "end" : 18},
		{"id" : 8, "text" : "노출되어", "type" : "", "begin" : 19, "end" : 21},
		{"id" : 9, "text" : "감염되는", "type" : "", "begin" : 22, "end" : 24},
		{"id" : 10, "text" : "법정전염병을", "type" : "", "begin" : 25, "end" : 28},
		{"id" : 11, "text" : "말한다.", "type" : "", "begin" : 29, "end" : 32}
	],
	"NE" : [
	],
	"chunk" : [
	],
	"dependency" : [
		{"id" : 0, "text" : "발굽이", "head" : 1, "label" : "NP_SBJ", "mod" : [], "weight" : 0.595699 },
		{"id" : 1, "text" : "2개인", "head" : 2, "label" : "VNP_MOD", "mod" : [0], "weight" : 0.696246 },
		{"id" : 2, "text" : "소·돼지", "head" : 3, "label" : "NP", "mod" : [1], "weight" : 0.930218 },
		{"id" : 3, "text" : "등의", "head" : 5, "label" : "NP_MOD", "mod" : [2], "weight" : 0.985221 },
		{"id" : 4, "text" : "우제류", "head" : 5, "label" : "NP", "mod" : [], "weight" : 0.695155 },
		{"id" : 5, "text" : "가축이", "head" : 8, "label" : "NP_SBJ", "mod" : [3, 4], "weight" : 0.600484 },
		{"id" : 6, "text" : "구제역", "head" : 7, "label" : "NP", "mod" : [], "weight" : 0.925629 },
		{"id" : 7, "text" : "바이러스에", "head" : 8, "label" : "NP_AJT", "mod" : [6], "weight" : 0.93403 },
		{"id" : 8, "text" : "노출되어", "head" : 9, "label" : "VP", "mod" : [5, 7], "weight" : 0.879352 },
		{"id" : 9, "text" : "감염되는", "head" : 10, "label" : "VP_MOD", "mod" : [8], "weight" : 0.909536 },
		{"id" : 10, "text" : "법정전염병을", "head" : 11, "label" : "NP_OBJ", "mod" : [9], "weight" : 0.555925 },
		{"id" : 11, "text" : "말한다.", "head" : -1, "label" : "VP", "mod" : [10], "weight" : 0.364812 }
	],
	"phrase_dependency" : [
	],
	"SRL" : [
	],
	"relation" : [
	],
	"SA" : [
	],
	"ZA" : [
	]
	},
	{
	"id" : 1,
	"reserve_str" : "",
	"text" : " 발병 후 1~2일이면 입술, 혀, 잇몸, 콧구멍, 발, 젖꼭지 등에 물집이 생기며 다리를 절고 침을 흘린다.",
	"morp" : [
	],
	"morp_eval" : [
	],
	"WSD" : [
	],
	"word" : [
		{"id" : 0, "text" : "발병", "type" : "", "begin" : 0, "end" : 0},
		{"id" : 1, "text" : "후", "type" : "", "begin" : 1, "end" : 1},
		{"id" : 2, "text" : "1~2일이면", "type" : "", "begin" : 2, "end" : 7},
		{"id" : 3, "text" : "입술,", "type" : "", "begin" : 8, "end" : 9},
		{"id" : 4, "text" : "혀,", "type" : "", "begin" : 10, "end" : 11},
		{"id" : 5, "text" : "잇몸,", "type" : "", "begin" : 12, "end" : 13},
		{"id" : 6, "text" : "콧구멍,", "type" : "", "begin" : 14, "end" : 16},
		{"id" : 7, "text" : "발,", "type" : "", "begin" : 17, "end" : 18},
		{"id" : 8, "text" : "젖꼭지", "type" : "", "begin" : 19, "end" : 20},
		{"id" : 9, "text" : "등에", "type" : "", "begin" : 21, "end" : 22},
		{"id" : 10, "text" : "물집이", "type" : "", "begin" : 23, "end" : 24},
		{"id" : 11, "text" : "생기며", "type" : "", "begin" : 25, "end" : 26},
		{"id" : 12, "text" : "다리를", "type" : "", "begin" : 27, "end" : 28},
		{"id" : 13, "text" : "절고", "type" : "", "begin" : 29, "end" : 30},
		{"id" : 14, "text" : "침을", "type" : "", "begin" : 31, "end" : 32},
		{"id" : 15, "text" : "흘린다.", "type" : "", "begin" : 33, "end" : 35}
	],
	"NE" : [
	],
	"chunk" : [
	],
	"dependency" : [
		{"id" : 0, "text" : "발병", "head" : 1, "label" : "NP", "mod" : [], "weight" : 0.948581 },
		{"id" : 1, "text" : "후", "head" : 2, "label" : "NP_AJT", "mod" : [0], "weight" : 0.682506 },
		{"id" : 2, "text" : "1~2일이면", "head" : 11, "label" : "VNP", "mod" : [1], "weight" : 0.996332 },
		{"id" : 3, "text" : "입술,", "head" : 8, "label" : "NP_CNJ", "mod" : [], "weight" : 0.848724 },
		{"id" : 4, "text" : "혀,", "head" : 8, "label" : "NP_CNJ", "mod" : [], "weight" : 0.840595 },
		{"id" : 5, "text" : "잇몸,", "head" : 8, "label" : "NP_CNJ", "mod" : [], "weight" : 0.677797 },
		{"id" : 6, "text" : "콧구멍,", "head" : 8, "label" : "NP_CNJ", "mod" : [], "weight" : 0.671 },
		{"id" : 7, "text" : "발,", "head" : 8, "label" : "NP_CNJ", "mod" : [], "weight" : 0.590169 },
		{"id" : 8, "text" : "젖꼭지", "head" : 9, "label" : "NP", "mod" : [3, 4, 5, 6, 7], "weight" : 0.832565 },
		{"id" : 9, "text" : "등에", "head" : 11, "label" : "NP_AJT", "mod" : [8], "weight" : 0.907424 },
		{"id" : 10, "text" : "물집이", "head" : 11, "label" : "NP_SBJ", "mod" : [], "weight" : 0.744951 },
		{"id" : 11, "text" : "생기며", "head" : 13, "label" : "VP", "mod" : [2, 9, 10], "weight" : 0.877411 },
		{"id" : 12, "text" : "다리를", "head" : 13, "label" : "NP_OBJ", "mod" : [], "weight" : 0.776394 },
		{"id" : 13, "text" : "절고", "head" : 15, "label" : "VP", "mod" : [11, 12], "weight" : 0.651639 },
		{"id" : 14, "text" : "침을", "head" : 15, "label" : "NP_OBJ", "mod" : [], "weight" : 0.5716 },
		{"id" : 15, "text" : "흘린다.", "head" : -1, "label" : "VP", "mod" : [13, 14], "weight" : 0.137354 }
	],
	"phrase_dependency" : [
	],
	"SRL" : [
	],
	"relation" : [
	],
	"SA" : [
	],
	"ZA" : [
	]
	}
 ],
 "entity" : [
 ]
}

