{"doc_id" : "",
 "DCT" : "",
 "category" : "",
 "category_weight" : 0,
 "title" : {"text" : "타지마할", "NE" : ""},
 "metaInfo" : { },
 "paragraphInfo" : [
 ], 
 "sentence" : [
	{
	"id" : 0,
	"reserve_str" : "",
	"text" : "1631년~1648년 무굴 제국의 황제 샤자한(Shah Jahan)이 사랑하는 아내를 추모하기 위해 아그라(Agra)에 건립하였다.",
	"morp" : [
	],
	"morp_eval" : [
	],
	"WSD" : [
	],
	"word" : [
		{"id" : 0, "text" : "1631년~1648년", "type" : "", "begin" : 0, "end" : 4},
		{"id" : 1, "text" : "무굴", "type" : "", "begin" : 5, "end" : 5},
		{"id" : 2, "text" : "제국의", "type" : "", "begin" : 6, "end" : 7},
		{"id" : 3, "text" : "황제", "type" : "", "begin" : 8, "end" : 8},
		{"id" : 4, "text" : "샤자한(Shah", "type" : "", "begin" : 9, "end" : 11},
		{"id" : 5, "text" : "Jahan)이", "type" : "", "begin" : 12, "end" : 14},
		{"id" : 6, "text" : "사랑하는", "type" : "", "begin" : 15, "end" : 17},
		{"id" : 7, "text" : "아내를", "type" : "", "begin" : 18, "end" : 19},
		{"id" : 8, "text" : "추모하기", "type" : "", "begin" : 20, "end" : 22},
		{"id" : 9, "text" : "위해", "type" : "", "begin" : 23, "end" : 24},
		{"id" : 10, "text" : "아그라(Agra)에", "type" : "", "begin" : 25, "end" : 29},
		{"id" : 11, "text" : "건립하였다.", "type" : "", "begin" : 30, "end" : 34}
	],
	"NE" : [
	],
	"chunk" : [
	],
	"dependency" : [
		{"id" : 0, "text" : "1631년~1648년", "head" : 11, "label" : "NP_AJT", "mod" : [], "weight" : 0.783767 },
		{"id" : 1, "text" : "무굴", "head" : 2, "label" : "NP", "mod" : [], "weight" : 0.744436 },
		{"id" : 2, "text" : "제국의", "head" : 3, "label" : "NP_MOD", "mod" : [1], "weight" : 0.56273 },
		{"id" : 3, "text" : "황제", "head" : 4, "label" : "NP", "mod" : [2], "weight" : 0.505469 },
		{"id" : 4, "text" : "샤자한(Shah", "head" : 5, "label" : "NP", "mod" : [3], "weight" : 0.951186 },
		{"id" : 5, "text" : "Jahan)이", "head" : 8, "label" : "NP_SBJ", "mod" : [4], "weight" : 0.515423 },
		{"id" : 6, "text" : "사랑하는", "head" : 7, "label" : "VP_MOD", "mod" : [], "weight" : 0.950378 },
		{"id" : 7, "text" : "아내를", "head" : 8, "label" : "NP_OBJ", "mod" : [6], "weight" : 0.887718 },
		{"id" : 8, "text" : "추모하기", "head" : 9, "label" : "VP_OBJ", "mod" : [7, 5], "weight" : 0.80223 },
		{"id" : 9, "text" : "위해", "head" : 11, "label" : "VP", "mod" : [8], "weight" : 0.619693 },
		{"id" : 10, "text" : "아그라(Agra)에", "head" : 11, "label" : "NP_AJT", "mod" : [], "weight" : 0.469972 },
		{"id" : 11, "text" : "건립하였다.", "head" : -1, "label" : "VP", "mod" : [9, 10, 0], "weight" : 0.872737 }
	],
	"phrase_dependency" : [
	],
	"SRL" : [
	],
	"relation" : [
	],
	"SA" : [
	],
	"ZA" : [
	]
	}
 ],
 "entity" : [
 ]
}

