{"doc_id" : "",
 "DCT" : "",
 "category" : "",
 "category_weight" : 0,
 "title" : {"text" : "동위원소", "NE" : ""},
 "metaInfo" : { },
 "paragraphInfo" : [
 ], 
 "sentence" : [
	{
	"id" : 0,
	"reserve_str" : "",
	"text" : "<화학> 원자 번호는 같으나 질량수가 서로 다른 원소.",
	"morp" : [
	],
	"morp_eval" : [
	],
	"WSD" : [
	],
	"word" : [
		{"id" : 0, "text" : "<화학>", "type" : "", "begin" : 0, "end" : 2},
		{"id" : 1, "text" : "원자", "type" : "", "begin" : 3, "end" : 3},
		{"id" : 2, "text" : "번호는", "type" : "", "begin" : 4, "end" : 5},
		{"id" : 3, "text" : "같으나", "type" : "", "begin" : 6, "end" : 7},
		{"id" : 4, "text" : "질량수가", "type" : "", "begin" : 8, "end" : 10},
		{"id" : 5, "text" : "서로", "type" : "", "begin" : 11, "end" : 11},
		{"id" : 6, "text" : "다른", "type" : "", "begin" : 12, "end" : 12},
		{"id" : 7, "text" : "원소.", "type" : "", "begin" : 13, "end" : 14}
	],
	"NE" : [
	],
	"chunk" : [
	],
	"dependency" : [
		{"id" : 0, "text" : "<화학>", "head" : 7, "label" : "NP", "mod" : [], "weight" : 0.988423 },
		{"id" : 1, "text" : "원자", "head" : 2, "label" : "NP", "mod" : [], "weight" : 0.951325 },
		{"id" : 2, "text" : "번호는", "head" : 3, "label" : "NP_SBJ", "mod" : [1], "weight" : 0.798285 },
		{"id" : 3, "text" : "같으나", "head" : 6, "label" : "VP", "mod" : [2], "weight" : 0.877616 },
		{"id" : 4, "text" : "질량수가", "head" : 6, "label" : "NP_SBJ", "mod" : [], "weight" : 0.731367 },
		{"id" : 5, "text" : "서로", "head" : 6, "label" : "AP", "mod" : [], "weight" : 0.613875 },
		{"id" : 6, "text" : "다른", "head" : 7, "label" : "VP_MOD", "mod" : [5, 4, 3], "weight" : 0.417375 },
		{"id" : 7, "text" : "원소.", "head" : -1, "label" : "NP", "mod" : [0, 6], "weight" : 0.595474 }
	],
	"phrase_dependency" : [
	],
	"SRL" : [
	],
	"relation" : [
	],
	"SA" : [
	],
	"ZA" : [
	]
	},
	{
	"id" : 1,
	"reserve_str" : "",
	"text" : " 양성자의 수는 같으나 중성자의 수가 다르다.",
	"morp" : [
	],
	"morp_eval" : [
	],
	"WSD" : [
	],
	"word" : [
		{"id" : 0, "text" : "양성자의", "type" : "", "begin" : 0, "end" : 2},
		{"id" : 1, "text" : "수는", "type" : "", "begin" : 3, "end" : 4},
		{"id" : 2, "text" : "같으나", "type" : "", "begin" : 5, "end" : 6},
		{"id" : 3, "text" : "중성자의", "type" : "", "begin" : 7, "end" : 9},
		{"id" : 4, "text" : "수가", "type" : "", "begin" : 10, "end" : 11},
		{"id" : 5, "text" : "다르다.", "type" : "", "begin" : 12, "end" : 14}
	],
	"NE" : [
	],
	"chunk" : [
	],
	"dependency" : [
		{"id" : 0, "text" : "양성자의", "head" : 1, "label" : "NP_MOD", "mod" : [], "weight" : 0.875483 },
		{"id" : 1, "text" : "수는", "head" : 2, "label" : "NP_SBJ", "mod" : [0], "weight" : 0.60921 },
		{"id" : 2, "text" : "같으나", "head" : 5, "label" : "VP", "mod" : [1], "weight" : 0.637469 },
		{"id" : 3, "text" : "중성자의", "head" : 4, "label" : "NP_MOD", "mod" : [], "weight" : 0.95329 },
		{"id" : 4, "text" : "수가", "head" : 5, "label" : "NP_SBJ", "mod" : [3], "weight" : 0.534846 },
		{"id" : 5, "text" : "다르다.", "head" : -1, "label" : "VP", "mod" : [2, 4], "weight" : 0.134149 }
	],
	"phrase_dependency" : [
	],
	"SRL" : [
	],
	"relation" : [
	],
	"SA" : [
	],
	"ZA" : [
	]
	}
 ],
 "entity" : [
 ]
}

