{"doc_id" : "938026",
 "DCT" : "",
 "category" : "",
 "category_weight" : 0,
 "title" : {"text" : "아이티 지진", "NE" : ""},
 "metaInfo" : { },
 "paragraphInfo" : [
 ], 
 "sentence" : [
	{
	"id" : 0,
	"reserve_str" : "",
	"text" : "2010년 1월 12일(현지시간) 카리브해에 있는 섬나라 아이티 공화국에서 발생한 강도 7의 대지진이 발생한 자연재해 사건이다.",
	"morp" : [
	],
	"morp_eval" : [
	],
	"WSD" : [
	],
	"word" : [
		{"id" : 0, "text" : "2010년", "type" : "", "begin" : 0, "end" : 1},
		{"id" : 1, "text" : "1월", "type" : "", "begin" : 2, "end" : 3},
		{"id" : 2, "text" : "12일(현지시간)", "type" : "", "begin" : 4, "end" : 9},
		{"id" : 3, "text" : "카리브해에", "type" : "", "begin" : 10, "end" : 11},
		{"id" : 4, "text" : "있는", "type" : "", "begin" : 12, "end" : 13},
		{"id" : 5, "text" : "섬나라", "type" : "", "begin" : 14, "end" : 15},
		{"id" : 6, "text" : "아이티", "type" : "", "begin" : 16, "end" : 16},
		{"id" : 7, "text" : "공화국에서", "type" : "", "begin" : 17, "end" : 19},
		{"id" : 8, "text" : "발생한", "type" : "", "begin" : 20, "end" : 22},
		{"id" : 9, "text" : "강도", "type" : "", "begin" : 23, "end" : 23},
		{"id" : 10, "text" : "7의", "type" : "", "begin" : 24, "end" : 25},
		{"id" : 11, "text" : "대지진이", "type" : "", "begin" : 26, "end" : 28},
		{"id" : 12, "text" : "발생한", "type" : "", "begin" : 29, "end" : 31},
		{"id" : 13, "text" : "자연재해", "type" : "", "begin" : 32, "end" : 33},
		{"id" : 14, "text" : "사건이다.", "type" : "", "begin" : 34, "end" : 37}
	],
	"NE" : [
	],
	"chunk" : [
	],
	"dependency" : [
		{"id" : 0, "text" : "2010년", "head" : 1, "label" : "NP", "mod" : [], "weight" : 0.65099 },
		{"id" : 1, "text" : "1월", "head" : 2, "label" : "NP", "mod" : [0], "weight" : 0.821149 },
		{"id" : 2, "text" : "12일(현지시간)", "head" : 8, "label" : "NP_AJT", "mod" : [1], "weight" : 0.776205 },
		{"id" : 3, "text" : "카리브해에", "head" : 4, "label" : "NP_AJT", "mod" : [], "weight" : 0.775388 },
		{"id" : 4, "text" : "있는", "head" : 5, "label" : "VP_MOD", "mod" : [3], "weight" : 0.539505 },
		{"id" : 5, "text" : "섬나라", "head" : 7, "label" : "NP", "mod" : [4], "weight" : 0.557059 },
		{"id" : 6, "text" : "아이티", "head" : 7, "label" : "NP", "mod" : [], "weight" : 0.717253 },
		{"id" : 7, "text" : "공화국에서", "head" : 8, "label" : "NP_AJT", "mod" : [5, 6], "weight" : 0.756597 },
		{"id" : 8, "text" : "발생한", "head" : 11, "label" : "VP_MOD", "mod" : [7, 2], "weight" : 0.761795 },
		{"id" : 9, "text" : "강도", "head" : 10, "label" : "NP", "mod" : [], "weight" : 0.637768 },
		{"id" : 10, "text" : "7의", "head" : 11, "label" : "NP_MOD", "mod" : [9], "weight" : 0.966274 },
		{"id" : 11, "text" : "대지진이", "head" : 12, "label" : "NP_SBJ", "mod" : [8, 10], "weight" : 0.608069 },
		{"id" : 12, "text" : "발생한", "head" : 14, "label" : "VP_MOD", "mod" : [11], "weight" : 0.534245 },
		{"id" : 13, "text" : "자연재해", "head" : 14, "label" : "NP", "mod" : [], "weight" : 0.400555 },
		{"id" : 14, "text" : "사건이다.", "head" : -1, "label" : "VNP", "mod" : [12, 13], "weight" : 0.181355 }
	],
	"phrase_dependency" : [
	],
	"SRL" : [
	],
	"relation" : [
	],
	"SA" : [
	],
	"ZA" : [
	]
	},
	{
	"id" : 1,
	"reserve_str" : "",
	"text" : " 지진의 진원지는 아이티 공화국의 수도인 포르토프랭스(Port-au-Prince) 인근에서 발생한 것으로 인구 200만 명이 거주하는 도시를 강타하여 막대한 피해가 발생하였다.",
	"morp" : [
	],
	"morp_eval" : [
	],
	"WSD" : [
	],
	"word" : [
		{"id" : 0, "text" : "지진의", "type" : "", "begin" : 0, "end" : 1},
		{"id" : 1, "text" : "진원지는", "type" : "", "begin" : 2, "end" : 4},
		{"id" : 2, "text" : "아이티", "type" : "", "begin" : 5, "end" : 5},
		{"id" : 3, "text" : "공화국의", "type" : "", "begin" : 6, "end" : 8},
		{"id" : 4, "text" : "수도인", "type" : "", "begin" : 9, "end" : 11},
		{"id" : 5, "text" : "포르토프랭스(Port-au-Prince)", "type" : "", "begin" : 12, "end" : 19},
		{"id" : 6, "text" : "인근에서", "type" : "", "begin" : 20, "end" : 21},
		{"id" : 7, "text" : "발생한", "type" : "", "begin" : 22, "end" : 24},
		{"id" : 8, "text" : "것으로", "type" : "", "begin" : 25, "end" : 26},
		{"id" : 9, "text" : "인구", "type" : "", "begin" : 27, "end" : 27},
		{"id" : 10, "text" : "200만", "type" : "", "begin" : 28, "end" : 29},
		{"id" : 11, "text" : "명이", "type" : "", "begin" : 30, "end" : 31},
		{"id" : 12, "text" : "거주하는", "type" : "", "begin" : 32, "end" : 34},
		{"id" : 13, "text" : "도시를", "type" : "", "begin" : 35, "end" : 36},
		{"id" : 14, "text" : "강타하여", "type" : "", "begin" : 37, "end" : 39},
		{"id" : 15, "text" : "막대한", "type" : "", "begin" : 40, "end" : 41},
		{"id" : 16, "text" : "피해가", "type" : "", "begin" : 42, "end" : 43},
		{"id" : 17, "text" : "발생하였다.", "type" : "", "begin" : 44, "end" : 48}
	],
	"NE" : [
	],
	"chunk" : [
	],
	"dependency" : [
		{"id" : 0, "text" : "지진의", "head" : 1, "label" : "NP_MOD", "mod" : [], "weight" : 0.928251 },
		{"id" : 1, "text" : "진원지는", "head" : 7, "label" : "NP_SBJ", "mod" : [0], "weight" : 0.776483 },
		{"id" : 2, "text" : "아이티", "head" : 3, "label" : "NP", "mod" : [], "weight" : 0.806448 },
		{"id" : 3, "text" : "공화국의", "head" : 4, "label" : "NP_MOD", "mod" : [2], "weight" : 0.710093 },
		{"id" : 4, "text" : "수도인", "head" : 5, "label" : "VNP_MOD", "mod" : [3], "weight" : 0.650635 },
		{"id" : 5, "text" : "포르토프랭스(Port-au-Prince)", "head" : 6, "label" : "NP", "mod" : [4], "weight" : 0.587472 },
		{"id" : 6, "text" : "인근에서", "head" : 7, "label" : "NP_AJT", "mod" : [5], "weight" : 0.727052 },
		{"id" : 7, "text" : "발생한", "head" : 8, "label" : "VP_MOD", "mod" : [6, 1], "weight" : 0.814251 },
		{"id" : 8, "text" : "것으로", "head" : 14, "label" : "NP_AJT", "mod" : [7], "weight" : 0.607929 },
		{"id" : 9, "text" : "인구", "head" : 11, "label" : "NP", "mod" : [], "weight" : 0.75159 },
		{"id" : 10, "text" : "200만", "head" : 11, "label" : "NP", "mod" : [], "weight" : 0.881473 },
		{"id" : 11, "text" : "명이", "head" : 12, "label" : "NP_SBJ", "mod" : [9, 10], "weight" : 0.655311 },
		{"id" : 12, "text" : "거주하는", "head" : 13, "label" : "VP_MOD", "mod" : [11], "weight" : 0.945698 },
		{"id" : 13, "text" : "도시를", "head" : 14, "label" : "NP_OBJ", "mod" : [12], "weight" : 0.780397 },
		{"id" : 14, "text" : "강타하여", "head" : 17, "label" : "VP", "mod" : [8, 13], "weight" : 0.646849 },
		{"id" : 15, "text" : "막대한", "head" : 16, "label" : "VP_MOD", "mod" : [], "weight" : 0.974772 },
		{"id" : 16, "text" : "피해가", "head" : 17, "label" : "NP_SBJ", "mod" : [15], "weight" : 0.507776 },
		{"id" : 17, "text" : "발생하였다.", "head" : -1, "label" : "VP", "mod" : [14, 16], "weight" : 0.324722 }
	],
	"phrase_dependency" : [
	],
	"SRL" : [
	],
	"relation" : [
	],
	"SA" : [
	],
	"ZA" : [
	]
	},
	{
	"id" : 2,
	"reserve_str" : "",
	"text" : " 아이티 공화국 정부에서 발표한 자료에 의하면 약 30만 명이 지진피해로 사망하였다.",
	"morp" : [
	],
	"morp_eval" : [
	],
	"WSD" : [
	],
	"word" : [
		{"id" : 0, "text" : "아이티", "type" : "", "begin" : 0, "end" : 0},
		{"id" : 1, "text" : "공화국", "type" : "", "begin" : 1, "end" : 2},
		{"id" : 2, "text" : "정부에서", "type" : "", "begin" : 3, "end" : 4},
		{"id" : 3, "text" : "발표한", "type" : "", "begin" : 5, "end" : 7},
		{"id" : 4, "text" : "자료에", "type" : "", "begin" : 8, "end" : 9},
		{"id" : 5, "text" : "의하면", "type" : "", "begin" : 10, "end" : 11},
		{"id" : 6, "text" : "약", "type" : "", "begin" : 12, "end" : 12},
		{"id" : 7, "text" : "30만", "type" : "", "begin" : 13, "end" : 14},
		{"id" : 8, "text" : "명이", "type" : "", "begin" : 15, "end" : 16},
		{"id" : 9, "text" : "지진피해로", "type" : "", "begin" : 17, "end" : 19},
		{"id" : 10, "text" : "사망하였다.", "type" : "", "begin" : 20, "end" : 24}
	],
	"NE" : [
	],
	"chunk" : [
	],
	"dependency" : [
		{"id" : 0, "text" : "아이티", "head" : 1, "label" : "NP", "mod" : [], "weight" : 0.691548 },
		{"id" : 1, "text" : "공화국", "head" : 2, "label" : "NP", "mod" : [0], "weight" : 0.743771 },
		{"id" : 2, "text" : "정부에서", "head" : 3, "label" : "NP_AJT", "mod" : [1], "weight" : 0.786018 },
		{"id" : 3, "text" : "발표한", "head" : 4, "label" : "VP_MOD", "mod" : [2], "weight" : 0.901922 },
		{"id" : 4, "text" : "자료에", "head" : 5, "label" : "NP_AJT", "mod" : [3], "weight" : 0.634318 },
		{"id" : 5, "text" : "의하면", "head" : 10, "label" : "VP", "mod" : [4], "weight" : 0.720362 },
		{"id" : 6, "text" : "약", "head" : 8, "label" : "DP", "mod" : [], "weight" : 0.829445 },
		{"id" : 7, "text" : "30만", "head" : 8, "label" : "NP", "mod" : [], "weight" : 0.846029 },
		{"id" : 8, "text" : "명이", "head" : 10, "label" : "NP_SBJ", "mod" : [6, 7], "weight" : 0.602725 },
		{"id" : 9, "text" : "지진피해로", "head" : 10, "label" : "NP_AJT", "mod" : [], "weight" : 0.574679 },
		{"id" : 10, "text" : "사망하였다.", "head" : -1, "label" : "VP", "mod" : [5, 8, 9], "weight" : 0.225703 }
	],
	"phrase_dependency" : [
	],
	"SRL" : [
	],
	"relation" : [
	],
	"SA" : [
	],
	"ZA" : [
	]
	}
 ],
 "entity" : [
 ]
}

