{"doc_id" : "",
 "DCT" : "",
 "category" : "",
 "category_weight" : 0,
 "title" : {"text" : "안찰사", "NE" : ""},
 "metaInfo" : { },
 "paragraphInfo" : [
 ], 
 "sentence" : [
	{
	"id" : 0,
	"reserve_str" : "",
	"text" : "그러나 중앙정부에서는 전국을 일정한 행정구획으로 구분하는 도제(道制)를 실시하여 효율적인 지방통제를 꾀하고자 하는 노력을 보이는데, 이러한 가운데 예종조 이후에는 양광·전라·경상·서해·교주의 5도를 단위로 안찰사가 파견되었다.",
	"morp" : [
	],
	"morp_eval" : [
	],
	"WSD" : [
	],
	"word" : [
		{"id" : 0, "text" : "그러나", "type" : "", "begin" : 0, "end" : 0},
		{"id" : 1, "text" : "중앙정부에서는", "type" : "", "begin" : 1, "end" : 4},
		{"id" : 2, "text" : "전국을", "type" : "", "begin" : 5, "end" : 6},
		{"id" : 3, "text" : "일정한", "type" : "", "begin" : 7, "end" : 9},
		{"id" : 4, "text" : "행정구획으로", "type" : "", "begin" : 10, "end" : 12},
		{"id" : 5, "text" : "구분하는", "type" : "", "begin" : 13, "end" : 15},
		{"id" : 6, "text" : "도제(道制)를", "type" : "", "begin" : 16, "end" : 20},
		{"id" : 7, "text" : "실시하여", "type" : "", "begin" : 21, "end" : 23},
		{"id" : 8, "text" : "효율적인", "type" : "", "begin" : 24, "end" : 27},
		{"id" : 9, "text" : "지방통제를", "type" : "", "begin" : 28, "end" : 30},
		{"id" : 10, "text" : "꾀하고자", "type" : "", "begin" : 31, "end" : 32},
		{"id" : 11, "text" : "하는", "type" : "", "begin" : 33, "end" : 34},
		{"id" : 12, "text" : "노력을", "type" : "", "begin" : 35, "end" : 36},
		{"id" : 13, "text" : "보이는데,", "type" : "", "begin" : 37, "end" : 39},
		{"id" : 14, "text" : "이러한", "type" : "", "begin" : 40, "end" : 41},
		{"id" : 15, "text" : "가운데", "type" : "", "begin" : 42, "end" : 42},
		{"id" : 16, "text" : "예종조", "type" : "", "begin" : 43, "end" : 43},
		{"id" : 17, "text" : "이후에는", "type" : "", "begin" : 44, "end" : 46},
		{"id" : 18, "text" : "양광·전라·경상·서해·교주의", "type" : "", "begin" : 47, "end" : 56},
		{"id" : 19, "text" : "5도를", "type" : "", "begin" : 57, "end" : 59},
		{"id" : 20, "text" : "단위로", "type" : "", "begin" : 60, "end" : 61},
		{"id" : 21, "text" : "안찰사가", "type" : "", "begin" : 62, "end" : 64},
		{"id" : 22, "text" : "파견되었다.", "type" : "", "begin" : 65, "end" : 69}
	],
	"NE" : [
	],
	"chunk" : [
	],
	"dependency" : [
		{"id" : 0, "text" : "그러나", "head" : 13, "label" : "AP", "mod" : [], "weight" : 0.755959 },
		{"id" : 1, "text" : "중앙정부에서는", "head" : 7, "label" : "NP_AJT", "mod" : [], "weight" : 0.629174 },
		{"id" : 2, "text" : "전국을", "head" : 5, "label" : "NP_OBJ", "mod" : [], "weight" : 0.682584 },
		{"id" : 3, "text" : "일정한", "head" : 4, "label" : "VP_MOD", "mod" : [], "weight" : 0.757151 },
		{"id" : 4, "text" : "행정구획으로", "head" : 5, "label" : "NP_AJT", "mod" : [3], "weight" : 0.682757 },
		{"id" : 5, "text" : "구분하는", "head" : 6, "label" : "VP_MOD", "mod" : [2, 4], "weight" : 0.793613 },
		{"id" : 6, "text" : "도제(道制)를", "head" : 7, "label" : "NP_OBJ", "mod" : [5], "weight" : 0.872903 },
		{"id" : 7, "text" : "실시하여", "head" : 10, "label" : "VP", "mod" : [1, 6], "weight" : 0.658536 },
		{"id" : 8, "text" : "효율적인", "head" : 9, "label" : "VNP_MOD", "mod" : [], "weight" : 0.714061 },
		{"id" : 9, "text" : "지방통제를", "head" : 10, "label" : "NP_OBJ", "mod" : [8], "weight" : 0.777277 },
		{"id" : 10, "text" : "꾀하고자", "head" : 11, "label" : "VP", "mod" : [7, 9], "weight" : 0.758556 },
		{"id" : 11, "text" : "하는", "head" : 12, "label" : "VP_MOD", "mod" : [10], "weight" : 0.98094 },
		{"id" : 12, "text" : "노력을", "head" : 13, "label" : "NP_OBJ", "mod" : [11], "weight" : 0.602594 },
		{"id" : 13, "text" : "보이는데,", "head" : 22, "label" : "VP", "mod" : [0, 12], "weight" : 0.903911 },
		{"id" : 14, "text" : "이러한", "head" : 15, "label" : "VP_MOD", "mod" : [], "weight" : 0.821314 },
		{"id" : 15, "text" : "가운데", "head" : 22, "label" : "NP_AJT", "mod" : [14], "weight" : 0.597597 },
		{"id" : 16, "text" : "예종조", "head" : 17, "label" : "NP", "mod" : [], "weight" : 0.992748 },
		{"id" : 17, "text" : "이후에는", "head" : 22, "label" : "NP_AJT", "mod" : [16], "weight" : 0.861941 },
		{"id" : 18, "text" : "양광·전라·경상·서해·교주의", "head" : 19, "label" : "NP_MOD", "mod" : [], "weight" : 0.897941 },
		{"id" : 19, "text" : "5도를", "head" : 20, "label" : "NP_OBJ", "mod" : [18], "weight" : 0.656087 },
		{"id" : 20, "text" : "단위로", "head" : 22, "label" : "NP_AJT", "mod" : [19], "weight" : 0.569276 },
		{"id" : 21, "text" : "안찰사가", "head" : 22, "label" : "NP_SBJ", "mod" : [], "weight" : 0.474826 },
		{"id" : 22, "text" : "파견되었다.", "head" : -1, "label" : "VP", "mod" : [13, 15, 17, 20, 21], "weight" : 0.625125 }
	],
	"phrase_dependency" : [
	],
	"SRL" : [
	],
	"relation" : [
	],
	"SA" : [
	],
	"ZA" : [
	]
	}
 ],
 "entity" : [
 ]
}

