{"doc_id" : "",
 "DCT" : "",
 "category" : "",
 "category_weight" : 0,
 "title" : {"text" : "Q28", "NE" : ""},
 "metaInfo" : { },
 "paragraphInfo" : [
 ], 
 "sentence" : [
	{
	"id" : 0,
	"reserve_str" : "",
	"text" : "이것은 민화의 하나로 책, 부채, 향로, 도자기 등을 소재로 그린 그림을 말한다.",
	"morp" : [
	],
	"morp_eval" : [
	],
	"WSD" : [
	],
	"word" : [
		{"id" : 0, "text" : "이것은", "type" : "", "begin" : 0, "end" : 1},
		{"id" : 1, "text" : "민화의", "type" : "", "begin" : 2, "end" : 3},
		{"id" : 2, "text" : "하나로", "type" : "", "begin" : 4, "end" : 5},
		{"id" : 3, "text" : "책,", "type" : "", "begin" : 6, "end" : 7},
		{"id" : 4, "text" : "부채,", "type" : "", "begin" : 8, "end" : 9},
		{"id" : 5, "text" : "향로,", "type" : "", "begin" : 10, "end" : 11},
		{"id" : 6, "text" : "도자기", "type" : "", "begin" : 12, "end" : 13},
		{"id" : 7, "text" : "등을", "type" : "", "begin" : 14, "end" : 15},
		{"id" : 8, "text" : "소재로", "type" : "", "begin" : 16, "end" : 17},
		{"id" : 9, "text" : "그린", "type" : "", "begin" : 18, "end" : 19},
		{"id" : 10, "text" : "그림을", "type" : "", "begin" : 20, "end" : 21},
		{"id" : 11, "text" : "말한다.", "type" : "", "begin" : 22, "end" : 25}
	],
	"NE" : [
	],
	"chunk" : [
	],
	"dependency" : [
		{"id" : 0, "text" : "이것은", "head" : 2, "label" : "NP_SBJ", "mod" : [], "weight" : 0.577409 },
		{"id" : 1, "text" : "민화의", "head" : 2, "label" : "NP_MOD", "mod" : [], "weight" : 0.903029 },
		{"id" : 2, "text" : "하나로", "head" : 11, "label" : "NP_AJT", "mod" : [0, 1], "weight" : 0.638981 },
		{"id" : 3, "text" : "책,", "head" : 6, "label" : "NP_CNJ", "mod" : [], "weight" : 0.759596 },
		{"id" : 4, "text" : "부채,", "head" : 6, "label" : "NP_CNJ", "mod" : [], "weight" : 0.841106 },
		{"id" : 5, "text" : "향로,", "head" : 6, "label" : "NP_CNJ", "mod" : [], "weight" : 0.719618 },
		{"id" : 6, "text" : "도자기", "head" : 7, "label" : "NP", "mod" : [3, 4, 5], "weight" : 0.815464 },
		{"id" : 7, "text" : "등을", "head" : 9, "label" : "NP_OBJ", "mod" : [6], "weight" : 0.7081 },
		{"id" : 8, "text" : "소재로", "head" : 9, "label" : "NP_AJT", "mod" : [], "weight" : 0.725755 },
		{"id" : 9, "text" : "그린", "head" : 10, "label" : "VP_MOD", "mod" : [7, 8], "weight" : 0.876911 },
		{"id" : 10, "text" : "그림을", "head" : 11, "label" : "NP_OBJ", "mod" : [9], "weight" : 0.629051 },
		{"id" : 11, "text" : "말한다.", "head" : -1, "label" : "VP", "mod" : [2, 10], "weight" : 0.237027 }
	],
	"phrase_dependency" : [
	],
	"SRL" : [
	],
	"relation" : [
	],
	"SA" : [
	],
	"ZA" : [
	]
	},
	{
	"id" : 1,
	"reserve_str" : "",
	"text" : " 높게 쌓아놓은 책더미와 서재의 여러 가지 일상용품을 적절히 배치한 정물화 풍의 민화인 이것은 무엇일까?",
	"morp" : [
	],
	"morp_eval" : [
	],
	"WSD" : [
	],
	"word" : [
		{"id" : 0, "text" : "높게", "type" : "", "begin" : 0, "end" : 1},
		{"id" : 1, "text" : "쌓아놓은", "type" : "", "begin" : 2, "end" : 5},
		{"id" : 2, "text" : "책더미와", "type" : "", "begin" : 6, "end" : 8},
		{"id" : 3, "text" : "서재의", "type" : "", "begin" : 9, "end" : 10},
		{"id" : 4, "text" : "여러", "type" : "", "begin" : 11, "end" : 11},
		{"id" : 5, "text" : "가지", "type" : "", "begin" : 12, "end" : 12},
		{"id" : 6, "text" : "일상용품을", "type" : "", "begin" : 13, "end" : 15},
		{"id" : 7, "text" : "적절히", "type" : "", "begin" : 16, "end" : 16},
		{"id" : 8, "text" : "배치한", "type" : "", "begin" : 17, "end" : 19},
		{"id" : 9, "text" : "정물화", "type" : "", "begin" : 20, "end" : 21},
		{"id" : 10, "text" : "풍의", "type" : "", "begin" : 22, "end" : 23},
		{"id" : 11, "text" : "민화인", "type" : "", "begin" : 24, "end" : 26},
		{"id" : 12, "text" : "이것은", "type" : "", "begin" : 27, "end" : 28},
		{"id" : 13, "text" : "무엇일까?", "type" : "", "begin" : 29, "end" : 32}
	],
	"NE" : [
	],
	"chunk" : [
	],
	"dependency" : [
		{"id" : 0, "text" : "높게", "head" : 1, "label" : "VP_AJT", "mod" : [], "weight" : 0.842128 },
		{"id" : 1, "text" : "쌓아놓은", "head" : 2, "label" : "VP_MOD", "mod" : [0], "weight" : 0.550467 },
		{"id" : 2, "text" : "책더미와", "head" : 6, "label" : "NP_CNJ", "mod" : [1], "weight" : 0.594897 },
		{"id" : 3, "text" : "서재의", "head" : 6, "label" : "NP_MOD", "mod" : [], "weight" : 0.869538 },
		{"id" : 4, "text" : "여러", "head" : 5, "label" : "DP", "mod" : [], "weight" : 0.804679 },
		{"id" : 5, "text" : "가지", "head" : 6, "label" : "NP", "mod" : [4], "weight" : 0.557397 },
		{"id" : 6, "text" : "일상용품을", "head" : 8, "label" : "NP_OBJ", "mod" : [2, 3, 5], "weight" : 0.762983 },
		{"id" : 7, "text" : "적절히", "head" : 8, "label" : "AP", "mod" : [], "weight" : 0.75376 },
		{"id" : 8, "text" : "배치한", "head" : 10, "label" : "VP_MOD", "mod" : [6, 7], "weight" : 0.571356 },
		{"id" : 9, "text" : "정물화", "head" : 10, "label" : "NP", "mod" : [], "weight" : 0.903863 },
		{"id" : 10, "text" : "풍의", "head" : 11, "label" : "NP_MOD", "mod" : [8, 9], "weight" : 0.969535 },
		{"id" : 11, "text" : "민화인", "head" : 12, "label" : "VNP_MOD", "mod" : [10], "weight" : 0.876462 },
		{"id" : 12, "text" : "이것은", "head" : 13, "label" : "NP_SBJ", "mod" : [11], "weight" : 0.684366 },
		{"id" : 13, "text" : "무엇일까?", "head" : -1, "label" : "VNP", "mod" : [12], "weight" : 0.12934 }
	],
	"phrase_dependency" : [
	],
	"SRL" : [
	],
	"relation" : [
	],
	"SA" : [
	],
	"ZA" : [
	]
	}
 ],
 "entity" : [
 ]
}

