{"doc_id" : "",
 "DCT" : "",
 "category" : "",
 "category_weight" : 0,
 "title" : {"text" : "Q34", "NE" : ""},
 "metaInfo" : { },
 "paragraphInfo" : [
 ], 
 "sentence" : [
	{
	"id" : 0,
	"reserve_str" : "",
	"text" : "이 나라는 내전 중에 후투족에 의한 집단 학살 사건이 벌어졌다.",
	"morp" : [
	],
	"morp_eval" : [
	],
	"WSD" : [
	],
	"word" : [
		{"id" : 0, "text" : "이", "type" : "", "begin" : 0, "end" : 0},
		{"id" : 1, "text" : "나라는", "type" : "", "begin" : 1, "end" : 2},
		{"id" : 2, "text" : "내전", "type" : "", "begin" : 3, "end" : 3},
		{"id" : 3, "text" : "중에", "type" : "", "begin" : 4, "end" : 5},
		{"id" : 4, "text" : "후투족에", "type" : "", "begin" : 6, "end" : 8},
		{"id" : 5, "text" : "의한", "type" : "", "begin" : 9, "end" : 10},
		{"id" : 6, "text" : "집단", "type" : "", "begin" : 11, "end" : 11},
		{"id" : 7, "text" : "학살", "type" : "", "begin" : 12, "end" : 12},
		{"id" : 8, "text" : "사건이", "type" : "", "begin" : 13, "end" : 14},
		{"id" : 9, "text" : "벌어졌다.", "type" : "", "begin" : 15, "end" : 18}
	],
	"NE" : [
	],
	"chunk" : [
	],
	"dependency" : [
		{"id" : 0, "text" : "이", "head" : 1, "label" : "DP", "mod" : [], "weight" : 0.907816 },
		{"id" : 1, "text" : "나라는", "head" : 9, "label" : "NP_SBJ", "mod" : [0], "weight" : 0.706324 },
		{"id" : 2, "text" : "내전", "head" : 3, "label" : "NP", "mod" : [], "weight" : 0.867881 },
		{"id" : 3, "text" : "중에", "head" : 9, "label" : "NP_AJT", "mod" : [2], "weight" : 0.780172 },
		{"id" : 4, "text" : "후투족에", "head" : 5, "label" : "NP_AJT", "mod" : [], "weight" : 0.839283 },
		{"id" : 5, "text" : "의한", "head" : 7, "label" : "VP_MOD", "mod" : [4], "weight" : 0.521675 },
		{"id" : 6, "text" : "집단", "head" : 7, "label" : "NP", "mod" : [], "weight" : 0.646708 },
		{"id" : 7, "text" : "학살", "head" : 8, "label" : "NP", "mod" : [5, 6], "weight" : 0.881908 },
		{"id" : 8, "text" : "사건이", "head" : 9, "label" : "NP_SBJ", "mod" : [7], "weight" : 0.482515 },
		{"id" : 9, "text" : "벌어졌다.", "head" : -1, "label" : "VP", "mod" : [1, 3, 8], "weight" : 0.353607 }
	],
	"phrase_dependency" : [
	],
	"SRL" : [
	],
	"relation" : [
	],
	"SA" : [
	],
	"ZA" : [
	]
	},
	{
	"id" : 1,
	"reserve_str" : "",
	"text" : " 1994년 한 해 동안 최소 50만 명에서 100만 명 이상이 학살됐으며 우리나라에는 2004년, 이 나라의 사건을 소재로 한 영화가 개봉했는데 이 나라는 어디일까?",
	"morp" : [
	],
	"morp_eval" : [
	],
	"WSD" : [
	],
	"word" : [
		{"id" : 0, "text" : "1994년", "type" : "", "begin" : 0, "end" : 1},
		{"id" : 1, "text" : "한", "type" : "", "begin" : 2, "end" : 2},
		{"id" : 2, "text" : "해", "type" : "", "begin" : 3, "end" : 3},
		{"id" : 3, "text" : "동안", "type" : "", "begin" : 4, "end" : 4},
		{"id" : 4, "text" : "최소", "type" : "", "begin" : 5, "end" : 5},
		{"id" : 5, "text" : "50만", "type" : "", "begin" : 6, "end" : 7},
		{"id" : 6, "text" : "명에서", "type" : "", "begin" : 8, "end" : 9},
		{"id" : 7, "text" : "100만", "type" : "", "begin" : 10, "end" : 11},
		{"id" : 8, "text" : "명", "type" : "", "begin" : 12, "end" : 12},
		{"id" : 9, "text" : "이상이", "type" : "", "begin" : 13, "end" : 14},
		{"id" : 10, "text" : "학살됐으며", "type" : "", "begin" : 15, "end" : 18},
		{"id" : 11, "text" : "우리나라에는", "type" : "", "begin" : 19, "end" : 22},
		{"id" : 12, "text" : "2004년,", "type" : "", "begin" : 23, "end" : 25},
		{"id" : 13, "text" : "이", "type" : "", "begin" : 26, "end" : 26},
		{"id" : 14, "text" : "나라의", "type" : "", "begin" : 27, "end" : 28},
		{"id" : 15, "text" : "사건을", "type" : "", "begin" : 29, "end" : 30},
		{"id" : 16, "text" : "소재로", "type" : "", "begin" : 31, "end" : 32},
		{"id" : 17, "text" : "한", "type" : "", "begin" : 33, "end" : 34},
		{"id" : 18, "text" : "영화가", "type" : "", "begin" : 35, "end" : 36},
		{"id" : 19, "text" : "개봉했는데", "type" : "", "begin" : 37, "end" : 40},
		{"id" : 20, "text" : "이", "type" : "", "begin" : 41, "end" : 41},
		{"id" : 21, "text" : "나라는", "type" : "", "begin" : 42, "end" : 43},
		{"id" : 22, "text" : "어디일까?", "type" : "", "begin" : 44, "end" : 47}
	],
	"NE" : [
	],
	"chunk" : [
	],
	"dependency" : [
		{"id" : 0, "text" : "1994년", "head" : 3, "label" : "NP", "mod" : [], "weight" : 0.845826 },
		{"id" : 1, "text" : "한", "head" : 2, "label" : "DP", "mod" : [], "weight" : 0.975907 },
		{"id" : 2, "text" : "해", "head" : 3, "label" : "NP", "mod" : [1], "weight" : 0.971529 },
		{"id" : 3, "text" : "동안", "head" : 10, "label" : "NP_AJT", "mod" : [0, 2], "weight" : 0.914253 },
		{"id" : 4, "text" : "최소", "head" : 6, "label" : "NP", "mod" : [], "weight" : 0.826325 },
		{"id" : 5, "text" : "50만", "head" : 6, "label" : "NP", "mod" : [], "weight" : 0.926248 },
		{"id" : 6, "text" : "명에서", "head" : 10, "label" : "NP_AJT", "mod" : [4, 5], "weight" : 0.836126 },
		{"id" : 7, "text" : "100만", "head" : 8, "label" : "NP", "mod" : [], "weight" : 0.875592 },
		{"id" : 8, "text" : "명", "head" : 9, "label" : "NP", "mod" : [7], "weight" : 0.996412 },
		{"id" : 9, "text" : "이상이", "head" : 10, "label" : "NP_SBJ", "mod" : [8], "weight" : 0.748967 },
		{"id" : 10, "text" : "학살됐으며", "head" : 19, "label" : "VP", "mod" : [3, 6, 9], "weight" : 0.900001 },
		{"id" : 11, "text" : "우리나라에는", "head" : 19, "label" : "NP_AJT", "mod" : [], "weight" : 0.53479 },
		{"id" : 12, "text" : "2004년,", "head" : 19, "label" : "NP_AJT", "mod" : [], "weight" : 0.626429 },
		{"id" : 13, "text" : "이", "head" : 14, "label" : "DP", "mod" : [], "weight" : 0.944701 },
		{"id" : 14, "text" : "나라의", "head" : 15, "label" : "NP_MOD", "mod" : [13], "weight" : 0.726439 },
		{"id" : 15, "text" : "사건을", "head" : 16, "label" : "NP_OBJ", "mod" : [14], "weight" : 0.689974 },
		{"id" : 16, "text" : "소재로", "head" : 17, "label" : "NP_AJT", "mod" : [15], "weight" : 0.817534 },
		{"id" : 17, "text" : "한", "head" : 18, "label" : "VP_MOD", "mod" : [16], "weight" : 0.837885 },
		{"id" : 18, "text" : "영화가", "head" : 19, "label" : "NP_SBJ", "mod" : [17], "weight" : 0.676048 },
		{"id" : 19, "text" : "개봉했는데", "head" : 22, "label" : "VP", "mod" : [10, 12, 18, 11], "weight" : 0.808636 },
		{"id" : 20, "text" : "이", "head" : 21, "label" : "DP", "mod" : [], "weight" : 0.755079 },
		{"id" : 21, "text" : "나라는", "head" : 22, "label" : "NP_SBJ", "mod" : [20], "weight" : 0.662837 },
		{"id" : 22, "text" : "어디일까?", "head" : -1, "label" : "VNP", "mod" : [19, 21], "weight" : 0.557039 }
	],
	"phrase_dependency" : [
	],
	"SRL" : [
	],
	"relation" : [
	],
	"SA" : [
	],
	"ZA" : [
	]
	}
 ],
 "entity" : [
 ]
}

