{"doc_id" : "",
 "DCT" : "",
 "category" : "",
 "category_weight" : 0,
 "title" : {"text" : "왕방연", "NE" : ""},
 "metaInfo" : { },
 "paragraphInfo" : [
 ], 
 "sentence" : [
	{
	"id" : 0,
	"reserve_str" : "",
	"text" : "왕방연(王邦衍, 생몰연대 미상)은 조선 전기의 문신이자 조선 세조 때의 의금부 도사(義禁府都事)이다.",
	"morp" : [
	],
	"morp_eval" : [
	],
	"WSD" : [
	],
	"word" : [
		{"id" : 0, "text" : "왕방연(王邦衍,", "type" : "", "begin" : 0, "end" : 3},
		{"id" : 1, "text" : "생몰연대", "type" : "", "begin" : 4, "end" : 5},
		{"id" : 2, "text" : "미상)은", "type" : "", "begin" : 6, "end" : 8},
		{"id" : 3, "text" : "조선", "type" : "", "begin" : 9, "end" : 9},
		{"id" : 4, "text" : "전기의", "type" : "", "begin" : 10, "end" : 11},
		{"id" : 5, "text" : "문신이자", "type" : "", "begin" : 12, "end" : 14},
		{"id" : 6, "text" : "조선", "type" : "", "begin" : 15, "end" : 15},
		{"id" : 7, "text" : "세조", "type" : "", "begin" : 16, "end" : 16},
		{"id" : 8, "text" : "때의", "type" : "", "begin" : 17, "end" : 18},
		{"id" : 9, "text" : "의금부", "type" : "", "begin" : 19, "end" : 20},
		{"id" : 10, "text" : "도사(義禁府都事)이다.", "type" : "", "begin" : 21, "end" : 27}
	],
	"NE" : [
	],
	"chunk" : [
	],
	"dependency" : [
		{"id" : 0, "text" : "왕방연(王邦衍,", "head" : 2, "label" : "NP", "mod" : [], "weight" : 0.885423 },
		{"id" : 1, "text" : "생몰연대", "head" : 2, "label" : "NP", "mod" : [], "weight" : 0.71102 },
		{"id" : 2, "text" : "미상)은", "head" : 5, "label" : "NP_SBJ", "mod" : [0, 1], "weight" : 0.820991 },
		{"id" : 3, "text" : "조선", "head" : 4, "label" : "NP", "mod" : [], "weight" : 0.879441 },
		{"id" : 4, "text" : "전기의", "head" : 5, "label" : "NP_MOD", "mod" : [3], "weight" : 0.793302 },
		{"id" : 5, "text" : "문신이자", "head" : 10, "label" : "VNP", "mod" : [2, 4], "weight" : 0.589915 },
		{"id" : 6, "text" : "조선", "head" : 7, "label" : "NP", "mod" : [], "weight" : 0.904504 },
		{"id" : 7, "text" : "세조", "head" : 8, "label" : "NP", "mod" : [6], "weight" : 0.793972 },
		{"id" : 8, "text" : "때의", "head" : 10, "label" : "NP_MOD", "mod" : [7], "weight" : 0.610032 },
		{"id" : 9, "text" : "의금부", "head" : 10, "label" : "NP", "mod" : [], "weight" : 0.380684 },
		{"id" : 10, "text" : "도사(義禁府都事)이다.", "head" : -1, "label" : "VNP", "mod" : [5, 8, 9], "weight" : 0.18819 }
	],
	"phrase_dependency" : [
	],
	"SRL" : [
	],
	"relation" : [
	],
	"SA" : [
	],
	"ZA" : [
	]
	},
	{
	"id" : 1,
	"reserve_str" : "",
	"text" : " 왕방연은 단종이 영월로 귀양갈 때 호송했다.",
	"morp" : [
	],
	"morp_eval" : [
	],
	"WSD" : [
	],
	"word" : [
		{"id" : 0, "text" : "왕방연은", "type" : "", "begin" : 0, "end" : 1},
		{"id" : 1, "text" : "단종이", "type" : "", "begin" : 2, "end" : 3},
		{"id" : 2, "text" : "영월로", "type" : "", "begin" : 4, "end" : 5},
		{"id" : 3, "text" : "귀양갈", "type" : "", "begin" : 6, "end" : 8},
		{"id" : 4, "text" : "때", "type" : "", "begin" : 9, "end" : 9},
		{"id" : 5, "text" : "호송했다.", "type" : "", "begin" : 10, "end" : 14}
	],
	"NE" : [
	],
	"chunk" : [
	],
	"dependency" : [
		{"id" : 0, "text" : "왕방연은", "head" : 5, "label" : "NP_SBJ", "mod" : [], "weight" : 0.736643 },
		{"id" : 1, "text" : "단종이", "head" : 3, "label" : "NP_SBJ", "mod" : [], "weight" : 0.849738 },
		{"id" : 2, "text" : "영월로", "head" : 3, "label" : "NP_AJT", "mod" : [], "weight" : 0.749213 },
		{"id" : 3, "text" : "귀양갈", "head" : 4, "label" : "VP_MOD", "mod" : [1, 2], "weight" : 0.819824 },
		{"id" : 4, "text" : "때", "head" : 5, "label" : "NP_AJT", "mod" : [3], "weight" : 0.478129 },
		{"id" : 5, "text" : "호송했다.", "head" : -1, "label" : "VP", "mod" : [0, 4], "weight" : 0.992125 }
	],
	"phrase_dependency" : [
	],
	"SRL" : [
	],
	"relation" : [
	],
	"SA" : [
	],
	"ZA" : [
	]
	},
	{
	"id" : 2,
	"reserve_str" : "",
	"text" : " 영월서 돌아오면서 단종을 그려 읊은 시조 1수가 <청구영언> 등에 실려 전한다.",
	"morp" : [
	],
	"morp_eval" : [
	],
	"WSD" : [
	],
	"word" : [
		{"id" : 0, "text" : "영월서", "type" : "", "begin" : 0, "end" : 1},
		{"id" : 1, "text" : "돌아오면서", "type" : "", "begin" : 2, "end" : 3},
		{"id" : 2, "text" : "단종을", "type" : "", "begin" : 4, "end" : 5},
		{"id" : 3, "text" : "그려", "type" : "", "begin" : 6, "end" : 7},
		{"id" : 4, "text" : "읊은", "type" : "", "begin" : 8, "end" : 9},
		{"id" : 5, "text" : "시조", "type" : "", "begin" : 10, "end" : 10},
		{"id" : 6, "text" : "1수가", "type" : "", "begin" : 11, "end" : 13},
		{"id" : 7, "text" : "<청구영언>", "type" : "", "begin" : 14, "end" : 16},
		{"id" : 8, "text" : "등에", "type" : "", "begin" : 17, "end" : 18},
		{"id" : 9, "text" : "실려", "type" : "", "begin" : 19, "end" : 20},
		{"id" : 10, "text" : "전한다.", "type" : "", "begin" : 21, "end" : 23}
	],
	"NE" : [
	],
	"chunk" : [
	],
	"dependency" : [
		{"id" : 0, "text" : "영월서", "head" : 1, "label" : "NP_AJT", "mod" : [], "weight" : 0.490381 },
		{"id" : 1, "text" : "돌아오면서", "head" : 3, "label" : "VP", "mod" : [0], "weight" : 0.583329 },
		{"id" : 2, "text" : "단종을", "head" : 3, "label" : "NP_OBJ", "mod" : [], "weight" : 0.758808 },
		{"id" : 3, "text" : "그려", "head" : 4, "label" : "VP", "mod" : [1, 2], "weight" : 0.700029 },
		{"id" : 4, "text" : "읊은", "head" : 5, "label" : "VP_MOD", "mod" : [3], "weight" : 0.65759 },
		{"id" : 5, "text" : "시조", "head" : 6, "label" : "NP", "mod" : [4], "weight" : 0.687735 },
		{"id" : 6, "text" : "1수가", "head" : 9, "label" : "NP_SBJ", "mod" : [5], "weight" : 0.882787 },
		{"id" : 7, "text" : "<청구영언>", "head" : 8, "label" : "NP", "mod" : [], "weight" : 0.858951 },
		{"id" : 8, "text" : "등에", "head" : 9, "label" : "NP_AJT", "mod" : [7], "weight" : 0.630527 },
		{"id" : 9, "text" : "실려", "head" : 10, "label" : "VP", "mod" : [6, 8], "weight" : 0.569347 },
		{"id" : 10, "text" : "전한다.", "head" : -1, "label" : "VP", "mod" : [9], "weight" : 0.130209 }
	],
	"phrase_dependency" : [
	],
	"SRL" : [
	],
	"relation" : [
	],
	"SA" : [
	],
	"ZA" : [
	]
	}
 ],
 "entity" : [
 ]
}

