{"doc_id" : "939026",
 "DCT" : "",
 "category" : "",
 "category_weight" : 0,
 "title" : {"text" : "파스칼의 원리", "NE" : ""},
 "metaInfo" : { },
 "paragraphInfo" : [
 ], 
 "sentence" : [
	{
	"id" : 0,
	"reserve_str" : "",
	"text" : "밀폐된 용기 속에 담겨 있는 액체의 한쪽 부분에 주어진 압력은 그 세기에는 변함 없이 같은 크기로 액체의 각 부분에 골고루 전달된다는 법칙",
	"morp" : [
	],
	"morp_eval" : [
	],
	"WSD" : [
	],
	"word" : [
		{"id" : 0, "text" : "밀폐된", "type" : "", "begin" : 0, "end" : 2},
		{"id" : 1, "text" : "용기", "type" : "", "begin" : 3, "end" : 3},
		{"id" : 2, "text" : "속에", "type" : "", "begin" : 4, "end" : 5},
		{"id" : 3, "text" : "담겨", "type" : "", "begin" : 6, "end" : 7},
		{"id" : 4, "text" : "있는", "type" : "", "begin" : 8, "end" : 9},
		{"id" : 5, "text" : "액체의", "type" : "", "begin" : 10, "end" : 11},
		{"id" : 6, "text" : "한쪽", "type" : "", "begin" : 12, "end" : 12},
		{"id" : 7, "text" : "부분에", "type" : "", "begin" : 13, "end" : 14},
		{"id" : 8, "text" : "주어진", "type" : "", "begin" : 15, "end" : 16},
		{"id" : 9, "text" : "압력은", "type" : "", "begin" : 17, "end" : 18},
		{"id" : 10, "text" : "그", "type" : "", "begin" : 19, "end" : 19},
		{"id" : 11, "text" : "세기에는", "type" : "", "begin" : 20, "end" : 22},
		{"id" : 12, "text" : "변함", "type" : "", "begin" : 23, "end" : 24},
		{"id" : 13, "text" : "없이", "type" : "", "begin" : 25, "end" : 25},
		{"id" : 14, "text" : "같은", "type" : "", "begin" : 26, "end" : 27},
		{"id" : 15, "text" : "크기로", "type" : "", "begin" : 28, "end" : 29},
		{"id" : 16, "text" : "액체의", "type" : "", "begin" : 30, "end" : 31},
		{"id" : 17, "text" : "각", "type" : "", "begin" : 32, "end" : 32},
		{"id" : 18, "text" : "부분에", "type" : "", "begin" : 33, "end" : 34},
		{"id" : 19, "text" : "골고루", "type" : "", "begin" : 35, "end" : 35},
		{"id" : 20, "text" : "전달된다는", "type" : "", "begin" : 36, "end" : 38},
		{"id" : 21, "text" : "법칙", "type" : "", "begin" : 39, "end" : 39}
	],
	"NE" : [
	],
	"chunk" : [
	],
	"dependency" : [
		{"id" : 0, "text" : "밀폐된", "head" : 1, "label" : "VP_MOD", "mod" : [], "weight" : 0.836163 },
		{"id" : 1, "text" : "용기", "head" : 2, "label" : "NP", "mod" : [0], "weight" : 0.771816 },
		{"id" : 2, "text" : "속에", "head" : 3, "label" : "NP_AJT", "mod" : [1], "weight" : 0.832955 },
		{"id" : 3, "text" : "담겨", "head" : 4, "label" : "VP", "mod" : [2], "weight" : 0.802566 },
		{"id" : 4, "text" : "있는", "head" : 5, "label" : "VP_MOD", "mod" : [3], "weight" : 0.620281 },
		{"id" : 5, "text" : "액체의", "head" : 7, "label" : "NP_MOD", "mod" : [4], "weight" : 0.603601 },
		{"id" : 6, "text" : "한쪽", "head" : 7, "label" : "NP", "mod" : [], "weight" : 0.848172 },
		{"id" : 7, "text" : "부분에", "head" : 8, "label" : "NP_AJT", "mod" : [5, 6], "weight" : 0.643855 },
		{"id" : 8, "text" : "주어진", "head" : 9, "label" : "VP_MOD", "mod" : [7], "weight" : 0.984252 },
		{"id" : 9, "text" : "압력은", "head" : 20, "label" : "NP_SBJ", "mod" : [8], "weight" : 0.854625 },
		{"id" : 10, "text" : "그", "head" : 11, "label" : "DP", "mod" : [], "weight" : 0.659534 },
		{"id" : 11, "text" : "세기에는", "head" : 13, "label" : "NP_AJT", "mod" : [10], "weight" : 0.565737 },
		{"id" : 12, "text" : "변함", "head" : 13, "label" : "VP_SBJ", "mod" : [], "weight" : 0.954465 },
		{"id" : 13, "text" : "없이", "head" : 14, "label" : "AP", "mod" : [12, 11], "weight" : 0.54294 },
		{"id" : 14, "text" : "같은", "head" : 15, "label" : "VP_MOD", "mod" : [13], "weight" : 0.798141 },
		{"id" : 15, "text" : "크기로", "head" : 20, "label" : "NP_AJT", "mod" : [14], "weight" : 0.569431 },
		{"id" : 16, "text" : "액체의", "head" : 18, "label" : "NP_MOD", "mod" : [], "weight" : 0.802693 },
		{"id" : 17, "text" : "각", "head" : 18, "label" : "DP", "mod" : [], "weight" : 0.959761 },
		{"id" : 18, "text" : "부분에", "head" : 20, "label" : "NP_AJT", "mod" : [16, 17], "weight" : 0.702808 },
		{"id" : 19, "text" : "골고루", "head" : 20, "label" : "AP", "mod" : [], "weight" : 0.978003 },
		{"id" : 20, "text" : "전달된다는", "head" : 21, "label" : "VP_MOD", "mod" : [15, 18, 19, 9], "weight" : 0.554172 },
		{"id" : 21, "text" : "법칙", "head" : -1, "label" : "NP", "mod" : [20], "weight" : 0.902459 }
	],
	"phrase_dependency" : [
	],
	"SRL" : [
	],
	"relation" : [
	],
	"SA" : [
	],
	"ZA" : [
	]
	}
 ],
 "entity" : [
 ]
}

