{"doc_id" : "939030",
 "DCT" : "",
 "category" : "",
 "category_weight" : 0,
 "title" : {"text" : "강자성", "NE" : ""},
 "metaInfo" : { },
 "paragraphInfo" : [
 ], 
 "sentence" : [
	{
	"id" : 0,
	"reserve_str" : "",
	"text" : "<물리> 물체가 외부의 자기장에 의하여 강하게 자기화(磁氣化)되어, 자기장을 없애도 자기화가 그대로 남아 있는 성질.",
	"morp" : [
	],
	"morp_eval" : [
	],
	"WSD" : [
	],
	"word" : [
		{"id" : 0, "text" : "<물리>", "type" : "", "begin" : 0, "end" : 2},
		{"id" : 1, "text" : "물체가", "type" : "", "begin" : 3, "end" : 4},
		{"id" : 2, "text" : "외부의", "type" : "", "begin" : 5, "end" : 6},
		{"id" : 3, "text" : "자기장에", "type" : "", "begin" : 7, "end" : 9},
		{"id" : 4, "text" : "의하여", "type" : "", "begin" : 10, "end" : 11},
		{"id" : 5, "text" : "강하게", "type" : "", "begin" : 12, "end" : 14},
		{"id" : 6, "text" : "자기화(磁氣化)되어,", "type" : "", "begin" : 15, "end" : 22},
		{"id" : 7, "text" : "자기장을", "type" : "", "begin" : 23, "end" : 25},
		{"id" : 8, "text" : "없애도", "type" : "", "begin" : 26, "end" : 27},
		{"id" : 9, "text" : "자기화가", "type" : "", "begin" : 28, "end" : 30},
		{"id" : 10, "text" : "그대로", "type" : "", "begin" : 31, "end" : 31},
		{"id" : 11, "text" : "남아", "type" : "", "begin" : 32, "end" : 33},
		{"id" : 12, "text" : "있는", "type" : "", "begin" : 34, "end" : 35},
		{"id" : 13, "text" : "성질.", "type" : "", "begin" : 36, "end" : 37}
	],
	"NE" : [
	],
	"chunk" : [
	],
	"dependency" : [
		{"id" : 0, "text" : "<물리>", "head" : 13, "label" : "NP", "mod" : [], "weight" : 0.952833 },
		{"id" : 1, "text" : "물체가", "head" : 4, "label" : "NP_SBJ", "mod" : [], "weight" : 0.95287 },
		{"id" : 2, "text" : "외부의", "head" : 3, "label" : "NP_MOD", "mod" : [], "weight" : 0.865975 },
		{"id" : 3, "text" : "자기장에", "head" : 4, "label" : "NP_AJT", "mod" : [2], "weight" : 0.748236 },
		{"id" : 4, "text" : "의하여", "head" : 6, "label" : "VP", "mod" : [1, 3], "weight" : 0.918078 },
		{"id" : 5, "text" : "강하게", "head" : 6, "label" : "VP_AJT", "mod" : [], "weight" : 0.762998 },
		{"id" : 6, "text" : "자기화(磁氣化)되어,", "head" : 8, "label" : "VP", "mod" : [4, 5], "weight" : 0.670198 },
		{"id" : 7, "text" : "자기장을", "head" : 8, "label" : "NP_OBJ", "mod" : [], "weight" : 0.881584 },
		{"id" : 8, "text" : "없애도", "head" : 11, "label" : "VP", "mod" : [6, 7], "weight" : 0.750409 },
		{"id" : 9, "text" : "자기화가", "head" : 11, "label" : "NP_SBJ", "mod" : [], "weight" : 0.954149 },
		{"id" : 10, "text" : "그대로", "head" : 11, "label" : "AP", "mod" : [], "weight" : 0.820735 },
		{"id" : 11, "text" : "남아", "head" : 12, "label" : "VP", "mod" : [8, 9, 10], "weight" : 0.810964 },
		{"id" : 12, "text" : "있는", "head" : 13, "label" : "VP_MOD", "mod" : [11], "weight" : 0.570194 },
		{"id" : 13, "text" : "성질.", "head" : -1, "label" : "NP", "mod" : [0, 12], "weight" : 0.332567 }
	],
	"phrase_dependency" : [
	],
	"SRL" : [
	],
	"relation" : [
	],
	"SA" : [
	],
	"ZA" : [
	]
	}
 ],
 "entity" : [
 ]
}

