{"doc_id" : "939024",
 "DCT" : "",
 "category" : "",
 "category_weight" : 0,
 "title" : {"text" : "Q24", "NE" : ""},
 "metaInfo" : { },
 "paragraphInfo" : [
 ], 
 "sentence" : [
	{
	"id" : 0,
	"reserve_str" : "",
	"text" : "조선 시기 관제는 국정 사무와 왕실 사무의 구분이 명확하지 않았으나, 1894년 갑오개혁 때 왕실과 정부를 완전히 분리해 왕실 업무를 담당하는 기구로 이것을 설치했다.",
	"morp" : [
	],
	"morp_eval" : [
	],
	"WSD" : [
	],
	"word" : [
		{"id" : 0, "text" : "조선", "type" : "", "begin" : 0, "end" : 0},
		{"id" : 1, "text" : "시기", "type" : "", "begin" : 1, "end" : 1},
		{"id" : 2, "text" : "관제는", "type" : "", "begin" : 2, "end" : 3},
		{"id" : 3, "text" : "국정", "type" : "", "begin" : 4, "end" : 4},
		{"id" : 4, "text" : "사무와", "type" : "", "begin" : 5, "end" : 6},
		{"id" : 5, "text" : "왕실", "type" : "", "begin" : 7, "end" : 7},
		{"id" : 6, "text" : "사무의", "type" : "", "begin" : 8, "end" : 9},
		{"id" : 7, "text" : "구분이", "type" : "", "begin" : 10, "end" : 11},
		{"id" : 8, "text" : "명확하지", "type" : "", "begin" : 12, "end" : 13},
		{"id" : 9, "text" : "않았으나,", "type" : "", "begin" : 14, "end" : 17},
		{"id" : 10, "text" : "1894년", "type" : "", "begin" : 18, "end" : 19},
		{"id" : 11, "text" : "갑오개혁", "type" : "", "begin" : 20, "end" : 21},
		{"id" : 12, "text" : "때", "type" : "", "begin" : 22, "end" : 22},
		{"id" : 13, "text" : "왕실과", "type" : "", "begin" : 23, "end" : 24},
		{"id" : 14, "text" : "정부를", "type" : "", "begin" : 25, "end" : 26},
		{"id" : 15, "text" : "완전히", "type" : "", "begin" : 27, "end" : 27},
		{"id" : 16, "text" : "분리해", "type" : "", "begin" : 28, "end" : 30},
		{"id" : 17, "text" : "왕실", "type" : "", "begin" : 31, "end" : 31},
		{"id" : 18, "text" : "업무를", "type" : "", "begin" : 32, "end" : 33},
		{"id" : 19, "text" : "담당하는", "type" : "", "begin" : 34, "end" : 36},
		{"id" : 20, "text" : "기구로", "type" : "", "begin" : 37, "end" : 38},
		{"id" : 21, "text" : "이것을", "type" : "", "begin" : 39, "end" : 40},
		{"id" : 22, "text" : "설치했다.", "type" : "", "begin" : 41, "end" : 45}
	],
	"NE" : [
	],
	"chunk" : [
	],
	"dependency" : [
		{"id" : 0, "text" : "조선", "head" : 1, "label" : "NP", "mod" : [], "weight" : 0.667691 },
		{"id" : 1, "text" : "시기", "head" : 2, "label" : "NP", "mod" : [0], "weight" : 0.546968 },
		{"id" : 2, "text" : "관제는", "head" : 8, "label" : "NP_SBJ", "mod" : [1], "weight" : 0.907415 },
		{"id" : 3, "text" : "국정", "head" : 4, "label" : "NP", "mod" : [], "weight" : 0.645962 },
		{"id" : 4, "text" : "사무와", "head" : 6, "label" : "NP_CNJ", "mod" : [3], "weight" : 0.73009 },
		{"id" : 5, "text" : "왕실", "head" : 6, "label" : "NP", "mod" : [], "weight" : 0.89868 },
		{"id" : 6, "text" : "사무의", "head" : 7, "label" : "NP_MOD", "mod" : [4, 5], "weight" : 0.768822 },
		{"id" : 7, "text" : "구분이", "head" : 8, "label" : "NP_SBJ", "mod" : [6], "weight" : 0.999797 },
		{"id" : 8, "text" : "명확하지", "head" : 9, "label" : "VP", "mod" : [2, 7], "weight" : 0.564677 },
		{"id" : 9, "text" : "않았으나,", "head" : 16, "label" : "VP", "mod" : [8], "weight" : 0.73048 },
		{"id" : 10, "text" : "1894년", "head" : 11, "label" : "NP", "mod" : [], "weight" : 0.527184 },
		{"id" : 11, "text" : "갑오개혁", "head" : 12, "label" : "NP", "mod" : [10], "weight" : 0.904584 },
		{"id" : 12, "text" : "때", "head" : 16, "label" : "NP_AJT", "mod" : [11], "weight" : 0.767788 },
		{"id" : 13, "text" : "왕실과", "head" : 14, "label" : "NP_CNJ", "mod" : [], "weight" : 0.952455 },
		{"id" : 14, "text" : "정부를", "head" : 16, "label" : "NP_OBJ", "mod" : [13], "weight" : 0.662092 },
		{"id" : 15, "text" : "완전히", "head" : 16, "label" : "AP", "mod" : [], "weight" : 0.57996 },
		{"id" : 16, "text" : "분리해", "head" : 22, "label" : "VP", "mod" : [9, 12, 14, 15], "weight" : 0.706712 },
		{"id" : 17, "text" : "왕실", "head" : 18, "label" : "NP", "mod" : [], "weight" : 0.798879 },
		{"id" : 18, "text" : "업무를", "head" : 19, "label" : "NP_OBJ", "mod" : [17], "weight" : 0.744007 },
		{"id" : 19, "text" : "담당하는", "head" : 20, "label" : "VP_MOD", "mod" : [18], "weight" : 0.842896 },
		{"id" : 20, "text" : "기구로", "head" : 22, "label" : "NP_AJT", "mod" : [19], "weight" : 0.594772 },
		{"id" : 21, "text" : "이것을", "head" : 22, "label" : "NP_OBJ", "mod" : [], "weight" : 0.525054 },
		{"id" : 22, "text" : "설치했다.", "head" : -1, "label" : "VP", "mod" : [16, 20, 21], "weight" : 0.382594 }
	],
	"phrase_dependency" : [
	],
	"SRL" : [
	],
	"relation" : [
	],
	"SA" : [
	],
	"ZA" : [
	]
	},
	{
	"id" : 1,
	"reserve_str" : "",
	"text" : " 이 기구는 무엇일까?",
	"morp" : [
	],
	"morp_eval" : [
	],
	"WSD" : [
	],
	"word" : [
		{"id" : 0, "text" : "이", "type" : "", "begin" : 0, "end" : 0},
		{"id" : 1, "text" : "기구는", "type" : "", "begin" : 1, "end" : 2},
		{"id" : 2, "text" : "무엇일까?", "type" : "", "begin" : 3, "end" : 6}
	],
	"NE" : [
	],
	"chunk" : [
	],
	"dependency" : [
		{"id" : 0, "text" : "이", "head" : 1, "label" : "DP", "mod" : [], "weight" : 0.759626 },
		{"id" : 1, "text" : "기구는", "head" : 2, "label" : "NP_SBJ", "mod" : [0], "weight" : 0.748219 },
		{"id" : 2, "text" : "무엇일까?", "head" : -1, "label" : "VNP", "mod" : [1], "weight" : 0.386966 }
	],
	"phrase_dependency" : [
	],
	"SRL" : [
	],
	"relation" : [
	],
	"SA" : [
	],
	"ZA" : [
	]
	}
 ],
 "entity" : [
 ]
}

