{"doc_id" : "939031",
 "DCT" : "",
 "category" : "",
 "category_weight" : 0,
 "title" : {"text" : "창극", "NE" : ""},
 "metaInfo" : { },
 "paragraphInfo" : [
 ], 
 "sentence" : [
	{
	"id" : 0,
	"reserve_str" : "",
	"text" : "<연영> 전통적인 판소리나 그 형식을 빌려 만든 가극(歌劇).",
	"morp" : [
	],
	"morp_eval" : [
	],
	"WSD" : [
	],
	"word" : [
		{"id" : 0, "text" : "<연영>", "type" : "", "begin" : 0, "end" : 2},
		{"id" : 1, "text" : "전통적인", "type" : "", "begin" : 3, "end" : 6},
		{"id" : 2, "text" : "판소리나", "type" : "", "begin" : 7, "end" : 9},
		{"id" : 3, "text" : "그", "type" : "", "begin" : 10, "end" : 10},
		{"id" : 4, "text" : "형식을", "type" : "", "begin" : 11, "end" : 12},
		{"id" : 5, "text" : "빌려", "type" : "", "begin" : 13, "end" : 14},
		{"id" : 6, "text" : "만든", "type" : "", "begin" : 15, "end" : 16},
		{"id" : 7, "text" : "가극(歌劇).", "type" : "", "begin" : 17, "end" : 21}
	],
	"NE" : [
	],
	"chunk" : [
	],
	"dependency" : [
		{"id" : 0, "text" : "<연영>", "head" : 7, "label" : "NP", "mod" : [], "weight" : 0.890461 },
		{"id" : 1, "text" : "전통적인", "head" : 2, "label" : "VNP_MOD", "mod" : [], "weight" : 0.589891 },
		{"id" : 2, "text" : "판소리나", "head" : 4, "label" : "NP_CNJ", "mod" : [1], "weight" : 0.636282 },
		{"id" : 3, "text" : "그", "head" : 4, "label" : "DP", "mod" : [], "weight" : 0.837666 },
		{"id" : 4, "text" : "형식을", "head" : 5, "label" : "NP_OBJ", "mod" : [2, 3], "weight" : 0.904395 },
		{"id" : 5, "text" : "빌려", "head" : 6, "label" : "VP", "mod" : [4], "weight" : 0.815162 },
		{"id" : 6, "text" : "만든", "head" : 7, "label" : "VP_MOD", "mod" : [5], "weight" : 0.506854 },
		{"id" : 7, "text" : "가극(歌劇).", "head" : -1, "label" : "NP", "mod" : [0, 6], "weight" : 0.522093 }
	],
	"phrase_dependency" : [
	],
	"SRL" : [
	],
	"relation" : [
	],
	"SA" : [
	],
	"ZA" : [
	]
	},
	{
	"id" : 1,
	"reserve_str" : "",
	"text" : " 여러 사람들이 배역을 맡아 창(唱)을 중심으로 극을 전개하는 것으로, 20세기 초 협률사에서 판소리를 무대화하고 판소리에 등장하는 각 인물에 전담 배역을 붙여 노래와 연기를 하게 한 것을 계기로 발달하였다.",
	"morp" : [
	],
	"morp_eval" : [
	],
	"WSD" : [
	],
	"word" : [
		{"id" : 0, "text" : "여러", "type" : "", "begin" : 0, "end" : 0},
		{"id" : 1, "text" : "사람들이", "type" : "", "begin" : 1, "end" : 3},
		{"id" : 2, "text" : "배역을", "type" : "", "begin" : 4, "end" : 5},
		{"id" : 3, "text" : "맡아", "type" : "", "begin" : 6, "end" : 7},
		{"id" : 4, "text" : "창(唱)을", "type" : "", "begin" : 8, "end" : 12},
		{"id" : 5, "text" : "중심으로", "type" : "", "begin" : 13, "end" : 14},
		{"id" : 6, "text" : "극을", "type" : "", "begin" : 15, "end" : 16},
		{"id" : 7, "text" : "전개하는", "type" : "", "begin" : 17, "end" : 19},
		{"id" : 8, "text" : "것으로,", "type" : "", "begin" : 20, "end" : 22},
		{"id" : 9, "text" : "20세기", "type" : "", "begin" : 23, "end" : 24},
		{"id" : 10, "text" : "초", "type" : "", "begin" : 25, "end" : 25},
		{"id" : 11, "text" : "협률사에서", "type" : "", "begin" : 26, "end" : 28},
		{"id" : 12, "text" : "판소리를", "type" : "", "begin" : 29, "end" : 31},
		{"id" : 13, "text" : "무대화하고", "type" : "", "begin" : 32, "end" : 35},
		{"id" : 14, "text" : "판소리에", "type" : "", "begin" : 36, "end" : 38},
		{"id" : 15, "text" : "등장하는", "type" : "", "begin" : 39, "end" : 41},
		{"id" : 16, "text" : "각", "type" : "", "begin" : 42, "end" : 42},
		{"id" : 17, "text" : "인물에", "type" : "", "begin" : 43, "end" : 44},
		{"id" : 18, "text" : "전담", "type" : "", "begin" : 45, "end" : 45},
		{"id" : 19, "text" : "배역을", "type" : "", "begin" : 46, "end" : 47},
		{"id" : 20, "text" : "붙여", "type" : "", "begin" : 48, "end" : 49},
		{"id" : 21, "text" : "노래와", "type" : "", "begin" : 50, "end" : 51},
		{"id" : 22, "text" : "연기를", "type" : "", "begin" : 52, "end" : 53},
		{"id" : 23, "text" : "하게", "type" : "", "begin" : 54, "end" : 55},
		{"id" : 24, "text" : "한", "type" : "", "begin" : 56, "end" : 57},
		{"id" : 25, "text" : "것을", "type" : "", "begin" : 58, "end" : 59},
		{"id" : 26, "text" : "계기로", "type" : "", "begin" : 60, "end" : 61},
		{"id" : 27, "text" : "발달하였다.", "type" : "", "begin" : 62, "end" : 65}
	],
	"NE" : [
	],
	"chunk" : [
	],
	"dependency" : [
		{"id" : 0, "text" : "여러", "head" : 1, "label" : "DP", "mod" : [], "weight" : 0.801629 },
		{"id" : 1, "text" : "사람들이", "head" : 3, "label" : "NP_SBJ", "mod" : [0], "weight" : 0.613169 },
		{"id" : 2, "text" : "배역을", "head" : 3, "label" : "NP_OBJ", "mod" : [], "weight" : 0.894593 },
		{"id" : 3, "text" : "맡아", "head" : 7, "label" : "VP", "mod" : [1, 2], "weight" : 0.611936 },
		{"id" : 4, "text" : "창(唱)을", "head" : 5, "label" : "NP_OBJ", "mod" : [], "weight" : 0.716282 },
		{"id" : 5, "text" : "중심으로", "head" : 7, "label" : "NP_AJT", "mod" : [4], "weight" : 0.747473 },
		{"id" : 6, "text" : "극을", "head" : 7, "label" : "NP_OBJ", "mod" : [], "weight" : 0.994891 },
		{"id" : 7, "text" : "전개하는", "head" : 8, "label" : "VP_MOD", "mod" : [3, 5, 6], "weight" : 0.659895 },
		{"id" : 8, "text" : "것으로,", "head" : 27, "label" : "NP_AJT", "mod" : [7], "weight" : 0.742829 },
		{"id" : 9, "text" : "20세기", "head" : 10, "label" : "NP", "mod" : [], "weight" : 0.978014 },
		{"id" : 10, "text" : "초", "head" : 13, "label" : "NP_AJT", "mod" : [9], "weight" : 0.578522 },
		{"id" : 11, "text" : "협률사에서", "head" : 13, "label" : "NP_AJT", "mod" : [], "weight" : 0.590413 },
		{"id" : 12, "text" : "판소리를", "head" : 13, "label" : "NP_OBJ", "mod" : [], "weight" : 0.761915 },
		{"id" : 13, "text" : "무대화하고", "head" : 20, "label" : "VP", "mod" : [10, 11, 12], "weight" : 0.568986 },
		{"id" : 14, "text" : "판소리에", "head" : 15, "label" : "NP_AJT", "mod" : [], "weight" : 0.984436 },
		{"id" : 15, "text" : "등장하는", "head" : 17, "label" : "VP_MOD", "mod" : [14], "weight" : 0.832205 },
		{"id" : 16, "text" : "각", "head" : 17, "label" : "DP", "mod" : [], "weight" : 0.992132 },
		{"id" : 17, "text" : "인물에", "head" : 20, "label" : "NP_AJT", "mod" : [15, 16], "weight" : 0.863724 },
		{"id" : 18, "text" : "전담", "head" : 19, "label" : "NP", "mod" : [], "weight" : 0.855663 },
		{"id" : 19, "text" : "배역을", "head" : 20, "label" : "NP_OBJ", "mod" : [18], "weight" : 0.888962 },
		{"id" : 20, "text" : "붙여", "head" : 23, "label" : "VP", "mod" : [17, 19, 13], "weight" : 0.663971 },
		{"id" : 21, "text" : "노래와", "head" : 22, "label" : "NP_CNJ", "mod" : [], "weight" : 0.768868 },
		{"id" : 22, "text" : "연기를", "head" : 23, "label" : "NP_OBJ", "mod" : [21], "weight" : 0.8822 },
		{"id" : 23, "text" : "하게", "head" : 24, "label" : "VP", "mod" : [20, 22], "weight" : 0.810399 },
		{"id" : 24, "text" : "한", "head" : 25, "label" : "VP_MOD", "mod" : [23], "weight" : 0.824018 },
		{"id" : 25, "text" : "것을", "head" : 26, "label" : "NP_OBJ", "mod" : [24], "weight" : 0.638574 },
		{"id" : 26, "text" : "계기로", "head" : 27, "label" : "NP_AJT", "mod" : [25], "weight" : 0.530326 },
		{"id" : 27, "text" : "발달하였다.", "head" : -1, "label" : "VP", "mod" : [8, 26], "weight" : 0.382875 }
	],
	"phrase_dependency" : [
	],
	"SRL" : [
	],
	"relation" : [
	],
	"SA" : [
	],
	"ZA" : [
	]
	}
 ],
 "entity" : [
 ]
}

