{"doc_id" : "939031",
 "DCT" : "",
 "category" : "",
 "category_weight" : 0,
 "title" : {"text" : "창극", "NE" : ""},
 "metaInfo" : { },
 "paragraphInfo" : [
 ], 
 "sentence" : [
	{
	"id" : 0,
	"reserve_str" : "",
	"text" : "창극운동은 판소리 명창들의 조직인 1900년대 중반의 협률사(극장만이 아닌 명창의 조직체)에서 시작되어 1910년대 중반의 경성구파배우조합을 거쳐, 1920년대 후반의 조선악연구회와 조선음악협회, 1930년대 초반의 조선음률협회, 조선악정(正)회, 조선악협회(謠曲部), 조선성악원, 조선음악연구회 등을 거쳐 조선성악연구회 등이 주도했다.",
	"morp" : [
	],
	"morp_eval" : [
	],
	"WSD" : [
	],
	"word" : [
		{"id" : 0, "text" : "창극운동은", "type" : "", "begin" : 0, "end" : 2},
		{"id" : 1, "text" : "판소리", "type" : "", "begin" : 3, "end" : 4},
		{"id" : 2, "text" : "명창들의", "type" : "", "begin" : 5, "end" : 7},
		{"id" : 3, "text" : "조직인", "type" : "", "begin" : 8, "end" : 10},
		{"id" : 4, "text" : "1900년대", "type" : "", "begin" : 11, "end" : 12},
		{"id" : 5, "text" : "중반의", "type" : "", "begin" : 13, "end" : 14},
		{"id" : 6, "text" : "협률사(극장만이", "type" : "", "begin" : 15, "end" : 20},
		{"id" : 7, "text" : "아닌", "type" : "", "begin" : 21, "end" : 22},
		{"id" : 8, "text" : "명창의", "type" : "", "begin" : 23, "end" : 24},
		{"id" : 9, "text" : "조직체)에서", "type" : "", "begin" : 25, "end" : 28},
		{"id" : 10, "text" : "시작되어", "type" : "", "begin" : 29, "end" : 31},
		{"id" : 11, "text" : "1910년대", "type" : "", "begin" : 32, "end" : 33},
		{"id" : 12, "text" : "중반의", "type" : "", "begin" : 34, "end" : 35},
		{"id" : 13, "text" : "경성구파배우조합을", "type" : "", "begin" : 36, "end" : 40},
		{"id" : 14, "text" : "거쳐,", "type" : "", "begin" : 41, "end" : 43},
		{"id" : 15, "text" : "1920년대", "type" : "", "begin" : 44, "end" : 45},
		{"id" : 16, "text" : "후반의", "type" : "", "begin" : 46, "end" : 47},
		{"id" : 17, "text" : "조선악연구회와", "type" : "", "begin" : 48, "end" : 51},
		{"id" : 18, "text" : "조선음악협회,", "type" : "", "begin" : 52, "end" : 55},
		{"id" : 19, "text" : "1930년대", "type" : "", "begin" : 56, "end" : 57},
		{"id" : 20, "text" : "초반의", "type" : "", "begin" : 58, "end" : 59},
		{"id" : 21, "text" : "조선음률협회,", "type" : "", "begin" : 60, "end" : 63},
		{"id" : 22, "text" : "조선악정(正)회,", "type" : "", "begin" : 64, "end" : 70},
		{"id" : 23, "text" : "조선악협회(謠曲部),", "type" : "", "begin" : 71, "end" : 75},
		{"id" : 24, "text" : "조선성악원,", "type" : "", "begin" : 76, "end" : 78},
		{"id" : 25, "text" : "조선음악연구회", "type" : "", "begin" : 79, "end" : 82},
		{"id" : 26, "text" : "등을", "type" : "", "begin" : 83, "end" : 84},
		{"id" : 27, "text" : "거쳐", "type" : "", "begin" : 85, "end" : 86},
		{"id" : 28, "text" : "조선성악연구회", "type" : "", "begin" : 87, "end" : 90},
		{"id" : 29, "text" : "등이", "type" : "", "begin" : 91, "end" : 92},
		{"id" : 30, "text" : "주도했다.", "type" : "", "begin" : 93, "end" : 97}
	],
	"NE" : [
	],
	"chunk" : [
	],
	"dependency" : [
		{"id" : 0, "text" : "창극운동은", "head" : 10, "label" : "NP_SBJ", "mod" : [], "weight" : 0.743691 },
		{"id" : 1, "text" : "판소리", "head" : 2, "label" : "NP", "mod" : [], "weight" : 0.860123 },
		{"id" : 2, "text" : "명창들의", "head" : 3, "label" : "NP_MOD", "mod" : [1], "weight" : 0.632453 },
		{"id" : 3, "text" : "조직인", "head" : 6, "label" : "VNP_MOD", "mod" : [2], "weight" : 0.579997 },
		{"id" : 4, "text" : "1900년대", "head" : 5, "label" : "NP", "mod" : [], "weight" : 0.651939 },
		{"id" : 5, "text" : "중반의", "head" : 6, "label" : "NP_MOD", "mod" : [4], "weight" : 0.677957 },
		{"id" : 6, "text" : "협률사(극장만이", "head" : 7, "label" : "NP_CMP", "mod" : [5, 3], "weight" : 0.648653 },
		{"id" : 7, "text" : "아닌", "head" : 9, "label" : "VP_MOD", "mod" : [6], "weight" : 0.85353 },
		{"id" : 8, "text" : "명창의", "head" : 9, "label" : "NP_MOD", "mod" : [], "weight" : 0.880709 },
		{"id" : 9, "text" : "조직체)에서", "head" : 10, "label" : "NP_AJT", "mod" : [7, 8], "weight" : 0.696029 },
		{"id" : 10, "text" : "시작되어", "head" : 14, "label" : "VP", "mod" : [0, 9], "weight" : 0.943965 },
		{"id" : 11, "text" : "1910년대", "head" : 12, "label" : "NP", "mod" : [], "weight" : 0.667068 },
		{"id" : 12, "text" : "중반의", "head" : 13, "label" : "NP_MOD", "mod" : [11], "weight" : 0.711755 },
		{"id" : 13, "text" : "경성구파배우조합을", "head" : 14, "label" : "NP_OBJ", "mod" : [12], "weight" : 0.671413 },
		{"id" : 14, "text" : "거쳐,", "head" : 27, "label" : "VP", "mod" : [10, 13], "weight" : 0.991505 },
		{"id" : 15, "text" : "1920년대", "head" : 16, "label" : "NP", "mod" : [], "weight" : 0.795 },
		{"id" : 16, "text" : "후반의", "head" : 18, "label" : "NP_MOD", "mod" : [15], "weight" : 0.585605 },
		{"id" : 17, "text" : "조선악연구회와", "head" : 18, "label" : "NP_CNJ", "mod" : [], "weight" : 0.550161 },
		{"id" : 18, "text" : "조선음악협회,", "head" : 25, "label" : "NP_CNJ", "mod" : [16, 17], "weight" : 0.768644 },
		{"id" : 19, "text" : "1930년대", "head" : 20, "label" : "NP", "mod" : [], "weight" : 0.755293 },
		{"id" : 20, "text" : "초반의", "head" : 21, "label" : "NP_MOD", "mod" : [19], "weight" : 0.552609 },
		{"id" : 21, "text" : "조선음률협회,", "head" : 25, "label" : "NP_CNJ", "mod" : [20], "weight" : 0.844271 },
		{"id" : 22, "text" : "조선악정(正)회,", "head" : 25, "label" : "NP_CNJ", "mod" : [], "weight" : 0.996522 },
		{"id" : 23, "text" : "조선악협회(謠曲部),", "head" : 25, "label" : "NP_CNJ", "mod" : [], "weight" : 0.990083 },
		{"id" : 24, "text" : "조선성악원,", "head" : 25, "label" : "NP", "mod" : [], "weight" : 0.627698 },
		{"id" : 25, "text" : "조선음악연구회", "head" : 26, "label" : "NP", "mod" : [18, 21, 22, 23, 24], "weight" : 0.843652 },
		{"id" : 26, "text" : "등을", "head" : 27, "label" : "NP_OBJ", "mod" : [25], "weight" : 0.900835 },
		{"id" : 27, "text" : "거쳐", "head" : 30, "label" : "VP", "mod" : [14, 26], "weight" : 0.692746 },
		{"id" : 28, "text" : "조선성악연구회", "head" : 29, "label" : "NP", "mod" : [], "weight" : 0.903259 },
		{"id" : 29, "text" : "등이", "head" : 30, "label" : "NP_SBJ", "mod" : [28], "weight" : 0.484846 },
		{"id" : 30, "text" : "주도했다.", "head" : -1, "label" : "VP", "mod" : [27, 29], "weight" : 0.595415 }
	],
	"phrase_dependency" : [
	],
	"SRL" : [
	],
	"relation" : [
	],
	"SA" : [
	],
	"ZA" : [
	]
	}
 ],
 "entity" : [
 ]
}

