{"doc_id" : "939030",
 "DCT" : "",
 "category" : "",
 "category_weight" : 0,
 "title" : {"text" : "강자성", "NE" : ""},
 "metaInfo" : { },
 "paragraphInfo" : [
 ], 
 "sentence" : [
	{
	"id" : 0,
	"reserve_str" : "",
	"text" : "외부 자기장이 없는 상태에서도 자화되는 물질의 자기적 성질을 가리킨다.",
	"morp" : [
	],
	"morp_eval" : [
	],
	"WSD" : [
	],
	"word" : [
		{"id" : 0, "text" : "외부", "type" : "", "begin" : 0, "end" : 0},
		{"id" : 1, "text" : "자기장이", "type" : "", "begin" : 1, "end" : 3},
		{"id" : 2, "text" : "없는", "type" : "", "begin" : 4, "end" : 5},
		{"id" : 3, "text" : "상태에서도", "type" : "", "begin" : 6, "end" : 8},
		{"id" : 4, "text" : "자화되는", "type" : "", "begin" : 9, "end" : 11},
		{"id" : 5, "text" : "물질의", "type" : "", "begin" : 12, "end" : 13},
		{"id" : 6, "text" : "자기적", "type" : "", "begin" : 14, "end" : 15},
		{"id" : 7, "text" : "성질을", "type" : "", "begin" : 16, "end" : 17},
		{"id" : 8, "text" : "가리킨다.", "type" : "", "begin" : 18, "end" : 20}
	],
	"NE" : [
	],
	"chunk" : [
	],
	"dependency" : [
		{"id" : 0, "text" : "외부", "head" : 1, "label" : "NP", "mod" : [], "weight" : 0.622335 },
		{"id" : 1, "text" : "자기장이", "head" : 2, "label" : "NP_SBJ", "mod" : [0], "weight" : 0.602425 },
		{"id" : 2, "text" : "없는", "head" : 3, "label" : "VP_MOD", "mod" : [1], "weight" : 0.883643 },
		{"id" : 3, "text" : "상태에서도", "head" : 4, "label" : "NP_AJT", "mod" : [2], "weight" : 0.611759 },
		{"id" : 4, "text" : "자화되는", "head" : 5, "label" : "VP_MOD", "mod" : [3], "weight" : 0.860616 },
		{"id" : 5, "text" : "물질의", "head" : 7, "label" : "NP_MOD", "mod" : [4], "weight" : 0.888448 },
		{"id" : 6, "text" : "자기적", "head" : 7, "label" : "NP", "mod" : [], "weight" : 0.820719 },
		{"id" : 7, "text" : "성질을", "head" : 8, "label" : "NP_OBJ", "mod" : [5, 6], "weight" : 0.555497 },
		{"id" : 8, "text" : "가리킨다.", "head" : -1, "label" : "VP", "mod" : [7], "weight" : 0.521969 }
	],
	"phrase_dependency" : [
	],
	"SRL" : [
	],
	"relation" : [
	],
	"SA" : [
	],
	"ZA" : [
	]
	}
 ],
 "entity" : [
 ]
}

