{"doc_id" : "",
 "DCT" : "",
 "category" : "",
 "category_weight" : 0,
 "title" : {"text" : "대한민국 제헌 국회", "NE" : ""},
 "metaInfo" : { },
 "paragraphInfo" : [
 ], 
 "sentence" : [
	{
	"id" : 0,
	"reserve_str" : "",
	"text" : "2년 (1948년 5월 31일 ~ 1950년 5월 30일)",
	"morp" : [
	],
	"morp_eval" : [
	],
	"WSD" : [
	],
	"word" : [
		{"id" : 0, "text" : "2년", "type" : "", "begin" : 0, "end" : 1},
		{"id" : 1, "text" : "(1948년", "type" : "", "begin" : 2, "end" : 4},
		{"id" : 2, "text" : "5월", "type" : "", "begin" : 5, "end" : 6},
		{"id" : 3, "text" : "31일", "type" : "", "begin" : 7, "end" : 8},
		{"id" : 4, "text" : "~", "type" : "", "begin" : 9, "end" : 9},
		{"id" : 5, "text" : "1950년", "type" : "", "begin" : 10, "end" : 11},
		{"id" : 6, "text" : "5월", "type" : "", "begin" : 12, "end" : 13},
		{"id" : 7, "text" : "30일)", "type" : "", "begin" : 14, "end" : 16}
	],
	"NE" : [
	],
	"chunk" : [
	],
	"dependency" : [
		{"id" : 0, "text" : "2년", "head" : 7, "label" : "NP", "mod" : [], "weight" : 0.642066 },
		{"id" : 1, "text" : "(1948년", "head" : 2, "label" : "NP", "mod" : [], "weight" : 0.647772 },
		{"id" : 2, "text" : "5월", "head" : 3, "label" : "NP", "mod" : [1], "weight" : 0.90852 },
		{"id" : 3, "text" : "31일", "head" : 4, "label" : "NP", "mod" : [2], "weight" : 0.584576 },
		{"id" : 4, "text" : "~", "head" : 5, "label" : "X", "mod" : [3], "weight" : 0.510116 },
		{"id" : 5, "text" : "1950년", "head" : 6, "label" : "NP", "mod" : [4], "weight" : 0.768161 },
		{"id" : 6, "text" : "5월", "head" : 7, "label" : "NP", "mod" : [5], "weight" : 0.575237 },
		{"id" : 7, "text" : "30일)", "head" : -1, "label" : "NP_PRN", "mod" : [0, 6], "weight" : 0.239782 }
	],
	"phrase_dependency" : [
	],
	"SRL" : [
	],
	"relation" : [
	],
	"SA" : [
	],
	"ZA" : [
	]
	}
 ],
 "entity" : [
 ]
}

