{"doc_id" : "",
 "DCT" : "",
 "category" : "",
 "category_weight" : 0,
 "title" : {"text" : "Q7", "NE" : ""},
 "metaInfo" : { },
 "paragraphInfo" : [
 ], 
 "sentence" : [
	{
	"id" : 0,
	"reserve_str" : "",
	"text" : "국가의 수도를 이전하는 것을 천도라고 한다.",
	"morp" : [
	],
	"morp_eval" : [
	],
	"WSD" : [
	],
	"word" : [
		{"id" : 0, "text" : "국가의", "type" : "", "begin" : 0, "end" : 1},
		{"id" : 1, "text" : "수도를", "type" : "", "begin" : 2, "end" : 3},
		{"id" : 2, "text" : "이전하는", "type" : "", "begin" : 4, "end" : 6},
		{"id" : 3, "text" : "것을", "type" : "", "begin" : 7, "end" : 8},
		{"id" : 4, "text" : "천도라고", "type" : "", "begin" : 9, "end" : 11},
		{"id" : 5, "text" : "한다.", "type" : "", "begin" : 12, "end" : 14}
	],
	"NE" : [
	],
	"chunk" : [
	],
	"dependency" : [
		{"id" : 0, "text" : "국가의", "head" : 1, "label" : "NP_MOD", "mod" : [], "weight" : 0.934249 },
		{"id" : 1, "text" : "수도를", "head" : 2, "label" : "NP_OBJ", "mod" : [0], "weight" : 0.979432 },
		{"id" : 2, "text" : "이전하는", "head" : 3, "label" : "VP_MOD", "mod" : [1], "weight" : 0.920218 },
		{"id" : 3, "text" : "것을", "head" : 4, "label" : "NP_OBJ", "mod" : [2], "weight" : 0.943359 },
		{"id" : 4, "text" : "천도라고", "head" : 5, "label" : "VNP_CMP", "mod" : [3], "weight" : 0.525201 },
		{"id" : 5, "text" : "한다.", "head" : -1, "label" : "VP", "mod" : [4], "weight" : 0.304448 }
	],
	"phrase_dependency" : [
	],
	"SRL" : [
	],
	"relation" : [
	],
	"SA" : [
	],
	"ZA" : [
	]
	},
	{
	"id" : 1,
	"reserve_str" : "",
	"text" : " 천도를 단행한 왕은 누구일까?",
	"morp" : [
	],
	"morp_eval" : [
	],
	"WSD" : [
	],
	"word" : [
		{"id" : 0, "text" : "천도를", "type" : "", "begin" : 0, "end" : 1},
		{"id" : 1, "text" : "단행한", "type" : "", "begin" : 2, "end" : 4},
		{"id" : 2, "text" : "왕은", "type" : "", "begin" : 5, "end" : 6},
		{"id" : 3, "text" : "누구일까?", "type" : "", "begin" : 7, "end" : 10}
	],
	"NE" : [
	],
	"chunk" : [
	],
	"dependency" : [
		{"id" : 0, "text" : "천도를", "head" : 1, "label" : "NP_OBJ", "mod" : [], "weight" : 0.828499 },
		{"id" : 1, "text" : "단행한", "head" : 2, "label" : "VP_MOD", "mod" : [0], "weight" : 0.943079 },
		{"id" : 2, "text" : "왕은", "head" : 3, "label" : "NP_SBJ", "mod" : [1], "weight" : 0.679438 },
		{"id" : 3, "text" : "누구일까?", "head" : -1, "label" : "VNP", "mod" : [2], "weight" : 0.359691 }
	],
	"phrase_dependency" : [
	],
	"SRL" : [
	],
	"relation" : [
	],
	"SA" : [
	],
	"ZA" : [
	]
	}
 ],
 "entity" : [
 ]
}

