{"doc_id" : "",
 "DCT" : "",
 "category" : "",
 "category_weight" : 0,
 "title" : {"text" : "오우가", "NE" : ""},
 "metaInfo" : { },
 "paragraphInfo" : [
 ], 
 "sentence" : [
	{
	"id" : 0,
	"reserve_str" : "",
	"text" : "작자가 56세 때 해남 금쇄동(金鎖洞)에 은거할 무렵에 지은 《산중신곡(山中新曲)》 속에 들어 있는 6수의 시조로, 수(水) ·석(石) ·송(松) ·죽(竹) ·월(月)을 다섯 벗으로 삼아 서시(序詩) 다음에 각각 그 자연물들의 특질을 들어 자신의 자연애(自然愛)와 관조를 표백하였다.",
	"morp" : [
	],
	"morp_eval" : [
	],
	"WSD" : [
	],
	"word" : [
		{"id" : 0, "text" : "작자가", "type" : "", "begin" : 0, "end" : 1},
		{"id" : 1, "text" : "56세", "type" : "", "begin" : 2, "end" : 3},
		{"id" : 2, "text" : "때", "type" : "", "begin" : 4, "end" : 4},
		{"id" : 3, "text" : "해남", "type" : "", "begin" : 5, "end" : 5},
		{"id" : 4, "text" : "금쇄동(金鎖洞)에", "type" : "", "begin" : 6, "end" : 10},
		{"id" : 5, "text" : "은거할", "type" : "", "begin" : 11, "end" : 13},
		{"id" : 6, "text" : "무렵에", "type" : "", "begin" : 14, "end" : 15},
		{"id" : 7, "text" : "지은", "type" : "", "begin" : 16, "end" : 17},
		{"id" : 8, "text" : "《산중신곡(山中新曲)》", "type" : "", "begin" : 18, "end" : 24},
		{"id" : 9, "text" : "속에", "type" : "", "begin" : 25, "end" : 26},
		{"id" : 10, "text" : "들어", "type" : "", "begin" : 27, "end" : 28},
		{"id" : 11, "text" : "있는", "type" : "", "begin" : 29, "end" : 30},
		{"id" : 12, "text" : "6수의", "type" : "", "begin" : 31, "end" : 33},
		{"id" : 13, "text" : "시조로,", "type" : "", "begin" : 34, "end" : 36},
		{"id" : 14, "text" : "수(水)", "type" : "", "begin" : 37, "end" : 40},
		{"id" : 15, "text" : "·석(石)", "type" : "", "begin" : 41, "end" : 45},
		{"id" : 16, "text" : "·송(松)", "type" : "", "begin" : 46, "end" : 50},
		{"id" : 17, "text" : "·죽(竹)", "type" : "", "begin" : 51, "end" : 55},
		{"id" : 18, "text" : "·월(月)을", "type" : "", "begin" : 56, "end" : 61},
		{"id" : 19, "text" : "다섯", "type" : "", "begin" : 62, "end" : 62},
		{"id" : 20, "text" : "벗으로", "type" : "", "begin" : 63, "end" : 64},
		{"id" : 21, "text" : "삼아", "type" : "", "begin" : 65, "end" : 66},
		{"id" : 22, "text" : "서시(序詩)", "type" : "", "begin" : 67, "end" : 70},
		{"id" : 23, "text" : "다음에", "type" : "", "begin" : 71, "end" : 72},
		{"id" : 24, "text" : "각각", "type" : "", "begin" : 73, "end" : 73},
		{"id" : 25, "text" : "그", "type" : "", "begin" : 74, "end" : 74},
		{"id" : 26, "text" : "자연물들의", "type" : "", "begin" : 75, "end" : 78},
		{"id" : 27, "text" : "특질을", "type" : "", "begin" : 79, "end" : 80},
		{"id" : 28, "text" : "들어", "type" : "", "begin" : 81, "end" : 82},
		{"id" : 29, "text" : "자신의", "type" : "", "begin" : 83, "end" : 84},
		{"id" : 30, "text" : "자연애(自然愛)와", "type" : "", "begin" : 85, "end" : 90},
		{"id" : 31, "text" : "관조를", "type" : "", "begin" : 91, "end" : 92},
		{"id" : 32, "text" : "표백하였다.", "type" : "", "begin" : 93, "end" : 97}
	],
	"NE" : [
	],
	"chunk" : [
	],
	"dependency" : [
		{"id" : 0, "text" : "작자가", "head" : 5, "label" : "NP_SBJ", "mod" : [], "weight" : 0.603511 },
		{"id" : 1, "text" : "56세", "head" : 2, "label" : "NP", "mod" : [], "weight" : 0.991384 },
		{"id" : 2, "text" : "때", "head" : 5, "label" : "NP_AJT", "mod" : [1], "weight" : 0.621938 },
		{"id" : 3, "text" : "해남", "head" : 4, "label" : "NP", "mod" : [], "weight" : 0.970107 },
		{"id" : 4, "text" : "금쇄동(金鎖洞)에", "head" : 5, "label" : "NP_AJT", "mod" : [3], "weight" : 0.749022 },
		{"id" : 5, "text" : "은거할", "head" : 6, "label" : "VP_MOD", "mod" : [0, 2, 4], "weight" : 0.876464 },
		{"id" : 6, "text" : "무렵에", "head" : 7, "label" : "NP_AJT", "mod" : [5], "weight" : 0.579188 },
		{"id" : 7, "text" : "지은", "head" : 8, "label" : "VP_MOD", "mod" : [6], "weight" : 0.931646 },
		{"id" : 8, "text" : "《산중신곡(山中新曲)》", "head" : 9, "label" : "NP", "mod" : [7], "weight" : 0.54792 },
		{"id" : 9, "text" : "속에", "head" : 10, "label" : "NP_AJT", "mod" : [8], "weight" : 0.667815 },
		{"id" : 10, "text" : "들어", "head" : 11, "label" : "VP", "mod" : [9], "weight" : 0.867398 },
		{"id" : 11, "text" : "있는", "head" : 13, "label" : "VP_MOD", "mod" : [10], "weight" : 0.850333 },
		{"id" : 12, "text" : "6수의", "head" : 13, "label" : "NP_MOD", "mod" : [], "weight" : 0.990296 },
		{"id" : 13, "text" : "시조로,", "head" : 21, "label" : "NP_AJT", "mod" : [11, 12], "weight" : 0.921798 },
		{"id" : 14, "text" : "수(水)", "head" : 18, "label" : "NP_CNJ", "mod" : [], "weight" : 0.952861 },
		{"id" : 15, "text" : "·석(石)", "head" : 18, "label" : "NP_CNJ", "mod" : [], "weight" : 0.978675 },
		{"id" : 16, "text" : "·송(松)", "head" : 18, "label" : "NP_CNJ", "mod" : [], "weight" : 0.928946 },
		{"id" : 17, "text" : "·죽(竹)", "head" : 18, "label" : "NP", "mod" : [], "weight" : 0.851485 },
		{"id" : 18, "text" : "·월(月)을", "head" : 21, "label" : "NP_OBJ", "mod" : [14, 15, 16, 17], "weight" : 0.662232 },
		{"id" : 19, "text" : "다섯", "head" : 20, "label" : "NP", "mod" : [], "weight" : 0.681901 },
		{"id" : 20, "text" : "벗으로", "head" : 21, "label" : "NP_AJT", "mod" : [19], "weight" : 0.661367 },
		{"id" : 21, "text" : "삼아", "head" : 28, "label" : "VP", "mod" : [13, 18, 20], "weight" : 0.907118 },
		{"id" : 22, "text" : "서시(序詩)", "head" : 23, "label" : "NP", "mod" : [], "weight" : 0.786281 },
		{"id" : 23, "text" : "다음에", "head" : 28, "label" : "NP_AJT", "mod" : [22], "weight" : 0.956884 },
		{"id" : 24, "text" : "각각", "head" : 28, "label" : "AP", "mod" : [], "weight" : 0.88433 },
		{"id" : 25, "text" : "그", "head" : 26, "label" : "DP", "mod" : [], "weight" : 0.743433 },
		{"id" : 26, "text" : "자연물들의", "head" : 27, "label" : "NP_MOD", "mod" : [25], "weight" : 0.841572 },
		{"id" : 27, "text" : "특질을", "head" : 28, "label" : "NP_OBJ", "mod" : [26], "weight" : 0.814309 },
		{"id" : 28, "text" : "들어", "head" : 32, "label" : "VP", "mod" : [21, 23, 24, 27], "weight" : 0.705216 },
		{"id" : 29, "text" : "자신의", "head" : 31, "label" : "NP_MOD", "mod" : [], "weight" : 0.776802 },
		{"id" : 30, "text" : "자연애(自然愛)와", "head" : 31, "label" : "NP_CNJ", "mod" : [], "weight" : 0.64426 },
		{"id" : 31, "text" : "관조를", "head" : 32, "label" : "NP_OBJ", "mod" : [29, 30], "weight" : 0.500796 },
		{"id" : 32, "text" : "표백하였다.", "head" : -1, "label" : "VP", "mod" : [28, 31], "weight" : 0.232582 }
	],
	"phrase_dependency" : [
	],
	"SRL" : [
	],
	"relation" : [
	],
	"SA" : [
	],
	"ZA" : [
	]
	}
 ],
 "entity" : [
 ]
}

