{"doc_id" : "939029",
 "DCT" : "",
 "category" : "",
 "category_weight" : 0,
 "title" : {"text" : "허위", "NE" : ""},
 "metaInfo" : { },
 "paragraphInfo" : [
 ], 
 "sentence" : [
	{
	"id" : 0,
	"reserve_str" : "",
	"text" : "허위(許蔿, 1854년 4월 1일 ~ 1908년 10월 21일)는 대한민국의 독립유공자이며 구한말의 의병장이다.",
	"morp" : [
	],
	"morp_eval" : [
	],
	"WSD" : [
	],
	"word" : [
		{"id" : 0, "text" : "허위(許蔿,", "type" : "", "begin" : 0, "end" : 3},
		{"id" : 1, "text" : "1854년", "type" : "", "begin" : 4, "end" : 5},
		{"id" : 2, "text" : "4월", "type" : "", "begin" : 6, "end" : 7},
		{"id" : 3, "text" : "1일", "type" : "", "begin" : 8, "end" : 9},
		{"id" : 4, "text" : "~", "type" : "", "begin" : 10, "end" : 10},
		{"id" : 5, "text" : "1908년", "type" : "", "begin" : 11, "end" : 12},
		{"id" : 6, "text" : "10월", "type" : "", "begin" : 13, "end" : 14},
		{"id" : 7, "text" : "21일)는", "type" : "", "begin" : 15, "end" : 18},
		{"id" : 8, "text" : "대한민국의", "type" : "", "begin" : 19, "end" : 20},
		{"id" : 9, "text" : "독립유공자이며", "type" : "", "begin" : 21, "end" : 25},
		{"id" : 10, "text" : "구한말의", "type" : "", "begin" : 26, "end" : 28},
		{"id" : 11, "text" : "의병장이다.", "type" : "", "begin" : 29, "end" : 33}
	],
	"NE" : [
	],
	"chunk" : [
	],
	"dependency" : [
		{"id" : 0, "text" : "허위(許蔿,", "head" : 7, "label" : "NP", "mod" : [], "weight" : 0.674224 },
		{"id" : 1, "text" : "1854년", "head" : 2, "label" : "NP", "mod" : [], "weight" : 0.684226 },
		{"id" : 2, "text" : "4월", "head" : 3, "label" : "NP", "mod" : [1], "weight" : 0.773614 },
		{"id" : 3, "text" : "1일", "head" : 4, "label" : "NP", "mod" : [2], "weight" : 0.843737 },
		{"id" : 4, "text" : "~", "head" : 5, "label" : "X", "mod" : [3], "weight" : 0.721182 },
		{"id" : 5, "text" : "1908년", "head" : 6, "label" : "NP", "mod" : [4], "weight" : 0.683929 },
		{"id" : 6, "text" : "10월", "head" : 7, "label" : "NP", "mod" : [5], "weight" : 0.867234 },
		{"id" : 7, "text" : "21일)는", "head" : 9, "label" : "NP_SBJ", "mod" : [0, 6], "weight" : 0.634554 },
		{"id" : 8, "text" : "대한민국의", "head" : 9, "label" : "NP_MOD", "mod" : [], "weight" : 0.79497 },
		{"id" : 9, "text" : "독립유공자이며", "head" : 11, "label" : "VNP", "mod" : [7, 8], "weight" : 0.579211 },
		{"id" : 10, "text" : "구한말의", "head" : 11, "label" : "NP_MOD", "mod" : [], "weight" : 0.39561 },
		{"id" : 11, "text" : "의병장이다.", "head" : -1, "label" : "VNP", "mod" : [9, 10], "weight" : 0.745837 }
	],
	"phrase_dependency" : [
	],
	"SRL" : [
	],
	"relation" : [
	],
	"SA" : [
	],
	"ZA" : [
	]
	},
	{
	"id" : 1,
	"reserve_str" : "",
	"text" : " 아호는 왕산(旺山).",
	"morp" : [
	],
	"morp_eval" : [
	],
	"WSD" : [
	],
	"word" : [
		{"id" : 0, "text" : "아호는", "type" : "", "begin" : 0, "end" : 1},
		{"id" : 1, "text" : "왕산(旺山).", "type" : "", "begin" : 2, "end" : 6}
	],
	"NE" : [
	],
	"chunk" : [
	],
	"dependency" : [
		{"id" : 0, "text" : "아호는", "head" : 1, "label" : "NP_SBJ", "mod" : [], "weight" : 0.494879 },
		{"id" : 1, "text" : "왕산(旺山).", "head" : -1, "label" : "NP", "mod" : [0], "weight" : 0.245259 }
	],
	"phrase_dependency" : [
	],
	"SRL" : [
	],
	"relation" : [
	],
	"SA" : [
	],
	"ZA" : [
	]
	}
 ],
 "entity" : [
 ]
}

