{"doc_id" : "939026",
 "DCT" : "",
 "category" : "",
 "category_weight" : 0,
 "title" : {"text" : "파스칼의 원리", "NE" : ""},
 "metaInfo" : { },
 "paragraphInfo" : [
 ], 
 "sentence" : [
	{
	"id" : 0,
	"reserve_str" : "",
	"text" : "파스칼의 원리(Pascal's principle) 또는 유체압력 전달원리(principle of transmission of fluid-pressure)는 유체역학에서 폐관 속의 비압축성 유체의 어느 한 부분에 가해진 압력의 변화가 유체의 다른 부분에 그대로 전달된다는 원리이다.",
	"morp" : [
	],
	"morp_eval" : [
	],
	"WSD" : [
	],
	"word" : [
		{"id" : 0, "text" : "파스칼의", "type" : "", "begin" : 0, "end" : 1},
		{"id" : 1, "text" : "원리(Pascal's", "type" : "", "begin" : 2, "end" : 6},
		{"id" : 2, "text" : "principle)", "type" : "", "begin" : 7, "end" : 8},
		{"id" : 3, "text" : "또는", "type" : "", "begin" : 9, "end" : 9},
		{"id" : 4, "text" : "유체압력", "type" : "", "begin" : 10, "end" : 11},
		{"id" : 5, "text" : "전달원리(principle", "type" : "", "begin" : 12, "end" : 15},
		{"id" : 6, "text" : "of", "type" : "", "begin" : 16, "end" : 16},
		{"id" : 7, "text" : "transmission", "type" : "", "begin" : 17, "end" : 17},
		{"id" : 8, "text" : "of", "type" : "", "begin" : 18, "end" : 18},
		{"id" : 9, "text" : "fluid-pressure)는", "type" : "", "begin" : 19, "end" : 23},
		{"id" : 10, "text" : "유체역학에서", "type" : "", "begin" : 24, "end" : 26},
		{"id" : 11, "text" : "폐관", "type" : "", "begin" : 27, "end" : 27},
		{"id" : 12, "text" : "속의", "type" : "", "begin" : 28, "end" : 29},
		{"id" : 13, "text" : "비압축성", "type" : "", "begin" : 30, "end" : 32},
		{"id" : 14, "text" : "유체의", "type" : "", "begin" : 33, "end" : 34},
		{"id" : 15, "text" : "어느", "type" : "", "begin" : 35, "end" : 35},
		{"id" : 16, "text" : "한", "type" : "", "begin" : 36, "end" : 36},
		{"id" : 17, "text" : "부분에", "type" : "", "begin" : 37, "end" : 38},
		{"id" : 18, "text" : "가해진", "type" : "", "begin" : 39, "end" : 43},
		{"id" : 19, "text" : "압력의", "type" : "", "begin" : 44, "end" : 45},
		{"id" : 20, "text" : "변화가", "type" : "", "begin" : 46, "end" : 47},
		{"id" : 21, "text" : "유체의", "type" : "", "begin" : 48, "end" : 49},
		{"id" : 22, "text" : "다른", "type" : "", "begin" : 50, "end" : 50},
		{"id" : 23, "text" : "부분에", "type" : "", "begin" : 51, "end" : 52},
		{"id" : 24, "text" : "그대로", "type" : "", "begin" : 53, "end" : 53},
		{"id" : 25, "text" : "전달된다는", "type" : "", "begin" : 54, "end" : 56},
		{"id" : 26, "text" : "원리이다.", "type" : "", "begin" : 57, "end" : 60}
	],
	"NE" : [
	],
	"chunk" : [
	],
	"dependency" : [
		{"id" : 0, "text" : "파스칼의", "head" : 1, "label" : "NP_MOD", "mod" : [], "weight" : 0.708819 },
		{"id" : 1, "text" : "원리(Pascal's", "head" : 2, "label" : "NP", "mod" : [0], "weight" : 0.872658 },
		{"id" : 2, "text" : "principle)", "head" : 9, "label" : "NP_CNJ", "mod" : [1], "weight" : 0.798181 },
		{"id" : 3, "text" : "또는", "head" : 9, "label" : "AP", "mod" : [], "weight" : 0.914025 },
		{"id" : 4, "text" : "유체압력", "head" : 5, "label" : "NP", "mod" : [], "weight" : 0.785816 },
		{"id" : 5, "text" : "전달원리(principle", "head" : 6, "label" : "NP", "mod" : [4], "weight" : 0.616265 },
		{"id" : 6, "text" : "of", "head" : 7, "label" : "NP", "mod" : [5], "weight" : 0.576476 },
		{"id" : 7, "text" : "transmission", "head" : 8, "label" : "NP", "mod" : [6], "weight" : 0.596876 },
		{"id" : 8, "text" : "of", "head" : 9, "label" : "NP", "mod" : [7], "weight" : 0.859789 },
		{"id" : 9, "text" : "fluid-pressure)는", "head" : 26, "label" : "NP_SBJ", "mod" : [2, 3, 8], "weight" : 0.799578 },
		{"id" : 10, "text" : "유체역학에서", "head" : 25, "label" : "NP_AJT", "mod" : [], "weight" : 0.690341 },
		{"id" : 11, "text" : "폐관", "head" : 12, "label" : "NP", "mod" : [], "weight" : 0.818417 },
		{"id" : 12, "text" : "속의", "head" : 14, "label" : "NP_MOD", "mod" : [11], "weight" : 0.648042 },
		{"id" : 13, "text" : "비압축성", "head" : 14, "label" : "NP", "mod" : [], "weight" : 0.943927 },
		{"id" : 14, "text" : "유체의", "head" : 17, "label" : "NP_MOD", "mod" : [12, 13], "weight" : 0.676812 },
		{"id" : 15, "text" : "어느", "head" : 17, "label" : "DP", "mod" : [], "weight" : 0.735677 },
		{"id" : 16, "text" : "한", "head" : 17, "label" : "DP", "mod" : [], "weight" : 0.721879 },
		{"id" : 17, "text" : "부분에", "head" : 18, "label" : "NP_AJT", "mod" : [14, 15, 16], "weight" : 0.632074 },
		{"id" : 18, "text" : "가해진", "head" : 20, "label" : "VP_MOD", "mod" : [17], "weight" : 0.929504 },
		{"id" : 19, "text" : "압력의", "head" : 20, "label" : "NP_MOD", "mod" : [], "weight" : 0.948461 },
		{"id" : 20, "text" : "변화가", "head" : 25, "label" : "NP_SBJ", "mod" : [18, 19], "weight" : 0.766008 },
		{"id" : 21, "text" : "유체의", "head" : 23, "label" : "NP_MOD", "mod" : [], "weight" : 0.964832 },
		{"id" : 22, "text" : "다른", "head" : 23, "label" : "DP", "mod" : [], "weight" : 0.893607 },
		{"id" : 23, "text" : "부분에", "head" : 25, "label" : "NP_AJT", "mod" : [21, 22], "weight" : 0.684432 },
		{"id" : 24, "text" : "그대로", "head" : 25, "label" : "AP", "mod" : [], "weight" : 0.529724 },
		{"id" : 25, "text" : "전달된다는", "head" : 26, "label" : "VP_MOD", "mod" : [10, 20, 23, 24], "weight" : 0.479298 },
		{"id" : 26, "text" : "원리이다.", "head" : -1, "label" : "VNP", "mod" : [25, 9], "weight" : 0.248159 }
	],
	"phrase_dependency" : [
	],
	"SRL" : [
	],
	"relation" : [
	],
	"SA" : [
	],
	"ZA" : [
	]
	},
	{
	"id" : 1,
	"reserve_str" : "",
	"text" : " 이 원리는 프랑스 수학자 블레즈 파스칼이 정립했다.",
	"morp" : [
	],
	"morp_eval" : [
	],
	"WSD" : [
	],
	"word" : [
		{"id" : 0, "text" : "이", "type" : "", "begin" : 0, "end" : 0},
		{"id" : 1, "text" : "원리는", "type" : "", "begin" : 1, "end" : 2},
		{"id" : 2, "text" : "프랑스", "type" : "", "begin" : 3, "end" : 3},
		{"id" : 3, "text" : "수학자", "type" : "", "begin" : 4, "end" : 5},
		{"id" : 4, "text" : "블레즈", "type" : "", "begin" : 6, "end" : 6},
		{"id" : 5, "text" : "파스칼이", "type" : "", "begin" : 7, "end" : 8},
		{"id" : 6, "text" : "정립했다.", "type" : "", "begin" : 9, "end" : 13}
	],
	"NE" : [
	],
	"chunk" : [
	],
	"dependency" : [
		{"id" : 0, "text" : "이", "head" : 1, "label" : "DP", "mod" : [], "weight" : 0.975455 },
		{"id" : 1, "text" : "원리는", "head" : 6, "label" : "NP_OBJ", "mod" : [0], "weight" : 0.662715 },
		{"id" : 2, "text" : "프랑스", "head" : 3, "label" : "NP", "mod" : [], "weight" : 0.6823 },
		{"id" : 3, "text" : "수학자", "head" : 5, "label" : "NP", "mod" : [2], "weight" : 0.868024 },
		{"id" : 4, "text" : "블레즈", "head" : 5, "label" : "NP", "mod" : [], "weight" : 0.982791 },
		{"id" : 5, "text" : "파스칼이", "head" : 6, "label" : "NP_SBJ", "mod" : [3, 4], "weight" : 0.460441 },
		{"id" : 6, "text" : "정립했다.", "head" : -1, "label" : "VP", "mod" : [1, 5], "weight" : 0.101 }
	],
	"phrase_dependency" : [
	],
	"SRL" : [
	],
	"relation" : [
	],
	"SA" : [
	],
	"ZA" : [
	]
	}
 ],
 "entity" : [
 ]
}

