{"doc_id" : "939017",
 "DCT" : "",
 "category" : "",
 "category_weight" : 0,
 "title" : {"text" : "바그다드", "NE" : ""},
 "metaInfo" : { },
 "paragraphInfo" : [
 ], 
 "sentence" : [
	{
	"id" : 0,
	"reserve_str" : "",
	"text" : "<지명> 이라크의 티그리스 강 양안에 있는 도시.",
	"morp" : [
	],
	"morp_eval" : [
	],
	"WSD" : [
	],
	"word" : [
		{"id" : 0, "text" : "<지명>", "type" : "", "begin" : 0, "end" : 2},
		{"id" : 1, "text" : "이라크의", "type" : "", "begin" : 3, "end" : 4},
		{"id" : 2, "text" : "티그리스", "type" : "", "begin" : 5, "end" : 5},
		{"id" : 3, "text" : "강", "type" : "", "begin" : 6, "end" : 6},
		{"id" : 4, "text" : "양안에", "type" : "", "begin" : 7, "end" : 8},
		{"id" : 5, "text" : "있는", "type" : "", "begin" : 9, "end" : 10},
		{"id" : 6, "text" : "도시.", "type" : "", "begin" : 11, "end" : 12}
	],
	"NE" : [
	],
	"chunk" : [
	],
	"dependency" : [
		{"id" : 0, "text" : "<지명>", "head" : 6, "label" : "NP", "mod" : [], "weight" : 0.971938 },
		{"id" : 1, "text" : "이라크의", "head" : 3, "label" : "NP_MOD", "mod" : [], "weight" : 0.522441 },
		{"id" : 2, "text" : "티그리스", "head" : 3, "label" : "NP", "mod" : [], "weight" : 0.871865 },
		{"id" : 3, "text" : "강", "head" : 4, "label" : "NP", "mod" : [1, 2], "weight" : 0.918097 },
		{"id" : 4, "text" : "양안에", "head" : 5, "label" : "NP_AJT", "mod" : [3], "weight" : 0.893448 },
		{"id" : 5, "text" : "있는", "head" : 6, "label" : "VP_MOD", "mod" : [4], "weight" : 0.669736 },
		{"id" : 6, "text" : "도시.", "head" : -1, "label" : "NP", "mod" : [0, 5], "weight" : 0.122465 }
	],
	"phrase_dependency" : [
	],
	"SRL" : [
	],
	"relation" : [
	],
	"SA" : [
	],
	"ZA" : [
	]
	},
	{
	"id" : 1,
	"reserve_str" : "",
	"text" : " 고대 메소포타미아 이래 서아시아에서 손꼽히는 정치, 경제, 문화의 중심지이다.",
	"morp" : [
	],
	"morp_eval" : [
	],
	"WSD" : [
	],
	"word" : [
		{"id" : 0, "text" : "고대", "type" : "", "begin" : 0, "end" : 0},
		{"id" : 1, "text" : "메소포타미아", "type" : "", "begin" : 1, "end" : 1},
		{"id" : 2, "text" : "이래", "type" : "", "begin" : 2, "end" : 2},
		{"id" : 3, "text" : "서아시아에서", "type" : "", "begin" : 3, "end" : 4},
		{"id" : 4, "text" : "손꼽히는", "type" : "", "begin" : 5, "end" : 6},
		{"id" : 5, "text" : "정치,", "type" : "", "begin" : 7, "end" : 8},
		{"id" : 6, "text" : "경제,", "type" : "", "begin" : 9, "end" : 10},
		{"id" : 7, "text" : "문화의", "type" : "", "begin" : 11, "end" : 12},
		{"id" : 8, "text" : "중심지이다.", "type" : "", "begin" : 13, "end" : 17}
	],
	"NE" : [
	],
	"chunk" : [
	],
	"dependency" : [
		{"id" : 0, "text" : "고대", "head" : 1, "label" : "NP", "mod" : [], "weight" : 0.77075 },
		{"id" : 1, "text" : "메소포타미아", "head" : 2, "label" : "NP", "mod" : [0], "weight" : 0.902836 },
		{"id" : 2, "text" : "이래", "head" : 4, "label" : "NP_AJT", "mod" : [1], "weight" : 0.795596 },
		{"id" : 3, "text" : "서아시아에서", "head" : 4, "label" : "NP_AJT", "mod" : [], "weight" : 0.568488 },
		{"id" : 4, "text" : "손꼽히는", "head" : 8, "label" : "VP_MOD", "mod" : [2, 3], "weight" : 0.497842 },
		{"id" : 5, "text" : "정치,", "head" : 7, "label" : "NP_CNJ", "mod" : [], "weight" : 0.724301 },
		{"id" : 6, "text" : "경제,", "head" : 7, "label" : "NP_CNJ", "mod" : [], "weight" : 0.799306 },
		{"id" : 7, "text" : "문화의", "head" : 8, "label" : "NP_MOD", "mod" : [5, 6], "weight" : 0.408814 },
		{"id" : 8, "text" : "중심지이다.", "head" : -1, "label" : "VNP", "mod" : [4, 7], "weight" : 0.218548 }
	],
	"phrase_dependency" : [
	],
	"SRL" : [
	],
	"relation" : [
	],
	"SA" : [
	],
	"ZA" : [
	]
	},
	{
	"id" : 2,
	"reserve_str" : "",
	"text" : " 밀ㆍ양모ㆍ피혁의 집산지이며, 모직물 공업이 발달하였다.",
	"morp" : [
	],
	"morp_eval" : [
	],
	"WSD" : [
	],
	"word" : [
		{"id" : 0, "text" : "밀ㆍ양모ㆍ피혁의", "type" : "", "begin" : 0, "end" : 5},
		{"id" : 1, "text" : "집산지이며,", "type" : "", "begin" : 6, "end" : 10},
		{"id" : 2, "text" : "모직물", "type" : "", "begin" : 11, "end" : 12},
		{"id" : 3, "text" : "공업이", "type" : "", "begin" : 13, "end" : 14},
		{"id" : 4, "text" : "발달하였다.", "type" : "", "begin" : 15, "end" : 18}
	],
	"NE" : [
	],
	"chunk" : [
	],
	"dependency" : [
		{"id" : 0, "text" : "밀ㆍ양모ㆍ피혁의", "head" : 1, "label" : "NP_MOD", "mod" : [], "weight" : 0.854975 },
		{"id" : 1, "text" : "집산지이며,", "head" : 4, "label" : "VNP", "mod" : [0], "weight" : 0.586067 },
		{"id" : 2, "text" : "모직물", "head" : 3, "label" : "NP", "mod" : [], "weight" : 0.897885 },
		{"id" : 3, "text" : "공업이", "head" : 4, "label" : "NP_SBJ", "mod" : [2], "weight" : 0.493729 },
		{"id" : 4, "text" : "발달하였다.", "head" : -1, "label" : "VP", "mod" : [1, 3], "weight" : 0.13815 }
	],
	"phrase_dependency" : [
	],
	"SRL" : [
	],
	"relation" : [
	],
	"SA" : [
	],
	"ZA" : [
	]
	},
	{
	"id" : 3,
	"reserve_str" : "",
	"text" : " 이라크의 수도이다.",
	"morp" : [
	],
	"morp_eval" : [
	],
	"WSD" : [
	],
	"word" : [
		{"id" : 0, "text" : "이라크의", "type" : "", "begin" : 0, "end" : 1},
		{"id" : 1, "text" : "수도이다.", "type" : "", "begin" : 2, "end" : 5}
	],
	"NE" : [
	],
	"chunk" : [
	],
	"dependency" : [
		{"id" : 0, "text" : "이라크의", "head" : 1, "label" : "NP_MOD", "mod" : [], "weight" : 0.475225 },
		{"id" : 1, "text" : "수도이다.", "head" : -1, "label" : "VNP", "mod" : [0], "weight" : 0.281602 }
	],
	"phrase_dependency" : [
	],
	"SRL" : [
	],
	"relation" : [
	],
	"SA" : [
	],
	"ZA" : [
	]
	}
 ],
 "entity" : [
 ]
}

