{"doc_id" : "",
 "DCT" : "",
 "category" : "",
 "category_weight" : 0,
 "title" : {"text" : "한산모시", "NE" : ""},
 "metaInfo" : { },
 "paragraphInfo" : [
 ], 
 "sentence" : [
	{
	"id" : 0,
	"reserve_str" : "",
	"text" : "세모시는 머리카락보다 곱게 짜여진 모시로 삼국시대에는 30~40승, 고려시대에는 20승, 조선시대에는 15승까지 세밀한 모시가 짜여졌다.",
	"morp" : [
	],
	"morp_eval" : [
	],
	"WSD" : [
	],
	"word" : [
		{"id" : 0, "text" : "세모시는", "type" : "", "begin" : 0, "end" : 2},
		{"id" : 1, "text" : "머리카락보다", "type" : "", "begin" : 3, "end" : 5},
		{"id" : 2, "text" : "곱게", "type" : "", "begin" : 6, "end" : 7},
		{"id" : 3, "text" : "짜여진", "type" : "", "begin" : 8, "end" : 11},
		{"id" : 4, "text" : "모시로", "type" : "", "begin" : 12, "end" : 13},
		{"id" : 5, "text" : "삼국시대에는", "type" : "", "begin" : 14, "end" : 17},
		{"id" : 6, "text" : "30~40승,", "type" : "", "begin" : 18, "end" : 22},
		{"id" : 7, "text" : "고려시대에는", "type" : "", "begin" : 23, "end" : 26},
		{"id" : 8, "text" : "20승,", "type" : "", "begin" : 27, "end" : 29},
		{"id" : 9, "text" : "조선시대에는", "type" : "", "begin" : 30, "end" : 33},
		{"id" : 10, "text" : "15승까지", "type" : "", "begin" : 34, "end" : 36},
		{"id" : 11, "text" : "세밀한", "type" : "", "begin" : 37, "end" : 38},
		{"id" : 12, "text" : "모시가", "type" : "", "begin" : 39, "end" : 40},
		{"id" : 13, "text" : "짜여졌다.", "type" : "", "begin" : 41, "end" : 46}
	],
	"NE" : [
	],
	"chunk" : [
	],
	"dependency" : [
		{"id" : 0, "text" : "세모시는", "head" : 4, "label" : "NP_SBJ", "mod" : [], "weight" : 0.506901 },
		{"id" : 1, "text" : "머리카락보다", "head" : 3, "label" : "NP_AJT", "mod" : [], "weight" : 0.551668 },
		{"id" : 2, "text" : "곱게", "head" : 3, "label" : "VP_AJT", "mod" : [], "weight" : 0.972185 },
		{"id" : 3, "text" : "짜여진", "head" : 4, "label" : "VP_MOD", "mod" : [1, 2], "weight" : 0.884867 },
		{"id" : 4, "text" : "모시로", "head" : 13, "label" : "NP_AJT", "mod" : [3, 0], "weight" : 0.523316 },
		{"id" : 5, "text" : "삼국시대에는", "head" : 6, "label" : "NP_AJT", "mod" : [], "weight" : 0.519431 },
		{"id" : 6, "text" : "30~40승,", "head" : 10, "label" : "NP_CNJ", "mod" : [5], "weight" : 0.508652 },
		{"id" : 7, "text" : "고려시대에는", "head" : 8, "label" : "NP_AJT", "mod" : [], "weight" : 0.884642 },
		{"id" : 8, "text" : "20승,", "head" : 10, "label" : "NP_CNJ", "mod" : [7], "weight" : 0.330041 },
		{"id" : 9, "text" : "조선시대에는", "head" : 10, "label" : "NP_AJT", "mod" : [], "weight" : 0.661849 },
		{"id" : 10, "text" : "15승까지", "head" : 13, "label" : "NP_AJT", "mod" : [6, 8, 9], "weight" : 0.367818 },
		{"id" : 11, "text" : "세밀한", "head" : 12, "label" : "VP_MOD", "mod" : [], "weight" : 0.977448 },
		{"id" : 12, "text" : "모시가", "head" : 13, "label" : "NP_SBJ", "mod" : [11], "weight" : 0.530811 },
		{"id" : 13, "text" : "짜여졌다.", "head" : -1, "label" : "VP", "mod" : [10, 12, 4], "weight" : 0.781195 }
	],
	"phrase_dependency" : [
	],
	"SRL" : [
	],
	"relation" : [
	],
	"SA" : [
	],
	"ZA" : [
	]
	}
 ],
 "entity" : [
 ]
}

