{
    "doc_id": "E2016.788.13_Q_01.json", 
    "DCT": "", 
    "category": "", 
    "category_weight": 0, 
    "title": {
        "text": "", 
        "NE": ""
    }, 
    "metaInfo": {}, 
    "sentence": [
        {
            "id": 0, 
            "reserve_str": "", 
            "text": "이것은 민속 음악에서 쓰는 판소리 및 산조 장단의 하나이다.", 
            "morp": [
                {"id": 0, "lemma": "이것", "type": "NP", "position": 0, "weight": 0.0733657}, 
                {"id": 1, "lemma": "은", "type": "JX", "position": 6, "weight": 0.191811}, 
                {"id": 2, "lemma": "민속", "type": "NNG", "position": 10, "weight": 0.9}, 
                {"id": 3, "lemma": "음악", "type": "NNG", "position": 17, "weight": 0.184797}, 
                {"id": 4, "lemma": "에서", "type": "JKB", "position": 23, "weight": 0.153407}, 
                {"id": 5, "lemma": "쓰", "type": "VV", "position": 30, "weight": 0.441895}, 
                {"id": 6, "lemma": "는", "type": "ETM", "position": 33, "weight": 0.184941}, 
                {"id": 7, "lemma": "판소리", "type": "NNG", "position": 37, "weight": 0.456121}, 
                {"id": 8, "lemma": "및", "type": "MAJ", "position": 47, "weight": 0.00215414}, 
                {"id": 9, "lemma": "산조", "type": "NNG", "position": 51, "weight": 0.387888}, 
                {"id": 10, "lemma": "장단", "type": "NNG", "position": 58, "weight": 0.17537}, 
                {"id": 11, "lemma": "의", "type": "JKG", "position": 64, "weight": 0.0694213}, 
                {"id": 12, "lemma": "하나", "type": "NR", "position": 68, "weight": 0.000723053}, 
                {"id": 13, "lemma": "이", "type": "VCP", "position": 74, "weight": 0.00416716}, 
                {"id": 14, "lemma": "다", "type": "EF", "position": 77, "weight": 0.353579}, 
                {"id": 15, "lemma": ".", "type": "SF", "position": 80, "weight": 1}
            ], 
            "morp_eval": [], 
            "WSD": [
                {"id": 0, "text": "이것", "type": "NP", "scode": "000001", "weight": 0.25, "position": 0, "begin": 0, "end": 0}, 
                {"id": 1, "text": "은", "type": "JX", "scode": "000000", "weight": 1, "position": 6, "begin": 1, "end": 1}, 
                {"id": 2, "text": "민속", "type": "NNG", "scode": "010000", "weight": 0.5, "position": 10, "begin": 2, "end": 2}, 
                {"id": 3, "text": "음악", "type": "NNG", "scode": "010000", "weight": 0.5, "position": 17, "begin": 3, "end": 3}, 
                {"id": 4, "text": "에서", "type": "JKB", "scode": "000000", "weight": 1, "position": 23, "begin": 4, "end": 4}, 
                {"id": 5, "text": "쓰", "type": "VV", "scode": "030101", "weight": 0.0384615, "position": 30, "begin": 5, "end": 5}, 
                {"id": 6, "text": "는", "type": "ETM", "scode": "000000", "weight": 1, "position": 33, "begin": 6, "end": 6}, 
                {"id": 7, "text": "판소리", "type": "NNG", "scode": "000000", "weight": 1, "position": 37, "begin": 7, "end": 7}, 
                {"id": 8, "text": "및", "type": "MAJ", "scode": "000000", "weight": 1, "position": 47, "begin": 8, "end": 8}, 
                {"id": 9, "text": "산조", "type": "NNG", "scode": "020000", "weight": 0.333333, "position": 51, "begin": 9, "end": 9}, 
                {"id": 10, "text": "장단", "type": "NNG", "scode": "010001", "weight": 0.2, "position": 58, "begin": 10, "end": 10}, 
                {"id": 11, "text": "의", "type": "JKG", "scode": "000000", "weight": 1, "position": 64, "begin": 11, "end": 11}, 
                {"id": 12, "text": "하나", "type": "NR", "scode": "000100", "weight": 0.166667, "position": 68, "begin": 12, "end": 12}, 
                {"id": 13, "text": "이", "type": "VCP", "scode": "030000", "weight": 0.0172414, "position": 74, "begin": 13, "end": 13}, 
                {"id": 14, "text": "다", "type": "EF", "scode": "000000", "weight": 1, "position": 77, "begin": 14, "end": 14}, 
                {"id": 15, "text": ".", "type": "SF", "scode": "000000", "weight": 1, "position": 80, "begin": 15, "end": 15}
            ], 
            "word": [
                {"id": 0, "text": "이것은", "type": "", "begin": 0, "end": 1}, 
                {"id": 1, "text": "민속", "type": "", "begin": 2, "end": 2}, 
                {"id": 2, "text": "음악에서", "type": "", "begin": 3, "end": 4}, 
                {"id": 3, "text": "쓰는", "type": "", "begin": 5, "end": 6}, 
                {"id": 4, "text": "판소리", "type": "", "begin": 7, "end": 7}, 
                {"id": 5, "text": "및", "type": "", "begin": 8, "end": 8}, 
                {"id": 6, "text": "산조", "type": "", "begin": 9, "end": 9}, 
                {"id": 7, "text": "장단의", "type": "", "begin": 10, "end": 11}, 
                {"id": 8, "text": "하나이다.", "type": "", "begin": 12, "end": 15}
            ], 
            "NE": [
                {"id": 0, "text": "민속 음악", "type": "FD_ART", "begin": 2, "end": 3, "weight": 0.531305, "common_noun": 0}, 
                {"id": 1, "text": "판소리", "type": "FD_ART", "begin": 7, "end": 7, "weight": 0.471985, "common_noun": 0}, 
                {"id": 2, "text": "산조", "type": "FD_ART", "begin": 9, "end": 9, "weight": 0.481079, "common_noun": 0}, 
                {"id": 3, "text": "하나", "type": "QT_COUNT", "begin": 12, "end": 12, "weight": 0.420524, "common_noun": 0}
            ], 
            "chunk": [], 
            "dependency": [
                {"id": 0, "text": "이것은", "head": 8, "label": "NP_SBJ", "mod": [], "weight": 0.903535}, 
                {"id": 1, "text": "민속", "head": 2, "label": "NP", "mod": [], "weight": 0.47457}, 
                {"id": 2, "text": "음악에서", "head": 3, "label": "NP_AJT", "mod": [1], "weight": 0.845019}, 
                {"id": 3, "text": "쓰는", "head": 7, "label": "VP_MOD", "mod": [2], "weight": 0.171667}, 
                {"id": 4, "text": "판소리", "head": 6, "label": "NP_CNJ", "mod": [], "weight": 0.0540444}, 
                {"id": 5, "text": "및", "head": 6, "label": "AP", "mod": [], "weight": 0.0820319}, 
                {"id": 6, "text": "산조", "head": 7, "label": "NP", "mod": [4, 5], "weight": 0.787789}, 
                {"id": 7, "text": "장단의", "head": 8, "label": "NP_MOD", "mod": [3, 6], "weight": 0.726233}, 
                {"id": 8, "text": "하나이다.", "head": -1, "label": "VNP", "mod": [0, 7], "weight": 0.000133871}
            ], 
            "SRL": [
                {"verb": "쓰", "sense": 1, "word_id": 3, "weight": 0.155842, "argument": [
                    {"type": "ARG2", "word_id": 2, "text": "음악에서", "weight": 0.130272}, 
                    {"type": "ARG1", "word_id": 7, "text": "장단의", "weight": 1}
                ]}
            ], 
            "relation": [], 
            "SA": [], 
            "ZA": []
        }, 
        {
            "id": 1, 
            "reserve_str": "", 
            "text": "24박 1장단으로 산조의 장단 중 가장 느린 속도인 이 장단은 무엇일까?", 
            "morp": [
                {"id": 0, "lemma": "24", "type": "SN", "position": 81, "weight": 1}, 
                {"id": 1, "lemma": "박", "type": "NNG", "position": 83, "weight": 0.00503528}, 
                {"id": 2, "lemma": "1", "type": "SN", "position": 87, "weight": 1}, 
                {"id": 3, "lemma": "장단", "type": "NNG", "position": 88, "weight": 0.0951722}, 
                {"id": 4, "lemma": "으로", "type": "JKB", "position": 94, "weight": 0.153406}, 
                {"id": 5, "lemma": "산조", "type": "NNG", "position": 101, "weight": 0.195043}, 
                {"id": 6, "lemma": "의", "type": "JKG", "position": 107, "weight": 0.0694213}, 
                {"id": 7, "lemma": "장단", "type": "NNG", "position": 111, "weight": 0.826795}, 
                {"id": 8, "lemma": "중", "type": "NNB", "position": 118, "weight": 0.013531}, 
                {"id": 9, "lemma": "가장", "type": "MAG", "position": 122, "weight": 0.0108373}, 
                {"id": 10, "lemma": "느리", "type": "VA", "position": 129, "weight": 0.9}, 
                {"id": 11, "lemma": "ㄴ", "type": "ETM", "position": 132, "weight": 0.430446}, 
                {"id": 12, "lemma": "속도", "type": "NNG", "position": 136, "weight": 0.9}, 
                {"id": 13, "lemma": "이", "type": "VCP", "position": 142, "weight": 0.0177525}, 
                {"id": 14, "lemma": "ㄴ", "type": "ETM", "position": 142, "weight": 0.220712}, 
                {"id": 15, "lemma": "이", "type": "MM", "position": 146, "weight": 0.00060084}, 
                {"id": 16, "lemma": "장단", "type": "NNG", "position": 150, "weight": 0.699671}, 
                {"id": 17, "lemma": "은", "type": "JX", "position": 156, "weight": 0.0449928}, 
                {"id": 18, "lemma": "무엇", "type": "NP", "position": 160, "weight": 0.9}, 
                {"id": 19, "lemma": "이", "type": "VCP", "position": 166, "weight": 0.0175768}, 
                {"id": 20, "lemma": "ㄹ까", "type": "EF", "position": 166, "weight": 0.258243}, 
                {"id": 21, "lemma": "?", "type": "SF", "position": 172, "weight": 1}
            ], 
            "morp_eval": [], 
            "WSD": [
                {"id": 0, "text": "24", "type": "SN", "scode": "000000", "weight": 1, "position": 81, "begin": 0, "end": 0}, 
                {"id": 1, "text": "박", "type": "NNG", "scode": "090002", "weight": 0.047619, "position": 83, "begin": 1, "end": 1}, 
                {"id": 2, "text": "1", "type": "SN", "scode": "000000", "weight": 1, "position": 87, "begin": 2, "end": 2}, 
                {"id": 3, "text": "장단", "type": "NNG", "scode": "010001", "weight": 0.2, "position": 88, "begin": 3, "end": 3}, 
                {"id": 4, "text": "으로", "type": "JKB", "scode": "000000", "weight": 1, "position": 94, "begin": 4, "end": 4}, 
                {"id": 5, "text": "산조", "type": "NNG", "scode": "020000", "weight": 0.333333, "position": 101, "begin": 5, "end": 5}, 
                {"id": 6, "text": "의", "type": "JKG", "scode": "000000", "weight": 1, "position": 107, "begin": 6, "end": 6}, 
                {"id": 7, "text": "장단", "type": "NNG", "scode": "010001", "weight": 0.2, "position": 111, "begin": 7, "end": 7}, 
                {"id": 8, "text": "중", "type": "NNB", "scode": "040101", "weight": 0.0526316, "position": 118, "begin": 8, "end": 8}, 
                {"id": 9, "text": "가장", "type": "MAG", "scode": "010000", "weight": 0.0555556, "position": 122, "begin": 9, "end": 9}, 
                {"id": 10, "text": "느리", "type": "VA", "scode": "010001", "weight": 0.125, "position": 129, "begin": 10, "end": 10}, 
                {"id": 11, "text": "ㄴ", "type": "ETM", "scode": "000000", "weight": 1, "position": 132, "begin": 11, "end": 11}, 
                {"id": 12, "text": "속도", "type": "NNG", "scode": "010001", "weight": 0.2, "position": 136, "begin": 12, "end": 12}, 
                {"id": 13, "text": "이", "type": "VCP", "scode": "030000", "weight": 0.0172414, "position": 142, "begin": 13, "end": 13}, 
                {"id": 14, "text": "ㄴ", "type": "ETM", "scode": "000000", "weight": 1, "position": 142, "begin": 14, "end": 14}, 
                {"id": 15, "text": "이", "type": "MM", "scode": "050002", "weight": 0.0172414, "position": 146, "begin": 15, "end": 15}, 
                {"id": 16, "text": "장단", "type": "NNG", "scode": "010001", "weight": 0.2, "position": 150, "begin": 16, "end": 16}, 
                {"id": 17, "text": "은", "type": "JX", "scode": "000000", "weight": 1, "position": 156, "begin": 17, "end": 17}, 
                {"id": 18, "text": "무엇", "type": "NP", "scode": "000001", "weight": 0.5, "position": 160, "begin": 18, "end": 18}, 
                {"id": 19, "text": "이", "type": "VCP", "scode": "030000", "weight": 0.0172414, "position": 166, "begin": 19, "end": 19}, 
                {"id": 20, "text": "ㄹ까", "type": "EF", "scode": "000000", "weight": 1, "position": 166, "begin": 20, "end": 20}, 
                {"id": 21, "text": "?", "type": "SF", "scode": "000000", "weight": 1, "position": 172, "begin": 21, "end": 21}
            ], 
            "word": [
                {"id": 0, "text": "24박", "type": "", "begin": 0, "end": 1}, 
                {"id": 1, "text": "1장단으로", "type": "", "begin": 2, "end": 4}, 
                {"id": 2, "text": "산조의", "type": "", "begin": 5, "end": 6}, 
                {"id": 3, "text": "장단", "type": "", "begin": 7, "end": 7}, 
                {"id": 4, "text": "중", "type": "", "begin": 8, "end": 8}, 
                {"id": 5, "text": "가장", "type": "", "begin": 9, "end": 9}, 
                {"id": 6, "text": "느린", "type": "", "begin": 10, "end": 11}, 
                {"id": 7, "text": "속도인", "type": "", "begin": 12, "end": 14}, 
                {"id": 8, "text": "이", "type": "", "begin": 15, "end": 15}, 
                {"id": 9, "text": "장단은", "type": "", "begin": 16, "end": 17}, 
                {"id": 10, "text": "무엇일까?", "type": "", "begin": 18, "end": 21}
            ], 
            "NE": [
                {"id": 0, "text": "24박", "type": "QT_COUNT", "begin": 0, "end": 1, "weight": 0.211268, "common_noun": 0}, 
                {"id": 1, "text": "1장단", "type": "QT_COUNT", "begin": 2, "end": 3, "weight": 0.319146, "common_noun": 0}, 
                {"id": 2, "text": "산조", "type": "FD_ART", "begin": 5, "end": 5, "weight": 0.428303, "common_noun": 0}
            ], 
            "chunk": [], 
            "dependency": [
                {"id": 0, "text": "24박", "head": 1, "label": "NP", "mod": [], "weight": 0.781606}, 
                {"id": 1, "text": "1장단으로", "head": 6, "label": "NP_AJT", "mod": [0], "weight": 0.618103}, 
                {"id": 2, "text": "산조의", "head": 3, "label": "NP_MOD", "mod": [], "weight": 0.679157}, 
                {"id": 3, "text": "장단", "head": 4, "label": "NP", "mod": [2], "weight": 0.709338}, 
                {"id": 4, "text": "중", "head": 6, "label": "NP_AJT", "mod": [3], "weight": 0.603305}, 
                {"id": 5, "text": "가장", "head": 6, "label": "AP", "mod": [], "weight": 0.847252}, 
                {"id": 6, "text": "느린", "head": 7, "label": "VP_MOD", "mod": [1, 4, 5], "weight": 0.707822}, 
                {"id": 7, "text": "속도인", "head": 9, "label": "VNP_MOD", "mod": [6], "weight": 0.748338}, 
                {"id": 8, "text": "이", "head": 9, "label": "DP", "mod": [], "weight": 0.656164}, 
                {"id": 9, "text": "장단은", "head": 10, "label": "NP_SBJ", "mod": [7, 8], "weight": 0.844202}, 
                {"id": 10, "text": "무엇일까?", "head": -1, "label": "VNP", "mod": [9], "weight": 0.0307238}
            ], 
            "SRL": [
                {"verb": "느리", "sense": 1, "word_id": 6, "weight": 0.172254, "argument": [
                    {"type": "ARGM-CND", "word_id": 1, "text": "1장단으로", "weight": 0.0895457}, 
                    {"type": "ARGM-CND", "word_id": 4, "text": "중", "weight": 0.162535}, 
                    {"type": "ARGM-EXT", "word_id": 5, "text": "가장", "weight": 0.301979}, 
                    {"type": "ARG1", "word_id": 7, "text": "속도인", "weight": 1}
                ]}
            ], 
            "relation": [], 
            "SA": [], 
            "ZA": []
        }
    ], 
    "entity": [
        {"id": 0, "type": "QT_COUNT", "number": "singular", "gender": "", "person": "", "animacy": "thing", "mention": [
            {"id": 0, "sent_id": 0, "start_eid": 0, "end_eid": 0, "ne_id": -1, "text": "이것은", "start_eid_short": 0, "end_eid_short": 0, "text_short": "이것은"}, 
            {"id": 1, "sent_id": 0, "start_eid": 1, "end_eid": 8, "ne_id": 3, "text": "민속 음악에서 쓰는 판소리 및 산조 장단의 하나이다.", "start_eid_short": 8, "end_eid_short": 8, "text_short": "하나이다."}, 
            {"id": 10, "sent_id": 1, "start_eid": 2, "end_eid": 7, "ne_id": -1, "text": "산조의 장단 중 가장 느린 속도인", "start_eid_short": 7, "end_eid_short": 7, "text_short": "속도인"}, 
            {"id": 13, "sent_id": 1, "start_eid": 8, "end_eid": 9, "ne_id": -1, "text": "이 장단은", "start_eid_short": 8, "end_eid_short": 9, "text_short": "이 장단은"}, 
            {"id": 14, "sent_id": 1, "start_eid": 10, "end_eid": 10, "ne_id": -1, "text": "무엇일까?", "start_eid_short": 10, "end_eid_short": 10, "text_short": "무엇일까?"}
        ]}, 
        {"id": 1, "type": "", "number": "singular", "gender": "", "person": "", "animacy": "thing", "mention": [
            {"id": 2, "sent_id": 0, "start_eid": 1, "end_eid": 7, "ne_id": -1, "text": "민속 음악에서 쓰는 판소리 및 산조 장단의", "start_eid_short": 6, "end_eid_short": 7, "text_short": "산조 장단의"}
        ]}, 
        {"id": 2, "type": "FD_ART", "number": "singular", "gender": "", "person": "", "animacy": "thing", "mention": [
            {"id": 3, "sent_id": 0, "start_eid": 1, "end_eid": 2, "ne_id": 0, "text": "민속 음악에서", "start_eid_short": 1, "end_eid_short": 2, "text_short": "민속 음악에서"}
        ]}, 
        {"id": 3, "type": "", "number": "singular", "gender": "", "person": "", "animacy": "thing", "mention": [
            {"id": 4, "sent_id": 0, "start_eid": 1, "end_eid": 1, "ne_id": -1, "text": "민속", "start_eid_short": 1, "end_eid_short": 1, "text_short": "민속"}
        ]}, 
        {"id": 4, "type": "FD_ART", "number": "singular", "gender": "", "person": "", "animacy": "thing", "mention": [
            {"id": 7, "sent_id": 0, "start_eid": 6, "end_eid": 6, "ne_id": 2, "text": "산조", "start_eid_short": 6, "end_eid_short": 6, "text_short": "산조"}, 
            {"id": 12, "sent_id": 1, "start_eid": 2, "end_eid": 2, "ne_id": 2, "text": "산조의", "start_eid_short": 2, "end_eid_short": 2, "text_short": "산조의"}
        ]}, 
        {"id": 5, "type": "QT_COUNT", "number": "singular", "gender": "", "person": "", "animacy": "thing", "mention": [
            {"id": 8, "sent_id": 1, "start_eid": 0, "end_eid": 1, "ne_id": 1, "text": "24박 1장단으로", "start_eid_short": 0, "end_eid_short": 1, "text_short": "24박 1장단으로"}
        ]}, 
        {"id": 6, "type": "DT_DURATION", "number": "singular", "gender": "", "person": "", "animacy": "time", "mention": [
            {"id": 9, "sent_id": 1, "start_eid": 0, "end_eid": 0, "ne_id": 0, "text": "24박", "start_eid_short": 0, "end_eid_short": 0, "text_short": "24박"}
        ]}, 
        {"id": 7, "type": "", "number": "singular", "gender": "", "person": "", "animacy": "thing", "mention": [
            {"id": 11, "sent_id": 1, "start_eid": 2, "end_eid": 3, "ne_id": -1, "text": "산조의 장단", "start_eid_short": 3, "end_eid_short": 3, "text_short": "장단"}
        ]}, 
        {"id": 8, "type": "FD_ART", "number": "singular", "gender": "", "person": "", "animacy": "thing", "mention": [
            {"id": 6, "sent_id": 0, "start_eid": 4, "end_eid": 4, "ne_id": 1, "text": "판소리", "start_eid_short": 4, "end_eid_short": 4, "text_short": "판소리"}
        ]}, 
        {"id": 9, "type": "FD_ART", "number": "singular", "gender": "", "person": "", "animacy": "thing", "mention": [
            {"id": 5, "sent_id": 0, "start_eid": 4, "end_eid": 6, "ne_id": 2, "text": "판소리 및 산조", "start_eid_short": 6, "end_eid_short": 6, "text_short": "산조"}
        ]}
    ]
}