{
    "doc_id": "E2016.789.07_A_02.json", 
    "DCT": "", 
    "category": "", 
    "category_weight": 0, 
    "title": {
        "text": "트로이 목마", 
        "NE": ""
    }, 
    "metaInfo": {}, 
    "sentence": [
        {
            "id": 0, 
            "reserve_str": "", 
            "text": "대부분 유명한 공개용 프로그램 이름을 하고 있지만 프로그램을 실행하면 시스템을 파괴하는 등의 일을 하는 것이다.", 
            "morp": [
                {"id": 0, "lemma": "대", "type": "XPN", "position": 0, "weight": 0.000255245}, 
                {"id": 1, "lemma": "부분", "type": "NNG", "position": 3, "weight": 0.9}, 
                {"id": 2, "lemma": "유명", "type": "NNG", "position": 10, "weight": 0.9}, 
                {"id": 3, "lemma": "하", "type": "XSA", "position": 16, "weight": 0.0001}, 
                {"id": 4, "lemma": "ㄴ", "type": "ETM", "position": 16, "weight": 0.488779}, 
                {"id": 5, "lemma": "공개", "type": "NNG", "position": 20, "weight": 0.9}, 
                {"id": 6, "lemma": "용", "type": "XSN", "position": 26, "weight": 0.0306307}, 
                {"id": 7, "lemma": "프로그램", "type": "NNG", "position": 30, "weight": 0.9}, 
                {"id": 8, "lemma": "이름", "type": "NNG", "position": 43, "weight": 0.9}, 
                {"id": 9, "lemma": "을", "type": "JKO", "position": 49, "weight": 0.129611}, 
                {"id": 10, "lemma": "하", "type": "VV", "position": 53, "weight": 0.48169}, 
                {"id": 11, "lemma": "고", "type": "EC", "position": 56, "weight": 0.416679}, 
                {"id": 12, "lemma": "있", "type": "VX", "position": 60, "weight": 0.125953}, 
                {"id": 13, "lemma": "지만", "type": "EC", "position": 63, "weight": 0.260728}, 
                {"id": 14, "lemma": "프로그램", "type": "NNG", "position": 70, "weight": 0.9}, 
                {"id": 15, "lemma": "을", "type": "JKO", "position": 82, "weight": 0.129611}, 
                {"id": 16, "lemma": "실행", "type": "NNG", "position": 86, "weight": 0.9}, 
                {"id": 17, "lemma": "하", "type": "XSV", "position": 92, "weight": 0.0001}, 
                {"id": 18, "lemma": "면", "type": "EC", "position": 95, "weight": 0.344962}, 
                {"id": 19, "lemma": "시스템", "type": "NNG", "position": 99, "weight": 0.9}, 
                {"id": 20, "lemma": "을", "type": "JKO", "position": 108, "weight": 0.129611}, 
                {"id": 21, "lemma": "파괴", "type": "NNG", "position": 112, "weight": 0.9}, 
                {"id": 22, "lemma": "하", "type": "XSV", "position": 118, "weight": 0.0001}, 
                {"id": 23, "lemma": "는", "type": "ETM", "position": 121, "weight": 0.238503}, 
                {"id": 24, "lemma": "등", "type": "NNB", "position": 125, "weight": 0.212402}, 
                {"id": 25, "lemma": "의", "type": "JKG", "position": 128, "weight": 0.0520933}, 
                {"id": 26, "lemma": "일", "type": "NNG", "position": 132, "weight": 0.557908}, 
                {"id": 27, "lemma": "을", "type": "JKO", "position": 135, "weight": 0.129611}, 
                {"id": 28, "lemma": "하", "type": "VV", "position": 139, "weight": 0.48169}, 
                {"id": 29, "lemma": "는", "type": "ETM", "position": 142, "weight": 0.184941}, 
                {"id": 30, "lemma": "것", "type": "NNB", "position": 146, "weight": 0.228788}, 
                {"id": 31, "lemma": "이", "type": "VCP", "position": 149, "weight": 0.0607843}, 
                {"id": 32, "lemma": "다", "type": "EF", "position": 152, "weight": 0.353579}, 
                {"id": 33, "lemma": ".", "type": "SF", "position": 155, "weight": 1}
            ], 
            "morp_eval": [], 
            "WSD": [
                {"id": 0, "text": "대부분", "type": "NNG", "scode": "000000", "weight": 1, "position": 0, "begin": 0, "end": 1}, 
                {"id": 1, "text": "유명하", "type": "VA", "scode": "010000", "weight": 0.5, "position": 10, "begin": 2, "end": 3}, 
                {"id": 2, "text": "ㄴ", "type": "ETM", "scode": "000000", "weight": 1, "position": 16, "begin": 4, "end": 4}, 
                {"id": 3, "text": "공개", "type": "NNG", "scode": "020000", "weight": 0.333333, "position": 20, "begin": 5, "end": 5}, 
                {"id": 4, "text": "용", "type": "XSN", "scode": "110000", "weight": 0.0909091, "position": 26, "begin": 6, "end": 6}, 
                {"id": 5, "text": "프로그램", "type": "NNG", "scode": "000003", "weight": 0.333333, "position": 30, "begin": 7, "end": 7}, 
                {"id": 6, "text": "이름", "type": "NNG", "scode": "000001", "weight": 0.111111, "position": 43, "begin": 8, "end": 8}, 
                {"id": 7, "text": "을", "type": "JKO", "scode": "000000", "weight": 1, "position": 49, "begin": 9, "end": 9}, 
                {"id": 8, "text": "하", "type": "VV", "scode": "010101", "weight": 0.02, "position": 53, "begin": 10, "end": 10}, 
                {"id": 9, "text": "고", "type": "EC", "scode": "000000", "weight": 1, "position": 56, "begin": 11, "end": 11}, 
                {"id": 10, "text": "있", "type": "VX", "scode": "010902", "weight": 0.0416667, "position": 60, "begin": 12, "end": 12}, 
                {"id": 11, "text": "지만", "type": "EC", "scode": "000000", "weight": 1, "position": 63, "begin": 13, "end": 13}, 
                {"id": 12, "text": "프로그램", "type": "NNG", "scode": "000003", "weight": 0.333333, "position": 70, "begin": 14, "end": 14}, 
                {"id": 13, "text": "을", "type": "JKO", "scode": "000000", "weight": 1, "position": 82, "begin": 15, "end": 15}, 
                {"id": 14, "text": "실행하", "type": "VV", "scode": "020001", "weight": 0.333333, "position": 86, "begin": 16, "end": 17}, 
                {"id": 15, "text": "면", "type": "EC", "scode": "000000", "weight": 1, "position": 95, "begin": 18, "end": 18}, 
                {"id": 16, "text": "시스템", "type": "NNG", "scode": "000000", "weight": 1, "position": 99, "begin": 19, "end": 19}, 
                {"id": 17, "text": "을", "type": "JKO", "scode": "000000", "weight": 1, "position": 108, "begin": 20, "end": 20}, 
                {"id": 18, "text": "파괴하", "type": "VV", "scode": "000101", "weight": 0.333333, "position": 112, "begin": 21, "end": 22}, 
                {"id": 19, "text": "는", "type": "ETM", "scode": "000000", "weight": 1, "position": 121, "begin": 23, "end": 23}, 
                {"id": 20, "text": "등", "type": "NNB", "scode": "050001", "weight": 0.0526316, "position": 125, "begin": 24, "end": 24}, 
                {"id": 21, "text": "의", "type": "JKG", "scode": "000000", "weight": 1, "position": 128, "begin": 25, "end": 25}, 
                {"id": 22, "text": "일", "type": "NNG", "scode": "010010", "weight": 0.04, "position": 132, "begin": 26, "end": 26}, 
                {"id": 23, "text": "을", "type": "JKO", "scode": "000000", "weight": 1, "position": 135, "begin": 27, "end": 27}, 
                {"id": 24, "text": "하", "type": "VV", "scode": "010101", "weight": 0.02, "position": 139, "begin": 28, "end": 28}, 
                {"id": 25, "text": "는", "type": "ETM", "scode": "000000", "weight": 1, "position": 142, "begin": 29, "end": 29}, 
                {"id": 26, "text": "것", "type": "NNB", "scode": "010001", "weight": 0.125, "position": 146, "begin": 30, "end": 30}, 
                {"id": 27, "text": "이", "type": "VCP", "scode": "030000", "weight": 0.0172414, "position": 149, "begin": 31, "end": 31}, 
                {"id": 28, "text": "다", "type": "EF", "scode": "000000", "weight": 1, "position": 152, "begin": 32, "end": 32}, 
                {"id": 29, "text": ".", "type": "SF", "scode": "000000", "weight": 1, "position": 155, "begin": 33, "end": 33}
            ], 
            "word": [
                {"id": 0, "text": "대부분", "type": "", "begin": 0, "end": 1}, 
                {"id": 1, "text": "유명한", "type": "", "begin": 2, "end": 4}, 
                {"id": 2, "text": "공개용", "type": "", "begin": 5, "end": 6}, 
                {"id": 3, "text": "프로그램", "type": "", "begin": 7, "end": 7}, 
                {"id": 4, "text": "이름을", "type": "", "begin": 8, "end": 9}, 
                {"id": 5, "text": "하고", "type": "", "begin": 10, "end": 11}, 
                {"id": 6, "text": "있지만", "type": "", "begin": 12, "end": 13}, 
                {"id": 7, "text": "프로그램을", "type": "", "begin": 14, "end": 15}, 
                {"id": 8, "text": "실행하면", "type": "", "begin": 16, "end": 18}, 
                {"id": 9, "text": "시스템을", "type": "", "begin": 19, "end": 20}, 
                {"id": 10, "text": "파괴하는", "type": "", "begin": 21, "end": 23}, 
                {"id": 11, "text": "등의", "type": "", "begin": 24, "end": 25}, 
                {"id": 12, "text": "일을", "type": "", "begin": 26, "end": 27}, 
                {"id": 13, "text": "하는", "type": "", "begin": 28, "end": 29}, 
                {"id": 14, "text": "것이다.", "type": "", "begin": 30, "end": 33}
            ], 
            "NE": [], 
            "chunk": [], 
            "dependency": [
                {"id": 0, "text": "대부분", "head": 5, "label": "NP_SBJ", "mod": [], "weight": 0.65921}, 
                {"id": 1, "text": "유명한", "head": 4, "label": "VP_MOD", "mod": [], "weight": 0.72343}, 
                {"id": 2, "text": "공개용", "head": 3, "label": "NP", "mod": [], "weight": 0.547695}, 
                {"id": 3, "text": "프로그램", "head": 4, "label": "NP", "mod": [2], "weight": 0.662071}, 
                {"id": 4, "text": "이름을", "head": 5, "label": "NP_OBJ", "mod": [1, 3], "weight": 0.795873}, 
                {"id": 5, "text": "하고", "head": 6, "label": "VP", "mod": [0, 4], "weight": 0.778054}, 
                {"id": 6, "text": "있지만", "head": 13, "label": "VP", "mod": [5], "weight": 0.651745}, 
                {"id": 7, "text": "프로그램을", "head": 8, "label": "NP_OBJ", "mod": [], "weight": 0.779037}, 
                {"id": 8, "text": "실행하면", "head": 10, "label": "VP", "mod": [7], "weight": 0.174577}, 
                {"id": 9, "text": "시스템을", "head": 10, "label": "NP_OBJ", "mod": [], "weight": 0.780517}, 
                {"id": 10, "text": "파괴하는", "head": 11, "label": "VP_MOD", "mod": [8, 9], "weight": 0.647386}, 
                {"id": 11, "text": "등의", "head": 12, "label": "NP_MOD", "mod": [10], "weight": 0.627038}, 
                {"id": 12, "text": "일을", "head": 13, "label": "NP_OBJ", "mod": [11], "weight": 0.787356}, 
                {"id": 13, "text": "하는", "head": 14, "label": "VP_MOD", "mod": [6, 12], "weight": 0.787381}, 
                {"id": 14, "text": "것이다.", "head": -1, "label": "VNP", "mod": [13], "weight": 0.0013667}
            ], 
            "SRL": [
                {"verb": "유명", "sense": 1, "word_id": 1, "weight": 0, "argument": [
                    {"type": "ARG1", "word_id": 4, "text": "이름을", "weight": 1}
                ]}, 
                {"verb": "하", "sense": 1, "word_id": 5, "weight": 0.369901, "argument": [
                    {"type": "ARGM-ADV", "word_id": 0, "text": "대부분", "weight": 0.124119}, 
                    {"type": "ARG1", "word_id": 4, "text": "이름을", "weight": 0.277272}, 
                    {"type": "AUX", "word_id": 6, "text": "있지만", "weight": 0.462531}
                ]}, 
                {"verb": "실행", "sense": 1, "word_id": 8, "weight": 0.303589, "argument": [
                    {"type": "ARG1", "word_id": 7, "text": "프로그램을", "weight": 0.303589}
                ]}, 
                {"verb": "파괴", "sense": 1, "word_id": 10, "weight": 0.167188, "argument": [
                    {"type": "ARGM-CND", "word_id": 8, "text": "실행하면", "weight": 0.10594}, 
                    {"type": "ARG1", "word_id": 9, "text": "시스템을", "weight": 0.228436}, 
                    {"type": "ARG0", "word_id": 7, "text": "프로그램을", "weight": 1}
                ]}, 
                {"verb": "하", "sense": 1, "word_id": 13, "weight": 0.348291, "argument": [
                    {"type": "ARG1", "word_id": 12, "text": "일을", "weight": 0.348291}, 
                    {"type": "ARG0", "word_id": 14, "text": "것이다.", "weight": 1}
                ]}
            ], 
            "relation": [], 
            "SA": [], 
            "ZA": []
        }
    ], 
    "entity": [
        {"id": 0, "type": "", "number": "singular", "gender": "", "person": "", "animacy": "thing", "mention": [
            {"id": 0, "sent_id": 0, "start_eid": 0, "end_eid": 0, "ne_id": -1, "text": "대부분", "start_eid_short": 0, "end_eid_short": 0, "text_short": "대부분"}
        ]}, 
        {"id": 1, "type": "", "number": "singular", "gender": "", "person": "", "animacy": "thing", "mention": [
            {"id": 2, "sent_id": 0, "start_eid": 1, "end_eid": 3, "ne_id": -1, "text": "유명한 공개용 프로그램", "start_eid_short": 2, "end_eid_short": 3, "text_short": "공개용 프로그램"}
        ]}, 
        {"id": 2, "type": "", "number": "singular", "gender": "", "person": "", "animacy": "thing", "mention": [
            {"id": 3, "sent_id": 0, "start_eid": 2, "end_eid": 2, "ne_id": -1, "text": "공개용", "start_eid_short": 2, "end_eid_short": 2, "text_short": "공개용"}
        ]}, 
        {"id": 3, "type": "", "number": "singular", "gender": "", "person": "", "animacy": "thing", "mention": [
            {"id": 1, "sent_id": 0, "start_eid": 1, "end_eid": 4, "ne_id": -1, "text": "유명한 공개용 프로그램 이름을", "start_eid_short": 2, "end_eid_short": 4, "text_short": "공개용 프로그램 이름을"}
        ]}, 
        {"id": 4, "type": "", "number": "singular", "gender": "", "person": "", "animacy": "thing", "mention": [
            {"id": 6, "sent_id": 0, "start_eid": 7, "end_eid": 11, "ne_id": -1, "text": "프로그램을 실행하면 시스템을 파괴하는 등의", "start_eid_short": 11, "end_eid_short": 11, "text_short": "등의"}
        ]}, 
        {"id": 5, "type": "", "number": "singular", "gender": "", "person": "", "animacy": "thing", "mention": [
            {"id": 7, "sent_id": 0, "start_eid": 7, "end_eid": 7, "ne_id": -1, "text": "프로그램을", "start_eid_short": 7, "end_eid_short": 7, "text_short": "프로그램을"}
        ]}, 
        {"id": 6, "type": "", "number": "singular", "gender": "", "person": "", "animacy": "thing", "mention": [
            {"id": 8, "sent_id": 0, "start_eid": 9, "end_eid": 9, "ne_id": -1, "text": "시스템을", "start_eid_short": 9, "end_eid_short": 9, "text_short": "시스템을"}
        ]}, 
        {"id": 7, "type": "", "number": "singular", "gender": "", "person": "", "animacy": "thing", "mention": [
            {"id": 5, "sent_id": 0, "start_eid": 7, "end_eid": 12, "ne_id": -1, "text": "프로그램을 실행하면 시스템을 파괴하는 등의 일을", "start_eid_short": 12, "end_eid_short": 12, "text_short": "일을"}
        ]}, 
        {"id": 8, "type": "", "number": "singular", "gender": "", "person": "", "animacy": "thing", "mention": [
            {"id": 4, "sent_id": 0, "start_eid": 7, "end_eid": 14, "ne_id": -1, "text": "프로그램을 실행하면 시스템을 파괴하는 등의 일을 하는 것이다.", "start_eid_short": 14, "end_eid_short": 14, "text_short": "것이다."}
        ]}
    ]
}