{
    "doc_id": "E2016.788.28_A_01.json", 
    "DCT": "", 
    "category": "", 
    "category_weight": 0, 
    "title": {
        "text": "마호메트", 
        "NE": ""
    }, 
    "metaInfo": {}, 
    "sentence": [
        {
            "id": 0, 
            "reserve_str": "", 
            "text": "<인명> 이슬람교의 창시자(570~632).", 
            "morp": [
                {"id": 0, "lemma": "<", "type": "SS", "position": 0, "weight": 1}, 
                {"id": 1, "lemma": "인명", "type": "NNG", "position": 1, "weight": 0.153379}, 
                {"id": 2, "lemma": ">", "type": "SS", "position": 7, "weight": 1}, 
                {"id": 3, "lemma": "이슬람", "type": "NNG", "position": 9, "weight": 0.187542}, 
                {"id": 4, "lemma": "교", "type": "NNG", "position": 18, "weight": 0.161048}, 
                {"id": 5, "lemma": "의", "type": "JKG", "position": 21, "weight": 0.0694213}, 
                {"id": 6, "lemma": "창시", "type": "NNG", "position": 25, "weight": 0.45}, 
                {"id": 7, "lemma": "자", "type": "XSN", "position": 31, "weight": 0.00398741}, 
                {"id": 8, "lemma": "(", "type": "SS", "position": 34, "weight": 1}, 
                {"id": 9, "lemma": "570", "type": "SN", "position": 35, "weight": 1}, 
                {"id": 10, "lemma": "~", "type": "SO", "position": 38, "weight": 1}, 
                {"id": 11, "lemma": "632", "type": "SN", "position": 39, "weight": 1}, 
                {"id": 12, "lemma": ")", "type": "SS", "position": 42, "weight": 1}, 
                {"id": 13, "lemma": ".", "type": "SF", "position": 43, "weight": 1}
            ], 
            "morp_eval": [], 
            "WSD": [
                {"id": 0, "text": "<", "type": "SS", "scode": "000000", "weight": 1, "position": 0, "begin": 0, "end": 0}, 
                {"id": 1, "text": "인명", "type": "NNG", "scode": "010000", "weight": 0.2, "position": 1, "begin": 1, "end": 1}, 
                {"id": 2, "text": ">", "type": "SS", "scode": "000000", "weight": 1, "position": 7, "begin": 2, "end": 2}, 
                {"id": 3, "text": "이슬람교", "type": "NNG", "scode": "000000", "weight": 1, "position": 9, "begin": 3, "end": 4}, 
                {"id": 4, "text": "의", "type": "JKG", "scode": "000000", "weight": 1, "position": 21, "begin": 5, "end": 5}, 
                {"id": 5, "text": "창시자", "type": "NNG", "scode": "000000", "weight": 1, "position": 25, "begin": 6, "end": 7}, 
                {"id": 6, "text": "(", "type": "SS", "scode": "000000", "weight": 1, "position": 34, "begin": 8, "end": 8}, 
                {"id": 7, "text": "570", "type": "SN", "scode": "000000", "weight": 1, "position": 35, "begin": 9, "end": 9}, 
                {"id": 8, "text": "~", "type": "SO", "scode": "000000", "weight": 1, "position": 38, "begin": 10, "end": 10}, 
                {"id": 9, "text": "632", "type": "SN", "scode": "000000", "weight": 1, "position": 39, "begin": 11, "end": 11}, 
                {"id": 10, "text": ")", "type": "SS", "scode": "000000", "weight": 1, "position": 42, "begin": 12, "end": 12}, 
                {"id": 11, "text": ".", "type": "SF", "scode": "000000", "weight": 1, "position": 43, "begin": 13, "end": 13}
            ], 
            "word": [
                {"id": 0, "text": "<인명>", "type": "", "begin": 0, "end": 2}, 
                {"id": 1, "text": "이슬람교의", "type": "", "begin": 3, "end": 5}, 
                {"id": 2, "text": "창시자(570~632).", "type": "", "begin": 6, "end": 13}
            ], 
            "NE": [
                {"id": 0, "text": "이슬람교", "type": "OGG_RELIGION", "begin": 3, "end": 4, "weight": 0.53579, "common_noun": 0}, 
                {"id": 1, "text": "570~632", "type": "QT_OTHERS", "begin": 9, "end": 11, "weight": 0.419971, "common_noun": 0}, 
                {"id": 2, "text": "창시자", "type": "CV_POSITION", "begin": 6, "end": 7, "weight": 0.419971, "common_noun": 0}
            ], 
            "chunk": [], 
            "dependency": [
                {"id": 0, "text": "<인명>", "head": 2, "label": "NP", "mod": [], "weight": 0.850272}, 
                {"id": 1, "text": "이슬람교의", "head": 2, "label": "NP_MOD", "mod": [], "weight": 0.746793}, 
                {"id": 2, "text": "창시자(570~632).", "head": -1, "label": "NP", "mod": [0, 1], "weight": 0.505027}
            ], 
            "SRL": [], 
            "relation": [], 
            "SA": [], 
            "ZA": []
        }
    ], 
    "entity": [
        {"id": 0, "type": "OGG_RELIGION", "number": "singular", "gender": "", "person": "", "animacy": "thing", "mention": [
            {"id": 1, "sent_id": 0, "start_eid": 1, "end_eid": 1, "ne_id": 0, "text": "이슬람교의", "start_eid_short": 1, "end_eid_short": 1, "text_short": "이슬람교의"}
        ]}, 
        {"id": 1, "type": "QT_OTHERS", "number": "singular", "gender": "", "person": "", "animacy": "thing", "mention": [
            {"id": 0, "sent_id": 0, "start_eid": 1, "end_eid": 2, "ne_id": 1, "text": "이슬람교의 창시자(570~632).", "start_eid_short": 2, "end_eid_short": 2, "text_short": "창시자(570~632)."}
        ]}
    ]
}