{
    "doc_id": "E2016.789.01_A_02.json", 
    "DCT": "", 
    "category": "", 
    "category_weight": 0, 
    "title": {
        "text": "낙성대", 
        "NE": ""
    }, 
    "metaInfo": {}, 
    "sentence": [
        {
            "id": 0, 
            "reserve_str": "", 
            "text": "<지명> 서울특별시 관악구 봉천동에 있는 강감찬 장군의 출생지.", 
            "morp": [
                {"id": 0, "lemma": "<", "type": "SS", "position": 0, "weight": 1}, 
                {"id": 1, "lemma": "지명", "type": "NNG", "position": 1, "weight": 0.164578}, 
                {"id": 2, "lemma": ">", "type": "SS", "position": 7, "weight": 1}, 
                {"id": 3, "lemma": "서울특별시", "type": "NNP", "position": 9, "weight": 0.9}, 
                {"id": 4, "lemma": "관악구", "type": "NNP", "position": 25, "weight": 0.9}, 
                {"id": 5, "lemma": "봉천동", "type": "NNP", "position": 35, "weight": 0.9}, 
                {"id": 6, "lemma": "에", "type": "JKB", "position": 44, "weight": 0.0823628}, 
                {"id": 7, "lemma": "있", "type": "VA", "position": 48, "weight": 0.037292}, 
                {"id": 8, "lemma": "는", "type": "ETM", "position": 51, "weight": 0.26168}, 
                {"id": 9, "lemma": "강감찬", "type": "NNP", "position": 55, "weight": 0.65}, 
                {"id": 10, "lemma": "장군", "type": "NNG", "position": 65, "weight": 0.28142}, 
                {"id": 11, "lemma": "의", "type": "JKG", "position": 71, "weight": 0.0694213}, 
                {"id": 12, "lemma": "출생", "type": "NNG", "position": 75, "weight": 0.9}, 
                {"id": 13, "lemma": "지", "type": "XSN", "position": 81, "weight": 0.000168337}, 
                {"id": 14, "lemma": ".", "type": "SF", "position": 84, "weight": 1}
            ], 
            "morp_eval": [], 
            "WSD": [
                {"id": 0, "text": "<", "type": "SS", "scode": "000000", "weight": 1, "position": 0, "begin": 0, "end": 0}, 
                {"id": 1, "text": "지명", "type": "NNG", "scode": "010000", "weight": 0.0909091, "position": 1, "begin": 1, "end": 1}, 
                {"id": 2, "text": ">", "type": "SS", "scode": "000000", "weight": 1, "position": 7, "begin": 2, "end": 2}, 
                {"id": 3, "text": "서울특별시", "type": "NNP", "scode": "000000", "weight": 1, "position": 9, "begin": 3, "end": 3}, 
                {"id": 4, "text": "관악구", "type": "NNP", "scode": "000000", "weight": 0, "position": 25, "begin": 4, "end": 4}, 
                {"id": 5, "text": "봉천동", "type": "NNP", "scode": "000000", "weight": 0, "position": 35, "begin": 5, "end": 5}, 
                {"id": 6, "text": "에", "type": "JKB", "scode": "000000", "weight": 1, "position": 44, "begin": 6, "end": 6}, 
                {"id": 7, "text": "있", "type": "VA", "scode": "010301", "weight": 0.0416667, "position": 48, "begin": 7, "end": 7}, 
                {"id": 8, "text": "는", "type": "ETM", "scode": "000000", "weight": 1, "position": 51, "begin": 8, "end": 8}, 
                {"id": 9, "text": "강감찬", "type": "NNP", "scode": "000000", "weight": 1, "position": 55, "begin": 9, "end": 9}, 
                {"id": 10, "text": "장군", "type": "NNG", "scode": "040001", "weight": 0.0666667, "position": 65, "begin": 10, "end": 10}, 
                {"id": 11, "text": "의", "type": "JKG", "scode": "000000", "weight": 1, "position": 71, "begin": 11, "end": 11}, 
                {"id": 12, "text": "출생지", "type": "NNG", "scode": "000000", "weight": 1, "position": 75, "begin": 12, "end": 13}, 
                {"id": 13, "text": ".", "type": "SF", "scode": "000000", "weight": 1, "position": 84, "begin": 14, "end": 14}
            ], 
            "word": [
                {"id": 0, "text": "<지명>", "type": "", "begin": 0, "end": 2}, 
                {"id": 1, "text": "서울특별시", "type": "", "begin": 3, "end": 3}, 
                {"id": 2, "text": "관악구", "type": "", "begin": 4, "end": 4}, 
                {"id": 3, "text": "봉천동에", "type": "", "begin": 5, "end": 6}, 
                {"id": 4, "text": "있는", "type": "", "begin": 7, "end": 8}, 
                {"id": 5, "text": "강감찬", "type": "", "begin": 9, "end": 9}, 
                {"id": 6, "text": "장군의", "type": "", "begin": 10, "end": 11}, 
                {"id": 7, "text": "출생지.", "type": "", "begin": 12, "end": 14}
            ], 
            "NE": [
                {"id": 0, "text": "서울특별시", "type": "LCP_CAPITALCITY", "begin": 3, "end": 3, "weight": 0.871569, "common_noun": 0}, 
                {"id": 1, "text": "관악구", "type": "LCP_COUNTY", "begin": 4, "end": 4, "weight": 0.765493, "common_noun": 0}, 
                {"id": 2, "text": "봉천동", "type": "LCP_COUNTY", "begin": 5, "end": 5, "weight": 0.672281, "common_noun": 0}, 
                {"id": 3, "text": "강감찬", "type": "PS_NAME", "begin": 9, "end": 9, "weight": 0.613714, "common_noun": 0}, 
                {"id": 4, "text": "장군", "type": "CV_POSITION", "begin": 10, "end": 10, "weight": 0.667628, "common_noun": 0}
            ], 
            "chunk": [], 
            "dependency": [
                {"id": 0, "text": "<지명>", "head": 7, "label": "NP", "mod": [], "weight": 0.877344}, 
                {"id": 1, "text": "서울특별시", "head": 2, "label": "NP", "mod": [], "weight": 0.656}, 
                {"id": 2, "text": "관악구", "head": 3, "label": "NP", "mod": [1], "weight": 0.604166}, 
                {"id": 3, "text": "봉천동에", "head": 4, "label": "NP_AJT", "mod": [2], "weight": 0.862413}, 
                {"id": 4, "text": "있는", "head": 7, "label": "VP_MOD", "mod": [3], "weight": 0.817107}, 
                {"id": 5, "text": "강감찬", "head": 6, "label": "NP", "mod": [], "weight": 0.729057}, 
                {"id": 6, "text": "장군의", "head": 7, "label": "NP_MOD", "mod": [5], "weight": 0.805624}, 
                {"id": 7, "text": "출생지.", "head": -1, "label": "NP", "mod": [0, 4, 6], "weight": 0.122241}
            ], 
            "SRL": [
                {"verb": "있", "sense": 1, "word_id": 4, "weight": 0.18878, "argument": [
                    {"type": "ARG2", "word_id": 3, "text": "봉천동에", "weight": 0.167204}, 
                    {"type": "ARG1", "word_id": 7, "text": "출생지.", "weight": 0.210355}
                ]}
            ], 
            "relation": [], 
            "SA": [], 
            "ZA": []
        }
    ], 
    "entity": [
        {"id": 0, "type": "LCP_COUNTY", "number": "singular", "gender": "", "person": "", "animacy": "place", "mention": [
            {"id": 2, "sent_id": 0, "start_eid": 1, "end_eid": 2, "ne_id": 1, "text": "서울특별시 관악구", "start_eid_short": 1, "end_eid_short": 2, "text_short": "서울특별시 관악구"}
        ]}, 
        {"id": 1, "type": "LCP_CAPITALCITY", "number": "singular", "gender": "", "person": "", "animacy": "place", "mention": [
            {"id": 3, "sent_id": 0, "start_eid": 1, "end_eid": 1, "ne_id": 0, "text": "서울특별시", "start_eid_short": 1, "end_eid_short": 1, "text_short": "서울특별시"}
        ]}, 
        {"id": 2, "type": "LCP_COUNTY", "number": "singular", "gender": "", "person": "", "animacy": "place", "mention": [
            {"id": 1, "sent_id": 0, "start_eid": 1, "end_eid": 3, "ne_id": 2, "text": "서울특별시 관악구 봉천동에", "start_eid_short": 1, "end_eid_short": 3, "text_short": "서울특별시 관악구 봉천동에"}
        ]}, 
        {"id": 3, "type": "CV_POSITION", "number": "singular", "gender": "", "person": "", "animacy": "human", "mention": [
            {"id": 4, "sent_id": 0, "start_eid": 5, "end_eid": 6, "ne_id": 4, "text": "강감찬 장군의", "start_eid_short": 5, "end_eid_short": 6, "text_short": "강감찬 장군의"}, 
            {"id": 5, "sent_id": 0, "start_eid": 5, "end_eid": 5, "ne_id": 3, "text": "강감찬", "start_eid_short": 5, "end_eid_short": 5, "text_short": "강감찬"}
        ]}, 
        {"id": 4, "type": "", "number": "singular", "gender": "", "person": "", "animacy": "thing", "mention": [
            {"id": 0, "sent_id": 0, "start_eid": 1, "end_eid": 7, "ne_id": -1, "text": "서울특별시 관악구 봉천동에 있는 강감찬 장군의 출생지.", "start_eid_short": 7, "end_eid_short": 7, "text_short": "출생지."}
        ]}
    ]
}