{
    "doc_id": "E2016.835.13_Q_01.json", 
    "DCT": "", 
    "category": "", 
    "category_weight": 0, 
    "title": {
        "text": "", 
        "NE": ""
    }, 
    "metaInfo": {}, 
    "sentence": [
        {
            "id": 0, 
            "reserve_str": "", 
            "text": "마케도니아의 왕이다.", 
            "morp": [
                {"id": 0, "lemma": "마케도니아", "type": "NNP", "position": 0, "weight": 0.0759994}, 
                {"id": 1, "lemma": "의", "type": "JKG", "position": 15, "weight": 0.0987295}, 
                {"id": 2, "lemma": "왕", "type": "NNG", "position": 19, "weight": 0.793674}, 
                {"id": 3, "lemma": "이", "type": "VCP", "position": 22, "weight": 0.0177525}, 
                {"id": 4, "lemma": "다", "type": "EF", "position": 25, "weight": 0.353579}, 
                {"id": 5, "lemma": ".", "type": "SF", "position": 28, "weight": 1}
            ], 
            "morp_eval": [], 
            "WSD": [
                {"id": 0, "text": "마케도니아", "type": "NNP", "scode": "010002", "weight": 0.333333, "position": 0, "begin": 0, "end": 0}, 
                {"id": 1, "text": "의", "type": "JKG", "scode": "000000", "weight": 1, "position": 15, "begin": 1, "end": 1}, 
                {"id": 2, "text": "왕", "type": "NNG", "scode": "040001", "weight": 0.0833333, "position": 19, "begin": 2, "end": 2}, 
                {"id": 3, "text": "이", "type": "VCP", "scode": "030000", "weight": 0.0172414, "position": 22, "begin": 3, "end": 3}, 
                {"id": 4, "text": "다", "type": "EF", "scode": "000000", "weight": 1, "position": 25, "begin": 4, "end": 4}, 
                {"id": 5, "text": ".", "type": "SF", "scode": "000000", "weight": 1, "position": 28, "begin": 5, "end": 5}
            ], 
            "word": [
                {"id": 0, "text": "마케도니아의", "type": "", "begin": 0, "end": 1}, 
                {"id": 1, "text": "왕이다.", "type": "", "begin": 2, "end": 5}
            ], 
            "NE": [
                {"id": 0, "text": "마케도니아", "type": "LCP_COUNTRY", "begin": 0, "end": 0, "weight": 0.304155, "common_noun": 0}, 
                {"id": 1, "text": "왕", "type": "CV_POSITION", "begin": 2, "end": 2, "weight": 0.392929, "common_noun": 0}
            ], 
            "chunk": [], 
            "dependency": [
                {"id": 0, "text": "마케도니아의", "head": 1, "label": "NP_MOD", "mod": [], "weight": 0.766618}, 
                {"id": 1, "text": "왕이다.", "head": -1, "label": "VNP", "mod": [0], "weight": 0.635165}
            ], 
            "SRL": [], 
            "relation": [], 
            "SA": [], 
            "ZA": []
        }, 
        {
            "id": 1, 
            "reserve_str": "", 
            "text": "그리스ㆍ페르시아ㆍ인도에 이르는 대제국을 건설해 그리스 문화와 오리엔트 문화를 융합시킨 새로운 헬레니즘 문화를 이룩한 이 사람은?", 
            "morp": [
                {"id": 0, "lemma": "그리스", "type": "NNP", "position": 29, "weight": 0.0881537}, 
                {"id": 1, "lemma": "ㆍ", "type": "SP", "position": 38, "weight": 1}, 
                {"id": 2, "lemma": "페르시아", "type": "NNP", "position": 41, "weight": 0.0677043}, 
                {"id": 3, "lemma": "ㆍ", "type": "SP", "position": 53, "weight": 1}, 
                {"id": 4, "lemma": "인도", "type": "NNP", "position": 56, "weight": 0.107935}, 
                {"id": 5, "lemma": "에", "type": "JKB", "position": 62, "weight": 0.0823628}, 
                {"id": 6, "lemma": "이르", "type": "VV", "position": 66, "weight": 0.434887}, 
                {"id": 7, "lemma": "는", "type": "ETM", "position": 72, "weight": 0.184941}, 
                {"id": 8, "lemma": "대", "type": "XPN", "position": 76, "weight": 0.00011884}, 
                {"id": 9, "lemma": "제국", "type": "NNG", "position": 79, "weight": 0.47354}, 
                {"id": 10, "lemma": "을", "type": "JKO", "position": 85, "weight": 0.129611}, 
                {"id": 11, "lemma": "건설", "type": "NNG", "position": 89, "weight": 0.9}, 
                {"id": 12, "lemma": "하", "type": "XSV", "position": 95, "weight": 0.0001}, 
                {"id": 13, "lemma": "아", "type": "EC", "position": 95, "weight": 0.361326}, 
                {"id": 14, "lemma": "그리스", "type": "NNP", "position": 99, "weight": 0.0216912}, 
                {"id": 15, "lemma": "문화", "type": "NNG", "position": 109, "weight": 0.281422}, 
                {"id": 16, "lemma": "와", "type": "JC", "position": 115, "weight": 0.0169714}, 
                {"id": 17, "lemma": "오리엔트", "type": "NNG", "position": 119, "weight": 0.728374}, 
                {"id": 18, "lemma": "문화", "type": "NNG", "position": 132, "weight": 0.184467}, 
                {"id": 19, "lemma": "를", "type": "JKO", "position": 138, "weight": 0.137686}, 
                {"id": 20, "lemma": "융합", "type": "NNG", "position": 142, "weight": 0.9}, 
                {"id": 21, "lemma": "시키", "type": "XSV", "position": 148, "weight": 0.00340357}, 
                {"id": 22, "lemma": "ㄴ", "type": "ETM", "position": 151, "weight": 0.392321}, 
                {"id": 23, "lemma": "새롭", "type": "VA", "position": 155, "weight": 0.9}, 
                {"id": 24, "lemma": "ㄴ", "type": "ETM", "position": 158, "weight": 0.430446}, 
                {"id": 25, "lemma": "헬레니즘", "type": "NNG", "position": 165, "weight": 0.9}, 
                {"id": 26, "lemma": "문화", "type": "NNG", "position": 178, "weight": 0.184467}, 
                {"id": 27, "lemma": "를", "type": "JKO", "position": 184, "weight": 0.137686}, 
                {"id": 28, "lemma": "이룩하", "type": "VV", "position": 188, "weight": 0.9}, 
                {"id": 29, "lemma": "ㄴ", "type": "ETM", "position": 194, "weight": 0.304215}, 
                {"id": 30, "lemma": "이", "type": "MM", "position": 198, "weight": 0.00060084}, 
                {"id": 31, "lemma": "사람", "type": "NNG", "position": 202, "weight": 0.737436}, 
                {"id": 32, "lemma": "은", "type": "JX", "position": 208, "weight": 0.0449928}, 
                {"id": 33, "lemma": "?", "type": "SF", "position": 211, "weight": 1}
            ], 
            "morp_eval": [], 
            "WSD": [
                {"id": 0, "text": "그리스", "type": "NNP", "scode": "020000", "weight": 0.333333, "position": 29, "begin": 0, "end": 0}, 
                {"id": 1, "text": "ㆍ", "type": "SP", "scode": "000000", "weight": 1, "position": 38, "begin": 1, "end": 1}, 
                {"id": 2, "text": "페르시아", "type": "NNP", "scode": "000000", "weight": 1, "position": 41, "begin": 2, "end": 2}, 
                {"id": 3, "text": "ㆍ", "type": "SP", "scode": "000000", "weight": 1, "position": 53, "begin": 3, "end": 3}, 
                {"id": 4, "text": "인도", "type": "NNP", "scode": "080000", "weight": 0.0714286, "position": 56, "begin": 4, "end": 4}, 
                {"id": 5, "text": "에", "type": "JKB", "scode": "000000", "weight": 1, "position": 62, "begin": 5, "end": 5}, 
                {"id": 6, "text": "이르", "type": "VV", "scode": "010001", "weight": 0.1, "position": 66, "begin": 6, "end": 6}, 
                {"id": 7, "text": "는", "type": "ETM", "scode": "000000", "weight": 1, "position": 72, "begin": 7, "end": 7}, 
                {"id": 8, "text": "대", "type": "XPN", "scode": "170000", "weight": 0.0232558, "position": 76, "begin": 8, "end": 8}, 
                {"id": 9, "text": "제국", "type": "NNG", "scode": "020000", "weight": 0.25, "position": 79, "begin": 9, "end": 9}, 
                {"id": 10, "text": "을", "type": "JKO", "scode": "000000", "weight": 1, "position": 85, "begin": 10, "end": 10}, 
                {"id": 11, "text": "건설하", "type": "VV", "scode": "000001", "weight": 0.5, "position": 89, "begin": 11, "end": 12}, 
                {"id": 12, "text": "아", "type": "EC", "scode": "000000", "weight": 1, "position": 95, "begin": 13, "end": 13}, 
                {"id": 13, "text": "그리스", "type": "NNP", "scode": "020000", "weight": 0.333333, "position": 99, "begin": 14, "end": 14}, 
                {"id": 14, "text": "문화", "type": "NNG", "scode": "010001", "weight": 0.142857, "position": 109, "begin": 15, "end": 15}, 
                {"id": 15, "text": "와", "type": "JC", "scode": "000000", "weight": 1, "position": 115, "begin": 16, "end": 16}, 
                {"id": 16, "text": "오리엔트", "type": "NNG", "scode": "000002", "weight": 0.5, "position": 119, "begin": 17, "end": 17}, 
                {"id": 17, "text": "문화", "type": "NNG", "scode": "010001", "weight": 0.142857, "position": 132, "begin": 18, "end": 18}, 
                {"id": 18, "text": "를", "type": "JKO", "scode": "000000", "weight": 1, "position": 138, "begin": 19, "end": 19}, 
                {"id": 19, "text": "융합", "type": "NNG", "scode": "000001", "weight": 0.333333, "position": 142, "begin": 20, "end": 20}, 
                {"id": 20, "text": "시키", "type": "XSV", "scode": "000000", "weight": 0, "position": 148, "begin": 21, "end": 21}, 
                {"id": 21, "text": "ㄴ", "type": "ETM", "scode": "000000", "weight": 1, "position": 151, "begin": 22, "end": 22}, 
                {"id": 22, "text": "새롭", "type": "VA", "scode": "000001", "weight": 0.333333, "position": 155, "begin": 23, "end": 23}, 
                {"id": 23, "text": "ㄴ", "type": "ETM", "scode": "000000", "weight": 1, "position": 158, "begin": 24, "end": 24}, 
                {"id": 24, "text": "헬레니즘", "type": "NNG", "scode": "000000", "weight": 1, "position": 165, "begin": 25, "end": 25}, 
                {"id": 25, "text": "문화", "type": "NNG", "scode": "010001", "weight": 0.142857, "position": 178, "begin": 26, "end": 26}, 
                {"id": 26, "text": "를", "type": "JKO", "scode": "000000", "weight": 1, "position": 184, "begin": 27, "end": 27}, 
                {"id": 27, "text": "이룩하", "type": "VV", "scode": "000001", "weight": 0.5, "position": 188, "begin": 28, "end": 28}, 
                {"id": 28, "text": "ㄴ", "type": "ETM", "scode": "000000", "weight": 1, "position": 194, "begin": 29, "end": 29}, 
                {"id": 29, "text": "이", "type": "MM", "scode": "050102", "weight": 0.0172414, "position": 198, "begin": 30, "end": 30}, 
                {"id": 30, "text": "사람", "type": "NNG", "scode": "000001", "weight": 0.0909091, "position": 202, "begin": 31, "end": 31}, 
                {"id": 31, "text": "은", "type": "JX", "scode": "000000", "weight": 1, "position": 208, "begin": 32, "end": 32}, 
                {"id": 32, "text": "?", "type": "SF", "scode": "000000", "weight": 1, "position": 211, "begin": 33, "end": 33}
            ], 
            "word": [
                {"id": 0, "text": "그리스ㆍ페르시아ㆍ인도에", "type": "", "begin": 0, "end": 5}, 
                {"id": 1, "text": "이르는", "type": "", "begin": 6, "end": 7}, 
                {"id": 2, "text": "대제국을", "type": "", "begin": 8, "end": 10}, 
                {"id": 3, "text": "건설해", "type": "", "begin": 11, "end": 13}, 
                {"id": 4, "text": "그리스", "type": "", "begin": 14, "end": 14}, 
                {"id": 5, "text": "문화와", "type": "", "begin": 15, "end": 16}, 
                {"id": 6, "text": "오리엔트", "type": "", "begin": 17, "end": 17}, 
                {"id": 7, "text": "문화를", "type": "", "begin": 18, "end": 19}, 
                {"id": 8, "text": "융합시킨", "type": "", "begin": 20, "end": 22}, 
                {"id": 9, "text": "새로운", "type": "", "begin": 23, "end": 24}, 
                {"id": 10, "text": "헬레니즘", "type": "", "begin": 25, "end": 25}, 
                {"id": 11, "text": "문화를", "type": "", "begin": 26, "end": 27}, 
                {"id": 12, "text": "이룩한", "type": "", "begin": 28, "end": 29}, 
                {"id": 13, "text": "이", "type": "", "begin": 30, "end": 30}, 
                {"id": 14, "text": "사람은?", "type": "", "begin": 31, "end": 33}
            ], 
            "NE": [
                {"id": 0, "text": "그리스", "type": "LCP_COUNTRY", "begin": 0, "end": 0, "weight": 0.48108, "common_noun": 0}, 
                {"id": 1, "text": "페르시아", "type": "LCP_COUNTRY", "begin": 2, "end": 2, "weight": 0.651712, "common_noun": 0}, 
                {"id": 2, "text": "인도", "type": "LCP_COUNTRY", "begin": 4, "end": 4, "weight": 0.832431, "common_noun": 0}, 
                {"id": 3, "text": "그리스 문화", "type": "CV_NAME", "begin": 14, "end": 15, "weight": 0.161559, "common_noun": 0}, 
                {"id": 4, "text": "오리엔트 문화", "type": "CV_NAME", "begin": 17, "end": 18, "weight": 0.300727, "common_noun": 0}, 
                {"id": 5, "text": "헬레니즘 문화", "type": "CV_NAME", "begin": 25, "end": 26, "weight": 0.28506, "common_noun": 0}
            ], 
            "chunk": [], 
            "dependency": [
                {"id": 0, "text": "그리스ㆍ페르시아ㆍ인도에", "head": 1, "label": "NP_AJT", "mod": [], "weight": 0.76372}, 
                {"id": 1, "text": "이르는", "head": 2, "label": "VP_MOD", "mod": [0], "weight": 0.524026}, 
                {"id": 2, "text": "대제국을", "head": 3, "label": "NP_OBJ", "mod": [1], "weight": 0.761936}, 
                {"id": 3, "text": "건설해", "head": 8, "label": "VP", "mod": [2], "weight": 0.39017}, 
                {"id": 4, "text": "그리스", "head": 5, "label": "NP", "mod": [], "weight": 0.751676}, 
                {"id": 5, "text": "문화와", "head": 7, "label": "NP_CNJ", "mod": [4], "weight": 0.248437}, 
                {"id": 6, "text": "오리엔트", "head": 7, "label": "NP", "mod": [], "weight": 0.762205}, 
                {"id": 7, "text": "문화를", "head": 8, "label": "NP_OBJ", "mod": [5, 6], "weight": 0.831448}, 
                {"id": 8, "text": "융합시킨", "head": 11, "label": "VP_MOD", "mod": [3, 7], "weight": 0.583129}, 
                {"id": 9, "text": "새로운", "head": 11, "label": "VP_MOD", "mod": [], "weight": 0.731542}, 
                {"id": 10, "text": "헬레니즘", "head": 11, "label": "NP", "mod": [], "weight": 0.800378}, 
                {"id": 11, "text": "문화를", "head": 12, "label": "NP_OBJ", "mod": [8, 9, 10], "weight": 0.812835}, 
                {"id": 12, "text": "이룩한", "head": 14, "label": "VP_MOD", "mod": [11], "weight": 0.768575}, 
                {"id": 13, "text": "이", "head": 14, "label": "DP", "mod": [], "weight": 0.68763}, 
                {"id": 14, "text": "사람은?", "head": -1, "label": "NP_SBJ", "mod": [12, 13], "weight": 0.000953426}
            ], 
            "SRL": [
                {"verb": "이르", "sense": 1, "word_id": 1, "weight": 0.190293, "argument": [
                    {"type": "ARG3", "word_id": 0, "text": "그리스ㆍ페르시아ㆍ인도에", "weight": 0.213112}, 
                    {"type": "ARG1", "word_id": 2, "text": "대제국을", "weight": 0.167474}
                ]}, 
                {"verb": "건설", "sense": 1, "word_id": 3, "weight": 0.176513, "argument": [
                    {"type": "ARG1", "word_id": 2, "text": "대제국을", "weight": 0.176513}
                ]}, 
                {"verb": "융합", "sense": 1, "word_id": 8, "weight": 0.172388, "argument": [
                    {"type": "ARGM-MNR", "word_id": 3, "text": "건설해", "weight": 1}, 
                    {"type": "ARG1", "word_id": 5, "text": "문화와", "weight": 0.141807}, 
                    {"type": "ARG2", "word_id": 7, "text": "문화를", "weight": 1}
                ]}, 
                {"verb": "새롭", "sense": 1, "word_id": 9, "weight": 0.314723, "argument": [
                    {"type": "ARG1", "word_id": 11, "text": "문화를", "weight": 0.314723}
                ]}, 
                {"verb": "이룩하", "sense": 1, "word_id": 12, "weight": 0.213577, "argument": [
                    {"type": "ARG1", "word_id": 11, "text": "문화를", "weight": 0.186143}, 
                    {"type": "ARG0", "word_id": 14, "text": "사람은?", "weight": 0.241011}
                ]}
            ], 
            "relation": [], 
            "SA": [], 
            "ZA": []
        }
    ], 
    "entity": [
        {"id": 0, "type": "LCP_COUNTRY", "number": "singular", "gender": "", "person": "", "animacy": "place", "mention": [
            {"id": 1, "sent_id": 0, "start_eid": 0, "end_eid": 0, "ne_id": 0, "text": "마케도니아의", "start_eid_short": 0, "end_eid_short": 0, "text_short": "마케도니아의"}
        ]}, 
        {"id": 1, "type": "CV_POSITION", "number": "singular", "gender": "", "person": "", "animacy": "human", "mention": [
            {"id": 0, "sent_id": 0, "start_eid": 0, "end_eid": 1, "ne_id": 1, "text": "마케도니아의 왕이다.", "start_eid_short": 1, "end_eid_short": 1, "text_short": "왕이다."}, 
            {"id": 9, "sent_id": 1, "start_eid": 13, "end_eid": 14, "ne_id": -1, "text": "이 사람은?", "start_eid_short": 14, "end_eid_short": 14, "text_short": "사람은?"}
        ]}, 
        {"id": 2, "type": "CV_NAME", "number": "singular", "gender": "", "person": "", "animacy": "human", "mention": [
            {"id": 4, "sent_id": 1, "start_eid": 4, "end_eid": 11, "ne_id": 5, "text": "그리스 문화와 오리엔트 문화를 융합시킨 새로운 헬레니즘 문화를", "start_eid_short": 10, "end_eid_short": 11, "text_short": "헬레니즘 문화를"}
        ]}, 
        {"id": 3, "type": "", "number": "singular", "gender": "", "person": "", "animacy": "thing", "mention": [
            {"id": 2, "sent_id": 1, "start_eid": 0, "end_eid": 2, "ne_id": -1, "text": "그리스ㆍ페르시아ㆍ인도에 이르는 대제국을", "start_eid_short": 2, "end_eid_short": 2, "text_short": "대제국을"}
        ]}, 
        {"id": 4, "type": "LCP_COUNTRY", "number": "singular", "gender": "", "person": "", "animacy": "place", "mention": [
            {"id": 3, "sent_id": 1, "start_eid": 0, "end_eid": 0, "ne_id": 0, "text": "그리스ㆍ페르시아ㆍ인도에", "start_eid_short": 0, "end_eid_short": 0, "text_short": "그리스ㆍ페르시아ㆍ인도에"}
        ]}, 
        {"id": 5, "type": "LC_OTHERS", "number": "singular", "gender": "", "person": "", "animacy": "place", "mention": [
            {"id": 8, "sent_id": 1, "start_eid": 6, "end_eid": 6, "ne_id": 4, "text": "오리엔트", "start_eid_short": 6, "end_eid_short": 6, "text_short": "오리엔트"}
        ]}, 
        {"id": 6, "type": "CV_NAME", "number": "singular", "gender": "", "person": "", "animacy": "human", "mention": [
            {"id": 6, "sent_id": 1, "start_eid": 4, "end_eid": 5, "ne_id": 3, "text": "그리스 문화와", "start_eid_short": 4, "end_eid_short": 5, "text_short": "그리스 문화와"}
        ]}, 
        {"id": 7, "type": "", "number": "singular", "gender": "", "person": "", "animacy": "thing", "mention": [
            {"id": 7, "sent_id": 1, "start_eid": 6, "end_eid": 7, "ne_id": -1, "text": "오리엔트 문화를", "start_eid_short": 6, "end_eid_short": 7, "text_short": "오리엔트 문화를"}
        ]}, 
        {"id": 8, "type": "", "number": "plural", "gender": "", "person": "", "animacy": "thing", "mention": [
            {"id": 5, "sent_id": 1, "start_eid": 4, "end_eid": 7, "ne_id": -1, "text": "그리스 문화와 오리엔트 문화를", "start_eid_short": 6, "end_eid_short": 7, "text_short": "오리엔트 문화를"}
        ]}
    ]
}