{
    "doc_id": "E2016.888.12_Q_01.json", 
    "DCT": "", 
    "category": "", 
    "category_weight": 0, 
    "title": {
        "text": "", 
        "NE": ""
    }, 
    "metaInfo": {}, 
    "sentence": [
        {
            "id": 0, 
            "reserve_str": "", 
            "text": "이것은 ‘가르치다’라는 뜻의 라틴어에서 유래한 것으로 지식을 갖춘 안내인, 특히 박물관이나 미술관에서 관람객들에게 소장품이나 전시 작품에 대한 설명하는 사람을 지칭하는 말이다.", 
            "morp": [
                {"id": 0, "lemma": "이것", "type": "NP", "position": 0, "weight": 0.0733657}, 
                {"id": 1, "lemma": "은", "type": "JX", "position": 6, "weight": 0.191811}, 
                {"id": 2, "lemma": "‘", "type": "SS", "position": 10, "weight": 1}, 
                {"id": 3, "lemma": "가르치", "type": "VV", "position": 13, "weight": 0.9}, 
                {"id": 4, "lemma": "다", "type": "EF", "position": 22, "weight": 0.0775868}, 
                {"id": 5, "lemma": "’", "type": "SS", "position": 25, "weight": 1}, 
                {"id": 6, "lemma": "이", "type": "VCP", "position": 28, "weight": 0.00747344}, 
                {"id": 7, "lemma": "라는", "type": "ETM", "position": 28, "weight": 0.230361}, 
                {"id": 8, "lemma": "뜻", "type": "NNG", "position": 35, "weight": 0.9}, 
                {"id": 9, "lemma": "의", "type": "JKG", "position": 38, "weight": 0.0694213}, 
                {"id": 10, "lemma": "라틴", "type": "NNP", "position": 42, "weight": 0.00909418}, 
                {"id": 11, "lemma": "어", "type": "XSN", "position": 48, "weight": 0.0001}, 
                {"id": 12, "lemma": "에서", "type": "JKB", "position": 51, "weight": 0.121718}, 
                {"id": 13, "lemma": "유래", "type": "NNG", "position": 58, "weight": 0.9}, 
                {"id": 14, "lemma": "하", "type": "XSV", "position": 64, "weight": 0.0001}, 
                {"id": 15, "lemma": "ㄴ", "type": "ETM", "position": 64, "weight": 0.392321}, 
                {"id": 16, "lemma": "것", "type": "NNB", "position": 68, "weight": 0.228788}, 
                {"id": 17, "lemma": "으로", "type": "JKB", "position": 71, "weight": 0.135596}, 
                {"id": 18, "lemma": "지식", "type": "NNG", "position": 78, "weight": 0.9}, 
                {"id": 19, "lemma": "을", "type": "JKO", "position": 84, "weight": 0.129611}, 
                {"id": 20, "lemma": "갖추", "type": "VV", "position": 88, "weight": 0.777995}, 
                {"id": 21, "lemma": "ㄴ", "type": "ETM", "position": 91, "weight": 0.304215}, 
                {"id": 22, "lemma": "안내", "type": "NNG", "position": 95, "weight": 0.9}, 
                {"id": 23, "lemma": "인", "type": "XSN", "position": 101, "weight": 0.0198339}, 
                {"id": 24, "lemma": ",", "type": "SP", "position": 104, "weight": 1}, 
                {"id": 25, "lemma": "특히", "type": "MAG", "position": 106, "weight": 0.9}, 
                {"id": 26, "lemma": "박물", "type": "NNG", "position": 113, "weight": 0.15}, 
                {"id": 27, "lemma": "관", "type": "XSN", "position": 119, "weight": 0.0123777}, 
                {"id": 28, "lemma": "이나", "type": "JC", "position": 122, "weight": 0.0131102}, 
                {"id": 29, "lemma": "미술", "type": "NNG", "position": 129, "weight": 0.9}, 
                {"id": 30, "lemma": "관", "type": "XSN", "position": 135, "weight": 0.0123777}, 
                {"id": 31, "lemma": "에서", "type": "JKB", "position": 138, "weight": 0.121718}, 
                {"id": 32, "lemma": "관람", "type": "NNG", "position": 145, "weight": 0.9}, 
                {"id": 33, "lemma": "객", "type": "XSN", "position": 151, "weight": 0.101063}, 
                {"id": 34, "lemma": "들", "type": "XSN", "position": 154, "weight": 0.0299841}, 
                {"id": 35, "lemma": "에게", "type": "JKB", "position": 157, "weight": 0.121677}, 
                {"id": 36, "lemma": "소장", "type": "NNG", "position": 164, "weight": 0.9}, 
                {"id": 37, "lemma": "품", "type": "XSN", "position": 170, "weight": 0.00270725}, 
                {"id": 38, "lemma": "이나", "type": "JC", "position": 173, "weight": 0.0131102}, 
                {"id": 39, "lemma": "전시", "type": "NNG", "position": 180, "weight": 0.801935}, 
                {"id": 40, "lemma": "작품", "type": "NNG", "position": 187, "weight": 0.18482}, 
                {"id": 41, "lemma": "에", "type": "JKB", "position": 193, "weight": 0.153364}, 
                {"id": 42, "lemma": "대", "type": "NNG", "position": 197, "weight": 0.0312871}, 
                {"id": 43, "lemma": "하", "type": "XSV", "position": 200, "weight": 0.0001}, 
                {"id": 44, "lemma": "ㄴ", "type": "ETM", "position": 200, "weight": 0.392321}, 
                {"id": 45, "lemma": "설명", "type": "NNG", "position": 204, "weight": 0.9}, 
                {"id": 46, "lemma": "하", "type": "XSV", "position": 210, "weight": 0.0001}, 
                {"id": 47, "lemma": "는", "type": "ETM", "position": 213, "weight": 0.238503}, 
                {"id": 48, "lemma": "사람", "type": "NNG", "position": 217, "weight": 0.658826}, 
                {"id": 49, "lemma": "을", "type": "JKO", "position": 223, "weight": 0.129611}, 
                {"id": 50, "lemma": "지칭", "type": "NNG", "position": 227, "weight": 0.9}, 
                {"id": 51, "lemma": "하", "type": "XSV", "position": 233, "weight": 0.0001}, 
                {"id": 52, "lemma": "는", "type": "ETM", "position": 236, "weight": 0.238503}, 
                {"id": 53, "lemma": "말", "type": "NNG", "position": 240, "weight": 0.528926}, 
                {"id": 54, "lemma": "이", "type": "VCP", "position": 243, "weight": 0.0177525}, 
                {"id": 55, "lemma": "다", "type": "EF", "position": 246, "weight": 0.353579}, 
                {"id": 56, "lemma": ".", "type": "SF", "position": 249, "weight": 1}
            ], 
            "morp_eval": [], 
            "WSD": [
                {"id": 0, "text": "이것", "type": "NP", "scode": "000001", "weight": 0.25, "position": 0, "begin": 0, "end": 0}, 
                {"id": 1, "text": "은", "type": "JX", "scode": "000000", "weight": 1, "position": 6, "begin": 1, "end": 1}, 
                {"id": 2, "text": "‘", "type": "SS", "scode": "000000", "weight": 1, "position": 10, "begin": 2, "end": 2}, 
                {"id": 3, "text": "가르치", "type": "VV", "scode": "010101", "weight": 0.166667, "position": 13, "begin": 3, "end": 3}, 
                {"id": 4, "text": "다", "type": "EF", "scode": "000000", "weight": 1, "position": 22, "begin": 4, "end": 4}, 
                {"id": 5, "text": "’", "type": "SS", "scode": "000000", "weight": 1, "position": 25, "begin": 5, "end": 5}, 
                {"id": 6, "text": "이", "type": "VCP", "scode": "030000", "weight": 0.0172414, "position": 28, "begin": 6, "end": 6}, 
                {"id": 7, "text": "라는", "type": "ETM", "scode": "000000", "weight": 1, "position": 28, "begin": 7, "end": 7}, 
                {"id": 8, "text": "뜻", "type": "NNG", "scode": "000002", "weight": 0.333333, "position": 35, "begin": 8, "end": 8}, 
                {"id": 9, "text": "의", "type": "JKG", "scode": "000000", "weight": 1, "position": 38, "begin": 9, "end": 9}, 
                {"id": 10, "text": "라틴어", "type": "NNG", "scode": "000000", "weight": 1, "position": 42, "begin": 10, "end": 11}, 
                {"id": 11, "text": "에서", "type": "JKB", "scode": "000000", "weight": 1, "position": 51, "begin": 12, "end": 12}, 
                {"id": 12, "text": "유래하", "type": "VV", "scode": "000000", "weight": 1, "position": 58, "begin": 13, "end": 14}, 
                {"id": 13, "text": "ㄴ", "type": "ETM", "scode": "000000", "weight": 1, "position": 64, "begin": 15, "end": 15}, 
                {"id": 14, "text": "것", "type": "NNB", "scode": "010001", "weight": 0.125, "position": 68, "begin": 16, "end": 16}, 
                {"id": 15, "text": "으로", "type": "JKB", "scode": "000000", "weight": 1, "position": 71, "begin": 17, "end": 17}, 
                {"id": 16, "text": "지식", "type": "NNG", "scode": "020001", "weight": 0.111111, "position": 78, "begin": 18, "end": 18}, 
                {"id": 17, "text": "을", "type": "JKO", "scode": "000000", "weight": 1, "position": 84, "begin": 19, "end": 19}, 
                {"id": 18, "text": "갖추", "type": "VV", "scode": "000001", "weight": 0.5, "position": 88, "begin": 20, "end": 20}, 
                {"id": 19, "text": "ㄴ", "type": "ETM", "scode": "000000", "weight": 1, "position": 91, "begin": 21, "end": 21}, 
                {"id": 20, "text": "안내인", "type": "NNG", "scode": "000001", "weight": 0.5, "position": 95, "begin": 22, "end": 23}, 
                {"id": 21, "text": ",", "type": "SP", "scode": "000000", "weight": 1, "position": 104, "begin": 24, "end": 24}, 
                {"id": 22, "text": "특히", "type": "MAG", "scode": "000000", "weight": 1, "position": 106, "begin": 25, "end": 25}, 
                {"id": 23, "text": "박물관", "type": "NNG", "scode": "000000", "weight": 1, "position": 113, "begin": 26, "end": 27}, 
                {"id": 24, "text": "이나", "type": "JC", "scode": "000000", "weight": 1, "position": 122, "begin": 28, "end": 28}, 
                {"id": 25, "text": "미술관", "type": "NNG", "scode": "000000", "weight": 1, "position": 129, "begin": 29, "end": 30}, 
                {"id": 26, "text": "에서", "type": "JKB", "scode": "000000", "weight": 1, "position": 138, "begin": 31, "end": 31}, 
                {"id": 27, "text": "관람객", "type": "NNG", "scode": "000000", "weight": 1, "position": 145, "begin": 32, "end": 33}, 
                {"id": 28, "text": "들", "type": "XSN", "scode": "090000", "weight": 0.0909091, "position": 154, "begin": 34, "end": 34}, 
                {"id": 29, "text": "에게", "type": "JKB", "scode": "000000", "weight": 1, "position": 157, "begin": 35, "end": 35}, 
                {"id": 30, "text": "소장품", "type": "NNG", "scode": "000000", "weight": 1, "position": 164, "begin": 36, "end": 37}, 
                {"id": 31, "text": "이나", "type": "JC", "scode": "000000", "weight": 1, "position": 173, "begin": 38, "end": 38}, 
                {"id": 32, "text": "전시", "type": "NNG", "scode": "040001", "weight": 0.0769231, "position": 180, "begin": 39, "end": 39}, 
                {"id": 33, "text": "작품", "type": "NNG", "scode": "010002", "weight": 0.25, "position": 187, "begin": 40, "end": 40}, 
                {"id": 34, "text": "에", "type": "JKB", "scode": "000000", "weight": 1, "position": 193, "begin": 41, "end": 41}, 
                {"id": 35, "text": "대하", "type": "VV", "scode": "020003", "weight": 0.25, "position": 197, "begin": 42, "end": 43}, 
                {"id": 36, "text": "ㄴ", "type": "ETM", "scode": "000000", "weight": 1, "position": 200, "begin": 44, "end": 44}, 
                {"id": 37, "text": "설명하", "type": "VV", "scode": "000000", "weight": 1, "position": 204, "begin": 45, "end": 46}, 
                {"id": 38, "text": "는", "type": "ETM", "scode": "000000", "weight": 1, "position": 213, "begin": 47, "end": 47}, 
                {"id": 39, "text": "사람", "type": "NNG", "scode": "000001", "weight": 0.0909091, "position": 217, "begin": 48, "end": 48}, 
                {"id": 40, "text": "을", "type": "JKO", "scode": "000000", "weight": 1, "position": 223, "begin": 49, "end": 49}, 
                {"id": 41, "text": "지칭하", "type": "VV", "scode": "000000", "weight": 1, "position": 227, "begin": 50, "end": 51}, 
                {"id": 42, "text": "는", "type": "ETM", "scode": "000000", "weight": 1, "position": 236, "begin": 52, "end": 52}, 
                {"id": 43, "text": "말", "type": "NNG", "scode": "010004", "weight": 0.0384615, "position": 240, "begin": 53, "end": 53}, 
                {"id": 44, "text": "이", "type": "VCP", "scode": "030000", "weight": 0.0172414, "position": 243, "begin": 54, "end": 54}, 
                {"id": 45, "text": "다", "type": "EF", "scode": "000000", "weight": 1, "position": 246, "begin": 55, "end": 55}, 
                {"id": 46, "text": ".", "type": "SF", "scode": "000000", "weight": 1, "position": 249, "begin": 56, "end": 56}
            ], 
            "word": [
                {"id": 0, "text": "이것은", "type": "", "begin": 0, "end": 1}, 
                {"id": 1, "text": "‘가르치다’라는", "type": "", "begin": 2, "end": 7}, 
                {"id": 2, "text": "뜻의", "type": "", "begin": 8, "end": 9}, 
                {"id": 3, "text": "라틴어에서", "type": "", "begin": 10, "end": 12}, 
                {"id": 4, "text": "유래한", "type": "", "begin": 13, "end": 15}, 
                {"id": 5, "text": "것으로", "type": "", "begin": 16, "end": 17}, 
                {"id": 6, "text": "지식을", "type": "", "begin": 18, "end": 19}, 
                {"id": 7, "text": "갖춘", "type": "", "begin": 20, "end": 21}, 
                {"id": 8, "text": "안내인,", "type": "", "begin": 22, "end": 24}, 
                {"id": 9, "text": "특히", "type": "", "begin": 25, "end": 25}, 
                {"id": 10, "text": "박물관이나", "type": "", "begin": 26, "end": 28}, 
                {"id": 11, "text": "미술관에서", "type": "", "begin": 29, "end": 31}, 
                {"id": 12, "text": "관람객들에게", "type": "", "begin": 32, "end": 35}, 
                {"id": 13, "text": "소장품이나", "type": "", "begin": 36, "end": 38}, 
                {"id": 14, "text": "전시", "type": "", "begin": 39, "end": 39}, 
                {"id": 15, "text": "작품에", "type": "", "begin": 40, "end": 41}, 
                {"id": 16, "text": "대한", "type": "", "begin": 42, "end": 44}, 
                {"id": 17, "text": "설명하는", "type": "", "begin": 45, "end": 47}, 
                {"id": 18, "text": "사람을", "type": "", "begin": 48, "end": 49}, 
                {"id": 19, "text": "지칭하는", "type": "", "begin": 50, "end": 52}, 
                {"id": 20, "text": "말이다.", "type": "", "begin": 53, "end": 56}
            ], 
            "NE": [
                {"id": 0, "text": "라틴어", "type": "CV_LANGUAGE", "begin": 10, "end": 11, "weight": 0.671049, "common_noun": 0}, 
                {"id": 1, "text": "관람객", "type": "CV_POSITION", "begin": 32, "end": 33, "weight": 0.766134, "common_noun": 0}
            ], 
            "chunk": [], 
            "dependency": [
                {"id": 0, "text": "이것은", "head": 5, "label": "NP_SBJ", "mod": [], "weight": 0.818454}, 
                {"id": 1, "text": "‘가르치다’라는", "head": 2, "label": "VP_MOD", "mod": [], "weight": 0.361864}, 
                {"id": 2, "text": "뜻의", "head": 3, "label": "NP_MOD", "mod": [1], "weight": 0.56961}, 
                {"id": 3, "text": "라틴어에서", "head": 4, "label": "NP_AJT", "mod": [2], "weight": 0.571489}, 
                {"id": 4, "text": "유래한", "head": 5, "label": "VP_MOD", "mod": [3], "weight": 0.76358}, 
                {"id": 5, "text": "것으로", "head": 19, "label": "NP_AJT", "mod": [4, 0], "weight": 0.313391}, 
                {"id": 6, "text": "지식을", "head": 7, "label": "NP_OBJ", "mod": [], "weight": 0.784461}, 
                {"id": 7, "text": "갖춘", "head": 8, "label": "VP_MOD", "mod": [6], "weight": 0.778281}, 
                {"id": 8, "text": "안내인,", "head": 18, "label": "NP_CNJ", "mod": [7], "weight": 0.0451543}, 
                {"id": 9, "text": "특히", "head": 11, "label": "AP", "mod": [], "weight": 0.804418}, 
                {"id": 10, "text": "박물관이나", "head": 11, "label": "NP_CNJ", "mod": [], "weight": 0.807204}, 
                {"id": 11, "text": "미술관에서", "head": 17, "label": "NP_AJT", "mod": [10, 9], "weight": 0.635943}, 
                {"id": 12, "text": "관람객들에게", "head": 17, "label": "NP_AJT", "mod": [], "weight": 0.391921}, 
                {"id": 13, "text": "소장품이나", "head": 15, "label": "NP_CNJ", "mod": [], "weight": 0.490721}, 
                {"id": 14, "text": "전시", "head": 15, "label": "NP", "mod": [], "weight": 0.747979}, 
                {"id": 15, "text": "작품에", "head": 16, "label": "NP_AJT", "mod": [13, 14], "weight": 0.707746}, 
                {"id": 16, "text": "대한", "head": 17, "label": "VP_MOD", "mod": [15], "weight": 0.672281}, 
                {"id": 17, "text": "설명하는", "head": 18, "label": "VP_MOD", "mod": [11, 12, 16], "weight": 0.787361}, 
                {"id": 18, "text": "사람을", "head": 19, "label": "NP_OBJ", "mod": [17, 8], "weight": 0.848634}, 
                {"id": 19, "text": "지칭하는", "head": 20, "label": "VP_MOD", "mod": [5, 18], "weight": 0.834506}, 
                {"id": 20, "text": "말이다.", "head": -1, "label": "VNP", "mod": [19], "weight": 8.78668e-06}
            ], 
            "SRL": [
                {"verb": "유래", "sense": 1, "word_id": 4, "weight": 0.201716, "argument": [
                    {"type": "ARG2", "word_id": 3, "text": "라틴어에서", "weight": 0.245485}, 
                    {"type": "ARG1", "word_id": 5, "text": "것으로", "weight": 1}
                ]}, 
                {"verb": "갖추", "sense": 1, "word_id": 7, "weight": 0.241551, "argument": [
                    {"type": "ARG1", "word_id": 6, "text": "지식을", "weight": 0.241551}, 
                    {"type": "ARG0", "word_id": 8, "text": "안내인,", "weight": 1}
                ]}, 
                {"verb": "대하", "sense": 1, "word_id": 16, "weight": 0.312513, "argument": [
                    {"type": "ARG2", "word_id": 15, "text": "작품에", "weight": 0.262495}
                ]}, 
                {"verb": "설명", "sense": 1, "word_id": 17, "weight": 0.219102, "argument": [
                    {"type": "ARG0", "word_id": 18, "text": "사람을", "weight": 1}, 
                    {"type": "ARGM-ADV", "word_id": 9, "text": "특히", "weight": 1}, 
                    {"type": "ARGM-LOC", "word_id": 11, "text": "미술관에서", "weight": 1}, 
                    {"type": "ARG2", "word_id": 12, "text": "관람객들에게", "weight": 1}, 
                    {"type": "ARG1", "word_id": 15, "text": "작품에", "weight": 1}
                ]}, 
                {"verb": "지칭", "sense": 1, "word_id": 19, "weight": 0.298728, "argument": [
                    {"type": "ARG2", "word_id": 18, "text": "사람을", "weight": 1}, 
                    {"type": "ARGM-PRD", "word_id": 5, "text": "것으로", "weight": 1}, 
                    {"type": "ARG1", "word_id": 20, "text": "말이다.", "weight": 1}
                ]}
            ], 
            "relation": [], 
            "SA": [], 
            "ZA": []
        }, 
        {
            "id": 1, 
            "reserve_str": "", 
            "text": "이것은 무엇일까? ", 
            "morp": [
                {"id": 0, "lemma": "이것", "type": "NP", "position": 250, "weight": 0.0733657}, 
                {"id": 1, "lemma": "은", "type": "JX", "position": 256, "weight": 0.191811}, 
                {"id": 2, "lemma": "무엇", "type": "NP", "position": 260, "weight": 0.9}, 
                {"id": 3, "lemma": "이", "type": "VCP", "position": 266, "weight": 0.0175768}, 
                {"id": 4, "lemma": "ㄹ까", "type": "EF", "position": 266, "weight": 0.258243}, 
                {"id": 5, "lemma": "?", "type": "SF", "position": 272, "weight": 1}
            ], 
            "morp_eval": [], 
            "WSD": [
                {"id": 0, "text": "이것", "type": "NP", "scode": "000001", "weight": 0.25, "position": 250, "begin": 0, "end": 0}, 
                {"id": 1, "text": "은", "type": "JX", "scode": "000000", "weight": 1, "position": 256, "begin": 1, "end": 1}, 
                {"id": 2, "text": "무엇", "type": "NP", "scode": "000001", "weight": 0.5, "position": 260, "begin": 2, "end": 2}, 
                {"id": 3, "text": "이", "type": "VCP", "scode": "030000", "weight": 0.0172414, "position": 266, "begin": 3, "end": 3}, 
                {"id": 4, "text": "ㄹ까", "type": "EF", "scode": "000000", "weight": 1, "position": 266, "begin": 4, "end": 4}, 
                {"id": 5, "text": "?", "type": "SF", "scode": "000000", "weight": 1, "position": 272, "begin": 5, "end": 5}
            ], 
            "word": [
                {"id": 0, "text": "이것은", "type": "", "begin": 0, "end": 1}, 
                {"id": 1, "text": "무엇일까?", "type": "", "begin": 2, "end": 5}
            ], 
            "NE": [], 
            "chunk": [], 
            "dependency": [
                {"id": 0, "text": "이것은", "head": 1, "label": "NP_SBJ", "mod": [], "weight": 0.797907}, 
                {"id": 1, "text": "무엇일까?", "head": -1, "label": "VNP", "mod": [0], "weight": 0.671639}
            ], 
            "SRL": [], 
            "relation": [], 
            "SA": [], 
            "ZA": []
        }
    ], 
    "entity": [
        {"id": 0, "type": "", "number": "singular", "gender": "", "person": "", "animacy": "thing", "mention": [
            {"id": 0, "sent_id": 0, "start_eid": 0, "end_eid": 0, "ne_id": -1, "text": "이것은", "start_eid_short": 0, "end_eid_short": 0, "text_short": "이것은"}, 
            {"id": 1, "sent_id": 0, "start_eid": 1, "end_eid": 5, "ne_id": -1, "text": "‘가르치다’라는 뜻의 라틴어에서 유래한 것으로", "start_eid_short": 5, "end_eid_short": 5, "text_short": "것으로"}, 
            {"id": 4, "sent_id": 0, "start_eid": 6, "end_eid": 20, "ne_id": -1, "text": "지식을 갖춘 안내인, 특히 박물관이나 미술관에서 관람객들에게 소장품이나 전시 작품에 대한 설명하는 사람을 지칭하는 말이다.", "start_eid_short": 20, "end_eid_short": 20, "text_short": "말이다."}, 
            {"id": 5, "sent_id": 0, "start_eid": 6, "end_eid": 18, "ne_id": -1, "text": "지식을 갖춘 안내인, 특히 박물관이나 미술관에서 관람객들에게 소장품이나 전시 작품에 대한 설명하는 사람을", "start_eid_short": 18, "end_eid_short": 18, "text_short": "사람을"}, 
            {"id": 6, "sent_id": 0, "start_eid": 6, "end_eid": 8, "ne_id": -1, "text": "지식을 갖춘 안내인,", "start_eid_short": 8, "end_eid_short": 8, "text_short": "안내인,"}, 
            {"id": 16, "sent_id": 1, "start_eid": 0, "end_eid": 0, "ne_id": -1, "text": "이것은", "start_eid_short": 0, "end_eid_short": 0, "text_short": "이것은"}, 
            {"id": 17, "sent_id": 1, "start_eid": 1, "end_eid": 1, "ne_id": -1, "text": "무엇일까?", "start_eid_short": 1, "end_eid_short": 1, "text_short": "무엇일까?"}
        ]}, 
        {"id": 1, "type": "CV_LANGUAGE", "number": "singular", "gender": "", "person": "", "animacy": "thing", "mention": [
            {"id": 2, "sent_id": 0, "start_eid": 1, "end_eid": 3, "ne_id": 0, "text": "‘가르치다’라는 뜻의 라틴어에서", "start_eid_short": 3, "end_eid_short": 3, "text_short": "라틴어에서"}
        ]}, 
        {"id": 2, "type": "", "number": "singular", "gender": "", "person": "", "animacy": "thing", "mention": [
            {"id": 3, "sent_id": 0, "start_eid": 1, "end_eid": 2, "ne_id": -1, "text": "‘가르치다’라는 뜻의", "start_eid_short": 2, "end_eid_short": 2, "text_short": "뜻의"}
        ]}, 
        {"id": 3, "type": "", "number": "singular", "gender": "", "person": "", "animacy": "thing", "mention": [
            {"id": 7, "sent_id": 0, "start_eid": 6, "end_eid": 6, "ne_id": -1, "text": "지식을", "start_eid_short": 6, "end_eid_short": 6, "text_short": "지식을"}
        ]}, 
        {"id": 4, "type": "OGG_ART", "number": "singular", "gender": "", "person": "", "animacy": "thing", "mention": [
            {"id": 8, "sent_id": 0, "start_eid": 10, "end_eid": 11, "ne_id": 1, "text": "박물관이나 미술관에서", "start_eid_short": 11, "end_eid_short": 11, "text_short": "미술관에서"}
        ]}, 
        {"id": 5, "type": "", "number": "singular", "gender": "", "person": "", "animacy": "thing", "mention": [
            {"id": 9, "sent_id": 0, "start_eid": 10, "end_eid": 10, "ne_id": -1, "text": "박물관이나", "start_eid_short": 10, "end_eid_short": 10, "text_short": "박물관이나"}
        ]}, 
        {"id": 6, "type": "CV_POSITION", "number": "singular", "gender": "", "person": "", "animacy": "human", "mention": [
            {"id": 11, "sent_id": 0, "start_eid": 12, "end_eid": 12, "ne_id": 2, "text": "관람객들에게", "start_eid_short": 12, "end_eid_short": 12, "text_short": "관람객들에게"}
        ]}, 
        {"id": 7, "type": "", "number": "singular", "gender": "", "person": "", "animacy": "thing", "mention": [
            {"id": 12, "sent_id": 0, "start_eid": 13, "end_eid": 15, "ne_id": -1, "text": "소장품이나 전시 작품에", "start_eid_short": 14, "end_eid_short": 15, "text_short": "전시 작품에"}
        ]}, 
        {"id": 8, "type": "", "number": "singular", "gender": "", "person": "", "animacy": "thing", "mention": [
            {"id": 13, "sent_id": 0, "start_eid": 13, "end_eid": 13, "ne_id": -1, "text": "소장품이나", "start_eid_short": 13, "end_eid_short": 13, "text_short": "소장품이나"}
        ]}, 
        {"id": 9, "type": "", "number": "singular", "gender": "", "person": "", "animacy": "thing", "mention": [
            {"id": 15, "sent_id": 0, "start_eid": 14, "end_eid": 14, "ne_id": -1, "text": "전시", "start_eid_short": 14, "end_eid_short": 14, "text_short": "전시"}
        ]}, 
        {"id": 10, "type": "OGG_ART", "number": "singular", "gender": "", "person": "", "animacy": "thing", "mention": [
            {"id": 10, "sent_id": 0, "start_eid": 11, "end_eid": 11, "ne_id": 1, "text": "미술관에서", "start_eid_short": 11, "end_eid_short": 11, "text_short": "미술관에서"}
        ]}, 
        {"id": 11, "type": "", "number": "singular", "gender": "", "person": "", "animacy": "thing", "mention": [
            {"id": 14, "sent_id": 0, "start_eid": 14, "end_eid": 15, "ne_id": -1, "text": "전시 작품에", "start_eid_short": 14, "end_eid_short": 15, "text_short": "전시 작품에"}
        ]}
    ]
}