{
    "doc_id": "E2016.837.32_Q_01.json", 
    "DCT": "", 
    "category": "", 
    "category_weight": 0, 
    "title": {
        "text": "", 
        "NE": ""
    }, 
    "metaInfo": {}, 
    "sentence": [
        {
            "id": 0, 
            "reserve_str": "", 
            "text": "이것은 외국자본이 국내시장을 지배하는 현상을 가리키는 경제용어다.", 
            "morp": [
                {"id": 0, "lemma": "이것", "type": "NP", "position": 0, "weight": 0.0733657}, 
                {"id": 1, "lemma": "은", "type": "JX", "position": 6, "weight": 0.191811}, 
                {"id": 2, "lemma": "외국", "type": "NNG", "position": 10, "weight": 0.9}, 
                {"id": 3, "lemma": "자본", "type": "NNG", "position": 16, "weight": 0.9}, 
                {"id": 4, "lemma": "이", "type": "JKS", "position": 22, "weight": 0.0360723}, 
                {"id": 5, "lemma": "국내", "type": "NNG", "position": 26, "weight": 0.9}, 
                {"id": 6, "lemma": "시장", "type": "NNG", "position": 32, "weight": 0.9}, 
                {"id": 7, "lemma": "을", "type": "JKO", "position": 38, "weight": 0.129611}, 
                {"id": 8, "lemma": "지배", "type": "NNG", "position": 42, "weight": 0.9}, 
                {"id": 9, "lemma": "하", "type": "XSV", "position": 48, "weight": 0.0001}, 
                {"id": 10, "lemma": "는", "type": "ETM", "position": 51, "weight": 0.238503}, 
                {"id": 11, "lemma": "현상", "type": "NNG", "position": 55, "weight": 0.65874}, 
                {"id": 12, "lemma": "을", "type": "JKO", "position": 61, "weight": 0.129611}, 
                {"id": 13, "lemma": "가리키", "type": "VV", "position": 65, "weight": 0.9}, 
                {"id": 14, "lemma": "는", "type": "ETM", "position": 74, "weight": 0.184941}, 
                {"id": 15, "lemma": "경제", "type": "NNG", "position": 78, "weight": 0.658777}, 
                {"id": 16, "lemma": "용어", "type": "NNG", "position": 84, "weight": 0.9}, 
                {"id": 17, "lemma": "이", "type": "VCP", "position": 90, "weight": 0.0177525}, 
                {"id": 18, "lemma": "다", "type": "EF", "position": 90, "weight": 0.353579}, 
                {"id": 19, "lemma": ".", "type": "SF", "position": 93, "weight": 1}
            ], 
            "morp_eval": [], 
            "WSD": [
                {"id": 0, "text": "이것", "type": "NP", "scode": "000001", "weight": 0.25, "position": 0, "begin": 0, "end": 0}, 
                {"id": 1, "text": "은", "type": "JX", "scode": "000000", "weight": 1, "position": 6, "begin": 1, "end": 1}, 
                {"id": 2, "text": "외국자본", "type": "NNG", "scode": "000000", "weight": 1, "position": 10, "begin": 2, "end": 3}, 
                {"id": 3, "text": "이", "type": "JKS", "scode": "000000", "weight": 1, "position": 22, "begin": 4, "end": 4}, 
                {"id": 4, "text": "국내시장", "type": "NNG", "scode": "000000", "weight": 1, "position": 26, "begin": 5, "end": 6}, 
                {"id": 5, "text": "을", "type": "JKO", "scode": "000000", "weight": 1, "position": 38, "begin": 7, "end": 7}, 
                {"id": 6, "text": "지배하", "type": "VV", "scode": "010101", "weight": 0.166667, "position": 42, "begin": 8, "end": 9}, 
                {"id": 7, "text": "는", "type": "ETM", "scode": "000000", "weight": 1, "position": 51, "begin": 10, "end": 10}, 
                {"id": 8, "text": "현상", "type": "NNG", "scode": "030000", "weight": 0.0833333, "position": 55, "begin": 11, "end": 11}, 
                {"id": 9, "text": "을", "type": "JKO", "scode": "000000", "weight": 1, "position": 61, "begin": 12, "end": 12}, 
                {"id": 10, "text": "가리키", "type": "VV", "scode": "010002", "weight": 0.333333, "position": 65, "begin": 13, "end": 13}, 
                {"id": 11, "text": "는", "type": "ETM", "scode": "000000", "weight": 1, "position": 74, "begin": 14, "end": 14}, 
                {"id": 12, "text": "경제", "type": "NNG", "scode": "040001", "weight": 0.111111, "position": 78, "begin": 15, "end": 15}, 
                {"id": 13, "text": "용어", "type": "NNG", "scode": "020000", "weight": 0.2, "position": 84, "begin": 16, "end": 16}, 
                {"id": 14, "text": "이", "type": "VCP", "scode": "030000", "weight": 0.0172414, "position": 90, "begin": 17, "end": 17}, 
                {"id": 15, "text": "다", "type": "EF", "scode": "000000", "weight": 1, "position": 90, "begin": 18, "end": 18}, 
                {"id": 16, "text": ".", "type": "SF", "scode": "000000", "weight": 1, "position": 93, "begin": 19, "end": 19}
            ], 
            "word": [
                {"id": 0, "text": "이것은", "type": "", "begin": 0, "end": 1}, 
                {"id": 1, "text": "외국자본이", "type": "", "begin": 2, "end": 4}, 
                {"id": 2, "text": "국내시장을", "type": "", "begin": 5, "end": 7}, 
                {"id": 3, "text": "지배하는", "type": "", "begin": 8, "end": 10}, 
                {"id": 4, "text": "현상을", "type": "", "begin": 11, "end": 12}, 
                {"id": 5, "text": "가리키는", "type": "", "begin": 13, "end": 14}, 
                {"id": 6, "text": "경제용어다.", "type": "", "begin": 15, "end": 19}
            ], 
            "NE": [], 
            "chunk": [], 
            "dependency": [
                {"id": 0, "text": "이것은", "head": 6, "label": "NP_SBJ", "mod": [], "weight": 0.852733}, 
                {"id": 1, "text": "외국자본이", "head": 3, "label": "NP_SBJ", "mod": [], "weight": 0.531964}, 
                {"id": 2, "text": "국내시장을", "head": 3, "label": "NP_OBJ", "mod": [], "weight": 0.644138}, 
                {"id": 3, "text": "지배하는", "head": 4, "label": "VP_MOD", "mod": [1, 2], "weight": 0.812803}, 
                {"id": 4, "text": "현상을", "head": 5, "label": "NP_OBJ", "mod": [3], "weight": 0.834152}, 
                {"id": 5, "text": "가리키는", "head": 6, "label": "VP_MOD", "mod": [4], "weight": 0.804392}, 
                {"id": 6, "text": "경제용어다.", "head": -1, "label": "VNP", "mod": [0, 5], "weight": 0.133686}
            ], 
            "SRL": [
                {"verb": "지배", "sense": 1, "word_id": 3, "weight": 0.239914, "argument": [
                    {"type": "ARG0", "word_id": 1, "text": "외국자본이", "weight": 0.224914}, 
                    {"type": "ARG1", "word_id": 2, "text": "국내시장을", "weight": 0.254915}
                ]}, 
                {"verb": "가리키", "sense": 1, "word_id": 5, "weight": 0.286779, "argument": [
                    {"type": "ARG1", "word_id": 4, "text": "현상을", "weight": 0.286779}, 
                    {"type": "ARG0", "word_id": 6, "text": "경제용어다.", "weight": 1}
                ]}
            ], 
            "relation": [], 
            "SA": [], 
            "ZA": []
        }, 
        {
            "id": 1, 
            "reserve_str": "", 
            "text": "영국의 유명한 테니스 대회 이름에서 따온 이 효과는 무엇일까?", 
            "morp": [
                {"id": 0, "lemma": "영국", "type": "NNP", "position": 94, "weight": 0.9}, 
                {"id": 1, "lemma": "의", "type": "JKG", "position": 100, "weight": 0.0987295}, 
                {"id": 2, "lemma": "유명", "type": "NNG", "position": 104, "weight": 0.9}, 
                {"id": 3, "lemma": "하", "type": "XSA", "position": 110, "weight": 0.0001}, 
                {"id": 4, "lemma": "ㄴ", "type": "ETM", "position": 110, "weight": 0.488779}, 
                {"id": 5, "lemma": "테니스", "type": "NNG", "position": 114, "weight": 0.9}, 
                {"id": 6, "lemma": "대회", "type": "NNG", "position": 124, "weight": 0.9}, 
                {"id": 7, "lemma": "이름", "type": "NNG", "position": 131, "weight": 0.9}, 
                {"id": 8, "lemma": "에서", "type": "JKB", "position": 137, "weight": 0.153407}, 
                {"id": 9, "lemma": "따오", "type": "VV", "position": 144, "weight": 0.9}, 
                {"id": 10, "lemma": "ㄴ", "type": "ETM", "position": 147, "weight": 0.304215}, 
                {"id": 11, "lemma": "이", "type": "MM", "position": 151, "weight": 0.00060084}, 
                {"id": 12, "lemma": "효과", "type": "NNG", "position": 155, "weight": 0.9}, 
                {"id": 13, "lemma": "는", "type": "JX", "position": 161, "weight": 0.0287565}, 
                {"id": 14, "lemma": "무엇", "type": "NP", "position": 165, "weight": 0.9}, 
                {"id": 15, "lemma": "이", "type": "VCP", "position": 171, "weight": 0.0175768}, 
                {"id": 16, "lemma": "ㄹ까", "type": "EF", "position": 171, "weight": 0.258243}, 
                {"id": 17, "lemma": "?", "type": "SF", "position": 177, "weight": 1}
            ], 
            "morp_eval": [], 
            "WSD": [
                {"id": 0, "text": "영국", "type": "NNP", "scode": "010000", "weight": 0.5, "position": 94, "begin": 0, "end": 0}, 
                {"id": 1, "text": "의", "type": "JKG", "scode": "000000", "weight": 1, "position": 100, "begin": 1, "end": 1}, 
                {"id": 2, "text": "유명하", "type": "VA", "scode": "010000", "weight": 0.5, "position": 104, "begin": 2, "end": 3}, 
                {"id": 3, "text": "ㄴ", "type": "ETM", "scode": "000000", "weight": 1, "position": 110, "begin": 4, "end": 4}, 
                {"id": 4, "text": "테니스", "type": "NNG", "scode": "000000", "weight": 1, "position": 114, "begin": 5, "end": 5}, 
                {"id": 5, "text": "대회", "type": "NNG", "scode": "020002", "weight": 0.25, "position": 124, "begin": 6, "end": 6}, 
                {"id": 6, "text": "이름", "type": "NNG", "scode": "000001", "weight": 0.111111, "position": 131, "begin": 7, "end": 7}, 
                {"id": 7, "text": "에서", "type": "JKB", "scode": "000000", "weight": 1, "position": 137, "begin": 8, "end": 8}, 
                {"id": 8, "text": "따오", "type": "VV", "scode": "000000", "weight": 1, "position": 144, "begin": 9, "end": 9}, 
                {"id": 9, "text": "ㄴ", "type": "ETM", "scode": "000000", "weight": 1, "position": 147, "begin": 10, "end": 10}, 
                {"id": 10, "text": "이", "type": "MM", "scode": "050102", "weight": 0.0172414, "position": 151, "begin": 11, "end": 11}, 
                {"id": 11, "text": "효과", "type": "NNG", "scode": "010000", "weight": 0.5, "position": 155, "begin": 12, "end": 12}, 
                {"id": 12, "text": "는", "type": "JX", "scode": "000000", "weight": 1, "position": 161, "begin": 13, "end": 13}, 
                {"id": 13, "text": "무엇", "type": "NP", "scode": "000001", "weight": 0.5, "position": 165, "begin": 14, "end": 14}, 
                {"id": 14, "text": "이", "type": "VCP", "scode": "030000", "weight": 0.0172414, "position": 171, "begin": 15, "end": 15}, 
                {"id": 15, "text": "ㄹ까", "type": "EF", "scode": "000000", "weight": 1, "position": 171, "begin": 16, "end": 16}, 
                {"id": 16, "text": "?", "type": "SF", "scode": "000000", "weight": 1, "position": 177, "begin": 17, "end": 17}
            ], 
            "word": [
                {"id": 0, "text": "영국의", "type": "", "begin": 0, "end": 1}, 
                {"id": 1, "text": "유명한", "type": "", "begin": 2, "end": 4}, 
                {"id": 2, "text": "테니스", "type": "", "begin": 5, "end": 5}, 
                {"id": 3, "text": "대회", "type": "", "begin": 6, "end": 6}, 
                {"id": 4, "text": "이름에서", "type": "", "begin": 7, "end": 8}, 
                {"id": 5, "text": "따온", "type": "", "begin": 9, "end": 10}, 
                {"id": 6, "text": "이", "type": "", "begin": 11, "end": 11}, 
                {"id": 7, "text": "효과는", "type": "", "begin": 12, "end": 13}, 
                {"id": 8, "text": "무엇일까?", "type": "", "begin": 14, "end": 17}
            ], 
            "NE": [
                {"id": 0, "text": "영국", "type": "LCP_COUNTRY", "begin": 0, "end": 0, "weight": 0.665408, "common_noun": 0}, 
                {"id": 1, "text": "테니스", "type": "CV_SPORTS", "begin": 5, "end": 5, "weight": 0.379972, "common_noun": 0}
            ], 
            "chunk": [], 
            "dependency": [
                {"id": 0, "text": "영국의", "head": 3, "label": "NP_MOD", "mod": [], "weight": 0.204835}, 
                {"id": 1, "text": "유명한", "head": 3, "label": "VP_MOD", "mod": [], "weight": 0.420222}, 
                {"id": 2, "text": "테니스", "head": 3, "label": "NP", "mod": [], "weight": 0.786271}, 
                {"id": 3, "text": "대회", "head": 4, "label": "NP", "mod": [0, 1, 2], "weight": 0.55615}, 
                {"id": 4, "text": "이름에서", "head": 5, "label": "NP_AJT", "mod": [3], "weight": 0.849456}, 
                {"id": 5, "text": "따온", "head": 7, "label": "VP_MOD", "mod": [4], "weight": 0.74137}, 
                {"id": 6, "text": "이", "head": 7, "label": "DP", "mod": [], "weight": 0.54907}, 
                {"id": 7, "text": "효과는", "head": 8, "label": "NP_SBJ", "mod": [5, 6], "weight": 0.862072}, 
                {"id": 8, "text": "무엇일까?", "head": -1, "label": "VNP", "mod": [7], "weight": 0.00962105}
            ], 
            "SRL": [
                {"verb": "따오", "sense": 1, "word_id": 5, "weight": 0.211518, "argument": [
                    {"type": "ARG2", "word_id": 4, "text": "이름에서", "weight": 0.188189}, 
                    {"type": "ARG1", "word_id": 7, "text": "효과는", "weight": 0.234847}
                ]}
            ], 
            "relation": [], 
            "SA": [], 
            "ZA": []
        }
    ], 
    "entity": [
        {"id": 0, "type": "", "number": "singular", "gender": "", "person": "", "animacy": "thing", "mention": [
            {"id": 0, "sent_id": 0, "start_eid": 0, "end_eid": 0, "ne_id": -1, "text": "이것은", "start_eid_short": 0, "end_eid_short": 0, "text_short": "이것은"}, 
            {"id": 1, "sent_id": 0, "start_eid": 1, "end_eid": 6, "ne_id": -1, "text": "외국자본이 국내시장을 지배하는 현상을 가리키는 경제용어다.", "start_eid_short": 6, "end_eid_short": 6, "text_short": "경제용어다."}, 
            {"id": 2, "sent_id": 0, "start_eid": 1, "end_eid": 4, "ne_id": -1, "text": "외국자본이 국내시장을 지배하는 현상을", "start_eid_short": 4, "end_eid_short": 4, "text_short": "현상을"}, 
            {"id": 9, "sent_id": 1, "start_eid": 6, "end_eid": 7, "ne_id": -1, "text": "이 효과는", "start_eid_short": 6, "end_eid_short": 7, "text_short": "이 효과는"}, 
            {"id": 10, "sent_id": 1, "start_eid": 8, "end_eid": 8, "ne_id": -1, "text": "무엇일까?", "start_eid_short": 8, "end_eid_short": 8, "text_short": "무엇일까?"}
        ]}, 
        {"id": 1, "type": "", "number": "singular", "gender": "", "person": "", "animacy": "thing", "mention": [
            {"id": 3, "sent_id": 0, "start_eid": 1, "end_eid": 1, "ne_id": -1, "text": "외국자본이", "start_eid_short": 1, "end_eid_short": 1, "text_short": "외국자본이"}
        ]}, 
        {"id": 2, "type": "", "number": "singular", "gender": "", "person": "", "animacy": "thing", "mention": [
            {"id": 4, "sent_id": 0, "start_eid": 2, "end_eid": 2, "ne_id": -1, "text": "국내시장을", "start_eid_short": 2, "end_eid_short": 2, "text_short": "국내시장을"}
        ]}, 
        {"id": 3, "type": "", "number": "singular", "gender": "", "person": "", "animacy": "thing", "mention": [
            {"id": 5, "sent_id": 1, "start_eid": 0, "end_eid": 4, "ne_id": -1, "text": "영국의 유명한 테니스 대회 이름에서", "start_eid_short": 2, "end_eid_short": 4, "text_short": "테니스 대회 이름에서"}, 
            {"id": 6, "sent_id": 1, "start_eid": 0, "end_eid": 3, "ne_id": -1, "text": "영국의 유명한 테니스 대회", "start_eid_short": 2, "end_eid_short": 3, "text_short": "테니스 대회"}
        ]}, 
        {"id": 4, "type": "LCP_COUNTRY", "number": "singular", "gender": "", "person": "", "animacy": "place", "mention": [
            {"id": 7, "sent_id": 1, "start_eid": 0, "end_eid": 0, "ne_id": 0, "text": "영국의", "start_eid_short": 0, "end_eid_short": 0, "text_short": "영국의"}
        ]}, 
        {"id": 5, "type": "CV_SPORTS", "number": "singular", "gender": "", "person": "", "animacy": "thing", "mention": [
            {"id": 8, "sent_id": 1, "start_eid": 2, "end_eid": 2, "ne_id": 1, "text": "테니스", "start_eid_short": 2, "end_eid_short": 2, "text_short": "테니스"}
        ]}
    ]
}