{
    "doc_id": "E2016.789.09_Q_01.json", 
    "DCT": "", 
    "category": "", 
    "category_weight": 0, 
    "title": {
        "text": "", 
        "NE": ""
    }, 
    "metaInfo": {}, 
    "sentence": [
        {
            "id": 0, 
            "reserve_str": "", 
            "text": "아동문학상이 아닌 것은?", 
            "morp": [
                {"id": 0, "lemma": "아동", "type": "NNG", "position": 0, "weight": 0.9}, 
                {"id": 1, "lemma": "문학", "type": "NNG", "position": 6, "weight": 0.18282}, 
                {"id": 2, "lemma": "상", "type": "NNG", "position": 12, "weight": 0.0834075}, 
                {"id": 3, "lemma": "이", "type": "JKC", "position": 15, "weight": 0.000287945}, 
                {"id": 4, "lemma": "아니", "type": "VCN", "position": 19, "weight": 0.354175}, 
                {"id": 5, "lemma": "ㄴ", "type": "ETM", "position": 22, "weight": 0.144018}, 
                {"id": 6, "lemma": "것", "type": "NNB", "position": 26, "weight": 0.228788}, 
                {"id": 7, "lemma": "은", "type": "JX", "position": 29, "weight": 0.0688243}, 
                {"id": 8, "lemma": "?", "type": "SF", "position": 32, "weight": 1}
            ], 
            "morp_eval": [], 
            "WSD": [
                {"id": 0, "text": "아동", "type": "NNG", "scode": "020001", "weight": 0.25, "position": 0, "begin": 0, "end": 0}, 
                {"id": 1, "text": "문학상", "type": "NNG", "scode": "000000", "weight": 1, "position": 6, "begin": 1, "end": 2}, 
                {"id": 2, "text": "이", "type": "JKC", "scode": "000000", "weight": 1, "position": 15, "begin": 3, "end": 3}, 
                {"id": 3, "text": "아니", "type": "VCN", "scode": "000001", "weight": 0.2, "position": 19, "begin": 4, "end": 4}, 
                {"id": 4, "text": "ㄴ", "type": "ETM", "scode": "000000", "weight": 1, "position": 22, "begin": 5, "end": 5}, 
                {"id": 5, "text": "것", "type": "NNB", "scode": "010001", "weight": 0.125, "position": 26, "begin": 6, "end": 6}, 
                {"id": 6, "text": "은", "type": "JX", "scode": "000000", "weight": 1, "position": 29, "begin": 7, "end": 7}, 
                {"id": 7, "text": "?", "type": "SF", "scode": "000000", "weight": 1, "position": 32, "begin": 8, "end": 8}
            ], 
            "word": [
                {"id": 0, "text": "아동문학상이", "type": "", "begin": 0, "end": 3}, 
                {"id": 1, "text": "아닌", "type": "", "begin": 4, "end": 5}, 
                {"id": 2, "text": "것은?", "type": "", "begin": 6, "end": 8}
            ], 
            "NE": [
                {"id": 0, "text": "아동문학상", "type": "CV_PRIZE", "begin": 0, "end": 2, "weight": 0.770582, "common_noun": 0}
            ], 
            "chunk": [], 
            "dependency": [
                {"id": 0, "text": "아동문학상이", "head": 1, "label": "NP_CMP", "mod": [], "weight": 0.724856}, 
                {"id": 1, "text": "아닌", "head": 2, "label": "VP_MOD", "mod": [0], "weight": 0.764921}, 
                {"id": 2, "text": "것은?", "head": -1, "label": "NP_SBJ", "mod": [1], "weight": 0.398918}
            ], 
            "SRL": [
                {"verb": "아니", "sense": 1, "word_id": 1, "weight": 0.236689, "argument": [
                    {"type": "ARG2", "word_id": 0, "text": "아동문학상이", "weight": 0.311122}, 
                    {"type": "ARG1", "word_id": 2, "text": "것은?", "weight": 0.162257}
                ]}
            ], 
            "relation": [], 
            "SA": [], 
            "ZA": []
        }
    ], 
    "entity": [
        {"id": 0, "type": "", "number": "singular", "gender": "", "person": "", "animacy": "thing", "mention": [
            {"id": 0, "sent_id": 0, "start_eid": 0, "end_eid": 2, "ne_id": -1, "text": "아동문학상이 아닌 것은?", "start_eid_short": 2, "end_eid_short": 2, "text_short": "것은?"}
        ]}, 
        {"id": 1, "type": "CV_PRIZE", "number": "singular", "gender": "", "person": "", "animacy": "thing", "mention": [
            {"id": 1, "sent_id": 0, "start_eid": 0, "end_eid": 0, "ne_id": 0, "text": "아동문학상이", "start_eid_short": 0, "end_eid_short": 0, "text_short": "아동문학상이"}
        ]}
    ]
}