{
    "doc_id": "E2016.837.07_Q_01.json", 
    "DCT": "", 
    "category": "", 
    "category_weight": 0, 
    "title": {
        "text": "", 
        "NE": ""
    }, 
    "metaInfo": {}, 
    "sentence": [
        {
            "id": 0, 
            "reserve_str": "", 
            "text": "작가와 연대 미상의 고대가요이다.", 
            "morp": [
                {"id": 0, "lemma": "작가", "type": "NNG", "position": 0, "weight": 0.43785}, 
                {"id": 1, "lemma": "와", "type": "JC", "position": 6, "weight": 0.0169714}, 
                {"id": 2, "lemma": "연대", "type": "NNG", "position": 10, "weight": 0.783944}, 
                {"id": 3, "lemma": "미상", "type": "NNG", "position": 17, "weight": 0.9}, 
                {"id": 4, "lemma": "의", "type": "JKG", "position": 23, "weight": 0.0694213}, 
                {"id": 5, "lemma": "고대", "type": "NNG", "position": 27, "weight": 0.844143}, 
                {"id": 6, "lemma": "가요", "type": "NNG", "position": 33, "weight": 0.9}, 
                {"id": 7, "lemma": "이", "type": "VCP", "position": 39, "weight": 0.0177525}, 
                {"id": 8, "lemma": "다", "type": "EF", "position": 42, "weight": 0.353579}, 
                {"id": 9, "lemma": ".", "type": "SF", "position": 45, "weight": 1}
            ], 
            "morp_eval": [], 
            "WSD": [
                {"id": 0, "text": "작가", "type": "NNG", "scode": "010000", "weight": 0.5, "position": 0, "begin": 0, "end": 0}, 
                {"id": 1, "text": "와", "type": "JC", "scode": "000000", "weight": 1, "position": 6, "begin": 1, "end": 1}, 
                {"id": 2, "text": "연대", "type": "NNG", "scode": "010000", "weight": 0.0714286, "position": 10, "begin": 2, "end": 2}, 
                {"id": 3, "text": "미상", "type": "NNG", "scode": "010000", "weight": 0.166667, "position": 17, "begin": 3, "end": 3}, 
                {"id": 4, "text": "의", "type": "JKG", "scode": "000000", "weight": 1, "position": 23, "begin": 4, "end": 4}, 
                {"id": 5, "text": "고대가요", "type": "NNG", "scode": "000000", "weight": 1, "position": 27, "begin": 5, "end": 6}, 
                {"id": 6, "text": "이", "type": "VCP", "scode": "030000", "weight": 0.0172414, "position": 39, "begin": 7, "end": 7}, 
                {"id": 7, "text": "다", "type": "EF", "scode": "000000", "weight": 1, "position": 42, "begin": 8, "end": 8}, 
                {"id": 8, "text": ".", "type": "SF", "scode": "000000", "weight": 1, "position": 45, "begin": 9, "end": 9}
            ], 
            "word": [
                {"id": 0, "text": "작가와", "type": "", "begin": 0, "end": 1}, 
                {"id": 1, "text": "연대", "type": "", "begin": 2, "end": 2}, 
                {"id": 2, "text": "미상의", "type": "", "begin": 3, "end": 4}, 
                {"id": 3, "text": "고대가요이다.", "type": "", "begin": 5, "end": 9}
            ], 
            "NE": [
                {"id": 0, "text": "작가", "type": "CV_OCCUPATION", "begin": 0, "end": 0, "weight": 0.672877, "common_noun": 0}, 
                {"id": 1, "text": "고대", "type": "DT_OTHERS", "begin": 5, "end": 5, "weight": 0.363532, "common_noun": 0}, 
                {"id": 2, "text": "가요", "type": "FD_ART", "begin": 6, "end": 6, "weight": 0.176589, "common_noun": 0}
            ], 
            "chunk": [], 
            "dependency": [
                {"id": 0, "text": "작가와", "head": 1, "label": "NP_CNJ", "mod": [], "weight": 0.725481}, 
                {"id": 1, "text": "연대", "head": 2, "label": "NP", "mod": [0], "weight": 0.642036}, 
                {"id": 2, "text": "미상의", "head": 3, "label": "NP_MOD", "mod": [1], "weight": 0.771046}, 
                {"id": 3, "text": "고대가요이다.", "head": -1, "label": "VNP", "mod": [2], "weight": 0.310737}
            ], 
            "SRL": [], 
            "relation": [], 
            "SA": [], 
            "ZA": []
        }, 
        {
            "id": 1, 
            "reserve_str": "", 
            "text": "가락국 사람들이 수로왕을 맞이하기 위해 구지봉에 모여 함께 부른 이 가요의 제목은?", 
            "morp": [
                {"id": 0, "lemma": "가락국", "type": "NNP", "position": 46, "weight": 0.0682877}, 
                {"id": 1, "lemma": "사람", "type": "NNG", "position": 56, "weight": 0.281985}, 
                {"id": 2, "lemma": "들", "type": "XSN", "position": 62, "weight": 0.0299841}, 
                {"id": 3, "lemma": "이", "type": "JKS", "position": 65, "weight": 0.0731805}, 
                {"id": 4, "lemma": "수로왕", "type": "NNP", "position": 69, "weight": 0.7}, 
                {"id": 5, "lemma": "을", "type": "JKO", "position": 78, "weight": 0.0266447}, 
                {"id": 6, "lemma": "맞이하", "type": "VV", "position": 82, "weight": 0.9}, 
                {"id": 7, "lemma": "기", "type": "ETN", "position": 91, "weight": 0.0380514}, 
                {"id": 8, "lemma": "위하", "type": "VV", "position": 95, "weight": 0.176484}, 
                {"id": 9, "lemma": "아", "type": "EC", "position": 98, "weight": 0.41831}, 
                {"id": 10, "lemma": "구지봉", "type": "NNP", "position": 102, "weight": 0.35}, 
                {"id": 11, "lemma": "에", "type": "JKB", "position": 111, "weight": 0.0823628}, 
                {"id": 12, "lemma": "모이", "type": "VV", "position": 115, "weight": 0.43438}, 
                {"id": 13, "lemma": "아", "type": "EC", "position": 118, "weight": 0.41831}, 
                {"id": 14, "lemma": "함께", "type": "MAG", "position": 122, "weight": 0.9}, 
                {"id": 15, "lemma": "부르", "type": "VV", "position": 129, "weight": 0.38228}, 
                {"id": 16, "lemma": "ㄴ", "type": "ETM", "position": 132, "weight": 0.304215}, 
                {"id": 17, "lemma": "이", "type": "MM", "position": 136, "weight": 0.00060084}, 
                {"id": 18, "lemma": "가요", "type": "NNG", "position": 140, "weight": 0.9}, 
                {"id": 19, "lemma": "의", "type": "JKG", "position": 146, "weight": 0.0694213}, 
                {"id": 20, "lemma": "제목", "type": "NNG", "position": 150, "weight": 0.9}, 
                {"id": 21, "lemma": "은", "type": "JX", "position": 156, "weight": 0.0449928}, 
                {"id": 22, "lemma": "?", "type": "SF", "position": 159, "weight": 1}
            ], 
            "morp_eval": [], 
            "WSD": [
                {"id": 0, "text": "가락국", "type": "NNP", "scode": "000000", "weight": 1, "position": 46, "begin": 0, "end": 0}, 
                {"id": 1, "text": "사람", "type": "NNG", "scode": "000001", "weight": 0.0909091, "position": 56, "begin": 1, "end": 1}, 
                {"id": 2, "text": "들", "type": "XSN", "scode": "090000", "weight": 0.0909091, "position": 62, "begin": 2, "end": 2}, 
                {"id": 3, "text": "이", "type": "JKS", "scode": "000000", "weight": 1, "position": 65, "begin": 3, "end": 3}, 
                {"id": 4, "text": "수로왕", "type": "NNP", "scode": "000000", "weight": 1, "position": 69, "begin": 4, "end": 4}, 
                {"id": 5, "text": "을", "type": "JKO", "scode": "000000", "weight": 1, "position": 78, "begin": 5, "end": 5}, 
                {"id": 6, "text": "맞이하", "type": "VV", "scode": "000001", "weight": 0.5, "position": 82, "begin": 6, "end": 6}, 
                {"id": 7, "text": "기", "type": "ETN", "scode": "000000", "weight": 1, "position": 91, "begin": 7, "end": 7}, 
                {"id": 8, "text": "위하", "type": "VV", "scode": "010003", "weight": 0.25, "position": 95, "begin": 8, "end": 8}, 
                {"id": 9, "text": "아", "type": "EC", "scode": "000000", "weight": 1, "position": 98, "begin": 9, "end": 9}, 
                {"id": 10, "text": "구지봉", "type": "NNP", "scode": "000000", "weight": 1, "position": 102, "begin": 10, "end": 10}, 
                {"id": 11, "text": "에", "type": "JKB", "scode": "000000", "weight": 1, "position": 111, "begin": 11, "end": 11}, 
                {"id": 12, "text": "모이", "type": "VV", "scode": "010201", "weight": 0.111111, "position": 115, "begin": 12, "end": 12}, 
                {"id": 13, "text": "아", "type": "EC", "scode": "000000", "weight": 1, "position": 118, "begin": 13, "end": 13}, 
                {"id": 14, "text": "함께", "type": "MAG", "scode": "000000", "weight": 1, "position": 122, "begin": 14, "end": 14}, 
                {"id": 15, "text": "부르", "type": "VV", "scode": "010104", "weight": 0.0714286, "position": 129, "begin": 15, "end": 15}, 
                {"id": 16, "text": "ㄴ", "type": "ETM", "scode": "000000", "weight": 1, "position": 132, "begin": 16, "end": 16}, 
                {"id": 17, "text": "이", "type": "MM", "scode": "050102", "weight": 0.0172414, "position": 136, "begin": 17, "end": 17}, 
                {"id": 18, "text": "가요", "type": "NNG", "scode": "020003", "weight": 0.2, "position": 140, "begin": 18, "end": 18}, 
                {"id": 19, "text": "의", "type": "JKG", "scode": "000000", "weight": 1, "position": 146, "begin": 19, "end": 19}, 
                {"id": 20, "text": "제목", "type": "NNG", "scode": "020000", "weight": 0.5, "position": 150, "begin": 20, "end": 20}, 
                {"id": 21, "text": "은", "type": "JX", "scode": "000000", "weight": 1, "position": 156, "begin": 21, "end": 21}, 
                {"id": 22, "text": "?", "type": "SF", "scode": "000000", "weight": 1, "position": 159, "begin": 22, "end": 22}
            ], 
            "word": [
                {"id": 0, "text": "가락국", "type": "", "begin": 0, "end": 0}, 
                {"id": 1, "text": "사람들이", "type": "", "begin": 1, "end": 3}, 
                {"id": 2, "text": "수로왕을", "type": "", "begin": 4, "end": 5}, 
                {"id": 3, "text": "맞이하기", "type": "", "begin": 6, "end": 7}, 
                {"id": 4, "text": "위해", "type": "", "begin": 8, "end": 9}, 
                {"id": 5, "text": "구지봉에", "type": "", "begin": 10, "end": 11}, 
                {"id": 6, "text": "모여", "type": "", "begin": 12, "end": 13}, 
                {"id": 7, "text": "함께", "type": "", "begin": 14, "end": 14}, 
                {"id": 8, "text": "부른", "type": "", "begin": 15, "end": 16}, 
                {"id": 9, "text": "이", "type": "", "begin": 17, "end": 17}, 
                {"id": 10, "text": "가요의", "type": "", "begin": 18, "end": 19}, 
                {"id": 11, "text": "제목은?", "type": "", "begin": 20, "end": 22}
            ], 
            "NE": [
                {"id": 0, "text": "가락국", "type": "LCP_COUNTRY", "begin": 0, "end": 0, "weight": 0.49527, "common_noun": 0}, 
                {"id": 1, "text": "수로왕", "type": "PS_NAME", "begin": 4, "end": 4, "weight": 0.26292, "common_noun": 0}, 
                {"id": 2, "text": "구지봉", "type": "LCG_MOUNTAIN", "begin": 10, "end": 10, "weight": 0.385888, "common_noun": 0}, 
                {"id": 3, "text": "가요", "type": "FD_ART", "begin": 18, "end": 18, "weight": 0.527091, "common_noun": 0}
            ], 
            "chunk": [], 
            "dependency": [
                {"id": 0, "text": "가락국", "head": 1, "label": "NP", "mod": [], "weight": 0.67354}, 
                {"id": 1, "text": "사람들이", "head": 3, "label": "NP_SBJ", "mod": [0], "weight": 0.482976}, 
                {"id": 2, "text": "수로왕을", "head": 3, "label": "NP_OBJ", "mod": [], "weight": 0.827898}, 
                {"id": 3, "text": "맞이하기", "head": 4, "label": "VP_OBJ", "mod": [1, 2], "weight": 0.757789}, 
                {"id": 4, "text": "위해", "head": 6, "label": "VP", "mod": [3], "weight": 0.860526}, 
                {"id": 5, "text": "구지봉에", "head": 6, "label": "NP_AJT", "mod": [], "weight": 0.677814}, 
                {"id": 6, "text": "모여", "head": 8, "label": "VP", "mod": [4, 5], "weight": 0.746396}, 
                {"id": 7, "text": "함께", "head": 8, "label": "AP", "mod": [], "weight": 0.719512}, 
                {"id": 8, "text": "부른", "head": 10, "label": "VP_MOD", "mod": [6, 7], "weight": 0.75195}, 
                {"id": 9, "text": "이", "head": 10, "label": "DP", "mod": [], "weight": 0.578829}, 
                {"id": 10, "text": "가요의", "head": 11, "label": "NP_MOD", "mod": [9, 8], "weight": 0.789823}, 
                {"id": 11, "text": "제목은?", "head": -1, "label": "NP_SBJ", "mod": [10], "weight": 0.00486301}
            ], 
            "SRL": [
                {"verb": "맞이하", "sense": 1, "word_id": 3, "weight": 0.236993, "argument": [
                    {"type": "ARG0", "word_id": 1, "text": "사람들이", "weight": 0.199413}, 
                    {"type": "ARG1", "word_id": 2, "text": "수로왕을", "weight": 0.274573}
                ]}, 
                {"verb": "위하", "sense": 1, "word_id": 4, "weight": 0.158443, "argument": [
                    {"type": "ARG1", "word_id": 3, "text": "맞이하기", "weight": 0.158443}
                ]}, 
                {"verb": "모이", "sense": 1, "word_id": 6, "weight": 0.173396, "argument": [
                    {"type": "ARGM-PRP", "word_id": 4, "text": "위해", "weight": 0.195471}, 
                    {"type": "ARG2", "word_id": 5, "text": "구지봉에", "weight": 0.151322}, 
                    {"type": "ARG1", "word_id": 1, "text": "사람들이", "weight": 1}
                ]}, 
                {"verb": "부르", "sense": 1, "word_id": 8, "weight": 0.208678, "argument": [
                    {"type": "ARG0", "word_id": 1, "text": "사람들이", "weight": 0.359642}, 
                    {"type": "ARGM-PRP", "word_id": 4, "text": "위해", "weight": 0.205738}, 
                    {"type": "ARG1", "word_id": 10, "text": "가요의", "weight": 1}, 
                    {"type": "ARGM-ADV", "word_id": 7, "text": "함께", "weight": 1}
                ]}
            ], 
            "relation": [], 
            "SA": [], 
            "ZA": []
        }
    ], 
    "entity": [
        {"id": 0, "type": "FD_ART", "number": "plural", "gender": "", "person": "", "animacy": "thing", "mention": [
            {"id": 1, "sent_id": 0, "start_eid": 0, "end_eid": 2, "ne_id": -1, "text": "작가와 연대 미상의", "start_eid_short": 1, "end_eid_short": 2, "text_short": "연대 미상의"}, 
            {"id": 9, "sent_id": 1, "start_eid": 9, "end_eid": 11, "ne_id": -1, "text": "이 가요의 제목은?", "start_eid_short": 11, "end_eid_short": 11, "text_short": "제목은?"}, 
            {"id": 10, "sent_id": 1, "start_eid": 9, "end_eid": 10, "ne_id": 3, "text": "이 가요의", "start_eid_short": 9, "end_eid_short": 10, "text_short": "이 가요의"}
        ]}, 
        {"id": 1, "type": "CV_OCCUPATION", "number": "singular", "gender": "", "person": "", "animacy": "thing", "mention": [
            {"id": 2, "sent_id": 0, "start_eid": 0, "end_eid": 0, "ne_id": 0, "text": "작가와", "start_eid_short": 0, "end_eid_short": 0, "text_short": "작가와"}
        ]}, 
        {"id": 2, "type": "", "number": "singular", "gender": "", "person": "", "animacy": "thing", "mention": [
            {"id": 3, "sent_id": 0, "start_eid": 1, "end_eid": 2, "ne_id": -1, "text": "연대 미상의", "start_eid_short": 1, "end_eid_short": 2, "text_short": "연대 미상의"}
        ]}, 
        {"id": 3, "type": "FD_ART", "number": "singular", "gender": "", "person": "", "animacy": "thing", "mention": [
            {"id": 0, "sent_id": 0, "start_eid": 0, "end_eid": 3, "ne_id": 1, "text": "작가와 연대 미상의 고대가요이다.", "start_eid_short": 3, "end_eid_short": 3, "text_short": "고대가요이다."}
        ]}, 
        {"id": 4, "type": "", "number": "singular", "gender": "", "person": "", "animacy": "thing", "mention": [
            {"id": 5, "sent_id": 1, "start_eid": 0, "end_eid": 1, "ne_id": -1, "text": "가락국 사람들이", "start_eid_short": 0, "end_eid_short": 1, "text_short": "가락국 사람들이"}
        ]}, 
        {"id": 5, "type": "LCP_COUNTRY", "number": "singular", "gender": "", "person": "", "animacy": "place", "mention": [
            {"id": 6, "sent_id": 1, "start_eid": 0, "end_eid": 0, "ne_id": 0, "text": "가락국", "start_eid_short": 0, "end_eid_short": 0, "text_short": "가락국"}
        ]}, 
        {"id": 6, "type": "PS_NAME", "number": "singular", "gender": "", "person": "", "animacy": "human", "mention": [
            {"id": 7, "sent_id": 1, "start_eid": 2, "end_eid": 2, "ne_id": 1, "text": "수로왕을", "start_eid_short": 2, "end_eid_short": 2, "text_short": "수로왕을"}
        ]}, 
        {"id": 7, "type": "LCG_MOUNTAIN", "number": "singular", "gender": "", "person": "", "animacy": "place", "mention": [
            {"id": 8, "sent_id": 1, "start_eid": 5, "end_eid": 5, "ne_id": 2, "text": "구지봉에", "start_eid_short": 5, "end_eid_short": 5, "text_short": "구지봉에"}
        ]}, 
        {"id": 8, "type": "", "number": "singular", "gender": "", "person": "", "animacy": "thing", "mention": [
            {"id": 4, "sent_id": 0, "start_eid": 1, "end_eid": 1, "ne_id": -1, "text": "연대", "start_eid_short": 1, "end_eid_short": 1, "text_short": "연대"}
        ]}
    ]
}