{
    "doc_id": "E2016.836.01_A_02.json", 
    "DCT": "", 
    "category": "", 
    "category_weight": 0, 
    "title": {
        "text": "양동마을", 
        "NE": ""
    }, 
    "metaInfo": {}, 
    "sentence": [
        {
            "id": 0, 
            "reserve_str": "", 
            "text": "양동마을(良洞마을)은 경상북도 경주시 강동면 북쪽 설창산에 둘러싸여 있는 유서 깊은 양반마을로 1984년 12월 20일 대한민국의 중요민속자료 제189호로 지정되었고, 2010년 7월 31일 브라질 브라질리아에서 열린 유네스코 세계유산위원회(WHC) 제34차 회의에서 안동 하회마을과 함께 유네스코세계문화유산으로 등재되었다.", 
            "morp": [
                {"id": 0, "lemma": "양동", "type": "NNP", "position": 0, "weight": 0.145983}, 
                {"id": 1, "lemma": "마을", "type": "NNG", "position": 6, "weight": 0.184809}, 
                {"id": 2, "lemma": "(", "type": "SS", "position": 12, "weight": 1}, 
                {"id": 3, "lemma": "良洞", "type": "SH", "position": 13, "weight": 1}, 
                {"id": 4, "lemma": "마을", "type": "NNG", "position": 19, "weight": 0.0399419}, 
                {"id": 5, "lemma": ")", "type": "SS", "position": 25, "weight": 1}, 
                {"id": 6, "lemma": "은", "type": "JX", "position": 26, "weight": 0.0128817}, 
                {"id": 7, "lemma": "경상북도", "type": "NNP", "position": 30, "weight": 0.9}, 
                {"id": 8, "lemma": "경주", "type": "NNP", "position": 43, "weight": 0.0577918}, 
                {"id": 9, "lemma": "시", "type": "NNG", "position": 49, "weight": 0.0529188}, 
                {"id": 10, "lemma": "강동면", "type": "NNP", "position": 53, "weight": 0.5}, 
                {"id": 11, "lemma": "북쪽", "type": "NNG", "position": 63, "weight": 0.9}, 
                {"id": 12, "lemma": "설창산", "type": "NNP", "position": 70, "weight": 0.0264057}, 
                {"id": 13, "lemma": "에", "type": "JKB", "position": 79, "weight": 0.153364}, 
                {"id": 14, "lemma": "둘러싸이", "type": "VV", "position": 83, "weight": 0.9}, 
                {"id": 15, "lemma": "어", "type": "EC", "position": 92, "weight": 0.41831}, 
                {"id": 16, "lemma": "있", "type": "VX", "position": 96, "weight": 0.125953}, 
                {"id": 17, "lemma": "는", "type": "ETM", "position": 99, "weight": 0.183966}, 
                {"id": 18, "lemma": "유서", "type": "NNG", "position": 103, "weight": 0.653328}, 
                {"id": 19, "lemma": "깊", "type": "VA", "position": 110, "weight": 0.9}, 
                {"id": 20, "lemma": "은", "type": "ETM", "position": 113, "weight": 0.155123}, 
                {"id": 21, "lemma": "양반", "type": "NNG", "position": 117, "weight": 0.9}, 
                {"id": 22, "lemma": "마을", "type": "NNG", "position": 123, "weight": 0.184809}, 
                {"id": 23, "lemma": "로", "type": "JKB", "position": 129, "weight": 0.153229}, 
                {"id": 24, "lemma": "1984", "type": "SN", "position": 133, "weight": 1}, 
                {"id": 25, "lemma": "년", "type": "NNB", "position": 137, "weight": 0.414343}, 
                {"id": 26, "lemma": "12", "type": "SN", "position": 141, "weight": 1}, 
                {"id": 27, "lemma": "월", "type": "NNB", "position": 143, "weight": 0.408539}, 
                {"id": 28, "lemma": "20", "type": "SN", "position": 147, "weight": 1}, 
                {"id": 29, "lemma": "일", "type": "NNB", "position": 149, "weight": 0.126777}, 
                {"id": 30, "lemma": "대한민국", "type": "NNP", "position": 153, "weight": 0.015236}, 
                {"id": 31, "lemma": "의", "type": "JKG", "position": 165, "weight": 0.0987295}, 
                {"id": 32, "lemma": "중요", "type": "NNG", "position": 169, "weight": 0.9}, 
                {"id": 33, "lemma": "민속", "type": "NNG", "position": 175, "weight": 0.9}, 
                {"id": 34, "lemma": "자료", "type": "NNG", "position": 181, "weight": 0.9}, 
                {"id": 35, "lemma": "제", "type": "XPN", "position": 188, "weight": 0.000343053}, 
                {"id": 36, "lemma": "189", "type": "SN", "position": 191, "weight": 1}, 
                {"id": 37, "lemma": "호", "type": "NNB", "position": 194, "weight": 0.215698}, 
                {"id": 38, "lemma": "로", "type": "JKB", "position": 197, "weight": 0.13544}, 
                {"id": 39, "lemma": "지정", "type": "NNG", "position": 201, "weight": 0.9}, 
                {"id": 40, "lemma": "되", "type": "XSV", "position": 207, "weight": 0.000224177}, 
                {"id": 41, "lemma": "었", "type": "EP", "position": 210, "weight": 0.9}, 
                {"id": 42, "lemma": "고", "type": "EC", "position": 213, "weight": 0.190901}, 
                {"id": 43, "lemma": ",", "type": "SP", "position": 216, "weight": 1}, 
                {"id": 44, "lemma": "2010", "type": "SN", "position": 218, "weight": 1}, 
                {"id": 45, "lemma": "년", "type": "NNB", "position": 222, "weight": 0.414343}, 
                {"id": 46, "lemma": "7", "type": "SN", "position": 226, "weight": 1}, 
                {"id": 47, "lemma": "월", "type": "NNB", "position": 227, "weight": 0.408539}, 
                {"id": 48, "lemma": "31", "type": "SN", "position": 231, "weight": 1}, 
                {"id": 49, "lemma": "일", "type": "NNB", "position": 233, "weight": 0.126777}, 
                {"id": 50, "lemma": "브라질", "type": "NNP", "position": 237, "weight": 0.9}, 
                {"id": 51, "lemma": "브라질리아", "type": "NNP", "position": 247, "weight": 0.2}, 
                {"id": 52, "lemma": "에서", "type": "JKB", "position": 262, "weight": 0.0823859}, 
                {"id": 53, "lemma": "열리", "type": "VV", "position": 269, "weight": 0.9}, 
                {"id": 54, "lemma": "ㄴ", "type": "ETM", "position": 272, "weight": 0.304215}, 
                {"id": 55, "lemma": "유네스코", "type": "NNP", "position": 276, "weight": 0.0198249}, 
                {"id": 56, "lemma": "세계유산위원회", "type": "NNP", "position": 289, "weight": 0.25}, 
                {"id": 57, "lemma": "(", "type": "SS", "position": 310, "weight": 1}, 
                {"id": 58, "lemma": "WHC", "type": "SL", "position": 311, "weight": 1}, 
                {"id": 59, "lemma": ")", "type": "SS", "position": 314, "weight": 1}, 
                {"id": 60, "lemma": "제", "type": "XPN", "position": 316, "weight": 0.00129337}, 
                {"id": 61, "lemma": "34", "type": "SN", "position": 319, "weight": 1}, 
                {"id": 62, "lemma": "차", "type": "NNB", "position": 321, "weight": 0.109163}, 
                {"id": 63, "lemma": "회의", "type": "NNG", "position": 325, "weight": 0.110593}, 
                {"id": 64, "lemma": "에서", "type": "JKB", "position": 331, "weight": 0.153407}, 
                {"id": 65, "lemma": "안동", "type": "NNP", "position": 338, "weight": 0.0223949}, 
                {"id": 66, "lemma": "하회마을", "type": "NNP", "position": 345, "weight": 0.3}, 
                {"id": 67, "lemma": "과", "type": "JC", "position": 357, "weight": 0.0108215}, 
                {"id": 68, "lemma": "함께", "type": "MAG", "position": 361, "weight": 0.9}, 
                {"id": 69, "lemma": "유네스코", "type": "NNP", "position": 368, "weight": 0.0188809}, 
                {"id": 70, "lemma": "세계", "type": "NNG", "position": 380, "weight": 0.9}, 
                {"id": 71, "lemma": "문화", "type": "NNG", "position": 386, "weight": 0.184467}, 
                {"id": 72, "lemma": "유산", "type": "NNG", "position": 392, "weight": 0.184496}, 
                {"id": 73, "lemma": "으로", "type": "JKB", "position": 398, "weight": 0.153406}, 
                {"id": 74, "lemma": "등재", "type": "NNG", "position": 405, "weight": 0.2}, 
                {"id": 75, "lemma": "되", "type": "XSV", "position": 411, "weight": 0.000224177}, 
                {"id": 76, "lemma": "었", "type": "EP", "position": 414, "weight": 0.9}, 
                {"id": 77, "lemma": "다", "type": "EF", "position": 417, "weight": 0.640954}, 
                {"id": 78, "lemma": ".", "type": "SF", "position": 420, "weight": 1}
            ], 
            "morp_eval": [], 
            "WSD": [
                {"id": 0, "text": "양동", "type": "NNP", "scode": "000000", "weight": 0.5, "position": 0, "begin": 0, "end": 0}, 
                {"id": 1, "text": "마을", "type": "NNG", "scode": "010001", "weight": 0.333333, "position": 6, "begin": 1, "end": 1}, 
                {"id": 2, "text": "(", "type": "SS", "scode": "000000", "weight": 1, "position": 12, "begin": 2, "end": 2}, 
                {"id": 3, "text": "良洞", "type": "SH", "scode": "000000", "weight": 1, "position": 13, "begin": 3, "end": 3}, 
                {"id": 4, "text": "마을", "type": "NNG", "scode": "010001", "weight": 0.333333, "position": 19, "begin": 4, "end": 4}, 
                {"id": 5, "text": ")", "type": "SS", "scode": "000000", "weight": 1, "position": 25, "begin": 5, "end": 5}, 
                {"id": 6, "text": "은", "type": "JX", "scode": "000000", "weight": 1, "position": 26, "begin": 6, "end": 6}, 
                {"id": 7, "text": "경상북도", "type": "NNP", "scode": "000000", "weight": 1, "position": 30, "begin": 7, "end": 7}, 
                {"id": 8, "text": "경주", "type": "NNP", "scode": "040000", "weight": 0.0909091, "position": 43, "begin": 8, "end": 8}, 
                {"id": 9, "text": "시", "type": "NNG", "scode": "060001", "weight": 0.025641, "position": 49, "begin": 9, "end": 9}, 
                {"id": 10, "text": "강동면", "type": "NNP", "scode": "000000", "weight": 0, "position": 53, "begin": 10, "end": 10}, 
                {"id": 11, "text": "북쪽", "type": "NNG", "scode": "000001", "weight": 0.5, "position": 63, "begin": 11, "end": 11}, 
                {"id": 12, "text": "설창산", "type": "NNP", "scode": "000000", "weight": 0, "position": 70, "begin": 12, "end": 12}, 
                {"id": 13, "text": "에", "type": "JKB", "scode": "000000", "weight": 1, "position": 79, "begin": 13, "end": 13}, 
                {"id": 14, "text": "둘러싸이", "type": "VV", "scode": "000001", "weight": 0.5, "position": 83, "begin": 14, "end": 14}, 
                {"id": 15, "text": "어", "type": "EC", "scode": "000000", "weight": 1, "position": 92, "begin": 15, "end": 15}, 
                {"id": 16, "text": "있", "type": "VX", "scode": "010901", "weight": 0.0416667, "position": 96, "begin": 16, "end": 16}, 
                {"id": 17, "text": "는", "type": "ETM", "scode": "000000", "weight": 1, "position": 99, "begin": 17, "end": 17}, 
                {"id": 18, "text": "유서", "type": "NNG", "scode": "010000", "weight": 0.0769231, "position": 103, "begin": 18, "end": 18}, 
                {"id": 19, "text": "깊", "type": "VA", "scode": "000004", "weight": 0.2, "position": 110, "begin": 19, "end": 19}, 
                {"id": 20, "text": "은", "type": "ETM", "scode": "000000", "weight": 1, "position": 113, "begin": 20, "end": 20}, 
                {"id": 21, "text": "양반", "type": "NNG", "scode": "030001", "weight": 0.125, "position": 117, "begin": 21, "end": 21}, 
                {"id": 22, "text": "마을", "type": "NNG", "scode": "010001", "weight": 0.333333, "position": 123, "begin": 22, "end": 22}, 
                {"id": 23, "text": "로", "type": "JKB", "scode": "000000", "weight": 1, "position": 129, "begin": 23, "end": 23}, 
                {"id": 24, "text": "1984", "type": "SN", "scode": "000000", "weight": 1, "position": 133, "begin": 24, "end": 24}, 
                {"id": 25, "text": "년", "type": "NNB", "scode": "020000", "weight": 0.166667, "position": 137, "begin": 25, "end": 25}, 
                {"id": 26, "text": "12", "type": "SN", "scode": "000000", "weight": 1, "position": 141, "begin": 26, "end": 26}, 
                {"id": 27, "text": "월", "type": "NNB", "scode": "020100", "weight": 0.125, "position": 143, "begin": 27, "end": 27}, 
                {"id": 28, "text": "20", "type": "SN", "scode": "000000", "weight": 1, "position": 147, "begin": 28, "end": 28}, 
                {"id": 29, "text": "일", "type": "NNB", "scode": "070100", "weight": 0.04, "position": 149, "begin": 29, "end": 29}, 
                {"id": 30, "text": "대한민국", "type": "NNP", "scode": "000000", "weight": 1, "position": 153, "begin": 30, "end": 30}, 
                {"id": 31, "text": "의", "type": "JKG", "scode": "000000", "weight": 1, "position": 165, "begin": 31, "end": 31}, 
                {"id": 32, "text": "중요", "type": "NNG", "scode": "020000", "weight": 0.333333, "position": 169, "begin": 32, "end": 32}, 
                {"id": 33, "text": "민속자료", "type": "NNG", "scode": "000000", "weight": 1, "position": 175, "begin": 33, "end": 34}, 
                {"id": 34, "text": "제", "type": "XPN", "scode": "210000", "weight": 0.0322581, "position": 188, "begin": 35, "end": 35}, 
                {"id": 35, "text": "189", "type": "SN", "scode": "000000", "weight": 1, "position": 191, "begin": 36, "end": 36}, 
                {"id": 36, "text": "호", "type": "NNB", "scode": "140002", "weight": 0.0333333, "position": 194, "begin": 37, "end": 37}, 
                {"id": 37, "text": "로", "type": "JKB", "scode": "000000", "weight": 1, "position": 197, "begin": 38, "end": 38}, 
                {"id": 38, "text": "지정되", "type": "VV", "scode": "000002", "weight": 0.5, "position": 201, "begin": 39, "end": 40}, 
                {"id": 39, "text": "었", "type": "EP", "scode": "000000", "weight": 1, "position": 210, "begin": 41, "end": 41}, 
                {"id": 40, "text": "고", "type": "EC", "scode": "000000", "weight": 1, "position": 213, "begin": 42, "end": 42}, 
                {"id": 41, "text": ",", "type": "SP", "scode": "000000", "weight": 1, "position": 216, "begin": 43, "end": 43}, 
                {"id": 42, "text": "2010", "type": "SN", "scode": "000000", "weight": 1, "position": 218, "begin": 44, "end": 44}, 
                {"id": 43, "text": "년", "type": "NNB", "scode": "020000", "weight": 0.166667, "position": 222, "begin": 45, "end": 45}, 
                {"id": 44, "text": "7", "type": "SN", "scode": "000000", "weight": 1, "position": 226, "begin": 46, "end": 46}, 
                {"id": 45, "text": "월", "type": "NNB", "scode": "020100", "weight": 0.125, "position": 227, "begin": 47, "end": 47}, 
                {"id": 46, "text": "31", "type": "SN", "scode": "000000", "weight": 1, "position": 231, "begin": 48, "end": 48}, 
                {"id": 47, "text": "일", "type": "NNB", "scode": "070100", "weight": 0.04, "position": 233, "begin": 49, "end": 49}, 
                {"id": 48, "text": "브라질", "type": "NNP", "scode": "000000", "weight": 1, "position": 237, "begin": 50, "end": 50}, 
                {"id": 49, "text": "브라질리아", "type": "NNP", "scode": "000000", "weight": 1, "position": 247, "begin": 51, "end": 51}, 
                {"id": 50, "text": "에서", "type": "JKB", "scode": "000000", "weight": 1, "position": 262, "begin": 52, "end": 52}, 
                {"id": 51, "text": "열리", "type": "VV", "scode": "020102", "weight": 0.166667, "position": 269, "begin": 53, "end": 53}, 
                {"id": 52, "text": "ㄴ", "type": "ETM", "scode": "000000", "weight": 1, "position": 272, "begin": 54, "end": 54}, 
                {"id": 53, "text": "유네스코", "type": "NNP", "scode": "000000", "weight": 1, "position": 276, "begin": 55, "end": 55}, 
                {"id": 54, "text": "세계유산위원회", "type": "NNP", "scode": "000000", "weight": 0, "position": 289, "begin": 56, "end": 56}, 
                {"id": 55, "text": "(", "type": "SS", "scode": "000000", "weight": 1, "position": 310, "begin": 57, "end": 57}, 
                {"id": 56, "text": "WHC", "type": "SL", "scode": "000000", "weight": 1, "position": 311, "begin": 58, "end": 58}, 
                {"id": 57, "text": ")", "type": "SS", "scode": "000000", "weight": 1, "position": 314, "begin": 59, "end": 59}, 
                {"id": 58, "text": "제", "type": "XPN", "scode": "210000", "weight": 0.0322581, "position": 316, "begin": 60, "end": 60}, 
                {"id": 59, "text": "34", "type": "SN", "scode": "000000", "weight": 1, "position": 319, "begin": 61, "end": 61}, 
                {"id": 60, "text": "차", "type": "NNB", "scode": "030001", "weight": 0.05, "position": 321, "begin": 62, "end": 62}, 
                {"id": 61, "text": "회의", "type": "NNG", "scode": "040001", "weight": 0.1, "position": 325, "begin": 63, "end": 63}, 
                {"id": 62, "text": "에서", "type": "JKB", "scode": "000000", "weight": 1, "position": 331, "begin": 64, "end": 64}, 
                {"id": 63, "text": "안동", "type": "NNP", "scode": "010000", "weight": 0.2, "position": 338, "begin": 65, "end": 65}, 
                {"id": 64, "text": "하회마을", "type": "NNP", "scode": "000000", "weight": 0, "position": 345, "begin": 66, "end": 66}, 
                {"id": 65, "text": "과", "type": "JC", "scode": "000000", "weight": 1, "position": 357, "begin": 67, "end": 67}, 
                {"id": 66, "text": "함께", "type": "MAG", "scode": "000000", "weight": 1, "position": 361, "begin": 68, "end": 68}, 
                {"id": 67, "text": "유네스코", "type": "NNP", "scode": "000000", "weight": 1, "position": 368, "begin": 69, "end": 69}, 
                {"id": 68, "text": "세계", "type": "NNG", "scode": "020001", "weight": 0.166667, "position": 380, "begin": 70, "end": 70}, 
                {"id": 69, "text": "문화유산", "type": "NNG", "scode": "000000", "weight": 1, "position": 386, "begin": 71, "end": 72}, 
                {"id": 70, "text": "으로", "type": "JKB", "scode": "000000", "weight": 1, "position": 398, "begin": 73, "end": 73}, 
                {"id": 71, "text": "등재되", "type": "VV", "scode": "020001", "weight": 0.333333, "position": 405, "begin": 74, "end": 75}, 
                {"id": 72, "text": "었", "type": "EP", "scode": "000000", "weight": 1, "position": 414, "begin": 76, "end": 76}, 
                {"id": 73, "text": "다", "type": "EF", "scode": "000000", "weight": 1, "position": 417, "begin": 77, "end": 77}, 
                {"id": 74, "text": ".", "type": "SF", "scode": "000000", "weight": 1, "position": 420, "begin": 78, "end": 78}
            ], 
            "word": [
                {"id": 0, "text": "양동마을(良洞마을)은", "type": "", "begin": 0, "end": 6}, 
                {"id": 1, "text": "경상북도", "type": "", "begin": 7, "end": 7}, 
                {"id": 2, "text": "경주시", "type": "", "begin": 8, "end": 9}, 
                {"id": 3, "text": "강동면", "type": "", "begin": 10, "end": 10}, 
                {"id": 4, "text": "북쪽", "type": "", "begin": 11, "end": 11}, 
                {"id": 5, "text": "설창산에", "type": "", "begin": 12, "end": 13}, 
                {"id": 6, "text": "둘러싸여", "type": "", "begin": 14, "end": 15}, 
                {"id": 7, "text": "있는", "type": "", "begin": 16, "end": 17}, 
                {"id": 8, "text": "유서", "type": "", "begin": 18, "end": 18}, 
                {"id": 9, "text": "깊은", "type": "", "begin": 19, "end": 20}, 
                {"id": 10, "text": "양반마을로", "type": "", "begin": 21, "end": 23}, 
                {"id": 11, "text": "1984년", "type": "", "begin": 24, "end": 25}, 
                {"id": 12, "text": "12월", "type": "", "begin": 26, "end": 27}, 
                {"id": 13, "text": "20일", "type": "", "begin": 28, "end": 29}, 
                {"id": 14, "text": "대한민국의", "type": "", "begin": 30, "end": 31}, 
                {"id": 15, "text": "중요민속자료", "type": "", "begin": 32, "end": 34}, 
                {"id": 16, "text": "제189호로", "type": "", "begin": 35, "end": 38}, 
                {"id": 17, "text": "지정되었고,", "type": "", "begin": 39, "end": 43}, 
                {"id": 18, "text": "2010년", "type": "", "begin": 44, "end": 45}, 
                {"id": 19, "text": "7월", "type": "", "begin": 46, "end": 47}, 
                {"id": 20, "text": "31일", "type": "", "begin": 48, "end": 49}, 
                {"id": 21, "text": "브라질", "type": "", "begin": 50, "end": 50}, 
                {"id": 22, "text": "브라질리아에서", "type": "", "begin": 51, "end": 52}, 
                {"id": 23, "text": "열린", "type": "", "begin": 53, "end": 54}, 
                {"id": 24, "text": "유네스코", "type": "", "begin": 55, "end": 55}, 
                {"id": 25, "text": "세계유산위원회(WHC)", "type": "", "begin": 56, "end": 59}, 
                {"id": 26, "text": "제34차", "type": "", "begin": 60, "end": 62}, 
                {"id": 27, "text": "회의에서", "type": "", "begin": 63, "end": 64}, 
                {"id": 28, "text": "안동", "type": "", "begin": 65, "end": 65}, 
                {"id": 29, "text": "하회마을과", "type": "", "begin": 66, "end": 67}, 
                {"id": 30, "text": "함께", "type": "", "begin": 68, "end": 68}, 
                {"id": 31, "text": "유네스코세계문화유산으로", "type": "", "begin": 69, "end": 73}, 
                {"id": 32, "text": "등재되었다.", "type": "", "begin": 74, "end": 78}
            ], 
            "NE": [
                {"id": 0, "text": "양동마을", "type": "LCP_COUNTY", "begin": 0, "end": 1, "weight": 0.581108, "common_noun": 0}, 
                {"id": 1, "text": "良洞마을", "type": "LCP_COUNTY", "begin": 3, "end": 4, "weight": 0.35286, "common_noun": 0}, 
                {"id": 2, "text": "경상북도", "type": "LCP_PROVINCE", "begin": 7, "end": 7, "weight": 0.779953, "common_noun": 0}, 
                {"id": 3, "text": "경주시", "type": "LCP_CITY", "begin": 8, "end": 9, "weight": 0.730212, "common_noun": 0}, 
                {"id": 4, "text": "강동면", "type": "LCP_COUNTY", "begin": 10, "end": 10, "weight": 0.747649, "common_noun": 0}, 
                {"id": 5, "text": "북쪽", "type": "TM_DIRECTION", "begin": 11, "end": 11, "weight": 0.391636, "common_noun": 0}, 
                {"id": 6, "text": "설창산", "type": "LCG_MOUNTAIN", "begin": 12, "end": 12, "weight": 0.235589, "common_noun": 0}, 
                {"id": 7, "text": "양반", "type": "CV_POSITION", "begin": 21, "end": 21, "weight": 0.439577, "common_noun": 0}, 
                {"id": 8, "text": "1984년 12월 20일", "type": "DT_OTHERS", "begin": 24, "end": 29, "weight": 0.816173, "common_noun": 0}, 
                {"id": 9, "text": "대한민국", "type": "LCP_COUNTRY", "begin": 30, "end": 30, "weight": 0.256727, "common_noun": 0}, 
                {"id": 10, "text": "제189호", "type": "QT_ORDER", "begin": 35, "end": 37, "weight": 0.720971, "common_noun": 0}, 
                {"id": 11, "text": "2010년 7월 31일", "type": "DT_OTHERS", "begin": 44, "end": 49, "weight": 0.751959, "common_noun": 0}, 
                {"id": 12, "text": "브라질", "type": "LCP_COUNTRY", "begin": 50, "end": 50, "weight": 0.783541, "common_noun": 0}, 
                {"id": 13, "text": "브라질리아", "type": "LCP_CAPITALCITY", "begin": 51, "end": 51, "weight": 0.621285, "common_noun": 0}, 
                {"id": 14, "text": "유네스코", "type": "OG_OTHERS", "begin": 55, "end": 55, "weight": 0.681618, "common_noun": 0}, 
                {"id": 15, "text": "세계유산위원회", "type": "OG_OTHERS", "begin": 56, "end": 56, "weight": 0.458672, "common_noun": 0}, 
                {"id": 16, "text": "WHC", "type": "OG_OTHERS", "begin": 58, "end": 58, "weight": 0.131644, "common_noun": 0}, 
                {"id": 17, "text": "제34차", "type": "QT_ORDER", "begin": 60, "end": 62, "weight": 0.731436, "common_noun": 0}, 
                {"id": 18, "text": "안동", "type": "LCP_CITY", "begin": 65, "end": 65, "weight": 0.797894, "common_noun": 0}, 
                {"id": 19, "text": "하회마을", "type": "LCP_COUNTY", "begin": 66, "end": 66, "weight": 0.477306, "common_noun": 0}, 
                {"id": 20, "text": "유네스코", "type": "OG_OTHERS", "begin": 69, "end": 69, "weight": 0.338806, "common_noun": 0}
            ], 
            "chunk": [], 
            "dependency": [
                {"id": 0, "text": "양동마을(良洞마을)은", "head": 10, "label": "NP_SBJ", "mod": [], "weight": 0.665597}, 
                {"id": 1, "text": "경상북도", "head": 2, "label": "NP", "mod": [], "weight": 0.527226}, 
                {"id": 2, "text": "경주시", "head": 3, "label": "NP", "mod": [1], "weight": 0.714887}, 
                {"id": 3, "text": "강동면", "head": 4, "label": "NP", "mod": [2], "weight": 0.574759}, 
                {"id": 4, "text": "북쪽", "head": 5, "label": "NP", "mod": [3], "weight": 0.602453}, 
                {"id": 5, "text": "설창산에", "head": 6, "label": "NP_AJT", "mod": [4], "weight": 0.78623}, 
                {"id": 6, "text": "둘러싸여", "head": 7, "label": "VP", "mod": [5], "weight": 0.877856}, 
                {"id": 7, "text": "있는", "head": 10, "label": "VP_MOD", "mod": [6], "weight": 0.728854}, 
                {"id": 8, "text": "유서", "head": 9, "label": "NP_SBJ", "mod": [], "weight": 0.306473}, 
                {"id": 9, "text": "깊은", "head": 10, "label": "VP_MOD", "mod": [8], "weight": 0.737752}, 
                {"id": 10, "text": "양반마을로", "head": 17, "label": "NP_AJT", "mod": [7, 9, 0], "weight": 0.780342}, 
                {"id": 11, "text": "1984년", "head": 12, "label": "NP", "mod": [], "weight": 0.711395}, 
                {"id": 12, "text": "12월", "head": 13, "label": "NP", "mod": [11], "weight": 0.637813}, 
                {"id": 13, "text": "20일", "head": 17, "label": "NP_AJT", "mod": [12], "weight": 0.716507}, 
                {"id": 14, "text": "대한민국의", "head": 15, "label": "NP_MOD", "mod": [], "weight": 0.429031}, 
                {"id": 15, "text": "중요민속자료", "head": 16, "label": "NP", "mod": [14], "weight": 0.845189}, 
                {"id": 16, "text": "제189호로", "head": 17, "label": "NP_AJT", "mod": [15], "weight": 0.791304}, 
                {"id": 17, "text": "지정되었고,", "head": 32, "label": "VP", "mod": [10, 13, 16], "weight": 0.707101}, 
                {"id": 18, "text": "2010년", "head": 19, "label": "NP", "mod": [], "weight": 0.55289}, 
                {"id": 19, "text": "7월", "head": 20, "label": "NP", "mod": [18], "weight": 0.735011}, 
                {"id": 20, "text": "31일", "head": 23, "label": "NP_AJT", "mod": [19], "weight": 0.551977}, 
                {"id": 21, "text": "브라질", "head": 22, "label": "NP", "mod": [], "weight": 0.733188}, 
                {"id": 22, "text": "브라질리아에서", "head": 23, "label": "NP_AJT", "mod": [21], "weight": 0.853993}, 
                {"id": 23, "text": "열린", "head": 27, "label": "VP_MOD", "mod": [20, 22], "weight": 0.663371}, 
                {"id": 24, "text": "유네스코", "head": 25, "label": "NP", "mod": [], "weight": 0.800347}, 
                {"id": 25, "text": "세계유산위원회(WHC)", "head": 27, "label": "NP", "mod": [24], "weight": 0.626352}, 
                {"id": 26, "text": "제34차", "head": 27, "label": "NP", "mod": [], "weight": 0.586807}, 
                {"id": 27, "text": "회의에서", "head": 32, "label": "NP_AJT", "mod": [23, 25, 26], "weight": 0.872462}, 
                {"id": 28, "text": "안동", "head": 29, "label": "NP", "mod": [], "weight": 0.827307}, 
                {"id": 29, "text": "하회마을과", "head": 30, "label": "NP_AJT", "mod": [28], "weight": 0.622305}, 
                {"id": 30, "text": "함께", "head": 32, "label": "AP", "mod": [29], "weight": 0.826492}, 
                {"id": 31, "text": "유네스코세계문화유산으로", "head": 32, "label": "NP_AJT", "mod": [], "weight": 0.858035}, 
                {"id": 32, "text": "등재되었다.", "head": -1, "label": "VP", "mod": [17, 27, 30, 31], "weight": 3.8509e-06}
            ], 
            "SRL": [
                {"verb": "둘러싸이", "sense": 1, "word_id": 6, "weight": 0.284046, "argument": [
                    {"type": "ARG2", "word_id": 5, "text": "설창산에", "weight": 0.164829}, 
                    {"type": "AUX", "word_id": 7, "text": "있는", "weight": 0.403264}, 
                    {"type": "ARG1", "word_id": 10, "text": "양반마을로", "weight": 1}
                ]}, 
                {"verb": "깊", "sense": 1, "word_id": 9, "weight": 0.169985, "argument": [
                    {"type": "ARG1", "word_id": 8, "text": "유서", "weight": 0.184975}, 
                    {"type": "ARG1", "word_id": 10, "text": "양반마을로", "weight": 1}
                ]}, 
                {"verb": "지정", "sense": 1, "word_id": 17, "weight": 0.196326, "argument": [
                    {"type": "ARGM-TMP", "word_id": 13, "text": "20일", "weight": 0.217253}, 
                    {"type": "ARG2", "word_id": 16, "text": "제189호로", "weight": 0.175399}
                ]}, 
                {"verb": "열리", "sense": 1, "word_id": 23, "weight": 0.354827, "argument": [
                    {"type": "ARGM-TMP", "word_id": 20, "text": "31일", "weight": 0.324851}, 
                    {"type": "ARGM-LOC", "word_id": 22, "text": "브라질리아에서", "weight": 0.235925}, 
                    {"type": "ARG1", "word_id": 27, "text": "회의에서", "weight": 0.503705}
                ]}, 
                {"verb": "등재", "sense": 1, "word_id": 32, "weight": 0.155874, "argument": [
                    {"type": "ARG1", "word_id": 0, "text": "양동마을(良洞마을)은", "weight": 0.153158}, 
                    {"type": "ARGM-LOC", "word_id": 27, "text": "회의에서", "weight": 1}, 
                    {"type": "ARG2", "word_id": 31, "text": "유네스코세계문화유산으로", "weight": 0.112848}, 
                    {"type": "ARGM-ADV", "word_id": 30, "text": "함께", "weight": 1}
                ]}
            ], 
            "relation": [], 
            "SA": [], 
            "ZA": []
        }
    ], 
    "entity": [
        {"id": 0, "type": "LCP_COUNTY", "number": "singular", "gender": "", "person": "", "animacy": "place", "mention": [
            {"id": 0, "sent_id": 0, "start_eid": 0, "end_eid": 0, "ne_id": 0, "text": "양동마을(良洞마을)은", "start_eid_short": 0, "end_eid_short": 0, "text_short": "양동마을(良洞마을)은"}, 
            {"id": 1, "sent_id": 0, "start_eid": 1, "end_eid": 10, "ne_id": -1, "text": "경상북도 경주시 강동면 북쪽 설창산에 둘러싸여 있는 유서 깊은 양반마을로", "start_eid_short": 10, "end_eid_short": 10, "text_short": "양반마을로"}
        ]}, 
        {"id": 1, "type": "LCP_CITY", "number": "singular", "gender": "", "person": "", "animacy": "place", "mention": [
            {"id": 5, "sent_id": 0, "start_eid": 1, "end_eid": 2, "ne_id": 3, "text": "경상북도 경주시", "start_eid_short": 1, "end_eid_short": 2, "text_short": "경상북도 경주시"}
        ]}, 
        {"id": 2, "type": "LCP_PROVINCE", "number": "singular", "gender": "", "person": "", "animacy": "place", "mention": [
            {"id": 6, "sent_id": 0, "start_eid": 1, "end_eid": 1, "ne_id": 2, "text": "경상북도", "start_eid_short": 1, "end_eid_short": 1, "text_short": "경상북도"}
        ]}, 
        {"id": 3, "type": "LCP_COUNTY", "number": "singular", "gender": "", "person": "", "animacy": "place", "mention": [
            {"id": 4, "sent_id": 0, "start_eid": 1, "end_eid": 3, "ne_id": 4, "text": "경상북도 경주시 강동면", "start_eid_short": 1, "end_eid_short": 3, "text_short": "경상북도 경주시 강동면"}
        ]}, 
        {"id": 4, "type": "TM_DIRECTION", "number": "singular", "gender": "", "person": "", "animacy": "thing", "mention": [
            {"id": 3, "sent_id": 0, "start_eid": 1, "end_eid": 4, "ne_id": 5, "text": "경상북도 경주시 강동면 북쪽", "start_eid_short": 1, "end_eid_short": 4, "text_short": "경상북도 경주시 강동면 북쪽"}
        ]}, 
        {"id": 5, "type": "LCG_MOUNTAIN", "number": "singular", "gender": "", "person": "", "animacy": "place", "mention": [
            {"id": 2, "sent_id": 0, "start_eid": 1, "end_eid": 5, "ne_id": 6, "text": "경상북도 경주시 강동면 북쪽 설창산에", "start_eid_short": 1, "end_eid_short": 5, "text_short": "경상북도 경주시 강동면 북쪽 설창산에"}
        ]}, 
        {"id": 6, "type": "", "number": "singular", "gender": "", "person": "", "animacy": "thing", "mention": [
            {"id": 7, "sent_id": 0, "start_eid": 8, "end_eid": 8, "ne_id": -1, "text": "유서", "start_eid_short": 8, "end_eid_short": 8, "text_short": "유서"}
        ]}, 
        {"id": 7, "type": "DT_OTHERS", "number": "singular", "gender": "", "person": "", "animacy": "time", "mention": [
            {"id": 8, "sent_id": 0, "start_eid": 11, "end_eid": 13, "ne_id": 7, "text": "1984년 12월 20일", "start_eid_short": 11, "end_eid_short": 13, "text_short": "1984년 12월 20일"}
        ]}, 
        {"id": 8, "type": "", "number": "singular", "gender": "", "person": "", "animacy": "thing", "mention": [
            {"id": 10, "sent_id": 0, "start_eid": 14, "end_eid": 15, "ne_id": -1, "text": "대한민국의 중요민속자료", "start_eid_short": 15, "end_eid_short": 15, "text_short": "중요민속자료"}
        ]}, 
        {"id": 9, "type": "LCP_COUNTRY", "number": "singular", "gender": "", "person": "", "animacy": "place", "mention": [
            {"id": 11, "sent_id": 0, "start_eid": 14, "end_eid": 14, "ne_id": 8, "text": "대한민국의", "start_eid_short": 14, "end_eid_short": 14, "text_short": "대한민국의"}
        ]}, 
        {"id": 10, "type": "QT_ORDER", "number": "singular", "gender": "", "person": "", "animacy": "thing", "mention": [
            {"id": 9, "sent_id": 0, "start_eid": 14, "end_eid": 16, "ne_id": 9, "text": "대한민국의 중요민속자료 제189호로", "start_eid_short": 15, "end_eid_short": 16, "text_short": "중요민속자료 제189호로"}
        ]}, 
        {"id": 11, "type": "", "number": "singular", "gender": "", "person": "", "animacy": "thing", "mention": [
            {"id": 12, "sent_id": 0, "start_eid": 18, "end_eid": 27, "ne_id": -1, "text": "2010년 7월 31일 브라질 브라질리아에서 열린 유네스코 세계유산위원회(WHC) 제34차 회의에서", "start_eid_short": 26, "end_eid_short": 27, "text_short": "제34차 회의에서"}
        ]}, 
        {"id": 12, "type": "DT_OTHERS", "number": "singular", "gender": "", "person": "", "animacy": "time", "mention": [
            {"id": 13, "sent_id": 0, "start_eid": 18, "end_eid": 20, "ne_id": 10, "text": "2010년 7월 31일", "start_eid_short": 18, "end_eid_short": 20, "text_short": "2010년 7월 31일"}
        ]}, 
        {"id": 13, "type": "LCP_CAPITALCITY", "number": "singular", "gender": "", "person": "", "animacy": "place", "mention": [
            {"id": 14, "sent_id": 0, "start_eid": 21, "end_eid": 22, "ne_id": 12, "text": "브라질 브라질리아에서", "start_eid_short": 21, "end_eid_short": 22, "text_short": "브라질 브라질리아에서"}
        ]}, 
        {"id": 14, "type": "LCP_COUNTRY", "number": "singular", "gender": "", "person": "", "animacy": "place", "mention": [
            {"id": 15, "sent_id": 0, "start_eid": 21, "end_eid": 21, "ne_id": 11, "text": "브라질", "start_eid_short": 21, "end_eid_short": 21, "text_short": "브라질"}
        ]}, 
        {"id": 15, "type": "OG_OTHERS", "number": "singular", "gender": "", "person": "", "animacy": "thing", "mention": [
            {"id": 16, "sent_id": 0, "start_eid": 24, "end_eid": 24, "ne_id": 13, "text": "유네스코", "start_eid_short": 24, "end_eid_short": 24, "text_short": "유네스코"}
        ]}, 
        {"id": 16, "type": "OGG_MEDICINE", "number": "singular", "gender": "", "person": "", "animacy": "thing", "mention": [
            {"id": 17, "sent_id": 0, "start_eid": 25, "end_eid": 25, "ne_id": 14, "text": "세계유산위원회(WHC)", "start_eid_short": 25, "end_eid_short": 0, "text_short": ""}
        ]}, 
        {"id": 17, "type": "QT_ORDER", "number": "singular", "gender": "", "person": "", "animacy": "thing", "mention": [
            {"id": 18, "sent_id": 0, "start_eid": 26, "end_eid": 26, "ne_id": 16, "text": "제34차", "start_eid_short": 26, "end_eid_short": 26, "text_short": "제34차"}
        ]}, 
        {"id": 18, "type": "LCP_COUNTY", "number": "singular", "gender": "", "person": "", "animacy": "place", "mention": [
            {"id": 19, "sent_id": 0, "start_eid": 28, "end_eid": 29, "ne_id": 18, "text": "안동 하회마을과", "start_eid_short": 28, "end_eid_short": 29, "text_short": "안동 하회마을과"}
        ]}, 
        {"id": 19, "type": "LCP_CITY", "number": "singular", "gender": "", "person": "", "animacy": "place", "mention": [
            {"id": 20, "sent_id": 0, "start_eid": 28, "end_eid": 28, "ne_id": 17, "text": "안동", "start_eid_short": 28, "end_eid_short": 28, "text_short": "안동"}
        ]}, 
        {"id": 20, "type": "OG_OTHERS", "number": "singular", "gender": "", "person": "", "animacy": "thing", "mention": [
            {"id": 21, "sent_id": 0, "start_eid": 31, "end_eid": 31, "ne_id": 19, "text": "유네스코세계문화유산으로", "start_eid_short": 31, "end_eid_short": 31, "text_short": "유네스코세계문화유산으로"}
        ]}
    ]
}