{
    "doc_id": "E2016.790.19_Q_01.json", 
    "DCT": "", 
    "category": "", 
    "category_weight": 0, 
    "title": {
        "text": "", 
        "NE": ""
    }, 
    "metaInfo": {}, 
    "sentence": [
        {
            "id": 0, 
            "reserve_str": "", 
            "text": "이 사람은 황룡사의 벽화 <노송도>를 그렸다고 전해지는 신라 시대의 화가이다.", 
            "morp": [
                {"id": 0, "lemma": "이", "type": "MM", "position": 0, "weight": 0.0020222}, 
                {"id": 1, "lemma": "사람", "type": "NNG", "position": 4, "weight": 0.737436}, 
                {"id": 2, "lemma": "은", "type": "JX", "position": 10, "weight": 0.0449928}, 
                {"id": 3, "lemma": "황룡사", "type": "NNP", "position": 14, "weight": 0.236307}, 
                {"id": 4, "lemma": "의", "type": "JKG", "position": 23, "weight": 0.120732}, 
                {"id": 5, "lemma": "벽화", "type": "NNG", "position": 27, "weight": 0.9}, 
                {"id": 6, "lemma": "<", "type": "SS", "position": 34, "weight": 1}, 
                {"id": 7, "lemma": "노송도", "type": "NNP", "position": 35, "weight": 0.0337285}, 
                {"id": 8, "lemma": ">", "type": "SS", "position": 44, "weight": 1}, 
                {"id": 9, "lemma": "를", "type": "JKO", "position": 45, "weight": 0.0357023}, 
                {"id": 10, "lemma": "그리", "type": "VV", "position": 49, "weight": 0.604417}, 
                {"id": 11, "lemma": "었", "type": "EP", "position": 52, "weight": 0.9}, 
                {"id": 12, "lemma": "다고", "type": "EC", "position": 55, "weight": 0.193823}, 
                {"id": 13, "lemma": "전하", "type": "VV", "position": 62, "weight": 0.213807}, 
                {"id": 14, "lemma": "아", "type": "EC", "position": 65, "weight": 0.41831}, 
                {"id": 15, "lemma": "지", "type": "VX", "position": 68, "weight": 0.0539764}, 
                {"id": 16, "lemma": "는", "type": "ETM", "position": 71, "weight": 0.183966}, 
                {"id": 17, "lemma": "신라", "type": "NNP", "position": 75, "weight": 0.9}, 
                {"id": 18, "lemma": "시대", "type": "NNG", "position": 82, "weight": 0.9}, 
                {"id": 19, "lemma": "의", "type": "JKG", "position": 88, "weight": 0.0694213}, 
                {"id": 20, "lemma": "화가", "type": "NNG", "position": 92, "weight": 0.9}, 
                {"id": 21, "lemma": "이", "type": "VCP", "position": 98, "weight": 0.0177525}, 
                {"id": 22, "lemma": "다", "type": "EF", "position": 101, "weight": 0.353579}, 
                {"id": 23, "lemma": ".", "type": "SF", "position": 104, "weight": 1}
            ], 
            "morp_eval": [], 
            "WSD": [
                {"id": 0, "text": "이", "type": "MM", "scode": "050002", "weight": 0.0172414, "position": 0, "begin": 0, "end": 0}, 
                {"id": 1, "text": "사람", "type": "NNG", "scode": "000001", "weight": 0.0909091, "position": 4, "begin": 1, "end": 1}, 
                {"id": 2, "text": "은", "type": "JX", "scode": "000000", "weight": 1, "position": 10, "begin": 2, "end": 2}, 
                {"id": 3, "text": "황룡사", "type": "NNP", "scode": "000000", "weight": 1, "position": 14, "begin": 3, "end": 3}, 
                {"id": 4, "text": "의", "type": "JKG", "scode": "000000", "weight": 1, "position": 23, "begin": 4, "end": 4}, 
                {"id": 5, "text": "벽화", "type": "NNG", "scode": "000000", "weight": 1, "position": 27, "begin": 5, "end": 5}, 
                {"id": 6, "text": "<", "type": "SS", "scode": "000000", "weight": 1, "position": 34, "begin": 6, "end": 6}, 
                {"id": 7, "text": "노송도", "type": "NNP", "scode": "000000", "weight": 0, "position": 35, "begin": 7, "end": 7}, 
                {"id": 8, "text": ">", "type": "SS", "scode": "000000", "weight": 1, "position": 44, "begin": 8, "end": 8}, 
                {"id": 9, "text": "를", "type": "JKO", "scode": "000000", "weight": 1, "position": 45, "begin": 9, "end": 9}, 
                {"id": 10, "text": "그리", "type": "VV", "scode": "020001", "weight": 0.166667, "position": 49, "begin": 10, "end": 10}, 
                {"id": 11, "text": "었", "type": "EP", "scode": "000000", "weight": 1, "position": 52, "begin": 11, "end": 11}, 
                {"id": 12, "text": "다고", "type": "EC", "scode": "000000", "weight": 1, "position": 55, "begin": 12, "end": 12}, 
                {"id": 13, "text": "전하", "type": "VV", "scode": "000100", "weight": 0.25, "position": 62, "begin": 13, "end": 13}, 
                {"id": 14, "text": "아", "type": "EC", "scode": "000000", "weight": 1, "position": 65, "begin": 14, "end": 14}, 
                {"id": 15, "text": "지", "type": "VX", "scode": "040101", "weight": 0.037037, "position": 68, "begin": 15, "end": 15}, 
                {"id": 16, "text": "는", "type": "ETM", "scode": "000000", "weight": 1, "position": 71, "begin": 16, "end": 16}, 
                {"id": 17, "text": "신라", "type": "NNP", "scode": "000000", "weight": 1, "position": 75, "begin": 17, "end": 17}, 
                {"id": 18, "text": "시대", "type": "NNG", "scode": "020001", "weight": 0.333333, "position": 82, "begin": 18, "end": 18}, 
                {"id": 19, "text": "의", "type": "JKG", "scode": "000000", "weight": 1, "position": 88, "begin": 19, "end": 19}, 
                {"id": 20, "text": "화가", "type": "NNG", "scode": "030000", "weight": 0.333333, "position": 92, "begin": 20, "end": 20}, 
                {"id": 21, "text": "이", "type": "VCP", "scode": "030000", "weight": 0.0172414, "position": 98, "begin": 21, "end": 21}, 
                {"id": 22, "text": "다", "type": "EF", "scode": "000000", "weight": 1, "position": 101, "begin": 22, "end": 22}, 
                {"id": 23, "text": ".", "type": "SF", "scode": "000000", "weight": 1, "position": 104, "begin": 23, "end": 23}
            ], 
            "word": [
                {"id": 0, "text": "이", "type": "", "begin": 0, "end": 0}, 
                {"id": 1, "text": "사람은", "type": "", "begin": 1, "end": 2}, 
                {"id": 2, "text": "황룡사의", "type": "", "begin": 3, "end": 4}, 
                {"id": 3, "text": "벽화", "type": "", "begin": 5, "end": 5}, 
                {"id": 4, "text": "<노송도>를", "type": "", "begin": 6, "end": 9}, 
                {"id": 5, "text": "그렸다고", "type": "", "begin": 10, "end": 12}, 
                {"id": 6, "text": "전해지는", "type": "", "begin": 13, "end": 16}, 
                {"id": 7, "text": "신라", "type": "", "begin": 17, "end": 17}, 
                {"id": 8, "text": "시대의", "type": "", "begin": 18, "end": 19}, 
                {"id": 9, "text": "화가이다.", "type": "", "begin": 20, "end": 23}
            ], 
            "NE": [
                {"id": 0, "text": "황룡사", "type": "AF_CULTURAL_ASSET", "begin": 3, "end": 3, "weight": 0.752259, "common_noun": 0}, 
                {"id": 1, "text": "벽화", "type": "FD_ART", "begin": 5, "end": 5, "weight": 0.855908, "common_noun": 0}, 
                {"id": 2, "text": "노송도", "type": "AFW_ART_CRAFT", "begin": 7, "end": 7, "weight": 0.488129, "common_noun": 0}, 
                {"id": 3, "text": "신라 시대", "type": "DT_DYNASTY", "begin": 17, "end": 18, "weight": 0.765462, "common_noun": 0}, 
                {"id": 4, "text": "화가", "type": "CV_OCCUPATION", "begin": 20, "end": 20, "weight": 0.484605, "common_noun": 0}
            ], 
            "chunk": [], 
            "dependency": [
                {"id": 0, "text": "이", "head": 1, "label": "DP", "mod": [], "weight": 0.671829}, 
                {"id": 1, "text": "사람은", "head": 9, "label": "NP_SBJ", "mod": [0], "weight": 0.597307}, 
                {"id": 2, "text": "황룡사의", "head": 3, "label": "NP_MOD", "mod": [], "weight": 0.282797}, 
                {"id": 3, "text": "벽화", "head": 4, "label": "NP", "mod": [2], "weight": 0.508863}, 
                {"id": 4, "text": "<노송도>를", "head": 5, "label": "NP_OBJ", "mod": [3], "weight": 0.733274}, 
                {"id": 5, "text": "그렸다고", "head": 6, "label": "VP_CMP", "mod": [4], "weight": 0.682989}, 
                {"id": 6, "text": "전해지는", "head": 9, "label": "VP_MOD", "mod": [5], "weight": 0.771445}, 
                {"id": 7, "text": "신라", "head": 8, "label": "NP", "mod": [], "weight": 0.72147}, 
                {"id": 8, "text": "시대의", "head": 9, "label": "NP_MOD", "mod": [7], "weight": 0.817492}, 
                {"id": 9, "text": "화가이다.", "head": -1, "label": "VNP", "mod": [6, 8, 1], "weight": 0.0110556}
            ], 
            "SRL": [
                {"verb": "그리", "sense": 1, "word_id": 5, "weight": 0.247753, "argument": [
                    {"type": "ARG1", "word_id": 4, "text": "<노송도>를", "weight": 0.33359}, 
                    {"type": "ARG0", "word_id": 9, "text": "화가이다.", "weight": 1}
                ]}, 
                {"verb": "전하", "sense": 1, "word_id": 6, "weight": 0.150339, "argument": [
                    {"type": "ARG1", "word_id": 5, "text": "그렸다고", "weight": 0.148453}, 
                    {"type": "ARG0", "word_id": 9, "text": "화가이다.", "weight": 1}
                ]}
            ], 
            "relation": [], 
            "SA": [], 
            "ZA": []
        }, 
        {
            "id": 1, 
            "reserve_str": "", 
            "text": "그의 작품을 본 새들이 착각하고 날아들다가 벽에 부딪혔다는 일화로 알려진 이 사람은 누구일까?", 
            "morp": [
                {"id": 0, "lemma": "그", "type": "NP", "position": 105, "weight": 0.0328001}, 
                {"id": 1, "lemma": "의", "type": "JKG", "position": 108, "weight": 0.134696}, 
                {"id": 2, "lemma": "작품", "type": "NNG", "position": 112, "weight": 0.871348}, 
                {"id": 3, "lemma": "을", "type": "JKO", "position": 118, "weight": 0.129611}, 
                {"id": 4, "lemma": "보", "type": "VV", "position": 122, "weight": 0.475105}, 
                {"id": 5, "lemma": "ㄴ", "type": "ETM", "position": 122, "weight": 0.304215}, 
                {"id": 6, "lemma": "새", "type": "NNG", "position": 126, "weight": 0.255084}, 
                {"id": 7, "lemma": "들", "type": "XSN", "position": 129, "weight": 0.0299841}, 
                {"id": 8, "lemma": "이", "type": "JKS", "position": 132, "weight": 0.0731805}, 
                {"id": 9, "lemma": "착각", "type": "NNG", "position": 136, "weight": 0.9}, 
                {"id": 10, "lemma": "하", "type": "XSV", "position": 142, "weight": 0.0001}, 
                {"id": 11, "lemma": "고", "type": "EC", "position": 145, "weight": 0.359917}, 
                {"id": 12, "lemma": "날아들", "type": "VV", "position": 149, "weight": 0.9}, 
                {"id": 13, "lemma": "다가", "type": "EC", "position": 158, "weight": 0.411843}, 
                {"id": 14, "lemma": "벽", "type": "NNG", "position": 165, "weight": 0.219283}, 
                {"id": 15, "lemma": "에", "type": "JKB", "position": 168, "weight": 0.153364}, 
                {"id": 16, "lemma": "부딪히", "type": "VV", "position": 172, "weight": 0.9}, 
                {"id": 17, "lemma": "었", "type": "EP", "position": 178, "weight": 0.9}, 
                {"id": 18, "lemma": "다는", "type": "ETM", "position": 181, "weight": 0.107585}, 
                {"id": 19, "lemma": "일화", "type": "NNG", "position": 188, "weight": 0.418283}, 
                {"id": 20, "lemma": "로", "type": "JKB", "position": 194, "weight": 0.153229}, 
                {"id": 21, "lemma": "알려지", "type": "VV", "position": 198, "weight": 0.9}, 
                {"id": 22, "lemma": "ㄴ", "type": "ETM", "position": 204, "weight": 0.304215}, 
                {"id": 23, "lemma": "이", "type": "MM", "position": 208, "weight": 0.00060084}, 
                {"id": 24, "lemma": "사람", "type": "NNG", "position": 212, "weight": 0.737436}, 
                {"id": 25, "lemma": "은", "type": "JX", "position": 218, "weight": 0.0449928}, 
                {"id": 26, "lemma": "누구", "type": "NP", "position": 222, "weight": 0.9}, 
                {"id": 27, "lemma": "이", "type": "VCP", "position": 228, "weight": 0.0175768}, 
                {"id": 28, "lemma": "ㄹ까", "type": "EF", "position": 228, "weight": 0.258243}, 
                {"id": 29, "lemma": "?", "type": "SF", "position": 234, "weight": 1}
            ], 
            "morp_eval": [], 
            "WSD": [
                {"id": 0, "text": "그", "type": "NP", "scode": "010002", "weight": 0.142857, "position": 105, "begin": 0, "end": 0}, 
                {"id": 1, "text": "의", "type": "JKG", "scode": "000000", "weight": 1, "position": 108, "begin": 1, "end": 1}, 
                {"id": 2, "text": "작품", "type": "NNG", "scode": "010002", "weight": 0.25, "position": 112, "begin": 2, "end": 2}, 
                {"id": 3, "text": "을", "type": "JKO", "scode": "000000", "weight": 1, "position": 118, "begin": 3, "end": 3}, 
                {"id": 4, "text": "보", "type": "VV", "scode": "010101", "weight": 0.025641, "position": 122, "begin": 4, "end": 4}, 
                {"id": 5, "text": "ㄴ", "type": "ETM", "scode": "000000", "weight": 1, "position": 122, "begin": 5, "end": 5}, 
                {"id": 6, "text": "새", "type": "NNG", "scode": "030001", "weight": 0.5, "position": 126, "begin": 6, "end": 6}, 
                {"id": 7, "text": "들", "type": "XSN", "scode": "090000", "weight": 0.5, "position": 126, "begin": 7, "end": 7}, 
                {"id": 8, "text": "이", "type": "JKS", "scode": "000000", "weight": 1, "position": 132, "begin": 8, "end": 8}, 
                {"id": 9, "text": "착각하", "type": "VV", "scode": "000000", "weight": 1, "position": 136, "begin": 9, "end": 10}, 
                {"id": 10, "text": "고", "type": "EC", "scode": "000000", "weight": 1, "position": 145, "begin": 11, "end": 11}, 
                {"id": 11, "text": "날아들", "type": "VV", "scode": "000101", "weight": 0.333333, "position": 149, "begin": 12, "end": 12}, 
                {"id": 12, "text": "다가", "type": "EC", "scode": "000000", "weight": 1, "position": 158, "begin": 13, "end": 13}, 
                {"id": 13, "text": "벽", "type": "NNG", "scode": "060001", "weight": 0.0666667, "position": 165, "begin": 14, "end": 14}, 
                {"id": 14, "text": "에", "type": "JKB", "scode": "000000", "weight": 1, "position": 168, "begin": 15, "end": 15}, 
                {"id": 15, "text": "부딪히", "type": "VV", "scode": "000100", "weight": 0.5, "position": 172, "begin": 16, "end": 16}, 
                {"id": 16, "text": "었", "type": "EP", "scode": "000000", "weight": 1, "position": 178, "begin": 17, "end": 17}, 
                {"id": 17, "text": "다는", "type": "ETM", "scode": "000000", "weight": 1, "position": 181, "begin": 18, "end": 18}, 
                {"id": 18, "text": "일화", "type": "NNG", "scode": "040000", "weight": 0.2, "position": 188, "begin": 19, "end": 19}, 
                {"id": 19, "text": "로", "type": "JKB", "scode": "000000", "weight": 1, "position": 194, "begin": 20, "end": 20}, 
                {"id": 20, "text": "알려지", "type": "VV", "scode": "000001", "weight": 0.5, "position": 198, "begin": 21, "end": 21}, 
                {"id": 21, "text": "ㄴ", "type": "ETM", "scode": "000000", "weight": 1, "position": 204, "begin": 22, "end": 22}, 
                {"id": 22, "text": "이", "type": "MM", "scode": "050002", "weight": 0.0172414, "position": 208, "begin": 23, "end": 23}, 
                {"id": 23, "text": "사람", "type": "NNG", "scode": "000001", "weight": 0.0909091, "position": 212, "begin": 24, "end": 24}, 
                {"id": 24, "text": "은", "type": "JX", "scode": "000000", "weight": 1, "position": 218, "begin": 25, "end": 25}, 
                {"id": 25, "text": "누구", "type": "NP", "scode": "000001", "weight": 0.333333, "position": 222, "begin": 26, "end": 26}, 
                {"id": 26, "text": "이", "type": "VCP", "scode": "030000", "weight": 0.0172414, "position": 228, "begin": 27, "end": 27}, 
                {"id": 27, "text": "ㄹ까", "type": "EF", "scode": "000000", "weight": 1, "position": 228, "begin": 28, "end": 28}, 
                {"id": 28, "text": "?", "type": "SF", "scode": "000000", "weight": 1, "position": 234, "begin": 29, "end": 29}
            ], 
            "word": [
                {"id": 0, "text": "그의", "type": "", "begin": 0, "end": 1}, 
                {"id": 1, "text": "작품을", "type": "", "begin": 2, "end": 3}, 
                {"id": 2, "text": "본", "type": "", "begin": 4, "end": 5}, 
                {"id": 3, "text": "새들이", "type": "", "begin": 6, "end": 8}, 
                {"id": 4, "text": "착각하고", "type": "", "begin": 9, "end": 11}, 
                {"id": 5, "text": "날아들다가", "type": "", "begin": 12, "end": 13}, 
                {"id": 6, "text": "벽에", "type": "", "begin": 14, "end": 15}, 
                {"id": 7, "text": "부딪혔다는", "type": "", "begin": 16, "end": 18}, 
                {"id": 8, "text": "일화로", "type": "", "begin": 19, "end": 20}, 
                {"id": 9, "text": "알려진", "type": "", "begin": 21, "end": 22}, 
                {"id": 10, "text": "이", "type": "", "begin": 23, "end": 23}, 
                {"id": 11, "text": "사람은", "type": "", "begin": 24, "end": 25}, 
                {"id": 12, "text": "누구일까?", "type": "", "begin": 26, "end": 29}
            ], 
            "NE": [
                {"id": 0, "text": "새", "type": "AM_TYPE", "begin": 6, "end": 6, "weight": 0.229533, "common_noun": 0}
            ], 
            "chunk": [], 
            "dependency": [
                {"id": 0, "text": "그의", "head": 1, "label": "NP_MOD", "mod": [], "weight": 0.625453}, 
                {"id": 1, "text": "작품을", "head": 2, "label": "NP_OBJ", "mod": [0], "weight": 0.600609}, 
                {"id": 2, "text": "본", "head": 3, "label": "VP_MOD", "mod": [1], "weight": 0.560788}, 
                {"id": 3, "text": "새들이", "head": 4, "label": "NP_SBJ", "mod": [2], "weight": 0.64986}, 
                {"id": 4, "text": "착각하고", "head": 5, "label": "VP", "mod": [3], "weight": 0.522516}, 
                {"id": 5, "text": "날아들다가", "head": 7, "label": "VP", "mod": [4], "weight": 0.579818}, 
                {"id": 6, "text": "벽에", "head": 7, "label": "NP_AJT", "mod": [], "weight": 0.762744}, 
                {"id": 7, "text": "부딪혔다는", "head": 8, "label": "VP_MOD", "mod": [5, 6], "weight": 0.624697}, 
                {"id": 8, "text": "일화로", "head": 9, "label": "NP_AJT", "mod": [7], "weight": 0.831448}, 
                {"id": 9, "text": "알려진", "head": 11, "label": "VP_MOD", "mod": [8], "weight": 0.692713}, 
                {"id": 10, "text": "이", "head": 11, "label": "DP", "mod": [], "weight": 0.675638}, 
                {"id": 11, "text": "사람은", "head": 12, "label": "NP_SBJ", "mod": [9, 10], "weight": 0.782219}, 
                {"id": 12, "text": "누구일까?", "head": -1, "label": "VNP", "mod": [11], "weight": 0.00521128}
            ], 
            "SRL": [
                {"verb": "보", "sense": 1, "word_id": 2, "weight": 0.324761, "argument": [
                    {"type": "ARG1", "word_id": 1, "text": "작품을", "weight": 0.324761}, 
                    {"type": "ARG0", "word_id": 3, "text": "새들이", "weight": 1}
                ]}, 
                {"verb": "착각", "sense": 1, "word_id": 4, "weight": 0.15735, "argument": [
                    {"type": "ARG0", "word_id": 3, "text": "새들이", "weight": 0.15735}
                ]}, 
                {"verb": "날아들", "sense": 1, "word_id": 5, "weight": 0, "argument": [
                    {"type": "ARG0", "word_id": 3, "text": "새들이", "weight": 1}
                ]}, 
                {"verb": "부딪히", "sense": 1, "word_id": 7, "weight": 0.120572, "argument": [
                    {"type": "ARG2", "word_id": 6, "text": "벽에", "weight": 0.120572}, 
                    {"type": "ARG1", "word_id": 3, "text": "새들이", "weight": 1}
                ]}, 
                {"verb": "알려지", "sense": 1, "word_id": 9, "weight": 0.171038, "argument": [
                    {"type": "ARG2", "word_id": 8, "text": "일화로", "weight": 1}, 
                    {"type": "ARG1", "word_id": 11, "text": "사람은", "weight": 0.248581}
                ]}
            ], 
            "relation": [], 
            "SA": [], 
            "ZA": []
        }
    ], 
    "entity": [
        {"id": 0, "type": "CV_OCCUPATION", "number": "singular", "gender": "", "person": "", "animacy": "thing", "mention": [
            {"id": 0, "sent_id": 0, "start_eid": 0, "end_eid": 1, "ne_id": -1, "text": "이 사람은", "start_eid_short": 0, "end_eid_short": 1, "text_short": "이 사람은"}, 
            {"id": 1, "sent_id": 0, "start_eid": 2, "end_eid": 9, "ne_id": 4, "text": "황룡사의 벽화 <노송도>를 그렸다고 전해지는 신라 시대의 화가이다.", "start_eid_short": 9, "end_eid_short": 9, "text_short": "화가이다."}, 
            {"id": 9, "sent_id": 1, "start_eid": 0, "end_eid": 0, "ne_id": -1, "text": "그의", "start_eid_short": 0, "end_eid_short": 0, "text_short": "그의"}, 
            {"id": 11, "sent_id": 1, "start_eid": 10, "end_eid": 11, "ne_id": -1, "text": "이 사람은", "start_eid_short": 10, "end_eid_short": 11, "text_short": "이 사람은"}, 
            {"id": 12, "sent_id": 1, "start_eid": 12, "end_eid": 12, "ne_id": -1, "text": "누구일까?", "start_eid_short": 12, "end_eid_short": 12, "text_short": "누구일까?"}
        ]}, 
        {"id": 1, "type": "FD_ART", "number": "singular", "gender": "", "person": "", "animacy": "thing", "mention": [
            {"id": 3, "sent_id": 0, "start_eid": 2, "end_eid": 3, "ne_id": 1, "text": "황룡사의 벽화", "start_eid_short": 3, "end_eid_short": 3, "text_short": "벽화"}
        ]}, 
        {"id": 2, "type": "AF_CULTURAL_ASSET", "number": "singular", "gender": "", "person": "", "animacy": "thing", "mention": [
            {"id": 4, "sent_id": 0, "start_eid": 2, "end_eid": 2, "ne_id": 0, "text": "황룡사의", "start_eid_short": 2, "end_eid_short": 2, "text_short": "황룡사의"}
        ]}, 
        {"id": 3, "type": "DT_DYNASTY", "number": "singular", "gender": "", "person": "", "animacy": "time", "mention": [
            {"id": 5, "sent_id": 0, "start_eid": 7, "end_eid": 8, "ne_id": 3, "text": "신라 시대의", "start_eid_short": 7, "end_eid_short": 8, "text_short": "신라 시대의"}
        ]}, 
        {"id": 4, "type": "", "number": "singular", "gender": "", "person": "", "animacy": "thing", "mention": [
            {"id": 6, "sent_id": 1, "start_eid": 0, "end_eid": 8, "ne_id": -1, "text": "그의 작품을 본 새들이 착각하고 날아들다가 벽에 부딪혔다는 일화로", "start_eid_short": 8, "end_eid_short": 8, "text_short": "일화로"}
        ]}, 
        {"id": 5, "type": "", "number": "singular", "gender": "", "person": "", "animacy": "thing", "mention": [
            {"id": 7, "sent_id": 1, "start_eid": 0, "end_eid": 3, "ne_id": -1, "text": "그의 작품을 본 새들이", "start_eid_short": 3, "end_eid_short": 3, "text_short": "새들이"}
        ]}, 
        {"id": 6, "type": "AFW_ART_CRAFT", "number": "singular", "gender": "", "person": "", "animacy": "thing", "mention": [
            {"id": 2, "sent_id": 0, "start_eid": 2, "end_eid": 4, "ne_id": 2, "text": "황룡사의 벽화 <노송도>를", "start_eid_short": 4, "end_eid_short": 4, "text_short": "<노송도>를"}, 
            {"id": 8, "sent_id": 1, "start_eid": 0, "end_eid": 1, "ne_id": -1, "text": "그의 작품을", "start_eid_short": 1, "end_eid_short": 1, "text_short": "작품을"}
        ]}, 
        {"id": 7, "type": "", "number": "singular", "gender": "", "person": "", "animacy": "thing", "mention": [
            {"id": 10, "sent_id": 1, "start_eid": 6, "end_eid": 6, "ne_id": -1, "text": "벽에", "start_eid_short": 6, "end_eid_short": 6, "text_short": "벽에"}
        ]}
    ]
}