{
    "doc_id": "E2016.788.12_Q_01.json", 
    "DCT": "", 
    "category": "", 
    "category_weight": 0, 
    "title": {
        "text": "", 
        "NE": ""
    }, 
    "metaInfo": {}, 
    "sentence": [
        {
            "id": 0, 
            "reserve_str": "", 
            "text": "19세기 말엽에 발생하여 기악 독주곡으로 발전한 2음절의 이것은 느린 장단부터 시작해서 점점 고조되어 가장 빠른 장단으로 끝이 나는 형식이다.", 
            "morp": [
                {"id": 0, "lemma": "19", "type": "SN", "position": 0, "weight": 1}, 
                {"id": 1, "lemma": "세기", "type": "NNG", "position": 2, "weight": 0.100259}, 
                {"id": 2, "lemma": "말엽", "type": "NNG", "position": 9, "weight": 0.9}, 
                {"id": 3, "lemma": "에", "type": "JKB", "position": 15, "weight": 0.153364}, 
                {"id": 4, "lemma": "발생", "type": "NNG", "position": 19, "weight": 0.9}, 
                {"id": 5, "lemma": "하", "type": "XSV", "position": 25, "weight": 0.0001}, 
                {"id": 6, "lemma": "아", "type": "EC", "position": 28, "weight": 0.361326}, 
                {"id": 7, "lemma": "기악", "type": "NNG", "position": 32, "weight": 0.9}, 
                {"id": 8, "lemma": "독주", "type": "NNG", "position": 39, "weight": 0.9}, 
                {"id": 9, "lemma": "곡", "type": "XSN", "position": 39, "weight": 0.9}, 
                {"id": 10, "lemma": "으로", "type": "JKB", "position": 48, "weight": 0.121717}, 
                {"id": 11, "lemma": "발전", "type": "NNG", "position": 55, "weight": 0.9}, 
                {"id": 12, "lemma": "하", "type": "XSV", "position": 61, "weight": 0.0001}, 
                {"id": 13, "lemma": "ㄴ", "type": "ETM", "position": 61, "weight": 0.392321}, 
                {"id": 14, "lemma": "2", "type": "SN", "position": 65, "weight": 1}, 
                {"id": 15, "lemma": "음절", "type": "NNG", "position": 66, "weight": 0.9}, 
                {"id": 16, "lemma": "의", "type": "JKG", "position": 72, "weight": 0.0694213}, 
                {"id": 17, "lemma": "이것", "type": "NP", "position": 76, "weight": 0.0030442}, 
                {"id": 18, "lemma": "은", "type": "JX", "position": 82, "weight": 0.191811}, 
                {"id": 19, "lemma": "느리", "type": "VA", "position": 86, "weight": 0.9}, 
                {"id": 20, "lemma": "ㄴ", "type": "ETM", "position": 89, "weight": 0.430446}, 
                {"id": 21, "lemma": "장단", "type": "NNG", "position": 93, "weight": 0.625086}, 
                {"id": 22, "lemma": "부터", "type": "JX", "position": 99, "weight": 0.0688504}, 
                {"id": 23, "lemma": "시작", "type": "NNG", "position": 106, "weight": 0.9}, 
                {"id": 24, "lemma": "하", "type": "XSV", "position": 112, "weight": 0.0001}, 
                {"id": 25, "lemma": "아서", "type": "EC", "position": 112, "weight": 0.364511}, 
                {"id": 26, "lemma": "점점", "type": "MAG", "position": 119, "weight": 0.0473108}, 
                {"id": 27, "lemma": "고조", "type": "NNG", "position": 126, "weight": 0.185364}, 
                {"id": 28, "lemma": "되", "type": "XSV", "position": 132, "weight": 0.000224177}, 
                {"id": 29, "lemma": "어", "type": "EC", "position": 135, "weight": 0.361326}, 
                {"id": 30, "lemma": "가장", "type": "MAG", "position": 139, "weight": 0.0463072}, 
                {"id": 31, "lemma": "빠르", "type": "VA", "position": 146, "weight": 0.9}, 
                {"id": 32, "lemma": "ㄴ", "type": "ETM", "position": 149, "weight": 0.430446}, 
                {"id": 33, "lemma": "장단", "type": "NNG", "position": 153, "weight": 0.625086}, 
                {"id": 34, "lemma": "으로", "type": "JKB", "position": 159, "weight": 0.153406}, 
                {"id": 35, "lemma": "끝", "type": "NNG", "position": 166, "weight": 0.207936}, 
                {"id": 36, "lemma": "이", "type": "JKS", "position": 169, "weight": 0.0360723}, 
                {"id": 37, "lemma": "나", "type": "VV", "position": 173, "weight": 0.0147714}, 
                {"id": 38, "lemma": "는", "type": "JX", "position": 176, "weight": 0.122593}, 
                {"id": 39, "lemma": "형식", "type": "NNG", "position": 180, "weight": 0.323405}, 
                {"id": 40, "lemma": "이", "type": "VCP", "position": 186, "weight": 0.0177525}, 
                {"id": 41, "lemma": "다", "type": "EF", "position": 189, "weight": 0.353579}, 
                {"id": 42, "lemma": ".", "type": "SF", "position": 192, "weight": 1}
            ], 
            "morp_eval": [], 
            "WSD": [
                {"id": 0, "text": "19", "type": "SN", "scode": "000000", "weight": 1, "position": 0, "begin": 0, "end": 0}, 
                {"id": 1, "text": "세기", "type": "NNG", "scode": "030002", "weight": 0.0909091, "position": 2, "begin": 1, "end": 1}, 
                {"id": 2, "text": "말엽", "type": "NNG", "scode": "000001", "weight": 0.5, "position": 9, "begin": 2, "end": 2}, 
                {"id": 3, "text": "에", "type": "JKB", "scode": "000000", "weight": 1, "position": 15, "begin": 3, "end": 3}, 
                {"id": 4, "text": "발생하", "type": "VV", "scode": "000001", "weight": 0.5, "position": 19, "begin": 4, "end": 5}, 
                {"id": 5, "text": "아", "type": "EC", "scode": "000000", "weight": 1, "position": 28, "begin": 6, "end": 6}, 
                {"id": 6, "text": "기악", "type": "NNG", "scode": "030000", "weight": 0.25, "position": 32, "begin": 7, "end": 7}, 
                {"id": 7, "text": "독주곡", "type": "NNG", "scode": "000000", "weight": 1, "position": 39, "begin": 8, "end": 9}, 
                {"id": 8, "text": "으로", "type": "JKB", "scode": "000000", "weight": 1, "position": 48, "begin": 10, "end": 10}, 
                {"id": 9, "text": "발전하", "type": "VV", "scode": "010001", "weight": 0.25, "position": 55, "begin": 11, "end": 12}, 
                {"id": 10, "text": "ㄴ", "type": "ETM", "scode": "000000", "weight": 1, "position": 61, "begin": 13, "end": 13}, 
                {"id": 11, "text": "2", "type": "SN", "scode": "000000", "weight": 1, "position": 65, "begin": 14, "end": 14}, 
                {"id": 12, "text": "음절", "type": "NNG", "scode": "000001", "weight": 0.5, "position": 66, "begin": 15, "end": 15}, 
                {"id": 13, "text": "의", "type": "JKG", "scode": "000000", "weight": 1, "position": 72, "begin": 16, "end": 16}, 
                {"id": 14, "text": "이것", "type": "NP", "scode": "000001", "weight": 0.25, "position": 76, "begin": 17, "end": 17}, 
                {"id": 15, "text": "은", "type": "JX", "scode": "000000", "weight": 1, "position": 82, "begin": 18, "end": 18}, 
                {"id": 16, "text": "느리", "type": "VA", "scode": "010001", "weight": 0.125, "position": 86, "begin": 19, "end": 19}, 
                {"id": 17, "text": "ㄴ", "type": "ETM", "scode": "000000", "weight": 1, "position": 89, "begin": 20, "end": 20}, 
                {"id": 18, "text": "장단", "type": "NNG", "scode": "010001", "weight": 0.2, "position": 93, "begin": 21, "end": 21}, 
                {"id": 19, "text": "부터", "type": "JX", "scode": "000000", "weight": 1, "position": 99, "begin": 22, "end": 22}, 
                {"id": 20, "text": "시작하", "type": "VV", "scode": "010001", "weight": 0.25, "position": 106, "begin": 23, "end": 24}, 
                {"id": 21, "text": "아서", "type": "EC", "scode": "000000", "weight": 1, "position": 112, "begin": 25, "end": 25}, 
                {"id": 22, "text": "점점", "type": "MAG", "scode": "010000", "weight": 0.333333, "position": 119, "begin": 26, "end": 26}, 
                {"id": 23, "text": "고조되", "type": "VV", "scode": "020002", "weight": 0.25, "position": 126, "begin": 27, "end": 28}, 
                {"id": 24, "text": "어", "type": "EC", "scode": "000000", "weight": 1, "position": 135, "begin": 29, "end": 29}, 
                {"id": 25, "text": "가장", "type": "MAG", "scode": "010000", "weight": 0.0555556, "position": 139, "begin": 30, "end": 30}, 
                {"id": 26, "text": "빠르", "type": "VA", "scode": "000101", "weight": 0.25, "position": 146, "begin": 31, "end": 31}, 
                {"id": 27, "text": "ㄴ", "type": "ETM", "scode": "000000", "weight": 1, "position": 149, "begin": 32, "end": 32}, 
                {"id": 28, "text": "장단", "type": "NNG", "scode": "010001", "weight": 0.2, "position": 153, "begin": 33, "end": 33}, 
                {"id": 29, "text": "으로", "type": "JKB", "scode": "000000", "weight": 1, "position": 159, "begin": 34, "end": 34}, 
                {"id": 30, "text": "끝", "type": "NNG", "scode": "010001", "weight": 0.166667, "position": 166, "begin": 35, "end": 35}, 
                {"id": 31, "text": "이", "type": "JKS", "scode": "000000", "weight": 1, "position": 169, "begin": 36, "end": 36}, 
                {"id": 32, "text": "나", "type": "VV", "scode": "010506", "weight": 0.0277778, "position": 173, "begin": 37, "end": 37}, 
                {"id": 33, "text": "는", "type": "JX", "scode": "000000", "weight": 1, "position": 176, "begin": 38, "end": 38}, 
                {"id": 34, "text": "형식", "type": "NNG", "scode": "010002", "weight": 0.166667, "position": 180, "begin": 39, "end": 39}, 
                {"id": 35, "text": "이", "type": "VCP", "scode": "030000", "weight": 0.0172414, "position": 186, "begin": 40, "end": 40}, 
                {"id": 36, "text": "다", "type": "EF", "scode": "000000", "weight": 1, "position": 189, "begin": 41, "end": 41}, 
                {"id": 37, "text": ".", "type": "SF", "scode": "000000", "weight": 1, "position": 192, "begin": 42, "end": 42}
            ], 
            "word": [
                {"id": 0, "text": "19세기", "type": "", "begin": 0, "end": 1}, 
                {"id": 1, "text": "말엽에", "type": "", "begin": 2, "end": 3}, 
                {"id": 2, "text": "발생하여", "type": "", "begin": 4, "end": 6}, 
                {"id": 3, "text": "기악", "type": "", "begin": 7, "end": 7}, 
                {"id": 4, "text": "독주곡으로", "type": "", "begin": 8, "end": 10}, 
                {"id": 5, "text": "발전한", "type": "", "begin": 11, "end": 13}, 
                {"id": 6, "text": "2음절의", "type": "", "begin": 14, "end": 16}, 
                {"id": 7, "text": "이것은", "type": "", "begin": 17, "end": 18}, 
                {"id": 8, "text": "느린", "type": "", "begin": 19, "end": 20}, 
                {"id": 9, "text": "장단부터", "type": "", "begin": 21, "end": 22}, 
                {"id": 10, "text": "시작해서", "type": "", "begin": 23, "end": 25}, 
                {"id": 11, "text": "점점", "type": "", "begin": 26, "end": 26}, 
                {"id": 12, "text": "고조되어", "type": "", "begin": 27, "end": 29}, 
                {"id": 13, "text": "가장", "type": "", "begin": 30, "end": 30}, 
                {"id": 14, "text": "빠른", "type": "", "begin": 31, "end": 32}, 
                {"id": 15, "text": "장단으로", "type": "", "begin": 33, "end": 34}, 
                {"id": 16, "text": "끝이", "type": "", "begin": 35, "end": 36}, 
                {"id": 17, "text": "나는", "type": "", "begin": 37, "end": 38}, 
                {"id": 18, "text": "형식이다.", "type": "", "begin": 39, "end": 42}
            ], 
            "NE": [
                {"id": 0, "text": "19세기 말엽", "type": "DT_OTHERS", "begin": 0, "end": 2, "weight": 0.760862, "common_noun": 0}, 
                {"id": 1, "text": "기악 독주곡", "type": "FD_ART", "begin": 7, "end": 9, "weight": 0.441846, "common_noun": 0}, 
                {"id": 2, "text": "2음절", "type": "QT_COUNT", "begin": 14, "end": 15, "weight": 0.527718, "common_noun": 0}
            ], 
            "chunk": [], 
            "dependency": [
                {"id": 0, "text": "19세기", "head": 1, "label": "NP", "mod": [], "weight": 0.783619}, 
                {"id": 1, "text": "말엽에", "head": 2, "label": "NP_AJT", "mod": [0], "weight": 0.728082}, 
                {"id": 2, "text": "발생하여", "head": 5, "label": "VP", "mod": [1], "weight": 0.497229}, 
                {"id": 3, "text": "기악", "head": 4, "label": "NP", "mod": [], "weight": 0.832443}, 
                {"id": 4, "text": "독주곡으로", "head": 5, "label": "NP_AJT", "mod": [3], "weight": 0.767636}, 
                {"id": 5, "text": "발전한", "head": 7, "label": "VP_MOD", "mod": [2, 4], "weight": 0.558932}, 
                {"id": 6, "text": "2음절의", "head": 7, "label": "NP_MOD", "mod": [], "weight": 0.701656}, 
                {"id": 7, "text": "이것은", "head": 10, "label": "NP_SBJ", "mod": [5, 6], "weight": 0.712717}, 
                {"id": 8, "text": "느린", "head": 9, "label": "VP_MOD", "mod": [], "weight": 0.592515}, 
                {"id": 9, "text": "장단부터", "head": 10, "label": "NP_AJT", "mod": [8], "weight": 0.358211}, 
                {"id": 10, "text": "시작해서", "head": 12, "label": "VP", "mod": [7, 9], "weight": 0.721311}, 
                {"id": 11, "text": "점점", "head": 12, "label": "AP", "mod": [], "weight": 0.84317}, 
                {"id": 12, "text": "고조되어", "head": 17, "label": "VP", "mod": [10, 11], "weight": 0.856801}, 
                {"id": 13, "text": "가장", "head": 14, "label": "AP", "mod": [], "weight": 0.675195}, 
                {"id": 14, "text": "빠른", "head": 15, "label": "VP_MOD", "mod": [13], "weight": 0.601483}, 
                {"id": 15, "text": "장단으로", "head": 17, "label": "NP_AJT", "mod": [14], "weight": 0.786443}, 
                {"id": 16, "text": "끝이", "head": 17, "label": "NP_SBJ", "mod": [], "weight": 0.764449}, 
                {"id": 17, "text": "나는", "head": 18, "label": "VP_MOD", "mod": [12, 15, 16], "weight": 0.436375}, 
                {"id": 18, "text": "형식이다.", "head": -1, "label": "VNP", "mod": [17], "weight": 0.00048415}
            ], 
            "SRL": [
                {"verb": "발생", "sense": 1, "word_id": 2, "weight": 0.10315, "argument": [
                    {"type": "ARGM-TMP", "word_id": 1, "text": "말엽에", "weight": 1}
                ]}, 
                {"verb": "발전", "sense": 1, "word_id": 5, "weight": 0.111277, "argument": [
                    {"type": "ARG2", "word_id": 4, "text": "독주곡으로", "weight": 1}, 
                    {"type": "ARG1", "word_id": 7, "text": "이것은", "weight": 0.163651}
                ]}, 
                {"verb": "느리", "sense": 1, "word_id": 8, "weight": 0.294717, "argument": [
                    {"type": "ARG1", "word_id": 9, "text": "장단부터", "weight": 1}
                ]}, 
                {"verb": "시작", "sense": 1, "word_id": 10, "weight": 0.12265, "argument": [
                    {"type": "ARG1", "word_id": 7, "text": "이것은", "weight": 1}, 
                    {"type": "ARGM-CND", "word_id": 9, "text": "장단부터", "weight": 1}
                ]}, 
                {"verb": "고조", "sense": 1, "word_id": 12, "weight": 0.0958587, "argument": [
                    {"type": "ARG1", "word_id": 7, "text": "이것은", "weight": 1}, 
                    {"type": "ARGM-ADV", "word_id": 11, "text": "점점", "weight": 1}
                ]}, 
                {"verb": "빠르", "sense": 1, "word_id": 14, "weight": 0.311434, "argument": [
                    {"type": "ARGM-EXT", "word_id": 13, "text": "가장", "weight": 0.324779}, 
                    {"type": "ARG1", "word_id": 15, "text": "장단으로", "weight": 0.298088}
                ]}, 
                {"verb": "나", "sense": 1, "word_id": 17, "weight": 0.134189, "argument": [
                    {"type": "ARG1", "word_id": 16, "text": "끝이", "weight": 0.20305}
                ]}
            ], 
            "relation": [], 
            "SA": [], 
            "ZA": []
        }, 
        {
            "id": 1, 
            "reserve_str": "", 
            "text": "장구 반주에 맞춰 가야금, 거문고, 대금 등을 연주하는 이것은 무엇일까?", 
            "morp": [
                {"id": 0, "lemma": "장구", "type": "NNG", "position": 193, "weight": 0.9}, 
                {"id": 1, "lemma": "반주", "type": "NNG", "position": 200, "weight": 0.9}, 
                {"id": 2, "lemma": "에", "type": "JKB", "position": 206, "weight": 0.153364}, 
                {"id": 3, "lemma": "맞추", "type": "VV", "position": 210, "weight": 0.9}, 
                {"id": 4, "lemma": "어", "type": "EC", "position": 213, "weight": 0.41831}, 
                {"id": 5, "lemma": "가야금", "type": "NNG", "position": 217, "weight": 0.164074}, 
                {"id": 6, "lemma": ",", "type": "SP", "position": 226, "weight": 1}, 
                {"id": 7, "lemma": "거문고", "type": "NNG", "position": 228, "weight": 0.1}, 
                {"id": 8, "lemma": ",", "type": "SP", "position": 237, "weight": 1}, 
                {"id": 9, "lemma": "대금", "type": "NNG", "position": 239, "weight": 0.530688}, 
                {"id": 10, "lemma": "등", "type": "NNB", "position": 246, "weight": 0.0146757}, 
                {"id": 11, "lemma": "을", "type": "JKO", "position": 249, "weight": 0.0630104}, 
                {"id": 12, "lemma": "연주", "type": "NNG", "position": 253, "weight": 0.100654}, 
                {"id": 13, "lemma": "하", "type": "XSV", "position": 259, "weight": 0.0001}, 
                {"id": 14, "lemma": "는", "type": "ETM", "position": 262, "weight": 0.238503}, 
                {"id": 15, "lemma": "이것", "type": "NP", "position": 266, "weight": 0.0102992}, 
                {"id": 16, "lemma": "은", "type": "JX", "position": 272, "weight": 0.191811}, 
                {"id": 17, "lemma": "무엇", "type": "NP", "position": 276, "weight": 0.9}, 
                {"id": 18, "lemma": "이", "type": "VCP", "position": 282, "weight": 0.0175768}, 
                {"id": 19, "lemma": "ㄹ까", "type": "EF", "position": 282, "weight": 0.258243}, 
                {"id": 20, "lemma": "?", "type": "SF", "position": 288, "weight": 1}
            ], 
            "morp_eval": [], 
            "WSD": [
                {"id": 0, "text": "장구", "type": "NNG", "scode": "010000", "weight": 0.0555556, "position": 193, "begin": 0, "end": 0}, 
                {"id": 1, "text": "반주", "type": "NNG", "scode": "040000", "weight": 0.111111, "position": 200, "begin": 1, "end": 1}, 
                {"id": 2, "text": "에", "type": "JKB", "scode": "000000", "weight": 1, "position": 206, "begin": 2, "end": 2}, 
                {"id": 3, "text": "맞추", "type": "VV", "scode": "010301", "weight": 0.0833333, "position": 210, "begin": 3, "end": 3}, 
                {"id": 4, "text": "어", "type": "EC", "scode": "000000", "weight": 1, "position": 213, "begin": 4, "end": 4}, 
                {"id": 5, "text": "가야금", "type": "NNG", "scode": "000000", "weight": 1, "position": 217, "begin": 5, "end": 5}, 
                {"id": 6, "text": ",", "type": "SP", "scode": "000000", "weight": 1, "position": 226, "begin": 6, "end": 6}, 
                {"id": 7, "text": "거문고", "type": "NNG", "scode": "000000", "weight": 1, "position": 228, "begin": 7, "end": 7}, 
                {"id": 8, "text": ",", "type": "SP", "scode": "000000", "weight": 1, "position": 237, "begin": 8, "end": 8}, 
                {"id": 9, "text": "대금", "type": "NNG", "scode": "030000", "weight": 0.166667, "position": 239, "begin": 9, "end": 9}, 
                {"id": 10, "text": "등", "type": "NNB", "scode": "050001", "weight": 0.0526316, "position": 246, "begin": 10, "end": 10}, 
                {"id": 11, "text": "을", "type": "JKO", "scode": "000000", "weight": 1, "position": 249, "begin": 11, "end": 11}, 
                {"id": 12, "text": "연주하", "type": "VV", "scode": "030000", "weight": 0.333333, "position": 253, "begin": 12, "end": 13}, 
                {"id": 13, "text": "는", "type": "ETM", "scode": "000000", "weight": 1, "position": 262, "begin": 14, "end": 14}, 
                {"id": 14, "text": "이것", "type": "NP", "scode": "000001", "weight": 0.25, "position": 266, "begin": 15, "end": 15}, 
                {"id": 15, "text": "은", "type": "JX", "scode": "000000", "weight": 1, "position": 272, "begin": 16, "end": 16}, 
                {"id": 16, "text": "무엇", "type": "NP", "scode": "000001", "weight": 0.5, "position": 276, "begin": 17, "end": 17}, 
                {"id": 17, "text": "이", "type": "VCP", "scode": "030000", "weight": 0.0172414, "position": 282, "begin": 18, "end": 18}, 
                {"id": 18, "text": "ㄹ까", "type": "EF", "scode": "000000", "weight": 1, "position": 282, "begin": 19, "end": 19}, 
                {"id": 19, "text": "?", "type": "SF", "scode": "000000", "weight": 1, "position": 288, "begin": 20, "end": 20}
            ], 
            "word": [
                {"id": 0, "text": "장구", "type": "", "begin": 0, "end": 0}, 
                {"id": 1, "text": "반주에", "type": "", "begin": 1, "end": 2}, 
                {"id": 2, "text": "맞춰", "type": "", "begin": 3, "end": 4}, 
                {"id": 3, "text": "가야금,", "type": "", "begin": 5, "end": 6}, 
                {"id": 4, "text": "거문고,", "type": "", "begin": 7, "end": 8}, 
                {"id": 5, "text": "대금", "type": "", "begin": 9, "end": 9}, 
                {"id": 6, "text": "등을", "type": "", "begin": 10, "end": 11}, 
                {"id": 7, "text": "연주하는", "type": "", "begin": 12, "end": 14}, 
                {"id": 8, "text": "이것은", "type": "", "begin": 15, "end": 16}, 
                {"id": 9, "text": "무엇일까?", "type": "", "begin": 17, "end": 20}
            ], 
            "NE": [
                {"id": 0, "text": "장구", "type": "AF_MUSICAL_INSTRUMENT", "begin": 0, "end": 0, "weight": 0.505454, "common_noun": 0}, 
                {"id": 1, "text": "가야금", "type": "AF_MUSICAL_INSTRUMENT", "begin": 5, "end": 5, "weight": 0.352757, "common_noun": 0}, 
                {"id": 2, "text": "거문고", "type": "AF_MUSICAL_INSTRUMENT", "begin": 7, "end": 7, "weight": 0.532329, "common_noun": 0}, 
                {"id": 3, "text": "대금", "type": "AF_MUSICAL_INSTRUMENT", "begin": 9, "end": 9, "weight": 0.690367, "common_noun": 0}
            ], 
            "chunk": [], 
            "dependency": [
                {"id": 0, "text": "장구", "head": 1, "label": "NP", "mod": [], "weight": 0.700823}, 
                {"id": 1, "text": "반주에", "head": 2, "label": "NP_AJT", "mod": [0], "weight": 0.770356}, 
                {"id": 2, "text": "맞춰", "head": 7, "label": "VP", "mod": [1], "weight": 0.828182}, 
                {"id": 3, "text": "가야금,", "head": 5, "label": "NP_CNJ", "mod": [], "weight": 0.796453}, 
                {"id": 4, "text": "거문고,", "head": 5, "label": "NP_CNJ", "mod": [], "weight": 0.620633}, 
                {"id": 5, "text": "대금", "head": 6, "label": "NP", "mod": [3, 4], "weight": 0.685208}, 
                {"id": 6, "text": "등을", "head": 7, "label": "NP_OBJ", "mod": [5], "weight": 0.707919}, 
                {"id": 7, "text": "연주하는", "head": 8, "label": "VP_MOD", "mod": [2, 6], "weight": 0.852271}, 
                {"id": 8, "text": "이것은", "head": 9, "label": "NP_SBJ", "mod": [7], "weight": 0.680897}, 
                {"id": 9, "text": "무엇일까?", "head": -1, "label": "VNP", "mod": [8], "weight": 0.0519384}
            ], 
            "SRL": [
                {"verb": "맞추", "sense": 1, "word_id": 2, "weight": 0.197293, "argument": [
                    {"type": "ARG2", "word_id": 1, "text": "반주에", "weight": 0.197293}
                ]}, 
                {"verb": "연주", "sense": 1, "word_id": 7, "weight": 0.177134, "argument": [
                    {"type": "ARGM-MNR", "word_id": 2, "text": "맞춰", "weight": 0.14812}, 
                    {"type": "ARG1", "word_id": 6, "text": "등을", "weight": 0.206148}
                ]}
            ], 
            "relation": [], 
            "SA": [], 
            "ZA": []
        }
    ], 
    "entity": [
        {"id": 0, "type": "", "number": "singular", "gender": "", "person": "", "animacy": "thing", "mention": [
            {"id": 4, "sent_id": 0, "start_eid": 7, "end_eid": 7, "ne_id": -1, "text": "이것은", "start_eid_short": 7, "end_eid_short": 7, "text_short": "이것은"}, 
            {"id": 5, "sent_id": 0, "start_eid": 8, "end_eid": 18, "ne_id": -1, "text": "느린 장단부터 시작해서 점점 고조되어 가장 빠른 장단으로 끝이 나는 형식이다.", "start_eid_short": 18, "end_eid_short": 18, "text_short": "형식이다."}, 
            {"id": 15, "sent_id": 1, "start_eid": 8, "end_eid": 8, "ne_id": -1, "text": "이것은", "start_eid_short": 8, "end_eid_short": 8, "text_short": "이것은"}, 
            {"id": 16, "sent_id": 1, "start_eid": 9, "end_eid": 9, "ne_id": -1, "text": "무엇일까?", "start_eid_short": 9, "end_eid_short": 9, "text_short": "무엇일까?"}
        ]}, 
        {"id": 1, "type": "DT_OTHERS", "number": "singular", "gender": "", "person": "", "animacy": "time", "mention": [
            {"id": 0, "sent_id": 0, "start_eid": 0, "end_eid": 1, "ne_id": 0, "text": "19세기 말엽에", "start_eid_short": 0, "end_eid_short": 1, "text_short": "19세기 말엽에"}
        ]}, 
        {"id": 2, "type": "", "number": "singular", "gender": "", "person": "", "animacy": "thing", "mention": [
            {"id": 1, "sent_id": 0, "start_eid": 3, "end_eid": 4, "ne_id": -1, "text": "기악 독주곡으로", "start_eid_short": 3, "end_eid_short": 4, "text_short": "기악 독주곡으로"}
        ]}, 
        {"id": 3, "type": "FD_ART", "number": "singular", "gender": "", "person": "", "animacy": "thing", "mention": [
            {"id": 2, "sent_id": 0, "start_eid": 3, "end_eid": 3, "ne_id": 1, "text": "기악", "start_eid_short": 3, "end_eid_short": 3, "text_short": "기악"}
        ]}, 
        {"id": 4, "type": "QT_COUNT", "number": "singular", "gender": "", "person": "", "animacy": "thing", "mention": [
            {"id": 3, "sent_id": 0, "start_eid": 6, "end_eid": 6, "ne_id": 2, "text": "2음절의", "start_eid_short": 6, "end_eid_short": 6, "text_short": "2음절의"}
        ]}, 
        {"id": 5, "type": "", "number": "singular", "gender": "", "person": "", "animacy": "thing", "mention": [
            {"id": 6, "sent_id": 0, "start_eid": 8, "end_eid": 9, "ne_id": -1, "text": "느린 장단부터", "start_eid_short": 9, "end_eid_short": 9, "text_short": "장단부터"}
        ]}, 
        {"id": 6, "type": "", "number": "singular", "gender": "", "person": "", "animacy": "thing", "mention": [
            {"id": 8, "sent_id": 0, "start_eid": 16, "end_eid": 16, "ne_id": -1, "text": "끝이", "start_eid_short": 16, "end_eid_short": 16, "text_short": "끝이"}
        ]}, 
        {"id": 7, "type": "", "number": "singular", "gender": "", "person": "", "animacy": "thing", "mention": [
            {"id": 9, "sent_id": 1, "start_eid": 0, "end_eid": 1, "ne_id": -1, "text": "장구 반주에", "start_eid_short": 0, "end_eid_short": 1, "text_short": "장구 반주에"}
        ]}, 
        {"id": 8, "type": "AF_MUSICAL_INSTRUMENT", "number": "singular", "gender": "", "person": "", "animacy": "thing", "mention": [
            {"id": 10, "sent_id": 1, "start_eid": 0, "end_eid": 0, "ne_id": 0, "text": "장구", "start_eid_short": 0, "end_eid_short": 0, "text_short": "장구"}
        ]}, 
        {"id": 9, "type": "", "number": "singular", "gender": "", "person": "", "animacy": "thing", "mention": [
            {"id": 11, "sent_id": 1, "start_eid": 3, "end_eid": 6, "ne_id": -1, "text": "가야금, 거문고, 대금 등을", "start_eid_short": 5, "end_eid_short": 6, "text_short": "대금 등을"}
        ]}, 
        {"id": 10, "type": "", "number": "singular", "gender": "", "person": "", "animacy": "thing", "mention": [
            {"id": 7, "sent_id": 0, "start_eid": 13, "end_eid": 15, "ne_id": -1, "text": "가장 빠른 장단으로", "start_eid_short": 15, "end_eid_short": 15, "text_short": "장단으로"}
        ]}, 
        {"id": 11, "type": "AF_MUSICAL_INSTRUMENT", "number": "singular", "gender": "", "person": "", "animacy": "thing", "mention": [
            {"id": 12, "sent_id": 1, "start_eid": 3, "end_eid": 3, "ne_id": 1, "text": "가야금,", "start_eid_short": 3, "end_eid_short": 3, "text_short": "가야금,"}
        ]}, 
        {"id": 12, "type": "AF_MUSICAL_INSTRUMENT", "number": "singular", "gender": "", "person": "", "animacy": "thing", "mention": [
            {"id": 13, "sent_id": 1, "start_eid": 4, "end_eid": 4, "ne_id": 2, "text": "거문고,", "start_eid_short": 4, "end_eid_short": 4, "text_short": "거문고,"}
        ]}, 
        {"id": 13, "type": "AF_MUSICAL_INSTRUMENT", "number": "singular", "gender": "", "person": "", "animacy": "thing", "mention": [
            {"id": 14, "sent_id": 1, "start_eid": 5, "end_eid": 5, "ne_id": 3, "text": "대금", "start_eid_short": 5, "end_eid_short": 5, "text_short": "대금"}
        ]}
    ]
}