{
    "doc_id": "E2016.836.15_Q_01.json", 
    "DCT": "", 
    "category": "", 
    "category_weight": 0, 
    "title": {
        "text": "", 
        "NE": ""
    }, 
    "metaInfo": {}, 
    "sentence": [
        {
            "id": 0, 
            "reserve_str": "", 
            "text": "영남 지방의 중앙부에 있는 광역시로 우리나라 대표적인 분지 도시이다.", 
            "morp": [
                {"id": 0, "lemma": "영남", "type": "NNP", "position": 0, "weight": 0.9}, 
                {"id": 1, "lemma": "지방", "type": "NNG", "position": 7, "weight": 0.9}, 
                {"id": 2, "lemma": "의", "type": "JKG", "position": 13, "weight": 0.0694213}, 
                {"id": 3, "lemma": "중앙", "type": "NNG", "position": 17, "weight": 0.854269}, 
                {"id": 4, "lemma": "부", "type": "XSN", "position": 23, "weight": 0.0112289}, 
                {"id": 5, "lemma": "에", "type": "JKB", "position": 26, "weight": 0.121683}, 
                {"id": 6, "lemma": "있", "type": "VA", "position": 30, "weight": 0.037292}, 
                {"id": 7, "lemma": "는", "type": "ETM", "position": 33, "weight": 0.26168}, 
                {"id": 8, "lemma": "광역", "type": "NNG", "position": 37, "weight": 0.9}, 
                {"id": 9, "lemma": "시", "type": "NNG", "position": 43, "weight": 0.0346872}, 
                {"id": 10, "lemma": "로", "type": "JKB", "position": 46, "weight": 0.153229}, 
                {"id": 11, "lemma": "우리", "type": "NNG", "position": 50, "weight": 0.000725712}, 
                {"id": 12, "lemma": "나라", "type": "NNG", "position": 56, "weight": 0.184431}, 
                {"id": 13, "lemma": "대표", "type": "NNG", "position": 63, "weight": 0.9}, 
                {"id": 14, "lemma": "적", "type": "XSN", "position": 69, "weight": 0.0168756}, 
                {"id": 15, "lemma": "이", "type": "VCP", "position": 72, "weight": 0.0165001}, 
                {"id": 16, "lemma": "ㄴ", "type": "ETM", "position": 72, "weight": 0.220712}, 
                {"id": 17, "lemma": "분지", "type": "NNG", "position": 76, "weight": 0.610322}, 
                {"id": 18, "lemma": "도시", "type": "NNG", "position": 83, "weight": 0.184157}, 
                {"id": 19, "lemma": "이", "type": "VCP", "position": 89, "weight": 0.0177525}, 
                {"id": 20, "lemma": "다", "type": "EF", "position": 92, "weight": 0.353579}, 
                {"id": 21, "lemma": ".", "type": "SF", "position": 95, "weight": 1}
            ], 
            "morp_eval": [], 
            "WSD": [
                {"id": 0, "text": "영남", "type": "NNP", "scode": "000000", "weight": 1, "position": 0, "begin": 0, "end": 0}, 
                {"id": 1, "text": "지방", "type": "NNG", "scode": "050001", "weight": 0.0909091, "position": 7, "begin": 1, "end": 1}, 
                {"id": 2, "text": "의", "type": "JKG", "scode": "000000", "weight": 1, "position": 13, "begin": 2, "end": 2}, 
                {"id": 3, "text": "중앙부", "type": "NNG", "scode": "000000", "weight": 1, "position": 17, "begin": 3, "end": 4}, 
                {"id": 4, "text": "에", "type": "JKB", "scode": "000000", "weight": 1, "position": 26, "begin": 5, "end": 5}, 
                {"id": 5, "text": "있", "type": "VA", "scode": "010301", "weight": 0.0416667, "position": 30, "begin": 6, "end": 6}, 
                {"id": 6, "text": "는", "type": "ETM", "scode": "000000", "weight": 1, "position": 33, "begin": 7, "end": 7}, 
                {"id": 7, "text": "광역시", "type": "NNG", "scode": "000000", "weight": 1, "position": 37, "begin": 8, "end": 9}, 
                {"id": 8, "text": "로", "type": "JKB", "scode": "000000", "weight": 1, "position": 46, "begin": 10, "end": 10}, 
                {"id": 9, "text": "우리나라", "type": "NNG", "scode": "000000", "weight": 1, "position": 50, "begin": 11, "end": 12}, 
                {"id": 10, "text": "대표적", "type": "NNG", "scode": "000000", "weight": 1, "position": 63, "begin": 13, "end": 14}, 
                {"id": 11, "text": "이", "type": "VCP", "scode": "030000", "weight": 0.0172414, "position": 72, "begin": 15, "end": 15}, 
                {"id": 12, "text": "ㄴ", "type": "ETM", "scode": "000000", "weight": 1, "position": 72, "begin": 16, "end": 16}, 
                {"id": 13, "text": "분지", "type": "NNG", "scode": "050000", "weight": 0.111111, "position": 76, "begin": 17, "end": 17}, 
                {"id": 14, "text": "도시", "type": "NNG", "scode": "030000", "weight": 0.0909091, "position": 83, "begin": 18, "end": 18}, 
                {"id": 15, "text": "이", "type": "VCP", "scode": "030000", "weight": 0.0172414, "position": 89, "begin": 19, "end": 19}, 
                {"id": 16, "text": "다", "type": "EF", "scode": "000000", "weight": 1, "position": 92, "begin": 20, "end": 20}, 
                {"id": 17, "text": ".", "type": "SF", "scode": "000000", "weight": 1, "position": 95, "begin": 21, "end": 21}
            ], 
            "word": [
                {"id": 0, "text": "영남", "type": "", "begin": 0, "end": 0}, 
                {"id": 1, "text": "지방의", "type": "", "begin": 1, "end": 2}, 
                {"id": 2, "text": "중앙부에", "type": "", "begin": 3, "end": 5}, 
                {"id": 3, "text": "있는", "type": "", "begin": 6, "end": 7}, 
                {"id": 4, "text": "광역시로", "type": "", "begin": 8, "end": 10}, 
                {"id": 5, "text": "우리나라", "type": "", "begin": 11, "end": 12}, 
                {"id": 6, "text": "대표적인", "type": "", "begin": 13, "end": 16}, 
                {"id": 7, "text": "분지", "type": "", "begin": 17, "end": 17}, 
                {"id": 8, "text": "도시이다.", "type": "", "begin": 18, "end": 21}
            ], 
            "NE": [
                {"id": 0, "text": "영남 지방", "type": "LC_OTHERS", "begin": 0, "end": 1, "weight": 0.300652, "common_noun": 0}, 
                {"id": 1, "text": "중앙부", "type": "TM_DIRECTION", "begin": 3, "end": 4, "weight": 0.576366, "common_noun": 0}
            ], 
            "chunk": [], 
            "dependency": [
                {"id": 0, "text": "영남", "head": 1, "label": "NP", "mod": [], "weight": 0.563201}, 
                {"id": 1, "text": "지방의", "head": 2, "label": "NP_MOD", "mod": [0], "weight": 0.559249}, 
                {"id": 2, "text": "중앙부에", "head": 3, "label": "NP_AJT", "mod": [1], "weight": 0.692748}, 
                {"id": 3, "text": "있는", "head": 4, "label": "VP_MOD", "mod": [2], "weight": 0.722435}, 
                {"id": 4, "text": "광역시로", "head": 8, "label": "NP_AJT", "mod": [3], "weight": 0.803562}, 
                {"id": 5, "text": "우리나라", "head": 6, "label": "NP", "mod": [], "weight": 0.607187}, 
                {"id": 6, "text": "대표적인", "head": 8, "label": "VNP_MOD", "mod": [5], "weight": 0.77499}, 
                {"id": 7, "text": "분지", "head": 8, "label": "NP", "mod": [], "weight": 0.805662}, 
                {"id": 8, "text": "도시이다.", "head": -1, "label": "VNP", "mod": [4, 6, 7], "weight": 0.0385928}
            ], 
            "SRL": [
                {"verb": "있", "sense": 1, "word_id": 3, "weight": 0.263448, "argument": [
                    {"type": "ARG2", "word_id": 2, "text": "중앙부에", "weight": 0.326786}, 
                    {"type": "ARG1", "word_id": 4, "text": "광역시로", "weight": 0.200109}
                ]}
            ], 
            "relation": [], 
            "SA": [], 
            "ZA": []
        }, 
        {
            "id": 1, 
            "reserve_str": "", 
            "text": "동화사, 팔공산 등의 명승지가 있는 이 도시는?", 
            "morp": [
                {"id": 0, "lemma": "동화", "type": "NNP", "position": 96, "weight": 0.0034914}, 
                {"id": 1, "lemma": "사", "type": "XSN", "position": 102, "weight": 0.00293025}, 
                {"id": 2, "lemma": ",", "type": "SP", "position": 105, "weight": 1}, 
                {"id": 3, "lemma": "팔공산", "type": "NNP", "position": 107, "weight": 0.9}, 
                {"id": 4, "lemma": "등", "type": "NNB", "position": 117, "weight": 0.0459798}, 
                {"id": 5, "lemma": "의", "type": "JKG", "position": 120, "weight": 0.0520933}, 
                {"id": 6, "lemma": "명승", "type": "NNG", "position": 124, "weight": 0.9}, 
                {"id": 7, "lemma": "지", "type": "XSN", "position": 130, "weight": 0.000168337}, 
                {"id": 8, "lemma": "가", "type": "JKS", "position": 133, "weight": 0.134553}, 
                {"id": 9, "lemma": "있", "type": "VA", "position": 137, "weight": 0.12767}, 
                {"id": 10, "lemma": "는", "type": "ETM", "position": 140, "weight": 0.26168}, 
                {"id": 11, "lemma": "이", "type": "MM", "position": 144, "weight": 0.00060084}, 
                {"id": 12, "lemma": "도시", "type": "NNG", "position": 148, "weight": 0.734728}, 
                {"id": 13, "lemma": "는", "type": "JX", "position": 154, "weight": 0.0287565}, 
                {"id": 14, "lemma": "?", "type": "SF", "position": 157, "weight": 1}
            ], 
            "morp_eval": [], 
            "WSD": [
                {"id": 0, "text": "동화사", "type": "NNG", "scode": "000000", "weight": 1, "position": 96, "begin": 0, "end": 1}, 
                {"id": 1, "text": ",", "type": "SP", "scode": "000000", "weight": 1, "position": 105, "begin": 2, "end": 2}, 
                {"id": 2, "text": "팔공산", "type": "NNP", "scode": "010000", "weight": 0.333333, "position": 107, "begin": 3, "end": 3}, 
                {"id": 3, "text": "등", "type": "NNB", "scode": "050001", "weight": 0.0526316, "position": 117, "begin": 4, "end": 4}, 
                {"id": 4, "text": "의", "type": "JKG", "scode": "000000", "weight": 1, "position": 120, "begin": 5, "end": 5}, 
                {"id": 5, "text": "명승지", "type": "NNG", "scode": "000000", "weight": 1, "position": 124, "begin": 6, "end": 7}, 
                {"id": 6, "text": "가", "type": "JKS", "scode": "000000", "weight": 1, "position": 133, "begin": 8, "end": 8}, 
                {"id": 7, "text": "있", "type": "VA", "scode": "010301", "weight": 0.0416667, "position": 137, "begin": 9, "end": 9}, 
                {"id": 8, "text": "는", "type": "ETM", "scode": "000000", "weight": 1, "position": 140, "begin": 10, "end": 10}, 
                {"id": 9, "text": "이", "type": "MM", "scode": "050002", "weight": 0.0172414, "position": 144, "begin": 11, "end": 11}, 
                {"id": 10, "text": "도시", "type": "NNG", "scode": "030000", "weight": 0.0909091, "position": 148, "begin": 12, "end": 12}, 
                {"id": 11, "text": "는", "type": "JX", "scode": "000000", "weight": 1, "position": 154, "begin": 13, "end": 13}, 
                {"id": 12, "text": "?", "type": "SF", "scode": "000000", "weight": 1, "position": 157, "begin": 14, "end": 14}
            ], 
            "word": [
                {"id": 0, "text": "동화사,", "type": "", "begin": 0, "end": 2}, 
                {"id": 1, "text": "팔공산", "type": "", "begin": 3, "end": 3}, 
                {"id": 2, "text": "등의", "type": "", "begin": 4, "end": 5}, 
                {"id": 3, "text": "명승지가", "type": "", "begin": 6, "end": 8}, 
                {"id": 4, "text": "있는", "type": "", "begin": 9, "end": 10}, 
                {"id": 5, "text": "이", "type": "", "begin": 11, "end": 11}, 
                {"id": 6, "text": "도시는?", "type": "", "begin": 12, "end": 14}
            ], 
            "NE": [
                {"id": 0, "text": "동화사", "type": "AF_CULTURAL_ASSET", "begin": 0, "end": 1, "weight": 0.793189, "common_noun": 0}, 
                {"id": 1, "text": "팔공산", "type": "LCG_MOUNTAIN", "begin": 3, "end": 3, "weight": 0.326219, "common_noun": 0}
            ], 
            "chunk": [], 
            "dependency": [
                {"id": 0, "text": "동화사,", "head": 1, "label": "NP_CNJ", "mod": [], "weight": 0.0731299}, 
                {"id": 1, "text": "팔공산", "head": 2, "label": "NP", "mod": [0], "weight": 0.783694}, 
                {"id": 2, "text": "등의", "head": 3, "label": "NP_MOD", "mod": [1], "weight": 0.729244}, 
                {"id": 3, "text": "명승지가", "head": 4, "label": "NP_SBJ", "mod": [2], "weight": 0.749813}, 
                {"id": 4, "text": "있는", "head": 6, "label": "VP_MOD", "mod": [3], "weight": 0.724181}, 
                {"id": 5, "text": "이", "head": 6, "label": "DP", "mod": [], "weight": 0.514581}, 
                {"id": 6, "text": "도시는?", "head": -1, "label": "NP", "mod": [4, 5], "weight": 0.00627526}
            ], 
            "SRL": [
                {"verb": "있", "sense": 1, "word_id": 4, "weight": 0.315475, "argument": [
                    {"type": "ARG1", "word_id": 3, "text": "명승지가", "weight": 0.315475}, 
                    {"type": "ARG2", "word_id": 6, "text": "도시는?", "weight": 1}
                ]}
            ], 
            "relation": [], 
            "SA": [], 
            "ZA": []
        }
    ], 
    "entity": [
        {"id": 0, "type": "", "number": "singular", "gender": "", "person": "", "animacy": "thing", "mention": [
            {"id": 1, "sent_id": 0, "start_eid": 0, "end_eid": 4, "ne_id": -1, "text": "영남 지방의 중앙부에 있는 광역시로", "start_eid_short": 4, "end_eid_short": 4, "text_short": "광역시로"}
        ]}, 
        {"id": 1, "type": "TM_DIRECTION", "number": "singular", "gender": "", "person": "", "animacy": "thing", "mention": [
            {"id": 2, "sent_id": 0, "start_eid": 0, "end_eid": 2, "ne_id": 1, "text": "영남 지방의 중앙부에", "start_eid_short": 2, "end_eid_short": 2, "text_short": "중앙부에"}
        ]}, 
        {"id": 2, "type": "LC_OTHERS", "number": "singular", "gender": "", "person": "", "animacy": "place", "mention": [
            {"id": 3, "sent_id": 0, "start_eid": 0, "end_eid": 1, "ne_id": 0, "text": "영남 지방의", "start_eid_short": 0, "end_eid_short": 1, "text_short": "영남 지방의"}
        ]}, 
        {"id": 3, "type": "", "number": "singular", "gender": "", "person": "", "animacy": "thing", "mention": [
            {"id": 4, "sent_id": 0, "start_eid": 5, "end_eid": 5, "ne_id": -1, "text": "우리나라", "start_eid_short": 5, "end_eid_short": 5, "text_short": "우리나라"}
        ]}, 
        {"id": 4, "type": "", "number": "singular", "gender": "", "person": "", "animacy": "thing", "mention": [
            {"id": 0, "sent_id": 0, "start_eid": 0, "end_eid": 8, "ne_id": -1, "text": "영남 지방의 중앙부에 있는 광역시로 우리나라 대표적인 분지 도시이다.", "start_eid_short": 8, "end_eid_short": 8, "text_short": "도시이다."}, 
            {"id": 10, "sent_id": 1, "start_eid": 5, "end_eid": 6, "ne_id": -1, "text": "이 도시는?", "start_eid_short": 6, "end_eid_short": 6, "text_short": "도시는?"}
        ]}, 
        {"id": 5, "type": "LCG_MOUNTAIN", "number": "singular", "gender": "", "person": "", "animacy": "place", "mention": [
            {"id": 7, "sent_id": 1, "start_eid": 0, "end_eid": 2, "ne_id": 1, "text": "동화사, 팔공산 등의", "start_eid_short": 1, "end_eid_short": 2, "text_short": "팔공산 등의"}
        ]}, 
        {"id": 6, "type": "AF_CULTURAL_ASSET", "number": "singular", "gender": "", "person": "", "animacy": "thing", "mention": [
            {"id": 8, "sent_id": 1, "start_eid": 0, "end_eid": 0, "ne_id": 0, "text": "동화사,", "start_eid_short": 0, "end_eid_short": 0, "text_short": "동화사,"}
        ]}, 
        {"id": 7, "type": "LCG_MOUNTAIN", "number": "singular", "gender": "", "person": "", "animacy": "place", "mention": [
            {"id": 9, "sent_id": 1, "start_eid": 1, "end_eid": 1, "ne_id": 1, "text": "팔공산", "start_eid_short": 1, "end_eid_short": 1, "text_short": "팔공산"}
        ]}, 
        {"id": 8, "type": "LCG_RIVER", "number": "singular", "gender": "", "person": "", "animacy": "place", "mention": [
            {"id": 6, "sent_id": 1, "start_eid": 0, "end_eid": 3, "ne_id": 2, "text": "동화사, 팔공산 등의 명승지가", "start_eid_short": 3, "end_eid_short": 3, "text_short": "명승지가"}
        ]}, 
        {"id": 9, "type": "", "number": "singular", "gender": "", "person": "", "animacy": "thing", "mention": [
            {"id": 5, "sent_id": 0, "start_eid": 7, "end_eid": 7, "ne_id": -1, "text": "분지", "start_eid_short": 7, "end_eid_short": 7, "text_short": "분지"}
        ]}
    ]
}