{
    "doc_id": "E2016.837.32_A_01.json", 
    "DCT": "", 
    "category": "", 
    "category_weight": 0, 
    "title": {
        "text": "윔블던 효과", 
        "NE": ""
    }, 
    "metaInfo": {}, 
    "sentence": [
        {
            "id": 0, 
            "reserve_str": "", 
            "text": "윔블던 효과(영어: Wimbledon Effect)란 외국자본이 국내시장을 지배하는 현상을 가리키는 경제 용어이다.", 
            "morp": [
                {"id": 0, "lemma": "윔블던", "type": "NNP", "position": 0, "weight": 0.6}, 
                {"id": 1, "lemma": "효과", "type": "NNG", "position": 10, "weight": 0.9}, 
                {"id": 2, "lemma": "(", "type": "SS", "position": 16, "weight": 1}, 
                {"id": 3, "lemma": "영어", "type": "NNP", "position": 17, "weight": 0.0568092}, 
                {"id": 4, "lemma": ":", "type": "SP", "position": 23, "weight": 1}, 
                {"id": 5, "lemma": "Wimbledon", "type": "SL", "position": 25, "weight": 1}, 
                {"id": 6, "lemma": "Effect", "type": "SL", "position": 35, "weight": 1}, 
                {"id": 7, "lemma": ")", "type": "SS", "position": 41, "weight": 1}, 
                {"id": 8, "lemma": "란", "type": "JX", "position": 42, "weight": 0.00516525}, 
                {"id": 9, "lemma": "외국", "type": "NNG", "position": 46, "weight": 0.9}, 
                {"id": 10, "lemma": "자본", "type": "NNG", "position": 52, "weight": 0.9}, 
                {"id": 11, "lemma": "이", "type": "JKS", "position": 58, "weight": 0.0360723}, 
                {"id": 12, "lemma": "국내", "type": "NNG", "position": 62, "weight": 0.9}, 
                {"id": 13, "lemma": "시장", "type": "NNG", "position": 68, "weight": 0.9}, 
                {"id": 14, "lemma": "을", "type": "JKO", "position": 74, "weight": 0.129611}, 
                {"id": 15, "lemma": "지배", "type": "NNG", "position": 78, "weight": 0.9}, 
                {"id": 16, "lemma": "하", "type": "XSV", "position": 84, "weight": 0.0001}, 
                {"id": 17, "lemma": "는", "type": "ETM", "position": 87, "weight": 0.238503}, 
                {"id": 18, "lemma": "현상", "type": "NNG", "position": 91, "weight": 0.65874}, 
                {"id": 19, "lemma": "을", "type": "JKO", "position": 97, "weight": 0.129611}, 
                {"id": 20, "lemma": "가리키", "type": "VV", "position": 101, "weight": 0.9}, 
                {"id": 21, "lemma": "는", "type": "ETM", "position": 110, "weight": 0.184941}, 
                {"id": 22, "lemma": "경제", "type": "NNG", "position": 114, "weight": 0.658777}, 
                {"id": 23, "lemma": "용어", "type": "NNG", "position": 121, "weight": 0.9}, 
                {"id": 24, "lemma": "이", "type": "VCP", "position": 127, "weight": 0.0177525}, 
                {"id": 25, "lemma": "다", "type": "EF", "position": 130, "weight": 0.353579}, 
                {"id": 26, "lemma": ".", "type": "SF", "position": 133, "weight": 1}
            ], 
            "morp_eval": [], 
            "WSD": [
                {"id": 0, "text": "윔블던", "type": "NNP", "scode": "000000", "weight": 1, "position": 0, "begin": 0, "end": 0}, 
                {"id": 1, "text": "효과", "type": "NNG", "scode": "010000", "weight": 0.5, "position": 10, "begin": 1, "end": 1}, 
                {"id": 2, "text": "(", "type": "SS", "scode": "000000", "weight": 1, "position": 16, "begin": 2, "end": 2}, 
                {"id": 3, "text": "영어", "type": "NNP", "scode": "020000", "weight": 0.2, "position": 17, "begin": 3, "end": 3}, 
                {"id": 4, "text": ":", "type": "SP", "scode": "000000", "weight": 1, "position": 23, "begin": 4, "end": 4}, 
                {"id": 5, "text": "Wimbledon", "type": "SL", "scode": "000000", "weight": 1, "position": 25, "begin": 5, "end": 5}, 
                {"id": 6, "text": "Effect", "type": "SL", "scode": "000000", "weight": 1, "position": 35, "begin": 6, "end": 6}, 
                {"id": 7, "text": ")", "type": "SS", "scode": "000000", "weight": 1, "position": 41, "begin": 7, "end": 7}, 
                {"id": 8, "text": "란", "type": "JX", "scode": "000000", "weight": 1, "position": 42, "begin": 8, "end": 8}, 
                {"id": 9, "text": "외국자본", "type": "NNG", "scode": "000000", "weight": 1, "position": 46, "begin": 9, "end": 10}, 
                {"id": 10, "text": "이", "type": "JKS", "scode": "000000", "weight": 1, "position": 58, "begin": 11, "end": 11}, 
                {"id": 11, "text": "국내시장", "type": "NNG", "scode": "000000", "weight": 1, "position": 62, "begin": 12, "end": 13}, 
                {"id": 12, "text": "을", "type": "JKO", "scode": "000000", "weight": 1, "position": 74, "begin": 14, "end": 14}, 
                {"id": 13, "text": "지배하", "type": "VV", "scode": "010101", "weight": 0.166667, "position": 78, "begin": 15, "end": 16}, 
                {"id": 14, "text": "는", "type": "ETM", "scode": "000000", "weight": 1, "position": 87, "begin": 17, "end": 17}, 
                {"id": 15, "text": "현상", "type": "NNG", "scode": "030000", "weight": 0.0833333, "position": 91, "begin": 18, "end": 18}, 
                {"id": 16, "text": "을", "type": "JKO", "scode": "000000", "weight": 1, "position": 97, "begin": 19, "end": 19}, 
                {"id": 17, "text": "가리키", "type": "VV", "scode": "010002", "weight": 0.333333, "position": 101, "begin": 20, "end": 20}, 
                {"id": 18, "text": "는", "type": "ETM", "scode": "000000", "weight": 1, "position": 110, "begin": 21, "end": 21}, 
                {"id": 19, "text": "경제", "type": "NNG", "scode": "040001", "weight": 0.111111, "position": 114, "begin": 22, "end": 22}, 
                {"id": 20, "text": "용어", "type": "NNG", "scode": "020000", "weight": 0.2, "position": 121, "begin": 23, "end": 23}, 
                {"id": 21, "text": "이", "type": "VCP", "scode": "030000", "weight": 0.0172414, "position": 127, "begin": 24, "end": 24}, 
                {"id": 22, "text": "다", "type": "EF", "scode": "000000", "weight": 1, "position": 130, "begin": 25, "end": 25}, 
                {"id": 23, "text": ".", "type": "SF", "scode": "000000", "weight": 1, "position": 133, "begin": 26, "end": 26}
            ], 
            "word": [
                {"id": 0, "text": "윔블던", "type": "", "begin": 0, "end": 0}, 
                {"id": 1, "text": "효과(영어:", "type": "", "begin": 1, "end": 4}, 
                {"id": 2, "text": "Wimbledon", "type": "", "begin": 5, "end": 5}, 
                {"id": 3, "text": "Effect)란", "type": "", "begin": 6, "end": 8}, 
                {"id": 4, "text": "외국자본이", "type": "", "begin": 9, "end": 11}, 
                {"id": 5, "text": "국내시장을", "type": "", "begin": 12, "end": 14}, 
                {"id": 6, "text": "지배하는", "type": "", "begin": 15, "end": 17}, 
                {"id": 7, "text": "현상을", "type": "", "begin": 18, "end": 19}, 
                {"id": 8, "text": "가리키는", "type": "", "begin": 20, "end": 21}, 
                {"id": 9, "text": "경제", "type": "", "begin": 22, "end": 22}, 
                {"id": 10, "text": "용어이다.", "type": "", "begin": 23, "end": 26}
            ], 
            "NE": [
                {"id": 0, "text": "영어", "type": "CV_LANGUAGE", "begin": 3, "end": 3, "weight": 0.307968, "common_noun": 0}
            ], 
            "chunk": [], 
            "dependency": [
                {"id": 0, "text": "윔블던", "head": 1, "label": "NP", "mod": [], "weight": 0.808066}, 
                {"id": 1, "text": "효과(영어:", "head": 3, "label": "NP", "mod": [0], "weight": 0.771768}, 
                {"id": 2, "text": "Wimbledon", "head": 3, "label": "NP", "mod": [], "weight": 0.811379}, 
                {"id": 3, "text": "Effect)란", "head": 10, "label": "NP_SBJ", "mod": [1, 2], "weight": 0.53422}, 
                {"id": 4, "text": "외국자본이", "head": 6, "label": "NP_SBJ", "mod": [], "weight": 0.683808}, 
                {"id": 5, "text": "국내시장을", "head": 6, "label": "NP_OBJ", "mod": [], "weight": 0.699448}, 
                {"id": 6, "text": "지배하는", "head": 7, "label": "VP_MOD", "mod": [4, 5], "weight": 0.813947}, 
                {"id": 7, "text": "현상을", "head": 8, "label": "NP_OBJ", "mod": [6], "weight": 0.840449}, 
                {"id": 8, "text": "가리키는", "head": 10, "label": "VP_MOD", "mod": [7], "weight": 0.815729}, 
                {"id": 9, "text": "경제", "head": 10, "label": "NP", "mod": [], "weight": 0.712795}, 
                {"id": 10, "text": "용어이다.", "head": -1, "label": "VNP", "mod": [3, 8, 9], "weight": 0.0447823}
            ], 
            "SRL": [
                {"verb": "지배", "sense": 1, "word_id": 6, "weight": 0.255043, "argument": [
                    {"type": "ARG0", "word_id": 4, "text": "외국자본이", "weight": 0.255022}, 
                    {"type": "ARG1", "word_id": 5, "text": "국내시장을", "weight": 0.255063}
                ]}, 
                {"verb": "가리키", "sense": 1, "word_id": 8, "weight": 0.252485, "argument": [
                    {"type": "ARG1", "word_id": 7, "text": "현상을", "weight": 0.376459}, 
                    {"type": "ARG0", "word_id": 10, "text": "용어이다.", "weight": 1}
                ]}
            ], 
            "relation": [], 
            "SA": [], 
            "ZA": []
        }, 
        {
            "id": 1, 
            "reserve_str": "", 
            "text": "일본에서 처음 사용되기 시작한 것으로 알려진 이 용어는 영국의 금융시장에서 나타나는 현상을 윔블던 테니스 대회와 비교하여, 외국자본에 대한 시장 개방이 가져오는 효과를 설명할 때 사용된다.", 
            "morp": [
                {"id": 0, "lemma": "일본", "type": "NNP", "position": 134, "weight": 0.0892936}, 
                {"id": 1, "lemma": "에서", "type": "JKB", "position": 140, "weight": 0.0823859}, 
                {"id": 2, "lemma": "처음", "type": "NNG", "position": 147, "weight": 0.9}, 
                {"id": 3, "lemma": "사용", "type": "NNG", "position": 154, "weight": 0.9}, 
                {"id": 4, "lemma": "되", "type": "XSV", "position": 160, "weight": 0.000224177}, 
                {"id": 5, "lemma": "기", "type": "ETN", "position": 163, "weight": 0.0556099}, 
                {"id": 6, "lemma": "시작", "type": "NNG", "position": 167, "weight": 0.9}, 
                {"id": 7, "lemma": "하", "type": "XSV", "position": 173, "weight": 0.0001}, 
                {"id": 8, "lemma": "ㄴ", "type": "ETM", "position": 173, "weight": 0.392321}, 
                {"id": 9, "lemma": "것", "type": "NNB", "position": 177, "weight": 0.228788}, 
                {"id": 10, "lemma": "으로", "type": "JKB", "position": 180, "weight": 0.135596}, 
                {"id": 11, "lemma": "알려지", "type": "VV", "position": 187, "weight": 0.9}, 
                {"id": 12, "lemma": "ㄴ", "type": "ETM", "position": 193, "weight": 0.304215}, 
                {"id": 13, "lemma": "이", "type": "MM", "position": 197, "weight": 0.00060084}, 
                {"id": 14, "lemma": "용어", "type": "NNG", "position": 201, "weight": 0.9}, 
                {"id": 15, "lemma": "는", "type": "JX", "position": 207, "weight": 0.0287565}, 
                {"id": 16, "lemma": "영국", "type": "NNP", "position": 211, "weight": 0.9}, 
                {"id": 17, "lemma": "의", "type": "JKG", "position": 217, "weight": 0.0987295}, 
                {"id": 18, "lemma": "금융", "type": "NNG", "position": 221, "weight": 0.9}, 
                {"id": 19, "lemma": "시장", "type": "NNG", "position": 227, "weight": 0.9}, 
                {"id": 20, "lemma": "에서", "type": "JKB", "position": 233, "weight": 0.153407}, 
                {"id": 21, "lemma": "나타나", "type": "VV", "position": 240, "weight": 0.9}, 
                {"id": 22, "lemma": "는", "type": "ETM", "position": 249, "weight": 0.184941}, 
                {"id": 23, "lemma": "현상", "type": "NNG", "position": 253, "weight": 0.65874}, 
                {"id": 24, "lemma": "을", "type": "JKO", "position": 259, "weight": 0.129611}, 
                {"id": 25, "lemma": "윔블던", "type": "NNP", "position": 263, "weight": 0.6}, 
                {"id": 26, "lemma": "테니스", "type": "NNG", "position": 273, "weight": 0.9}, 
                {"id": 27, "lemma": "대회", "type": "NNG", "position": 283, "weight": 0.9}, 
                {"id": 28, "lemma": "와", "type": "JKB", "position": 289, "weight": 0.0567862}, 
                {"id": 29, "lemma": "비교", "type": "NNG", "position": 293, "weight": 0.9}, 
                {"id": 30, "lemma": "하", "type": "XSV", "position": 299, "weight": 0.0001}, 
                {"id": 31, "lemma": "아", "type": "EC", "position": 302, "weight": 0.361326}, 
                {"id": 32, "lemma": ",", "type": "SP", "position": 305, "weight": 1}, 
                {"id": 33, "lemma": "외국", "type": "NNG", "position": 307, "weight": 0.9}, 
                {"id": 34, "lemma": "자본", "type": "NNG", "position": 313, "weight": 0.9}, 
                {"id": 35, "lemma": "에", "type": "JKB", "position": 319, "weight": 0.153364}, 
                {"id": 36, "lemma": "대하", "type": "VV", "position": 323, "weight": 0.0312871}, 
                {"id": 37, "lemma": "ㄴ", "type": "ETM", "position": 326, "weight": 0.392321}, 
                {"id": 38, "lemma": "시장", "type": "NNG", "position": 330, "weight": 0.9}, 
                {"id": 39, "lemma": "개방", "type": "NNG", "position": 337, "weight": 0.9}, 
                {"id": 40, "lemma": "이", "type": "JKS", "position": 343, "weight": 0.0360723}, 
                {"id": 41, "lemma": "가져오", "type": "VV", "position": 347, "weight": 0.9}, 
                {"id": 42, "lemma": "는", "type": "ETM", "position": 356, "weight": 0.184941}, 
                {"id": 43, "lemma": "효과", "type": "NNG", "position": 360, "weight": 0.9}, 
                {"id": 44, "lemma": "를", "type": "JKO", "position": 366, "weight": 0.137686}, 
                {"id": 45, "lemma": "설명", "type": "NNG", "position": 370, "weight": 0.9}, 
                {"id": 46, "lemma": "하", "type": "XSV", "position": 376, "weight": 0.0001}, 
                {"id": 47, "lemma": "ㄹ", "type": "ETM", "position": 376, "weight": 0.387847}, 
                {"id": 48, "lemma": "때", "type": "NNG", "position": 380, "weight": 0.656522}, 
                {"id": 49, "lemma": "사용", "type": "NNG", "position": 384, "weight": 0.9}, 
                {"id": 50, "lemma": "되", "type": "XSV", "position": 390, "weight": 0.000224177}, 
                {"id": 51, "lemma": "ㄴ다", "type": "EF", "position": 390, "weight": 0.0449045}, 
                {"id": 52, "lemma": ".", "type": "SF", "position": 396, "weight": 1}
            ], 
            "morp_eval": [], 
            "WSD": [
                {"id": 0, "text": "일본", "type": "NNP", "scode": "020000", "weight": 0.333333, "position": 134, "begin": 0, "end": 0}, 
                {"id": 1, "text": "에서", "type": "JKB", "scode": "000000", "weight": 1, "position": 140, "begin": 1, "end": 1}, 
                {"id": 2, "text": "처음", "type": "NNG", "scode": "000000", "weight": 1, "position": 147, "begin": 2, "end": 2}, 
                {"id": 3, "text": "사용되", "type": "VV", "scode": "000001", "weight": 0.5, "position": 154, "begin": 3, "end": 4}, 
                {"id": 4, "text": "기", "type": "ETN", "scode": "000000", "weight": 1, "position": 163, "begin": 5, "end": 5}, 
                {"id": 5, "text": "시작하", "type": "VV", "scode": "010001", "weight": 0.25, "position": 167, "begin": 6, "end": 7}, 
                {"id": 6, "text": "ㄴ", "type": "ETM", "scode": "000000", "weight": 1, "position": 173, "begin": 8, "end": 8}, 
                {"id": 7, "text": "것", "type": "NNB", "scode": "010001", "weight": 0.125, "position": 177, "begin": 9, "end": 9}, 
                {"id": 8, "text": "으로", "type": "JKB", "scode": "000000", "weight": 1, "position": 180, "begin": 10, "end": 10}, 
                {"id": 9, "text": "알려지", "type": "VV", "scode": "000002", "weight": 0.5, "position": 187, "begin": 11, "end": 11}, 
                {"id": 10, "text": "ㄴ", "type": "ETM", "scode": "000000", "weight": 1, "position": 193, "begin": 12, "end": 12}, 
                {"id": 11, "text": "이", "type": "MM", "scode": "050102", "weight": 0.0172414, "position": 197, "begin": 13, "end": 13}, 
                {"id": 12, "text": "용어", "type": "NNG", "scode": "020000", "weight": 0.2, "position": 201, "begin": 14, "end": 14}, 
                {"id": 13, "text": "는", "type": "JX", "scode": "000000", "weight": 1, "position": 207, "begin": 15, "end": 15}, 
                {"id": 14, "text": "영국", "type": "NNP", "scode": "010000", "weight": 0.5, "position": 211, "begin": 16, "end": 16}, 
                {"id": 15, "text": "의", "type": "JKG", "scode": "000000", "weight": 1, "position": 217, "begin": 17, "end": 17}, 
                {"id": 16, "text": "금융시장", "type": "NNG", "scode": "000000", "weight": 1, "position": 221, "begin": 18, "end": 19}, 
                {"id": 17, "text": "에서", "type": "JKB", "scode": "000000", "weight": 1, "position": 233, "begin": 20, "end": 20}, 
                {"id": 18, "text": "나타나", "type": "VV", "scode": "000300", "weight": 0.2, "position": 240, "begin": 21, "end": 21}, 
                {"id": 19, "text": "는", "type": "ETM", "scode": "000000", "weight": 1, "position": 249, "begin": 22, "end": 22}, 
                {"id": 20, "text": "현상", "type": "NNG", "scode": "030000", "weight": 0.0833333, "position": 253, "begin": 23, "end": 23}, 
                {"id": 21, "text": "을", "type": "JKO", "scode": "000000", "weight": 1, "position": 259, "begin": 24, "end": 24}, 
                {"id": 22, "text": "윔블던", "type": "NNP", "scode": "000000", "weight": 1, "position": 263, "begin": 25, "end": 25}, 
                {"id": 23, "text": "테니스", "type": "NNG", "scode": "000000", "weight": 1, "position": 273, "begin": 26, "end": 26}, 
                {"id": 24, "text": "대회", "type": "NNG", "scode": "020002", "weight": 0.25, "position": 283, "begin": 27, "end": 27}, 
                {"id": 25, "text": "와", "type": "JKB", "scode": "000000", "weight": 1, "position": 289, "begin": 28, "end": 28}, 
                {"id": 26, "text": "비교하", "type": "VV", "scode": "000001", "weight": 0.5, "position": 293, "begin": 29, "end": 30}, 
                {"id": 27, "text": "아", "type": "EC", "scode": "000000", "weight": 1, "position": 302, "begin": 31, "end": 31}, 
                {"id": 28, "text": ",", "type": "SP", "scode": "000000", "weight": 1, "position": 305, "begin": 32, "end": 32}, 
                {"id": 29, "text": "외국자본", "type": "NNG", "scode": "000000", "weight": 1, "position": 307, "begin": 33, "end": 34}, 
                {"id": 30, "text": "에", "type": "JKB", "scode": "000000", "weight": 1, "position": 319, "begin": 35, "end": 35}, 
                {"id": 31, "text": "대하", "type": "VV", "scode": "020003", "weight": 0.25, "position": 323, "begin": 36, "end": 36}, 
                {"id": 32, "text": "ㄴ", "type": "ETM", "scode": "000000", "weight": 1, "position": 326, "begin": 37, "end": 37}, 
                {"id": 33, "text": "시장", "type": "NNG", "scode": "040002", "weight": 0.0769231, "position": 330, "begin": 38, "end": 38}, 
                {"id": 34, "text": "개방", "type": "NNG", "scode": "040002", "weight": 0.2, "position": 337, "begin": 39, "end": 39}, 
                {"id": 35, "text": "이", "type": "JKS", "scode": "000000", "weight": 1, "position": 343, "begin": 40, "end": 40}, 
                {"id": 36, "text": "가져오", "type": "VV", "scode": "000002", "weight": 0.5, "position": 347, "begin": 41, "end": 41}, 
                {"id": 37, "text": "는", "type": "ETM", "scode": "000000", "weight": 1, "position": 356, "begin": 42, "end": 42}, 
                {"id": 38, "text": "효과", "type": "NNG", "scode": "010000", "weight": 0.5, "position": 360, "begin": 43, "end": 43}, 
                {"id": 39, "text": "를", "type": "JKO", "scode": "000000", "weight": 1, "position": 366, "begin": 44, "end": 44}, 
                {"id": 40, "text": "설명하", "type": "VV", "scode": "000000", "weight": 1, "position": 370, "begin": 45, "end": 46}, 
                {"id": 41, "text": "ㄹ", "type": "ETM", "scode": "000000", "weight": 1, "position": 376, "begin": 47, "end": 47}, 
                {"id": 42, "text": "때", "type": "NNG", "scode": "010005", "weight": 0.0666667, "position": 380, "begin": 48, "end": 48}, 
                {"id": 43, "text": "사용되", "type": "VV", "scode": "000001", "weight": 0.5, "position": 384, "begin": 49, "end": 50}, 
                {"id": 44, "text": "ㄴ다", "type": "EF", "scode": "000000", "weight": 1, "position": 390, "begin": 51, "end": 51}, 
                {"id": 45, "text": ".", "type": "SF", "scode": "000000", "weight": 1, "position": 396, "begin": 52, "end": 52}
            ], 
            "word": [
                {"id": 0, "text": "일본에서", "type": "", "begin": 0, "end": 1}, 
                {"id": 1, "text": "처음", "type": "", "begin": 2, "end": 2}, 
                {"id": 2, "text": "사용되기", "type": "", "begin": 3, "end": 5}, 
                {"id": 3, "text": "시작한", "type": "", "begin": 6, "end": 8}, 
                {"id": 4, "text": "것으로", "type": "", "begin": 9, "end": 10}, 
                {"id": 5, "text": "알려진", "type": "", "begin": 11, "end": 12}, 
                {"id": 6, "text": "이", "type": "", "begin": 13, "end": 13}, 
                {"id": 7, "text": "용어는", "type": "", "begin": 14, "end": 15}, 
                {"id": 8, "text": "영국의", "type": "", "begin": 16, "end": 17}, 
                {"id": 9, "text": "금융시장에서", "type": "", "begin": 18, "end": 20}, 
                {"id": 10, "text": "나타나는", "type": "", "begin": 21, "end": 22}, 
                {"id": 11, "text": "현상을", "type": "", "begin": 23, "end": 24}, 
                {"id": 12, "text": "윔블던", "type": "", "begin": 25, "end": 25}, 
                {"id": 13, "text": "테니스", "type": "", "begin": 26, "end": 26}, 
                {"id": 14, "text": "대회와", "type": "", "begin": 27, "end": 28}, 
                {"id": 15, "text": "비교하여,", "type": "", "begin": 29, "end": 32}, 
                {"id": 16, "text": "외국자본에", "type": "", "begin": 33, "end": 35}, 
                {"id": 17, "text": "대한", "type": "", "begin": 36, "end": 37}, 
                {"id": 18, "text": "시장", "type": "", "begin": 38, "end": 38}, 
                {"id": 19, "text": "개방이", "type": "", "begin": 39, "end": 40}, 
                {"id": 20, "text": "가져오는", "type": "", "begin": 41, "end": 42}, 
                {"id": 21, "text": "효과를", "type": "", "begin": 43, "end": 44}, 
                {"id": 22, "text": "설명할", "type": "", "begin": 45, "end": 47}, 
                {"id": 23, "text": "때", "type": "", "begin": 48, "end": 48}, 
                {"id": 24, "text": "사용된다.", "type": "", "begin": 49, "end": 52}
            ], 
            "NE": [
                {"id": 0, "text": "일본", "type": "LCP_COUNTRY", "begin": 0, "end": 0, "weight": 0.694761, "common_noun": 0}, 
                {"id": 1, "text": "영국", "type": "LCP_COUNTRY", "begin": 16, "end": 16, "weight": 0.703735, "common_noun": 0}, 
                {"id": 2, "text": "윔블던 테니스 대회", "type": "EV_SPORTS", "begin": 25, "end": 27, "weight": 0.488844, "common_noun": 0}
            ], 
            "chunk": [], 
            "dependency": [
                {"id": 0, "text": "일본에서", "head": 2, "label": "NP_AJT", "mod": [], "weight": 0.563255}, 
                {"id": 1, "text": "처음", "head": 2, "label": "NP_AJT", "mod": [], "weight": 0.511616}, 
                {"id": 2, "text": "사용되기", "head": 3, "label": "VP_OBJ", "mod": [0, 1], "weight": 0.4937}, 
                {"id": 3, "text": "시작한", "head": 4, "label": "VP_MOD", "mod": [2], "weight": 0.762689}, 
                {"id": 4, "text": "것으로", "head": 5, "label": "NP_AJT", "mod": [3], "weight": 0.731375}, 
                {"id": 5, "text": "알려진", "head": 7, "label": "VP_MOD", "mod": [4], "weight": 0.678413}, 
                {"id": 6, "text": "이", "head": 7, "label": "DP", "mod": [], "weight": 0.583358}, 
                {"id": 7, "text": "용어는", "head": 24, "label": "NP_SBJ", "mod": [5, 6], "weight": 0.832161}, 
                {"id": 8, "text": "영국의", "head": 9, "label": "NP_MOD", "mod": [], "weight": 0.763715}, 
                {"id": 9, "text": "금융시장에서", "head": 10, "label": "NP_AJT", "mod": [8], "weight": 0.832067}, 
                {"id": 10, "text": "나타나는", "head": 11, "label": "VP_MOD", "mod": [9], "weight": 0.80633}, 
                {"id": 11, "text": "현상을", "head": 15, "label": "NP_OBJ", "mod": [10], "weight": 0.773068}, 
                {"id": 12, "text": "윔블던", "head": 14, "label": "NP", "mod": [], "weight": 0.682656}, 
                {"id": 13, "text": "테니스", "head": 14, "label": "NP", "mod": [], "weight": 0.833961}, 
                {"id": 14, "text": "대회와", "head": 15, "label": "NP_AJT", "mod": [12, 13], "weight": 0.766633}, 
                {"id": 15, "text": "비교하여,", "head": 22, "label": "VP", "mod": [11, 14], "weight": 0.74436}, 
                {"id": 16, "text": "외국자본에", "head": 17, "label": "NP_AJT", "mod": [], "weight": 0.0575336}, 
                {"id": 17, "text": "대한", "head": 19, "label": "VP_MOD", "mod": [16], "weight": 0.448246}, 
                {"id": 18, "text": "시장", "head": 19, "label": "NP", "mod": [], "weight": 0.654815}, 
                {"id": 19, "text": "개방이", "head": 20, "label": "NP_SBJ", "mod": [17, 18], "weight": 0.691746}, 
                {"id": 20, "text": "가져오는", "head": 21, "label": "VP_MOD", "mod": [19], "weight": 0.785088}, 
                {"id": 21, "text": "효과를", "head": 22, "label": "NP_OBJ", "mod": [20], "weight": 0.790513}, 
                {"id": 22, "text": "설명할", "head": 23, "label": "VP_MOD", "mod": [21, 15], "weight": 0.691669}, 
                {"id": 23, "text": "때", "head": 24, "label": "NP_AJT", "mod": [22], "weight": 0.770867}, 
                {"id": 24, "text": "사용된다.", "head": -1, "label": "VP", "mod": [23, 7], "weight": 1.1171e-05}
            ], 
            "SRL": [
                {"verb": "사용", "sense": 1, "word_id": 2, "weight": 0.119827, "argument": [
                    {"type": "ARGM-LOC", "word_id": 0, "text": "일본에서", "weight": 0.128755}, 
                    {"type": "ARGM-PRD", "word_id": 1, "text": "처음", "weight": 0.1109}, 
                    {"type": "ARG1", "word_id": 7, "text": "용어는", "weight": 1}
                ]}, 
                {"verb": "시작", "sense": 1, "word_id": 3, "weight": 0.148768, "argument": [
                    {"type": "ARG1", "word_id": 2, "text": "사용되기", "weight": 0.148768}
                ]}, 
                {"verb": "알", "sense": 1, "word_id": 5, "weight": 0.194394, "argument": [
                    {"type": "ARG2", "word_id": 4, "text": "것으로", "weight": 1}, 
                    {"type": "ARG1", "word_id": 7, "text": "용어는", "weight": 0.274064}
                ]}, 
                {"verb": "나타나", "sense": 1, "word_id": 10, "weight": 0.226995, "argument": [
                    {"type": "ARG2", "word_id": 9, "text": "금융시장에서", "weight": 0.110397}, 
                    {"type": "ARG1", "word_id": 11, "text": "현상을", "weight": 0.343593}
                ]}, 
                {"verb": "비교", "sense": 1, "word_id": 15, "weight": 0.193484, "argument": [
                    {"type": "ARG1", "word_id": 11, "text": "현상을", "weight": 0.281557}, 
                    {"type": "ARG2", "word_id": 14, "text": "대회와", "weight": 0.151421}
                ]}, 
                {"verb": "대하", "sense": 1, "word_id": 17, "weight": 0.200626, "argument": [
                    {"type": "ARG2", "word_id": 16, "text": "외국자본에", "weight": 0.18285}, 
                    {"type": "ARG1", "word_id": 19, "text": "개방이", "weight": 0.218402}
                ]}, 
                {"verb": "가져오", "sense": 1, "word_id": 20, "weight": 0.142914, "argument": [
                    {"type": "ARG0", "word_id": 19, "text": "개방이", "weight": 0.181524}, 
                    {"type": "ARG1", "word_id": 21, "text": "효과를", "weight": 0.104304}
                ]}, 
                {"verb": "설명", "sense": 1, "word_id": 22, "weight": 0.236405, "argument": [
                    {"type": "ARG1", "word_id": 21, "text": "효과를", "weight": 0.236405}
                ]}, 
                {"verb": "사용", "sense": 1, "word_id": 24, "weight": 0.155534, "argument": [
                    {"type": "ARG1", "word_id": 7, "text": "용어는", "weight": 0.150913}, 
                    {"type": "ARGM-TMP", "word_id": 23, "text": "때", "weight": 0.160155}
                ]}
            ], 
            "relation": [], 
            "SA": [], 
            "ZA": []
        }
    ], 
    "entity": [
        {"id": 0, "type": "PS_NAME", "number": "singular", "gender": "", "person": "", "animacy": "human", "mention": [
            {"id": 0, "sent_id": 0, "start_eid": 0, "end_eid": 3, "ne_id": 2, "text": "윔블던 효과(영어: Wimbledon Effect)란", "start_eid_short": 3, "end_eid_short": 3, "text_short": "Effect)란"}, 
            {"id": 1, "sent_id": 0, "start_eid": 4, "end_eid": 10, "ne_id": -1, "text": "외국자본이 국내시장을 지배하는 현상을 가리키는 경제 용어이다.", "start_eid_short": 10, "end_eid_short": 10, "text_short": "용어이다."}, 
            {"id": 2, "sent_id": 0, "start_eid": 4, "end_eid": 7, "ne_id": -1, "text": "외국자본이 국내시장을 지배하는 현상을", "start_eid_short": 7, "end_eid_short": 7, "text_short": "현상을"}, 
            {"id": 9, "sent_id": 1, "start_eid": 6, "end_eid": 7, "ne_id": -1, "text": "이 용어는", "start_eid_short": 6, "end_eid_short": 7, "text_short": "이 용어는"}
        ]}, 
        {"id": 1, "type": "", "number": "singular", "gender": "", "person": "", "animacy": "thing", "mention": [
            {"id": 10, "sent_id": 1, "start_eid": 8, "end_eid": 11, "ne_id": -1, "text": "영국의 금융시장에서 나타나는 현상을", "start_eid_short": 11, "end_eid_short": 11, "text_short": "현상을"}
        ]}, 
        {"id": 2, "type": "", "number": "singular", "gender": "", "person": "", "animacy": "thing", "mention": [
            {"id": 3, "sent_id": 0, "start_eid": 4, "end_eid": 4, "ne_id": -1, "text": "외국자본이", "start_eid_short": 4, "end_eid_short": 4, "text_short": "외국자본이"}, 
            {"id": 17, "sent_id": 1, "start_eid": 16, "end_eid": 16, "ne_id": -1, "text": "외국자본에", "start_eid_short": 16, "end_eid_short": 16, "text_short": "외국자본에"}
        ]}, 
        {"id": 3, "type": "", "number": "singular", "gender": "", "person": "", "animacy": "thing", "mention": [
            {"id": 4, "sent_id": 0, "start_eid": 5, "end_eid": 5, "ne_id": -1, "text": "국내시장을", "start_eid_short": 5, "end_eid_short": 5, "text_short": "국내시장을"}
        ]}, 
        {"id": 4, "type": "", "number": "singular", "gender": "", "person": "", "animacy": "thing", "mention": [
            {"id": 5, "sent_id": 0, "start_eid": 9, "end_eid": 9, "ne_id": -1, "text": "경제", "start_eid_short": 9, "end_eid_short": 9, "text_short": "경제"}
        ]}, 
        {"id": 5, "type": "", "number": "singular", "gender": "", "person": "", "animacy": "thing", "mention": [
            {"id": 6, "sent_id": 1, "start_eid": 0, "end_eid": 4, "ne_id": -1, "text": "일본에서 처음 사용되기 시작한 것으로", "start_eid_short": 4, "end_eid_short": 4, "text_short": "것으로"}
        ]}, 
        {"id": 6, "type": "LCP_COUNTRY", "number": "singular", "gender": "", "person": "", "animacy": "place", "mention": [
            {"id": 7, "sent_id": 1, "start_eid": 0, "end_eid": 0, "ne_id": 0, "text": "일본에서", "start_eid_short": 0, "end_eid_short": 0, "text_short": "일본에서"}
        ]}, 
        {"id": 7, "type": "", "number": "singular", "gender": "", "person": "", "animacy": "thing", "mention": [
            {"id": 8, "sent_id": 1, "start_eid": 1, "end_eid": 1, "ne_id": -1, "text": "처음", "start_eid_short": 1, "end_eid_short": 1, "text_short": "처음"}
        ]}, 
        {"id": 8, "type": "", "number": "singular", "gender": "", "person": "", "animacy": "thing", "mention": [
            {"id": 11, "sent_id": 1, "start_eid": 8, "end_eid": 9, "ne_id": -1, "text": "영국의 금융시장에서", "start_eid_short": 9, "end_eid_short": 9, "text_short": "금융시장에서"}
        ]}, 
        {"id": 9, "type": "LCP_COUNTRY", "number": "singular", "gender": "", "person": "", "animacy": "place", "mention": [
            {"id": 12, "sent_id": 1, "start_eid": 8, "end_eid": 8, "ne_id": 1, "text": "영국의", "start_eid_short": 8, "end_eid_short": 8, "text_short": "영국의"}
        ]}, 
        {"id": 10, "type": "EV_SPORTS", "number": "singular", "gender": "", "person": "", "animacy": "thing", "mention": [
            {"id": 13, "sent_id": 1, "start_eid": 12, "end_eid": 14, "ne_id": 2, "text": "윔블던 테니스 대회와", "start_eid_short": 12, "end_eid_short": 14, "text_short": "윔블던 테니스 대회와"}
        ]}, 
        {"id": 11, "type": "", "number": "singular", "gender": "", "person": "", "animacy": "thing", "mention": [
            {"id": 14, "sent_id": 1, "start_eid": 16, "end_eid": 23, "ne_id": -1, "text": "외국자본에 대한 시장 개방이 가져오는 효과를 설명할 때", "start_eid_short": 23, "end_eid_short": 23, "text_short": "때"}
        ]}, 
        {"id": 12, "type": "", "number": "singular", "gender": "", "person": "", "animacy": "thing", "mention": [
            {"id": 15, "sent_id": 1, "start_eid": 16, "end_eid": 21, "ne_id": -1, "text": "외국자본에 대한 시장 개방이 가져오는 효과를", "start_eid_short": 21, "end_eid_short": 21, "text_short": "효과를"}
        ]}, 
        {"id": 13, "type": "", "number": "singular", "gender": "", "person": "", "animacy": "thing", "mention": [
            {"id": 16, "sent_id": 1, "start_eid": 16, "end_eid": 19, "ne_id": -1, "text": "외국자본에 대한 시장 개방이", "start_eid_short": 18, "end_eid_short": 19, "text_short": "시장 개방이"}
        ]}, 
        {"id": 14, "type": "", "number": "singular", "gender": "", "person": "", "animacy": "thing", "mention": [
            {"id": 18, "sent_id": 1, "start_eid": 18, "end_eid": 18, "ne_id": -1, "text": "시장", "start_eid_short": 18, "end_eid_short": 18, "text_short": "시장"}
        ]}
    ]
}