{
    "doc_id": "E2016.837.16_A_02.json", 
    "DCT": "", 
    "category": "", 
    "category_weight": 0, 
    "title": {
        "text": "고창 화순 강화 고인돌 유적", 
        "NE": ""
    }, 
    "metaInfo": {}, 
    "sentence": [
        {
            "id": 0, 
            "reserve_str": "", 
            "text": "고창 화순 강화 고인돌은 유네스코가 지정한 대한민국의 세계문화유산이다.", 
            "morp": [
                {"id": 0, "lemma": "고창", "type": "NNP", "position": 0, "weight": 0.0725557}, 
                {"id": 1, "lemma": "화순", "type": "NNP", "position": 7, "weight": 0.0790404}, 
                {"id": 2, "lemma": "강화", "type": "NNP", "position": 14, "weight": 0.247859}, 
                {"id": 3, "lemma": "고인돌", "type": "NNG", "position": 21, "weight": 0.9}, 
                {"id": 4, "lemma": "은", "type": "JX", "position": 30, "weight": 0.0449928}, 
                {"id": 5, "lemma": "유네스코", "type": "NNP", "position": 34, "weight": 0.0317008}, 
                {"id": 6, "lemma": "가", "type": "JKS", "position": 46, "weight": 0.0431193}, 
                {"id": 7, "lemma": "지정", "type": "NNG", "position": 50, "weight": 0.9}, 
                {"id": 8, "lemma": "하", "type": "XSV", "position": 56, "weight": 0.0001}, 
                {"id": 9, "lemma": "ㄴ", "type": "ETM", "position": 56, "weight": 0.392321}, 
                {"id": 10, "lemma": "대한민국", "type": "NNP", "position": 60, "weight": 0.0280028}, 
                {"id": 11, "lemma": "의", "type": "JKG", "position": 72, "weight": 0.0987295}, 
                {"id": 12, "lemma": "세계", "type": "NNG", "position": 76, "weight": 0.9}, 
                {"id": 13, "lemma": "문화", "type": "NNG", "position": 82, "weight": 0.184467}, 
                {"id": 14, "lemma": "유산", "type": "NNG", "position": 88, "weight": 0.184496}, 
                {"id": 15, "lemma": "이", "type": "VCP", "position": 94, "weight": 0.0177525}, 
                {"id": 16, "lemma": "다", "type": "EF", "position": 97, "weight": 0.353579}, 
                {"id": 17, "lemma": ".", "type": "SF", "position": 100, "weight": 1}
            ], 
            "morp_eval": [], 
            "WSD": [
                {"id": 0, "text": "고창", "type": "NNP", "scode": "060000", "weight": 0.1, "position": 0, "begin": 0, "end": 0}, 
                {"id": 1, "text": "화순", "type": "NNP", "scode": "030000", "weight": 0.166667, "position": 7, "begin": 1, "end": 1}, 
                {"id": 2, "text": "강화", "type": "NNP", "scode": "010000", "weight": 0.125, "position": 14, "begin": 2, "end": 2}, 
                {"id": 3, "text": "고인돌", "type": "NNG", "scode": "000000", "weight": 1, "position": 21, "begin": 3, "end": 3}, 
                {"id": 4, "text": "은", "type": "JX", "scode": "000000", "weight": 1, "position": 30, "begin": 4, "end": 4}, 
                {"id": 5, "text": "유네스코", "type": "NNP", "scode": "000000", "weight": 1, "position": 34, "begin": 5, "end": 5}, 
                {"id": 6, "text": "가", "type": "JKS", "scode": "000000", "weight": 1, "position": 46, "begin": 6, "end": 6}, 
                {"id": 7, "text": "지정하", "type": "VV", "scode": "050002", "weight": 0.142857, "position": 50, "begin": 7, "end": 8}, 
                {"id": 8, "text": "ㄴ", "type": "ETM", "scode": "000000", "weight": 1, "position": 56, "begin": 9, "end": 9}, 
                {"id": 9, "text": "대한민국", "type": "NNP", "scode": "000000", "weight": 1, "position": 60, "begin": 10, "end": 10}, 
                {"id": 10, "text": "의", "type": "JKG", "scode": "000000", "weight": 1, "position": 72, "begin": 11, "end": 11}, 
                {"id": 11, "text": "세계", "type": "NNG", "scode": "020001", "weight": 0.166667, "position": 76, "begin": 12, "end": 12}, 
                {"id": 12, "text": "문화유산", "type": "NNG", "scode": "000000", "weight": 1, "position": 82, "begin": 13, "end": 14}, 
                {"id": 13, "text": "이", "type": "VCP", "scode": "030000", "weight": 0.0172414, "position": 94, "begin": 15, "end": 15}, 
                {"id": 14, "text": "다", "type": "EF", "scode": "000000", "weight": 1, "position": 97, "begin": 16, "end": 16}, 
                {"id": 15, "text": ".", "type": "SF", "scode": "000000", "weight": 1, "position": 100, "begin": 17, "end": 17}
            ], 
            "word": [
                {"id": 0, "text": "고창", "type": "", "begin": 0, "end": 0}, 
                {"id": 1, "text": "화순", "type": "", "begin": 1, "end": 1}, 
                {"id": 2, "text": "강화", "type": "", "begin": 2, "end": 2}, 
                {"id": 3, "text": "고인돌은", "type": "", "begin": 3, "end": 4}, 
                {"id": 4, "text": "유네스코가", "type": "", "begin": 5, "end": 6}, 
                {"id": 5, "text": "지정한", "type": "", "begin": 7, "end": 9}, 
                {"id": 6, "text": "대한민국의", "type": "", "begin": 10, "end": 11}, 
                {"id": 7, "text": "세계문화유산이다.", "type": "", "begin": 12, "end": 17}
            ], 
            "NE": [
                {"id": 0, "text": "고창", "type": "LCP_COUNTY", "begin": 0, "end": 0, "weight": 0.407877, "common_noun": 0}, 
                {"id": 1, "text": "화순", "type": "LCP_COUNTY", "begin": 1, "end": 1, "weight": 0.414751, "common_noun": 0}, 
                {"id": 2, "text": "강화", "type": "LCP_COUNTY", "begin": 2, "end": 2, "weight": 0.171383, "common_noun": 0}, 
                {"id": 3, "text": "고인돌", "type": "AF_CULTURAL_ASSET", "begin": 3, "end": 3, "weight": 0.171383, "common_noun": 0}, 
                {"id": 4, "text": "유네스코", "type": "OG_OTHERS", "begin": 5, "end": 5, "weight": 0.394886, "common_noun": 0}, 
                {"id": 5, "text": "대한민국", "type": "LCP_COUNTRY", "begin": 10, "end": 10, "weight": 0.275481, "common_noun": 0}
            ], 
            "chunk": [], 
            "dependency": [
                {"id": 0, "text": "고창", "head": 2, "label": "NP_CNJ", "mod": [], "weight": 0.579152}, 
                {"id": 1, "text": "화순", "head": 2, "label": "NP_CNJ", "mod": [], "weight": 0.4932}, 
                {"id": 2, "text": "강화", "head": 3, "label": "NP", "mod": [0, 1], "weight": 0.779477}, 
                {"id": 3, "text": "고인돌은", "head": 7, "label": "NP_SBJ", "mod": [2], "weight": 0.78414}, 
                {"id": 4, "text": "유네스코가", "head": 5, "label": "NP_SBJ", "mod": [], "weight": 0.89503}, 
                {"id": 5, "text": "지정한", "head": 7, "label": "VP_MOD", "mod": [4], "weight": 0.803013}, 
                {"id": 6, "text": "대한민국의", "head": 7, "label": "NP_MOD", "mod": [], "weight": 0.79515}, 
                {"id": 7, "text": "세계문화유산이다.", "head": -1, "label": "VNP", "mod": [3, 5, 6], "weight": 0.0855666}
            ], 
            "SRL": [
                {"verb": "지정", "sense": 1, "word_id": 5, "weight": 0.198954, "argument": [
                    {"type": "ARG0", "word_id": 4, "text": "유네스코가", "weight": 0.299438}, 
                    {"type": "ARG1", "word_id": 7, "text": "세계문화유산이다.", "weight": 1}
                ]}
            ], 
            "relation": [], 
            "SA": [], 
            "ZA": []
        }, 
        {
            "id": 1, 
            "reserve_str": "", 
            "text": "전라북도 고창군·전라남도 화순군·인천광역시 강화군 3개 지역에 나뉘어 위치해 있는 고인돌 군(群)이다.", 
            "morp": [
                {"id": 0, "lemma": "전라북도", "type": "NNP", "position": 101, "weight": 0.9}, 
                {"id": 1, "lemma": "고창군", "type": "NNP", "position": 114, "weight": 0.9}, 
                {"id": 2, "lemma": "·", "type": "SP", "position": 123, "weight": 1}, 
                {"id": 3, "lemma": "전라남도", "type": "NNP", "position": 125, "weight": 0.9}, 
                {"id": 4, "lemma": "화순", "type": "NNP", "position": 138, "weight": 0.0790404}, 
                {"id": 5, "lemma": "군", "type": "NNG", "position": 144, "weight": 0.16921}, 
                {"id": 6, "lemma": "·", "type": "SP", "position": 147, "weight": 1}, 
                {"id": 7, "lemma": "인천광역시", "type": "NNP", "position": 149, "weight": 0.9}, 
                {"id": 8, "lemma": "강화군", "type": "NNP", "position": 165, "weight": 0.9}, 
                {"id": 9, "lemma": "3", "type": "SN", "position": 175, "weight": 1}, 
                {"id": 10, "lemma": "개", "type": "NNB", "position": 176, "weight": 0.363274}, 
                {"id": 11, "lemma": "지역", "type": "NNG", "position": 180, "weight": 0.9}, 
                {"id": 12, "lemma": "에", "type": "JKB", "position": 186, "weight": 0.153364}, 
                {"id": 13, "lemma": "나뉘", "type": "VV", "position": 190, "weight": 0.9}, 
                {"id": 14, "lemma": "어", "type": "EC", "position": 196, "weight": 0.41831}, 
                {"id": 15, "lemma": "위치", "type": "NNG", "position": 200, "weight": 0.219232}, 
                {"id": 16, "lemma": "하", "type": "XSV", "position": 206, "weight": 0.0001}, 
                {"id": 17, "lemma": "아", "type": "EC", "position": 206, "weight": 0.361326}, 
                {"id": 18, "lemma": "있", "type": "VX", "position": 210, "weight": 0.125953}, 
                {"id": 19, "lemma": "는", "type": "ETM", "position": 213, "weight": 0.183966}, 
                {"id": 20, "lemma": "고인돌", "type": "NNG", "position": 217, "weight": 0.9}, 
                {"id": 21, "lemma": "군", "type": "NNG", "position": 227, "weight": 0.110913}, 
                {"id": 22, "lemma": "(", "type": "SS", "position": 230, "weight": 1}, 
                {"id": 23, "lemma": "群", "type": "SH", "position": 231, "weight": 1}, 
                {"id": 24, "lemma": ")", "type": "SS", "position": 234, "weight": 1}, 
                {"id": 25, "lemma": "이", "type": "VCP", "position": 235, "weight": 0.00747344}, 
                {"id": 26, "lemma": "다", "type": "EF", "position": 238, "weight": 0.353579}, 
                {"id": 27, "lemma": ".", "type": "SF", "position": 241, "weight": 1}
            ], 
            "morp_eval": [], 
            "WSD": [
                {"id": 0, "text": "전라북도", "type": "NNP", "scode": "000000", "weight": 1, "position": 101, "begin": 0, "end": 0}, 
                {"id": 1, "text": "고창군", "type": "NNP", "scode": "000000", "weight": 1, "position": 114, "begin": 1, "end": 1}, 
                {"id": 2, "text": "·", "type": "SP", "scode": "000000", "weight": 1, "position": 123, "begin": 2, "end": 2}, 
                {"id": 3, "text": "전라남도", "type": "NNP", "scode": "000000", "weight": 1, "position": 125, "begin": 3, "end": 3}, 
                {"id": 4, "text": "화순군", "type": "NNP", "scode": "000000", "weight": 1, "position": 138, "begin": 4, "end": 5}, 
                {"id": 5, "text": "·", "type": "SP", "scode": "000000", "weight": 1, "position": 147, "begin": 6, "end": 6}, 
                {"id": 6, "text": "인천광역시", "type": "NNP", "scode": "000000", "weight": 1, "position": 149, "begin": 7, "end": 7}, 
                {"id": 7, "text": "강화군", "type": "NNP", "scode": "000000", "weight": 1, "position": 165, "begin": 8, "end": 8}, 
                {"id": 8, "text": "3", "type": "SN", "scode": "000000", "weight": 1, "position": 175, "begin": 9, "end": 9}, 
                {"id": 9, "text": "개", "type": "NNB", "scode": "100001", "weight": 0.0454545, "position": 176, "begin": 10, "end": 10}, 
                {"id": 10, "text": "지역", "type": "NNG", "scode": "030001", "weight": 0.2, "position": 180, "begin": 11, "end": 11}, 
                {"id": 11, "text": "에", "type": "JKB", "scode": "000000", "weight": 1, "position": 186, "begin": 12, "end": 12}, 
                {"id": 12, "text": "나뉘", "type": "VV", "scode": "000102", "weight": 0.25, "position": 190, "begin": 13, "end": 13}, 
                {"id": 13, "text": "어", "type": "EC", "scode": "000000", "weight": 1, "position": 196, "begin": 14, "end": 14}, 
                {"id": 14, "text": "위치하", "type": "VV", "scode": "000000", "weight": 1, "position": 200, "begin": 15, "end": 16}, 
                {"id": 15, "text": "아", "type": "EC", "scode": "000000", "weight": 1, "position": 206, "begin": 17, "end": 17}, 
                {"id": 16, "text": "있", "type": "VX", "scode": "010901", "weight": 0.0416667, "position": 210, "begin": 18, "end": 18}, 
                {"id": 17, "text": "는", "type": "ETM", "scode": "000000", "weight": 1, "position": 213, "begin": 19, "end": 19}, 
                {"id": 18, "text": "고인돌", "type": "NNG", "scode": "000000", "weight": 1, "position": 217, "begin": 20, "end": 20}, 
                {"id": 19, "text": "군", "type": "NNG", "scode": "888888", "weight": 0.0434783, "position": 227, "begin": 21, "end": 21}, 
                {"id": 20, "text": "(", "type": "SS", "scode": "000000", "weight": 1, "position": 230, "begin": 22, "end": 22}, 
                {"id": 21, "text": "群", "type": "SH", "scode": "000000", "weight": 1, "position": 231, "begin": 23, "end": 23}, 
                {"id": 22, "text": ")", "type": "SS", "scode": "000000", "weight": 1, "position": 234, "begin": 24, "end": 24}, 
                {"id": 23, "text": "이", "type": "VCP", "scode": "030000", "weight": 0.0172414, "position": 235, "begin": 25, "end": 25}, 
                {"id": 24, "text": "다", "type": "EF", "scode": "000000", "weight": 1, "position": 238, "begin": 26, "end": 26}, 
                {"id": 25, "text": ".", "type": "SF", "scode": "000000", "weight": 1, "position": 241, "begin": 27, "end": 27}
            ], 
            "word": [
                {"id": 0, "text": "전라북도", "type": "", "begin": 0, "end": 0}, 
                {"id": 1, "text": "고창군·전라남도", "type": "", "begin": 1, "end": 3}, 
                {"id": 2, "text": "화순군·인천광역시", "type": "", "begin": 4, "end": 7}, 
                {"id": 3, "text": "강화군", "type": "", "begin": 8, "end": 8}, 
                {"id": 4, "text": "3개", "type": "", "begin": 9, "end": 10}, 
                {"id": 5, "text": "지역에", "type": "", "begin": 11, "end": 12}, 
                {"id": 6, "text": "나뉘어", "type": "", "begin": 13, "end": 14}, 
                {"id": 7, "text": "위치해", "type": "", "begin": 15, "end": 17}, 
                {"id": 8, "text": "있는", "type": "", "begin": 18, "end": 19}, 
                {"id": 9, "text": "고인돌", "type": "", "begin": 20, "end": 20}, 
                {"id": 10, "text": "군(群)이다.", "type": "", "begin": 21, "end": 27}
            ], 
            "NE": [
                {"id": 0, "text": "전라북도", "type": "LCP_PROVINCE", "begin": 0, "end": 0, "weight": 0.693685, "common_noun": 0}, 
                {"id": 1, "text": "고창군", "type": "LCP_COUNTY", "begin": 1, "end": 1, "weight": 0.599406, "common_noun": 0}, 
                {"id": 2, "text": "전라남도", "type": "LCP_PROVINCE", "begin": 3, "end": 3, "weight": 0.90485, "common_noun": 0}, 
                {"id": 3, "text": "화순군", "type": "LCP_COUNTY", "begin": 4, "end": 5, "weight": 0.63235, "common_noun": 0}, 
                {"id": 4, "text": "인천광역시", "type": "LCP_CITY", "begin": 7, "end": 7, "weight": 0.807807, "common_noun": 0}, 
                {"id": 5, "text": "강화군", "type": "LCP_COUNTY", "begin": 8, "end": 8, "weight": 0.566879, "common_noun": 0}, 
                {"id": 6, "text": "3개", "type": "QT_COUNT", "begin": 9, "end": 10, "weight": 0.660872, "common_noun": 0}, 
                {"id": 7, "text": "고인돌", "type": "AF_CULTURAL_ASSET", "begin": 20, "end": 20, "weight": 0.526875, "common_noun": 0}
            ], 
            "chunk": [], 
            "dependency": [
                {"id": 0, "text": "전라북도", "head": 1, "label": "NP", "mod": [], "weight": 0.634373}, 
                {"id": 1, "text": "고창군·전라남도", "head": 2, "label": "NP", "mod": [0], "weight": 0.758718}, 
                {"id": 2, "text": "화순군·인천광역시", "head": 3, "label": "NP", "mod": [1], "weight": 0.493952}, 
                {"id": 3, "text": "강화군", "head": 5, "label": "NP", "mod": [2], "weight": 0.730438}, 
                {"id": 4, "text": "3개", "head": 5, "label": "NP", "mod": [], "weight": 0.661299}, 
                {"id": 5, "text": "지역에", "head": 6, "label": "NP_AJT", "mod": [3, 4], "weight": 0.793217}, 
                {"id": 6, "text": "나뉘어", "head": 7, "label": "VP", "mod": [5], "weight": 0.718016}, 
                {"id": 7, "text": "위치해", "head": 8, "label": "VP", "mod": [6], "weight": 0.815205}, 
                {"id": 8, "text": "있는", "head": 10, "label": "VP_MOD", "mod": [7], "weight": 0.861277}, 
                {"id": 9, "text": "고인돌", "head": 10, "label": "NP", "mod": [], "weight": 0.753506}, 
                {"id": 10, "text": "군(群)이다.", "head": -1, "label": "VNP", "mod": [8, 9], "weight": 0.025777}
            ], 
            "SRL": [
                {"verb": "나누", "sense": 1, "word_id": 6, "weight": 0.155684, "argument": [
                    {"type": "ARG2", "word_id": 5, "text": "지역에", "weight": 0.155684}
                ]}, 
                {"verb": "위치", "sense": 1, "word_id": 7, "weight": 0.187642, "argument": [
                    {"type": "AUX", "word_id": 8, "text": "있는", "weight": 0.26894}, 
                    {"type": "ARG1", "word_id": 10, "text": "군(群)이다.", "weight": 0.106344}
                ]}
            ], 
            "relation": [], 
            "SA": [], 
            "ZA": []
        }
    ], 
    "entity": [
        {"id": 0, "type": "AF_CULTURAL_ASSET", "number": "singular", "gender": "", "person": "", "animacy": "thing", "mention": [
            {"id": 0, "sent_id": 0, "start_eid": 0, "end_eid": 3, "ne_id": 2, "text": "고창 화순 강화 고인돌은", "start_eid_short": 0, "end_eid_short": 3, "text_short": "고창 화순 강화 고인돌은"}, 
            {"id": 5, "sent_id": 0, "start_eid": 4, "end_eid": 7, "ne_id": -1, "text": "유네스코가 지정한 대한민국의 세계문화유산이다.", "start_eid_short": 7, "end_eid_short": 7, "text_short": "세계문화유산이다."}, 
            {"id": 9, "sent_id": 1, "start_eid": 0, "end_eid": 9, "ne_id": -1, "text": "전라북도 고창군·전라남도 화순군·인천광역시 강화군 3개 지역에 나뉘어 위치해 있는 고인돌", "start_eid_short": 9, "end_eid_short": 9, "text_short": "고인돌"}
        ]}, 
        {"id": 1, "type": "LCP_COUNTY", "number": "singular", "gender": "", "person": "", "animacy": "place", "mention": [
            {"id": 2, "sent_id": 0, "start_eid": 0, "end_eid": 0, "ne_id": 0, "text": "고창", "start_eid_short": 0, "end_eid_short": 0, "text_short": "고창"}
        ]}, 
        {"id": 2, "type": "LCP_COUNTY", "number": "singular", "gender": "", "person": "", "animacy": "place", "mention": [
            {"id": 3, "sent_id": 0, "start_eid": 1, "end_eid": 1, "ne_id": 1, "text": "화순", "start_eid_short": 1, "end_eid_short": 1, "text_short": "화순"}
        ]}, 
        {"id": 3, "type": "OG_OTHERS", "number": "singular", "gender": "", "person": "", "animacy": "thing", "mention": [
            {"id": 6, "sent_id": 0, "start_eid": 4, "end_eid": 4, "ne_id": 3, "text": "유네스코가", "start_eid_short": 4, "end_eid_short": 4, "text_short": "유네스코가"}
        ]}, 
        {"id": 4, "type": "LCP_COUNTRY", "number": "singular", "gender": "", "person": "", "animacy": "place", "mention": [
            {"id": 7, "sent_id": 0, "start_eid": 6, "end_eid": 6, "ne_id": 4, "text": "대한민국의", "start_eid_short": 6, "end_eid_short": 6, "text_short": "대한민국의"}
        ]}, 
        {"id": 5, "type": "LCP_PROVINCE", "number": "singular", "gender": "", "person": "", "animacy": "place", "mention": [
            {"id": 12, "sent_id": 1, "start_eid": 1, "end_eid": 1, "ne_id": 1, "text": "고창군·전라남도", "start_eid_short": 1, "end_eid_short": 1, "text_short": "고창군·전라남도"}
        ]}, 
        {"id": 6, "type": "LCP_PROVINCE", "number": "singular", "gender": "", "person": "", "animacy": "place", "mention": [
            {"id": 11, "sent_id": 1, "start_eid": 0, "end_eid": 0, "ne_id": 0, "text": "전라북도", "start_eid_short": 0, "end_eid_short": 0, "text_short": "전라북도"}
        ]}, 
        {"id": 7, "type": "LCP_CITY", "number": "singular", "gender": "", "person": "", "animacy": "place", "mention": [
            {"id": 13, "sent_id": 1, "start_eid": 2, "end_eid": 2, "ne_id": 3, "text": "화순군·인천광역시", "start_eid_short": 2, "end_eid_short": 2, "text_short": "화순군·인천광역시"}
        ]}, 
        {"id": 8, "type": "LCP_COUNTY", "number": "singular", "gender": "", "person": "", "animacy": "place", "mention": [
            {"id": 14, "sent_id": 1, "start_eid": 3, "end_eid": 3, "ne_id": 5, "text": "강화군", "start_eid_short": 3, "end_eid_short": 3, "text_short": "강화군"}
        ]}, 
        {"id": 9, "type": "QT_COUNT", "number": "singular", "gender": "", "person": "", "animacy": "thing", "mention": [
            {"id": 15, "sent_id": 1, "start_eid": 4, "end_eid": 4, "ne_id": 6, "text": "3개", "start_eid_short": 4, "end_eid_short": 4, "text_short": "3개"}
        ]}, 
        {"id": 10, "type": "", "number": "singular", "gender": "", "person": "", "animacy": "thing", "mention": [
            {"id": 4, "sent_id": 0, "start_eid": 2, "end_eid": 2, "ne_id": -1, "text": "강화", "start_eid_short": 2, "end_eid_short": 2, "text_short": "강화"}
        ]}, 
        {"id": 11, "type": "", "number": "singular", "gender": "", "person": "", "animacy": "thing", "mention": [
            {"id": 1, "sent_id": 0, "start_eid": 0, "end_eid": 2, "ne_id": -1, "text": "고창 화순 강화", "start_eid_short": 0, "end_eid_short": 2, "text_short": "고창 화순 강화"}, 
            {"id": 10, "sent_id": 1, "start_eid": 0, "end_eid": 5, "ne_id": -1, "text": "전라북도 고창군·전라남도 화순군·인천광역시 강화군 3개 지역에", "start_eid_short": 3, "end_eid_short": 5, "text_short": "강화군 3개 지역에"}
        ]}, 
        {"id": 12, "type": "", "number": "singular", "gender": "", "person": "", "animacy": "thing", "mention": [
            {"id": 8, "sent_id": 1, "start_eid": 0, "end_eid": 10, "ne_id": -1, "text": "전라북도 고창군·전라남도 화순군·인천광역시 강화군 3개 지역에 나뉘어 위치해 있는 고인돌 군(群)이다.", "start_eid_short": 10, "end_eid_short": 10, "text_short": "군(群)이다."}
        ]}
    ]
}