{
    "doc_id": "E2016.835.10_A_01.json", 
    "DCT": "", 
    "category": "", 
    "category_weight": 0, 
    "title": {
        "text": "잔 다르크", 
        "NE": ""
    }, 
    "metaInfo": {}, 
    "sentence": [
        {
            "id": 0, 
            "reserve_str": "", 
            "text": "<인명> 프랑스의 애국 소녀(1412~1431).", 
            "morp": [
                {"id": 0, "lemma": "<", "type": "SS", "position": 0, "weight": 1}, 
                {"id": 1, "lemma": "인명", "type": "NNG", "position": 1, "weight": 0.153379}, 
                {"id": 2, "lemma": ">", "type": "SS", "position": 7, "weight": 1}, 
                {"id": 3, "lemma": "프랑스", "type": "NNP", "position": 9, "weight": 0.0674443}, 
                {"id": 4, "lemma": "의", "type": "JKG", "position": 18, "weight": 0.0987295}, 
                {"id": 5, "lemma": "애국", "type": "NNG", "position": 22, "weight": 0.866706}, 
                {"id": 6, "lemma": "소녀", "type": "NNG", "position": 29, "weight": 0.18443}, 
                {"id": 7, "lemma": "(", "type": "SS", "position": 35, "weight": 1}, 
                {"id": 8, "lemma": "1412", "type": "SN", "position": 36, "weight": 1}, 
                {"id": 9, "lemma": "~", "type": "SO", "position": 40, "weight": 1}, 
                {"id": 10, "lemma": "1431", "type": "SN", "position": 41, "weight": 1}, 
                {"id": 11, "lemma": ")", "type": "SS", "position": 45, "weight": 1}, 
                {"id": 12, "lemma": ".", "type": "SF", "position": 46, "weight": 1}
            ], 
            "morp_eval": [], 
            "WSD": [
                {"id": 0, "text": "<", "type": "SS", "scode": "000000", "weight": 1, "position": 0, "begin": 0, "end": 0}, 
                {"id": 1, "text": "인명", "type": "NNG", "scode": "010000", "weight": 0.2, "position": 1, "begin": 1, "end": 1}, 
                {"id": 2, "text": ">", "type": "SS", "scode": "000000", "weight": 1, "position": 7, "begin": 2, "end": 2}, 
                {"id": 3, "text": "프랑스", "type": "NNP", "scode": "020000", "weight": 0.5, "position": 9, "begin": 3, "end": 3}, 
                {"id": 4, "text": "의", "type": "JKG", "scode": "000000", "weight": 1, "position": 18, "begin": 4, "end": 4}, 
                {"id": 5, "text": "애국", "type": "NNG", "scode": "020000", "weight": 0.5, "position": 22, "begin": 5, "end": 5}, 
                {"id": 6, "text": "소녀", "type": "NNG", "scode": "020000", "weight": 0.333333, "position": 29, "begin": 6, "end": 6}, 
                {"id": 7, "text": "(", "type": "SS", "scode": "000000", "weight": 1, "position": 35, "begin": 7, "end": 7}, 
                {"id": 8, "text": "1412", "type": "SN", "scode": "000000", "weight": 1, "position": 36, "begin": 8, "end": 8}, 
                {"id": 9, "text": "~", "type": "SO", "scode": "000000", "weight": 1, "position": 40, "begin": 9, "end": 9}, 
                {"id": 10, "text": "1431", "type": "SN", "scode": "000000", "weight": 1, "position": 41, "begin": 10, "end": 10}, 
                {"id": 11, "text": ")", "type": "SS", "scode": "000000", "weight": 1, "position": 45, "begin": 11, "end": 11}, 
                {"id": 12, "text": ".", "type": "SF", "scode": "000000", "weight": 1, "position": 46, "begin": 12, "end": 12}
            ], 
            "word": [
                {"id": 0, "text": "<인명>", "type": "", "begin": 0, "end": 2}, 
                {"id": 1, "text": "프랑스의", "type": "", "begin": 3, "end": 4}, 
                {"id": 2, "text": "애국", "type": "", "begin": 5, "end": 5}, 
                {"id": 3, "text": "소녀(1412~1431).", "type": "", "begin": 6, "end": 12}
            ], 
            "NE": [
                {"id": 0, "text": "프랑스", "type": "LCP_COUNTRY", "begin": 3, "end": 3, "weight": 0.875569, "common_noun": 0}, 
                {"id": 1, "text": "1412~1431", "type": "DT_DURATION", "begin": 8, "end": 10, "weight": 0.403152, "common_noun": 0}
            ], 
            "chunk": [], 
            "dependency": [
                {"id": 0, "text": "<인명>", "head": 3, "label": "NP", "mod": [], "weight": 0.809234}, 
                {"id": 1, "text": "프랑스의", "head": 3, "label": "NP_MOD", "mod": [], "weight": 0.0106591}, 
                {"id": 2, "text": "애국", "head": 3, "label": "NP", "mod": [], "weight": 0.773999}, 
                {"id": 3, "text": "소녀(1412~1431).", "head": -1, "label": "NP", "mod": [0, 2, 1], "weight": 0.00557717}
            ], 
            "SRL": [], 
            "relation": [], 
            "SA": [], 
            "ZA": []
        }, 
        {
            "id": 1, 
            "reserve_str": "", 
            "text": "백년전쟁 당시 16세의 나이로 출전하여 영국군 포위를 뚫고 진두에 서서 오를레앙 성을 탈환하였다.", 
            "morp": [
                {"id": 0, "lemma": "백", "type": "NR", "position": 47, "weight": 0.00409216}, 
                {"id": 1, "lemma": "년", "type": "NNB", "position": 50, "weight": 0.382181}, 
                {"id": 2, "lemma": "전쟁", "type": "NNG", "position": 53, "weight": 0.9}, 
                {"id": 3, "lemma": "당시", "type": "NNG", "position": 60, "weight": 0.9}, 
                {"id": 4, "lemma": "16", "type": "SN", "position": 67, "weight": 1}, 
                {"id": 5, "lemma": "세", "type": "NNB", "position": 69, "weight": 0.0850602}, 
                {"id": 6, "lemma": "의", "type": "JKG", "position": 72, "weight": 0.0520933}, 
                {"id": 7, "lemma": "나이", "type": "NNG", "position": 76, "weight": 0.9}, 
                {"id": 8, "lemma": "로", "type": "JKB", "position": 82, "weight": 0.153229}, 
                {"id": 9, "lemma": "출전", "type": "NNG", "position": 86, "weight": 0.9}, 
                {"id": 10, "lemma": "하", "type": "XSV", "position": 92, "weight": 0.0001}, 
                {"id": 11, "lemma": "아", "type": "EC", "position": 95, "weight": 0.361326}, 
                {"id": 12, "lemma": "영국", "type": "NNP", "position": 99, "weight": 0.9}, 
                {"id": 13, "lemma": "군", "type": "NNG", "position": 105, "weight": 0.16921}, 
                {"id": 14, "lemma": "포위", "type": "NNG", "position": 109, "weight": 0.9}, 
                {"id": 15, "lemma": "를", "type": "JKO", "position": 115, "weight": 0.137686}, 
                {"id": 16, "lemma": "뚫", "type": "VV", "position": 119, "weight": 0.9}, 
                {"id": 17, "lemma": "고", "type": "EC", "position": 122, "weight": 0.416679}, 
                {"id": 18, "lemma": "진두", "type": "NNG", "position": 126, "weight": 0.7}, 
                {"id": 19, "lemma": "에", "type": "JKB", "position": 132, "weight": 0.153364}, 
                {"id": 20, "lemma": "서", "type": "VV", "position": 136, "weight": 0.180204}, 
                {"id": 21, "lemma": "어서", "type": "EC", "position": 136, "weight": 0.421998}, 
                {"id": 22, "lemma": "오를레앙", "type": "NNP", "position": 143, "weight": 0.35}, 
                {"id": 23, "lemma": "성", "type": "NNG", "position": 156, "weight": 0.138601}, 
                {"id": 24, "lemma": "을", "type": "JKO", "position": 159, "weight": 0.129611}, 
                {"id": 25, "lemma": "탈환", "type": "NNG", "position": 163, "weight": 0.0982338}, 
                {"id": 26, "lemma": "하", "type": "XSV", "position": 169, "weight": 0.0001}, 
                {"id": 27, "lemma": "었", "type": "EP", "position": 172, "weight": 0.9}, 
                {"id": 28, "lemma": "다", "type": "EF", "position": 175, "weight": 0.640954}, 
                {"id": 29, "lemma": ".", "type": "SF", "position": 178, "weight": 1}
            ], 
            "morp_eval": [], 
            "WSD": [
                {"id": 0, "text": "백", "type": "NR", "scode": "050000", "weight": 0.0714286, "position": 47, "begin": 0, "end": 0}, 
                {"id": 1, "text": "년", "type": "NNB", "scode": "020000", "weight": 0.166667, "position": 50, "begin": 1, "end": 1}, 
                {"id": 2, "text": "전쟁", "type": "NNG", "scode": "000001", "weight": 0.5, "position": 53, "begin": 2, "end": 2}, 
                {"id": 3, "text": "당시", "type": "NNG", "scode": "020000", "weight": 0.25, "position": 60, "begin": 3, "end": 3}, 
                {"id": 4, "text": "16", "type": "SN", "scode": "000000", "weight": 1, "position": 67, "begin": 4, "end": 4}, 
                {"id": 5, "text": "세", "type": "NNB", "scode": "130000", "weight": 0.0526316, "position": 69, "begin": 5, "end": 5}, 
                {"id": 6, "text": "의", "type": "JKG", "scode": "000000", "weight": 1, "position": 72, "begin": 6, "end": 6}, 
                {"id": 7, "text": "나이", "type": "NNG", "scode": "010000", "weight": 0.333333, "position": 76, "begin": 7, "end": 7}, 
                {"id": 8, "text": "로", "type": "JKB", "scode": "000000", "weight": 1, "position": 82, "begin": 8, "end": 8}, 
                {"id": 9, "text": "출전하", "type": "VV", "scode": "000001", "weight": 0.5, "position": 86, "begin": 9, "end": 10}, 
                {"id": 10, "text": "아", "type": "EC", "scode": "000000", "weight": 1, "position": 95, "begin": 11, "end": 11}, 
                {"id": 11, "text": "영국", "type": "NNP", "scode": "010000", "weight": 0.5, "position": 99, "begin": 12, "end": 12}, 
                {"id": 12, "text": "군", "type": "NNG", "scode": "050001", "weight": 0.0434783, "position": 105, "begin": 13, "end": 13}, 
                {"id": 13, "text": "포위", "type": "NNG", "scode": "010000", "weight": 0.5, "position": 109, "begin": 14, "end": 14}, 
                {"id": 14, "text": "를", "type": "JKO", "scode": "000000", "weight": 1, "position": 115, "begin": 15, "end": 15}, 
                {"id": 15, "text": "뚫", "type": "VV", "scode": "000202", "weight": 0.142857, "position": 119, "begin": 16, "end": 16}, 
                {"id": 16, "text": "고", "type": "EC", "scode": "000000", "weight": 1, "position": 122, "begin": 17, "end": 17}, 
                {"id": 17, "text": "진두", "type": "NNG", "scode": "040001", "weight": 0.166667, "position": 126, "begin": 18, "end": 18}, 
                {"id": 18, "text": "에", "type": "JKB", "scode": "000000", "weight": 1, "position": 132, "begin": 19, "end": 19}, 
                {"id": 19, "text": "서", "type": "VV", "scode": "010101", "weight": 0.05, "position": 136, "begin": 20, "end": 20}, 
                {"id": 20, "text": "어서", "type": "EC", "scode": "000000", "weight": 1, "position": 136, "begin": 21, "end": 21}, 
                {"id": 21, "text": "오를레앙", "type": "NNP", "scode": "000000", "weight": 1, "position": 143, "begin": 22, "end": 22}, 
                {"id": 22, "text": "성", "type": "NNG", "scode": "080000", "weight": 0.0344828, "position": 156, "begin": 23, "end": 23}, 
                {"id": 23, "text": "을", "type": "JKO", "scode": "000000", "weight": 1, "position": 159, "begin": 24, "end": 24}, 
                {"id": 24, "text": "탈환하", "type": "VV", "scode": "000000", "weight": 1, "position": 163, "begin": 25, "end": 26}, 
                {"id": 25, "text": "었", "type": "EP", "scode": "000000", "weight": 1, "position": 172, "begin": 27, "end": 27}, 
                {"id": 26, "text": "다", "type": "EF", "scode": "000000", "weight": 1, "position": 175, "begin": 28, "end": 28}, 
                {"id": 27, "text": ".", "type": "SF", "scode": "000000", "weight": 1, "position": 178, "begin": 29, "end": 29}
            ], 
            "word": [
                {"id": 0, "text": "백년전쟁", "type": "", "begin": 0, "end": 2}, 
                {"id": 1, "text": "당시", "type": "", "begin": 3, "end": 3}, 
                {"id": 2, "text": "16세의", "type": "", "begin": 4, "end": 6}, 
                {"id": 3, "text": "나이로", "type": "", "begin": 7, "end": 8}, 
                {"id": 4, "text": "출전하여", "type": "", "begin": 9, "end": 11}, 
                {"id": 5, "text": "영국군", "type": "", "begin": 12, "end": 13}, 
                {"id": 6, "text": "포위를", "type": "", "begin": 14, "end": 15}, 
                {"id": 7, "text": "뚫고", "type": "", "begin": 16, "end": 17}, 
                {"id": 8, "text": "진두에", "type": "", "begin": 18, "end": 19}, 
                {"id": 9, "text": "서서", "type": "", "begin": 20, "end": 21}, 
                {"id": 10, "text": "오를레앙", "type": "", "begin": 22, "end": 22}, 
                {"id": 11, "text": "성을", "type": "", "begin": 23, "end": 24}, 
                {"id": 12, "text": "탈환하였다.", "type": "", "begin": 25, "end": 29}
            ], 
            "NE": [
                {"id": 0, "text": "백년전쟁", "type": "EV_WAR_REVOLUTION", "begin": 0, "end": 2, "weight": 0.864184, "common_noun": 0}, 
                {"id": 1, "text": "16세", "type": "QT_AGE", "begin": 4, "end": 5, "weight": 0.59533, "common_noun": 0}, 
                {"id": 2, "text": "영국군", "type": "OGG_MILITARY", "begin": 12, "end": 13, "weight": 0.485145, "common_noun": 0}, 
                {"id": 3, "text": "오를레앙 성", "type": "AF_BUILDING", "begin": 22, "end": 23, "weight": 0.147956, "common_noun": 0}
            ], 
            "chunk": [], 
            "dependency": [
                {"id": 0, "text": "백년전쟁", "head": 1, "label": "NP", "mod": [], "weight": 0.504419}, 
                {"id": 1, "text": "당시", "head": 4, "label": "NP_AJT", "mod": [0], "weight": 0.616509}, 
                {"id": 2, "text": "16세의", "head": 3, "label": "NP_MOD", "mod": [], "weight": 0.681768}, 
                {"id": 3, "text": "나이로", "head": 4, "label": "NP_AJT", "mod": [2], "weight": 0.813698}, 
                {"id": 4, "text": "출전하여", "head": 7, "label": "VP", "mod": [1, 3], "weight": 0.67878}, 
                {"id": 5, "text": "영국군", "head": 6, "label": "NP", "mod": [], "weight": 0.599551}, 
                {"id": 6, "text": "포위를", "head": 7, "label": "NP_OBJ", "mod": [5], "weight": 0.811916}, 
                {"id": 7, "text": "뚫고", "head": 9, "label": "VP", "mod": [4, 6], "weight": 0.852583}, 
                {"id": 8, "text": "진두에", "head": 9, "label": "NP_AJT", "mod": [], "weight": 0.79121}, 
                {"id": 9, "text": "서서", "head": 12, "label": "VP", "mod": [7, 8], "weight": 0.694081}, 
                {"id": 10, "text": "오를레앙", "head": 11, "label": "NP", "mod": [], "weight": 0.711813}, 
                {"id": 11, "text": "성을", "head": 12, "label": "NP_OBJ", "mod": [10], "weight": 0.867139}, 
                {"id": 12, "text": "탈환하였다.", "head": -1, "label": "VP", "mod": [9, 11], "weight": 0.0141556}
            ], 
            "SRL": [
                {"verb": "출전", "sense": 1, "word_id": 4, "weight": 0.126077, "argument": [
                    {"type": "ARGM-TMP", "word_id": 1, "text": "당시", "weight": 0.167938}, 
                    {"type": "ARGM-PRD", "word_id": 3, "text": "나이로", "weight": 1}
                ]}, 
                {"verb": "뚫", "sense": 1, "word_id": 7, "weight": 0.18157, "argument": [
                    {"type": "ARG1", "word_id": 6, "text": "포위를", "weight": 0.18157}
                ]}, 
                {"verb": "서", "sense": 1, "word_id": 9, "weight": 0.103751, "argument": [
                    {"type": "ARGM-MNR", "word_id": 7, "text": "뚫고", "weight": 0.106358}, 
                    {"type": "ARG1", "word_id": 8, "text": "진두에", "weight": 0.101144}
                ]}, 
                {"verb": "탈환", "sense": 1, "word_id": 12, "weight": 0.196475, "argument": [
                    {"type": "ARG1", "word_id": 11, "text": "성을", "weight": 0.196475}
                ]}
            ], 
            "relation": [], 
            "SA": [], 
            "ZA": []
        }
    ], 
    "entity": [
        {"id": 0, "type": "DT_DURATION", "number": "singular", "gender": "", "person": "", "animacy": "time", "mention": [
            {"id": 0, "sent_id": 0, "start_eid": 1, "end_eid": 3, "ne_id": 1, "text": "프랑스의 애국 소녀(1412~1431).", "start_eid_short": 3, "end_eid_short": 3, "text_short": "소녀(1412~1431)."}
        ]}, 
        {"id": 1, "type": "LCP_COUNTRY", "number": "singular", "gender": "", "person": "", "animacy": "place", "mention": [
            {"id": 1, "sent_id": 0, "start_eid": 1, "end_eid": 1, "ne_id": 0, "text": "프랑스의", "start_eid_short": 1, "end_eid_short": 1, "text_short": "프랑스의"}
        ]}, 
        {"id": 2, "type": "", "number": "singular", "gender": "", "person": "", "animacy": "thing", "mention": [
            {"id": 2, "sent_id": 1, "start_eid": 0, "end_eid": 1, "ne_id": -1, "text": "백년전쟁 당시", "start_eid_short": 0, "end_eid_short": 1, "text_short": "백년전쟁 당시"}
        ]}, 
        {"id": 3, "type": "EV_WAR_REVOLUTION", "number": "singular", "gender": "", "person": "", "animacy": "thing", "mention": [
            {"id": 3, "sent_id": 1, "start_eid": 0, "end_eid": 0, "ne_id": 0, "text": "백년전쟁", "start_eid_short": 0, "end_eid_short": 0, "text_short": "백년전쟁"}
        ]}, 
        {"id": 4, "type": "QT_AGE", "number": "singular", "gender": "", "person": "", "animacy": "thing", "mention": [
            {"id": 4, "sent_id": 1, "start_eid": 2, "end_eid": 3, "ne_id": -1, "text": "16세의 나이로", "start_eid_short": 3, "end_eid_short": 3, "text_short": "나이로"}, 
            {"id": 5, "sent_id": 1, "start_eid": 2, "end_eid": 2, "ne_id": 1, "text": "16세의", "start_eid_short": 2, "end_eid_short": 2, "text_short": "16세의"}
        ]}, 
        {"id": 5, "type": "", "number": "singular", "gender": "", "person": "", "animacy": "thing", "mention": [
            {"id": 6, "sent_id": 1, "start_eid": 5, "end_eid": 6, "ne_id": -1, "text": "영국군 포위를", "start_eid_short": 5, "end_eid_short": 6, "text_short": "영국군 포위를"}
        ]}, 
        {"id": 6, "type": "OGG_MILITARY", "number": "singular", "gender": "", "person": "", "animacy": "thing", "mention": [
            {"id": 7, "sent_id": 1, "start_eid": 5, "end_eid": 5, "ne_id": 2, "text": "영국군", "start_eid_short": 5, "end_eid_short": 5, "text_short": "영국군"}
        ]}, 
        {"id": 7, "type": "", "number": "singular", "gender": "", "person": "", "animacy": "thing", "mention": [
            {"id": 8, "sent_id": 1, "start_eid": 8, "end_eid": 8, "ne_id": -1, "text": "진두에", "start_eid_short": 8, "end_eid_short": 8, "text_short": "진두에"}
        ]}, 
        {"id": 8, "type": "", "number": "singular", "gender": "", "person": "", "animacy": "thing", "mention": [
            {"id": 9, "sent_id": 1, "start_eid": 10, "end_eid": 11, "ne_id": -1, "text": "오를레앙 성을", "start_eid_short": 10, "end_eid_short": 11, "text_short": "오를레앙 성을"}
        ]}, 
        {"id": 9, "type": "PS_NAME", "number": "singular", "gender": "", "person": "", "animacy": "human", "mention": [
            {"id": 10, "sent_id": 1, "start_eid": 10, "end_eid": 10, "ne_id": 3, "text": "오를레앙", "start_eid_short": 10, "end_eid_short": 10, "text_short": "오를레앙"}
        ]}
    ]
}