{
    "doc_id": "E2016.836.27_Q_01.json", 
    "DCT": "", 
    "category": "", 
    "category_weight": 0, 
    "title": {
        "text": "", 
        "NE": ""
    }, 
    "metaInfo": {}, 
    "sentence": [
        {
            "id": 0, 
            "reserve_str": "", 
            "text": "러시아 영토 가운데 유럽의 발트해 연안에 남겨진 해외 영토이다.", 
            "morp": [
                {"id": 0, "lemma": "러시아", "type": "NNP", "position": 0, "weight": 0.9}, 
                {"id": 1, "lemma": "영토", "type": "NNG", "position": 10, "weight": 0.9}, 
                {"id": 2, "lemma": "가운데", "type": "NNG", "position": 17, "weight": 0.9}, 
                {"id": 3, "lemma": "유럽", "type": "NNP", "position": 27, "weight": 0.9}, 
                {"id": 4, "lemma": "의", "type": "JKG", "position": 33, "weight": 0.0987295}, 
                {"id": 5, "lemma": "발트해", "type": "NNP", "position": 37, "weight": 0.65}, 
                {"id": 6, "lemma": "연안", "type": "NNG", "position": 47, "weight": 0.277434}, 
                {"id": 7, "lemma": "에", "type": "JKB", "position": 53, "weight": 0.153364}, 
                {"id": 8, "lemma": "남겨지", "type": "VV", "position": 57, "weight": 0.9}, 
                {"id": 9, "lemma": "ㄴ", "type": "ETM", "position": 63, "weight": 0.304215}, 
                {"id": 10, "lemma": "해외", "type": "NNG", "position": 67, "weight": 0.9}, 
                {"id": 11, "lemma": "영토", "type": "NNG", "position": 74, "weight": 0.9}, 
                {"id": 12, "lemma": "이", "type": "VCP", "position": 80, "weight": 0.0177525}, 
                {"id": 13, "lemma": "다", "type": "EF", "position": 83, "weight": 0.353579}, 
                {"id": 14, "lemma": ".", "type": "SF", "position": 86, "weight": 1}
            ], 
            "morp_eval": [], 
            "WSD": [
                {"id": 0, "text": "러시아", "type": "NNP", "scode": "000000", "weight": 1, "position": 0, "begin": 0, "end": 0}, 
                {"id": 1, "text": "영토", "type": "NNG", "scode": "030000", "weight": 0.333333, "position": 10, "begin": 1, "end": 1}, 
                {"id": 2, "text": "가운데", "type": "NNG", "scode": "000003", "weight": 0.2, "position": 17, "begin": 2, "end": 2}, 
                {"id": 3, "text": "유럽", "type": "NNP", "scode": "020000", "weight": 0.5, "position": 27, "begin": 3, "end": 3}, 
                {"id": 4, "text": "의", "type": "JKG", "scode": "000000", "weight": 1, "position": 33, "begin": 4, "end": 4}, 
                {"id": 5, "text": "발트해", "type": "NNP", "scode": "000000", "weight": 1, "position": 37, "begin": 5, "end": 5}, 
                {"id": 6, "text": "연안", "type": "NNG", "scode": "020001", "weight": 0.25, "position": 47, "begin": 6, "end": 6}, 
                {"id": 7, "text": "에", "type": "JKB", "scode": "000000", "weight": 1, "position": 53, "begin": 7, "end": 7}, 
                {"id": 8, "text": "남겨지", "type": "VV", "scode": "000202", "weight": 0.333333, "position": 57, "begin": 8, "end": 8}, 
                {"id": 9, "text": "ㄴ", "type": "ETM", "scode": "000000", "weight": 1, "position": 63, "begin": 9, "end": 9}, 
                {"id": 10, "text": "해외", "type": "NNG", "scode": "000002", "weight": 0.5, "position": 67, "begin": 10, "end": 10}, 
                {"id": 11, "text": "영토", "type": "NNG", "scode": "030000", "weight": 0.333333, "position": 74, "begin": 11, "end": 11}, 
                {"id": 12, "text": "이", "type": "VCP", "scode": "030000", "weight": 0.0172414, "position": 80, "begin": 12, "end": 12}, 
                {"id": 13, "text": "다", "type": "EF", "scode": "000000", "weight": 1, "position": 83, "begin": 13, "end": 13}, 
                {"id": 14, "text": ".", "type": "SF", "scode": "000000", "weight": 1, "position": 86, "begin": 14, "end": 14}
            ], 
            "word": [
                {"id": 0, "text": "러시아", "type": "", "begin": 0, "end": 0}, 
                {"id": 1, "text": "영토", "type": "", "begin": 1, "end": 1}, 
                {"id": 2, "text": "가운데", "type": "", "begin": 2, "end": 2}, 
                {"id": 3, "text": "유럽의", "type": "", "begin": 3, "end": 4}, 
                {"id": 4, "text": "발트해", "type": "", "begin": 5, "end": 5}, 
                {"id": 5, "text": "연안에", "type": "", "begin": 6, "end": 7}, 
                {"id": 6, "text": "남겨진", "type": "", "begin": 8, "end": 9}, 
                {"id": 7, "text": "해외", "type": "", "begin": 10, "end": 10}, 
                {"id": 8, "text": "영토이다.", "type": "", "begin": 11, "end": 14}
            ], 
            "NE": [
                {"id": 0, "text": "러시아", "type": "LCP_COUNTRY", "begin": 0, "end": 0, "weight": 0.699819, "common_noun": 0}, 
                {"id": 1, "text": "유럽", "type": "LCG_CONTINENT", "begin": 3, "end": 3, "weight": 0.718166, "common_noun": 0}, 
                {"id": 2, "text": "발트해", "type": "LCG_OCEAN", "begin": 5, "end": 5, "weight": 0.508791, "common_noun": 0}
            ], 
            "chunk": [], 
            "dependency": [
                {"id": 0, "text": "러시아", "head": 1, "label": "NP", "mod": [], "weight": 0.62056}, 
                {"id": 1, "text": "영토", "head": 2, "label": "NP", "mod": [0], "weight": 0.78673}, 
                {"id": 2, "text": "가운데", "head": 6, "label": "NP_AJT", "mod": [1], "weight": 0.485543}, 
                {"id": 3, "text": "유럽의", "head": 5, "label": "NP_MOD", "mod": [], "weight": 0.634358}, 
                {"id": 4, "text": "발트해", "head": 5, "label": "NP", "mod": [], "weight": 0.735049}, 
                {"id": 5, "text": "연안에", "head": 6, "label": "NP_AJT", "mod": [3, 4], "weight": 0.779548}, 
                {"id": 6, "text": "남겨진", "head": 8, "label": "VP_MOD", "mod": [2, 5], "weight": 0.804889}, 
                {"id": 7, "text": "해외", "head": 8, "label": "NP", "mod": [], "weight": 0.74195}, 
                {"id": 8, "text": "영토이다.", "head": -1, "label": "VNP", "mod": [6, 7], "weight": 0.0440463}
            ], 
            "SRL": [
                {"verb": "남겨지", "sense": 1, "word_id": 6, "weight": 0.100824, "argument": [
                    {"type": "ARG2", "word_id": 5, "text": "연안에", "weight": 0.100824}, 
                    {"type": "ARGM-CND", "word_id": 2, "text": "가운데", "weight": 1}, 
                    {"type": "ARG1", "word_id": 8, "text": "영토이다.", "weight": 1}
                ]}
            ], 
            "relation": [], 
            "SA": [], 
            "ZA": []
        }, 
        {
            "id": 1, 
            "reserve_str": "", 
            "text": "독일의 전신인 프로이센의 영토였으나, 1945년 이후 구소련령이 된 것을 계기로 구소련의 지도자 이름을 따서 현재의 이름으로 개명된 이곳은?", 
            "morp": [
                {"id": 0, "lemma": "독일", "type": "NNP", "position": 87, "weight": 0.9}, 
                {"id": 1, "lemma": "의", "type": "JKG", "position": 93, "weight": 0.0987295}, 
                {"id": 2, "lemma": "전신", "type": "NNG", "position": 97, "weight": 0.9}, 
                {"id": 3, "lemma": "이", "type": "VCP", "position": 103, "weight": 0.0177525}, 
                {"id": 4, "lemma": "ㄴ", "type": "ETM", "position": 103, "weight": 0.220712}, 
                {"id": 5, "lemma": "프로이센", "type": "NNP", "position": 107, "weight": 0.604316}, 
                {"id": 6, "lemma": "의", "type": "JKG", "position": 119, "weight": 0.0694213}, 
                {"id": 7, "lemma": "영토", "type": "NNG", "position": 123, "weight": 0.9}, 
                {"id": 8, "lemma": "이", "type": "VCP", "position": 129, "weight": 0.0177525}, 
                {"id": 9, "lemma": "었", "type": "EP", "position": 129, "weight": 0.9}, 
                {"id": 10, "lemma": "으나", "type": "EC", "position": 132, "weight": 0.197698}, 
                {"id": 11, "lemma": ",", "type": "SP", "position": 138, "weight": 1}, 
                {"id": 12, "lemma": "1945", "type": "SN", "position": 140, "weight": 1}, 
                {"id": 13, "lemma": "년", "type": "NNB", "position": 144, "weight": 0.414343}, 
                {"id": 14, "lemma": "이후", "type": "NNG", "position": 148, "weight": 0.110601}, 
                {"id": 15, "lemma": "구", "type": "XPN", "position": 155, "weight": 0.0001}, 
                {"id": 16, "lemma": "소련", "type": "NNP", "position": 158, "weight": 0.00018614}, 
                {"id": 17, "lemma": "령", "type": "XSN", "position": 164, "weight": 0.0331308}, 
                {"id": 18, "lemma": "이", "type": "JKC", "position": 167, "weight": 0.0001}, 
                {"id": 19, "lemma": "되", "type": "VV", "position": 171, "weight": 0.542406}, 
                {"id": 20, "lemma": "ㄴ", "type": "ETM", "position": 171, "weight": 0.304215}, 
                {"id": 21, "lemma": "것", "type": "NNB", "position": 175, "weight": 0.228788}, 
                {"id": 22, "lemma": "을", "type": "JKO", "position": 178, "weight": 0.0630104}, 
                {"id": 23, "lemma": "계기", "type": "NNG", "position": 182, "weight": 0.101355}, 
                {"id": 24, "lemma": "로", "type": "JKB", "position": 188, "weight": 0.153229}, 
                {"id": 25, "lemma": "구소련", "type": "NNP", "position": 192, "weight": 0.9}, 
                {"id": 26, "lemma": "의", "type": "JKG", "position": 201, "weight": 0.0987295}, 
                {"id": 27, "lemma": "지도", "type": "NNG", "position": 205, "weight": 0.869829}, 
                {"id": 28, "lemma": "자", "type": "XSN", "position": 211, "weight": 0.00398741}, 
                {"id": 29, "lemma": "이름", "type": "NNG", "position": 215, "weight": 0.9}, 
                {"id": 30, "lemma": "을", "type": "JKO", "position": 221, "weight": 0.129611}, 
                {"id": 31, "lemma": "따", "type": "VV", "position": 225, "weight": 0.769544}, 
                {"id": 32, "lemma": "아서", "type": "EC", "position": 225, "weight": 0.428178}, 
                {"id": 33, "lemma": "현재", "type": "NNG", "position": 232, "weight": 0.0882271}, 
                {"id": 34, "lemma": "의", "type": "JKG", "position": 238, "weight": 0.0694213}, 
                {"id": 35, "lemma": "이름", "type": "NNG", "position": 242, "weight": 0.9}, 
                {"id": 36, "lemma": "으로", "type": "JKB", "position": 248, "weight": 0.153406}, 
                {"id": 37, "lemma": "개명", "type": "NNG", "position": 255, "weight": 0.9}, 
                {"id": 38, "lemma": "되", "type": "XSV", "position": 261, "weight": 0.000224177}, 
                {"id": 39, "lemma": "ㄴ", "type": "ETM", "position": 261, "weight": 0.392321}, 
                {"id": 40, "lemma": "이곳", "type": "NP", "position": 265, "weight": 0.9}, 
                {"id": 41, "lemma": "은", "type": "JX", "position": 271, "weight": 0.191811}, 
                {"id": 42, "lemma": "?", "type": "SF", "position": 274, "weight": 1}
            ], 
            "morp_eval": [], 
            "WSD": [
                {"id": 0, "text": "독일", "type": "NNP", "scode": "000000", "weight": 1, "position": 87, "begin": 0, "end": 0}, 
                {"id": 1, "text": "의", "type": "JKG", "scode": "000000", "weight": 1, "position": 93, "begin": 1, "end": 1}, 
                {"id": 2, "text": "전신", "type": "NNG", "scode": "030001", "weight": 0.0666667, "position": 97, "begin": 2, "end": 2}, 
                {"id": 3, "text": "이", "type": "VCP", "scode": "030000", "weight": 0.0172414, "position": 103, "begin": 3, "end": 3}, 
                {"id": 4, "text": "ㄴ", "type": "ETM", "scode": "000000", "weight": 1, "position": 103, "begin": 4, "end": 4}, 
                {"id": 5, "text": "프로이센", "type": "NNP", "scode": "000000", "weight": 1, "position": 107, "begin": 5, "end": 5}, 
                {"id": 6, "text": "의", "type": "JKG", "scode": "000000", "weight": 1, "position": 119, "begin": 6, "end": 6}, 
                {"id": 7, "text": "영토", "type": "NNG", "scode": "030000", "weight": 0.333333, "position": 123, "begin": 7, "end": 7}, 
                {"id": 8, "text": "이", "type": "VCP", "scode": "030000", "weight": 0.0172414, "position": 129, "begin": 8, "end": 8}, 
                {"id": 9, "text": "었", "type": "EP", "scode": "000000", "weight": 1, "position": 129, "begin": 9, "end": 9}, 
                {"id": 10, "text": "으나", "type": "EC", "scode": "000000", "weight": 1, "position": 132, "begin": 10, "end": 10}, 
                {"id": 11, "text": ",", "type": "SP", "scode": "000000", "weight": 1, "position": 138, "begin": 11, "end": 11}, 
                {"id": 12, "text": "1945", "type": "SN", "scode": "000000", "weight": 1, "position": 140, "begin": 12, "end": 12}, 
                {"id": 13, "text": "년", "type": "NNB", "scode": "020000", "weight": 0.166667, "position": 144, "begin": 13, "end": 13}, 
                {"id": 14, "text": "이후", "type": "NNG", "scode": "020002", "weight": 0.166667, "position": 148, "begin": 14, "end": 14}, 
                {"id": 15, "text": "구소련", "type": "NNP", "scode": "000000", "weight": 1, "position": 155, "begin": 15, "end": 16}, 
                {"id": 16, "text": "령", "type": "XSN", "scode": "080000", "weight": 0.0909091, "position": 164, "begin": 17, "end": 17}, 
                {"id": 17, "text": "이", "type": "JKC", "scode": "000000", "weight": 1, "position": 167, "begin": 18, "end": 18}, 
                {"id": 18, "text": "되", "type": "VV", "scode": "010102", "weight": 0.03125, "position": 171, "begin": 19, "end": 19}, 
                {"id": 19, "text": "ㄴ", "type": "ETM", "scode": "000000", "weight": 1, "position": 171, "begin": 20, "end": 20}, 
                {"id": 20, "text": "것", "type": "NNB", "scode": "010001", "weight": 0.125, "position": 175, "begin": 21, "end": 21}, 
                {"id": 21, "text": "을", "type": "JKO", "scode": "000000", "weight": 1, "position": 178, "begin": 22, "end": 22}, 
                {"id": 22, "text": "계기", "type": "NNG", "scode": "040001", "weight": 0.125, "position": 182, "begin": 23, "end": 23}, 
                {"id": 23, "text": "로", "type": "JKB", "scode": "000000", "weight": 1, "position": 188, "begin": 24, "end": 24}, 
                {"id": 24, "text": "구소련", "type": "NNP", "scode": "000000", "weight": 1, "position": 192, "begin": 25, "end": 25}, 
                {"id": 25, "text": "의", "type": "JKG", "scode": "000000", "weight": 1, "position": 201, "begin": 26, "end": 26}, 
                {"id": 26, "text": "지도자", "type": "NNG", "scode": "000000", "weight": 1, "position": 205, "begin": 27, "end": 28}, 
                {"id": 27, "text": "이름", "type": "NNG", "scode": "000001", "weight": 0.111111, "position": 215, "begin": 29, "end": 29}, 
                {"id": 28, "text": "을", "type": "JKO", "scode": "000000", "weight": 1, "position": 221, "begin": 30, "end": 30}, 
                {"id": 29, "text": "따", "type": "VV", "scode": "010304", "weight": 0.0555556, "position": 225, "begin": 31, "end": 31}, 
                {"id": 30, "text": "아서", "type": "EC", "scode": "000000", "weight": 1, "position": 225, "begin": 32, "end": 32}, 
                {"id": 31, "text": "현재", "type": "NNG", "scode": "020001", "weight": 0.0909091, "position": 232, "begin": 33, "end": 33}, 
                {"id": 32, "text": "의", "type": "JKG", "scode": "000000", "weight": 1, "position": 238, "begin": 34, "end": 34}, 
                {"id": 33, "text": "이름", "type": "NNG", "scode": "000001", "weight": 0.111111, "position": 242, "begin": 35, "end": 35}, 
                {"id": 34, "text": "으로", "type": "JKB", "scode": "000000", "weight": 1, "position": 248, "begin": 36, "end": 36}, 
                {"id": 35, "text": "개명", "type": "NNG", "scode": "020000", "weight": 0.2, "position": 255, "begin": 37, "end": 37}, 
                {"id": 36, "text": "되", "type": "XSV", "scode": "050001", "weight": 0.0714286, "position": 261, "begin": 38, "end": 38}, 
                {"id": 37, "text": "ㄴ", "type": "ETM", "scode": "000000", "weight": 1, "position": 261, "begin": 39, "end": 39}, 
                {"id": 38, "text": "이곳", "type": "NP", "scode": "000002", "weight": 0.5, "position": 265, "begin": 40, "end": 40}, 
                {"id": 39, "text": "은", "type": "JX", "scode": "000000", "weight": 1, "position": 271, "begin": 41, "end": 41}, 
                {"id": 40, "text": "?", "type": "SF", "scode": "000000", "weight": 1, "position": 274, "begin": 42, "end": 42}
            ], 
            "word": [
                {"id": 0, "text": "독일의", "type": "", "begin": 0, "end": 1}, 
                {"id": 1, "text": "전신인", "type": "", "begin": 2, "end": 4}, 
                {"id": 2, "text": "프로이센의", "type": "", "begin": 5, "end": 6}, 
                {"id": 3, "text": "영토였으나,", "type": "", "begin": 7, "end": 11}, 
                {"id": 4, "text": "1945년", "type": "", "begin": 12, "end": 13}, 
                {"id": 5, "text": "이후", "type": "", "begin": 14, "end": 14}, 
                {"id": 6, "text": "구소련령이", "type": "", "begin": 15, "end": 18}, 
                {"id": 7, "text": "된", "type": "", "begin": 19, "end": 20}, 
                {"id": 8, "text": "것을", "type": "", "begin": 21, "end": 22}, 
                {"id": 9, "text": "계기로", "type": "", "begin": 23, "end": 24}, 
                {"id": 10, "text": "구소련의", "type": "", "begin": 25, "end": 26}, 
                {"id": 11, "text": "지도자", "type": "", "begin": 27, "end": 28}, 
                {"id": 12, "text": "이름을", "type": "", "begin": 29, "end": 30}, 
                {"id": 13, "text": "따서", "type": "", "begin": 31, "end": 32}, 
                {"id": 14, "text": "현재의", "type": "", "begin": 33, "end": 34}, 
                {"id": 15, "text": "이름으로", "type": "", "begin": 35, "end": 36}, 
                {"id": 16, "text": "개명된", "type": "", "begin": 37, "end": 39}, 
                {"id": 17, "text": "이곳은?", "type": "", "begin": 40, "end": 42}
            ], 
            "NE": [
                {"id": 0, "text": "독일", "type": "LCP_COUNTRY", "begin": 0, "end": 0, "weight": 0.757174, "common_noun": 0}, 
                {"id": 1, "text": "프로이센", "type": "LCP_COUNTRY", "begin": 5, "end": 5, "weight": 0.512754, "common_noun": 0}, 
                {"id": 2, "text": "1945년", "type": "DT_YEAR", "begin": 12, "end": 13, "weight": 0.715258, "common_noun": 0}, 
                {"id": 3, "text": "소련", "type": "LCP_COUNTRY", "begin": 16, "end": 16, "weight": 0.244849, "common_noun": 0}, 
                {"id": 4, "text": "구소련", "type": "LCP_COUNTRY", "begin": 25, "end": 25, "weight": 0.473847, "common_noun": 0}, 
                {"id": 5, "text": "지도자", "type": "CV_POSITION", "begin": 27, "end": 28, "weight": 0.713612, "common_noun": 0}
            ], 
            "chunk": [], 
            "dependency": [
                {"id": 0, "text": "독일의", "head": 1, "label": "NP_MOD", "mod": [], "weight": 0.702143}, 
                {"id": 1, "text": "전신인", "head": 2, "label": "VNP_MOD", "mod": [0], "weight": 0.402632}, 
                {"id": 2, "text": "프로이센의", "head": 3, "label": "NP_MOD", "mod": [1], "weight": 0.771972}, 
                {"id": 3, "text": "영토였으나,", "head": 7, "label": "VNP", "mod": [2], "weight": 0.248405}, 
                {"id": 4, "text": "1945년", "head": 5, "label": "NP", "mod": [], "weight": 0.622696}, 
                {"id": 5, "text": "이후", "head": 7, "label": "NP_AJT", "mod": [4], "weight": 0.378901}, 
                {"id": 6, "text": "구소련령이", "head": 7, "label": "NP_CMP", "mod": [], "weight": 0.855111}, 
                {"id": 7, "text": "된", "head": 8, "label": "VP_MOD", "mod": [5, 6, 3], "weight": 0.771128}, 
                {"id": 8, "text": "것을", "head": 9, "label": "NP_OBJ", "mod": [7], "weight": 0.494286}, 
                {"id": 9, "text": "계기로", "head": 13, "label": "NP_AJT", "mod": [8], "weight": 0.448906}, 
                {"id": 10, "text": "구소련의", "head": 11, "label": "NP_MOD", "mod": [], "weight": 0.202109}, 
                {"id": 11, "text": "지도자", "head": 12, "label": "NP", "mod": [10], "weight": 0.585448}, 
                {"id": 12, "text": "이름을", "head": 13, "label": "NP_OBJ", "mod": [11], "weight": 0.869394}, 
                {"id": 13, "text": "따서", "head": 16, "label": "VP", "mod": [9, 12], "weight": 0.795821}, 
                {"id": 14, "text": "현재의", "head": 15, "label": "NP_MOD", "mod": [], "weight": 0.769158}, 
                {"id": 15, "text": "이름으로", "head": 16, "label": "NP_AJT", "mod": [14], "weight": 0.848205}, 
                {"id": 16, "text": "개명된", "head": 17, "label": "VP_MOD", "mod": [13, 15], "weight": 0.81287}, 
                {"id": 17, "text": "이곳은?", "head": -1, "label": "NP_SBJ", "mod": [16], "weight": 3.18297e-05}
            ], 
            "SRL": [
                {"verb": "되", "sense": 1, "word_id": 7, "weight": 0.212395, "argument": [
                    {"type": "ARGM-TMP", "word_id": 5, "text": "이후", "weight": 0.148194}, 
                    {"type": "ARG2", "word_id": 6, "text": "구소련령이", "weight": 0.276597}
                ]}, 
                {"verb": "따", "sense": 2, "word_id": 13, "weight": 0.150911, "argument": [
                    {"type": "ARGM-CAU", "word_id": 9, "text": "계기로", "weight": 0.09629}, 
                    {"type": "ARG1", "word_id": 12, "text": "이름을", "weight": 0.205531}
                ]}, 
                {"verb": "개명", "sense": 1, "word_id": 16, "weight": 0.118965, "argument": [
                    {"type": "ARG3", "word_id": 15, "text": "이름으로", "weight": 1}, 
                    {"type": "ARG1", "word_id": 17, "text": "이곳은?", "weight": 1}, 
                    {"type": "ARGM-MNR", "word_id": 13, "text": "따서", "weight": 1}, 
                    {"type": "ARGM-TMP", "word_id": 14, "text": "현재의", "weight": 1}
                ]}
            ], 
            "relation": [], 
            "SA": [], 
            "ZA": []
        }
    ], 
    "entity": [
        {"id": 0, "type": "", "number": "singular", "gender": "", "person": "", "animacy": "thing", "mention": [
            {"id": 2, "sent_id": 0, "start_eid": 0, "end_eid": 1, "ne_id": -1, "text": "러시아 영토", "start_eid_short": 0, "end_eid_short": 1, "text_short": "러시아 영토"}
        ]}, 
        {"id": 1, "type": "", "number": "singular", "gender": "", "person": "", "animacy": "thing", "mention": [
            {"id": 0, "sent_id": 0, "start_eid": 0, "end_eid": 8, "ne_id": -1, "text": "러시아 영토 가운데 유럽의 발트해 연안에 남겨진 해외 영토이다.", "start_eid_short": 8, "end_eid_short": 8, "text_short": "영토이다."}, 
            {"id": 16, "sent_id": 1, "start_eid": 10, "end_eid": 15, "ne_id": -1, "text": "구소련의 지도자 이름을 따서 현재의 이름으로", "start_eid_short": 15, "end_eid_short": 15, "text_short": "이름으로"}, 
            {"id": 21, "sent_id": 1, "start_eid": 17, "end_eid": 17, "ne_id": -1, "text": "이곳은?", "start_eid_short": 17, "end_eid_short": 17, "text_short": "이곳은?"}
        ]}, 
        {"id": 2, "type": "", "number": "singular", "gender": "", "person": "", "animacy": "thing", "mention": [
            {"id": 1, "sent_id": 0, "start_eid": 0, "end_eid": 2, "ne_id": -1, "text": "러시아 영토 가운데", "start_eid_short": 0, "end_eid_short": 2, "text_short": "러시아 영토 가운데"}
        ]}, 
        {"id": 3, "type": "", "number": "singular", "gender": "", "person": "", "animacy": "thing", "mention": [
            {"id": 4, "sent_id": 0, "start_eid": 3, "end_eid": 5, "ne_id": -1, "text": "유럽의 발트해 연안에", "start_eid_short": 4, "end_eid_short": 5, "text_short": "발트해 연안에"}
        ]}, 
        {"id": 4, "type": "LCG_CONTINENT", "number": "singular", "gender": "", "person": "", "animacy": "place", "mention": [
            {"id": 5, "sent_id": 0, "start_eid": 3, "end_eid": 3, "ne_id": 1, "text": "유럽의", "start_eid_short": 3, "end_eid_short": 3, "text_short": "유럽의"}
        ]}, 
        {"id": 5, "type": "LCG_OCEAN", "number": "singular", "gender": "", "person": "", "animacy": "place", "mention": [
            {"id": 6, "sent_id": 0, "start_eid": 4, "end_eid": 4, "ne_id": 2, "text": "발트해", "start_eid_short": 4, "end_eid_short": 4, "text_short": "발트해"}
        ]}, 
        {"id": 6, "type": "", "number": "singular", "gender": "", "person": "", "animacy": "thing", "mention": [
            {"id": 7, "sent_id": 0, "start_eid": 7, "end_eid": 7, "ne_id": -1, "text": "해외", "start_eid_short": 7, "end_eid_short": 7, "text_short": "해외"}
        ]}, 
        {"id": 7, "type": "LCP_COUNTRY", "number": "singular", "gender": "", "person": "", "animacy": "place", "mention": [
            {"id": 8, "sent_id": 1, "start_eid": 0, "end_eid": 2, "ne_id": 1, "text": "독일의 전신인 프로이센의", "start_eid_short": 2, "end_eid_short": 2, "text_short": "프로이센의"}, 
            {"id": 9, "sent_id": 1, "start_eid": 0, "end_eid": 1, "ne_id": -1, "text": "독일의 전신인", "start_eid_short": 1, "end_eid_short": 1, "text_short": "전신인"}
        ]}, 
        {"id": 8, "type": "LCP_COUNTRY", "number": "singular", "gender": "", "person": "", "animacy": "place", "mention": [
            {"id": 10, "sent_id": 1, "start_eid": 0, "end_eid": 0, "ne_id": 0, "text": "독일의", "start_eid_short": 0, "end_eid_short": 0, "text_short": "독일의"}
        ]}, 
        {"id": 9, "type": "", "number": "singular", "gender": "", "person": "", "animacy": "thing", "mention": [
            {"id": 13, "sent_id": 1, "start_eid": 4, "end_eid": 5, "ne_id": -1, "text": "1945년 이후", "start_eid_short": 4, "end_eid_short": 5, "text_short": "1945년 이후"}
        ]}, 
        {"id": 10, "type": "DT_YEAR", "number": "singular", "gender": "", "person": "", "animacy": "time", "mention": [
            {"id": 14, "sent_id": 1, "start_eid": 4, "end_eid": 4, "ne_id": 2, "text": "1945년", "start_eid_short": 4, "end_eid_short": 4, "text_short": "1945년"}
        ]}, 
        {"id": 11, "type": "LCP_COUNTRY", "number": "singular", "gender": "", "person": "", "animacy": "place", "mention": [
            {"id": 15, "sent_id": 1, "start_eid": 6, "end_eid": 6, "ne_id": 3, "text": "구소련령이", "start_eid_short": 6, "end_eid_short": 6, "text_short": "구소련령이"}
        ]}, 
        {"id": 12, "type": "", "number": "singular", "gender": "", "person": "", "animacy": "thing", "mention": [
            {"id": 11, "sent_id": 1, "start_eid": 4, "end_eid": 9, "ne_id": -1, "text": "1945년 이후 구소련령이 된 것을 계기로", "start_eid_short": 9, "end_eid_short": 9, "text_short": "계기로"}
        ]}, 
        {"id": 13, "type": "CV_POSITION", "number": "singular", "gender": "", "person": "", "animacy": "human", "mention": [
            {"id": 18, "sent_id": 1, "start_eid": 10, "end_eid": 11, "ne_id": 5, "text": "구소련의 지도자", "start_eid_short": 11, "end_eid_short": 11, "text_short": "지도자"}
        ]}, 
        {"id": 14, "type": "LCP_COUNTRY", "number": "singular", "gender": "", "person": "", "animacy": "place", "mention": [
            {"id": 19, "sent_id": 1, "start_eid": 10, "end_eid": 10, "ne_id": 4, "text": "구소련의", "start_eid_short": 10, "end_eid_short": 10, "text_short": "구소련의"}
        ]}, 
        {"id": 15, "type": "", "number": "singular", "gender": "", "person": "", "animacy": "thing", "mention": [
            {"id": 17, "sent_id": 1, "start_eid": 10, "end_eid": 12, "ne_id": -1, "text": "구소련의 지도자 이름을", "start_eid_short": 11, "end_eid_short": 12, "text_short": "지도자 이름을"}
        ]}, 
        {"id": 16, "type": "", "number": "singular", "gender": "", "person": "", "animacy": "thing", "mention": [
            {"id": 20, "sent_id": 1, "start_eid": 14, "end_eid": 14, "ne_id": -1, "text": "현재의", "start_eid_short": 14, "end_eid_short": 14, "text_short": "현재의"}
        ]}, 
        {"id": 17, "type": "LCP_COUNTRY", "number": "singular", "gender": "", "person": "", "animacy": "place", "mention": [
            {"id": 3, "sent_id": 0, "start_eid": 0, "end_eid": 0, "ne_id": 0, "text": "러시아", "start_eid_short": 0, "end_eid_short": 0, "text_short": "러시아"}
        ]}, 
        {"id": 18, "type": "", "number": "singular", "gender": "", "person": "", "animacy": "thing", "mention": [
            {"id": 12, "sent_id": 1, "start_eid": 4, "end_eid": 8, "ne_id": -1, "text": "1945년 이후 구소련령이 된 것을", "start_eid_short": 8, "end_eid_short": 8, "text_short": "것을"}
        ]}
    ]
}