{
    "doc_id": "E2016.789.12_A_02.json", 
    "DCT": "", 
    "category": "", 
    "category_weight": 0, 
    "title": {
        "text": "홈페이지구축계약서", 
        "NE": ""
    }, 
    "metaInfo": {}, 
    "sentence": [
        {
            "id": 0, 
            "reserve_str": "", 
            "text": "홈페이지는 개인이나 단체가 월드 와이드 웹에서 볼 수 있게 만든 하이퍼텍스트이다.", 
            "morp": [
                {"id": 0, "lemma": "홈페이지", "type": "NNG", "position": 0, "weight": 0.437347}, 
                {"id": 1, "lemma": "는", "type": "JX", "position": 12, "weight": 0.0287565}, 
                {"id": 2, "lemma": "개인", "type": "NNG", "position": 16, "weight": 0.9}, 
                {"id": 3, "lemma": "이나", "type": "JC", "position": 22, "weight": 0.0238189}, 
                {"id": 4, "lemma": "단체", "type": "NNG", "position": 29, "weight": 0.802941}, 
                {"id": 5, "lemma": "가", "type": "JKS", "position": 35, "weight": 0.066324}, 
                {"id": 6, "lemma": "월드", "type": "NNG", "position": 39, "weight": 0.9}, 
                {"id": 7, "lemma": "와이드", "type": "NNG", "position": 46, "weight": 0.9}, 
                {"id": 8, "lemma": "웹", "type": "NNG", "position": 56, "weight": 0.180309}, 
                {"id": 9, "lemma": "에서", "type": "JKB", "position": 59, "weight": 0.153407}, 
                {"id": 10, "lemma": "보", "type": "VV", "position": 66, "weight": 0.271756}, 
                {"id": 11, "lemma": "ㄹ", "type": "ETM", "position": 66, "weight": 0.300746}, 
                {"id": 12, "lemma": "수", "type": "NNB", "position": 70, "weight": 0.215617}, 
                {"id": 13, "lemma": "있", "type": "VA", "position": 74, "weight": 0.0518488}, 
                {"id": 14, "lemma": "게", "type": "EC", "position": 77, "weight": 0.31879}, 
                {"id": 15, "lemma": "만들", "type": "VV", "position": 81, "weight": 0.9}, 
                {"id": 16, "lemma": "ㄴ", "type": "ETM", "position": 84, "weight": 0.304215}, 
                {"id": 17, "lemma": "하이퍼텍스트", "type": "NNG", "position": 88, "weight": 0.9}, 
                {"id": 18, "lemma": "이", "type": "VCP", "position": 106, "weight": 0.0177525}, 
                {"id": 19, "lemma": "다", "type": "EF", "position": 109, "weight": 0.353579}, 
                {"id": 20, "lemma": ".", "type": "SF", "position": 112, "weight": 1}
            ], 
            "morp_eval": [], 
            "WSD": [
                {"id": 0, "text": "홈페이지", "type": "NNG", "scode": "000000", "weight": 1, "position": 0, "begin": 0, "end": 0}, 
                {"id": 1, "text": "는", "type": "JX", "scode": "000000", "weight": 1, "position": 12, "begin": 1, "end": 1}, 
                {"id": 2, "text": "개인", "type": "NNG", "scode": "020000", "weight": 0.166667, "position": 16, "begin": 2, "end": 2}, 
                {"id": 3, "text": "이나", "type": "JC", "scode": "000000", "weight": 1, "position": 22, "begin": 3, "end": 3}, 
                {"id": 4, "text": "단체", "type": "NNG", "scode": "020001", "weight": 0.333333, "position": 29, "begin": 4, "end": 4}, 
                {"id": 5, "text": "가", "type": "JKS", "scode": "000000", "weight": 1, "position": 35, "begin": 5, "end": 5}, 
                {"id": 6, "text": "월드", "type": "NNG", "scode": "000000", "weight": 0, "position": 39, "begin": 6, "end": 6}, 
                {"id": 7, "text": "와이드", "type": "NNG", "scode": "000000", "weight": 0, "position": 46, "begin": 7, "end": 7}, 
                {"id": 8, "text": "웹", "type": "NNG", "scode": "000000", "weight": 1, "position": 56, "begin": 8, "end": 8}, 
                {"id": 9, "text": "에서", "type": "JKB", "scode": "000000", "weight": 1, "position": 59, "begin": 9, "end": 9}, 
                {"id": 10, "text": "보", "type": "VV", "scode": "010101", "weight": 0.025641, "position": 66, "begin": 10, "end": 10}, 
                {"id": 11, "text": "ㄹ", "type": "ETM", "scode": "000000", "weight": 1, "position": 66, "begin": 11, "end": 11}, 
                {"id": 12, "text": "수", "type": "NNB", "scode": "020100", "weight": 0.02, "position": 70, "begin": 12, "end": 12}, 
                {"id": 13, "text": "있", "type": "VA", "scode": "010305", "weight": 0.0416667, "position": 74, "begin": 13, "end": 13}, 
                {"id": 14, "text": "게", "type": "EC", "scode": "000000", "weight": 1, "position": 77, "begin": 14, "end": 14}, 
                {"id": 15, "text": "만들", "type": "VV", "scode": "000101", "weight": 0.0769231, "position": 81, "begin": 15, "end": 15}, 
                {"id": 16, "text": "ㄴ", "type": "ETM", "scode": "000000", "weight": 1, "position": 84, "begin": 16, "end": 16}, 
                {"id": 17, "text": "하이퍼텍스트", "type": "NNG", "scode": "000000", "weight": 1, "position": 88, "begin": 17, "end": 17}, 
                {"id": 18, "text": "이", "type": "VCP", "scode": "030000", "weight": 0.0172414, "position": 106, "begin": 18, "end": 18}, 
                {"id": 19, "text": "다", "type": "EF", "scode": "000000", "weight": 1, "position": 109, "begin": 19, "end": 19}, 
                {"id": 20, "text": ".", "type": "SF", "scode": "000000", "weight": 1, "position": 112, "begin": 20, "end": 20}
            ], 
            "word": [
                {"id": 0, "text": "홈페이지는", "type": "", "begin": 0, "end": 1}, 
                {"id": 1, "text": "개인이나", "type": "", "begin": 2, "end": 3}, 
                {"id": 2, "text": "단체가", "type": "", "begin": 4, "end": 5}, 
                {"id": 3, "text": "월드", "type": "", "begin": 6, "end": 6}, 
                {"id": 4, "text": "와이드", "type": "", "begin": 7, "end": 7}, 
                {"id": 5, "text": "웹에서", "type": "", "begin": 8, "end": 9}, 
                {"id": 6, "text": "볼", "type": "", "begin": 10, "end": 11}, 
                {"id": 7, "text": "수", "type": "", "begin": 12, "end": 12}, 
                {"id": 8, "text": "있게", "type": "", "begin": 13, "end": 14}, 
                {"id": 9, "text": "만든", "type": "", "begin": 15, "end": 16}, 
                {"id": 10, "text": "하이퍼텍스트이다.", "type": "", "begin": 17, "end": 20}
            ], 
            "NE": [
                {"id": 0, "text": "홈페이지", "type": "TMI_SERVICE", "begin": 0, "end": 0, "weight": 1, "common_noun": 0}, 
                {"id": 1, "text": "월드 와이드 웹", "type": "TR_SCIENCE", "begin": 6, "end": 8, "weight": 0.103136, "common_noun": 0}
            ], 
            "chunk": [], 
            "dependency": [
                {"id": 0, "text": "홈페이지는", "head": 10, "label": "NP_SBJ", "mod": [], "weight": 0.364332}, 
                {"id": 1, "text": "개인이나", "head": 2, "label": "NP_CNJ", "mod": [], "weight": 0.670026}, 
                {"id": 2, "text": "단체가", "head": 6, "label": "NP_SBJ", "mod": [1], "weight": 0.793981}, 
                {"id": 3, "text": "월드", "head": 4, "label": "NP", "mod": [], "weight": 0.553427}, 
                {"id": 4, "text": "와이드", "head": 5, "label": "NP", "mod": [3], "weight": 0.750594}, 
                {"id": 5, "text": "웹에서", "head": 6, "label": "NP_AJT", "mod": [4], "weight": 0.83536}, 
                {"id": 6, "text": "볼", "head": 7, "label": "VP_MOD", "mod": [2, 5], "weight": 0.844568}, 
                {"id": 7, "text": "수", "head": 8, "label": "NP_SBJ", "mod": [6], "weight": 0.687076}, 
                {"id": 8, "text": "있게", "head": 9, "label": "VP", "mod": [7], "weight": 0.420992}, 
                {"id": 9, "text": "만든", "head": 10, "label": "VP_MOD", "mod": [8], "weight": 0.791871}, 
                {"id": 10, "text": "하이퍼텍스트이다.", "head": -1, "label": "VNP", "mod": [9, 0], "weight": 0.010906}
            ], 
            "SRL": [
                {"verb": "보", "sense": 1, "word_id": 6, "weight": 0.229325, "argument": [
                    {"type": "ARG1", "word_id": 0, "text": "홈페이지는", "weight": 0.122363}, 
                    {"type": "ARG0", "word_id": 2, "text": "단체가", "weight": 0.210492}, 
                    {"type": "ARGM-LOC", "word_id": 5, "text": "웹에서", "weight": 0.134391}, 
                    {"type": "AUX", "word_id": 8, "text": "있게", "weight": 0.450054}
                ]}, 
                {"verb": "만들", "sense": 1, "word_id": 9, "weight": 0.13244, "argument": [
                    {"type": "ARGM-PRP", "word_id": 8, "text": "있게", "weight": 0.100643}, 
                    {"type": "ARG1", "word_id": 10, "text": "하이퍼텍스트이다.", "weight": 0.164237}
                ]}
            ], 
            "relation": [], 
            "SA": [], 
            "ZA": []
        }
    ], 
    "entity": [
        {"id": 0, "type": "TMI_SERVICE", "number": "singular", "gender": "", "person": "", "animacy": "thing", "mention": [
            {"id": 0, "sent_id": 0, "start_eid": 0, "end_eid": 0, "ne_id": 0, "text": "홈페이지는", "start_eid_short": 0, "end_eid_short": 0, "text_short": "홈페이지는"}, 
            {"id": 1, "sent_id": 0, "start_eid": 1, "end_eid": 10, "ne_id": 2, "text": "개인이나 단체가 월드 와이드 웹에서 볼 수 있게 만든 하이퍼텍스트이다.", "start_eid_short": 10, "end_eid_short": 10, "text_short": "하이퍼텍스트이다."}
        ]}, 
        {"id": 1, "type": "", "number": "singular", "gender": "", "person": "", "animacy": "thing", "mention": [
            {"id": 2, "sent_id": 0, "start_eid": 1, "end_eid": 2, "ne_id": -1, "text": "개인이나 단체가", "start_eid_short": 2, "end_eid_short": 2, "text_short": "단체가"}
        ]}, 
        {"id": 2, "type": "", "number": "singular", "gender": "", "person": "", "animacy": "thing", "mention": [
            {"id": 3, "sent_id": 0, "start_eid": 1, "end_eid": 1, "ne_id": -1, "text": "개인이나", "start_eid_short": 1, "end_eid_short": 1, "text_short": "개인이나"}
        ]}, 
        {"id": 3, "type": "", "number": "singular", "gender": "", "person": "", "animacy": "thing", "mention": [
            {"id": 5, "sent_id": 0, "start_eid": 3, "end_eid": 5, "ne_id": -1, "text": "월드 와이드 웹에서", "start_eid_short": 3, "end_eid_short": 5, "text_short": "월드 와이드 웹에서"}
        ]}, 
        {"id": 4, "type": "", "number": "singular", "gender": "", "person": "", "animacy": "thing", "mention": [
            {"id": 4, "sent_id": 0, "start_eid": 2, "end_eid": 2, "ne_id": -1, "text": "단체가", "start_eid_short": 2, "end_eid_short": 2, "text_short": "단체가"}
        ]}
    ]
}