{
    "doc_id": "E2016.836.17_A_02.json", 
    "DCT": "", 
    "category": "", 
    "category_weight": 0, 
    "title": {
        "text": "김정호", 
        "NE": ""
    }, 
    "metaInfo": {}, 
    "sentence": [
        {
            "id": 0, 
            "reserve_str": "", 
            "text": "《청구도》, 《동여도》, 《대동여지도》를 만든 조선 후기의 지리학자.", 
            "morp": [
                {"id": 0, "lemma": "《", "type": "SS", "position": 0, "weight": 1}, 
                {"id": 1, "lemma": "청구도", "type": "NNP", "position": 3, "weight": 0.05}, 
                {"id": 2, "lemma": "》", "type": "SS", "position": 12, "weight": 1}, 
                {"id": 3, "lemma": ",", "type": "SP", "position": 15, "weight": 1}, 
                {"id": 4, "lemma": "《", "type": "SS", "position": 17, "weight": 1}, 
                {"id": 5, "lemma": "동여도", "type": "NNP", "position": 20, "weight": 0.05}, 
                {"id": 6, "lemma": "》", "type": "SS", "position": 29, "weight": 1}, 
                {"id": 7, "lemma": ",", "type": "SP", "position": 32, "weight": 1}, 
                {"id": 8, "lemma": "《", "type": "SS", "position": 34, "weight": 1}, 
                {"id": 9, "lemma": "대동여지도", "type": "NNP", "position": 37, "weight": 0.6}, 
                {"id": 10, "lemma": "》", "type": "SS", "position": 52, "weight": 1}, 
                {"id": 11, "lemma": "를", "type": "JKO", "position": 55, "weight": 0.0357023}, 
                {"id": 12, "lemma": "만들", "type": "VV", "position": 59, "weight": 0.9}, 
                {"id": 13, "lemma": "ㄴ", "type": "ETM", "position": 62, "weight": 0.304215}, 
                {"id": 14, "lemma": "조선", "type": "NNP", "position": 66, "weight": 0.027614}, 
                {"id": 15, "lemma": "후기", "type": "NNG", "position": 73, "weight": 0.9}, 
                {"id": 16, "lemma": "의", "type": "JKG", "position": 79, "weight": 0.0694213}, 
                {"id": 17, "lemma": "지리", "type": "NNG", "position": 83, "weight": 0.827406}, 
                {"id": 18, "lemma": "학자", "type": "NNG", "position": 89, "weight": 0.0233263}, 
                {"id": 19, "lemma": ".", "type": "SF", "position": 95, "weight": 1}
            ], 
            "morp_eval": [], 
            "WSD": [
                {"id": 0, "text": "《", "type": "SS", "scode": "000000", "weight": 1, "position": 0, "begin": 0, "end": 0}, 
                {"id": 1, "text": "청구도", "type": "NNP", "scode": "000000", "weight": 1, "position": 3, "begin": 1, "end": 1}, 
                {"id": 2, "text": "》", "type": "SS", "scode": "000000", "weight": 1, "position": 12, "begin": 2, "end": 2}, 
                {"id": 3, "text": ",", "type": "SP", "scode": "000000", "weight": 1, "position": 15, "begin": 3, "end": 3}, 
                {"id": 4, "text": "《", "type": "SS", "scode": "000000", "weight": 1, "position": 17, "begin": 4, "end": 4}, 
                {"id": 5, "text": "동여도", "type": "NNP", "scode": "000000", "weight": 1, "position": 20, "begin": 5, "end": 5}, 
                {"id": 6, "text": "》", "type": "SS", "scode": "000000", "weight": 1, "position": 29, "begin": 6, "end": 6}, 
                {"id": 7, "text": ",", "type": "SP", "scode": "000000", "weight": 1, "position": 32, "begin": 7, "end": 7}, 
                {"id": 8, "text": "《", "type": "SS", "scode": "000000", "weight": 1, "position": 34, "begin": 8, "end": 8}, 
                {"id": 9, "text": "대동여지도", "type": "NNP", "scode": "000000", "weight": 1, "position": 37, "begin": 9, "end": 9}, 
                {"id": 10, "text": "》", "type": "SS", "scode": "000000", "weight": 1, "position": 52, "begin": 10, "end": 10}, 
                {"id": 11, "text": "를", "type": "JKO", "scode": "000000", "weight": 1, "position": 55, "begin": 11, "end": 11}, 
                {"id": 12, "text": "만들", "type": "VV", "scode": "000102", "weight": 0.0769231, "position": 59, "begin": 12, "end": 12}, 
                {"id": 13, "text": "ㄴ", "type": "ETM", "scode": "000000", "weight": 1, "position": 62, "begin": 13, "end": 13}, 
                {"id": 14, "text": "조선", "type": "NNP", "scode": "050002", "weight": 0.0833333, "position": 66, "begin": 14, "end": 14}, 
                {"id": 15, "text": "후기", "type": "NNG", "scode": "030001", "weight": 0.1, "position": 73, "begin": 15, "end": 15}, 
                {"id": 16, "text": "의", "type": "JKG", "scode": "000000", "weight": 1, "position": 79, "begin": 16, "end": 16}, 
                {"id": 17, "text": "지리", "type": "NNG", "scode": "030002", "weight": 0.1, "position": 83, "begin": 17, "end": 17}, 
                {"id": 18, "text": "학자", "type": "NNG", "scode": "010001", "weight": 0.333333, "position": 89, "begin": 18, "end": 18}, 
                {"id": 19, "text": ".", "type": "SF", "scode": "000000", "weight": 1, "position": 95, "begin": 19, "end": 19}
            ], 
            "word": [
                {"id": 0, "text": "《청구도》,", "type": "", "begin": 0, "end": 3}, 
                {"id": 1, "text": "《동여도》,", "type": "", "begin": 4, "end": 7}, 
                {"id": 2, "text": "《대동여지도》를", "type": "", "begin": 8, "end": 11}, 
                {"id": 3, "text": "만든", "type": "", "begin": 12, "end": 13}, 
                {"id": 4, "text": "조선", "type": "", "begin": 14, "end": 14}, 
                {"id": 5, "text": "후기의", "type": "", "begin": 15, "end": 16}, 
                {"id": 6, "text": "지리학자.", "type": "", "begin": 17, "end": 19}
            ], 
            "NE": [
                {"id": 0, "text": "청구도", "type": "AFW_DOCUMENT", "begin": 1, "end": 1, "weight": 0.878482, "common_noun": 0}, 
                {"id": 1, "text": "동여도", "type": "AFW_DOCUMENT", "begin": 5, "end": 5, "weight": 0.938741, "common_noun": 0}, 
                {"id": 2, "text": "대동여지도", "type": "AFW_DOCUMENT", "begin": 9, "end": 9, "weight": 0.95213, "common_noun": 0}, 
                {"id": 3, "text": "조선 후기", "type": "DT_DYNASTY", "begin": 14, "end": 15, "weight": 0.956677, "common_noun": 0}, 
                {"id": 4, "text": "지리학자", "type": "CV_OCCUPATION", "begin": 17, "end": 18, "weight": 0.823995, "common_noun": 0}
            ], 
            "chunk": [], 
            "dependency": [
                {"id": 0, "text": "《청구도》,", "head": 2, "label": "NP_CNJ", "mod": [], "weight": 0.395568}, 
                {"id": 1, "text": "《동여도》,", "head": 2, "label": "NP_CNJ", "mod": [], "weight": 0.649177}, 
                {"id": 2, "text": "《대동여지도》를", "head": 3, "label": "NP_OBJ", "mod": [0, 1], "weight": 0.7653}, 
                {"id": 3, "text": "만든", "head": 6, "label": "VP_MOD", "mod": [2], "weight": 0.834811}, 
                {"id": 4, "text": "조선", "head": 5, "label": "NP", "mod": [], "weight": 0.808587}, 
                {"id": 5, "text": "후기의", "head": 6, "label": "NP_MOD", "mod": [4], "weight": 0.854861}, 
                {"id": 6, "text": "지리학자.", "head": -1, "label": "NP", "mod": [3, 5], "weight": 0.081543}
            ], 
            "SRL": [
                {"verb": "만들", "sense": 1, "word_id": 3, "weight": 0.157231, "argument": [
                    {"type": "ARG1", "word_id": 2, "text": "《대동여지도》를", "weight": 0.232193}, 
                    {"type": "ARG1", "word_id": 6, "text": "지리학자.", "weight": 0.0822684}
                ]}
            ], 
            "relation": [], 
            "SA": [], 
            "ZA": []
        }
    ], 
    "entity": [
        {"id": 0, "type": "AFW_DOCUMENT", "number": "singular", "gender": "", "person": "", "animacy": "thing", "mention": [
            {"id": 1, "sent_id": 0, "start_eid": 0, "end_eid": 0, "ne_id": 0, "text": "《청구도》,", "start_eid_short": 0, "end_eid_short": 0, "text_short": "《청구도》,"}
        ]}, 
        {"id": 1, "type": "AFW_DOCUMENT", "number": "singular", "gender": "", "person": "", "animacy": "thing", "mention": [
            {"id": 2, "sent_id": 0, "start_eid": 1, "end_eid": 1, "ne_id": 1, "text": "《동여도》,", "start_eid_short": 1, "end_eid_short": 1, "text_short": "《동여도》,"}
        ]}, 
        {"id": 2, "type": "AFW_DOCUMENT", "number": "singular", "gender": "", "person": "", "animacy": "thing", "mention": [
            {"id": 3, "sent_id": 0, "start_eid": 2, "end_eid": 2, "ne_id": 2, "text": "《대동여지도》를", "start_eid_short": 2, "end_eid_short": 2, "text_short": "《대동여지도》를"}
        ]}, 
        {"id": 3, "type": "DT_DYNASTY", "number": "singular", "gender": "", "person": "", "animacy": "time", "mention": [
            {"id": 4, "sent_id": 0, "start_eid": 4, "end_eid": 5, "ne_id": 3, "text": "조선 후기의", "start_eid_short": 4, "end_eid_short": 5, "text_short": "조선 후기의"}
        ]}, 
        {"id": 4, "type": "CV_OCCUPATION", "number": "singular", "gender": "", "person": "", "animacy": "thing", "mention": [
            {"id": 0, "sent_id": 0, "start_eid": 0, "end_eid": 6, "ne_id": 4, "text": "《청구도》, 《동여도》, 《대동여지도》를 만든 조선 후기의 지리학자.", "start_eid_short": 6, "end_eid_short": 6, "text_short": "지리학자."}
        ]}
    ]
}