{
    "doc_id": "E2016.837.34_A_01.json", 
    "DCT": "", 
    "category": "", 
    "category_weight": 0, 
    "title": {
        "text": "맥놀이", 
        "NE": ""
    }, 
    "metaInfo": {}, 
    "sentence": [
        {
            "id": 0, 
            "reserve_str": "", 
            "text": "주파수가 비슷한 두 개의 파동이 간섭을 일으켜서 새로운 합성파가 만들어지는 현상이다.", 
            "morp": [
                {"id": 0, "lemma": "주파", "type": "NNG", "position": 0, "weight": 0.9}, 
                {"id": 1, "lemma": "수", "type": "NNG", "position": 6, "weight": 0.00933311}, 
                {"id": 2, "lemma": "가", "type": "JKS", "position": 9, "weight": 0.066324}, 
                {"id": 3, "lemma": "비슷하", "type": "VA", "position": 13, "weight": 0.9}, 
                {"id": 4, "lemma": "ㄴ", "type": "ETM", "position": 19, "weight": 0.430446}, 
                {"id": 5, "lemma": "두", "type": "MM", "position": 23, "weight": 0.00826235}, 
                {"id": 6, "lemma": "개", "type": "NNB", "position": 27, "weight": 0.157893}, 
                {"id": 7, "lemma": "의", "type": "JKG", "position": 30, "weight": 0.0520933}, 
                {"id": 8, "lemma": "파동", "type": "NNG", "position": 34, "weight": 0.867878}, 
                {"id": 9, "lemma": "이", "type": "JKS", "position": 40, "weight": 0.0360723}, 
                {"id": 10, "lemma": "간섭", "type": "NNG", "position": 44, "weight": 0.9}, 
                {"id": 11, "lemma": "을", "type": "JKO", "position": 50, "weight": 0.129611}, 
                {"id": 12, "lemma": "일으키", "type": "VV", "position": 54, "weight": 0.9}, 
                {"id": 13, "lemma": "어서", "type": "EC", "position": 60, "weight": 0.421998}, 
                {"id": 14, "lemma": "새롭", "type": "VA", "position": 67, "weight": 0.9}, 
                {"id": 15, "lemma": "ㄴ", "type": "ETM", "position": 70, "weight": 0.430446}, 
                {"id": 16, "lemma": "합성", "type": "NNG", "position": 77, "weight": 0.9}, 
                {"id": 17, "lemma": "파", "type": "XSN", "position": 83, "weight": 0.000623483}, 
                {"id": 18, "lemma": "가", "type": "JKS", "position": 86, "weight": 0.134553}, 
                {"id": 19, "lemma": "만들", "type": "VV", "position": 90, "weight": 0.9}, 
                {"id": 20, "lemma": "어", "type": "EC", "position": 96, "weight": 0.41831}, 
                {"id": 21, "lemma": "지", "type": "VX", "position": 99, "weight": 0.0539764}, 
                {"id": 22, "lemma": "는", "type": "ETM", "position": 102, "weight": 0.183966}, 
                {"id": 23, "lemma": "현상", "type": "NNG", "position": 106, "weight": 0.65874}, 
                {"id": 24, "lemma": "이", "type": "VCP", "position": 112, "weight": 0.0177525}, 
                {"id": 25, "lemma": "다", "type": "EF", "position": 115, "weight": 0.353579}, 
                {"id": 26, "lemma": ".", "type": "SF", "position": 118, "weight": 1}
            ], 
            "morp_eval": [], 
            "WSD": [
                {"id": 0, "text": "주파수", "type": "NNG", "scode": "000001", "weight": 0.5, "position": 0, "begin": 0, "end": 1}, 
                {"id": 1, "text": "가", "type": "JKS", "scode": "000000", "weight": 1, "position": 9, "begin": 2, "end": 2}, 
                {"id": 2, "text": "비슷하", "type": "VA", "scode": "020100", "weight": 0.25, "position": 13, "begin": 3, "end": 3}, 
                {"id": 3, "text": "ㄴ", "type": "ETM", "scode": "000000", "weight": 1, "position": 19, "begin": 4, "end": 4}, 
                {"id": 4, "text": "두", "type": "MM", "scode": "010000", "weight": 0.0909091, "position": 23, "begin": 5, "end": 5}, 
                {"id": 5, "text": "개", "type": "NNB", "scode": "100001", "weight": 0.0454545, "position": 27, "begin": 6, "end": 6}, 
                {"id": 6, "text": "의", "type": "JKG", "scode": "000000", "weight": 1, "position": 30, "begin": 7, "end": 7}, 
                {"id": 7, "text": "파동", "type": "NNG", "scode": "010005", "weight": 0.166667, "position": 34, "begin": 8, "end": 8}, 
                {"id": 8, "text": "이", "type": "JKS", "scode": "000000", "weight": 1, "position": 40, "begin": 9, "end": 9}, 
                {"id": 9, "text": "간섭", "type": "NNG", "scode": "000002", "weight": 0.5, "position": 44, "begin": 10, "end": 10}, 
                {"id": 10, "text": "을", "type": "JKO", "scode": "000000", "weight": 1, "position": 50, "begin": 11, "end": 11}, 
                {"id": 11, "text": "일으키", "type": "VV", "scode": "000003", "weight": 0.166667, "position": 54, "begin": 12, "end": 12}, 
                {"id": 12, "text": "어서", "type": "EC", "scode": "000000", "weight": 1, "position": 60, "begin": 13, "end": 13}, 
                {"id": 13, "text": "새롭", "type": "VA", "scode": "000001", "weight": 0.333333, "position": 67, "begin": 14, "end": 14}, 
                {"id": 14, "text": "ㄴ", "type": "ETM", "scode": "000000", "weight": 1, "position": 70, "begin": 15, "end": 15}, 
                {"id": 15, "text": "합성", "type": "NNG", "scode": "010002", "weight": 0.111111, "position": 77, "begin": 16, "end": 16}, 
                {"id": 16, "text": "파", "type": "XSN", "scode": "110000", "weight": 0.0526316, "position": 83, "begin": 17, "end": 17}, 
                {"id": 17, "text": "가", "type": "JKS", "scode": "000000", "weight": 1, "position": 86, "begin": 18, "end": 18}, 
                {"id": 18, "text": "만들", "type": "VV", "scode": "000103", "weight": 0.0769231, "position": 90, "begin": 19, "end": 19}, 
                {"id": 19, "text": "어", "type": "EC", "scode": "000000", "weight": 1, "position": 96, "begin": 20, "end": 20}, 
                {"id": 20, "text": "지", "type": "VX", "scode": "040101", "weight": 0.037037, "position": 99, "begin": 21, "end": 21}, 
                {"id": 21, "text": "는", "type": "ETM", "scode": "000000", "weight": 1, "position": 102, "begin": 22, "end": 22}, 
                {"id": 22, "text": "현상", "type": "NNG", "scode": "030000", "weight": 0.0833333, "position": 106, "begin": 23, "end": 23}, 
                {"id": 23, "text": "이", "type": "VCP", "scode": "030000", "weight": 0.0172414, "position": 112, "begin": 24, "end": 24}, 
                {"id": 24, "text": "다", "type": "EF", "scode": "000000", "weight": 1, "position": 115, "begin": 25, "end": 25}, 
                {"id": 25, "text": ".", "type": "SF", "scode": "000000", "weight": 1, "position": 118, "begin": 26, "end": 26}
            ], 
            "word": [
                {"id": 0, "text": "주파수가", "type": "", "begin": 0, "end": 2}, 
                {"id": 1, "text": "비슷한", "type": "", "begin": 3, "end": 4}, 
                {"id": 2, "text": "두", "type": "", "begin": 5, "end": 5}, 
                {"id": 3, "text": "개의", "type": "", "begin": 6, "end": 7}, 
                {"id": 4, "text": "파동이", "type": "", "begin": 8, "end": 9}, 
                {"id": 5, "text": "간섭을", "type": "", "begin": 10, "end": 11}, 
                {"id": 6, "text": "일으켜서", "type": "", "begin": 12, "end": 13}, 
                {"id": 7, "text": "새로운", "type": "", "begin": 14, "end": 15}, 
                {"id": 8, "text": "합성파가", "type": "", "begin": 16, "end": 18}, 
                {"id": 9, "text": "만들어지는", "type": "", "begin": 19, "end": 22}, 
                {"id": 10, "text": "현상이다.", "type": "", "begin": 23, "end": 26}
            ], 
            "NE": [
                {"id": 0, "text": "두 개", "type": "QT_COUNT", "begin": 5, "end": 6, "weight": 0.759107, "common_noun": 0}
            ], 
            "chunk": [], 
            "dependency": [
                {"id": 0, "text": "주파수가", "head": 1, "label": "NP_SBJ", "mod": [], "weight": 0.614172}, 
                {"id": 1, "text": "비슷한", "head": 4, "label": "VP_MOD", "mod": [0], "weight": 0.571283}, 
                {"id": 2, "text": "두", "head": 3, "label": "DP", "mod": [], "weight": 0.759767}, 
                {"id": 3, "text": "개의", "head": 4, "label": "NP_MOD", "mod": [2], "weight": 0.55711}, 
                {"id": 4, "text": "파동이", "head": 6, "label": "NP_SBJ", "mod": [1, 3], "weight": 0.801317}, 
                {"id": 5, "text": "간섭을", "head": 6, "label": "NP_OBJ", "mod": [], "weight": 0.857943}, 
                {"id": 6, "text": "일으켜서", "head": 9, "label": "VP", "mod": [4, 5], "weight": 0.644445}, 
                {"id": 7, "text": "새로운", "head": 8, "label": "VP_MOD", "mod": [], "weight": 0.567892}, 
                {"id": 8, "text": "합성파가", "head": 9, "label": "NP_SBJ", "mod": [7], "weight": 0.80274}, 
                {"id": 9, "text": "만들어지는", "head": 10, "label": "VP_MOD", "mod": [6, 8], "weight": 0.754836}, 
                {"id": 10, "text": "현상이다.", "head": -1, "label": "VNP", "mod": [9], "weight": 0.0188021}
            ], 
            "SRL": [
                {"verb": "비슷하", "sense": 1, "word_id": 1, "weight": 0.159397, "argument": [
                    {"type": "ARG2", "word_id": 0, "text": "주파수가", "weight": 1}, 
                    {"type": "ARG1", "word_id": 4, "text": "파동이", "weight": 0.143366}
                ]}, 
                {"verb": "일으키", "sense": 1, "word_id": 6, "weight": 0.257334, "argument": [
                    {"type": "ARG0", "word_id": 4, "text": "파동이", "weight": 0.288443}, 
                    {"type": "ARG1", "word_id": 5, "text": "간섭을", "weight": 0.226224}
                ]}, 
                {"verb": "새롭", "sense": 1, "word_id": 7, "weight": 0.504049, "argument": [
                    {"type": "ARG1", "word_id": 8, "text": "합성파가", "weight": 0.504049}
                ]}, 
                {"verb": "만들", "sense": 1, "word_id": 9, "weight": 0.123533, "argument": [
                    {"type": "ARGM-MNR", "word_id": 6, "text": "일으켜서", "weight": 0.098067}, 
                    {"type": "ARG1", "word_id": 8, "text": "합성파가", "weight": 0.148999}
                ]}
            ], 
            "relation": [], 
            "SA": [], 
            "ZA": []
        }
    ], 
    "entity": [
        {"id": 0, "type": "", "number": "singular", "gender": "", "person": "", "animacy": "thing", "mention": [
            {"id": 2, "sent_id": 0, "start_eid": 0, "end_eid": 4, "ne_id": -1, "text": "주파수가 비슷한 두 개의 파동이", "start_eid_short": 4, "end_eid_short": 4, "text_short": "파동이"}
        ]}, 
        {"id": 1, "type": "", "number": "singular", "gender": "", "person": "", "animacy": "thing", "mention": [
            {"id": 3, "sent_id": 0, "start_eid": 0, "end_eid": 0, "ne_id": -1, "text": "주파수가", "start_eid_short": 0, "end_eid_short": 0, "text_short": "주파수가"}
        ]}, 
        {"id": 2, "type": "QT_COUNT", "number": "singular", "gender": "", "person": "", "animacy": "thing", "mention": [
            {"id": 4, "sent_id": 0, "start_eid": 2, "end_eid": 3, "ne_id": 0, "text": "두 개의", "start_eid_short": 2, "end_eid_short": 3, "text_short": "두 개의"}
        ]}, 
        {"id": 3, "type": "", "number": "singular", "gender": "", "person": "", "animacy": "thing", "mention": [
            {"id": 5, "sent_id": 0, "start_eid": 5, "end_eid": 5, "ne_id": -1, "text": "간섭을", "start_eid_short": 5, "end_eid_short": 5, "text_short": "간섭을"}
        ]}, 
        {"id": 4, "type": "", "number": "singular", "gender": "", "person": "", "animacy": "thing", "mention": [
            {"id": 1, "sent_id": 0, "start_eid": 0, "end_eid": 8, "ne_id": -1, "text": "주파수가 비슷한 두 개의 파동이 간섭을 일으켜서 새로운 합성파가", "start_eid_short": 8, "end_eid_short": 8, "text_short": "합성파가"}
        ]}, 
        {"id": 5, "type": "", "number": "singular", "gender": "", "person": "", "animacy": "thing", "mention": [
            {"id": 0, "sent_id": 0, "start_eid": 0, "end_eid": 10, "ne_id": -1, "text": "주파수가 비슷한 두 개의 파동이 간섭을 일으켜서 새로운 합성파가 만들어지는 현상이다.", "start_eid_short": 10, "end_eid_short": 10, "text_short": "현상이다."}
        ]}
    ]
}