{
    "doc_id": "E2016.836.12_Q_01.json", 
    "DCT": "", 
    "category": "", 
    "category_weight": 0, 
    "title": {
        "text": "", 
        "NE": ""
    }, 
    "metaInfo": {}, 
    "sentence": [
        {
            "id": 0, 
            "reserve_str": "", 
            "text": "『국부론』의 저자인 이 사람은 개인의 자유로운 이익 추구 활동은 '보이지 않는 손'에 의해 조화를 이루어 사회 전체의 발전을 가져온다고 주장했다.", 
            "morp": [
                {"id": 0, "lemma": "『", "type": "SS", "position": 0, "weight": 1}, 
                {"id": 1, "lemma": "국부론", "type": "NNP", "position": 3, "weight": 0.9}, 
                {"id": 2, "lemma": "』", "type": "SS", "position": 12, "weight": 1}, 
                {"id": 3, "lemma": "의", "type": "JKG", "position": 15, "weight": 0.0878251}, 
                {"id": 4, "lemma": "저자", "type": "NNG", "position": 19, "weight": 0.855723}, 
                {"id": 5, "lemma": "이", "type": "VCP", "position": 25, "weight": 0.0177525}, 
                {"id": 6, "lemma": "ㄴ", "type": "ETM", "position": 25, "weight": 0.220712}, 
                {"id": 7, "lemma": "이", "type": "MM", "position": 29, "weight": 0.00060084}, 
                {"id": 8, "lemma": "사람", "type": "NNG", "position": 33, "weight": 0.737436}, 
                {"id": 9, "lemma": "은", "type": "JX", "position": 39, "weight": 0.0449928}, 
                {"id": 10, "lemma": "개인", "type": "NNG", "position": 43, "weight": 0.9}, 
                {"id": 11, "lemma": "의", "type": "JKG", "position": 49, "weight": 0.0694213}, 
                {"id": 12, "lemma": "자유", "type": "NNG", "position": 53, "weight": 0.870691}, 
                {"id": 13, "lemma": "롭", "type": "XSA", "position": 59, "weight": 0.000351437}, 
                {"id": 14, "lemma": "ㄴ", "type": "ETM", "position": 59, "weight": 0.488779}, 
                {"id": 15, "lemma": "이익", "type": "NNG", "position": 66, "weight": 0.653949}, 
                {"id": 16, "lemma": "추구", "type": "NNG", "position": 73, "weight": 0.183768}, 
                {"id": 17, "lemma": "활동", "type": "NNG", "position": 80, "weight": 0.9}, 
                {"id": 18, "lemma": "은", "type": "JX", "position": 86, "weight": 0.0449928}, 
                {"id": 19, "lemma": "'", "type": "SS", "position": 90, "weight": 1}, 
                {"id": 20, "lemma": "보이", "type": "VV", "position": 91, "weight": 0.0280715}, 
                {"id": 21, "lemma": "지", "type": "EC", "position": 97, "weight": 0.301842}, 
                {"id": 22, "lemma": "않", "type": "VX", "position": 101, "weight": 0.256301}, 
                {"id": 23, "lemma": "는", "type": "ETM", "position": 104, "weight": 0.183966}, 
                {"id": 24, "lemma": "손", "type": "NNG", "position": 108, "weight": 0.646628}, 
                {"id": 25, "lemma": "'", "type": "SS", "position": 111, "weight": 1}, 
                {"id": 26, "lemma": "에", "type": "JKB", "position": 112, "weight": 0.048593}, 
                {"id": 27, "lemma": "의하", "type": "VV", "position": 116, "weight": 0.9}, 
                {"id": 28, "lemma": "아", "type": "EC", "position": 119, "weight": 0.41831}, 
                {"id": 29, "lemma": "조화", "type": "NNG", "position": 123, "weight": 0.9}, 
                {"id": 30, "lemma": "를", "type": "JKO", "position": 129, "weight": 0.137686}, 
                {"id": 31, "lemma": "이루", "type": "VV", "position": 133, "weight": 0.760047}, 
                {"id": 32, "lemma": "어", "type": "EC", "position": 139, "weight": 0.41831}, 
                {"id": 33, "lemma": "사회", "type": "NNG", "position": 143, "weight": 0.219384}, 
                {"id": 34, "lemma": "전체", "type": "NNG", "position": 150, "weight": 0.9}, 
                {"id": 35, "lemma": "의", "type": "JKG", "position": 156, "weight": 0.0694213}, 
                {"id": 36, "lemma": "발전", "type": "NNG", "position": 160, "weight": 0.9}, 
                {"id": 37, "lemma": "을", "type": "JKO", "position": 166, "weight": 0.129611}, 
                {"id": 38, "lemma": "가져오", "type": "VV", "position": 170, "weight": 0.9}, 
                {"id": 39, "lemma": "ㄴ다고", "type": "EC", "position": 176, "weight": 0.423279}, 
                {"id": 40, "lemma": "주장", "type": "NNG", "position": 186, "weight": 0.218928}, 
                {"id": 41, "lemma": "하", "type": "XSV", "position": 192, "weight": 0.0001}, 
                {"id": 42, "lemma": "았", "type": "EP", "position": 192, "weight": 0.9}, 
                {"id": 43, "lemma": "다", "type": "EF", "position": 195, "weight": 0.640954}, 
                {"id": 44, "lemma": ".", "type": "SF", "position": 198, "weight": 1}
            ], 
            "morp_eval": [], 
            "WSD": [
                {"id": 0, "text": "『", "type": "SS", "scode": "000000", "weight": 1, "position": 0, "begin": 0, "end": 0}, 
                {"id": 1, "text": "국부론", "type": "NNP", "scode": "000000", "weight": 1, "position": 3, "begin": 1, "end": 1}, 
                {"id": 2, "text": "』", "type": "SS", "scode": "000000", "weight": 1, "position": 12, "begin": 2, "end": 2}, 
                {"id": 3, "text": "의", "type": "JKG", "scode": "000000", "weight": 1, "position": 15, "begin": 3, "end": 3}, 
                {"id": 4, "text": "저자", "type": "NNG", "scode": "050000", "weight": 0.111111, "position": 19, "begin": 4, "end": 4}, 
                {"id": 5, "text": "이", "type": "VCP", "scode": "030000", "weight": 0.0172414, "position": 25, "begin": 5, "end": 5}, 
                {"id": 6, "text": "ㄴ", "type": "ETM", "scode": "000000", "weight": 1, "position": 25, "begin": 6, "end": 6}, 
                {"id": 7, "text": "이", "type": "MM", "scode": "050002", "weight": 0.0172414, "position": 29, "begin": 7, "end": 7}, 
                {"id": 8, "text": "사람", "type": "NNG", "scode": "000001", "weight": 0.0909091, "position": 33, "begin": 8, "end": 8}, 
                {"id": 9, "text": "은", "type": "JX", "scode": "000000", "weight": 1, "position": 39, "begin": 9, "end": 9}, 
                {"id": 10, "text": "개인", "type": "NNG", "scode": "020000", "weight": 0.166667, "position": 43, "begin": 10, "end": 10}, 
                {"id": 11, "text": "의", "type": "JKG", "scode": "000000", "weight": 1, "position": 49, "begin": 11, "end": 11}, 
                {"id": 12, "text": "자유롭", "type": "VA", "scode": "000000", "weight": 1, "position": 53, "begin": 12, "end": 13}, 
                {"id": 13, "text": "ㄴ", "type": "ETM", "scode": "000000", "weight": 1, "position": 59, "begin": 14, "end": 14}, 
                {"id": 14, "text": "이익", "type": "NNG", "scode": "020001", "weight": 0.2, "position": 66, "begin": 15, "end": 15}, 
                {"id": 15, "text": "추구", "type": "NNG", "scode": "010000", "weight": 0.142857, "position": 73, "begin": 16, "end": 16}, 
                {"id": 16, "text": "활동", "type": "NNG", "scode": "020002", "weight": 0.166667, "position": 80, "begin": 17, "end": 17}, 
                {"id": 17, "text": "은", "type": "JX", "scode": "000000", "weight": 1, "position": 86, "begin": 18, "end": 18}, 
                {"id": 18, "text": "'", "type": "SS", "scode": "000000", "weight": 1, "position": 90, "begin": 19, "end": 19}, 
                {"id": 19, "text": "보이", "type": "VV", "scode": "010101", "weight": 0.0909091, "position": 91, "begin": 20, "end": 20}, 
                {"id": 20, "text": "지", "type": "EC", "scode": "000000", "weight": 1, "position": 97, "begin": 21, "end": 21}, 
                {"id": 21, "text": "않", "type": "VX", "scode": "000300", "weight": 0.333333, "position": 101, "begin": 22, "end": 22}, 
                {"id": 22, "text": "는", "type": "ETM", "scode": "000000", "weight": 1, "position": 104, "begin": 23, "end": 23}, 
                {"id": 23, "text": "손", "type": "NNG", "scode": "010005", "weight": 0.037037, "position": 108, "begin": 24, "end": 24}, 
                {"id": 24, "text": "'", "type": "SS", "scode": "000000", "weight": 1, "position": 111, "begin": 25, "end": 25}, 
                {"id": 25, "text": "에", "type": "JKB", "scode": "000000", "weight": 1, "position": 112, "begin": 26, "end": 26}, 
                {"id": 26, "text": "의하", "type": "VV", "scode": "010000", "weight": 0.5, "position": 116, "begin": 27, "end": 27}, 
                {"id": 27, "text": "아", "type": "EC", "scode": "000000", "weight": 1, "position": 119, "begin": 28, "end": 28}, 
                {"id": 28, "text": "조화", "type": "NNG", "scode": "070000", "weight": 0.125, "position": 123, "begin": 29, "end": 29}, 
                {"id": 29, "text": "를", "type": "JKO", "scode": "000000", "weight": 1, "position": 129, "begin": 30, "end": 30}, 
                {"id": 30, "text": "이루", "type": "VV", "scode": "010103", "weight": 0.2, "position": 133, "begin": 31, "end": 31}, 
                {"id": 31, "text": "어", "type": "EC", "scode": "000000", "weight": 1, "position": 139, "begin": 32, "end": 32}, 
                {"id": 32, "text": "사회", "type": "NNG", "scode": "070003", "weight": 0.0714286, "position": 143, "begin": 33, "end": 33}, 
                {"id": 33, "text": "전체", "type": "NNG", "scode": "010000", "weight": 0.333333, "position": 150, "begin": 34, "end": 34}, 
                {"id": 34, "text": "의", "type": "JKG", "scode": "000000", "weight": 1, "position": 156, "begin": 35, "end": 35}, 
                {"id": 35, "text": "발전", "type": "NNG", "scode": "010001", "weight": 0.25, "position": 160, "begin": 36, "end": 36}, 
                {"id": 36, "text": "을", "type": "JKO", "scode": "000000", "weight": 1, "position": 166, "begin": 37, "end": 37}, 
                {"id": 37, "text": "가져오", "type": "VV", "scode": "000002", "weight": 0.5, "position": 170, "begin": 38, "end": 38}, 
                {"id": 38, "text": "ㄴ다고", "type": "EC", "scode": "000000", "weight": 1, "position": 176, "begin": 39, "end": 39}, 
                {"id": 39, "text": "주장하", "type": "VV", "scode": "010001", "weight": 0.1, "position": 186, "begin": 40, "end": 41}, 
                {"id": 40, "text": "았", "type": "EP", "scode": "000000", "weight": 1, "position": 192, "begin": 42, "end": 42}, 
                {"id": 41, "text": "다", "type": "EF", "scode": "000000", "weight": 1, "position": 195, "begin": 43, "end": 43}, 
                {"id": 42, "text": ".", "type": "SF", "scode": "000000", "weight": 1, "position": 198, "begin": 44, "end": 44}
            ], 
            "word": [
                {"id": 0, "text": "『국부론』의", "type": "", "begin": 0, "end": 3}, 
                {"id": 1, "text": "저자인", "type": "", "begin": 4, "end": 6}, 
                {"id": 2, "text": "이", "type": "", "begin": 7, "end": 7}, 
                {"id": 3, "text": "사람은", "type": "", "begin": 8, "end": 9}, 
                {"id": 4, "text": "개인의", "type": "", "begin": 10, "end": 11}, 
                {"id": 5, "text": "자유로운", "type": "", "begin": 12, "end": 14}, 
                {"id": 6, "text": "이익", "type": "", "begin": 15, "end": 15}, 
                {"id": 7, "text": "추구", "type": "", "begin": 16, "end": 16}, 
                {"id": 8, "text": "활동은", "type": "", "begin": 17, "end": 18}, 
                {"id": 9, "text": "'보이지", "type": "", "begin": 19, "end": 21}, 
                {"id": 10, "text": "않는", "type": "", "begin": 22, "end": 23}, 
                {"id": 11, "text": "손'에", "type": "", "begin": 24, "end": 26}, 
                {"id": 12, "text": "의해", "type": "", "begin": 27, "end": 28}, 
                {"id": 13, "text": "조화를", "type": "", "begin": 29, "end": 30}, 
                {"id": 14, "text": "이루어", "type": "", "begin": 31, "end": 32}, 
                {"id": 15, "text": "사회", "type": "", "begin": 33, "end": 33}, 
                {"id": 16, "text": "전체의", "type": "", "begin": 34, "end": 35}, 
                {"id": 17, "text": "발전을", "type": "", "begin": 36, "end": 37}, 
                {"id": 18, "text": "가져온다고", "type": "", "begin": 38, "end": 39}, 
                {"id": 19, "text": "주장했다.", "type": "", "begin": 40, "end": 44}
            ], 
            "NE": [
                {"id": 0, "text": "국부론", "type": "AFW_DOCUMENT", "begin": 1, "end": 1, "weight": 0.454625, "common_noun": 0}, 
                {"id": 1, "text": "저자", "type": "CV_POSITION", "begin": 4, "end": 4, "weight": 0.454625, "common_noun": 0}, 
                {"id": 2, "text": "손", "type": "AM_PART", "begin": 24, "end": 24, "weight": 0.427372, "common_noun": 0}
            ], 
            "chunk": [], 
            "dependency": [
                {"id": 0, "text": "『국부론』의", "head": 1, "label": "NP_MOD", "mod": [], "weight": 0.613954}, 
                {"id": 1, "text": "저자인", "head": 3, "label": "VNP_MOD", "mod": [0], "weight": 0.613485}, 
                {"id": 2, "text": "이", "head": 3, "label": "DP", "mod": [], "weight": 0.633253}, 
                {"id": 3, "text": "사람은", "head": 19, "label": "NP_SBJ", "mod": [1, 2], "weight": 0.366039}, 
                {"id": 4, "text": "개인의", "head": 8, "label": "NP_MOD", "mod": [], "weight": 0.674282}, 
                {"id": 5, "text": "자유로운", "head": 8, "label": "VP_MOD", "mod": [], "weight": 0.689023}, 
                {"id": 6, "text": "이익", "head": 7, "label": "NP", "mod": [], "weight": 0.586775}, 
                {"id": 7, "text": "추구", "head": 8, "label": "NP", "mod": [6], "weight": 0.784187}, 
                {"id": 8, "text": "활동은", "head": 12, "label": "NP_SBJ", "mod": [4, 5, 7], "weight": 0.518132}, 
                {"id": 9, "text": "'보이지", "head": 10, "label": "VP", "mod": [], "weight": 0.695421}, 
                {"id": 10, "text": "않는", "head": 11, "label": "VP_MOD", "mod": [9], "weight": 0.679938}, 
                {"id": 11, "text": "손'에", "head": 12, "label": "NP_AJT", "mod": [10], "weight": 0.764193}, 
                {"id": 12, "text": "의해", "head": 14, "label": "VP", "mod": [8, 11], "weight": 0.76687}, 
                {"id": 13, "text": "조화를", "head": 14, "label": "NP_OBJ", "mod": [], "weight": 0.727198}, 
                {"id": 14, "text": "이루어", "head": 18, "label": "VP", "mod": [12, 13], "weight": 0.605523}, 
                {"id": 15, "text": "사회", "head": 16, "label": "NP", "mod": [], "weight": 0.639183}, 
                {"id": 16, "text": "전체의", "head": 17, "label": "NP_MOD", "mod": [15], "weight": 0.651877}, 
                {"id": 17, "text": "발전을", "head": 18, "label": "NP_OBJ", "mod": [16], "weight": 0.842429}, 
                {"id": 18, "text": "가져온다고", "head": 19, "label": "VP_CMP", "mod": [14, 17], "weight": 0.751663}, 
                {"id": 19, "text": "주장했다.", "head": -1, "label": "VP", "mod": [18, 3], "weight": 0.000268322}
            ], 
            "SRL": [
                {"verb": "자유", "sense": 1, "word_id": 5, "weight": 0.423844, "argument": [
                    {"type": "ARG1", "word_id": 8, "text": "활동은", "weight": 0.423844}
                ]}, 
                {"verb": "보이", "sense": 1, "word_id": 9, "weight": 0.286182, "argument": [
                    {"type": "ARGM-NEG", "word_id": 10, "text": "않는", "weight": 0.344322}, 
                    {"type": "ARG1", "word_id": 11, "text": "손'에", "weight": 0.270452}
                ]}, 
                {"verb": "의하", "sense": 1, "word_id": 12, "weight": 0.220988, "argument": [
                    {"type": "ARG2", "word_id": 11, "text": "손'에", "weight": 0.220988}, 
                    {"type": "ARG1", "word_id": 8, "text": "활동은", "weight": 1}
                ]}, 
                {"verb": "이루", "sense": 1, "word_id": 14, "weight": 0.20326, "argument": [
                    {"type": "ARGM-CAU", "word_id": 12, "text": "의해", "weight": 1}, 
                    {"type": "ARG1", "word_id": 13, "text": "조화를", "weight": 0.297489}, 
                    {"type": "ARG0", "word_id": 8, "text": "활동은", "weight": 1}
                ]}, 
                {"verb": "가져오", "sense": 1, "word_id": 18, "weight": 0.154111, "argument": [
                    {"type": "ARGM-CAU", "word_id": 14, "text": "이루어", "weight": 0.152437}, 
                    {"type": "ARG1", "word_id": 17, "text": "발전을", "weight": 0.155785}
                ]}, 
                {"verb": "주장", "sense": 1, "word_id": 19, "weight": 0.237798, "argument": [
                    {"type": "ARG0", "word_id": 3, "text": "사람은", "weight": 0.26482}, 
                    {"type": "ARG1", "word_id": 18, "text": "가져온다고", "weight": 0.210777}
                ]}
            ], 
            "relation": [], 
            "SA": [], 
            "ZA": []
        }, 
        {
            "id": 1, 
            "reserve_str": "", 
            "text": "영국의 경제학자인 이 사람은?", 
            "morp": [
                {"id": 0, "lemma": "영국", "type": "NNP", "position": 199, "weight": 0.9}, 
                {"id": 1, "lemma": "의", "type": "JKG", "position": 205, "weight": 0.0987295}, 
                {"id": 2, "lemma": "경제학", "type": "NNG", "position": 209, "weight": 0.9}, 
                {"id": 3, "lemma": "자", "type": "XSN", "position": 218, "weight": 0.00398741}, 
                {"id": 4, "lemma": "이", "type": "VCP", "position": 221, "weight": 0.0165001}, 
                {"id": 5, "lemma": "ㄴ", "type": "ETM", "position": 221, "weight": 0.220712}, 
                {"id": 6, "lemma": "이", "type": "MM", "position": 225, "weight": 0.00060084}, 
                {"id": 7, "lemma": "사람", "type": "NNG", "position": 229, "weight": 0.737436}, 
                {"id": 8, "lemma": "은", "type": "JX", "position": 235, "weight": 0.0449928}, 
                {"id": 9, "lemma": "?", "type": "SF", "position": 238, "weight": 1}
            ], 
            "morp_eval": [], 
            "WSD": [
                {"id": 0, "text": "영국", "type": "NNP", "scode": "010000", "weight": 0.5, "position": 199, "begin": 0, "end": 0}, 
                {"id": 1, "text": "의", "type": "JKG", "scode": "000000", "weight": 1, "position": 205, "begin": 1, "end": 1}, 
                {"id": 2, "text": "경제학자", "type": "NNG", "scode": "000000", "weight": 1, "position": 209, "begin": 2, "end": 3}, 
                {"id": 3, "text": "이", "type": "VCP", "scode": "030000", "weight": 0.0172414, "position": 221, "begin": 4, "end": 4}, 
                {"id": 4, "text": "ㄴ", "type": "ETM", "scode": "000000", "weight": 1, "position": 221, "begin": 5, "end": 5}, 
                {"id": 5, "text": "이", "type": "MM", "scode": "050002", "weight": 0.0172414, "position": 225, "begin": 6, "end": 6}, 
                {"id": 6, "text": "사람", "type": "NNG", "scode": "000001", "weight": 0.0909091, "position": 229, "begin": 7, "end": 7}, 
                {"id": 7, "text": "은", "type": "JX", "scode": "000000", "weight": 1, "position": 235, "begin": 8, "end": 8}, 
                {"id": 8, "text": "?", "type": "SF", "scode": "000000", "weight": 1, "position": 238, "begin": 9, "end": 9}
            ], 
            "word": [
                {"id": 0, "text": "영국의", "type": "", "begin": 0, "end": 1}, 
                {"id": 1, "text": "경제학자인", "type": "", "begin": 2, "end": 5}, 
                {"id": 2, "text": "이", "type": "", "begin": 6, "end": 6}, 
                {"id": 3, "text": "사람은?", "type": "", "begin": 7, "end": 9}
            ], 
            "NE": [
                {"id": 0, "text": "영국", "type": "LCP_COUNTRY", "begin": 0, "end": 0, "weight": 0.669065, "common_noun": 0}, 
                {"id": 1, "text": "경제학자", "type": "CV_OCCUPATION", "begin": 2, "end": 3, "weight": 0.74518, "common_noun": 0}
            ], 
            "chunk": [], 
            "dependency": [
                {"id": 0, "text": "영국의", "head": 1, "label": "NP_MOD", "mod": [], "weight": 0.796327}, 
                {"id": 1, "text": "경제학자인", "head": 3, "label": "VNP_MOD", "mod": [0], "weight": 0.751648}, 
                {"id": 2, "text": "이", "head": 3, "label": "DP", "mod": [], "weight": 0.667433}, 
                {"id": 3, "text": "사람은?", "head": -1, "label": "NP_SBJ", "mod": [1, 2], "weight": 0.160109}
            ], 
            "SRL": [], 
            "relation": [], 
            "SA": [], 
            "ZA": []
        }
    ], 
    "entity": [
        {"id": 0, "type": "CV_OCCUPATION", "number": "singular", "gender": "", "person": "", "animacy": "thing", "mention": [
            {"id": 0, "sent_id": 0, "start_eid": 0, "end_eid": 1, "ne_id": -1, "text": "『국부론』의 저자인", "start_eid_short": 1, "end_eid_short": 1, "text_short": "저자인"}, 
            {"id": 2, "sent_id": 0, "start_eid": 2, "end_eid": 3, "ne_id": -1, "text": "이 사람은", "start_eid_short": 2, "end_eid_short": 3, "text_short": "이 사람은"}, 
            {"id": 12, "sent_id": 1, "start_eid": 0, "end_eid": 1, "ne_id": 1, "text": "영국의 경제학자인", "start_eid_short": 1, "end_eid_short": 1, "text_short": "경제학자인"}, 
            {"id": 14, "sent_id": 1, "start_eid": 2, "end_eid": 3, "ne_id": -1, "text": "이 사람은?", "start_eid_short": 3, "end_eid_short": 3, "text_short": "사람은?"}
        ]}, 
        {"id": 1, "type": "AFW_DOCUMENT", "number": "singular", "gender": "", "person": "", "animacy": "thing", "mention": [
            {"id": 1, "sent_id": 0, "start_eid": 0, "end_eid": 0, "ne_id": 0, "text": "『국부론』의", "start_eid_short": 0, "end_eid_short": 0, "text_short": "『국부론』의"}
        ]}, 
        {"id": 2, "type": "", "number": "singular", "gender": "", "person": "", "animacy": "thing", "mention": [
            {"id": 3, "sent_id": 0, "start_eid": 4, "end_eid": 8, "ne_id": -1, "text": "개인의 자유로운 이익 추구 활동은", "start_eid_short": 6, "end_eid_short": 8, "text_short": "이익 추구 활동은"}
        ]}, 
        {"id": 3, "type": "", "number": "singular", "gender": "", "person": "", "animacy": "thing", "mention": [
            {"id": 5, "sent_id": 0, "start_eid": 4, "end_eid": 4, "ne_id": -1, "text": "개인의", "start_eid_short": 4, "end_eid_short": 4, "text_short": "개인의"}
        ]}, 
        {"id": 4, "type": "", "number": "singular", "gender": "", "person": "", "animacy": "thing", "mention": [
            {"id": 4, "sent_id": 0, "start_eid": 4, "end_eid": 7, "ne_id": -1, "text": "개인의 자유로운 이익 추구", "start_eid_short": 6, "end_eid_short": 7, "text_short": "이익 추구"}
        ]}, 
        {"id": 5, "type": "", "number": "singular", "gender": "", "person": "", "animacy": "thing", "mention": [
            {"id": 6, "sent_id": 0, "start_eid": 6, "end_eid": 6, "ne_id": -1, "text": "이익", "start_eid_short": 6, "end_eid_short": 6, "text_short": "이익"}
        ]}, 
        {"id": 6, "type": "AM_PART", "number": "singular", "gender": "", "person": "", "animacy": "animal", "mention": [
            {"id": 7, "sent_id": 0, "start_eid": 9, "end_eid": 11, "ne_id": 1, "text": "'보이지 않는 손'에", "start_eid_short": 11, "end_eid_short": 11, "text_short": "손'에"}
        ]}, 
        {"id": 7, "type": "", "number": "singular", "gender": "", "person": "", "animacy": "thing", "mention": [
            {"id": 8, "sent_id": 0, "start_eid": 13, "end_eid": 13, "ne_id": -1, "text": "조화를", "start_eid_short": 13, "end_eid_short": 13, "text_short": "조화를"}
        ]}, 
        {"id": 8, "type": "", "number": "singular", "gender": "", "person": "", "animacy": "thing", "mention": [
            {"id": 10, "sent_id": 0, "start_eid": 15, "end_eid": 16, "ne_id": -1, "text": "사회 전체의", "start_eid_short": 15, "end_eid_short": 16, "text_short": "사회 전체의"}
        ]}, 
        {"id": 9, "type": "", "number": "singular", "gender": "", "person": "", "animacy": "thing", "mention": [
            {"id": 11, "sent_id": 0, "start_eid": 15, "end_eid": 15, "ne_id": -1, "text": "사회", "start_eid_short": 15, "end_eid_short": 15, "text_short": "사회"}
        ]}, 
        {"id": 10, "type": "", "number": "singular", "gender": "", "person": "", "animacy": "thing", "mention": [
            {"id": 9, "sent_id": 0, "start_eid": 15, "end_eid": 17, "ne_id": -1, "text": "사회 전체의 발전을", "start_eid_short": 17, "end_eid_short": 17, "text_short": "발전을"}
        ]}, 
        {"id": 11, "type": "LCP_COUNTRY", "number": "singular", "gender": "", "person": "", "animacy": "place", "mention": [
            {"id": 13, "sent_id": 1, "start_eid": 0, "end_eid": 0, "ne_id": 0, "text": "영국의", "start_eid_short": 0, "end_eid_short": 0, "text_short": "영국의"}
        ]}
    ]
}