{
    "doc_id": "E2016.889.11_Q_01.json", 
    "DCT": "", 
    "category": "", 
    "category_weight": 0, 
    "title": {
        "text": "", 
        "NE": ""
    }, 
    "metaInfo": {}, 
    "sentence": [
        {
            "id": 0, 
            "reserve_str": "", 
            "text": "아리스토텔레스는 이 물질이 우주를 이루는 제5의 원소이며 성질이 변하지 않는 순수한 원소로 생각했다.", 
            "morp": [
                {"id": 0, "lemma": "아리스토텔레스", "type": "NNP", "position": 0, "weight": 0.9}, 
                {"id": 1, "lemma": "는", "type": "JX", "position": 21, "weight": 0.0332677}, 
                {"id": 2, "lemma": "이", "type": "MM", "position": 25, "weight": 0.00176496}, 
                {"id": 3, "lemma": "물질", "type": "NNG", "position": 29, "weight": 0.9}, 
                {"id": 4, "lemma": "이", "type": "JKS", "position": 35, "weight": 0.0360723}, 
                {"id": 5, "lemma": "우주", "type": "NNG", "position": 39, "weight": 0.9}, 
                {"id": 6, "lemma": "를", "type": "JKO", "position": 45, "weight": 0.137686}, 
                {"id": 7, "lemma": "이루", "type": "VV", "position": 49, "weight": 0.760047}, 
                {"id": 8, "lemma": "는", "type": "ETM", "position": 55, "weight": 0.184941}, 
                {"id": 9, "lemma": "제", "type": "XPN", "position": 59, "weight": 0.000887051}, 
                {"id": 10, "lemma": "5", "type": "SN", "position": 62, "weight": 1}, 
                {"id": 11, "lemma": "의", "type": "JKG", "position": 63, "weight": 0.00287531}, 
                {"id": 12, "lemma": "원소", "type": "NNG", "position": 67, "weight": 0.823826}, 
                {"id": 13, "lemma": "이", "type": "VCP", "position": 73, "weight": 0.0177525}, 
                {"id": 14, "lemma": "며", "type": "EC", "position": 76, "weight": 0.250555}, 
                {"id": 15, "lemma": "성질", "type": "NNG", "position": 80, "weight": 0.9}, 
                {"id": 16, "lemma": "이", "type": "JKS", "position": 86, "weight": 0.0360723}, 
                {"id": 17, "lemma": "변하", "type": "VV", "position": 90, "weight": 0.9}, 
                {"id": 18, "lemma": "지", "type": "EC", "position": 96, "weight": 0.301842}, 
                {"id": 19, "lemma": "않", "type": "VX", "position": 100, "weight": 0.256301}, 
                {"id": 20, "lemma": "는", "type": "ETM", "position": 103, "weight": 0.183966}, 
                {"id": 21, "lemma": "순수", "type": "NNG", "position": 107, "weight": 0.655234}, 
                {"id": 22, "lemma": "하", "type": "XSA", "position": 113, "weight": 0.0001}, 
                {"id": 23, "lemma": "ㄴ", "type": "ETM", "position": 113, "weight": 0.488779}, 
                {"id": 24, "lemma": "원소", "type": "NNG", "position": 117, "weight": 0.622842}, 
                {"id": 25, "lemma": "로", "type": "JKB", "position": 123, "weight": 0.153229}, 
                {"id": 26, "lemma": "생각", "type": "NNG", "position": 127, "weight": 0.9}, 
                {"id": 27, "lemma": "하", "type": "XSV", "position": 133, "weight": 0.0001}, 
                {"id": 28, "lemma": "았", "type": "EP", "position": 133, "weight": 0.9}, 
                {"id": 29, "lemma": "다", "type": "EF", "position": 136, "weight": 0.640954}, 
                {"id": 30, "lemma": ".", "type": "SF", "position": 139, "weight": 1}
            ], 
            "morp_eval": [], 
            "WSD": [
                {"id": 0, "text": "아리스토텔레스", "type": "NNP", "scode": "000000", "weight": 1, "position": 0, "begin": 0, "end": 0}, 
                {"id": 1, "text": "는", "type": "JX", "scode": "000000", "weight": 1, "position": 21, "begin": 1, "end": 1}, 
                {"id": 2, "text": "이", "type": "MM", "scode": "050101", "weight": 0.0172414, "position": 25, "begin": 2, "end": 2}, 
                {"id": 3, "text": "물질", "type": "NNG", "scode": "020003", "weight": 0.2, "position": 29, "begin": 3, "end": 3}, 
                {"id": 4, "text": "이", "type": "JKS", "scode": "000000", "weight": 1, "position": 35, "begin": 4, "end": 4}, 
                {"id": 5, "text": "우주", "type": "NNG", "scode": "020003", "weight": 0.142857, "position": 39, "begin": 5, "end": 5}, 
                {"id": 6, "text": "를", "type": "JKO", "scode": "000000", "weight": 1, "position": 45, "begin": 6, "end": 6}, 
                {"id": 7, "text": "이루", "type": "VV", "scode": "010103", "weight": 0.2, "position": 49, "begin": 7, "end": 7}, 
                {"id": 8, "text": "는", "type": "ETM", "scode": "000000", "weight": 1, "position": 55, "begin": 8, "end": 8}, 
                {"id": 9, "text": "제", "type": "XPN", "scode": "210000", "weight": 0.0322581, "position": 59, "begin": 9, "end": 9}, 
                {"id": 10, "text": "5", "type": "SN", "scode": "000000", "weight": 1, "position": 62, "begin": 10, "end": 10}, 
                {"id": 11, "text": "의", "type": "JKG", "scode": "000000", "weight": 1, "position": 63, "begin": 11, "end": 11}, 
                {"id": 12, "text": "원소", "type": "NNG", "scode": "020003", "weight": 0.0769231, "position": 67, "begin": 12, "end": 12}, 
                {"id": 13, "text": "이", "type": "VCP", "scode": "030000", "weight": 0.0172414, "position": 73, "begin": 13, "end": 13}, 
                {"id": 14, "text": "며", "type": "EC", "scode": "000000", "weight": 1, "position": 76, "begin": 14, "end": 14}, 
                {"id": 15, "text": "성질", "type": "NNG", "scode": "000002", "weight": 0.5, "position": 80, "begin": 15, "end": 15}, 
                {"id": 16, "text": "이", "type": "JKS", "scode": "000000", "weight": 1, "position": 86, "begin": 16, "end": 16}, 
                {"id": 17, "text": "변하", "type": "VV", "scode": "000000", "weight": 1, "position": 90, "begin": 17, "end": 17}, 
                {"id": 18, "text": "지", "type": "EC", "scode": "000000", "weight": 1, "position": 96, "begin": 18, "end": 18}, 
                {"id": 19, "text": "않", "type": "VX", "scode": "000200", "weight": 0.333333, "position": 100, "begin": 19, "end": 19}, 
                {"id": 20, "text": "는", "type": "ETM", "scode": "000000", "weight": 1, "position": 103, "begin": 20, "end": 20}, 
                {"id": 21, "text": "순수하", "type": "VA", "scode": "020001", "weight": 0.125, "position": 107, "begin": 21, "end": 22}, 
                {"id": 22, "text": "ㄴ", "type": "ETM", "scode": "000000", "weight": 1, "position": 113, "begin": 23, "end": 23}, 
                {"id": 23, "text": "원소", "type": "NNG", "scode": "020003", "weight": 0.0769231, "position": 117, "begin": 24, "end": 24}, 
                {"id": 24, "text": "로", "type": "JKB", "scode": "000000", "weight": 1, "position": 123, "begin": 25, "end": 25}, 
                {"id": 25, "text": "생각하", "type": "VV", "scode": "000101", "weight": 0.142857, "position": 127, "begin": 26, "end": 27}, 
                {"id": 26, "text": "았", "type": "EP", "scode": "000000", "weight": 1, "position": 133, "begin": 28, "end": 28}, 
                {"id": 27, "text": "다", "type": "EF", "scode": "000000", "weight": 1, "position": 136, "begin": 29, "end": 29}, 
                {"id": 28, "text": ".", "type": "SF", "scode": "000000", "weight": 1, "position": 139, "begin": 30, "end": 30}
            ], 
            "word": [
                {"id": 0, "text": "아리스토텔레스는", "type": "", "begin": 0, "end": 1}, 
                {"id": 1, "text": "이", "type": "", "begin": 2, "end": 2}, 
                {"id": 2, "text": "물질이", "type": "", "begin": 3, "end": 4}, 
                {"id": 3, "text": "우주를", "type": "", "begin": 5, "end": 6}, 
                {"id": 4, "text": "이루는", "type": "", "begin": 7, "end": 8}, 
                {"id": 5, "text": "제5의", "type": "", "begin": 9, "end": 11}, 
                {"id": 6, "text": "원소이며", "type": "", "begin": 12, "end": 14}, 
                {"id": 7, "text": "성질이", "type": "", "begin": 15, "end": 16}, 
                {"id": 8, "text": "변하지", "type": "", "begin": 17, "end": 18}, 
                {"id": 9, "text": "않는", "type": "", "begin": 19, "end": 20}, 
                {"id": 10, "text": "순수한", "type": "", "begin": 21, "end": 23}, 
                {"id": 11, "text": "원소로", "type": "", "begin": 24, "end": 25}, 
                {"id": 12, "text": "생각했다.", "type": "", "begin": 26, "end": 30}
            ], 
            "NE": [
                {"id": 0, "text": "아리스토텔레스", "type": "PS_NAME", "begin": 0, "end": 0, "weight": 1, "common_noun": 0}, 
                {"id": 1, "text": "제5", "type": "QT_ORDER", "begin": 9, "end": 10, "weight": 0.52279, "common_noun": 0}
            ], 
            "chunk": [], 
            "dependency": [
                {"id": 0, "text": "아리스토텔레스는", "head": 12, "label": "NP_SBJ", "mod": [], "weight": 0.462276}, 
                {"id": 1, "text": "이", "head": 2, "label": "DP", "mod": [], "weight": 0.728072}, 
                {"id": 2, "text": "물질이", "head": 6, "label": "NP_SBJ", "mod": [1], "weight": 0.792289}, 
                {"id": 3, "text": "우주를", "head": 4, "label": "NP_OBJ", "mod": [], "weight": 0.632183}, 
                {"id": 4, "text": "이루는", "head": 6, "label": "VP_MOD", "mod": [3], "weight": 0.564203}, 
                {"id": 5, "text": "제5의", "head": 6, "label": "NP_MOD", "mod": [], "weight": 0.765159}, 
                {"id": 6, "text": "원소이며", "head": 11, "label": "VNP", "mod": [4, 5, 2], "weight": 0.611525}, 
                {"id": 7, "text": "성질이", "head": 8, "label": "NP_SBJ", "mod": [], "weight": 0.811223}, 
                {"id": 8, "text": "변하지", "head": 9, "label": "VP", "mod": [7], "weight": 0.655405}, 
                {"id": 9, "text": "않는", "head": 11, "label": "VP_MOD", "mod": [8], "weight": 0.707178}, 
                {"id": 10, "text": "순수한", "head": 11, "label": "VP_MOD", "mod": [], "weight": 0.728737}, 
                {"id": 11, "text": "원소로", "head": 12, "label": "NP_AJT", "mod": [9, 10, 6], "weight": 0.83122}, 
                {"id": 12, "text": "생각했다.", "head": -1, "label": "VP", "mod": [11, 0], "weight": 0.00876915}
            ], 
            "SRL": [
                {"verb": "이루", "sense": 1, "word_id": 4, "weight": 0.202987, "argument": [
                    {"type": "ARG0", "word_id": 2, "text": "물질이", "weight": 0.200318}, 
                    {"type": "ARG1", "word_id": 3, "text": "우주를", "weight": 0.205655}
                ]}, 
                {"verb": "변하", "sense": 1, "word_id": 8, "weight": 0.31225, "argument": [
                    {"type": "ARG1", "word_id": 7, "text": "성질이", "weight": 0.191238}, 
                    {"type": "ARGM-NEG", "word_id": 9, "text": "않는", "weight": 0.433261}
                ]}, 
                {"verb": "순수", "sense": 1, "word_id": 10, "weight": 0.297357, "argument": [
                    {"type": "ARG1", "word_id": 11, "text": "원소로", "weight": 0.297357}
                ]}, 
                {"verb": "생각", "sense": 1, "word_id": 12, "weight": 0.0805703, "argument": [
                    {"type": "ARGM-PRD", "word_id": 11, "text": "원소로", "weight": 0.0805703}, 
                    {"type": "ARG0", "word_id": 0, "text": "아리스토텔레스는", "weight": 1}
                ]}
            ], 
            "relation": [], 
            "SA": [], 
            "ZA": []
        }, 
        {
            "id": 1, 
            "reserve_str": "", 
            "text": "후대 과학자들은 이 물질을 밝혀내기 위한 연구를 계속했으나 결국 존재하지 않는 것으로 밝혀졌는데 ‘맑고 깨끗한 공기’라는 뜻의 3음절의 이 물질은 무엇일까? ", 
            "morp": [
                {"id": 0, "lemma": "후대", "type": "NNG", "position": 140, "weight": 0.9}, 
                {"id": 1, "lemma": "과학자", "type": "NNG", "position": 147, "weight": 0.9}, 
                {"id": 2, "lemma": "들", "type": "XSN", "position": 156, "weight": 0.0103232}, 
                {"id": 3, "lemma": "은", "type": "JX", "position": 159, "weight": 0.100393}, 
                {"id": 4, "lemma": "이", "type": "MM", "position": 163, "weight": 0.00176496}, 
                {"id": 5, "lemma": "물질", "type": "NNG", "position": 167, "weight": 0.9}, 
                {"id": 6, "lemma": "을", "type": "JKO", "position": 173, "weight": 0.129611}, 
                {"id": 7, "lemma": "밝혀내", "type": "VV", "position": 177, "weight": 0.9}, 
                {"id": 8, "lemma": "기", "type": "ETN", "position": 186, "weight": 0.0380514}, 
                {"id": 9, "lemma": "위하", "type": "VV", "position": 190, "weight": 0.176484}, 
                {"id": 10, "lemma": "ㄴ", "type": "ETM", "position": 193, "weight": 0.304215}, 
                {"id": 11, "lemma": "연구", "type": "NNG", "position": 197, "weight": 0.9}, 
                {"id": 12, "lemma": "를", "type": "JKO", "position": 203, "weight": 0.137686}, 
                {"id": 13, "lemma": "계속", "type": "NNG", "position": 207, "weight": 0.00250775}, 
                {"id": 14, "lemma": "하", "type": "XSV", "position": 213, "weight": 0.0001}, 
                {"id": 15, "lemma": "았", "type": "EP", "position": 213, "weight": 0.9}, 
                {"id": 16, "lemma": "으나", "type": "EC", "position": 216, "weight": 0.197698}, 
                {"id": 17, "lemma": "결국", "type": "NNG", "position": 223, "weight": 0.219338}, 
                {"id": 18, "lemma": "존재", "type": "NNG", "position": 230, "weight": 0.9}, 
                {"id": 19, "lemma": "하", "type": "XSV", "position": 236, "weight": 0.0001}, 
                {"id": 20, "lemma": "지", "type": "EC", "position": 239, "weight": 0.260723}, 
                {"id": 21, "lemma": "않", "type": "VX", "position": 243, "weight": 0.256301}, 
                {"id": 22, "lemma": "는", "type": "ETM", "position": 246, "weight": 0.183966}, 
                {"id": 23, "lemma": "것", "type": "NNB", "position": 250, "weight": 0.228788}, 
                {"id": 24, "lemma": "으로", "type": "JKB", "position": 253, "weight": 0.135596}, 
                {"id": 25, "lemma": "밝혀지", "type": "VV", "position": 260, "weight": 0.9}, 
                {"id": 26, "lemma": "었", "type": "EP", "position": 266, "weight": 0.9}, 
                {"id": 27, "lemma": "는데", "type": "EC", "position": 269, "weight": 0.188154}, 
                {"id": 28, "lemma": "‘", "type": "SS", "position": 276, "weight": 1}, 
                {"id": 29, "lemma": "맑", "type": "VA", "position": 279, "weight": 0.0204673}, 
                {"id": 30, "lemma": "고", "type": "EC", "position": 282, "weight": 0.310376}, 
                {"id": 31, "lemma": "깨끗하", "type": "VA", "position": 286, "weight": 0.9}, 
                {"id": 32, "lemma": "ㄴ", "type": "ETM", "position": 292, "weight": 0.430446}, 
                {"id": 33, "lemma": "공기", "type": "NNG", "position": 296, "weight": 0.658597}, 
                {"id": 34, "lemma": "’", "type": "SS", "position": 302, "weight": 1}, 
                {"id": 35, "lemma": "이", "type": "VCP", "position": 305, "weight": 0.00747344}, 
                {"id": 36, "lemma": "라는", "type": "ETM", "position": 305, "weight": 0.230361}, 
                {"id": 37, "lemma": "뜻", "type": "NNG", "position": 312, "weight": 0.9}, 
                {"id": 38, "lemma": "의", "type": "JKG", "position": 315, "weight": 0.0694213}, 
                {"id": 39, "lemma": "3", "type": "SN", "position": 319, "weight": 1}, 
                {"id": 40, "lemma": "음절", "type": "NNG", "position": 320, "weight": 0.9}, 
                {"id": 41, "lemma": "의", "type": "JKG", "position": 326, "weight": 0.0694213}, 
                {"id": 42, "lemma": "이", "type": "MM", "position": 330, "weight": 0.00105968}, 
                {"id": 43, "lemma": "물질", "type": "NNG", "position": 334, "weight": 0.9}, 
                {"id": 44, "lemma": "은", "type": "JX", "position": 340, "weight": 0.0449928}, 
                {"id": 45, "lemma": "무엇", "type": "NP", "position": 344, "weight": 0.9}, 
                {"id": 46, "lemma": "이", "type": "VCP", "position": 350, "weight": 0.0175768}, 
                {"id": 47, "lemma": "ㄹ까", "type": "EF", "position": 350, "weight": 0.258243}, 
                {"id": 48, "lemma": "?", "type": "SF", "position": 356, "weight": 1}
            ], 
            "morp_eval": [], 
            "WSD": [
                {"id": 0, "text": "후대", "type": "NNG", "scode": "020001", "weight": 0.2, "position": 140, "begin": 0, "end": 0}, 
                {"id": 1, "text": "과학자", "type": "NNG", "scode": "000000", "weight": 1, "position": 147, "begin": 1, "end": 1}, 
                {"id": 2, "text": "들", "type": "XSN", "scode": "090000", "weight": 0.0909091, "position": 156, "begin": 2, "end": 2}, 
                {"id": 3, "text": "은", "type": "JX", "scode": "000000", "weight": 1, "position": 159, "begin": 3, "end": 3}, 
                {"id": 4, "text": "이", "type": "MM", "scode": "050102", "weight": 0.0172414, "position": 163, "begin": 4, "end": 4}, 
                {"id": 5, "text": "물질", "type": "NNG", "scode": "020003", "weight": 0.2, "position": 167, "begin": 5, "end": 5}, 
                {"id": 6, "text": "을", "type": "JKO", "scode": "000000", "weight": 1, "position": 173, "begin": 6, "end": 6}, 
                {"id": 7, "text": "밝혀내", "type": "VV", "scode": "000000", "weight": 1, "position": 177, "begin": 7, "end": 7}, 
                {"id": 8, "text": "기", "type": "ETN", "scode": "000000", "weight": 1, "position": 186, "begin": 8, "end": 8}, 
                {"id": 9, "text": "위하", "type": "VV", "scode": "010003", "weight": 0.25, "position": 190, "begin": 9, "end": 9}, 
                {"id": 10, "text": "ㄴ", "type": "ETM", "scode": "000000", "weight": 1, "position": 193, "begin": 10, "end": 10}, 
                {"id": 11, "text": "연구", "type": "NNG", "scode": "030000", "weight": 0.111111, "position": 197, "begin": 11, "end": 11}, 
                {"id": 12, "text": "를", "type": "JKO", "scode": "000000", "weight": 1, "position": 203, "begin": 12, "end": 12}, 
                {"id": 13, "text": "계속하", "type": "VV", "scode": "030001", "weight": 0.166667, "position": 207, "begin": 13, "end": 14}, 
                {"id": 14, "text": "았", "type": "EP", "scode": "000000", "weight": 1, "position": 213, "begin": 15, "end": 15}, 
                {"id": 15, "text": "으나", "type": "EC", "scode": "000000", "weight": 1, "position": 216, "begin": 16, "end": 16}, 
                {"id": 16, "text": "결국", "type": "NNG", "scode": "000001", "weight": 0.333333, "position": 223, "begin": 17, "end": 17}, 
                {"id": 17, "text": "존재하", "type": "VV", "scode": "000001", "weight": 0.5, "position": 230, "begin": 18, "end": 19}, 
                {"id": 18, "text": "지", "type": "EC", "scode": "000000", "weight": 1, "position": 239, "begin": 20, "end": 20}, 
                {"id": 19, "text": "않", "type": "VX", "scode": "000200", "weight": 0.333333, "position": 243, "begin": 21, "end": 21}, 
                {"id": 20, "text": "는", "type": "ETM", "scode": "000000", "weight": 1, "position": 246, "begin": 22, "end": 22}, 
                {"id": 21, "text": "것", "type": "NNB", "scode": "010001", "weight": 0.125, "position": 250, "begin": 23, "end": 23}, 
                {"id": 22, "text": "으로", "type": "JKB", "scode": "000000", "weight": 1, "position": 253, "begin": 24, "end": 24}, 
                {"id": 23, "text": "밝혀지", "type": "VV", "scode": "000002", "weight": 0.333333, "position": 260, "begin": 25, "end": 25}, 
                {"id": 24, "text": "었", "type": "EP", "scode": "000000", "weight": 1, "position": 266, "begin": 26, "end": 26}, 
                {"id": 25, "text": "는데", "type": "EC", "scode": "000000", "weight": 1, "position": 269, "begin": 27, "end": 27}, 
                {"id": 26, "text": "‘", "type": "SS", "scode": "000000", "weight": 1, "position": 276, "begin": 28, "end": 28}, 
                {"id": 27, "text": "맑", "type": "VA", "scode": "010001", "weight": 0.166667, "position": 279, "begin": 29, "end": 29}, 
                {"id": 28, "text": "고", "type": "EC", "scode": "000000", "weight": 1, "position": 282, "begin": 30, "end": 30}, 
                {"id": 29, "text": "깨끗하", "type": "VA", "scode": "000002", "weight": 0.111111, "position": 286, "begin": 31, "end": 31}, 
                {"id": 30, "text": "ㄴ", "type": "ETM", "scode": "000000", "weight": 1, "position": 292, "begin": 32, "end": 32}, 
                {"id": 31, "text": "공기", "type": "NNG", "scode": "060001", "weight": 0.0833333, "position": 296, "begin": 33, "end": 33}, 
                {"id": 32, "text": "’", "type": "SS", "scode": "000000", "weight": 1, "position": 302, "begin": 34, "end": 34}, 
                {"id": 33, "text": "이", "type": "VCP", "scode": "030000", "weight": 0.0172414, "position": 305, "begin": 35, "end": 35}, 
                {"id": 34, "text": "라는", "type": "ETM", "scode": "000000", "weight": 1, "position": 305, "begin": 36, "end": 36}, 
                {"id": 35, "text": "뜻", "type": "NNG", "scode": "000002", "weight": 0.333333, "position": 312, "begin": 37, "end": 37}, 
                {"id": 36, "text": "의", "type": "JKG", "scode": "000000", "weight": 1, "position": 315, "begin": 38, "end": 38}, 
                {"id": 37, "text": "3", "type": "SN", "scode": "000000", "weight": 1, "position": 319, "begin": 39, "end": 39}, 
                {"id": 38, "text": "음절", "type": "NNG", "scode": "000001", "weight": 0.5, "position": 320, "begin": 40, "end": 40}, 
                {"id": 39, "text": "의", "type": "JKG", "scode": "000000", "weight": 1, "position": 326, "begin": 41, "end": 41}, 
                {"id": 40, "text": "이", "type": "MM", "scode": "050102", "weight": 0.0172414, "position": 330, "begin": 42, "end": 42}, 
                {"id": 41, "text": "물질", "type": "NNG", "scode": "020003", "weight": 0.2, "position": 334, "begin": 43, "end": 43}, 
                {"id": 42, "text": "은", "type": "JX", "scode": "000000", "weight": 1, "position": 340, "begin": 44, "end": 44}, 
                {"id": 43, "text": "무엇", "type": "NP", "scode": "000001", "weight": 0.5, "position": 344, "begin": 45, "end": 45}, 
                {"id": 44, "text": "이", "type": "VCP", "scode": "030000", "weight": 0.0172414, "position": 350, "begin": 46, "end": 46}, 
                {"id": 45, "text": "ㄹ까", "type": "EF", "scode": "000000", "weight": 1, "position": 350, "begin": 47, "end": 47}, 
                {"id": 46, "text": "?", "type": "SF", "scode": "000000", "weight": 1, "position": 356, "begin": 48, "end": 48}
            ], 
            "word": [
                {"id": 0, "text": "후대", "type": "", "begin": 0, "end": 0}, 
                {"id": 1, "text": "과학자들은", "type": "", "begin": 1, "end": 3}, 
                {"id": 2, "text": "이", "type": "", "begin": 4, "end": 4}, 
                {"id": 3, "text": "물질을", "type": "", "begin": 5, "end": 6}, 
                {"id": 4, "text": "밝혀내기", "type": "", "begin": 7, "end": 8}, 
                {"id": 5, "text": "위한", "type": "", "begin": 9, "end": 10}, 
                {"id": 6, "text": "연구를", "type": "", "begin": 11, "end": 12}, 
                {"id": 7, "text": "계속했으나", "type": "", "begin": 13, "end": 16}, 
                {"id": 8, "text": "결국", "type": "", "begin": 17, "end": 17}, 
                {"id": 9, "text": "존재하지", "type": "", "begin": 18, "end": 20}, 
                {"id": 10, "text": "않는", "type": "", "begin": 21, "end": 22}, 
                {"id": 11, "text": "것으로", "type": "", "begin": 23, "end": 24}, 
                {"id": 12, "text": "밝혀졌는데", "type": "", "begin": 25, "end": 27}, 
                {"id": 13, "text": "‘맑고", "type": "", "begin": 28, "end": 30}, 
                {"id": 14, "text": "깨끗한", "type": "", "begin": 31, "end": 32}, 
                {"id": 15, "text": "공기’라는", "type": "", "begin": 33, "end": 36}, 
                {"id": 16, "text": "뜻의", "type": "", "begin": 37, "end": 38}, 
                {"id": 17, "text": "3음절의", "type": "", "begin": 39, "end": 41}, 
                {"id": 18, "text": "이", "type": "", "begin": 42, "end": 42}, 
                {"id": 19, "text": "물질은", "type": "", "begin": 43, "end": 44}, 
                {"id": 20, "text": "무엇일까?", "type": "", "begin": 45, "end": 48}
            ], 
            "NE": [
                {"id": 0, "text": "과학자", "type": "CV_OCCUPATION", "begin": 1, "end": 1, "weight": 0.386415, "common_noun": 0}, 
                {"id": 1, "text": "3음절", "type": "QT_COUNT", "begin": 39, "end": 40, "weight": 0.549582, "common_noun": 0}
            ], 
            "chunk": [], 
            "dependency": [
                {"id": 0, "text": "후대", "head": 1, "label": "NP", "mod": [], "weight": 0.774116}, 
                {"id": 1, "text": "과학자들은", "head": 7, "label": "NP_SBJ", "mod": [0], "weight": 0.785403}, 
                {"id": 2, "text": "이", "head": 3, "label": "DP", "mod": [], "weight": 0.699396}, 
                {"id": 3, "text": "물질을", "head": 4, "label": "NP_OBJ", "mod": [2], "weight": 0.285578}, 
                {"id": 4, "text": "밝혀내기", "head": 5, "label": "VP_OBJ", "mod": [3], "weight": 0.715237}, 
                {"id": 5, "text": "위한", "head": 6, "label": "VP_MOD", "mod": [4], "weight": 0.693554}, 
                {"id": 6, "text": "연구를", "head": 7, "label": "NP_OBJ", "mod": [5], "weight": 0.682497}, 
                {"id": 7, "text": "계속했으나", "head": 12, "label": "VP", "mod": [1, 6], "weight": 0.798601}, 
                {"id": 8, "text": "결국", "head": 12, "label": "NP_AJT", "mod": [], "weight": 0.30998}, 
                {"id": 9, "text": "존재하지", "head": 10, "label": "VP", "mod": [], "weight": 0.694682}, 
                {"id": 10, "text": "않는", "head": 11, "label": "VP_MOD", "mod": [9], "weight": 0.876334}, 
                {"id": 11, "text": "것으로", "head": 12, "label": "NP_AJT", "mod": [10], "weight": 0.854176}, 
                {"id": 12, "text": "밝혀졌는데", "head": 20, "label": "VP", "mod": [7, 11, 8], "weight": 0.775947}, 
                {"id": 13, "text": "‘맑고", "head": 14, "label": "VP", "mod": [], "weight": 0.636765}, 
                {"id": 14, "text": "깨끗한", "head": 15, "label": "VP_MOD", "mod": [13], "weight": 0.845875}, 
                {"id": 15, "text": "공기’라는", "head": 16, "label": "VNP_MOD", "mod": [14], "weight": 0.258554}, 
                {"id": 16, "text": "뜻의", "head": 19, "label": "NP_MOD", "mod": [15], "weight": 0.501804}, 
                {"id": 17, "text": "3음절의", "head": 19, "label": "NP_MOD", "mod": [], "weight": 0.691914}, 
                {"id": 18, "text": "이", "head": 19, "label": "DP", "mod": [], "weight": 0.726545}, 
                {"id": 19, "text": "물질은", "head": 20, "label": "NP_SBJ", "mod": [17, 18, 16], "weight": 0.799281}, 
                {"id": 20, "text": "무엇일까?", "head": -1, "label": "VNP", "mod": [12, 19], "weight": 0.000101683}
            ], 
            "SRL": [
                {"verb": "밝혀내", "sense": 1, "word_id": 4, "weight": 0.283745, "argument": [
                    {"type": "ARG1", "word_id": 3, "text": "물질을", "weight": 0.283745}
                ]}, 
                {"verb": "위하", "sense": 1, "word_id": 5, "weight": 0.203074, "argument": [
                    {"type": "ARG1", "word_id": 4, "text": "밝혀내기", "weight": 0.203527}, 
                    {"type": "ARG0", "word_id": 6, "text": "연구를", "weight": 0.202621}
                ]}, 
                {"verb": "계속", "sense": 1, "word_id": 7, "weight": 0.20189, "argument": [
                    {"type": "ARG0", "word_id": 1, "text": "과학자들은", "weight": 0.202214}, 
                    {"type": "ARG1", "word_id": 6, "text": "연구를", "weight": 0.201565}, 
                    {"type": "ARGM-PRP", "word_id": 5, "text": "위한", "weight": 1}
                ]}, 
                {"verb": "존재", "sense": 1, "word_id": 9, "weight": 0.166714, "argument": [
                    {"type": "ARGM-NEG", "word_id": 10, "text": "않는", "weight": 0.254588}, 
                    {"type": "ARG1", "word_id": 11, "text": "것으로", "weight": 1}
                ]}, 
                {"verb": "밝혀지", "sense": 1, "word_id": 12, "weight": 0.183595, "argument": [
                    {"type": "ARG2", "word_id": 11, "text": "것으로", "weight": 1}
                ]}, 
                {"verb": "맑", "sense": 1, "word_id": 13, "weight": 0, "argument": [
                    {"type": "ARG1", "word_id": 15, "text": "공기’라는", "weight": 1}
                ]}, 
                {"verb": "깨끗하", "sense": 1, "word_id": 14, "weight": 0.273389, "argument": [
                    {"type": "ARG1", "word_id": 15, "text": "공기’라는", "weight": 0.273389}
                ]}
            ], 
            "relation": [], 
            "SA": [], 
            "ZA": []
        }
    ], 
    "entity": [
        {"id": 0, "type": "PS_NAME", "number": "singular", "gender": "", "person": "", "animacy": "human", "mention": [
            {"id": 0, "sent_id": 0, "start_eid": 0, "end_eid": 0, "ne_id": 0, "text": "아리스토텔레스는", "start_eid_short": 0, "end_eid_short": 0, "text_short": "아리스토텔레스는"}
        ]}, 
        {"id": 1, "type": "QT_COUNT", "number": "singular", "gender": "", "person": "", "animacy": "thing", "mention": [
            {"id": 1, "sent_id": 0, "start_eid": 1, "end_eid": 2, "ne_id": -1, "text": "이 물질이", "start_eid_short": 1, "end_eid_short": 2, "text_short": "이 물질이"}, 
            {"id": 2, "sent_id": 0, "start_eid": 3, "end_eid": 11, "ne_id": -1, "text": "우주를 이루는 제5의 원소이며 성질이 변하지 않는 순수한 원소로", "start_eid_short": 11, "end_eid_short": 11, "text_short": "원소로"}, 
            {"id": 3, "sent_id": 0, "start_eid": 3, "end_eid": 6, "ne_id": -1, "text": "우주를 이루는 제5의 원소이며", "start_eid_short": 6, "end_eid_short": 6, "text_short": "원소이며"}, 
            {"id": 7, "sent_id": 1, "start_eid": 0, "end_eid": 11, "ne_id": -1, "text": "후대 과학자들은 이 물질을 밝혀내기 위한 연구를 계속했으나 결국 존재하지 않는 것으로", "start_eid_short": 11, "end_eid_short": 11, "text_short": "것으로"}, 
            {"id": 11, "sent_id": 1, "start_eid": 2, "end_eid": 3, "ne_id": -1, "text": "이 물질을", "start_eid_short": 2, "end_eid_short": 3, "text_short": "이 물질을"}, 
            {"id": 13, "sent_id": 1, "start_eid": 13, "end_eid": 17, "ne_id": 1, "text": "‘맑고 깨끗한 공기’라는 뜻의 3음절의", "start_eid_short": 17, "end_eid_short": 17, "text_short": "3음절의"}, 
            {"id": 14, "sent_id": 1, "start_eid": 13, "end_eid": 16, "ne_id": -1, "text": "‘맑고 깨끗한 공기’라는 뜻의", "start_eid_short": 16, "end_eid_short": 16, "text_short": "뜻의"}, 
            {"id": 15, "sent_id": 1, "start_eid": 13, "end_eid": 15, "ne_id": -1, "text": "‘맑고 깨끗한 공기’라는", "start_eid_short": 15, "end_eid_short": 15, "text_short": "공기’라는"}, 
            {"id": 16, "sent_id": 1, "start_eid": 18, "end_eid": 19, "ne_id": -1, "text": "이 물질은", "start_eid_short": 18, "end_eid_short": 19, "text_short": "이 물질은"}, 
            {"id": 17, "sent_id": 1, "start_eid": 20, "end_eid": 20, "ne_id": -1, "text": "무엇일까?", "start_eid_short": 20, "end_eid_short": 20, "text_short": "무엇일까?"}
        ]}, 
        {"id": 2, "type": "", "number": "singular", "gender": "", "person": "", "animacy": "thing", "mention": [
            {"id": 4, "sent_id": 0, "start_eid": 3, "end_eid": 3, "ne_id": -1, "text": "우주를", "start_eid_short": 3, "end_eid_short": 3, "text_short": "우주를"}
        ]}, 
        {"id": 3, "type": "QT_ORDER", "number": "singular", "gender": "", "person": "", "animacy": "thing", "mention": [
            {"id": 5, "sent_id": 0, "start_eid": 5, "end_eid": 5, "ne_id": 1, "text": "제5의", "start_eid_short": 5, "end_eid_short": 5, "text_short": "제5의"}
        ]}, 
        {"id": 4, "type": "", "number": "singular", "gender": "", "person": "", "animacy": "thing", "mention": [
            {"id": 6, "sent_id": 0, "start_eid": 7, "end_eid": 7, "ne_id": -1, "text": "성질이", "start_eid_short": 7, "end_eid_short": 7, "text_short": "성질이"}
        ]}, 
        {"id": 5, "type": "CV_OCCUPATION", "number": "singular", "gender": "", "person": "", "animacy": "thing", "mention": [
            {"id": 8, "sent_id": 1, "start_eid": 0, "end_eid": 1, "ne_id": 0, "text": "후대 과학자들은", "start_eid_short": 0, "end_eid_short": 1, "text_short": "후대 과학자들은"}
        ]}, 
        {"id": 6, "type": "", "number": "singular", "gender": "", "person": "", "animacy": "thing", "mention": [
            {"id": 9, "sent_id": 1, "start_eid": 0, "end_eid": 0, "ne_id": -1, "text": "후대", "start_eid_short": 0, "end_eid_short": 0, "text_short": "후대"}
        ]}, 
        {"id": 7, "type": "", "number": "singular", "gender": "", "person": "", "animacy": "thing", "mention": [
            {"id": 10, "sent_id": 1, "start_eid": 2, "end_eid": 6, "ne_id": -1, "text": "이 물질을 밝혀내기 위한 연구를", "start_eid_short": 6, "end_eid_short": 6, "text_short": "연구를"}
        ]}, 
        {"id": 8, "type": "", "number": "singular", "gender": "", "person": "", "animacy": "thing", "mention": [
            {"id": 12, "sent_id": 1, "start_eid": 8, "end_eid": 8, "ne_id": -1, "text": "결국", "start_eid_short": 8, "end_eid_short": 8, "text_short": "결국"}
        ]}
    ]
}