{
    "doc_id": "E2016.889.17_Q_01.json", 
    "DCT": "", 
    "category": "", 
    "category_weight": 0, 
    "title": {
        "text": "", 
        "NE": ""
    }, 
    "metaInfo": {}, 
    "sentence": [
        {
            "id": 0, 
            "reserve_str": "", 
            "text": "이것은 은 중심의 경제 체제가 확립된 중국 청대에 실시한 세금 제도로 인두세를 토지세에 부과해 토지를 기준으로 은을 납부하게 한 제도다.", 
            "morp": [
                {"id": 0, "lemma": "이것", "type": "NP", "position": 0, "weight": 0.0733657}, 
                {"id": 1, "lemma": "은", "type": "JX", "position": 6, "weight": 0.191811}, 
                {"id": 2, "lemma": "은", "type": "NNG", "position": 10, "weight": 0.000421692}, 
                {"id": 3, "lemma": "중심", "type": "NNG", "position": 14, "weight": 0.9}, 
                {"id": 4, "lemma": "의", "type": "JKG", "position": 20, "weight": 0.0694213}, 
                {"id": 5, "lemma": "경제", "type": "NNG", "position": 24, "weight": 0.871357}, 
                {"id": 6, "lemma": "체제", "type": "NNG", "position": 31, "weight": 0.9}, 
                {"id": 7, "lemma": "가", "type": "JKS", "position": 37, "weight": 0.066324}, 
                {"id": 8, "lemma": "확립", "type": "NNG", "position": 41, "weight": 0.9}, 
                {"id": 9, "lemma": "되", "type": "XSV", "position": 47, "weight": 0.000224177}, 
                {"id": 10, "lemma": "ㄴ", "type": "ETM", "position": 47, "weight": 0.392321}, 
                {"id": 11, "lemma": "중국", "type": "NNP", "position": 51, "weight": 0.0280505}, 
                {"id": 12, "lemma": "청", "type": "NNP", "position": 58, "weight": 0.134865}, 
                {"id": 13, "lemma": "대", "type": "NNG", "position": 61, "weight": 0.0277971}, 
                {"id": 14, "lemma": "에", "type": "JKB", "position": 64, "weight": 0.153364}, 
                {"id": 15, "lemma": "실시", "type": "NNG", "position": 68, "weight": 0.9}, 
                {"id": 16, "lemma": "하", "type": "XSV", "position": 74, "weight": 0.0001}, 
                {"id": 17, "lemma": "ㄴ", "type": "ETM", "position": 74, "weight": 0.392321}, 
                {"id": 18, "lemma": "세금", "type": "NNG", "position": 78, "weight": 0.9}, 
                {"id": 19, "lemma": "제도", "type": "NNG", "position": 85, "weight": 0.9}, 
                {"id": 20, "lemma": "로", "type": "JKB", "position": 91, "weight": 0.153229}, 
                {"id": 21, "lemma": "인두", "type": "NNG", "position": 95, "weight": 0.9}, 
                {"id": 22, "lemma": "세", "type": "NNG", "position": 101, "weight": 0.00867074}, 
                {"id": 23, "lemma": "를", "type": "JKO", "position": 104, "weight": 0.137686}, 
                {"id": 24, "lemma": "토지", "type": "NNG", "position": 108, "weight": 0.100507}, 
                {"id": 25, "lemma": "세", "type": "NNG", "position": 114, "weight": 0.00867074}, 
                {"id": 26, "lemma": "에", "type": "JKB", "position": 117, "weight": 0.153364}, 
                {"id": 27, "lemma": "부과", "type": "NNG", "position": 121, "weight": 0.9}, 
                {"id": 28, "lemma": "하", "type": "XSV", "position": 127, "weight": 0.0001}, 
                {"id": 29, "lemma": "아", "type": "EC", "position": 127, "weight": 0.361326}, 
                {"id": 30, "lemma": "토지", "type": "NNG", "position": 131, "weight": 0.217485}, 
                {"id": 31, "lemma": "를", "type": "JKO", "position": 137, "weight": 0.137686}, 
                {"id": 32, "lemma": "기준", "type": "NNG", "position": 141, "weight": 0.10102}, 
                {"id": 33, "lemma": "으로", "type": "JKB", "position": 147, "weight": 0.153406}, 
                {"id": 34, "lemma": "은", "type": "NNG", "position": 154, "weight": 0.000270008}, 
                {"id": 35, "lemma": "을", "type": "JKO", "position": 157, "weight": 0.129611}, 
                {"id": 36, "lemma": "납부", "type": "NNG", "position": 161, "weight": 0.9}, 
                {"id": 37, "lemma": "하", "type": "XSV", "position": 167, "weight": 0.0001}, 
                {"id": 38, "lemma": "게", "type": "EC", "position": 170, "weight": 0.369675}, 
                {"id": 39, "lemma": "하", "type": "VX", "position": 174, "weight": 0.0899221}, 
                {"id": 40, "lemma": "ㄴ", "type": "ETM", "position": 174, "weight": 0.302612}, 
                {"id": 41, "lemma": "제도", "type": "NNG", "position": 178, "weight": 0.9}, 
                {"id": 42, "lemma": "이", "type": "VCP", "position": 181, "weight": 0.0177525}, 
                {"id": 43, "lemma": "다", "type": "EF", "position": 184, "weight": 0.353579}, 
                {"id": 44, "lemma": ".", "type": "SF", "position": 187, "weight": 1}
            ], 
            "morp_eval": [], 
            "WSD": [
                {"id": 0, "text": "이것", "type": "NP", "scode": "000001", "weight": 0.25, "position": 0, "begin": 0, "end": 0}, 
                {"id": 1, "text": "은", "type": "JX", "scode": "000000", "weight": 1, "position": 6, "begin": 1, "end": 1}, 
                {"id": 2, "text": "은", "type": "NNG", "scode": "040000", "weight": 0.1, "position": 10, "begin": 2, "end": 2}, 
                {"id": 3, "text": "중심", "type": "NNG", "scode": "010002", "weight": 0.125, "position": 14, "begin": 3, "end": 3}, 
                {"id": 4, "text": "의", "type": "JKG", "scode": "000000", "weight": 1, "position": 20, "begin": 4, "end": 4}, 
                {"id": 5, "text": "경제", "type": "NNG", "scode": "040001", "weight": 0.111111, "position": 24, "begin": 5, "end": 5}, 
                {"id": 6, "text": "체제", "type": "NNG", "scode": "020002", "weight": 0.166667, "position": 31, "begin": 6, "end": 6}, 
                {"id": 7, "text": "가", "type": "JKS", "scode": "000000", "weight": 1, "position": 37, "begin": 7, "end": 7}, 
                {"id": 8, "text": "확립되", "type": "VV", "scode": "000000", "weight": 1, "position": 41, "begin": 8, "end": 9}, 
                {"id": 9, "text": "ㄴ", "type": "ETM", "scode": "000000", "weight": 1, "position": 47, "begin": 10, "end": 10}, 
                {"id": 10, "text": "중국", "type": "NNP", "scode": "010000", "weight": 0.5, "position": 51, "begin": 11, "end": 11}, 
                {"id": 11, "text": "청대", "type": "NNP", "scode": "000000", "weight": 0.0833333, "position": 58, "begin": 12, "end": 13}, 
                {"id": 12, "text": "에", "type": "JKB", "scode": "000000", "weight": 1, "position": 64, "begin": 14, "end": 14}, 
                {"id": 13, "text": "실시하", "type": "VV", "scode": "030000", "weight": 0.333333, "position": 68, "begin": 15, "end": 16}, 
                {"id": 14, "text": "ㄴ", "type": "ETM", "scode": "000000", "weight": 1, "position": 74, "begin": 17, "end": 17}, 
                {"id": 15, "text": "세금", "type": "NNG", "scode": "010000", "weight": 0.5, "position": 78, "begin": 18, "end": 18}, 
                {"id": 16, "text": "제도", "type": "NNG", "scode": "010000", "weight": 0.0769231, "position": 85, "begin": 19, "end": 19}, 
                {"id": 17, "text": "로", "type": "JKB", "scode": "000000", "weight": 1, "position": 91, "begin": 20, "end": 20}, 
                {"id": 18, "text": "인두세", "type": "NNG", "scode": "000000", "weight": 1, "position": 95, "begin": 21, "end": 22}, 
                {"id": 19, "text": "를", "type": "JKO", "scode": "000000", "weight": 1, "position": 104, "begin": 23, "end": 23}, 
                {"id": 20, "text": "토지세", "type": "NNG", "scode": "000002", "weight": 0.5, "position": 108, "begin": 24, "end": 25}, 
                {"id": 21, "text": "에", "type": "JKB", "scode": "000000", "weight": 1, "position": 117, "begin": 26, "end": 26}, 
                {"id": 22, "text": "부과하", "type": "VV", "scode": "030001", "weight": 0.2, "position": 121, "begin": 27, "end": 28}, 
                {"id": 23, "text": "아", "type": "EC", "scode": "000000", "weight": 1, "position": 127, "begin": 29, "end": 29}, 
                {"id": 24, "text": "토지", "type": "NNG", "scode": "020001", "weight": 0.25, "position": 131, "begin": 30, "end": 30}, 
                {"id": 25, "text": "를", "type": "JKO", "scode": "000000", "weight": 1, "position": 137, "begin": 31, "end": 31}, 
                {"id": 26, "text": "기준", "type": "NNG", "scode": "030000", "weight": 0.2, "position": 141, "begin": 32, "end": 32}, 
                {"id": 27, "text": "으로", "type": "JKB", "scode": "000000", "weight": 1, "position": 147, "begin": 33, "end": 33}, 
                {"id": 28, "text": "은", "type": "NNG", "scode": "040000", "weight": 0.1, "position": 154, "begin": 34, "end": 34}, 
                {"id": 29, "text": "을", "type": "JKO", "scode": "000000", "weight": 1, "position": 157, "begin": 35, "end": 35}, 
                {"id": 30, "text": "납부하", "type": "VV", "scode": "000000", "weight": 1, "position": 161, "begin": 36, "end": 37}, 
                {"id": 31, "text": "게", "type": "EC", "scode": "000000", "weight": 1, "position": 170, "begin": 38, "end": 38}, 
                {"id": 32, "text": "하", "type": "VX", "scode": "011101", "weight": 0.02, "position": 174, "begin": 39, "end": 39}, 
                {"id": 33, "text": "ㄴ", "type": "ETM", "scode": "000000", "weight": 1, "position": 174, "begin": 40, "end": 40}, 
                {"id": 34, "text": "제도", "type": "NNG", "scode": "010000", "weight": 0.0769231, "position": 178, "begin": 41, "end": 41}, 
                {"id": 35, "text": "이", "type": "VCP", "scode": "030000", "weight": 0.0172414, "position": 181, "begin": 42, "end": 42}, 
                {"id": 36, "text": "다", "type": "EF", "scode": "000000", "weight": 1, "position": 184, "begin": 43, "end": 43}, 
                {"id": 37, "text": ".", "type": "SF", "scode": "000000", "weight": 1, "position": 187, "begin": 44, "end": 44}
            ], 
            "word": [
                {"id": 0, "text": "이것은", "type": "", "begin": 0, "end": 1}, 
                {"id": 1, "text": "은", "type": "", "begin": 2, "end": 2}, 
                {"id": 2, "text": "중심의", "type": "", "begin": 3, "end": 4}, 
                {"id": 3, "text": "경제", "type": "", "begin": 5, "end": 5}, 
                {"id": 4, "text": "체제가", "type": "", "begin": 6, "end": 7}, 
                {"id": 5, "text": "확립된", "type": "", "begin": 8, "end": 10}, 
                {"id": 6, "text": "중국", "type": "", "begin": 11, "end": 11}, 
                {"id": 7, "text": "청대에", "type": "", "begin": 12, "end": 14}, 
                {"id": 8, "text": "실시한", "type": "", "begin": 15, "end": 17}, 
                {"id": 9, "text": "세금", "type": "", "begin": 18, "end": 18}, 
                {"id": 10, "text": "제도로", "type": "", "begin": 19, "end": 20}, 
                {"id": 11, "text": "인두세를", "type": "", "begin": 21, "end": 23}, 
                {"id": 12, "text": "토지세에", "type": "", "begin": 24, "end": 26}, 
                {"id": 13, "text": "부과해", "type": "", "begin": 27, "end": 29}, 
                {"id": 14, "text": "토지를", "type": "", "begin": 30, "end": 31}, 
                {"id": 15, "text": "기준으로", "type": "", "begin": 32, "end": 33}, 
                {"id": 16, "text": "은을", "type": "", "begin": 34, "end": 35}, 
                {"id": 17, "text": "납부하게", "type": "", "begin": 36, "end": 38}, 
                {"id": 18, "text": "한", "type": "", "begin": 39, "end": 40}, 
                {"id": 19, "text": "제도다.", "type": "", "begin": 41, "end": 44}
            ], 
            "NE": [
                {"id": 0, "text": "중국", "type": "LCP_COUNTRY", "begin": 11, "end": 11, "weight": 0.549294, "common_noun": 0}, 
                {"id": 1, "text": "청대", "type": "DT_DYNASTY", "begin": 12, "end": 13, "weight": 0.660845, "common_noun": 0}, 
                {"id": 2, "text": "인두세", "type": "CV_TAX", "begin": 21, "end": 22, "weight": 0.497065, "common_noun": 0}, 
                {"id": 3, "text": "토지세", "type": "CV_TAX", "begin": 24, "end": 25, "weight": 0.403292, "common_noun": 0}, 
                {"id": 4, "text": "은", "type": "MT_METAL", "begin": 34, "end": 34, "weight": 0.368326, "common_noun": 0}
            ], 
            "chunk": [], 
            "dependency": [
                {"id": 0, "text": "이것은", "head": 10, "label": "NP_SBJ", "mod": [], "weight": 0.0144565}, 
                {"id": 1, "text": "은", "head": 2, "label": "NP", "mod": [], "weight": 0.571991}, 
                {"id": 2, "text": "중심의", "head": 4, "label": "NP_MOD", "mod": [1], "weight": 0.609468}, 
                {"id": 3, "text": "경제", "head": 4, "label": "NP", "mod": [], "weight": 0.74248}, 
                {"id": 4, "text": "체제가", "head": 5, "label": "NP_SBJ", "mod": [2, 3], "weight": 0.358211}, 
                {"id": 5, "text": "확립된", "head": 7, "label": "VP_MOD", "mod": [4], "weight": 0.396806}, 
                {"id": 6, "text": "중국", "head": 7, "label": "NP", "mod": [], "weight": 0.766609}, 
                {"id": 7, "text": "청대에", "head": 8, "label": "NP_AJT", "mod": [5, 6], "weight": 0.690057}, 
                {"id": 8, "text": "실시한", "head": 10, "label": "VP_MOD", "mod": [7], "weight": 0.626576}, 
                {"id": 9, "text": "세금", "head": 10, "label": "NP", "mod": [], "weight": 0.781313}, 
                {"id": 10, "text": "제도로", "head": 13, "label": "NP_AJT", "mod": [0, 8, 9], "weight": 0.715744}, 
                {"id": 11, "text": "인두세를", "head": 13, "label": "NP_OBJ", "mod": [], "weight": 0.768024}, 
                {"id": 12, "text": "토지세에", "head": 13, "label": "NP_AJT", "mod": [], "weight": 0.618591}, 
                {"id": 13, "text": "부과해", "head": 17, "label": "VP", "mod": [10, 11, 12], "weight": 0.893033}, 
                {"id": 14, "text": "토지를", "head": 15, "label": "NP_OBJ", "mod": [], "weight": 0.262172}, 
                {"id": 15, "text": "기준으로", "head": 17, "label": "NP_AJT", "mod": [14], "weight": 0.686671}, 
                {"id": 16, "text": "은을", "head": 17, "label": "NP_OBJ", "mod": [], "weight": 0.71011}, 
                {"id": 17, "text": "납부하게", "head": 18, "label": "VP", "mod": [13, 15, 16], "weight": 0.547652}, 
                {"id": 18, "text": "한", "head": 19, "label": "VP_MOD", "mod": [17], "weight": 0.780088}, 
                {"id": 19, "text": "제도다.", "head": -1, "label": "VNP", "mod": [18], "weight": 1.91777e-06}
            ], 
            "SRL": [
                {"verb": "확립", "sense": 1, "word_id": 5, "weight": 0.13927, "argument": [
                    {"type": "ARG1", "word_id": 4, "text": "체제가", "weight": 0.13927}, 
                    {"type": "ARGM-CND", "word_id": 2, "text": "중심의", "weight": 1}, 
                    {"type": "ARGM-TMP", "word_id": 7, "text": "청대에", "weight": 1}
                ]}, 
                {"verb": "실시", "sense": 1, "word_id": 8, "weight": 0.242066, "argument": [
                    {"type": "ARGM-TMP", "word_id": 7, "text": "청대에", "weight": 0.178767}, 
                    {"type": "ARG1", "word_id": 10, "text": "제도로", "weight": 0.305366}
                ]}, 
                {"verb": "부과", "sense": 1, "word_id": 13, "weight": 0.214912, "argument": [
                    {"type": "ARG1", "word_id": 11, "text": "인두세를", "weight": 0.264553}, 
                    {"type": "ARG2", "word_id": 12, "text": "토지세에", "weight": 0.165271}, 
                    {"type": "ARGM-PRD", "word_id": 10, "text": "제도로", "weight": 1}
                ]}, 
                {"verb": "납부", "sense": 1, "word_id": 17, "weight": 0.220745, "argument": [
                    {"type": "ARGM-CND", "word_id": 15, "text": "기준으로", "weight": 1}, 
                    {"type": "ARG1", "word_id": 16, "text": "은을", "weight": 0.318937}, 
                    {"type": "AUX", "word_id": 18, "text": "한", "weight": 0.276041}
                ]}
            ], 
            "relation": [], 
            "SA": [], 
            "ZA": []
        }, 
        {
            "id": 1, 
            "reserve_str": "", 
            "text": "이 제도는 무엇일까? ", 
            "morp": [
                {"id": 0, "lemma": "이", "type": "MM", "position": 188, "weight": 0.0020222}, 
                {"id": 1, "lemma": "제도", "type": "NNG", "position": 192, "weight": 0.9}, 
                {"id": 2, "lemma": "는", "type": "JX", "position": 198, "weight": 0.0287565}, 
                {"id": 3, "lemma": "무엇", "type": "NP", "position": 202, "weight": 0.9}, 
                {"id": 4, "lemma": "이", "type": "VCP", "position": 208, "weight": 0.0175768}, 
                {"id": 5, "lemma": "ㄹ까", "type": "EF", "position": 208, "weight": 0.258243}, 
                {"id": 6, "lemma": "?", "type": "SF", "position": 214, "weight": 1}
            ], 
            "morp_eval": [], 
            "WSD": [
                {"id": 0, "text": "이", "type": "MM", "scode": "050102", "weight": 0.0172414, "position": 188, "begin": 0, "end": 0}, 
                {"id": 1, "text": "제도", "type": "NNG", "scode": "010000", "weight": 0.0769231, "position": 192, "begin": 1, "end": 1}, 
                {"id": 2, "text": "는", "type": "JX", "scode": "000000", "weight": 1, "position": 198, "begin": 2, "end": 2}, 
                {"id": 3, "text": "무엇", "type": "NP", "scode": "000001", "weight": 0.5, "position": 202, "begin": 3, "end": 3}, 
                {"id": 4, "text": "이", "type": "VCP", "scode": "030000", "weight": 0.0172414, "position": 208, "begin": 4, "end": 4}, 
                {"id": 5, "text": "ㄹ까", "type": "EF", "scode": "000000", "weight": 1, "position": 208, "begin": 5, "end": 5}, 
                {"id": 6, "text": "?", "type": "SF", "scode": "000000", "weight": 1, "position": 214, "begin": 6, "end": 6}
            ], 
            "word": [
                {"id": 0, "text": "이", "type": "", "begin": 0, "end": 0}, 
                {"id": 1, "text": "제도는", "type": "", "begin": 1, "end": 2}, 
                {"id": 2, "text": "무엇일까?", "type": "", "begin": 3, "end": 6}
            ], 
            "NE": [], 
            "chunk": [], 
            "dependency": [
                {"id": 0, "text": "이", "head": 1, "label": "DP", "mod": [], "weight": 0.600153}, 
                {"id": 1, "text": "제도는", "head": 2, "label": "NP_SBJ", "mod": [0], "weight": 0.887023}, 
                {"id": 2, "text": "무엇일까?", "head": -1, "label": "VNP", "mod": [1], "weight": 0.461264}
            ], 
            "SRL": [], 
            "relation": [], 
            "SA": [], 
            "ZA": []
        }
    ], 
    "entity": [
        {"id": 0, "type": "", "number": "singular", "gender": "", "person": "", "animacy": "thing", "mention": [
            {"id": 0, "sent_id": 0, "start_eid": 0, "end_eid": 0, "ne_id": -1, "text": "이것은", "start_eid_short": 0, "end_eid_short": 0, "text_short": "이것은"}, 
            {"id": 1, "sent_id": 0, "start_eid": 1, "end_eid": 10, "ne_id": -1, "text": "은 중심의 경제 체제가 확립된 중국 청대에 실시한 세금 제도로", "start_eid_short": 9, "end_eid_short": 10, "text_short": "세금 제도로"}, 
            {"id": 9, "sent_id": 0, "start_eid": 11, "end_eid": 19, "ne_id": -1, "text": "인두세를 토지세에 부과해 토지를 기준으로 은을 납부하게 한 제도다.", "start_eid_short": 19, "end_eid_short": 19, "text_short": "제도다."}, 
            {"id": 15, "sent_id": 1, "start_eid": 0, "end_eid": 1, "ne_id": -1, "text": "이 제도는", "start_eid_short": 0, "end_eid_short": 1, "text_short": "이 제도는"}, 
            {"id": 16, "sent_id": 1, "start_eid": 2, "end_eid": 2, "ne_id": -1, "text": "무엇일까?", "start_eid_short": 2, "end_eid_short": 2, "text_short": "무엇일까?"}
        ]}, 
        {"id": 1, "type": "DT_DYNASTY", "number": "singular", "gender": "", "person": "", "animacy": "time", "mention": [
            {"id": 2, "sent_id": 0, "start_eid": 1, "end_eid": 7, "ne_id": 1, "text": "은 중심의 경제 체제가 확립된 중국 청대에", "start_eid_short": 6, "end_eid_short": 7, "text_short": "중국 청대에"}
        ]}, 
        {"id": 2, "type": "", "number": "singular", "gender": "", "person": "", "animacy": "thing", "mention": [
            {"id": 4, "sent_id": 0, "start_eid": 1, "end_eid": 2, "ne_id": -1, "text": "은 중심의", "start_eid_short": 1, "end_eid_short": 2, "text_short": "은 중심의"}
        ]}, 
        {"id": 3, "type": "MT_METAL", "number": "singular", "gender": "", "person": "", "animacy": "thing", "mention": [
            {"id": 5, "sent_id": 0, "start_eid": 1, "end_eid": 1, "ne_id": -1, "text": "은", "start_eid_short": 1, "end_eid_short": 1, "text_short": "은"}, 
            {"id": 14, "sent_id": 0, "start_eid": 16, "end_eid": 16, "ne_id": 4, "text": "은을", "start_eid_short": 16, "end_eid_short": 16, "text_short": "은을"}
        ]}, 
        {"id": 4, "type": "", "number": "singular", "gender": "", "person": "", "animacy": "thing", "mention": [
            {"id": 3, "sent_id": 0, "start_eid": 1, "end_eid": 4, "ne_id": -1, "text": "은 중심의 경제 체제가", "start_eid_short": 3, "end_eid_short": 4, "text_short": "경제 체제가"}
        ]}, 
        {"id": 5, "type": "", "number": "singular", "gender": "", "person": "", "animacy": "thing", "mention": [
            {"id": 6, "sent_id": 0, "start_eid": 3, "end_eid": 3, "ne_id": -1, "text": "경제", "start_eid_short": 3, "end_eid_short": 3, "text_short": "경제"}
        ]}, 
        {"id": 6, "type": "LCP_COUNTRY", "number": "singular", "gender": "", "person": "", "animacy": "place", "mention": [
            {"id": 7, "sent_id": 0, "start_eid": 6, "end_eid": 6, "ne_id": 0, "text": "중국", "start_eid_short": 6, "end_eid_short": 6, "text_short": "중국"}
        ]}, 
        {"id": 7, "type": "", "number": "singular", "gender": "", "person": "", "animacy": "thing", "mention": [
            {"id": 8, "sent_id": 0, "start_eid": 9, "end_eid": 9, "ne_id": -1, "text": "세금", "start_eid_short": 9, "end_eid_short": 9, "text_short": "세금"}
        ]}, 
        {"id": 8, "type": "CV_TAX", "number": "singular", "gender": "", "person": "", "animacy": "thing", "mention": [
            {"id": 10, "sent_id": 0, "start_eid": 11, "end_eid": 11, "ne_id": 2, "text": "인두세를", "start_eid_short": 11, "end_eid_short": 11, "text_short": "인두세를"}
        ]}, 
        {"id": 9, "type": "CV_TAX", "number": "singular", "gender": "", "person": "", "animacy": "thing", "mention": [
            {"id": 11, "sent_id": 0, "start_eid": 12, "end_eid": 12, "ne_id": 3, "text": "토지세에", "start_eid_short": 12, "end_eid_short": 12, "text_short": "토지세에"}
        ]}, 
        {"id": 10, "type": "", "number": "singular", "gender": "", "person": "", "animacy": "thing", "mention": [
            {"id": 12, "sent_id": 0, "start_eid": 14, "end_eid": 15, "ne_id": -1, "text": "토지를 기준으로", "start_eid_short": 15, "end_eid_short": 15, "text_short": "기준으로"}
        ]}, 
        {"id": 11, "type": "", "number": "singular", "gender": "", "person": "", "animacy": "thing", "mention": [
            {"id": 13, "sent_id": 0, "start_eid": 14, "end_eid": 14, "ne_id": -1, "text": "토지를", "start_eid_short": 14, "end_eid_short": 14, "text_short": "토지를"}
        ]}
    ]
}