{
    "doc_id": "E2016.837.34_A_02.json", 
    "DCT": "", 
    "category": "", 
    "category_weight": 0, 
    "title": {
        "text": "맥놀이", 
        "NE": ""
    }, 
    "metaInfo": {}, 
    "sentence": [
        {
            "id": 0, 
            "reserve_str": "", 
            "text": "주파수가 비슷한 두 파가 중첩이 되면 진폭의 포락선(包絡線)이 주기적으로 변하여 진폭이 커졌다가 작아졌다 한다.", 
            "morp": [
                {"id": 0, "lemma": "주파", "type": "NNG", "position": 0, "weight": 0.9}, 
                {"id": 1, "lemma": "수", "type": "NNG", "position": 6, "weight": 0.00933311}, 
                {"id": 2, "lemma": "가", "type": "JKS", "position": 9, "weight": 0.066324}, 
                {"id": 3, "lemma": "비슷하", "type": "VA", "position": 13, "weight": 0.9}, 
                {"id": 4, "lemma": "ㄴ", "type": "ETM", "position": 19, "weight": 0.430446}, 
                {"id": 5, "lemma": "두", "type": "MM", "position": 23, "weight": 0.00826235}, 
                {"id": 6, "lemma": "파", "type": "NNG", "position": 27, "weight": 0.367303}, 
                {"id": 7, "lemma": "가", "type": "JKS", "position": 30, "weight": 0.066324}, 
                {"id": 8, "lemma": "중첩", "type": "NNG", "position": 34, "weight": 0.9}, 
                {"id": 9, "lemma": "이", "type": "JKC", "position": 40, "weight": 0.000287945}, 
                {"id": 10, "lemma": "되", "type": "VV", "position": 44, "weight": 0.542406}, 
                {"id": 11, "lemma": "면", "type": "EC", "position": 47, "weight": 0.399365}, 
                {"id": 12, "lemma": "진폭", "type": "NNG", "position": 51, "weight": 0.9}, 
                {"id": 13, "lemma": "의", "type": "JKG", "position": 57, "weight": 0.0694213}, 
                {"id": 14, "lemma": "포락", "type": "NNG", "position": 61, "weight": 0.1}, 
                {"id": 15, "lemma": "선", "type": "NNG", "position": 67, "weight": 0.164164}, 
                {"id": 16, "lemma": "(", "type": "SS", "position": 70, "weight": 1}, 
                {"id": 17, "lemma": "包絡線", "type": "SH", "position": 71, "weight": 1}, 
                {"id": 18, "lemma": ")", "type": "SS", "position": 80, "weight": 1}, 
                {"id": 19, "lemma": "이", "type": "JKS", "position": 81, "weight": 0.00786134}, 
                {"id": 20, "lemma": "주기", "type": "NNG", "position": 85, "weight": 0.18907}, 
                {"id": 21, "lemma": "적", "type": "XSN", "position": 91, "weight": 0.0169769}, 
                {"id": 22, "lemma": "으로", "type": "JKB", "position": 94, "weight": 0.153406}, 
                {"id": 23, "lemma": "변하", "type": "VV", "position": 101, "weight": 0.9}, 
                {"id": 24, "lemma": "아", "type": "EC", "position": 107, "weight": 0.41831}, 
                {"id": 25, "lemma": "진폭", "type": "NNG", "position": 111, "weight": 0.9}, 
                {"id": 26, "lemma": "이", "type": "JKS", "position": 117, "weight": 0.0360723}, 
                {"id": 27, "lemma": "커지", "type": "VV", "position": 121, "weight": 0.9}, 
                {"id": 28, "lemma": "었", "type": "EP", "position": 124, "weight": 0.9}, 
                {"id": 29, "lemma": "다가", "type": "EC", "position": 127, "weight": 0.188685}, 
                {"id": 30, "lemma": "작아지", "type": "VV", "position": 134, "weight": 0.9}, 
                {"id": 31, "lemma": "었", "type": "EP", "position": 140, "weight": 0.9}, 
                {"id": 32, "lemma": "다", "type": "EF", "position": 143, "weight": 0.640954}, 
                {"id": 33, "lemma": "하", "type": "VV", "position": 147, "weight": 0.0001}, 
                {"id": 34, "lemma": "ㄴ다", "type": "EF", "position": 147, "weight": 0.0793196}, 
                {"id": 35, "lemma": ".", "type": "SF", "position": 153, "weight": 1}
            ], 
            "morp_eval": [], 
            "WSD": [
                {"id": 0, "text": "주파수", "type": "NNG", "scode": "000001", "weight": 0.5, "position": 0, "begin": 0, "end": 1}, 
                {"id": 1, "text": "가", "type": "JKS", "scode": "000000", "weight": 1, "position": 9, "begin": 2, "end": 2}, 
                {"id": 2, "text": "비슷하", "type": "VA", "scode": "020100", "weight": 0.25, "position": 13, "begin": 3, "end": 3}, 
                {"id": 3, "text": "ㄴ", "type": "ETM", "scode": "000000", "weight": 1, "position": 19, "begin": 4, "end": 4}, 
                {"id": 4, "text": "두", "type": "MM", "scode": "010000", "weight": 0.0909091, "position": 23, "begin": 5, "end": 5}, 
                {"id": 5, "text": "파", "type": "NNG", "scode": "030004", "weight": 0.0526316, "position": 27, "begin": 6, "end": 6}, 
                {"id": 6, "text": "가", "type": "JKS", "scode": "000000", "weight": 1, "position": 30, "begin": 7, "end": 7}, 
                {"id": 7, "text": "중첩", "type": "NNG", "scode": "020000", "weight": 0.333333, "position": 34, "begin": 8, "end": 8}, 
                {"id": 8, "text": "이", "type": "JKC", "scode": "000000", "weight": 1, "position": 40, "begin": 9, "end": 9}, 
                {"id": 9, "text": "되", "type": "VV", "scode": "010202", "weight": 0.03125, "position": 44, "begin": 10, "end": 10}, 
                {"id": 10, "text": "면", "type": "EC", "scode": "000000", "weight": 1, "position": 47, "begin": 11, "end": 11}, 
                {"id": 11, "text": "진폭", "type": "NNG", "scode": "010000", "weight": 0.5, "position": 51, "begin": 12, "end": 12}, 
                {"id": 12, "text": "의", "type": "JKG", "scode": "000000", "weight": 1, "position": 57, "begin": 13, "end": 13}, 
                {"id": 13, "text": "포락선", "type": "NNG", "scode": "000000", "weight": 1, "position": 61, "begin": 14, "end": 15}, 
                {"id": 14, "text": "(", "type": "SS", "scode": "000000", "weight": 1, "position": 70, "begin": 16, "end": 16}, 
                {"id": 15, "text": "包絡線", "type": "SH", "scode": "000000", "weight": 1, "position": 71, "begin": 17, "end": 17}, 
                {"id": 16, "text": ")", "type": "SS", "scode": "000000", "weight": 1, "position": 80, "begin": 18, "end": 18}, 
                {"id": 17, "text": "이", "type": "JKS", "scode": "000000", "weight": 1, "position": 81, "begin": 19, "end": 19}, 
                {"id": 18, "text": "주기적", "type": "NNG", "scode": "000000", "weight": 1, "position": 85, "begin": 20, "end": 21}, 
                {"id": 19, "text": "으로", "type": "JKB", "scode": "000000", "weight": 1, "position": 94, "begin": 22, "end": 22}, 
                {"id": 20, "text": "변하", "type": "VV", "scode": "000000", "weight": 1, "position": 101, "begin": 23, "end": 23}, 
                {"id": 21, "text": "아", "type": "EC", "scode": "000000", "weight": 1, "position": 107, "begin": 24, "end": 24}, 
                {"id": 22, "text": "진폭", "type": "NNG", "scode": "010000", "weight": 0.5, "position": 111, "begin": 25, "end": 25}, 
                {"id": 23, "text": "이", "type": "JKS", "scode": "000000", "weight": 1, "position": 117, "begin": 26, "end": 26}, 
                {"id": 24, "text": "커지", "type": "VV", "scode": "000000", "weight": 1, "position": 121, "begin": 27, "end": 27}, 
                {"id": 25, "text": "었", "type": "EP", "scode": "000000", "weight": 1, "position": 124, "begin": 28, "end": 28}, 
                {"id": 26, "text": "다가", "type": "EC", "scode": "000000", "weight": 1, "position": 127, "begin": 29, "end": 29}, 
                {"id": 27, "text": "작아지", "type": "VV", "scode": "000000", "weight": 1, "position": 134, "begin": 30, "end": 30}, 
                {"id": 28, "text": "었", "type": "EP", "scode": "000000", "weight": 1, "position": 140, "begin": 31, "end": 31}, 
                {"id": 29, "text": "다", "type": "EF", "scode": "000000", "weight": 1, "position": 143, "begin": 32, "end": 32}, 
                {"id": 30, "text": "하", "type": "VV", "scode": "010101", "weight": 0.02, "position": 147, "begin": 33, "end": 33}, 
                {"id": 31, "text": "ㄴ다", "type": "EF", "scode": "000000", "weight": 1, "position": 147, "begin": 34, "end": 34}, 
                {"id": 32, "text": ".", "type": "SF", "scode": "000000", "weight": 1, "position": 153, "begin": 35, "end": 35}
            ], 
            "word": [
                {"id": 0, "text": "주파수가", "type": "", "begin": 0, "end": 2}, 
                {"id": 1, "text": "비슷한", "type": "", "begin": 3, "end": 4}, 
                {"id": 2, "text": "두", "type": "", "begin": 5, "end": 5}, 
                {"id": 3, "text": "파가", "type": "", "begin": 6, "end": 7}, 
                {"id": 4, "text": "중첩이", "type": "", "begin": 8, "end": 9}, 
                {"id": 5, "text": "되면", "type": "", "begin": 10, "end": 11}, 
                {"id": 6, "text": "진폭의", "type": "", "begin": 12, "end": 13}, 
                {"id": 7, "text": "포락선(包絡線)이", "type": "", "begin": 14, "end": 19}, 
                {"id": 8, "text": "주기적으로", "type": "", "begin": 20, "end": 22}, 
                {"id": 9, "text": "변하여", "type": "", "begin": 23, "end": 24}, 
                {"id": 10, "text": "진폭이", "type": "", "begin": 25, "end": 26}, 
                {"id": 11, "text": "커졌다가", "type": "", "begin": 27, "end": 29}, 
                {"id": 12, "text": "작아졌다", "type": "", "begin": 30, "end": 32}, 
                {"id": 13, "text": "한다.", "type": "", "begin": 33, "end": 35}
            ], 
            "NE": [
                {"id": 0, "text": "두 파", "type": "QT_COUNT", "begin": 5, "end": 6, "weight": 0.485227, "common_noun": 0}
            ], 
            "chunk": [], 
            "dependency": [
                {"id": 0, "text": "주파수가", "head": 1, "label": "NP_SBJ", "mod": [], "weight": 0.74627}, 
                {"id": 1, "text": "비슷한", "head": 3, "label": "VP_MOD", "mod": [0], "weight": 0.734769}, 
                {"id": 2, "text": "두", "head": 3, "label": "DP", "mod": [], "weight": 0.576968}, 
                {"id": 3, "text": "파가", "head": 5, "label": "NP_SBJ", "mod": [1, 2], "weight": 0.786402}, 
                {"id": 4, "text": "중첩이", "head": 5, "label": "NP_CMP", "mod": [], "weight": 0.869314}, 
                {"id": 5, "text": "되면", "head": 9, "label": "VP", "mod": [3, 4], "weight": 0.806389}, 
                {"id": 6, "text": "진폭의", "head": 7, "label": "NP_MOD", "mod": [], "weight": 0.739506}, 
                {"id": 7, "text": "포락선(包絡線)이", "head": 9, "label": "NP_SBJ", "mod": [6], "weight": 0.663003}, 
                {"id": 8, "text": "주기적으로", "head": 9, "label": "NP_AJT", "mod": [], "weight": 0.831962}, 
                {"id": 9, "text": "변하여", "head": 11, "label": "VP", "mod": [5, 7, 8], "weight": 0.771836}, 
                {"id": 10, "text": "진폭이", "head": 11, "label": "NP_SBJ", "mod": [], "weight": 0.791093}, 
                {"id": 11, "text": "커졌다가", "head": 12, "label": "VP", "mod": [9, 10], "weight": 0.661279}, 
                {"id": 12, "text": "작아졌다", "head": 13, "label": "VP", "mod": [11], "weight": 0.584973}, 
                {"id": 13, "text": "한다.", "head": -1, "label": "VP", "mod": [12], "weight": 0.0152008}
            ], 
            "SRL": [
                {"verb": "비슷하", "sense": 1, "word_id": 1, "weight": 0.144551, "argument": [
                    {"type": "ARG2", "word_id": 0, "text": "주파수가", "weight": 1}, 
                    {"type": "ARG1", "word_id": 3, "text": "파가", "weight": 1}, 
                    {"type": "ARGM-EXT", "word_id": 2, "text": "두", "weight": 1}
                ]}, 
                {"verb": "되", "sense": 1, "word_id": 5, "weight": 0.220425, "argument": [
                    {"type": "ARG1", "word_id": 3, "text": "파가", "weight": 0.258663}, 
                    {"type": "ARG2", "word_id": 4, "text": "중첩이", "weight": 0.182186}
                ]}, 
                {"verb": "변하", "sense": 1, "word_id": 9, "weight": 0.166888, "argument": [
                    {"type": "ARGM-CND", "word_id": 5, "text": "되면", "weight": 0.153394}, 
                    {"type": "ARG1", "word_id": 7, "text": "포락선(包絡線)이", "weight": 0.178672}, 
                    {"type": "ARGM-MNR", "word_id": 8, "text": "주기적으로", "weight": 0.168598}
                ]}, 
                {"verb": "커지", "sense": 1, "word_id": 11, "weight": 0.21756, "argument": [
                    {"type": "ARG1", "word_id": 10, "text": "진폭이", "weight": 0.21756}, 
                    {"type": "ARGM-CAU", "word_id": 9, "text": "변하여", "weight": 1}
                ]}, 
                {"verb": "작아지", "sense": 1, "word_id": 12, "weight": 0.196524, "argument": [
                    {"type": "ARG1", "word_id": 10, "text": "진폭이", "weight": 0.222629}
                ]}, 
                {"verb": "하", "sense": 1, "word_id": 13, "weight": 0, "argument": [
                    {"type": "ARGM-PRD", "word_id": 12, "text": "작아졌다", "weight": 1}, 
                    {"type": "ARG1", "word_id": 10, "text": "진폭이", "weight": 1}, 
                    {"type": "ARGM-PRD", "word_id": 11, "text": "커졌다가", "weight": 1}
                ]}
            ], 
            "relation": [], 
            "SA": [], 
            "ZA": []
        }, 
        {
            "id": 1, 
            "reserve_str": "", 
            "text": "이를 맥놀이라고 한다.", 
            "morp": [
                {"id": 0, "lemma": "이", "type": "NP", "position": 154, "weight": 0.00185676}, 
                {"id": 1, "lemma": "를", "type": "JKO", "position": 157, "weight": 0.0808985}, 
                {"id": 2, "lemma": "맥놀이", "type": "NNG", "position": 161, "weight": 0.6}, 
                {"id": 3, "lemma": "이", "type": "VCP", "position": 167, "weight": 0.00359898}, 
                {"id": 4, "lemma": "라고", "type": "EC", "position": 170, "weight": 0.204147}, 
                {"id": 5, "lemma": "하", "type": "VV", "position": 177, "weight": 0.140183}, 
                {"id": 6, "lemma": "ㄴ다", "type": "EF", "position": 177, "weight": 0.0793196}, 
                {"id": 7, "lemma": ".", "type": "SF", "position": 183, "weight": 1}
            ], 
            "morp_eval": [], 
            "WSD": [
                {"id": 0, "text": "이", "type": "NP", "scode": "050002", "weight": 0.0172414, "position": 154, "begin": 0, "end": 0}, 
                {"id": 1, "text": "를", "type": "JKO", "scode": "000000", "weight": 1, "position": 157, "begin": 1, "end": 1}, 
                {"id": 2, "text": "맥놀이", "type": "NNG", "scode": "000000", "weight": 1, "position": 161, "begin": 2, "end": 2}, 
                {"id": 3, "text": "이", "type": "VCP", "scode": "030000", "weight": 0.0172414, "position": 167, "begin": 3, "end": 3}, 
                {"id": 4, "text": "라고", "type": "EC", "scode": "000000", "weight": 1, "position": 170, "begin": 4, "end": 4}, 
                {"id": 5, "text": "하", "type": "VV", "scode": "010400", "weight": 0.02, "position": 177, "begin": 5, "end": 5}, 
                {"id": 6, "text": "ㄴ다", "type": "EF", "scode": "000000", "weight": 1, "position": 177, "begin": 6, "end": 6}, 
                {"id": 7, "text": ".", "type": "SF", "scode": "000000", "weight": 1, "position": 183, "begin": 7, "end": 7}
            ], 
            "word": [
                {"id": 0, "text": "이를", "type": "", "begin": 0, "end": 1}, 
                {"id": 1, "text": "맥놀이라고", "type": "", "begin": 2, "end": 4}, 
                {"id": 2, "text": "한다.", "type": "", "begin": 5, "end": 7}
            ], 
            "NE": [], 
            "chunk": [], 
            "dependency": [
                {"id": 0, "text": "이를", "head": 1, "label": "NP_OBJ", "mod": [], "weight": 0.862654}, 
                {"id": 1, "text": "맥놀이라고", "head": 2, "label": "VNP_CMP", "mod": [0], "weight": 0.433491}, 
                {"id": 2, "text": "한다.", "head": -1, "label": "VP", "mod": [1], "weight": 0.320237}
            ], 
            "SRL": [
                {"verb": "하", "sense": 2, "word_id": 2, "weight": 0.207646, "argument": [
                    {"type": "ARG2", "word_id": 1, "text": "맥놀이라고", "weight": 0.207646}, 
                    {"type": "ARG1", "word_id": 0, "text": "이를", "weight": 1}
                ]}
            ], 
            "relation": [], 
            "SA": [], 
            "ZA": []
        }
    ], 
    "entity": [
        {"id": 0, "type": "QT_COUNT", "number": "singular", "gender": "", "person": "", "animacy": "thing", "mention": [
            {"id": 0, "sent_id": 0, "start_eid": 0, "end_eid": 3, "ne_id": 0, "text": "주파수가 비슷한 두 파가", "start_eid_short": 2, "end_eid_short": 3, "text_short": "두 파가"}
        ]}, 
        {"id": 1, "type": "", "number": "singular", "gender": "", "person": "", "animacy": "thing", "mention": [
            {"id": 1, "sent_id": 0, "start_eid": 0, "end_eid": 0, "ne_id": -1, "text": "주파수가", "start_eid_short": 0, "end_eid_short": 0, "text_short": "주파수가"}
        ]}, 
        {"id": 2, "type": "", "number": "singular", "gender": "", "person": "", "animacy": "thing", "mention": [
            {"id": 2, "sent_id": 0, "start_eid": 4, "end_eid": 4, "ne_id": -1, "text": "중첩이", "start_eid_short": 4, "end_eid_short": 4, "text_short": "중첩이"}
        ]}, 
        {"id": 3, "type": "", "number": "singular", "gender": "", "person": "", "animacy": "thing", "mention": [
            {"id": 4, "sent_id": 0, "start_eid": 6, "end_eid": 6, "ne_id": -1, "text": "진폭의", "start_eid_short": 6, "end_eid_short": 6, "text_short": "진폭의"}, 
            {"id": 6, "sent_id": 0, "start_eid": 10, "end_eid": 10, "ne_id": -1, "text": "진폭이", "start_eid_short": 10, "end_eid_short": 10, "text_short": "진폭이"}
        ]}, 
        {"id": 4, "type": "", "number": "singular", "gender": "", "person": "", "animacy": "thing", "mention": [
            {"id": 5, "sent_id": 0, "start_eid": 8, "end_eid": 8, "ne_id": -1, "text": "주기적으로", "start_eid_short": 8, "end_eid_short": 8, "text_short": "주기적으로"}
        ]}, 
        {"id": 5, "type": "", "number": "singular", "gender": "", "person": "", "animacy": "thing", "mention": [
            {"id": 7, "sent_id": 1, "start_eid": 0, "end_eid": 0, "ne_id": -1, "text": "이를", "start_eid_short": 0, "end_eid_short": 0, "text_short": "이를"}, 
            {"id": 8, "sent_id": 1, "start_eid": 1, "end_eid": 1, "ne_id": -1, "text": "맥놀이라고", "start_eid_short": 1, "end_eid_short": 1, "text_short": "맥놀이라고"}
        ]}, 
        {"id": 6, "type": "", "number": "singular", "gender": "", "person": "", "animacy": "thing", "mention": [
            {"id": 3, "sent_id": 0, "start_eid": 6, "end_eid": 7, "ne_id": -1, "text": "진폭의 포락선(包絡線)이", "start_eid_short": 7, "end_eid_short": 7, "text_short": "포락선(包絡線)이"}
        ]}
    ]
}