{
    "doc_id": "E2016.835.23_A_02.json", 
    "DCT": "", 
    "category": "", 
    "category_weight": 0, 
    "title": {
        "text": "몽테뉴", 
        "NE": ""
    }, 
    "metaInfo": {}, 
    "sentence": [
        {
            "id": 0, 
            "reserve_str": "", 
            "text": "<인명> 프랑스의 사상가(1533~1592).", 
            "morp": [
                {"id": 0, "lemma": "<", "type": "SS", "position": 0, "weight": 1}, 
                {"id": 1, "lemma": "인명", "type": "NNG", "position": 1, "weight": 0.153379}, 
                {"id": 2, "lemma": ">", "type": "SS", "position": 7, "weight": 1}, 
                {"id": 3, "lemma": "프랑스", "type": "NNP", "position": 9, "weight": 0.0674443}, 
                {"id": 4, "lemma": "의", "type": "JKG", "position": 18, "weight": 0.0987295}, 
                {"id": 5, "lemma": "사상", "type": "NNG", "position": 22, "weight": 0.868188}, 
                {"id": 6, "lemma": "가", "type": "XSN", "position": 28, "weight": 0.000115417}, 
                {"id": 7, "lemma": "(", "type": "SS", "position": 31, "weight": 1}, 
                {"id": 8, "lemma": "1533", "type": "SN", "position": 32, "weight": 1}, 
                {"id": 9, "lemma": "~", "type": "SO", "position": 36, "weight": 1}, 
                {"id": 10, "lemma": "1592", "type": "SN", "position": 37, "weight": 1}, 
                {"id": 11, "lemma": ")", "type": "SS", "position": 41, "weight": 1}, 
                {"id": 12, "lemma": ".", "type": "SF", "position": 42, "weight": 1}
            ], 
            "morp_eval": [], 
            "WSD": [
                {"id": 0, "text": "<", "type": "SS", "scode": "000000", "weight": 1, "position": 0, "begin": 0, "end": 0}, 
                {"id": 1, "text": "인명", "type": "NNG", "scode": "010000", "weight": 0.2, "position": 1, "begin": 1, "end": 1}, 
                {"id": 2, "text": ">", "type": "SS", "scode": "000000", "weight": 1, "position": 7, "begin": 2, "end": 2}, 
                {"id": 3, "text": "프랑스", "type": "NNP", "scode": "020000", "weight": 0.5, "position": 9, "begin": 3, "end": 3}, 
                {"id": 4, "text": "의", "type": "JKG", "scode": "000000", "weight": 1, "position": 18, "begin": 4, "end": 4}, 
                {"id": 5, "text": "사상가", "type": "NNG", "scode": "000000", "weight": 1, "position": 22, "begin": 5, "end": 6}, 
                {"id": 6, "text": "(", "type": "SS", "scode": "000000", "weight": 1, "position": 31, "begin": 7, "end": 7}, 
                {"id": 7, "text": "1533", "type": "SN", "scode": "000000", "weight": 1, "position": 32, "begin": 8, "end": 8}, 
                {"id": 8, "text": "~", "type": "SO", "scode": "000000", "weight": 1, "position": 36, "begin": 9, "end": 9}, 
                {"id": 9, "text": "1592", "type": "SN", "scode": "000000", "weight": 1, "position": 37, "begin": 10, "end": 10}, 
                {"id": 10, "text": ")", "type": "SS", "scode": "000000", "weight": 1, "position": 41, "begin": 11, "end": 11}, 
                {"id": 11, "text": ".", "type": "SF", "scode": "000000", "weight": 1, "position": 42, "begin": 12, "end": 12}
            ], 
            "word": [
                {"id": 0, "text": "<인명>", "type": "", "begin": 0, "end": 2}, 
                {"id": 1, "text": "프랑스의", "type": "", "begin": 3, "end": 4}, 
                {"id": 2, "text": "사상가(1533~1592).", "type": "", "begin": 5, "end": 12}
            ], 
            "NE": [
                {"id": 0, "text": "프랑스", "type": "LCP_COUNTRY", "begin": 3, "end": 3, "weight": 0.904145, "common_noun": 0}, 
                {"id": 1, "text": "사상가", "type": "CV_OCCUPATION", "begin": 5, "end": 6, "weight": 0.492705, "common_noun": 0}, 
                {"id": 2, "text": "1533~1592", "type": "DT_DURATION", "begin": 8, "end": 10, "weight": 0.599943, "common_noun": 0}
            ], 
            "chunk": [], 
            "dependency": [
                {"id": 0, "text": "<인명>", "head": 2, "label": "NP", "mod": [], "weight": 0.808113}, 
                {"id": 1, "text": "프랑스의", "head": 2, "label": "NP_MOD", "mod": [], "weight": 0.679331}, 
                {"id": 2, "text": "사상가(1533~1592).", "head": -1, "label": "NP", "mod": [0, 1], "weight": 0.449119}
            ], 
            "SRL": [], 
            "relation": [], 
            "SA": [], 
            "ZA": []
        }, 
        {
            "id": 1, 
            "reserve_str": "", 
            "text": "프랑스에 모럴리스트의 전통을 구축하고 17세기 이후의 프랑스, 유럽 문학에 큰 영향을 주었다.", 
            "morp": [
                {"id": 0, "lemma": "프랑스", "type": "NNP", "position": 43, "weight": 0.0892825}, 
                {"id": 1, "lemma": "에", "type": "JKB", "position": 52, "weight": 0.0823628}, 
                {"id": 2, "lemma": "모럴리스트", "type": "NNG", "position": 56, "weight": 0.35}, 
                {"id": 3, "lemma": "의", "type": "JKG", "position": 71, "weight": 0.0694213}, 
                {"id": 4, "lemma": "전통", "type": "NNG", "position": 75, "weight": 0.9}, 
                {"id": 5, "lemma": "을", "type": "JKO", "position": 81, "weight": 0.129611}, 
                {"id": 6, "lemma": "구축", "type": "NNG", "position": 85, "weight": 0.9}, 
                {"id": 7, "lemma": "하", "type": "XSV", "position": 91, "weight": 0.0001}, 
                {"id": 8, "lemma": "고", "type": "EC", "position": 94, "weight": 0.359917}, 
                {"id": 9, "lemma": "17", "type": "SN", "position": 98, "weight": 1}, 
                {"id": 10, "lemma": "세기", "type": "NNG", "position": 100, "weight": 0.100259}, 
                {"id": 11, "lemma": "이후", "type": "NNG", "position": 107, "weight": 0.184814}, 
                {"id": 12, "lemma": "의", "type": "JKG", "position": 113, "weight": 0.0694213}, 
                {"id": 13, "lemma": "프랑스", "type": "NNP", "position": 117, "weight": 0.0203243}, 
                {"id": 14, "lemma": ",", "type": "SP", "position": 126, "weight": 1}, 
                {"id": 15, "lemma": "유럽", "type": "NNP", "position": 128, "weight": 0.9}, 
                {"id": 16, "lemma": "문학", "type": "NNG", "position": 135, "weight": 0.27891}, 
                {"id": 17, "lemma": "에", "type": "JKB", "position": 141, "weight": 0.153364}, 
                {"id": 18, "lemma": "크", "type": "VA", "position": 145, "weight": 0.0717949}, 
                {"id": 19, "lemma": "ㄴ", "type": "ETM", "position": 145, "weight": 0.430446}, 
                {"id": 20, "lemma": "영향", "type": "NNG", "position": 149, "weight": 0.9}, 
                {"id": 21, "lemma": "을", "type": "JKO", "position": 155, "weight": 0.129611}, 
                {"id": 22, "lemma": "주", "type": "VV", "position": 159, "weight": 0.22432}, 
                {"id": 23, "lemma": "었", "type": "EP", "position": 162, "weight": 0.9}, 
                {"id": 24, "lemma": "다", "type": "EF", "position": 165, "weight": 0.640954}, 
                {"id": 25, "lemma": ".", "type": "SF", "position": 168, "weight": 1}
            ], 
            "morp_eval": [], 
            "WSD": [
                {"id": 0, "text": "프랑스", "type": "NNP", "scode": "020000", "weight": 0.5, "position": 43, "begin": 0, "end": 0}, 
                {"id": 1, "text": "에", "type": "JKB", "scode": "000000", "weight": 1, "position": 52, "begin": 1, "end": 1}, 
                {"id": 2, "text": "모럴리스트", "type": "NNG", "scode": "000000", "weight": 1, "position": 56, "begin": 2, "end": 2}, 
                {"id": 3, "text": "의", "type": "JKG", "scode": "000000", "weight": 1, "position": 71, "begin": 3, "end": 3}, 
                {"id": 4, "text": "전통", "type": "NNG", "scode": "060000", "weight": 0.0909091, "position": 75, "begin": 4, "end": 4}, 
                {"id": 5, "text": "을", "type": "JKO", "scode": "000000", "weight": 1, "position": 81, "begin": 5, "end": 5}, 
                {"id": 6, "text": "구축하", "type": "VV", "scode": "010002", "weight": 0.333333, "position": 85, "begin": 6, "end": 7}, 
                {"id": 7, "text": "고", "type": "EC", "scode": "000000", "weight": 1, "position": 94, "begin": 8, "end": 8}, 
                {"id": 8, "text": "17", "type": "SN", "scode": "000000", "weight": 1, "position": 98, "begin": 9, "end": 9}, 
                {"id": 9, "text": "세기", "type": "NNG", "scode": "030002", "weight": 0.0909091, "position": 100, "begin": 10, "end": 10}, 
                {"id": 10, "text": "이후", "type": "NNG", "scode": "020002", "weight": 0.166667, "position": 107, "begin": 11, "end": 11}, 
                {"id": 11, "text": "의", "type": "JKG", "scode": "000000", "weight": 1, "position": 113, "begin": 12, "end": 12}, 
                {"id": 12, "text": "프랑스", "type": "NNP", "scode": "020000", "weight": 0.5, "position": 117, "begin": 13, "end": 13}, 
                {"id": 13, "text": ",", "type": "SP", "scode": "000000", "weight": 1, "position": 126, "begin": 14, "end": 14}, 
                {"id": 14, "text": "유럽", "type": "NNP", "scode": "020000", "weight": 0.5, "position": 128, "begin": 15, "end": 15}, 
                {"id": 15, "text": "문학", "type": "NNG", "scode": "010000", "weight": 0.2, "position": 135, "begin": 16, "end": 16}, 
                {"id": 16, "text": "에", "type": "JKB", "scode": "000000", "weight": 1, "position": 141, "begin": 17, "end": 17}, 
                {"id": 17, "text": "크", "type": "VA", "scode": "010007", "weight": 0.0555556, "position": 145, "begin": 18, "end": 18}, 
                {"id": 18, "text": "ㄴ", "type": "ETM", "scode": "000000", "weight": 1, "position": 145, "begin": 19, "end": 19}, 
                {"id": 19, "text": "영향", "type": "NNG", "scode": "040000", "weight": 0.25, "position": 149, "begin": 20, "end": 20}, 
                {"id": 20, "text": "을", "type": "JKO", "scode": "000000", "weight": 1, "position": 155, "begin": 21, "end": 21}, 
                {"id": 21, "text": "주", "type": "VV", "scode": "010103", "weight": 0.0714286, "position": 159, "begin": 22, "end": 22}, 
                {"id": 22, "text": "었", "type": "EP", "scode": "000000", "weight": 1, "position": 162, "begin": 23, "end": 23}, 
                {"id": 23, "text": "다", "type": "EF", "scode": "000000", "weight": 1, "position": 165, "begin": 24, "end": 24}, 
                {"id": 24, "text": ".", "type": "SF", "scode": "000000", "weight": 1, "position": 168, "begin": 25, "end": 25}
            ], 
            "word": [
                {"id": 0, "text": "프랑스에", "type": "", "begin": 0, "end": 1}, 
                {"id": 1, "text": "모럴리스트의", "type": "", "begin": 2, "end": 3}, 
                {"id": 2, "text": "전통을", "type": "", "begin": 4, "end": 5}, 
                {"id": 3, "text": "구축하고", "type": "", "begin": 6, "end": 8}, 
                {"id": 4, "text": "17세기", "type": "", "begin": 9, "end": 10}, 
                {"id": 5, "text": "이후의", "type": "", "begin": 11, "end": 12}, 
                {"id": 6, "text": "프랑스,", "type": "", "begin": 13, "end": 14}, 
                {"id": 7, "text": "유럽", "type": "", "begin": 15, "end": 15}, 
                {"id": 8, "text": "문학에", "type": "", "begin": 16, "end": 17}, 
                {"id": 9, "text": "큰", "type": "", "begin": 18, "end": 19}, 
                {"id": 10, "text": "영향을", "type": "", "begin": 20, "end": 21}, 
                {"id": 11, "text": "주었다.", "type": "", "begin": 22, "end": 25}
            ], 
            "NE": [
                {"id": 0, "text": "프랑스", "type": "LCP_COUNTRY", "begin": 0, "end": 0, "weight": 0.797005, "common_noun": 0}, 
                {"id": 1, "text": "모럴리스트", "type": "CV_OCCUPATION", "begin": 2, "end": 2, "weight": 0.170256, "common_noun": 0}, 
                {"id": 2, "text": "17세기 이후", "type": "DT_OTHERS", "begin": 9, "end": 11, "weight": 0.37424, "common_noun": 0}, 
                {"id": 3, "text": "프랑스", "type": "LCP_COUNTRY", "begin": 13, "end": 13, "weight": 0.803441, "common_noun": 0}, 
                {"id": 4, "text": "유럽", "type": "LCG_CONTINENT", "begin": 15, "end": 15, "weight": 0.754403, "common_noun": 0}, 
                {"id": 5, "text": "문학", "type": "FD_ART", "begin": 16, "end": 16, "weight": 0.215792, "common_noun": 0}
            ], 
            "chunk": [], 
            "dependency": [
                {"id": 0, "text": "프랑스에", "head": 3, "label": "NP_AJT", "mod": [], "weight": 0.769462}, 
                {"id": 1, "text": "모럴리스트의", "head": 2, "label": "NP_MOD", "mod": [], "weight": 0.652772}, 
                {"id": 2, "text": "전통을", "head": 3, "label": "NP_OBJ", "mod": [1], "weight": 0.762261}, 
                {"id": 3, "text": "구축하고", "head": 11, "label": "VP", "mod": [0, 2], "weight": 0.781957}, 
                {"id": 4, "text": "17세기", "head": 5, "label": "NP", "mod": [], "weight": 0.721859}, 
                {"id": 5, "text": "이후의", "head": 8, "label": "NP_MOD", "mod": [4], "weight": 0.531996}, 
                {"id": 6, "text": "프랑스,", "head": 7, "label": "NP_CNJ", "mod": [], "weight": 0.414844}, 
                {"id": 7, "text": "유럽", "head": 8, "label": "NP", "mod": [6], "weight": 0.832192}, 
                {"id": 8, "text": "문학에", "head": 11, "label": "NP_AJT", "mod": [5, 7], "weight": 0.860951}, 
                {"id": 9, "text": "큰", "head": 10, "label": "VP_MOD", "mod": [], "weight": 0.722935}, 
                {"id": 10, "text": "영향을", "head": 11, "label": "NP_OBJ", "mod": [9], "weight": 0.803405}, 
                {"id": 11, "text": "주었다.", "head": -1, "label": "VP", "mod": [3, 8, 10], "weight": 0.0145727}
            ], 
            "SRL": [
                {"verb": "구축", "sense": 1, "word_id": 3, "weight": 0.1705, "argument": [
                    {"type": "ARGM-LOC", "word_id": 0, "text": "프랑스에", "weight": 0.127401}, 
                    {"type": "ARG1", "word_id": 2, "text": "전통을", "weight": 0.213599}
                ]}, 
                {"verb": "크", "sense": 1, "word_id": 9, "weight": 0.414304, "argument": [
                    {"type": "ARG1", "word_id": 10, "text": "영향을", "weight": 0.414304}
                ]}, 
                {"verb": "주", "sense": 1, "word_id": 11, "weight": 0.238542, "argument": [
                    {"type": "ARG2", "word_id": 8, "text": "문학에", "weight": 0.18367}, 
                    {"type": "ARG1", "word_id": 10, "text": "영향을", "weight": 0.293414}, 
                    {"type": "ARGM-TMP", "word_id": 5, "text": "이후의", "weight": 1}
                ]}
            ], 
            "relation": [], 
            "SA": [], 
            "ZA": []
        }, 
        {
            "id": 2, 
            "reserve_str": "", 
            "text": "저서에 ≪수상록≫ 따위가 있다.", 
            "morp": [
                {"id": 0, "lemma": "저서", "type": "NNG", "position": 169, "weight": 0.9}, 
                {"id": 1, "lemma": "에", "type": "JKB", "position": 175, "weight": 0.153364}, 
                {"id": 2, "lemma": "≪", "type": "SS", "position": 179, "weight": 1}, 
                {"id": 3, "lemma": "수상록", "type": "NNP", "position": 182, "weight": 0.9}, 
                {"id": 4, "lemma": "≫", "type": "SS", "position": 191, "weight": 1}, 
                {"id": 5, "lemma": "따위", "type": "NNB", "position": 195, "weight": 0.9}, 
                {"id": 6, "lemma": "가", "type": "JKS", "position": 201, "weight": 0.0691641}, 
                {"id": 7, "lemma": "있", "type": "VA", "position": 205, "weight": 0.12767}, 
                {"id": 8, "lemma": "다", "type": "EF", "position": 208, "weight": 0.132573}, 
                {"id": 9, "lemma": ".", "type": "SF", "position": 211, "weight": 1}
            ], 
            "morp_eval": [], 
            "WSD": [
                {"id": 0, "text": "저서", "type": "NNG", "scode": "010000", "weight": 0.333333, "position": 169, "begin": 0, "end": 0}, 
                {"id": 1, "text": "에", "type": "JKB", "scode": "000000", "weight": 1, "position": 175, "begin": 1, "end": 1}, 
                {"id": 2, "text": "≪", "type": "SS", "scode": "000000", "weight": 1, "position": 179, "begin": 2, "end": 2}, 
                {"id": 3, "text": "수상록", "type": "NNP", "scode": "020000", "weight": 0.5, "position": 182, "begin": 3, "end": 3}, 
                {"id": 4, "text": "≫", "type": "SS", "scode": "000000", "weight": 1, "position": 191, "begin": 4, "end": 4}, 
                {"id": 5, "text": "따위", "type": "NNB", "scode": "000001", "weight": 0.5, "position": 195, "begin": 5, "end": 5}, 
                {"id": 6, "text": "가", "type": "JKS", "scode": "000000", "weight": 1, "position": 201, "begin": 6, "end": 6}, 
                {"id": 7, "text": "있", "type": "VA", "scode": "010301", "weight": 0.0416667, "position": 205, "begin": 7, "end": 7}, 
                {"id": 8, "text": "다", "type": "EF", "scode": "000000", "weight": 1, "position": 208, "begin": 8, "end": 8}, 
                {"id": 9, "text": ".", "type": "SF", "scode": "000000", "weight": 1, "position": 211, "begin": 9, "end": 9}
            ], 
            "word": [
                {"id": 0, "text": "저서에", "type": "", "begin": 0, "end": 1}, 
                {"id": 1, "text": "≪수상록≫", "type": "", "begin": 2, "end": 4}, 
                {"id": 2, "text": "따위가", "type": "", "begin": 5, "end": 6}, 
                {"id": 3, "text": "있다.", "type": "", "begin": 7, "end": 9}
            ], 
            "NE": [
                {"id": 0, "text": "수상록", "type": "AFW_DOCUMENT", "begin": 3, "end": 3, "weight": 0.456333, "common_noun": 0}
            ], 
            "chunk": [], 
            "dependency": [
                {"id": 0, "text": "저서에", "head": 3, "label": "NP_AJT", "mod": [], "weight": 0.806835}, 
                {"id": 1, "text": "≪수상록≫", "head": 2, "label": "NP", "mod": [], "weight": 0.637618}, 
                {"id": 2, "text": "따위가", "head": 3, "label": "NP_SBJ", "mod": [1], "weight": 0.759468}, 
                {"id": 3, "text": "있다.", "head": -1, "label": "VP", "mod": [0, 2], "weight": 0.254827}
            ], 
            "SRL": [
                {"verb": "있", "sense": 1, "word_id": 3, "weight": 0.146081, "argument": [
                    {"type": "ARG2", "word_id": 0, "text": "저서에", "weight": 1}, 
                    {"type": "ARG1", "word_id": 2, "text": "따위가", "weight": 0.196273}
                ]}
            ], 
            "relation": [], 
            "SA": [], 
            "ZA": []
        }
    ], 
    "entity": [
        {"id": 0, "type": "LCP_COUNTRY", "number": "singular", "gender": "", "person": "", "animacy": "place", "mention": [
            {"id": 1, "sent_id": 0, "start_eid": 1, "end_eid": 1, "ne_id": 0, "text": "프랑스의", "start_eid_short": 1, "end_eid_short": 1, "text_short": "프랑스의"}, 
            {"id": 2, "sent_id": 1, "start_eid": 0, "end_eid": 0, "ne_id": 0, "text": "프랑스에", "start_eid_short": 0, "end_eid_short": 0, "text_short": "프랑스에"}
        ]}, 
        {"id": 1, "type": "DT_DURATION", "number": "singular", "gender": "", "person": "", "animacy": "time", "mention": [
            {"id": 0, "sent_id": 0, "start_eid": 1, "end_eid": 2, "ne_id": 1, "text": "프랑스의 사상가(1533~1592).", "start_eid_short": 2, "end_eid_short": 2, "text_short": "사상가(1533~1592)."}
        ]}, 
        {"id": 2, "type": "", "number": "singular", "gender": "", "person": "", "animacy": "thing", "mention": [
            {"id": 3, "sent_id": 1, "start_eid": 1, "end_eid": 2, "ne_id": -1, "text": "모럴리스트의 전통을", "start_eid_short": 2, "end_eid_short": 2, "text_short": "전통을"}
        ]}, 
        {"id": 3, "type": "OGG_ECONOMY", "number": "singular", "gender": "", "person": "", "animacy": "thing", "mention": [
            {"id": 4, "sent_id": 1, "start_eid": 1, "end_eid": 1, "ne_id": 1, "text": "모럴리스트의", "start_eid_short": 1, "end_eid_short": 1, "text_short": "모럴리스트의"}
        ]}, 
        {"id": 4, "type": "DT_OTHERS", "number": "singular", "gender": "", "person": "", "animacy": "time", "mention": [
            {"id": 6, "sent_id": 1, "start_eid": 4, "end_eid": 4, "ne_id": 2, "text": "17세기", "start_eid_short": 4, "end_eid_short": 4, "text_short": "17세기"}
        ]}, 
        {"id": 5, "type": "FD_ART", "number": "singular", "gender": "", "person": "", "animacy": "thing", "mention": [
            {"id": 5, "sent_id": 1, "start_eid": 4, "end_eid": 8, "ne_id": 4, "text": "17세기 이후의 프랑스, 유럽 문학에", "start_eid_short": 7, "end_eid_short": 8, "text_short": "유럽 문학에"}
        ]}, 
        {"id": 6, "type": "LCP_COUNTRY", "number": "singular", "gender": "", "person": "", "animacy": "place", "mention": [
            {"id": 8, "sent_id": 1, "start_eid": 6, "end_eid": 6, "ne_id": 3, "text": "프랑스,", "start_eid_short": 6, "end_eid_short": 6, "text_short": "프랑스,"}
        ]}, 
        {"id": 7, "type": "", "number": "singular", "gender": "", "person": "", "animacy": "thing", "mention": [
            {"id": 10, "sent_id": 1, "start_eid": 9, "end_eid": 10, "ne_id": -1, "text": "큰 영향을", "start_eid_short": 10, "end_eid_short": 10, "text_short": "영향을"}
        ]}, 
        {"id": 8, "type": "", "number": "singular", "gender": "", "person": "", "animacy": "thing", "mention": [
            {"id": 11, "sent_id": 2, "start_eid": 0, "end_eid": 0, "ne_id": -1, "text": "저서에", "start_eid_short": 0, "end_eid_short": 0, "text_short": "저서에"}
        ]}, 
        {"id": 9, "type": "", "number": "singular", "gender": "", "person": "", "animacy": "thing", "mention": [
            {"id": 12, "sent_id": 2, "start_eid": 1, "end_eid": 2, "ne_id": -1, "text": "≪수상록≫ 따위가", "start_eid_short": 2, "end_eid_short": 2, "text_short": "따위가"}
        ]}, 
        {"id": 10, "type": "AFW_DOCUMENT", "number": "singular", "gender": "", "person": "", "animacy": "thing", "mention": [
            {"id": 13, "sent_id": 2, "start_eid": 1, "end_eid": 1, "ne_id": 0, "text": "≪수상록≫", "start_eid_short": 1, "end_eid_short": 1, "text_short": "≪수상록≫"}
        ]}, 
        {"id": 11, "type": "", "number": "singular", "gender": "", "person": "", "animacy": "thing", "mention": [
            {"id": 9, "sent_id": 1, "start_eid": 7, "end_eid": 7, "ne_id": -1, "text": "유럽", "start_eid_short": 7, "end_eid_short": 7, "text_short": "유럽"}
        ]}, 
        {"id": 12, "type": "FD_ART", "number": "singular", "gender": "", "person": "", "animacy": "thing", "mention": [
            {"id": 7, "sent_id": 1, "start_eid": 6, "end_eid": 8, "ne_id": 4, "text": "프랑스, 유럽 문학에", "start_eid_short": 7, "end_eid_short": 8, "text_short": "유럽 문학에"}
        ]}
    ]
}