{
    "doc_id": "E2016.888.06_A_01.json", 
    "DCT": "", 
    "category": "", 
    "category_weight": 0, 
    "title": {
        "text": "산", 
        "NE": ""
    }, 
    "metaInfo": {}, 
    "sentence": [
        {
            "id": 0, 
            "reserve_str": "", 
            "text": "요동방향의 산계는 동북동·서남서 방향으로 특히 추가령곡 이북의 북부 지방에 잘 발달되어 있다.", 
            "morp": [
                {"id": 0, "lemma": "요동", "type": "NNP", "position": 0, "weight": 0.255831}, 
                {"id": 1, "lemma": "방향", "type": "NNG", "position": 6, "weight": 0.9}, 
                {"id": 2, "lemma": "의", "type": "JKG", "position": 12, "weight": 0.0694213}, 
                {"id": 3, "lemma": "산계", "type": "NNG", "position": 16, "weight": 0.3}, 
                {"id": 4, "lemma": "는", "type": "JX", "position": 22, "weight": 0.0287565}, 
                {"id": 5, "lemma": "동북", "type": "NNG", "position": 26, "weight": 0.311383}, 
                {"id": 6, "lemma": "동", "type": "NNG", "position": 32, "weight": 0.145566}, 
                {"id": 7, "lemma": "·", "type": "SP", "position": 35, "weight": 1}, 
                {"id": 8, "lemma": "서남", "type": "NNG", "position": 37, "weight": 0.00238081}, 
                {"id": 9, "lemma": "서", "type": "NNG", "position": 43, "weight": 0.0001}, 
                {"id": 10, "lemma": "방향", "type": "NNG", "position": 47, "weight": 0.9}, 
                {"id": 11, "lemma": "으로", "type": "JKB", "position": 53, "weight": 0.153406}, 
                {"id": 12, "lemma": "특히", "type": "MAG", "position": 60, "weight": 0.9}, 
                {"id": 13, "lemma": "추가령곡", "type": "NNP", "position": 67, "weight": 0.6}, 
                {"id": 14, "lemma": "이북", "type": "NNG", "position": 80, "weight": 0.281265}, 
                {"id": 15, "lemma": "의", "type": "JKG", "position": 86, "weight": 0.0694213}, 
                {"id": 16, "lemma": "북부", "type": "NNG", "position": 90, "weight": 0.870828}, 
                {"id": 17, "lemma": "지방", "type": "NNG", "position": 97, "weight": 0.9}, 
                {"id": 18, "lemma": "에", "type": "JKB", "position": 103, "weight": 0.153364}, 
                {"id": 19, "lemma": "잘", "type": "MAG", "position": 107, "weight": 0.0532428}, 
                {"id": 20, "lemma": "발달", "type": "NNG", "position": 111, "weight": 0.9}, 
                {"id": 21, "lemma": "되", "type": "XSV", "position": 117, "weight": 0.000224177}, 
                {"id": 22, "lemma": "어", "type": "EC", "position": 120, "weight": 0.361326}, 
                {"id": 23, "lemma": "있", "type": "VX", "position": 124, "weight": 0.125953}, 
                {"id": 24, "lemma": "다", "type": "EF", "position": 127, "weight": 0.180366}, 
                {"id": 25, "lemma": ".", "type": "SF", "position": 130, "weight": 1}
            ], 
            "morp_eval": [], 
            "WSD": [
                {"id": 0, "text": "요동", "type": "NNP", "scode": "000000", "weight": 0.333333, "position": 0, "begin": 0, "end": 0}, 
                {"id": 1, "text": "방향", "type": "NNG", "scode": "010001", "weight": 0.2, "position": 6, "begin": 1, "end": 1}, 
                {"id": 2, "text": "의", "type": "JKG", "scode": "000000", "weight": 1, "position": 12, "begin": 2, "end": 2}, 
                {"id": 3, "text": "산계", "type": "NNG", "scode": "010000", "weight": 0.166667, "position": 16, "begin": 3, "end": 3}, 
                {"id": 4, "text": "는", "type": "JX", "scode": "000000", "weight": 1, "position": 22, "begin": 4, "end": 4}, 
                {"id": 5, "text": "동북동", "type": "NNG", "scode": "000000", "weight": 1, "position": 26, "begin": 5, "end": 6}, 
                {"id": 6, "text": "·", "type": "SP", "scode": "000000", "weight": 1, "position": 35, "begin": 7, "end": 7}, 
                {"id": 7, "text": "서남서", "type": "NNG", "scode": "000000", "weight": 1, "position": 37, "begin": 8, "end": 9}, 
                {"id": 8, "text": "방향", "type": "NNG", "scode": "010001", "weight": 0.2, "position": 47, "begin": 10, "end": 10}, 
                {"id": 9, "text": "으로", "type": "JKB", "scode": "000000", "weight": 1, "position": 53, "begin": 11, "end": 11}, 
                {"id": 10, "text": "특히", "type": "MAG", "scode": "000000", "weight": 1, "position": 60, "begin": 12, "end": 12}, 
                {"id": 11, "text": "추가령곡", "type": "NNP", "scode": "000000", "weight": 0, "position": 67, "begin": 13, "end": 13}, 
                {"id": 12, "text": "이북", "type": "NNG", "scode": "020001", "weight": 0.333333, "position": 80, "begin": 14, "end": 14}, 
                {"id": 13, "text": "의", "type": "JKG", "scode": "000000", "weight": 1, "position": 86, "begin": 15, "end": 15}, 
                {"id": 14, "text": "북부", "type": "NNG", "scode": "010000", "weight": 0.333333, "position": 90, "begin": 16, "end": 16}, 
                {"id": 15, "text": "지방", "type": "NNG", "scode": "050001", "weight": 0.0909091, "position": 97, "begin": 17, "end": 17}, 
                {"id": 16, "text": "에", "type": "JKB", "scode": "000000", "weight": 1, "position": 103, "begin": 18, "end": 18}, 
                {"id": 17, "text": "잘", "type": "MAG", "scode": "020002", "weight": 0.0526316, "position": 107, "begin": 19, "end": 19}, 
                {"id": 18, "text": "발달되", "type": "VV", "scode": "000003", "weight": 0.333333, "position": 111, "begin": 20, "end": 21}, 
                {"id": 19, "text": "어", "type": "EC", "scode": "000000", "weight": 1, "position": 120, "begin": 22, "end": 22}, 
                {"id": 20, "text": "있", "type": "VX", "scode": "010901", "weight": 0.0416667, "position": 124, "begin": 23, "end": 23}, 
                {"id": 21, "text": "다", "type": "EF", "scode": "000000", "weight": 1, "position": 127, "begin": 24, "end": 24}, 
                {"id": 22, "text": ".", "type": "SF", "scode": "000000", "weight": 1, "position": 130, "begin": 25, "end": 25}
            ], 
            "word": [
                {"id": 0, "text": "요동방향의", "type": "", "begin": 0, "end": 2}, 
                {"id": 1, "text": "산계는", "type": "", "begin": 3, "end": 4}, 
                {"id": 2, "text": "동북동·서남서", "type": "", "begin": 5, "end": 9}, 
                {"id": 3, "text": "방향으로", "type": "", "begin": 10, "end": 11}, 
                {"id": 4, "text": "특히", "type": "", "begin": 12, "end": 12}, 
                {"id": 5, "text": "추가령곡", "type": "", "begin": 13, "end": 13}, 
                {"id": 6, "text": "이북의", "type": "", "begin": 14, "end": 15}, 
                {"id": 7, "text": "북부", "type": "", "begin": 16, "end": 16}, 
                {"id": 8, "text": "지방에", "type": "", "begin": 17, "end": 18}, 
                {"id": 9, "text": "잘", "type": "", "begin": 19, "end": 19}, 
                {"id": 10, "text": "발달되어", "type": "", "begin": 20, "end": 22}, 
                {"id": 11, "text": "있다.", "type": "", "begin": 23, "end": 25}
            ], 
            "NE": [
                {"id": 0, "text": "요동", "type": "LCG_BAY", "begin": 0, "end": 0, "weight": 0.556397, "common_noun": 0}, 
                {"id": 1, "text": "산계", "type": "LCG_MOUNTAIN", "begin": 3, "end": 3, "weight": 0.258221, "common_noun": 0}, 
                {"id": 2, "text": "동북동", "type": "TM_DIRECTION", "begin": 5, "end": 6, "weight": 0.194787, "common_noun": 0}, 
                {"id": 3, "text": "서남서", "type": "TM_DIRECTION", "begin": 8, "end": 9, "weight": 0.527181, "common_noun": 0}, 
                {"id": 4, "text": "추가령곡", "type": "LC_OTHERS", "begin": 13, "end": 13, "weight": 0.341924, "common_noun": 0}, 
                {"id": 5, "text": "이북", "type": "TM_DIRECTION", "begin": 14, "end": 14, "weight": 0.574715, "common_noun": 0}, 
                {"id": 6, "text": "북부", "type": "TM_DIRECTION", "begin": 16, "end": 16, "weight": 0.545984, "common_noun": 0}
            ], 
            "chunk": [], 
            "dependency": [
                {"id": 0, "text": "요동방향의", "head": 1, "label": "NP_MOD", "mod": [], "weight": 0.66436}, 
                {"id": 1, "text": "산계는", "head": 3, "label": "NP_SBJ", "mod": [0], "weight": 0.620502}, 
                {"id": 2, "text": "동북동·서남서", "head": 3, "label": "NP", "mod": [], "weight": 0.64723}, 
                {"id": 3, "text": "방향으로", "head": 10, "label": "NP_AJT", "mod": [2, 1], "weight": 0.756437}, 
                {"id": 4, "text": "특히", "head": 10, "label": "AP", "mod": [], "weight": 0.847688}, 
                {"id": 5, "text": "추가령곡", "head": 6, "label": "NP", "mod": [], "weight": 0.773104}, 
                {"id": 6, "text": "이북의", "head": 8, "label": "NP_MOD", "mod": [5], "weight": 0.758026}, 
                {"id": 7, "text": "북부", "head": 8, "label": "NP", "mod": [], "weight": 0.779932}, 
                {"id": 8, "text": "지방에", "head": 10, "label": "NP_AJT", "mod": [6, 7], "weight": 0.649327}, 
                {"id": 9, "text": "잘", "head": 10, "label": "AP", "mod": [], "weight": 0.755518}, 
                {"id": 10, "text": "발달되어", "head": 11, "label": "VP", "mod": [3, 4, 8, 9], "weight": 0.661383}, 
                {"id": 11, "text": "있다.", "head": -1, "label": "VP", "mod": [10], "weight": 0.0187884}
            ], 
            "SRL": [
                {"verb": "발달", "sense": 1, "word_id": 10, "weight": 0.192077, "argument": [
                    {"type": "ARGM-DIR", "word_id": 3, "text": "방향으로", "weight": 0.0881367}, 
                    {"type": "ARGM-ADV", "word_id": 4, "text": "특히", "weight": 0.111994}, 
                    {"type": "ARGM-LOC", "word_id": 8, "text": "지방에", "weight": 1}, 
                    {"type": "ARGM-ADV", "word_id": 9, "text": "잘", "weight": 0.14296}, 
                    {"type": "AUX", "word_id": 11, "text": "있다.", "weight": 0.420816}, 
                    {"type": "ARG1", "word_id": 1, "text": "산계는", "weight": 1}
                ]}
            ], 
            "relation": [], 
            "SA": [], 
            "ZA": []
        }, 
        {
            "id": 1, 
            "reserve_str": "", 
            "text": "주로 습곡구조이며 장백산맥·강남산맥·적유령산맥·묘향산맥·언진산맥·멸악산맥·함경산맥 등의 산맥이 이에 속한다.", 
            "morp": [
                {"id": 0, "lemma": "주로", "type": "MAG", "position": 131, "weight": 0.0656917}, 
                {"id": 1, "lemma": "습곡", "type": "NNG", "position": 138, "weight": 0.9}, 
                {"id": 2, "lemma": "구조", "type": "NNG", "position": 144, "weight": 0.9}, 
                {"id": 3, "lemma": "이", "type": "VCP", "position": 150, "weight": 0.0177525}, 
                {"id": 4, "lemma": "며", "type": "EC", "position": 153, "weight": 0.250555}, 
                {"id": 5, "lemma": "장백산맥", "type": "NNP", "position": 157, "weight": 0.0123599}, 
                {"id": 6, "lemma": "·", "type": "SP", "position": 169, "weight": 1}, 
                {"id": 7, "lemma": "강남산맥", "type": "NNP", "position": 171, "weight": 0.9}, 
                {"id": 8, "lemma": "·", "type": "SP", "position": 183, "weight": 1}, 
                {"id": 9, "lemma": "적유령산맥", "type": "NNP", "position": 185, "weight": 0.1}, 
                {"id": 10, "lemma": "·", "type": "SP", "position": 200, "weight": 1}, 
                {"id": 11, "lemma": "묘향산맥", "type": "NNP", "position": 202, "weight": 0.45}, 
                {"id": 12, "lemma": "·", "type": "SP", "position": 214, "weight": 1}, 
                {"id": 13, "lemma": "언진산맥", "type": "NNP", "position": 216, "weight": 0.3}, 
                {"id": 14, "lemma": "·", "type": "SP", "position": 228, "weight": 1}, 
                {"id": 15, "lemma": "멸악산맥", "type": "NNP", "position": 230, "weight": 0.3}, 
                {"id": 16, "lemma": "·", "type": "SP", "position": 242, "weight": 1}, 
                {"id": 17, "lemma": "함경산맥", "type": "NNP", "position": 244, "weight": 0.9}, 
                {"id": 18, "lemma": "등", "type": "NNB", "position": 257, "weight": 0.0459798}, 
                {"id": 19, "lemma": "의", "type": "JKG", "position": 260, "weight": 0.0520933}, 
                {"id": 20, "lemma": "산맥", "type": "NNG", "position": 264, "weight": 0.9}, 
                {"id": 21, "lemma": "이", "type": "JKS", "position": 270, "weight": 0.0360723}, 
                {"id": 22, "lemma": "이", "type": "NP", "position": 274, "weight": 0.000745212}, 
                {"id": 23, "lemma": "에", "type": "JKB", "position": 277, "weight": 0.126153}, 
                {"id": 24, "lemma": "속하", "type": "VV", "position": 281, "weight": 0.205064}, 
                {"id": 25, "lemma": "ㄴ다", "type": "EF", "position": 284, "weight": 0.0449045}, 
                {"id": 26, "lemma": ".", "type": "SF", "position": 290, "weight": 1}
            ], 
            "morp_eval": [], 
            "WSD": [
                {"id": 0, "text": "주로", "type": "MAG", "scode": "010000", "weight": 0.142857, "position": 131, "begin": 0, "end": 0}, 
                {"id": 1, "text": "습곡구조", "type": "NNG", "scode": "000000", "weight": 1, "position": 138, "begin": 1, "end": 2}, 
                {"id": 2, "text": "이", "type": "VCP", "scode": "030000", "weight": 0.0172414, "position": 150, "begin": 3, "end": 3}, 
                {"id": 3, "text": "며", "type": "EC", "scode": "000000", "weight": 1, "position": 153, "begin": 4, "end": 4}, 
                {"id": 4, "text": "장백산맥", "type": "NNP", "scode": "000000", "weight": 1, "position": 157, "begin": 5, "end": 5}, 
                {"id": 5, "text": "·", "type": "SP", "scode": "000000", "weight": 1, "position": 169, "begin": 6, "end": 6}, 
                {"id": 6, "text": "강남산맥", "type": "NNP", "scode": "000000", "weight": 1, "position": 171, "begin": 7, "end": 7}, 
                {"id": 7, "text": "·", "type": "SP", "scode": "000000", "weight": 1, "position": 183, "begin": 8, "end": 8}, 
                {"id": 8, "text": "적유령산맥", "type": "NNP", "scode": "000000", "weight": 0, "position": 185, "begin": 9, "end": 9}, 
                {"id": 9, "text": "·", "type": "SP", "scode": "000000", "weight": 1, "position": 200, "begin": 10, "end": 10}, 
                {"id": 10, "text": "묘향산맥", "type": "NNP", "scode": "000000", "weight": 1, "position": 202, "begin": 11, "end": 11}, 
                {"id": 11, "text": "·", "type": "SP", "scode": "000000", "weight": 1, "position": 214, "begin": 12, "end": 12}, 
                {"id": 12, "text": "언진산맥", "type": "NNP", "scode": "000000", "weight": 1, "position": 216, "begin": 13, "end": 13}, 
                {"id": 13, "text": "·", "type": "SP", "scode": "000000", "weight": 1, "position": 228, "begin": 14, "end": 14}, 
                {"id": 14, "text": "멸악산맥", "type": "NNP", "scode": "000000", "weight": 1, "position": 230, "begin": 15, "end": 15}, 
                {"id": 15, "text": "·", "type": "SP", "scode": "000000", "weight": 1, "position": 242, "begin": 16, "end": 16}, 
                {"id": 16, "text": "함경산맥", "type": "NNP", "scode": "000000", "weight": 1, "position": 244, "begin": 17, "end": 17}, 
                {"id": 17, "text": "등", "type": "NNB", "scode": "050001", "weight": 0.0526316, "position": 257, "begin": 18, "end": 18}, 
                {"id": 18, "text": "의", "type": "JKG", "scode": "000000", "weight": 1, "position": 260, "begin": 19, "end": 19}, 
                {"id": 19, "text": "산맥", "type": "NNG", "scode": "010000", "weight": 0.5, "position": 264, "begin": 20, "end": 20}, 
                {"id": 20, "text": "이", "type": "JKS", "scode": "000000", "weight": 1, "position": 270, "begin": 21, "end": 21}, 
                {"id": 21, "text": "이", "type": "NP", "scode": "050002", "weight": 0.0172414, "position": 274, "begin": 22, "end": 22}, 
                {"id": 22, "text": "에", "type": "JKB", "scode": "000000", "weight": 1, "position": 277, "begin": 23, "end": 23}, 
                {"id": 23, "text": "속하", "type": "VV", "scode": "020001", "weight": 0.25, "position": 281, "begin": 24, "end": 24}, 
                {"id": 24, "text": "ㄴ다", "type": "EF", "scode": "000000", "weight": 1, "position": 284, "begin": 25, "end": 25}, 
                {"id": 25, "text": ".", "type": "SF", "scode": "000000", "weight": 1, "position": 290, "begin": 26, "end": 26}
            ], 
            "word": [
                {"id": 0, "text": "주로", "type": "", "begin": 0, "end": 0}, 
                {"id": 1, "text": "습곡구조이며", "type": "", "begin": 1, "end": 4}, 
                {"id": 2, "text": "장백산맥·강남산맥·적유령산맥·묘향산맥·언진산맥·멸악산맥·함경산맥", "type": "", "begin": 5, "end": 17}, 
                {"id": 3, "text": "등의", "type": "", "begin": 18, "end": 19}, 
                {"id": 4, "text": "산맥이", "type": "", "begin": 20, "end": 21}, 
                {"id": 5, "text": "이에", "type": "", "begin": 22, "end": 23}, 
                {"id": 6, "text": "속한다.", "type": "", "begin": 24, "end": 26}
            ], 
            "NE": [
                {"id": 0, "text": "장백산맥", "type": "LCG_MOUNTAIN", "begin": 5, "end": 5, "weight": 0.433933, "common_noun": 0}, 
                {"id": 1, "text": "강남산맥", "type": "LCG_MOUNTAIN", "begin": 7, "end": 7, "weight": 0.668253, "common_noun": 0}, 
                {"id": 2, "text": "적유령산맥", "type": "LCG_MOUNTAIN", "begin": 9, "end": 9, "weight": 0.581301, "common_noun": 0}, 
                {"id": 3, "text": "묘향산맥", "type": "LCG_MOUNTAIN", "begin": 11, "end": 11, "weight": 0.512727, "common_noun": 0}, 
                {"id": 4, "text": "언진산맥", "type": "LCG_MOUNTAIN", "begin": 13, "end": 13, "weight": 0.489444, "common_noun": 0}, 
                {"id": 5, "text": "멸악산맥", "type": "LCG_MOUNTAIN", "begin": 15, "end": 15, "weight": 0.493369, "common_noun": 0}, 
                {"id": 6, "text": "함경산맥", "type": "LCG_MOUNTAIN", "begin": 17, "end": 17, "weight": 0.448173, "common_noun": 0}
            ], 
            "chunk": [], 
            "dependency": [
                {"id": 0, "text": "주로", "head": 1, "label": "AP", "mod": [], "weight": 0.780647}, 
                {"id": 1, "text": "습곡구조이며", "head": 6, "label": "VNP", "mod": [0], "weight": 0.0521486}, 
                {"id": 2, "text": "장백산맥·강남산맥·적유령산맥·묘향산맥·언진산맥·멸악산맥·함경산맥", "head": 3, "label": "NP", "mod": [], "weight": 0.841472}, 
                {"id": 3, "text": "등의", "head": 4, "label": "NP_MOD", "mod": [2], "weight": 0.682886}, 
                {"id": 4, "text": "산맥이", "head": 6, "label": "NP_SBJ", "mod": [3], "weight": 0.836772}, 
                {"id": 5, "text": "이에", "head": 6, "label": "NP_AJT", "mod": [], "weight": 0.674234}, 
                {"id": 6, "text": "속한다.", "head": -1, "label": "VP", "mod": [4, 5, 1], "weight": 0.0113074}
            ], 
            "SRL": [
                {"verb": "속하", "sense": 1, "word_id": 6, "weight": 0.139782, "argument": [
                    {"type": "ARG1", "word_id": 4, "text": "산맥이", "weight": 0.178086}, 
                    {"type": "ARG2", "word_id": 5, "text": "이에", "weight": 0.101479}, 
                    {"type": "ARGM-ADV", "word_id": 0, "text": "주로", "weight": 1}
                ]}
            ], 
            "relation": [], 
            "SA": [], 
            "ZA": []
        }
    ], 
    "entity": [
        {"id": 0, "type": "CV_POSITION", "number": "singular", "gender": "", "person": "", "animacy": "human", "mention": [
            {"id": 0, "sent_id": 0, "start_eid": 0, "end_eid": 1, "ne_id": 1, "text": "요동방향의 산계는", "start_eid_short": 1, "end_eid_short": 1, "text_short": "산계는"}
        ]}, 
        {"id": 1, "type": "LCG_BAY", "number": "singular", "gender": "", "person": "", "animacy": "place", "mention": [
            {"id": 1, "sent_id": 0, "start_eid": 0, "end_eid": 0, "ne_id": 0, "text": "요동방향의", "start_eid_short": 0, "end_eid_short": 0, "text_short": "요동방향의"}
        ]}, 
        {"id": 2, "type": "", "number": "singular", "gender": "", "person": "", "animacy": "thing", "mention": [
            {"id": 2, "sent_id": 0, "start_eid": 2, "end_eid": 3, "ne_id": -1, "text": "동북동·서남서 방향으로", "start_eid_short": 3, "end_eid_short": 3, "text_short": "방향으로"}
        ]}, 
        {"id": 3, "type": "TM_DIRECTION", "number": "singular", "gender": "", "person": "", "animacy": "thing", "mention": [
            {"id": 3, "sent_id": 0, "start_eid": 2, "end_eid": 2, "ne_id": 2, "text": "동북동·서남서", "start_eid_short": 2, "end_eid_short": 2, "text_short": "동북동·서남서"}
        ]}, 
        {"id": 4, "type": "TM_DIRECTION", "number": "singular", "gender": "", "person": "", "animacy": "thing", "mention": [
            {"id": 5, "sent_id": 0, "start_eid": 5, "end_eid": 6, "ne_id": 5, "text": "추가령곡 이북의", "start_eid_short": 5, "end_eid_short": 6, "text_short": "추가령곡 이북의"}
        ]}, 
        {"id": 5, "type": "LC_OTHERS", "number": "singular", "gender": "", "person": "", "animacy": "place", "mention": [
            {"id": 6, "sent_id": 0, "start_eid": 5, "end_eid": 5, "ne_id": 4, "text": "추가령곡", "start_eid_short": 5, "end_eid_short": 5, "text_short": "추가령곡"}
        ]}, 
        {"id": 6, "type": "", "number": "singular", "gender": "", "person": "", "animacy": "thing", "mention": [
            {"id": 4, "sent_id": 0, "start_eid": 5, "end_eid": 8, "ne_id": -1, "text": "추가령곡 이북의 북부 지방에", "start_eid_short": 7, "end_eid_short": 8, "text_short": "북부 지방에"}
        ]}, 
        {"id": 7, "type": "TM_DIRECTION", "number": "singular", "gender": "", "person": "", "animacy": "thing", "mention": [
            {"id": 7, "sent_id": 0, "start_eid": 7, "end_eid": 7, "ne_id": 6, "text": "북부", "start_eid_short": 7, "end_eid_short": 7, "text_short": "북부"}
        ]}, 
        {"id": 8, "type": "", "number": "singular", "gender": "", "person": "", "animacy": "thing", "mention": [
            {"id": 10, "sent_id": 1, "start_eid": 2, "end_eid": 3, "ne_id": -1, "text": "장백산맥·강남산맥·적유령산맥·묘향산맥·언진산맥·멸악산맥·함경산맥 등의", "start_eid_short": 3, "end_eid_short": 3, "text_short": "등의"}
        ]}, 
        {"id": 9, "type": "LCG_MOUNTAIN", "number": "singular", "gender": "", "person": "", "animacy": "place", "mention": [
            {"id": 11, "sent_id": 1, "start_eid": 2, "end_eid": 2, "ne_id": 0, "text": "장백산맥·강남산맥·적유령산맥·묘향산맥·언진산맥·멸악산맥·함경산맥", "start_eid_short": 2, "end_eid_short": 2, "text_short": "장백산맥·강남산맥·적유령산맥·묘향산맥·언진산맥·멸악산맥·함경산맥"}
        ]}, 
        {"id": 10, "type": "", "number": "singular", "gender": "", "person": "", "animacy": "thing", "mention": [
            {"id": 9, "sent_id": 1, "start_eid": 2, "end_eid": 4, "ne_id": -1, "text": "장백산맥·강남산맥·적유령산맥·묘향산맥·언진산맥·멸악산맥·함경산맥 등의 산맥이", "start_eid_short": 4, "end_eid_short": 4, "text_short": "산맥이"}, 
            {"id": 12, "sent_id": 1, "start_eid": 5, "end_eid": 5, "ne_id": -1, "text": "이에", "start_eid_short": 5, "end_eid_short": 5, "text_short": "이에"}
        ]}, 
        {"id": 11, "type": "", "number": "singular", "gender": "", "person": "", "animacy": "thing", "mention": [
            {"id": 8, "sent_id": 1, "start_eid": 0, "end_eid": 1, "ne_id": -1, "text": "주로 습곡구조이며", "start_eid_short": 1, "end_eid_short": 1, "text_short": "습곡구조이며"}
        ]}
    ]
}