{
    "doc_id": "E2016.837.24_A_01.json", 
    "DCT": "", 
    "category": "", 
    "category_weight": 0, 
    "title": {
        "text": "씨방", 
        "NE": ""
    }, 
    "metaInfo": {}, 
    "sentence": [
        {
            "id": 0, 
            "reserve_str": "", 
            "text": "씨방(―房, ovary)은 속씨식물의 암술이 주머니 모양으로 되어 속에 밑씨를 품고 있는 부분이며 익으면 열매가 되는 곳이다.", 
            "morp": [
                {"id": 0, "lemma": "씨방", "type": "NNG", "position": 0, "weight": 0.9}, 
                {"id": 1, "lemma": "(", "type": "SS", "position": 6, "weight": 1}, 
                {"id": 2, "lemma": "―", "type": "SW", "position": 7, "weight": 1}, 
                {"id": 3, "lemma": "房", "type": "SH", "position": 10, "weight": 1}, 
                {"id": 4, "lemma": ",", "type": "SP", "position": 13, "weight": 1}, 
                {"id": 5, "lemma": "ovary", "type": "SL", "position": 15, "weight": 1}, 
                {"id": 6, "lemma": ")", "type": "SS", "position": 20, "weight": 1}, 
                {"id": 7, "lemma": "은", "type": "JX", "position": 21, "weight": 0.0128817}, 
                {"id": 8, "lemma": "속", "type": "NNG", "position": 25, "weight": 0.320263}, 
                {"id": 9, "lemma": "씨", "type": "NNG", "position": 28, "weight": 0.0104663}, 
                {"id": 10, "lemma": "식물", "type": "NNG", "position": 31, "weight": 0.9}, 
                {"id": 11, "lemma": "의", "type": "JKG", "position": 37, "weight": 0.0694213}, 
                {"id": 12, "lemma": "암술", "type": "NNG", "position": 41, "weight": 0.9}, 
                {"id": 13, "lemma": "이", "type": "JKS", "position": 47, "weight": 0.0360723}, 
                {"id": 14, "lemma": "주머니", "type": "NNG", "position": 51, "weight": 0.9}, 
                {"id": 15, "lemma": "모양", "type": "NNG", "position": 61, "weight": 0.179803}, 
                {"id": 16, "lemma": "으로", "type": "JKB", "position": 67, "weight": 0.153406}, 
                {"id": 17, "lemma": "되", "type": "VV", "position": 74, "weight": 0.412662}, 
                {"id": 18, "lemma": "아", "type": "EC", "position": 77, "weight": 0.41831}, 
                {"id": 19, "lemma": "속", "type": "NNG", "position": 81, "weight": 0.216278}, 
                {"id": 20, "lemma": "에", "type": "JKB", "position": 84, "weight": 0.153364}, 
                {"id": 21, "lemma": "밑씨", "type": "NNG", "position": 88, "weight": 0.9}, 
                {"id": 22, "lemma": "를", "type": "JKO", "position": 94, "weight": 0.137686}, 
                {"id": 23, "lemma": "품", "type": "VV", "position": 98, "weight": 0.415878}, 
                {"id": 24, "lemma": "고", "type": "EC", "position": 101, "weight": 0.416679}, 
                {"id": 25, "lemma": "있", "type": "VX", "position": 105, "weight": 0.125953}, 
                {"id": 26, "lemma": "는", "type": "ETM", "position": 108, "weight": 0.183966}, 
                {"id": 27, "lemma": "부분", "type": "NNG", "position": 112, "weight": 0.9}, 
                {"id": 28, "lemma": "이", "type": "VCP", "position": 118, "weight": 0.0177525}, 
                {"id": 29, "lemma": "며", "type": "EC", "position": 121, "weight": 0.250555}, 
                {"id": 30, "lemma": "익", "type": "VV", "position": 125, "weight": 0.201556}, 
                {"id": 31, "lemma": "으면", "type": "EC", "position": 128, "weight": 0.427071}, 
                {"id": 32, "lemma": "열매", "type": "NNG", "position": 135, "weight": 0.9}, 
                {"id": 33, "lemma": "가", "type": "JKC", "position": 141, "weight": 0.000442184}, 
                {"id": 34, "lemma": "되", "type": "VV", "position": 145, "weight": 0.542406}, 
                {"id": 35, "lemma": "는", "type": "ETM", "position": 148, "weight": 0.184941}, 
                {"id": 36, "lemma": "곳", "type": "NNG", "position": 152, "weight": 0.658803}, 
                {"id": 37, "lemma": "이", "type": "VCP", "position": 155, "weight": 0.0177525}, 
                {"id": 38, "lemma": "다", "type": "EF", "position": 158, "weight": 0.353579}, 
                {"id": 39, "lemma": ".", "type": "SF", "position": 161, "weight": 1}
            ], 
            "morp_eval": [], 
            "WSD": [
                {"id": 0, "text": "씨방", "type": "NNG", "scode": "000000", "weight": 1, "position": 0, "begin": 0, "end": 0}, 
                {"id": 1, "text": "(", "type": "SS", "scode": "000000", "weight": 1, "position": 6, "begin": 1, "end": 1}, 
                {"id": 2, "text": "―", "type": "SW", "scode": "000000", "weight": 1, "position": 7, "begin": 2, "end": 2}, 
                {"id": 3, "text": "房", "type": "SH", "scode": "000000", "weight": 1, "position": 10, "begin": 3, "end": 3}, 
                {"id": 4, "text": ",", "type": "SP", "scode": "000000", "weight": 1, "position": 13, "begin": 4, "end": 4}, 
                {"id": 5, "text": "ovary", "type": "SL", "scode": "000000", "weight": 1, "position": 15, "begin": 5, "end": 5}, 
                {"id": 6, "text": ")", "type": "SS", "scode": "000000", "weight": 1, "position": 20, "begin": 6, "end": 6}, 
                {"id": 7, "text": "은", "type": "JX", "scode": "000000", "weight": 1, "position": 21, "begin": 7, "end": 7}, 
                {"id": 8, "text": "속씨식물", "type": "NNG", "scode": "000000", "weight": 1, "position": 25, "begin": 8, "end": 10}, 
                {"id": 9, "text": "의", "type": "JKG", "scode": "000000", "weight": 1, "position": 37, "begin": 11, "end": 11}, 
                {"id": 10, "text": "암술", "type": "NNG", "scode": "000000", "weight": 1, "position": 41, "begin": 12, "end": 12}, 
                {"id": 11, "text": "이", "type": "JKS", "scode": "000000", "weight": 1, "position": 47, "begin": 13, "end": 13}, 
                {"id": 12, "text": "주머니", "type": "NNG", "scode": "000001", "weight": 0.2, "position": 51, "begin": 14, "end": 14}, 
                {"id": 13, "text": "모양", "type": "NNG", "scode": "020001", "weight": 0.125, "position": 61, "begin": 15, "end": 15}, 
                {"id": 14, "text": "으로", "type": "JKB", "scode": "000000", "weight": 1, "position": 67, "begin": 16, "end": 16}, 
                {"id": 15, "text": "되", "type": "VV", "scode": "010202", "weight": 0.03125, "position": 74, "begin": 17, "end": 17}, 
                {"id": 16, "text": "아", "type": "EC", "scode": "000000", "weight": 1, "position": 77, "begin": 18, "end": 18}, 
                {"id": 17, "text": "속", "type": "NNG", "scode": "010002", "weight": 0.0416667, "position": 81, "begin": 19, "end": 19}, 
                {"id": 18, "text": "에", "type": "JKB", "scode": "000000", "weight": 1, "position": 84, "begin": 20, "end": 20}, 
                {"id": 19, "text": "밑씨", "type": "NNG", "scode": "000000", "weight": 1, "position": 88, "begin": 21, "end": 21}, 
                {"id": 20, "text": "를", "type": "JKO", "scode": "000000", "weight": 1, "position": 94, "begin": 22, "end": 22}, 
                {"id": 21, "text": "품", "type": "VV", "scode": "010102", "weight": 0.142857, "position": 98, "begin": 23, "end": 23}, 
                {"id": 22, "text": "고", "type": "EC", "scode": "000000", "weight": 1, "position": 101, "begin": 24, "end": 24}, 
                {"id": 23, "text": "있", "type": "VX", "scode": "010902", "weight": 0.0416667, "position": 105, "begin": 25, "end": 25}, 
                {"id": 24, "text": "는", "type": "ETM", "scode": "000000", "weight": 1, "position": 108, "begin": 26, "end": 26}, 
                {"id": 25, "text": "부분", "type": "NNG", "scode": "010000", "weight": 0.5, "position": 112, "begin": 27, "end": 27}, 
                {"id": 26, "text": "이", "type": "VCP", "scode": "030000", "weight": 0.0172414, "position": 118, "begin": 28, "end": 28}, 
                {"id": 27, "text": "며", "type": "EC", "scode": "000000", "weight": 1, "position": 121, "begin": 29, "end": 29}, 
                {"id": 28, "text": "익", "type": "VV", "scode": "010101", "weight": 0.0833333, "position": 125, "begin": 30, "end": 30}, 
                {"id": 29, "text": "으면", "type": "EC", "scode": "000000", "weight": 1, "position": 128, "begin": 31, "end": 31}, 
                {"id": 30, "text": "열매", "type": "NNG", "scode": "010000", "weight": 0.333333, "position": 135, "begin": 32, "end": 32}, 
                {"id": 31, "text": "가", "type": "JKC", "scode": "000000", "weight": 1, "position": 141, "begin": 33, "end": 33}, 
                {"id": 32, "text": "되", "type": "VV", "scode": "010202", "weight": 0.03125, "position": 145, "begin": 34, "end": 34}, 
                {"id": 33, "text": "는", "type": "ETM", "scode": "000000", "weight": 1, "position": 148, "begin": 35, "end": 35}, 
                {"id": 34, "text": "곳", "type": "NNG", "scode": "010001", "weight": 0.2, "position": 152, "begin": 36, "end": 36}, 
                {"id": 35, "text": "이", "type": "VCP", "scode": "030000", "weight": 0.0172414, "position": 155, "begin": 37, "end": 37}, 
                {"id": 36, "text": "다", "type": "EF", "scode": "000000", "weight": 1, "position": 158, "begin": 38, "end": 38}, 
                {"id": 37, "text": ".", "type": "SF", "scode": "000000", "weight": 1, "position": 161, "begin": 39, "end": 39}
            ], 
            "word": [
                {"id": 0, "text": "씨방(―房,", "type": "", "begin": 0, "end": 4}, 
                {"id": 1, "text": "ovary)은", "type": "", "begin": 5, "end": 7}, 
                {"id": 2, "text": "속씨식물의", "type": "", "begin": 8, "end": 11}, 
                {"id": 3, "text": "암술이", "type": "", "begin": 12, "end": 13}, 
                {"id": 4, "text": "주머니", "type": "", "begin": 14, "end": 14}, 
                {"id": 5, "text": "모양으로", "type": "", "begin": 15, "end": 16}, 
                {"id": 6, "text": "되어", "type": "", "begin": 17, "end": 18}, 
                {"id": 7, "text": "속에", "type": "", "begin": 19, "end": 20}, 
                {"id": 8, "text": "밑씨를", "type": "", "begin": 21, "end": 22}, 
                {"id": 9, "text": "품고", "type": "", "begin": 23, "end": 24}, 
                {"id": 10, "text": "있는", "type": "", "begin": 25, "end": 26}, 
                {"id": 11, "text": "부분이며", "type": "", "begin": 27, "end": 29}, 
                {"id": 12, "text": "익으면", "type": "", "begin": 30, "end": 31}, 
                {"id": 13, "text": "열매가", "type": "", "begin": 32, "end": 33}, 
                {"id": 14, "text": "되는", "type": "", "begin": 34, "end": 35}, 
                {"id": 15, "text": "곳이다.", "type": "", "begin": 36, "end": 39}
            ], 
            "NE": [
                {"id": 0, "text": "씨방", "type": "PT_PART", "begin": 0, "end": 0, "weight": 0.38367, "common_noun": 0}, 
                {"id": 1, "text": "ovary", "type": "PT_PART", "begin": 5, "end": 5, "weight": 0.615753, "common_noun": 0}, 
                {"id": 2, "text": "속씨식물", "type": "PT_TYPE", "begin": 8, "end": 10, "weight": 0.615753, "common_noun": 0}, 
                {"id": 3, "text": "암술", "type": "PT_PART", "begin": 12, "end": 12, "weight": 0.542502, "common_noun": 0}, 
                {"id": 4, "text": "밑씨", "type": "PT_PART", "begin": 21, "end": 21, "weight": 0.269587, "common_noun": 0}, 
                {"id": 5, "text": "열매", "type": "PT_PART", "begin": 32, "end": 32, "weight": 0.668819, "common_noun": 0}
            ], 
            "chunk": [], 
            "dependency": [
                {"id": 0, "text": "씨방(―房,", "head": 1, "label": "NP", "mod": [], "weight": 0.694672}, 
                {"id": 1, "text": "ovary)은", "head": 11, "label": "NP_SBJ", "mod": [0], "weight": 0.784883}, 
                {"id": 2, "text": "속씨식물의", "head": 3, "label": "NP_MOD", "mod": [], "weight": 0.761219}, 
                {"id": 3, "text": "암술이", "head": 6, "label": "NP_SBJ", "mod": [2], "weight": 0.802839}, 
                {"id": 4, "text": "주머니", "head": 5, "label": "NP", "mod": [], "weight": 0.774213}, 
                {"id": 5, "text": "모양으로", "head": 6, "label": "NP_AJT", "mod": [4], "weight": 0.584763}, 
                {"id": 6, "text": "되어", "head": 9, "label": "VP", "mod": [3, 5], "weight": 0.682988}, 
                {"id": 7, "text": "속에", "head": 9, "label": "NP_AJT", "mod": [], "weight": 0.682703}, 
                {"id": 8, "text": "밑씨를", "head": 9, "label": "NP_OBJ", "mod": [], "weight": 0.696842}, 
                {"id": 9, "text": "품고", "head": 10, "label": "VP", "mod": [6, 7, 8], "weight": 0.642928}, 
                {"id": 10, "text": "있는", "head": 11, "label": "VP_MOD", "mod": [9], "weight": 0.787946}, 
                {"id": 11, "text": "부분이며", "head": 12, "label": "VNP", "mod": [10, 1], "weight": 0.083083}, 
                {"id": 12, "text": "익으면", "head": 14, "label": "VP", "mod": [11], "weight": 0.709949}, 
                {"id": 13, "text": "열매가", "head": 14, "label": "NP_CMP", "mod": [], "weight": 0.768244}, 
                {"id": 14, "text": "되는", "head": 15, "label": "VP_MOD", "mod": [12, 13], "weight": 0.812146}, 
                {"id": 15, "text": "곳이다.", "head": -1, "label": "VNP", "mod": [14], "weight": 0.000759942}
            ], 
            "SRL": [
                {"verb": "되", "sense": 1, "word_id": 6, "weight": 0.201975, "argument": [
                    {"type": "ARG1", "word_id": 3, "text": "암술이", "weight": 0.294164}, 
                    {"type": "ARG2", "word_id": 5, "text": "모양으로", "weight": 0.109787}
                ]}, 
                {"verb": "품", "sense": 1, "word_id": 9, "weight": 0.211376, "argument": [
                    {"type": "ARGM-MNR", "word_id": 6, "text": "되어", "weight": 0.0834376}, 
                    {"type": "ARG2", "word_id": 7, "text": "속에", "weight": 0.20894}, 
                    {"type": "ARG1", "word_id": 8, "text": "밑씨를", "weight": 0.226799}, 
                    {"type": "AUX", "word_id": 10, "text": "있는", "weight": 0.43775}, 
                    {"type": "ARG0", "word_id": 11, "text": "부분이며", "weight": 1}
                ]}, 
                {"verb": "익", "sense": 1, "word_id": 12, "weight": 0, "argument": [
                    {"type": "ARG1", "word_id": 0, "text": "씨방(―房,", "weight": 1}
                ]}, 
                {"verb": "되", "sense": 1, "word_id": 14, "weight": 0.159569, "argument": [
                    {"type": "ARGM-CND", "word_id": 12, "text": "익으면", "weight": 0.152579}, 
                    {"type": "ARG2", "word_id": 13, "text": "열매가", "weight": 0.166559}, 
                    {"type": "ARG1", "word_id": 15, "text": "곳이다.", "weight": 1}
                ]}
            ], 
            "relation": [], 
            "SA": [], 
            "ZA": []
        }
    ], 
    "entity": [
        {"id": 0, "type": "TM_CELL_TISSUE", "number": "singular", "gender": "", "person": "", "animacy": "thing", "mention": [
            {"id": 0, "sent_id": 0, "start_eid": 0, "end_eid": 1, "ne_id": 0, "text": "씨방(―房, ovary)은", "start_eid_short": 0, "end_eid_short": 0, "text_short": "씨방(―房,"}, 
            {"id": 1, "sent_id": 0, "start_eid": 2, "end_eid": 15, "ne_id": -1, "text": "속씨식물의 암술이 주머니 모양으로 되어 속에 밑씨를 품고 있는 부분이며 익으면 열매가 되는 곳이다.", "start_eid_short": 15, "end_eid_short": 15, "text_short": "곳이다."}, 
            {"id": 2, "sent_id": 0, "start_eid": 2, "end_eid": 11, "ne_id": -1, "text": "속씨식물의 암술이 주머니 모양으로 되어 속에 밑씨를 품고 있는 부분이며", "start_eid_short": 11, "end_eid_short": 11, "text_short": "부분이며"}, 
            {"id": 9, "sent_id": 0, "start_eid": 12, "end_eid": 15, "ne_id": -1, "text": "익으면 열매가 되는 곳이다.", "start_eid_short": 15, "end_eid_short": 15, "text_short": "곳이다."}
        ]}, 
        {"id": 1, "type": "PT_PART", "number": "singular", "gender": "", "person": "", "animacy": "plant", "mention": [
            {"id": 3, "sent_id": 0, "start_eid": 2, "end_eid": 3, "ne_id": 2, "text": "속씨식물의 암술이", "start_eid_short": 3, "end_eid_short": 3, "text_short": "암술이"}
        ]}, 
        {"id": 2, "type": "PT_TYPE", "number": "singular", "gender": "", "person": "", "animacy": "plant", "mention": [
            {"id": 4, "sent_id": 0, "start_eid": 2, "end_eid": 2, "ne_id": 1, "text": "속씨식물의", "start_eid_short": 2, "end_eid_short": 2, "text_short": "속씨식물의"}
        ]}, 
        {"id": 3, "type": "", "number": "singular", "gender": "", "person": "", "animacy": "thing", "mention": [
            {"id": 5, "sent_id": 0, "start_eid": 4, "end_eid": 5, "ne_id": -1, "text": "주머니 모양으로", "start_eid_short": 4, "end_eid_short": 5, "text_short": "주머니 모양으로"}
        ]}, 
        {"id": 4, "type": "", "number": "singular", "gender": "", "person": "", "animacy": "thing", "mention": [
            {"id": 6, "sent_id": 0, "start_eid": 4, "end_eid": 4, "ne_id": -1, "text": "주머니", "start_eid_short": 4, "end_eid_short": 4, "text_short": "주머니"}
        ]}, 
        {"id": 5, "type": "", "number": "singular", "gender": "", "person": "", "animacy": "thing", "mention": [
            {"id": 7, "sent_id": 0, "start_eid": 7, "end_eid": 7, "ne_id": -1, "text": "속에", "start_eid_short": 7, "end_eid_short": 7, "text_short": "속에"}
        ]}, 
        {"id": 6, "type": "TM_CELL_TISSUE", "number": "singular", "gender": "", "person": "", "animacy": "thing", "mention": [
            {"id": 8, "sent_id": 0, "start_eid": 8, "end_eid": 8, "ne_id": 3, "text": "밑씨를", "start_eid_short": 8, "end_eid_short": 8, "text_short": "밑씨를"}
        ]}, 
        {"id": 7, "type": "PT_PART", "number": "singular", "gender": "", "person": "", "animacy": "plant", "mention": [
            {"id": 10, "sent_id": 0, "start_eid": 13, "end_eid": 13, "ne_id": 4, "text": "열매가", "start_eid_short": 13, "end_eid_short": 13, "text_short": "열매가"}
        ]}
    ]
}