{
    "doc_id": "E2016.790.13_A_02.json", 
    "DCT": "", 
    "category": "", 
    "category_weight": 0, 
    "title": {
        "text": "장보고과학기지", 
        "NE": ""
    }, 
    "metaInfo": {}, 
    "sentence": [
        {
            "id": 0, 
            "reserve_str": "", 
            "text": "장보고기지는 대한민국이 지난 1988년 세종과학기지를 건설한 지 26년 만에 완공한 두 번째 남극기지이자 남극대륙 내륙에 짓는 첫 기지이다.", 
            "morp": [
                {"id": 0, "lemma": "장보고기지", "type": "NNP", "position": 0, "weight": 0.6}, 
                {"id": 1, "lemma": "는", "type": "JX", "position": 15, "weight": 0.0332677}, 
                {"id": 2, "lemma": "대한민국", "type": "NNP", "position": 19, "weight": 0.0447775}, 
                {"id": 3, "lemma": "이", "type": "JKS", "position": 31, "weight": 0.0234517}, 
                {"id": 4, "lemma": "지나", "type": "VV", "position": 35, "weight": 0.314333}, 
                {"id": 5, "lemma": "ㄴ", "type": "ETM", "position": 38, "weight": 0.304215}, 
                {"id": 6, "lemma": "1988", "type": "SN", "position": 42, "weight": 1}, 
                {"id": 7, "lemma": "년", "type": "NNB", "position": 46, "weight": 0.414343}, 
                {"id": 8, "lemma": "세종과학기지", "type": "NNP", "position": 50, "weight": 0.0152207}, 
                {"id": 9, "lemma": "를", "type": "JKO", "position": 68, "weight": 0.137686}, 
                {"id": 10, "lemma": "건설", "type": "NNG", "position": 72, "weight": 0.9}, 
                {"id": 11, "lemma": "하", "type": "XSV", "position": 78, "weight": 0.0001}, 
                {"id": 12, "lemma": "ㄴ", "type": "ETM", "position": 78, "weight": 0.392321}, 
                {"id": 13, "lemma": "지", "type": "NNB", "position": 82, "weight": 0.00345007}, 
                {"id": 14, "lemma": "26", "type": "SN", "position": 86, "weight": 1}, 
                {"id": 15, "lemma": "년", "type": "NNB", "position": 88, "weight": 0.414343}, 
                {"id": 16, "lemma": "만", "type": "NNB", "position": 92, "weight": 0.00104188}, 
                {"id": 17, "lemma": "에", "type": "JKB", "position": 95, "weight": 0.153364}, 
                {"id": 18, "lemma": "완공", "type": "NNG", "position": 99, "weight": 0.9}, 
                {"id": 19, "lemma": "하", "type": "XSV", "position": 105, "weight": 0.0001}, 
                {"id": 20, "lemma": "ㄴ", "type": "ETM", "position": 105, "weight": 0.392321}, 
                {"id": 21, "lemma": "두", "type": "MM", "position": 109, "weight": 0.00826235}, 
                {"id": 22, "lemma": "번째", "type": "NNB", "position": 113, "weight": 0.18051}, 
                {"id": 23, "lemma": "남극", "type": "NNG", "position": 120, "weight": 0.0954344}, 
                {"id": 24, "lemma": "기지", "type": "NNG", "position": 126, "weight": 0.184068}, 
                {"id": 25, "lemma": "이", "type": "VCP", "position": 132, "weight": 0.0177525}, 
                {"id": 26, "lemma": "자", "type": "EC", "position": 135, "weight": 0.109096}, 
                {"id": 27, "lemma": "남극", "type": "NNG", "position": 139, "weight": 0.189307}, 
                {"id": 28, "lemma": "대륙", "type": "NNG", "position": 145, "weight": 0.9}, 
                {"id": 29, "lemma": "내륙", "type": "NNG", "position": 152, "weight": 0.9}, 
                {"id": 30, "lemma": "에", "type": "JKB", "position": 158, "weight": 0.153364}, 
                {"id": 31, "lemma": "짓", "type": "VV", "position": 162, "weight": 0.362981}, 
                {"id": 32, "lemma": "는", "type": "ETM", "position": 165, "weight": 0.184941}, 
                {"id": 33, "lemma": "첫", "type": "MM", "position": 169, "weight": 0.9}, 
                {"id": 34, "lemma": "기지", "type": "NNG", "position": 173, "weight": 0.734376}, 
                {"id": 35, "lemma": "이", "type": "VCP", "position": 179, "weight": 0.0177525}, 
                {"id": 36, "lemma": "다", "type": "EF", "position": 182, "weight": 0.353579}, 
                {"id": 37, "lemma": ".", "type": "SF", "position": 185, "weight": 1}
            ], 
            "morp_eval": [], 
            "WSD": [
                {"id": 0, "text": "장보고기지", "type": "NNP", "scode": "000000", "weight": 0, "position": 0, "begin": 0, "end": 0}, 
                {"id": 1, "text": "는", "type": "JX", "scode": "000000", "weight": 1, "position": 15, "begin": 1, "end": 1}, 
                {"id": 2, "text": "대한민국", "type": "NNP", "scode": "000000", "weight": 1, "position": 19, "begin": 2, "end": 2}, 
                {"id": 3, "text": "이", "type": "JKS", "scode": "000000", "weight": 1, "position": 31, "begin": 3, "end": 3}, 
                {"id": 4, "text": "지나", "type": "VV", "scode": "000100", "weight": 0.2, "position": 35, "begin": 4, "end": 4}, 
                {"id": 5, "text": "ㄴ", "type": "ETM", "scode": "000000", "weight": 1, "position": 38, "begin": 5, "end": 5}, 
                {"id": 6, "text": "1988", "type": "SN", "scode": "000000", "weight": 1, "position": 42, "begin": 6, "end": 6}, 
                {"id": 7, "text": "년", "type": "NNB", "scode": "020000", "weight": 0.166667, "position": 46, "begin": 7, "end": 7}, 
                {"id": 8, "text": "세종과학기지", "type": "NNP", "scode": "000000", "weight": 0, "position": 50, "begin": 8, "end": 8}, 
                {"id": 9, "text": "를", "type": "JKO", "scode": "000000", "weight": 1, "position": 68, "begin": 9, "end": 9}, 
                {"id": 10, "text": "건설하", "type": "VV", "scode": "000001", "weight": 0.5, "position": 72, "begin": 10, "end": 11}, 
                {"id": 11, "text": "ㄴ", "type": "ETM", "scode": "000000", "weight": 1, "position": 78, "begin": 12, "end": 12}, 
                {"id": 12, "text": "지", "type": "NNB", "scode": "020000", "weight": 0.027027, "position": 82, "begin": 13, "end": 13}, 
                {"id": 13, "text": "26", "type": "SN", "scode": "000000", "weight": 1, "position": 86, "begin": 14, "end": 14}, 
                {"id": 14, "text": "년", "type": "NNB", "scode": "020000", "weight": 0.166667, "position": 88, "begin": 15, "end": 15}, 
                {"id": 15, "text": "만", "type": "NNB", "scode": "010000", "weight": 0.0416667, "position": 92, "begin": 16, "end": 16}, 
                {"id": 16, "text": "에", "type": "JKB", "scode": "000000", "weight": 1, "position": 95, "begin": 17, "end": 17}, 
                {"id": 17, "text": "완공하", "type": "VV", "scode": "000000", "weight": 1, "position": 99, "begin": 18, "end": 19}, 
                {"id": 18, "text": "ㄴ", "type": "ETM", "scode": "000000", "weight": 1, "position": 105, "begin": 20, "end": 20}, 
                {"id": 19, "text": "두", "type": "MM", "scode": "010000", "weight": 0.0909091, "position": 109, "begin": 21, "end": 21}, 
                {"id": 20, "text": "번째", "type": "NNB", "scode": "000000", "weight": 1, "position": 113, "begin": 22, "end": 22}, 
                {"id": 21, "text": "남극기지", "type": "NNG", "scode": "000000", "weight": 1, "position": 120, "begin": 23, "end": 24}, 
                {"id": 22, "text": "이", "type": "VCP", "scode": "030000", "weight": 0.0172414, "position": 132, "begin": 25, "end": 25}, 
                {"id": 23, "text": "자", "type": "EC", "scode": "000000", "weight": 1, "position": 135, "begin": 26, "end": 26}, 
                {"id": 24, "text": "남극대륙", "type": "NNG", "scode": "000000", "weight": 1, "position": 139, "begin": 27, "end": 28}, 
                {"id": 25, "text": "내륙", "type": "NNG", "scode": "000001", "weight": 0.5, "position": 152, "begin": 29, "end": 29}, 
                {"id": 26, "text": "에", "type": "JKB", "scode": "000000", "weight": 1, "position": 158, "begin": 30, "end": 30}, 
                {"id": 27, "text": "짓", "type": "VV", "scode": "010101", "weight": 0.0625, "position": 162, "begin": 31, "end": 31}, 
                {"id": 28, "text": "는", "type": "ETM", "scode": "000000", "weight": 1, "position": 165, "begin": 32, "end": 32}, 
                {"id": 29, "text": "첫", "type": "MM", "scode": "000000", "weight": 1, "position": 169, "begin": 33, "end": 33}, 
                {"id": 30, "text": "기지", "type": "NNG", "scode": "080001", "weight": 0.0666667, "position": 173, "begin": 34, "end": 34}, 
                {"id": 31, "text": "이", "type": "VCP", "scode": "030000", "weight": 0.0172414, "position": 179, "begin": 35, "end": 35}, 
                {"id": 32, "text": "다", "type": "EF", "scode": "000000", "weight": 1, "position": 182, "begin": 36, "end": 36}, 
                {"id": 33, "text": ".", "type": "SF", "scode": "000000", "weight": 1, "position": 185, "begin": 37, "end": 37}
            ], 
            "word": [
                {"id": 0, "text": "장보고기지는", "type": "", "begin": 0, "end": 1}, 
                {"id": 1, "text": "대한민국이", "type": "", "begin": 2, "end": 3}, 
                {"id": 2, "text": "지난", "type": "", "begin": 4, "end": 5}, 
                {"id": 3, "text": "1988년", "type": "", "begin": 6, "end": 7}, 
                {"id": 4, "text": "세종과학기지를", "type": "", "begin": 8, "end": 9}, 
                {"id": 5, "text": "건설한", "type": "", "begin": 10, "end": 12}, 
                {"id": 6, "text": "지", "type": "", "begin": 13, "end": 13}, 
                {"id": 7, "text": "26년", "type": "", "begin": 14, "end": 15}, 
                {"id": 8, "text": "만에", "type": "", "begin": 16, "end": 17}, 
                {"id": 9, "text": "완공한", "type": "", "begin": 18, "end": 20}, 
                {"id": 10, "text": "두", "type": "", "begin": 21, "end": 21}, 
                {"id": 11, "text": "번째", "type": "", "begin": 22, "end": 22}, 
                {"id": 12, "text": "남극기지이자", "type": "", "begin": 23, "end": 26}, 
                {"id": 13, "text": "남극대륙", "type": "", "begin": 27, "end": 28}, 
                {"id": 14, "text": "내륙에", "type": "", "begin": 29, "end": 30}, 
                {"id": 15, "text": "짓는", "type": "", "begin": 31, "end": 32}, 
                {"id": 16, "text": "첫", "type": "", "begin": 33, "end": 33}, 
                {"id": 17, "text": "기지이다.", "type": "", "begin": 34, "end": 37}
            ], 
            "NE": [
                {"id": 0, "text": "장보고기지", "type": "OGG_SCIENCE", "begin": 0, "end": 0, "weight": 0.221256, "common_noun": 0}, 
                {"id": 1, "text": "대한민국", "type": "LCP_COUNTRY", "begin": 2, "end": 2, "weight": 0.438405, "common_noun": 0}, 
                {"id": 2, "text": "지난 1988년", "type": "DT_YEAR", "begin": 4, "end": 7, "weight": 0.693705, "common_noun": 0}, 
                {"id": 3, "text": "세종과학기지", "type": "OGG_SCIENCE", "begin": 8, "end": 8, "weight": 0.492598, "common_noun": 0}, 
                {"id": 4, "text": "26년", "type": "DT_DURATION", "begin": 14, "end": 15, "weight": 0.809041, "common_noun": 0}, 
                {"id": 5, "text": "두 번째", "type": "QT_ORDER", "begin": 21, "end": 22, "weight": 0.846103, "common_noun": 0}, 
                {"id": 6, "text": "남극", "type": "LCG_CONTINENT", "begin": 23, "end": 23, "weight": 0.11551, "common_noun": 0}, 
                {"id": 7, "text": "남극대륙", "type": "LCG_CONTINENT", "begin": 27, "end": 28, "weight": 0.478261, "common_noun": 0}, 
                {"id": 8, "text": "첫 기지", "type": "QT_OTHERS", "begin": 33, "end": 34, "weight": 0.446943, "common_noun": 0}
            ], 
            "chunk": [], 
            "dependency": [
                {"id": 0, "text": "장보고기지는", "head": 12, "label": "NP_SBJ", "mod": [], "weight": 0.0429449}, 
                {"id": 1, "text": "대한민국이", "head": 5, "label": "NP_SBJ", "mod": [], "weight": 0.750878}, 
                {"id": 2, "text": "지난", "head": 3, "label": "VP_MOD", "mod": [], "weight": 0.749978}, 
                {"id": 3, "text": "1988년", "head": 5, "label": "NP_AJT", "mod": [2], "weight": 0.689802}, 
                {"id": 4, "text": "세종과학기지를", "head": 5, "label": "NP_OBJ", "mod": [], "weight": 0.685482}, 
                {"id": 5, "text": "건설한", "head": 6, "label": "VP_MOD", "mod": [3, 4, 1], "weight": 0.646173}, 
                {"id": 6, "text": "지", "head": 8, "label": "NP_SBJ", "mod": [5], "weight": 0.187}, 
                {"id": 7, "text": "26년", "head": 8, "label": "NP", "mod": [], "weight": 0.799798}, 
                {"id": 8, "text": "만에", "head": 9, "label": "NP_AJT", "mod": [6, 7], "weight": 0.803559}, 
                {"id": 9, "text": "완공한", "head": 12, "label": "VP_MOD", "mod": [8], "weight": 0.641248}, 
                {"id": 10, "text": "두", "head": 11, "label": "DP", "mod": [], "weight": 0.543552}, 
                {"id": 11, "text": "번째", "head": 12, "label": "NP", "mod": [10], "weight": 0.318724}, 
                {"id": 12, "text": "남극기지이자", "head": 17, "label": "VNP", "mod": [0, 9, 11], "weight": 0.654248}, 
                {"id": 13, "text": "남극대륙", "head": 14, "label": "NP", "mod": [], "weight": 0.846482}, 
                {"id": 14, "text": "내륙에", "head": 15, "label": "NP_AJT", "mod": [13], "weight": 0.803614}, 
                {"id": 15, "text": "짓는", "head": 17, "label": "VP_MOD", "mod": [14], "weight": 0.838826}, 
                {"id": 16, "text": "첫", "head": 17, "label": "DP", "mod": [], "weight": 0.724572}, 
                {"id": 17, "text": "기지이다.", "head": -1, "label": "VNP", "mod": [15, 16, 12], "weight": 2.29643e-05}
            ], 
            "SRL": [
                {"verb": "건설", "sense": 1, "word_id": 5, "weight": 0.225851, "argument": [
                    {"type": "ARGM-TMP", "word_id": 3, "text": "1988년", "weight": 0.266209}, 
                    {"type": "ARG1", "word_id": 4, "text": "세종과학기지를", "weight": 0.185493}, 
                    {"type": "ARG0", "word_id": 1, "text": "대한민국이", "weight": 1}
                ]}, 
                {"verb": "완공", "sense": 1, "word_id": 9, "weight": 0.163739, "argument": [
                    {"type": "ARG1", "word_id": 12, "text": "남극기지이자", "weight": 0.163739}, 
                    {"type": "ARGM-TMP", "word_id": 8, "text": "만에", "weight": 1}, 
                    {"type": "ARG0", "word_id": 1, "text": "대한민국이", "weight": 1}
                ]}, 
                {"verb": "짓", "sense": 1, "word_id": 15, "weight": 0.106154, "argument": [
                    {"type": "ARGM-LOC", "word_id": 14, "text": "내륙에", "weight": 1}, 
                    {"type": "ARG1", "word_id": 17, "text": "기지이다.", "weight": 0.0975107}, 
                    {"type": "ARG0", "word_id": 1, "text": "대한민국이", "weight": 1}
                ]}
            ], 
            "relation": [], 
            "SA": [], 
            "ZA": []
        }
    ], 
    "entity": [
        {"id": 0, "type": "QT_OTHERS", "number": "singular", "gender": "", "person": "", "animacy": "thing", "mention": [
            {"id": 0, "sent_id": 0, "start_eid": 0, "end_eid": 0, "ne_id": 0, "text": "장보고기지는", "start_eid_short": 0, "end_eid_short": 0, "text_short": "장보고기지는"}, 
            {"id": 1, "sent_id": 0, "start_eid": 1, "end_eid": 17, "ne_id": 8, "text": "대한민국이 지난 1988년 세종과학기지를 건설한 지 26년 만에 완공한 두 번째 남극기지이자 남극대륙 내륙에 짓는 첫 기지이다.", "start_eid_short": 17, "end_eid_short": 17, "text_short": "기지이다."}, 
            {"id": 2, "sent_id": 0, "start_eid": 1, "end_eid": 12, "ne_id": 6, "text": "대한민국이 지난 1988년 세종과학기지를 건설한 지 26년 만에 완공한 두 번째 남극기지이자", "start_eid_short": 12, "end_eid_short": 12, "text_short": "남극기지이자"}
        ]}, 
        {"id": 1, "type": "LCP_COUNTRY", "number": "singular", "gender": "", "person": "", "animacy": "place", "mention": [
            {"id": 3, "sent_id": 0, "start_eid": 1, "end_eid": 1, "ne_id": 1, "text": "대한민국이", "start_eid_short": 1, "end_eid_short": 1, "text_short": "대한민국이"}
        ]}, 
        {"id": 2, "type": "", "number": "singular", "gender": "", "person": "", "animacy": "thing", "mention": [
            {"id": 6, "sent_id": 0, "start_eid": 4, "end_eid": 6, "ne_id": -1, "text": "세종과학기지를 건설한 지", "start_eid_short": 6, "end_eid_short": 6, "text_short": "지"}
        ]}, 
        {"id": 3, "type": "DT_YEAR", "number": "singular", "gender": "", "person": "", "animacy": "time", "mention": [
            {"id": 4, "sent_id": 0, "start_eid": 2, "end_eid": 3, "ne_id": 2, "text": "지난 1988년", "start_eid_short": 3, "end_eid_short": 3, "text_short": "1988년"}
        ]}, 
        {"id": 4, "type": "OGG_SCIENCE", "number": "singular", "gender": "", "person": "", "animacy": "thing", "mention": [
            {"id": 7, "sent_id": 0, "start_eid": 4, "end_eid": 4, "ne_id": 3, "text": "세종과학기지를", "start_eid_short": 4, "end_eid_short": 4, "text_short": "세종과학기지를"}
        ]}, 
        {"id": 5, "type": "", "number": "singular", "gender": "", "person": "", "animacy": "thing", "mention": [
            {"id": 5, "sent_id": 0, "start_eid": 4, "end_eid": 8, "ne_id": -1, "text": "세종과학기지를 건설한 지 26년 만에", "start_eid_short": 6, "end_eid_short": 8, "text_short": "지 26년 만에"}
        ]}, 
        {"id": 6, "type": "DT_DURATION", "number": "singular", "gender": "", "person": "", "animacy": "time", "mention": [
            {"id": 8, "sent_id": 0, "start_eid": 7, "end_eid": 7, "ne_id": 4, "text": "26년", "start_eid_short": 7, "end_eid_short": 7, "text_short": "26년"}
        ]}, 
        {"id": 7, "type": "QT_OTHERS", "number": "singular", "gender": "", "person": "", "animacy": "thing", "mention": [
            {"id": 9, "sent_id": 0, "start_eid": 10, "end_eid": 11, "ne_id": 5, "text": "두 번째", "start_eid_short": 10, "end_eid_short": 11, "text_short": "두 번째"}
        ]}, 
        {"id": 8, "type": "LCG_CONTINENT", "number": "singular", "gender": "", "person": "", "animacy": "place", "mention": [
            {"id": 12, "sent_id": 0, "start_eid": 13, "end_eid": 13, "ne_id": 7, "text": "남극대륙", "start_eid_short": 13, "end_eid_short": 13, "text_short": "남극대륙"}
        ]}, 
        {"id": 9, "type": "", "number": "singular", "gender": "", "person": "", "animacy": "thing", "mention": [
            {"id": 11, "sent_id": 0, "start_eid": 13, "end_eid": 14, "ne_id": -1, "text": "남극대륙 내륙에", "start_eid_short": 13, "end_eid_short": 14, "text_short": "남극대륙 내륙에"}
        ]}, 
        {"id": 10, "type": "QT_OTHERS", "number": "singular", "gender": "", "person": "", "animacy": "thing", "mention": [
            {"id": 10, "sent_id": 0, "start_eid": 13, "end_eid": 17, "ne_id": 8, "text": "남극대륙 내륙에 짓는 첫 기지이다.", "start_eid_short": 17, "end_eid_short": 17, "text_short": "기지이다."}
        ]}
    ]
}