{
    "doc_id": "E2016.790.20_A_02.json", 
    "DCT": "", 
    "category": "", 
    "category_weight": 0, 
    "title": {
        "text": "선거", 
        "NE": ""
    }, 
    "metaInfo": {}, 
    "sentence": [
        {
            "id": 0, 
            "reserve_str": "", 
            "text": "일정한 조직이나 집단이 대표자나 임원을 뽑는 일.", 
            "morp": [
                {"id": 0, "lemma": "일정", "type": "NNG", "position": 0, "weight": 0.437443}, 
                {"id": 1, "lemma": "하", "type": "XSA", "position": 6, "weight": 0.0001}, 
                {"id": 2, "lemma": "ㄴ", "type": "ETM", "position": 6, "weight": 0.488779}, 
                {"id": 3, "lemma": "조직", "type": "NNG", "position": 10, "weight": 0.658701}, 
                {"id": 4, "lemma": "이나", "type": "JC", "position": 16, "weight": 0.0238189}, 
                {"id": 5, "lemma": "집단", "type": "NNG", "position": 23, "weight": 0.9}, 
                {"id": 6, "lemma": "이", "type": "JKS", "position": 29, "weight": 0.0360723}, 
                {"id": 7, "lemma": "대표", "type": "NNG", "position": 33, "weight": 0.9}, 
                {"id": 8, "lemma": "자", "type": "XSN", "position": 39, "weight": 0.00398741}, 
                {"id": 9, "lemma": "나", "type": "JC", "position": 42, "weight": 0.00299131}, 
                {"id": 10, "lemma": "임원", "type": "NNG", "position": 46, "weight": 0.9}, 
                {"id": 11, "lemma": "을", "type": "JKO", "position": 52, "weight": 0.129611}, 
                {"id": 12, "lemma": "뽑", "type": "VV", "position": 56, "weight": 0.9}, 
                {"id": 13, "lemma": "는", "type": "ETM", "position": 59, "weight": 0.184941}, 
                {"id": 14, "lemma": "일", "type": "NNG", "position": 63, "weight": 0.421798}, 
                {"id": 15, "lemma": ".", "type": "SF", "position": 66, "weight": 1}
            ], 
            "morp_eval": [], 
            "WSD": [
                {"id": 0, "text": "일정하", "type": "VA", "scode": "000006", "weight": 0.166667, "position": 0, "begin": 0, "end": 1}, 
                {"id": 1, "text": "ㄴ", "type": "ETM", "scode": "000000", "weight": 1, "position": 6, "begin": 2, "end": 2}, 
                {"id": 2, "text": "조직", "type": "NNG", "scode": "000002", "weight": 0.2, "position": 10, "begin": 3, "end": 3}, 
                {"id": 3, "text": "이나", "type": "JC", "scode": "000000", "weight": 1, "position": 16, "begin": 4, "end": 4}, 
                {"id": 4, "text": "집단", "type": "NNG", "scode": "000000", "weight": 1, "position": 23, "begin": 5, "end": 5}, 
                {"id": 5, "text": "이", "type": "JKS", "scode": "000000", "weight": 1, "position": 29, "begin": 6, "end": 6}, 
                {"id": 6, "text": "대표자", "type": "NNG", "scode": "000000", "weight": 1, "position": 33, "begin": 7, "end": 8}, 
                {"id": 7, "text": "나", "type": "JC", "scode": "000000", "weight": 1, "position": 42, "begin": 9, "end": 9}, 
                {"id": 8, "text": "임원", "type": "NNG", "scode": "010000", "weight": 0.333333, "position": 46, "begin": 10, "end": 10}, 
                {"id": 9, "text": "을", "type": "JKO", "scode": "000000", "weight": 1, "position": 52, "begin": 11, "end": 11}, 
                {"id": 10, "text": "뽑", "type": "VV", "scode": "000105", "weight": 0.1, "position": 56, "begin": 12, "end": 12}, 
                {"id": 11, "text": "는", "type": "ETM", "scode": "000000", "weight": 1, "position": 59, "begin": 13, "end": 13}, 
                {"id": 12, "text": "일", "type": "NNG", "scode": "010010", "weight": 0.04, "position": 63, "begin": 14, "end": 14}, 
                {"id": 13, "text": ".", "type": "SF", "scode": "000000", "weight": 1, "position": 66, "begin": 15, "end": 15}
            ], 
            "word": [
                {"id": 0, "text": "일정한", "type": "", "begin": 0, "end": 2}, 
                {"id": 1, "text": "조직이나", "type": "", "begin": 3, "end": 4}, 
                {"id": 2, "text": "집단이", "type": "", "begin": 5, "end": 6}, 
                {"id": 3, "text": "대표자나", "type": "", "begin": 7, "end": 9}, 
                {"id": 4, "text": "임원을", "type": "", "begin": 10, "end": 11}, 
                {"id": 5, "text": "뽑는", "type": "", "begin": 12, "end": 13}, 
                {"id": 6, "text": "일.", "type": "", "begin": 14, "end": 15}
            ], 
            "NE": [
                {"id": 0, "text": "대표자", "type": "CV_POSITION", "begin": 7, "end": 8, "weight": 0.807748, "common_noun": 0}, 
                {"id": 1, "text": "임원", "type": "CV_POSITION", "begin": 10, "end": 10, "weight": 0.577224, "common_noun": 0}
            ], 
            "chunk": [], 
            "dependency": [
                {"id": 0, "text": "일정한", "head": 2, "label": "VP_MOD", "mod": [], "weight": 0.803946}, 
                {"id": 1, "text": "조직이나", "head": 2, "label": "NP_CNJ", "mod": [], "weight": 0.693146}, 
                {"id": 2, "text": "집단이", "head": 5, "label": "NP_SBJ", "mod": [0, 1], "weight": 0.704521}, 
                {"id": 3, "text": "대표자나", "head": 4, "label": "NP_CNJ", "mod": [], "weight": 0.703808}, 
                {"id": 4, "text": "임원을", "head": 5, "label": "NP_OBJ", "mod": [3], "weight": 0.789334}, 
                {"id": 5, "text": "뽑는", "head": 6, "label": "VP_MOD", "mod": [2, 4], "weight": 0.861038}, 
                {"id": 6, "text": "일.", "head": -1, "label": "NP", "mod": [5], "weight": 0.15514}
            ], 
            "SRL": [
                {"verb": "일정", "sense": 1, "word_id": 0, "weight": 0.231869, "argument": [
                    {"type": "ARG1", "word_id": 2, "text": "집단이", "weight": 0.231869}
                ]}, 
                {"verb": "뽑", "sense": 1, "word_id": 5, "weight": 0.236354, "argument": [
                    {"type": "ARG0", "word_id": 2, "text": "집단이", "weight": 0.210237}, 
                    {"type": "ARG1", "word_id": 4, "text": "임원을", "weight": 0.262472}
                ]}
            ], 
            "relation": [], 
            "SA": [], 
            "ZA": []
        }
    ], 
    "entity": [
        {"id": 0, "type": "", "number": "singular", "gender": "", "person": "", "animacy": "thing", "mention": [
            {"id": 1, "sent_id": 0, "start_eid": 0, "end_eid": 2, "ne_id": -1, "text": "일정한 조직이나 집단이", "start_eid_short": 2, "end_eid_short": 2, "text_short": "집단이"}
        ]}, 
        {"id": 1, "type": "", "number": "singular", "gender": "", "person": "", "animacy": "thing", "mention": [
            {"id": 2, "sent_id": 0, "start_eid": 1, "end_eid": 1, "ne_id": -1, "text": "조직이나", "start_eid_short": 1, "end_eid_short": 1, "text_short": "조직이나"}
        ]}, 
        {"id": 2, "type": "CV_POSITION", "number": "singular", "gender": "", "person": "", "animacy": "human", "mention": [
            {"id": 4, "sent_id": 0, "start_eid": 3, "end_eid": 4, "ne_id": 1, "text": "대표자나 임원을", "start_eid_short": 4, "end_eid_short": 4, "text_short": "임원을"}
        ]}, 
        {"id": 3, "type": "CV_POSITION", "number": "singular", "gender": "", "person": "", "animacy": "human", "mention": [
            {"id": 5, "sent_id": 0, "start_eid": 3, "end_eid": 3, "ne_id": 0, "text": "대표자나", "start_eid_short": 3, "end_eid_short": 3, "text_short": "대표자나"}
        ]}, 
        {"id": 4, "type": "", "number": "singular", "gender": "", "person": "", "animacy": "thing", "mention": [
            {"id": 3, "sent_id": 0, "start_eid": 2, "end_eid": 2, "ne_id": -1, "text": "집단이", "start_eid_short": 2, "end_eid_short": 2, "text_short": "집단이"}
        ]}, 
        {"id": 5, "type": "CV_POSITION", "number": "singular", "gender": "", "person": "", "animacy": "human", "mention": [
            {"id": 6, "sent_id": 0, "start_eid": 4, "end_eid": 4, "ne_id": 1, "text": "임원을", "start_eid_short": 4, "end_eid_short": 4, "text_short": "임원을"}
        ]}, 
        {"id": 6, "type": "", "number": "singular", "gender": "", "person": "", "animacy": "thing", "mention": [
            {"id": 0, "sent_id": 0, "start_eid": 0, "end_eid": 6, "ne_id": -1, "text": "일정한 조직이나 집단이 대표자나 임원을 뽑는 일.", "start_eid_short": 6, "end_eid_short": 6, "text_short": "일."}
        ]}
    ]
}