{
    "doc_id": "E2016.835.04_A_02.json", 
    "DCT": "", 
    "category": "", 
    "category_weight": 0, 
    "title": {
        "text": "저항권", 
        "NE": ""
    }, 
    "metaInfo": {}, 
    "sentence": [
        {
            "id": 0, 
            "reserve_str": "", 
            "text": "저항권은 17, 18세기 존 로크의 사상을 배경으로 성립되었다.", 
            "morp": [
                {"id": 0, "lemma": "저항", "type": "NNG", "position": 0, "weight": 0.9}, 
                {"id": 1, "lemma": "권", "type": "XSN", "position": 6, "weight": 0.0140728}, 
                {"id": 2, "lemma": "은", "type": "JX", "position": 9, "weight": 0.100393}, 
                {"id": 3, "lemma": "17", "type": "SN", "position": 13, "weight": 1}, 
                {"id": 4, "lemma": ",", "type": "SP", "position": 15, "weight": 1}, 
                {"id": 5, "lemma": "18", "type": "SN", "position": 17, "weight": 1}, 
                {"id": 6, "lemma": "세기", "type": "NNG", "position": 19, "weight": 0.100259}, 
                {"id": 7, "lemma": "존", "type": "NNP", "position": 26, "weight": 0.00677795}, 
                {"id": 8, "lemma": "로크", "type": "NNP", "position": 30, "weight": 0.0772879}, 
                {"id": 9, "lemma": "의", "type": "JKG", "position": 36, "weight": 0.0987295}, 
                {"id": 10, "lemma": "사상", "type": "NNG", "position": 40, "weight": 0.868188}, 
                {"id": 11, "lemma": "을", "type": "JKO", "position": 46, "weight": 0.129611}, 
                {"id": 12, "lemma": "배경", "type": "NNG", "position": 50, "weight": 0.9}, 
                {"id": 13, "lemma": "으로", "type": "JKB", "position": 56, "weight": 0.153406}, 
                {"id": 14, "lemma": "성립", "type": "NNG", "position": 63, "weight": 0.9}, 
                {"id": 15, "lemma": "되", "type": "XSV", "position": 69, "weight": 0.000224177}, 
                {"id": 16, "lemma": "었", "type": "EP", "position": 72, "weight": 0.9}, 
                {"id": 17, "lemma": "다", "type": "EF", "position": 75, "weight": 0.640954}, 
                {"id": 18, "lemma": ".", "type": "SF", "position": 78, "weight": 1}
            ], 
            "morp_eval": [], 
            "WSD": [
                {"id": 0, "text": "저항권", "type": "NNG", "scode": "000000", "weight": 1, "position": 0, "begin": 0, "end": 1}, 
                {"id": 1, "text": "은", "type": "JX", "scode": "000000", "weight": 1, "position": 9, "begin": 2, "end": 2}, 
                {"id": 2, "text": "17", "type": "SN", "scode": "000000", "weight": 1, "position": 13, "begin": 3, "end": 3}, 
                {"id": 3, "text": ",", "type": "SP", "scode": "000000", "weight": 1, "position": 15, "begin": 4, "end": 4}, 
                {"id": 4, "text": "18", "type": "SN", "scode": "000000", "weight": 1, "position": 17, "begin": 5, "end": 5}, 
                {"id": 5, "text": "세기", "type": "NNG", "scode": "030002", "weight": 0.0909091, "position": 19, "begin": 6, "end": 6}, 
                {"id": 6, "text": "존", "type": "NNP", "scode": "888888", "weight": 0.333333, "position": 26, "begin": 7, "end": 7}, 
                {"id": 7, "text": "로크", "type": "NNP", "scode": "020000", "weight": 0.333333, "position": 30, "begin": 8, "end": 8}, 
                {"id": 8, "text": "의", "type": "JKG", "scode": "000000", "weight": 1, "position": 36, "begin": 9, "end": 9}, 
                {"id": 9, "text": "사상", "type": "NNG", "scode": "150001", "weight": 0.0277778, "position": 40, "begin": 10, "end": 10}, 
                {"id": 10, "text": "을", "type": "JKO", "scode": "000000", "weight": 1, "position": 46, "begin": 11, "end": 11}, 
                {"id": 11, "text": "배경", "type": "NNG", "scode": "010004", "weight": 0.142857, "position": 50, "begin": 12, "end": 12}, 
                {"id": 12, "text": "으로", "type": "JKB", "scode": "000000", "weight": 1, "position": 56, "begin": 13, "end": 13}, 
                {"id": 13, "text": "성립되", "type": "VV", "scode": "000000", "weight": 1, "position": 63, "begin": 14, "end": 15}, 
                {"id": 14, "text": "었", "type": "EP", "scode": "000000", "weight": 1, "position": 72, "begin": 16, "end": 16}, 
                {"id": 15, "text": "다", "type": "EF", "scode": "000000", "weight": 1, "position": 75, "begin": 17, "end": 17}, 
                {"id": 16, "text": ".", "type": "SF", "scode": "000000", "weight": 1, "position": 78, "begin": 18, "end": 18}
            ], 
            "word": [
                {"id": 0, "text": "저항권은", "type": "", "begin": 0, "end": 2}, 
                {"id": 1, "text": "17,", "type": "", "begin": 3, "end": 4}, 
                {"id": 2, "text": "18세기", "type": "", "begin": 5, "end": 6}, 
                {"id": 3, "text": "존", "type": "", "begin": 7, "end": 7}, 
                {"id": 4, "text": "로크의", "type": "", "begin": 8, "end": 9}, 
                {"id": 5, "text": "사상을", "type": "", "begin": 10, "end": 11}, 
                {"id": 6, "text": "배경으로", "type": "", "begin": 12, "end": 13}, 
                {"id": 7, "text": "성립되었다.", "type": "", "begin": 14, "end": 18}
            ], 
            "NE": [
                {"id": 0, "text": "저항권", "type": "CV_LAW", "begin": 0, "end": 1, "weight": 0.412647, "common_noun": 0}, 
                {"id": 1, "text": "17, 18세기", "type": "DT_OTHERS", "begin": 3, "end": 6, "weight": 0.365416, "common_noun": 0}, 
                {"id": 2, "text": "존 로크", "type": "PS_NAME", "begin": 7, "end": 8, "weight": 0.363885, "common_noun": 0}
            ], 
            "chunk": [], 
            "dependency": [
                {"id": 0, "text": "저항권은", "head": 7, "label": "NP_SBJ", "mod": [], "weight": 0.753301}, 
                {"id": 1, "text": "17,", "head": 2, "label": "NP_CNJ", "mod": [], "weight": 0.500915}, 
                {"id": 2, "text": "18세기", "head": 5, "label": "NP", "mod": [1], "weight": 0.405045}, 
                {"id": 3, "text": "존", "head": 4, "label": "NP", "mod": [], "weight": 0.614711}, 
                {"id": 4, "text": "로크의", "head": 5, "label": "NP_MOD", "mod": [3], "weight": 0.634974}, 
                {"id": 5, "text": "사상을", "head": 6, "label": "NP_OBJ", "mod": [2, 4], "weight": 0.104315}, 
                {"id": 6, "text": "배경으로", "head": 7, "label": "NP_AJT", "mod": [5], "weight": 0.83068}, 
                {"id": 7, "text": "성립되었다.", "head": -1, "label": "VP", "mod": [0, 6], "weight": 0.00424021}
            ], 
            "SRL": [
                {"verb": "성립", "sense": 1, "word_id": 7, "weight": 0.12383, "argument": [
                    {"type": "ARG1", "word_id": 0, "text": "저항권은", "weight": 0.176994}, 
                    {"type": "ARGM-PRD", "word_id": 6, "text": "배경으로", "weight": 1}
                ]}
            ], 
            "relation": [], 
            "SA": [], 
            "ZA": []
        }
    ], 
    "entity": [
        {"id": 0, "type": "CV_LAW", "number": "singular", "gender": "", "person": "", "animacy": "thing", "mention": [
            {"id": 0, "sent_id": 0, "start_eid": 0, "end_eid": 0, "ne_id": 0, "text": "저항권은", "start_eid_short": 0, "end_eid_short": 0, "text_short": "저항권은"}
        ]}, 
        {"id": 1, "type": "", "number": "singular", "gender": "", "person": "", "animacy": "thing", "mention": [
            {"id": 3, "sent_id": 0, "start_eid": 3, "end_eid": 5, "ne_id": -1, "text": "존 로크의 사상을", "start_eid_short": 5, "end_eid_short": 5, "text_short": "사상을"}
        ]}, 
        {"id": 2, "type": "DT_OTHERS", "number": "singular", "gender": "", "person": "", "animacy": "time", "mention": [
            {"id": 1, "sent_id": 0, "start_eid": 1, "end_eid": 2, "ne_id": 1, "text": "17, 18세기", "start_eid_short": 2, "end_eid_short": 2, "text_short": "18세기"}
        ]}, 
        {"id": 3, "type": "PS_NAME", "number": "singular", "gender": "", "person": "", "animacy": "human", "mention": [
            {"id": 4, "sent_id": 0, "start_eid": 3, "end_eid": 4, "ne_id": 2, "text": "존 로크의", "start_eid_short": 3, "end_eid_short": 4, "text_short": "존 로크의"}
        ]}, 
        {"id": 4, "type": "", "number": "singular", "gender": "", "person": "", "animacy": "thing", "mention": [
            {"id": 2, "sent_id": 0, "start_eid": 3, "end_eid": 6, "ne_id": -1, "text": "존 로크의 사상을 배경으로", "start_eid_short": 6, "end_eid_short": 6, "text_short": "배경으로"}
        ]}
    ]
}