{
    "doc_id": "E2016.837.33_A_01.json", 
    "DCT": "", 
    "category": "", 
    "category_weight": 0, 
    "title": {
        "text": "성덕대왕 신종", 
        "NE": ""
    }, 
    "metaInfo": {}, 
    "sentence": [
        {
            "id": 0, 
            "reserve_str": "", 
            "text": "성덕대왕신종(聖德大王神鍾)은 신라 시대에 만들어진, 현존하는 한국 최대의 종이다.", 
            "morp": [
                {"id": 0, "lemma": "성덕", "type": "NNP", "position": 0, "weight": 0.050374}, 
                {"id": 1, "lemma": "대왕", "type": "NNG", "position": 6, "weight": 0.280698}, 
                {"id": 2, "lemma": "신종", "type": "NNG", "position": 12, "weight": 0.148706}, 
                {"id": 3, "lemma": "(", "type": "SS", "position": 18, "weight": 1}, 
                {"id": 4, "lemma": "聖德大王神鍾", "type": "SH", "position": 19, "weight": 1}, 
                {"id": 5, "lemma": ")", "type": "SS", "position": 37, "weight": 1}, 
                {"id": 6, "lemma": "은", "type": "JX", "position": 38, "weight": 0.0128817}, 
                {"id": 7, "lemma": "신라", "type": "NNP", "position": 42, "weight": 0.9}, 
                {"id": 8, "lemma": "시대", "type": "NNG", "position": 49, "weight": 0.9}, 
                {"id": 9, "lemma": "에", "type": "JKB", "position": 55, "weight": 0.153364}, 
                {"id": 10, "lemma": "만들", "type": "VV", "position": 59, "weight": 0.9}, 
                {"id": 11, "lemma": "어", "type": "EC", "position": 65, "weight": 0.41831}, 
                {"id": 12, "lemma": "지", "type": "VX", "position": 68, "weight": 0.0539764}, 
                {"id": 13, "lemma": "ㄴ", "type": "ETM", "position": 68, "weight": 0.302612}, 
                {"id": 14, "lemma": ",", "type": "SP", "position": 71, "weight": 1}, 
                {"id": 15, "lemma": "현존", "type": "NNG", "position": 73, "weight": 0.9}, 
                {"id": 16, "lemma": "하", "type": "XSV", "position": 79, "weight": 0.0001}, 
                {"id": 17, "lemma": "는", "type": "ETM", "position": 82, "weight": 0.238503}, 
                {"id": 18, "lemma": "한국", "type": "NNP", "position": 86, "weight": 0.0280282}, 
                {"id": 19, "lemma": "최대", "type": "NNG", "position": 93, "weight": 0.9}, 
                {"id": 20, "lemma": "의", "type": "JKG", "position": 99, "weight": 0.0694213}, 
                {"id": 21, "lemma": "종", "type": "NNG", "position": 103, "weight": 0.84689}, 
                {"id": 22, "lemma": "이", "type": "VCP", "position": 106, "weight": 0.0177525}, 
                {"id": 23, "lemma": "다", "type": "EF", "position": 109, "weight": 0.353579}, 
                {"id": 24, "lemma": ".", "type": "SF", "position": 112, "weight": 1}
            ], 
            "morp_eval": [], 
            "WSD": [
                {"id": 0, "text": "성덕대왕신종", "type": "NNP", "scode": "000000", "weight": 1, "position": 0, "begin": 0, "end": 2}, 
                {"id": 1, "text": "(", "type": "SS", "scode": "000000", "weight": 1, "position": 18, "begin": 3, "end": 3}, 
                {"id": 2, "text": "聖德大王神鍾", "type": "SH", "scode": "000000", "weight": 1, "position": 19, "begin": 4, "end": 4}, 
                {"id": 3, "text": ")", "type": "SS", "scode": "000000", "weight": 1, "position": 37, "begin": 5, "end": 5}, 
                {"id": 4, "text": "은", "type": "JX", "scode": "000000", "weight": 1, "position": 38, "begin": 6, "end": 6}, 
                {"id": 5, "text": "신라", "type": "NNP", "scode": "000000", "weight": 1, "position": 42, "begin": 7, "end": 7}, 
                {"id": 6, "text": "시대", "type": "NNG", "scode": "020001", "weight": 0.333333, "position": 49, "begin": 8, "end": 8}, 
                {"id": 7, "text": "에", "type": "JKB", "scode": "000000", "weight": 1, "position": 55, "begin": 9, "end": 9}, 
                {"id": 8, "text": "만들", "type": "VV", "scode": "000101", "weight": 0.0769231, "position": 59, "begin": 10, "end": 10}, 
                {"id": 9, "text": "어", "type": "EC", "scode": "000000", "weight": 1, "position": 65, "begin": 11, "end": 11}, 
                {"id": 10, "text": "지", "type": "VX", "scode": "040101", "weight": 0.037037, "position": 68, "begin": 12, "end": 12}, 
                {"id": 11, "text": "ㄴ", "type": "ETM", "scode": "000000", "weight": 1, "position": 68, "begin": 13, "end": 13}, 
                {"id": 12, "text": ",", "type": "SP", "scode": "000000", "weight": 1, "position": 71, "begin": 14, "end": 14}, 
                {"id": 13, "text": "현존하", "type": "VV", "scode": "000002", "weight": 0.5, "position": 73, "begin": 15, "end": 16}, 
                {"id": 14, "text": "는", "type": "ETM", "scode": "000000", "weight": 1, "position": 82, "begin": 17, "end": 17}, 
                {"id": 15, "text": "한국", "type": "NNP", "scode": "050002", "weight": 0.142857, "position": 86, "begin": 18, "end": 18}, 
                {"id": 16, "text": "최대", "type": "NNG", "scode": "000000", "weight": 1, "position": 93, "begin": 19, "end": 19}, 
                {"id": 17, "text": "의", "type": "JKG", "scode": "000000", "weight": 1, "position": 99, "begin": 20, "end": 20}, 
                {"id": 18, "text": "종", "type": "NNG", "scode": "130001", "weight": 0.0416667, "position": 103, "begin": 21, "end": 21}, 
                {"id": 19, "text": "이", "type": "VCP", "scode": "030000", "weight": 0.0172414, "position": 106, "begin": 22, "end": 22}, 
                {"id": 20, "text": "다", "type": "EF", "scode": "000000", "weight": 1, "position": 109, "begin": 23, "end": 23}, 
                {"id": 21, "text": ".", "type": "SF", "scode": "000000", "weight": 1, "position": 112, "begin": 24, "end": 24}
            ], 
            "word": [
                {"id": 0, "text": "성덕대왕신종(聖德大王神鍾)은", "type": "", "begin": 0, "end": 6}, 
                {"id": 1, "text": "신라", "type": "", "begin": 7, "end": 7}, 
                {"id": 2, "text": "시대에", "type": "", "begin": 8, "end": 9}, 
                {"id": 3, "text": "만들어진,", "type": "", "begin": 10, "end": 14}, 
                {"id": 4, "text": "현존하는", "type": "", "begin": 15, "end": 17}, 
                {"id": 5, "text": "한국", "type": "", "begin": 18, "end": 18}, 
                {"id": 6, "text": "최대의", "type": "", "begin": 19, "end": 20}, 
                {"id": 7, "text": "종이다.", "type": "", "begin": 21, "end": 24}
            ], 
            "NE": [
                {"id": 0, "text": "성덕대왕신종", "type": "AF_CULTURAL_ASSET", "begin": 0, "end": 2, "weight": 0.550036, "common_noun": 0}, 
                {"id": 1, "text": "聖德大王神鍾", "type": "AF_CULTURAL_ASSET", "begin": 4, "end": 4, "weight": 0.201809, "common_noun": 0}, 
                {"id": 2, "text": "신라 시대", "type": "DT_DYNASTY", "begin": 7, "end": 8, "weight": 0.834189, "common_noun": 0}, 
                {"id": 3, "text": "한국", "type": "LCP_COUNTRY", "begin": 18, "end": 18, "weight": 0.645549, "common_noun": 0}
            ], 
            "chunk": [], 
            "dependency": [
                {"id": 0, "text": "성덕대왕신종(聖德大王神鍾)은", "head": 7, "label": "NP_SBJ", "mod": [], "weight": 0.799636}, 
                {"id": 1, "text": "신라", "head": 2, "label": "NP", "mod": [], "weight": 0.803341}, 
                {"id": 2, "text": "시대에", "head": 3, "label": "NP_AJT", "mod": [1], "weight": 0.831166}, 
                {"id": 3, "text": "만들어진,", "head": 7, "label": "VP_MOD", "mod": [2], "weight": 0.700642}, 
                {"id": 4, "text": "현존하는", "head": 7, "label": "VP_MOD", "mod": [], "weight": 0.715576}, 
                {"id": 5, "text": "한국", "head": 6, "label": "NP", "mod": [], "weight": 0.566448}, 
                {"id": 6, "text": "최대의", "head": 7, "label": "NP_MOD", "mod": [5], "weight": 0.842712}, 
                {"id": 7, "text": "종이다.", "head": -1, "label": "VNP", "mod": [0, 3, 4, 6], "weight": 0.104112}
            ], 
            "SRL": [
                {"verb": "만들", "sense": 1, "word_id": 3, "weight": 0.217893, "argument": [
                    {"type": "ARGM-TMP", "word_id": 2, "text": "시대에", "weight": 0.21944}, 
                    {"type": "ARG1", "word_id": 7, "text": "종이다.", "weight": 1}
                ]}, 
                {"verb": "현존", "sense": 1, "word_id": 4, "weight": 0.167032, "argument": [
                    {"type": "ARGM-PRD", "word_id": 6, "text": "최대의", "weight": 1}, 
                    {"type": "ARG1", "word_id": 7, "text": "종이다.", "weight": 1}
                ]}
            ], 
            "relation": [], 
            "SA": [], 
            "ZA": []
        }, 
        {
            "id": 1, 
            "reserve_str": "", 
            "text": "설화에 따라 에밀레종으로 부르거나 봉덕사에 걸려 있던 종이라 하여 봉덕사종이라 부르기도 한다.", 
            "morp": [
                {"id": 0, "lemma": "설화", "type": "NNG", "position": 113, "weight": 0.431052}, 
                {"id": 1, "lemma": "에", "type": "JKB", "position": 119, "weight": 0.153364}, 
                {"id": 2, "lemma": "따르", "type": "VV", "position": 123, "weight": 0.9}, 
                {"id": 3, "lemma": "아", "type": "EC", "position": 126, "weight": 0.398809}, 
                {"id": 4, "lemma": "에밀레종", "type": "NNG", "position": 130, "weight": 0.0109866}, 
                {"id": 5, "lemma": "으로", "type": "JKB", "position": 142, "weight": 0.0823853}, 
                {"id": 6, "lemma": "부르", "type": "VV", "position": 149, "weight": 0.436568}, 
                {"id": 7, "lemma": "거나", "type": "EC", "position": 155, "weight": 0.421781}, 
                {"id": 8, "lemma": "봉덕사", "type": "NNP", "position": 162, "weight": 0.0438847}, 
                {"id": 9, "lemma": "에", "type": "JKB", "position": 171, "weight": 0.153364}, 
                {"id": 10, "lemma": "걸리", "type": "VV", "position": 175, "weight": 0.445254}, 
                {"id": 11, "lemma": "어", "type": "EC", "position": 178, "weight": 0.41831}, 
                {"id": 12, "lemma": "있", "type": "VX", "position": 182, "weight": 0.125953}, 
                {"id": 13, "lemma": "던", "type": "ETM", "position": 185, "weight": 0.315776}, 
                {"id": 14, "lemma": "종", "type": "NNG", "position": 189, "weight": 0.9}, 
                {"id": 15, "lemma": "이", "type": "VCP", "position": 192, "weight": 0.0177525}, 
                {"id": 16, "lemma": "라", "type": "EC", "position": 195, "weight": 0.20798}, 
                {"id": 17, "lemma": "하", "type": "VV", "position": 199, "weight": 0.140183}, 
                {"id": 18, "lemma": "아", "type": "EC", "position": 202, "weight": 0.41831}, 
                {"id": 19, "lemma": "봉덕사", "type": "NNP", "position": 206, "weight": 0.0438847}, 
                {"id": 20, "lemma": "종", "type": "NNG", "position": 215, "weight": 0.179632}, 
                {"id": 21, "lemma": "이", "type": "VCP", "position": 218, "weight": 0.0177525}, 
                {"id": 22, "lemma": "라", "type": "EC", "position": 221, "weight": 0.20798}, 
                {"id": 23, "lemma": "부르", "type": "VV", "position": 225, "weight": 0.222121}, 
                {"id": 24, "lemma": "기", "type": "ETN", "position": 231, "weight": 0.0380514}, 
                {"id": 25, "lemma": "도", "type": "JX", "position": 234, "weight": 0.147715}, 
                {"id": 26, "lemma": "하", "type": "VX", "position": 238, "weight": 0.00978548}, 
                {"id": 27, "lemma": "ㄴ다", "type": "EF", "position": 238, "weight": 0.184394}, 
                {"id": 28, "lemma": ".", "type": "SF", "position": 244, "weight": 1}
            ], 
            "morp_eval": [], 
            "WSD": [
                {"id": 0, "text": "설화", "type": "NNG", "scode": "050002", "weight": 0.125, "position": 113, "begin": 0, "end": 0}, 
                {"id": 1, "text": "에", "type": "JKB", "scode": "000000", "weight": 1, "position": 119, "begin": 1, "end": 1}, 
                {"id": 2, "text": "따르", "type": "VV", "scode": "010202", "weight": 0.125, "position": 123, "begin": 2, "end": 2}, 
                {"id": 3, "text": "아", "type": "EC", "scode": "000000", "weight": 1, "position": 126, "begin": 3, "end": 3}, 
                {"id": 4, "text": "에밀레종", "type": "NNG", "scode": "000000", "weight": 1, "position": 130, "begin": 4, "end": 4}, 
                {"id": 5, "text": "으로", "type": "JKB", "scode": "000000", "weight": 1, "position": 142, "begin": 5, "end": 5}, 
                {"id": 6, "text": "부르", "type": "VV", "scode": "010300", "weight": 0.0714286, "position": 149, "begin": 6, "end": 6}, 
                {"id": 7, "text": "거나", "type": "EC", "scode": "000000", "weight": 1, "position": 155, "begin": 7, "end": 7}, 
                {"id": 8, "text": "봉덕사", "type": "NNP", "scode": "000000", "weight": 0, "position": 162, "begin": 8, "end": 8}, 
                {"id": 9, "text": "에", "type": "JKB", "scode": "000000", "weight": 1, "position": 171, "begin": 9, "end": 9}, 
                {"id": 10, "text": "걸리", "type": "VV", "scode": "010101", "weight": 0.0434783, "position": 175, "begin": 10, "end": 10}, 
                {"id": 11, "text": "어", "type": "EC", "scode": "000000", "weight": 1, "position": 178, "begin": 11, "end": 11}, 
                {"id": 12, "text": "있", "type": "VX", "scode": "010901", "weight": 0.0416667, "position": 182, "begin": 12, "end": 12}, 
                {"id": 13, "text": "던", "type": "ETM", "scode": "000000", "weight": 1, "position": 185, "begin": 13, "end": 13}, 
                {"id": 14, "text": "종", "type": "NNG", "scode": "130001", "weight": 0.0416667, "position": 189, "begin": 14, "end": 14}, 
                {"id": 15, "text": "이", "type": "VCP", "scode": "030000", "weight": 0.0172414, "position": 192, "begin": 15, "end": 15}, 
                {"id": 16, "text": "라", "type": "EC", "scode": "000000", "weight": 1, "position": 195, "begin": 16, "end": 16}, 
                {"id": 17, "text": "하", "type": "VV", "scode": "010701", "weight": 0.02, "position": 199, "begin": 17, "end": 17}, 
                {"id": 18, "text": "아", "type": "EC", "scode": "000000", "weight": 1, "position": 202, "begin": 18, "end": 18}, 
                {"id": 19, "text": "봉덕사종", "type": "NNP", "scode": "000000", "weight": 1, "position": 206, "begin": 19, "end": 20}, 
                {"id": 20, "text": "이", "type": "VCP", "scode": "030000", "weight": 0.0172414, "position": 218, "begin": 21, "end": 21}, 
                {"id": 21, "text": "라", "type": "EC", "scode": "000000", "weight": 1, "position": 221, "begin": 22, "end": 22}, 
                {"id": 22, "text": "부르", "type": "VV", "scode": "010300", "weight": 0.0714286, "position": 225, "begin": 23, "end": 23}, 
                {"id": 23, "text": "기", "type": "ETN", "scode": "000000", "weight": 1, "position": 231, "begin": 24, "end": 24}, 
                {"id": 24, "text": "도", "type": "JX", "scode": "000000", "weight": 1, "position": 234, "begin": 25, "end": 25}, 
                {"id": 25, "text": "하", "type": "VX", "scode": "011105", "weight": 0.02, "position": 238, "begin": 26, "end": 26}, 
                {"id": 26, "text": "ㄴ다", "type": "EF", "scode": "000000", "weight": 1, "position": 238, "begin": 27, "end": 27}, 
                {"id": 27, "text": ".", "type": "SF", "scode": "000000", "weight": 1, "position": 244, "begin": 28, "end": 28}
            ], 
            "word": [
                {"id": 0, "text": "설화에", "type": "", "begin": 0, "end": 1}, 
                {"id": 1, "text": "따라", "type": "", "begin": 2, "end": 3}, 
                {"id": 2, "text": "에밀레종으로", "type": "", "begin": 4, "end": 5}, 
                {"id": 3, "text": "부르거나", "type": "", "begin": 6, "end": 7}, 
                {"id": 4, "text": "봉덕사에", "type": "", "begin": 8, "end": 9}, 
                {"id": 5, "text": "걸려", "type": "", "begin": 10, "end": 11}, 
                {"id": 6, "text": "있던", "type": "", "begin": 12, "end": 13}, 
                {"id": 7, "text": "종이라", "type": "", "begin": 14, "end": 16}, 
                {"id": 8, "text": "하여", "type": "", "begin": 17, "end": 18}, 
                {"id": 9, "text": "봉덕사종이라", "type": "", "begin": 19, "end": 22}, 
                {"id": 10, "text": "부르기도", "type": "", "begin": 23, "end": 25}, 
                {"id": 11, "text": "한다.", "type": "", "begin": 26, "end": 28}
            ], 
            "NE": [
                {"id": 0, "text": "에밀레종", "type": "AF_CULTURAL_ASSET", "begin": 4, "end": 4, "weight": 0.287473, "common_noun": 0}, 
                {"id": 1, "text": "봉덕사", "type": "AF_CULTURAL_ASSET", "begin": 8, "end": 8, "weight": 0.386755, "common_noun": 0}, 
                {"id": 2, "text": "봉덕사종", "type": "AF_CULTURAL_ASSET", "begin": 19, "end": 20, "weight": 0.374378, "common_noun": 0}
            ], 
            "chunk": [], 
            "dependency": [
                {"id": 0, "text": "설화에", "head": 1, "label": "NP_AJT", "mod": [], "weight": 0.756768}, 
                {"id": 1, "text": "따라", "head": 3, "label": "VP", "mod": [0], "weight": 0.821473}, 
                {"id": 2, "text": "에밀레종으로", "head": 3, "label": "NP_AJT", "mod": [], "weight": 0.752152}, 
                {"id": 3, "text": "부르거나", "head": 10, "label": "VP", "mod": [1, 2], "weight": 0.454997}, 
                {"id": 4, "text": "봉덕사에", "head": 5, "label": "NP_AJT", "mod": [], "weight": 0.695964}, 
                {"id": 5, "text": "걸려", "head": 6, "label": "VP", "mod": [4], "weight": 0.69743}, 
                {"id": 6, "text": "있던", "head": 7, "label": "VP_MOD", "mod": [5], "weight": 0.813604}, 
                {"id": 7, "text": "종이라", "head": 8, "label": "VNP_CMP", "mod": [6], "weight": 0.464545}, 
                {"id": 8, "text": "하여", "head": 9, "label": "VP", "mod": [7], "weight": 0.446632}, 
                {"id": 9, "text": "봉덕사종이라", "head": 10, "label": "VNP_CMP", "mod": [8], "weight": 0.54552}, 
                {"id": 10, "text": "부르기도", "head": 11, "label": "VP", "mod": [9, 3], "weight": 0.651409}, 
                {"id": 11, "text": "한다.", "head": -1, "label": "VP", "mod": [10], "weight": 0.00472812}
            ], 
            "SRL": [
                {"verb": "따르", "sense": 2, "word_id": 1, "weight": 0.234826, "argument": [
                    {"type": "ARG2", "word_id": 0, "text": "설화에", "weight": 0.234826}
                ]}, 
                {"verb": "부르", "sense": 2, "word_id": 3, "weight": 0.127022, "argument": [
                    {"type": "ARG2", "word_id": 2, "text": "에밀레종으로", "weight": 0.127022}
                ]}, 
                {"verb": "걸02", "sense": 1, "word_id": 5, "weight": 0.38599, "argument": [
                    {"type": "ARG2", "word_id": 4, "text": "봉덕사에", "weight": 0.189705}, 
                    {"type": "AUX", "word_id": 6, "text": "있던", "weight": 0.582275}, 
                    {"type": "ARG1", "word_id": 7, "text": "종이라", "weight": 1}
                ]}, 
                {"verb": "하", "sense": 2, "word_id": 8, "weight": 0.190435, "argument": [
                    {"type": "ARG2", "word_id": 7, "text": "종이라", "weight": 1}
                ]}, 
                {"verb": "부르", "sense": 2, "word_id": 10, "weight": 0.260921, "argument": [
                    {"type": "ARGM-CAU", "word_id": 8, "text": "하여", "weight": 0.196004}, 
                    {"type": "ARG2", "word_id": 9, "text": "봉덕사종이라", "weight": 0.239699}, 
                    {"type": "AUX", "word_id": 11, "text": "한다.", "weight": 0.34706}
                ]}
            ], 
            "relation": [], 
            "SA": [], 
            "ZA": []
        }
    ], 
    "entity": [
        {"id": 0, "type": "AF_CULTURAL_ASSET", "number": "singular", "gender": "", "person": "", "animacy": "thing", "mention": [
            {"id": 0, "sent_id": 0, "start_eid": 0, "end_eid": 0, "ne_id": 0, "text": "성덕대왕신종(聖德大王神鍾)은", "start_eid_short": 0, "end_eid_short": 0, "text_short": "성덕대왕신종(聖德大王神鍾)은"}, 
            {"id": 1, "sent_id": 0, "start_eid": 1, "end_eid": 7, "ne_id": -1, "text": "신라 시대에 만들어진, 현존하는 한국 최대의 종이다.", "start_eid_short": 7, "end_eid_short": 7, "text_short": "종이다."}, 
            {"id": 5, "sent_id": 1, "start_eid": 0, "end_eid": 2, "ne_id": 0, "text": "설화에 따라 에밀레종으로", "start_eid_short": 2, "end_eid_short": 2, "text_short": "에밀레종으로"}, 
            {"id": 7, "sent_id": 1, "start_eid": 4, "end_eid": 9, "ne_id": 2, "text": "봉덕사에 걸려 있던 종이라 하여 봉덕사종이라", "start_eid_short": 9, "end_eid_short": 9, "text_short": "봉덕사종이라"}
        ]}, 
        {"id": 1, "type": "DT_DYNASTY", "number": "singular", "gender": "", "person": "", "animacy": "time", "mention": [
            {"id": 2, "sent_id": 0, "start_eid": 1, "end_eid": 2, "ne_id": 2, "text": "신라 시대에", "start_eid_short": 1, "end_eid_short": 2, "text_short": "신라 시대에"}
        ]}, 
        {"id": 2, "type": "", "number": "singular", "gender": "", "person": "", "animacy": "thing", "mention": [
            {"id": 3, "sent_id": 0, "start_eid": 5, "end_eid": 6, "ne_id": -1, "text": "한국 최대의", "start_eid_short": 5, "end_eid_short": 6, "text_short": "한국 최대의"}
        ]}, 
        {"id": 3, "type": "LCP_COUNTRY", "number": "singular", "gender": "", "person": "", "animacy": "place", "mention": [
            {"id": 4, "sent_id": 0, "start_eid": 5, "end_eid": 5, "ne_id": 3, "text": "한국", "start_eid_short": 5, "end_eid_short": 5, "text_short": "한국"}
        ]}, 
        {"id": 4, "type": "", "number": "singular", "gender": "", "person": "", "animacy": "thing", "mention": [
            {"id": 6, "sent_id": 1, "start_eid": 0, "end_eid": 0, "ne_id": -1, "text": "설화에", "start_eid_short": 0, "end_eid_short": 0, "text_short": "설화에"}
        ]}, 
        {"id": 5, "type": "AF_CULTURAL_ASSET", "number": "singular", "gender": "", "person": "", "animacy": "thing", "mention": [
            {"id": 8, "sent_id": 1, "start_eid": 4, "end_eid": 4, "ne_id": 1, "text": "봉덕사에", "start_eid_short": 4, "end_eid_short": 4, "text_short": "봉덕사에"}
        ]}
    ]
}