{
    "doc_id": "E2016.887.09_A_01.json", 
    "DCT": "", 
    "category": "", 
    "category_weight": 0, 
    "title": {
        "text": "토머스 영", 
        "NE": ""
    }, 
    "metaInfo": {}, 
    "sentence": [
        {
            "id": 0, 
            "reserve_str": "", 
            "text": "영은 자신의 많은 업적 중에 가장 중요한 업적이 빛의 파동 이론을 수립했던 것이라 생각했다.", 
            "morp": [
                {"id": 0, "lemma": "영", "type": "NNP", "position": 0, "weight": 0.0209187}, 
                {"id": 1, "lemma": "은", "type": "JX", "position": 3, "weight": 0.0520511}, 
                {"id": 2, "lemma": "자신", "type": "NNG", "position": 7, "weight": 0.324905}, 
                {"id": 3, "lemma": "의", "type": "JKG", "position": 13, "weight": 0.0694213}, 
                {"id": 4, "lemma": "많", "type": "VA", "position": 17, "weight": 0.0348509}, 
                {"id": 5, "lemma": "은", "type": "ETM", "position": 20, "weight": 0.155123}, 
                {"id": 6, "lemma": "업적", "type": "NNG", "position": 24, "weight": 0.9}, 
                {"id": 7, "lemma": "중", "type": "NNB", "position": 31, "weight": 0.013531}, 
                {"id": 8, "lemma": "에", "type": "JKB", "position": 34, "weight": 0.135559}, 
                {"id": 9, "lemma": "가장", "type": "MAG", "position": 38, "weight": 0.0546356}, 
                {"id": 10, "lemma": "중요", "type": "NNG", "position": 45, "weight": 0.9}, 
                {"id": 11, "lemma": "하", "type": "XSA", "position": 51, "weight": 0.0001}, 
                {"id": 12, "lemma": "ㄴ", "type": "ETM", "position": 51, "weight": 0.488779}, 
                {"id": 13, "lemma": "업적", "type": "NNG", "position": 55, "weight": 0.9}, 
                {"id": 14, "lemma": "이", "type": "JKS", "position": 61, "weight": 0.0360723}, 
                {"id": 15, "lemma": "빛", "type": "NNG", "position": 65, "weight": 0.209199}, 
                {"id": 16, "lemma": "의", "type": "JKG", "position": 68, "weight": 0.0694213}, 
                {"id": 17, "lemma": "파동", "type": "NNG", "position": 72, "weight": 0.867878}, 
                {"id": 18, "lemma": "이론", "type": "NNG", "position": 79, "weight": 0.9}, 
                {"id": 19, "lemma": "을", "type": "JKO", "position": 85, "weight": 0.129611}, 
                {"id": 20, "lemma": "수립", "type": "NNG", "position": 89, "weight": 0.9}, 
                {"id": 21, "lemma": "하", "type": "XSV", "position": 95, "weight": 0.0001}, 
                {"id": 22, "lemma": "았", "type": "EP", "position": 95, "weight": 0.9}, 
                {"id": 23, "lemma": "던", "type": "ETM", "position": 98, "weight": 0.107547}, 
                {"id": 24, "lemma": "것", "type": "NNB", "position": 102, "weight": 0.228788}, 
                {"id": 25, "lemma": "이", "type": "VCP", "position": 105, "weight": 0.0607843}, 
                {"id": 26, "lemma": "라", "type": "EC", "position": 108, "weight": 0.20798}, 
                {"id": 27, "lemma": "생각", "type": "NNG", "position": 112, "weight": 0.9}, 
                {"id": 28, "lemma": "하", "type": "XSV", "position": 118, "weight": 0.0001}, 
                {"id": 29, "lemma": "았", "type": "EP", "position": 118, "weight": 0.9}, 
                {"id": 30, "lemma": "다", "type": "EF", "position": 121, "weight": 0.640954}, 
                {"id": 31, "lemma": ".", "type": "SF", "position": 124, "weight": 1}
            ], 
            "morp_eval": [], 
            "WSD": [
                {"id": 0, "text": "영", "type": "NNP", "scode": "270000", "weight": 0.02, "position": 0, "begin": 0, "end": 0}, 
                {"id": 1, "text": "은", "type": "JX", "scode": "000000", "weight": 1, "position": 3, "begin": 1, "end": 1}, 
                {"id": 2, "text": "자신", "type": "NNG", "scode": "010001", "weight": 0.166667, "position": 7, "begin": 2, "end": 2}, 
                {"id": 3, "text": "의", "type": "JKG", "scode": "000000", "weight": 1, "position": 13, "begin": 3, "end": 3}, 
                {"id": 4, "text": "많", "type": "VA", "scode": "000000", "weight": 1, "position": 17, "begin": 4, "end": 4}, 
                {"id": 5, "text": "은", "type": "ETM", "scode": "000000", "weight": 1, "position": 20, "begin": 5, "end": 5}, 
                {"id": 6, "text": "업적", "type": "NNG", "scode": "000000", "weight": 1, "position": 24, "begin": 6, "end": 6}, 
                {"id": 7, "text": "중", "type": "NNB", "scode": "040101", "weight": 0.0526316, "position": 31, "begin": 7, "end": 7}, 
                {"id": 8, "text": "에", "type": "JKB", "scode": "000000", "weight": 1, "position": 34, "begin": 8, "end": 8}, 
                {"id": 9, "text": "가장", "type": "MAG", "scode": "010000", "weight": 0.0555556, "position": 38, "begin": 9, "end": 9}, 
                {"id": 10, "text": "중요하", "type": "VA", "scode": "020000", "weight": 0.5, "position": 45, "begin": 10, "end": 11}, 
                {"id": 11, "text": "ㄴ", "type": "ETM", "scode": "000000", "weight": 1, "position": 51, "begin": 12, "end": 12}, 
                {"id": 12, "text": "업적", "type": "NNG", "scode": "000000", "weight": 1, "position": 55, "begin": 13, "end": 13}, 
                {"id": 13, "text": "이", "type": "JKS", "scode": "000000", "weight": 1, "position": 61, "begin": 14, "end": 14}, 
                {"id": 14, "text": "빛", "type": "NNG", "scode": "000001", "weight": 0.166667, "position": 65, "begin": 15, "end": 15}, 
                {"id": 15, "text": "의", "type": "JKG", "scode": "000000", "weight": 1, "position": 68, "begin": 16, "end": 16}, 
                {"id": 16, "text": "파동", "type": "NNG", "scode": "010005", "weight": 0.166667, "position": 72, "begin": 17, "end": 17}, 
                {"id": 17, "text": "이론", "type": "NNG", "scode": "010001", "weight": 0.25, "position": 79, "begin": 18, "end": 18}, 
                {"id": 18, "text": "을", "type": "JKO", "scode": "000000", "weight": 1, "position": 85, "begin": 19, "end": 19}, 
                {"id": 19, "text": "수립하", "type": "VV", "scode": "020000", "weight": 0.5, "position": 89, "begin": 20, "end": 21}, 
                {"id": 20, "text": "았", "type": "EP", "scode": "000000", "weight": 1, "position": 95, "begin": 22, "end": 22}, 
                {"id": 21, "text": "던", "type": "ETM", "scode": "000000", "weight": 1, "position": 98, "begin": 23, "end": 23}, 
                {"id": 22, "text": "것", "type": "NNB", "scode": "010001", "weight": 0.125, "position": 102, "begin": 24, "end": 24}, 
                {"id": 23, "text": "이", "type": "VCP", "scode": "030000", "weight": 0.0172414, "position": 105, "begin": 25, "end": 25}, 
                {"id": 24, "text": "라", "type": "EC", "scode": "000000", "weight": 1, "position": 108, "begin": 26, "end": 26}, 
                {"id": 25, "text": "생각하", "type": "VV", "scode": "000101", "weight": 0.142857, "position": 112, "begin": 27, "end": 28}, 
                {"id": 26, "text": "았", "type": "EP", "scode": "000000", "weight": 1, "position": 118, "begin": 29, "end": 29}, 
                {"id": 27, "text": "다", "type": "EF", "scode": "000000", "weight": 1, "position": 121, "begin": 30, "end": 30}, 
                {"id": 28, "text": ".", "type": "SF", "scode": "000000", "weight": 1, "position": 124, "begin": 31, "end": 31}
            ], 
            "word": [
                {"id": 0, "text": "영은", "type": "", "begin": 0, "end": 1}, 
                {"id": 1, "text": "자신의", "type": "", "begin": 2, "end": 3}, 
                {"id": 2, "text": "많은", "type": "", "begin": 4, "end": 5}, 
                {"id": 3, "text": "업적", "type": "", "begin": 6, "end": 6}, 
                {"id": 4, "text": "중에", "type": "", "begin": 7, "end": 8}, 
                {"id": 5, "text": "가장", "type": "", "begin": 9, "end": 9}, 
                {"id": 6, "text": "중요한", "type": "", "begin": 10, "end": 12}, 
                {"id": 7, "text": "업적이", "type": "", "begin": 13, "end": 14}, 
                {"id": 8, "text": "빛의", "type": "", "begin": 15, "end": 16}, 
                {"id": 9, "text": "파동", "type": "", "begin": 17, "end": 17}, 
                {"id": 10, "text": "이론을", "type": "", "begin": 18, "end": 19}, 
                {"id": 11, "text": "수립했던", "type": "", "begin": 20, "end": 23}, 
                {"id": 12, "text": "것이라", "type": "", "begin": 24, "end": 26}, 
                {"id": 13, "text": "생각했다.", "type": "", "begin": 27, "end": 31}
            ], 
            "NE": [
                {"id": 0, "text": "영", "type": "PS_NAME", "begin": 0, "end": 0, "weight": 0.291909, "common_noun": 0}, 
                {"id": 1, "text": "빛의 파동 이론", "type": "TR_SCIENCE", "begin": 15, "end": 18, "weight": 0.291909, "common_noun": 0}
            ], 
            "chunk": [], 
            "dependency": [
                {"id": 0, "text": "영은", "head": 13, "label": "NP_SBJ", "mod": [], "weight": 0.454155}, 
                {"id": 1, "text": "자신의", "head": 3, "label": "NP_MOD", "mod": [], "weight": 0.689123}, 
                {"id": 2, "text": "많은", "head": 3, "label": "VP_MOD", "mod": [], "weight": 0.729228}, 
                {"id": 3, "text": "업적", "head": 4, "label": "NP", "mod": [1, 2], "weight": 0.806531}, 
                {"id": 4, "text": "중에", "head": 6, "label": "NP_AJT", "mod": [3], "weight": 0.845309}, 
                {"id": 5, "text": "가장", "head": 6, "label": "AP", "mod": [], "weight": 0.641962}, 
                {"id": 6, "text": "중요한", "head": 7, "label": "VP_MOD", "mod": [5, 4], "weight": 0.76696}, 
                {"id": 7, "text": "업적이", "head": 12, "label": "NP_SBJ", "mod": [6], "weight": 0.808726}, 
                {"id": 8, "text": "빛의", "head": 10, "label": "NP_MOD", "mod": [], "weight": 0.731692}, 
                {"id": 9, "text": "파동", "head": 10, "label": "NP", "mod": [], "weight": 0.623031}, 
                {"id": 10, "text": "이론을", "head": 11, "label": "NP_OBJ", "mod": [8, 9], "weight": 0.769562}, 
                {"id": 11, "text": "수립했던", "head": 12, "label": "VP_MOD", "mod": [10], "weight": 0.753012}, 
                {"id": 12, "text": "것이라", "head": 13, "label": "VNP_CMP", "mod": [11, 7], "weight": 0.564843}, 
                {"id": 13, "text": "생각했다.", "head": -1, "label": "VP", "mod": [12, 0], "weight": 0.00788968}
            ], 
            "SRL": [
                {"verb": "많", "sense": 1, "word_id": 2, "weight": 0.235131, "argument": [
                    {"type": "ARG1", "word_id": 3, "text": "업적", "weight": 0.235131}
                ]}, 
                {"verb": "중요", "sense": 1, "word_id": 6, "weight": 0.290484, "argument": [
                    {"type": "ARGM-EXT", "word_id": 5, "text": "가장", "weight": 0.349564}, 
                    {"type": "ARG1", "word_id": 7, "text": "업적이", "weight": 0.231404}, 
                    {"type": "ARGM-CND", "word_id": 4, "text": "중에", "weight": 1}
                ]}, 
                {"verb": "수립", "sense": 1, "word_id": 11, "weight": 0.157, "argument": [
                    {"type": "ARG1", "word_id": 10, "text": "이론을", "weight": 0.208138}
                ]}, 
                {"verb": "생각", "sense": 1, "word_id": 13, "weight": 0.256303, "argument": [
                    {"type": "ARG1", "word_id": 12, "text": "것이라", "weight": 0.256303}, 
                    {"type": "ARG0", "word_id": 0, "text": "영은", "weight": 1}
                ]}
            ], 
            "relation": [], 
            "SA": [], 
            "ZA": []
        }, 
        {
            "id": 1, 
            "reserve_str": "", 
            "text": "그 업적을 이루려면 존엄한 아이작 뉴턴의 광학, 빛은 입자라고 했던 1세기나 지난 견해를 이겨내야 했기 때문이다.", 
            "morp": [
                {"id": 0, "lemma": "그", "type": "MM", "position": 125, "weight": 0.026321}, 
                {"id": 1, "lemma": "업적", "type": "NNG", "position": 129, "weight": 0.9}, 
                {"id": 2, "lemma": "을", "type": "JKO", "position": 135, "weight": 0.129611}, 
                {"id": 3, "lemma": "이루", "type": "VV", "position": 139, "weight": 0.760047}, 
                {"id": 4, "lemma": "려면", "type": "EC", "position": 145, "weight": 0.429886}, 
                {"id": 5, "lemma": "존엄", "type": "NNG", "position": 152, "weight": 0.9}, 
                {"id": 6, "lemma": "하", "type": "XSA", "position": 158, "weight": 0.0001}, 
                {"id": 7, "lemma": "ㄴ", "type": "ETM", "position": 158, "weight": 0.488779}, 
                {"id": 8, "lemma": "아이작", "type": "NNP", "position": 162, "weight": 0.25}, 
                {"id": 9, "lemma": "뉴턴", "type": "NNP", "position": 172, "weight": 0.0789441}, 
                {"id": 10, "lemma": "의", "type": "JKG", "position": 178, "weight": 0.0987295}, 
                {"id": 11, "lemma": "광학", "type": "NNG", "position": 182, "weight": 0.9}, 
                {"id": 12, "lemma": ",", "type": "SP", "position": 188, "weight": 1}, 
                {"id": 13, "lemma": "빛", "type": "NNG", "position": 190, "weight": 0.531487}, 
                {"id": 14, "lemma": "은", "type": "JX", "position": 193, "weight": 0.0449928}, 
                {"id": 15, "lemma": "입자", "type": "NNG", "position": 197, "weight": 0.9}, 
                {"id": 16, "lemma": "이", "type": "VCP", "position": 200, "weight": 0.0177525}, 
                {"id": 17, "lemma": "라고", "type": "EC", "position": 203, "weight": 0.204147}, 
                {"id": 18, "lemma": "하", "type": "VV", "position": 210, "weight": 0.140183}, 
                {"id": 19, "lemma": "았", "type": "EP", "position": 210, "weight": 0.9}, 
                {"id": 20, "lemma": "던", "type": "ETM", "position": 213, "weight": 0.107547}, 
                {"id": 21, "lemma": "1", "type": "SN", "position": 217, "weight": 1}, 
                {"id": 22, "lemma": "세기", "type": "NNG", "position": 218, "weight": 0.100259}, 
                {"id": 23, "lemma": "나", "type": "JX", "position": 224, "weight": 0.00543468}, 
                {"id": 24, "lemma": "지나", "type": "VV", "position": 228, "weight": 0.0206011}, 
                {"id": 25, "lemma": "ㄴ", "type": "ETM", "position": 231, "weight": 0.304215}, 
                {"id": 26, "lemma": "견해", "type": "NNG", "position": 235, "weight": 0.9}, 
                {"id": 27, "lemma": "를", "type": "JKO", "position": 241, "weight": 0.137686}, 
                {"id": 28, "lemma": "이기", "type": "VV", "position": 245, "weight": 0.743838}, 
                {"id": 29, "lemma": "어", "type": "EC", "position": 254, "weight": 0.41831}, 
                {"id": 30, "lemma": "내", "type": "VX", "position": 254, "weight": 0.0587845}, 
                {"id": 31, "lemma": "어야", "type": "EC", "position": 254, "weight": 0.264837}, 
                {"id": 32, "lemma": "하", "type": "VX", "position": 258, "weight": 0.0899221}, 
                {"id": 33, "lemma": "았", "type": "EP", "position": 258, "weight": 0.9}, 
                {"id": 34, "lemma": "기", "type": "ETN", "position": 261, "weight": 0.0127802}, 
                {"id": 35, "lemma": "때문", "type": "NNB", "position": 265, "weight": 0.9}, 
                {"id": 36, "lemma": "이", "type": "VCP", "position": 271, "weight": 0.0607843}, 
                {"id": 37, "lemma": "다", "type": "EF", "position": 274, "weight": 0.353579}, 
                {"id": 38, "lemma": ".", "type": "SF", "position": 277, "weight": 1}
            ], 
            "morp_eval": [], 
            "WSD": [
                {"id": 0, "text": "그", "type": "MM", "scode": "010102", "weight": 0.142857, "position": 125, "begin": 0, "end": 0}, 
                {"id": 1, "text": "업적", "type": "NNG", "scode": "000000", "weight": 1, "position": 129, "begin": 1, "end": 1}, 
                {"id": 2, "text": "을", "type": "JKO", "scode": "000000", "weight": 1, "position": 135, "begin": 2, "end": 2}, 
                {"id": 3, "text": "이루", "type": "VV", "scode": "010102", "weight": 0.2, "position": 139, "begin": 3, "end": 3}, 
                {"id": 4, "text": "려면", "type": "EC", "scode": "000000", "weight": 1, "position": 145, "begin": 4, "end": 4}, 
                {"id": 5, "text": "존엄하", "type": "VA", "scode": "000000", "weight": 1, "position": 152, "begin": 5, "end": 6}, 
                {"id": 6, "text": "ㄴ", "type": "ETM", "scode": "000000", "weight": 1, "position": 158, "begin": 7, "end": 7}, 
                {"id": 7, "text": "아이작", "type": "NNP", "scode": "000000", "weight": 0, "position": 162, "begin": 8, "end": 8}, 
                {"id": 8, "text": "뉴턴", "type": "NNP", "scode": "020000", "weight": 0.5, "position": 172, "begin": 9, "end": 9}, 
                {"id": 9, "text": "의", "type": "JKG", "scode": "000000", "weight": 1, "position": 178, "begin": 10, "end": 10}, 
                {"id": 10, "text": "광학", "type": "NNG", "scode": "010000", "weight": 0.25, "position": 182, "begin": 11, "end": 11}, 
                {"id": 11, "text": ",", "type": "SP", "scode": "000000", "weight": 1, "position": 188, "begin": 12, "end": 12}, 
                {"id": 12, "text": "빛", "type": "NNG", "scode": "000001", "weight": 0.166667, "position": 190, "begin": 13, "end": 13}, 
                {"id": 13, "text": "은", "type": "JX", "scode": "000000", "weight": 1, "position": 193, "begin": 14, "end": 14}, 
                {"id": 14, "text": "입자", "type": "NNG", "scode": "020001", "weight": 0.25, "position": 197, "begin": 15, "end": 15}, 
                {"id": 15, "text": "이", "type": "VCP", "scode": "030000", "weight": 0.0172414, "position": 200, "begin": 16, "end": 16}, 
                {"id": 16, "text": "라고", "type": "EC", "scode": "000000", "weight": 1, "position": 203, "begin": 17, "end": 17}, 
                {"id": 17, "text": "하", "type": "VV", "scode": "010400", "weight": 0.02, "position": 210, "begin": 18, "end": 18}, 
                {"id": 18, "text": "았", "type": "EP", "scode": "000000", "weight": 1, "position": 210, "begin": 19, "end": 19}, 
                {"id": 19, "text": "던", "type": "ETM", "scode": "000000", "weight": 1, "position": 213, "begin": 20, "end": 20}, 
                {"id": 20, "text": "1", "type": "SN", "scode": "000000", "weight": 1, "position": 217, "begin": 21, "end": 21}, 
                {"id": 21, "text": "세기", "type": "NNG", "scode": "030002", "weight": 0.0909091, "position": 218, "begin": 22, "end": 22}, 
                {"id": 22, "text": "나", "type": "JX", "scode": "000000", "weight": 1, "position": 224, "begin": 23, "end": 23}, 
                {"id": 23, "text": "지나", "type": "VV", "scode": "000100", "weight": 0.2, "position": 228, "begin": 24, "end": 24}, 
                {"id": 24, "text": "ㄴ", "type": "ETM", "scode": "000000", "weight": 1, "position": 231, "begin": 25, "end": 25}, 
                {"id": 25, "text": "견해", "type": "NNG", "scode": "020000", "weight": 0.5, "position": 235, "begin": 26, "end": 26}, 
                {"id": 26, "text": "를", "type": "JKO", "scode": "000000", "weight": 1, "position": 241, "begin": 27, "end": 27}, 
                {"id": 27, "text": "이기", "type": "VV", "scode": "010100", "weight": 0.0909091, "position": 245, "begin": 28, "end": 28}, 
                {"id": 28, "text": "어", "type": "EC", "scode": "000000", "weight": 1, "position": 254, "begin": 29, "end": 29}, 
                {"id": 29, "text": "내", "type": "VX", "scode": "020600", "weight": 0.03125, "position": 254, "begin": 30, "end": 30}, 
                {"id": 30, "text": "어야", "type": "EC", "scode": "000000", "weight": 1, "position": 254, "begin": 31, "end": 31}, 
                {"id": 31, "text": "하", "type": "VX", "scode": "011103", "weight": 0.02, "position": 258, "begin": 32, "end": 32}, 
                {"id": 32, "text": "았", "type": "EP", "scode": "000000", "weight": 1, "position": 258, "begin": 33, "end": 33}, 
                {"id": 33, "text": "기", "type": "ETN", "scode": "000000", "weight": 1, "position": 261, "begin": 34, "end": 34}, 
                {"id": 34, "text": "때문", "type": "NNB", "scode": "000000", "weight": 1, "position": 265, "begin": 35, "end": 35}, 
                {"id": 35, "text": "이", "type": "VCP", "scode": "030000", "weight": 0.0172414, "position": 271, "begin": 36, "end": 36}, 
                {"id": 36, "text": "다", "type": "EF", "scode": "000000", "weight": 1, "position": 274, "begin": 37, "end": 37}, 
                {"id": 37, "text": ".", "type": "SF", "scode": "000000", "weight": 1, "position": 277, "begin": 38, "end": 38}
            ], 
            "word": [
                {"id": 0, "text": "그", "type": "", "begin": 0, "end": 0}, 
                {"id": 1, "text": "업적을", "type": "", "begin": 1, "end": 2}, 
                {"id": 2, "text": "이루려면", "type": "", "begin": 3, "end": 4}, 
                {"id": 3, "text": "존엄한", "type": "", "begin": 5, "end": 7}, 
                {"id": 4, "text": "아이작", "type": "", "begin": 8, "end": 8}, 
                {"id": 5, "text": "뉴턴의", "type": "", "begin": 9, "end": 10}, 
                {"id": 6, "text": "광학,", "type": "", "begin": 11, "end": 12}, 
                {"id": 7, "text": "빛은", "type": "", "begin": 13, "end": 14}, 
                {"id": 8, "text": "입자라고", "type": "", "begin": 15, "end": 17}, 
                {"id": 9, "text": "했던", "type": "", "begin": 18, "end": 20}, 
                {"id": 10, "text": "1세기나", "type": "", "begin": 21, "end": 23}, 
                {"id": 11, "text": "지난", "type": "", "begin": 24, "end": 25}, 
                {"id": 12, "text": "견해를", "type": "", "begin": 26, "end": 27}, 
                {"id": 13, "text": "이겨내야", "type": "", "begin": 28, "end": 31}, 
                {"id": 14, "text": "했기", "type": "", "begin": 32, "end": 34}, 
                {"id": 15, "text": "때문이다.", "type": "", "begin": 35, "end": 38}
            ], 
            "NE": [
                {"id": 0, "text": "아이작 뉴턴", "type": "PS_NAME", "begin": 8, "end": 9, "weight": 0.175842, "common_noun": 0}, 
                {"id": 1, "text": "1세기", "type": "DT_OTHERS", "begin": 21, "end": 22, "weight": 0.432357, "common_noun": 0}
            ], 
            "chunk": [], 
            "dependency": [
                {"id": 0, "text": "그", "head": 1, "label": "DP", "mod": [], "weight": 0.703426}, 
                {"id": 1, "text": "업적을", "head": 2, "label": "NP_OBJ", "mod": [0], "weight": 0.843601}, 
                {"id": 2, "text": "이루려면", "head": 13, "label": "VP", "mod": [1], "weight": 0.773923}, 
                {"id": 3, "text": "존엄한", "head": 5, "label": "VP_MOD", "mod": [], "weight": 0.190484}, 
                {"id": 4, "text": "아이작", "head": 5, "label": "NP", "mod": [], "weight": 0.747833}, 
                {"id": 5, "text": "뉴턴의", "head": 6, "label": "NP_MOD", "mod": [3, 4], "weight": 0.456544}, 
                {"id": 6, "text": "광학,", "head": 8, "label": "NP_AJT", "mod": [5], "weight": 0.155119}, 
                {"id": 7, "text": "빛은", "head": 8, "label": "NP_SBJ", "mod": [], "weight": 0.407407}, 
                {"id": 8, "text": "입자라고", "head": 9, "label": "VNP_CMP", "mod": [7, 6], "weight": 0.654953}, 
                {"id": 9, "text": "했던", "head": 12, "label": "VP_MOD", "mod": [8], "weight": 0.447078}, 
                {"id": 10, "text": "1세기나", "head": 11, "label": "NP_SBJ", "mod": [], "weight": 0.333296}, 
                {"id": 11, "text": "지난", "head": 12, "label": "VP_MOD", "mod": [10], "weight": 0.645019}, 
                {"id": 12, "text": "견해를", "head": 13, "label": "NP_OBJ", "mod": [11, 9], "weight": 0.776695}, 
                {"id": 13, "text": "이겨내야", "head": 14, "label": "VP", "mod": [2, 12], "weight": 0.606918}, 
                {"id": 14, "text": "했기", "head": 15, "label": "VP", "mod": [13], "weight": 0.744829}, 
                {"id": 15, "text": "때문이다.", "head": -1, "label": "VNP", "mod": [14], "weight": 3.69695e-05}
            ], 
            "SRL": [
                {"verb": "이루", "sense": 1, "word_id": 2, "weight": 0.203572, "argument": [
                    {"type": "ARG1", "word_id": 1, "text": "업적을", "weight": 0.203572}
                ]}, 
                {"verb": "존엄", "sense": 1, "word_id": 3, "weight": 0.222483, "argument": [
                    {"type": "ARG1", "word_id": 5, "text": "뉴턴의", "weight": 0.222483}
                ]}, 
                {"verb": "하", "sense": 2, "word_id": 9, "weight": 0.12134, "argument": [
                    {"type": "ARG2", "word_id": 8, "text": "입자라고", "weight": 0.136163}, 
                    {"type": "ARG1", "word_id": 7, "text": "빛은", "weight": 1}
                ]}, 
                {"verb": "지나", "sense": 1, "word_id": 11, "weight": 0, "argument": [
                    {"type": "ARG1", "word_id": 10, "text": "1세기나", "weight": 1}, 
                    {"type": "ARG0", "word_id": 12, "text": "견해를", "weight": 1}
                ]}, 
                {"verb": "이기", "sense": 1, "word_id": 13, "weight": 0.241165, "argument": [
                    {"type": "ARG1", "word_id": 12, "text": "견해를", "weight": 0.224494}, 
                    {"type": "AUX", "word_id": 14, "text": "했기", "weight": 0.412476}
                ]}
            ], 
            "relation": [], 
            "SA": [], 
            "ZA": []
        }
    ], 
    "entity": [
        {"id": 0, "type": "", "number": "singular", "gender": "", "person": "", "animacy": "thing", "mention": [
            {"id": 0, "sent_id": 0, "start_eid": 0, "end_eid": 0, "ne_id": -1, "text": "영은", "start_eid_short": 0, "end_eid_short": 0, "text_short": "영은"}, 
            {"id": 2, "sent_id": 0, "start_eid": 1, "end_eid": 1, "ne_id": -1, "text": "자신의", "start_eid_short": 1, "end_eid_short": 1, "text_short": "자신의"}
        ]}, 
        {"id": 1, "type": "", "number": "singular", "gender": "", "person": "", "animacy": "thing", "mention": [
            {"id": 3, "sent_id": 0, "start_eid": 5, "end_eid": 7, "ne_id": -1, "text": "가장 중요한 업적이", "start_eid_short": 7, "end_eid_short": 7, "text_short": "업적이"}, 
            {"id": 4, "sent_id": 0, "start_eid": 8, "end_eid": 12, "ne_id": -1, "text": "빛의 파동 이론을 수립했던 것이라", "start_eid_short": 12, "end_eid_short": 12, "text_short": "것이라"}, 
            {"id": 8, "sent_id": 1, "start_eid": 0, "end_eid": 1, "ne_id": -1, "text": "그 업적을", "start_eid_short": 0, "end_eid_short": 1, "text_short": "그 업적을"}
        ]}, 
        {"id": 2, "type": "", "number": "singular", "gender": "", "person": "", "animacy": "thing", "mention": [
            {"id": 5, "sent_id": 0, "start_eid": 8, "end_eid": 10, "ne_id": -1, "text": "빛의 파동 이론을", "start_eid_short": 9, "end_eid_short": 10, "text_short": "파동 이론을"}
        ]}, 
        {"id": 3, "type": "", "number": "singular", "gender": "", "person": "", "animacy": "thing", "mention": [
            {"id": 6, "sent_id": 0, "start_eid": 8, "end_eid": 8, "ne_id": -1, "text": "빛의", "start_eid_short": 8, "end_eid_short": 8, "text_short": "빛의"}, 
            {"id": 12, "sent_id": 1, "start_eid": 7, "end_eid": 7, "ne_id": -1, "text": "빛은", "start_eid_short": 7, "end_eid_short": 7, "text_short": "빛은"}
        ]}, 
        {"id": 4, "type": "", "number": "singular", "gender": "", "person": "", "animacy": "thing", "mention": [
            {"id": 7, "sent_id": 0, "start_eid": 9, "end_eid": 9, "ne_id": -1, "text": "파동", "start_eid_short": 9, "end_eid_short": 9, "text_short": "파동"}
        ]}, 
        {"id": 5, "type": "PS_NAME", "number": "singular", "gender": "", "person": "", "animacy": "human", "mention": [
            {"id": 10, "sent_id": 1, "start_eid": 4, "end_eid": 5, "ne_id": 0, "text": "아이작 뉴턴의", "start_eid_short": 4, "end_eid_short": 5, "text_short": "아이작 뉴턴의"}
        ]}, 
        {"id": 6, "type": "", "number": "singular", "gender": "", "person": "", "animacy": "thing", "mention": [
            {"id": 9, "sent_id": 1, "start_eid": 3, "end_eid": 12, "ne_id": -1, "text": "존엄한 아이작 뉴턴의 광학, 빛은 입자라고 했던 1세기나 지난 견해를", "start_eid_short": 12, "end_eid_short": 12, "text_short": "견해를"}
        ]}, 
        {"id": 7, "type": "DT_OTHERS", "number": "singular", "gender": "", "person": "", "animacy": "time", "mention": [
            {"id": 13, "sent_id": 1, "start_eid": 10, "end_eid": 10, "ne_id": 1, "text": "1세기나", "start_eid_short": 10, "end_eid_short": 10, "text_short": "1세기나"}
        ]}, 
        {"id": 8, "type": "", "number": "singular", "gender": "", "person": "", "animacy": "thing", "mention": [
            {"id": 1, "sent_id": 0, "start_eid": 1, "end_eid": 3, "ne_id": -1, "text": "자신의 많은 업적", "start_eid_short": 3, "end_eid_short": 3, "text_short": "업적"}
        ]}, 
        {"id": 9, "type": "", "number": "singular", "gender": "", "person": "", "animacy": "thing", "mention": [
            {"id": 11, "sent_id": 1, "start_eid": 6, "end_eid": 6, "ne_id": -1, "text": "광학,", "start_eid_short": 6, "end_eid_short": 6, "text_short": "광학,"}
        ]}
    ]
}