{
    "doc_id": "E2016.788.21_A_01.json", 
    "DCT": "", 
    "category": "", 
    "category_weight": 0, 
    "title": {
        "text": "이섭대천 기념비", 
        "NE": ""
    }, 
    "metaInfo": {}, 
    "sentence": [
        {
            "id": 0, 
            "reserve_str": "", 
            "text": "그 후 왕건이 서목의 도움에 대한 보답으로 '이섭대천'이라는 고사에서 따다가 이 지역에 ‘이천(利川)’이라는 이름을 내렸다고 한다.", 
            "morp": [
                {"id": 0, "lemma": "그", "type": "MM", "position": 0, "weight": 0.026321}, 
                {"id": 1, "lemma": "후", "type": "NNG", "position": 4, "weight": 0.734062}, 
                {"id": 2, "lemma": "왕건", "type": "NNP", "position": 8, "weight": 0.9}, 
                {"id": 3, "lemma": "이", "type": "JKS", "position": 14, "weight": 0.0234517}, 
                {"id": 4, "lemma": "서목", "type": "NNP", "position": 18, "weight": 0.1}, 
                {"id": 5, "lemma": "의", "type": "JKG", "position": 24, "weight": 0.0694213}, 
                {"id": 6, "lemma": "도움", "type": "NNG", "position": 28, "weight": 0.9}, 
                {"id": 7, "lemma": "에", "type": "JKB", "position": 34, "weight": 0.153364}, 
                {"id": 8, "lemma": "대하", "type": "VV", "position": 41, "weight": 0.0001}, 
                {"id": 9, "lemma": "ㄴ", "type": "ETM", "position": 41, "weight": 0.392321}, 
                {"id": 10, "lemma": "보답", "type": "NNG", "position": 45, "weight": 0.9}, 
                {"id": 11, "lemma": "으로", "type": "JKB", "position": 51, "weight": 0.153406}, 
                {"id": 12, "lemma": "'", "type": "SS", "position": 58, "weight": 1}, 
                {"id": 13, "lemma": "이섭대천", "type": "NNG", "position": 59, "weight": 0.6}, 
                {"id": 14, "lemma": "'", "type": "SS", "position": 71, "weight": 1}, 
                {"id": 15, "lemma": "이", "type": "VCP", "position": 75, "weight": 0.230361}, 
                {"id": 16, "lemma": "라는", "type": "ETM", "position": 75, "weight": 0.230361}, 
                {"id": 17, "lemma": "고사", "type": "NNG", "position": 82, "weight": 0.9}, 
                {"id": 18, "lemma": "에서", "type": "JKB", "position": 88, "weight": 0.153407}, 
                {"id": 19, "lemma": "따", "type": "VV", "position": 95, "weight": 0.440172}, 
                {"id": 20, "lemma": "다가", "type": "EC", "position": 98, "weight": 0.411843}, 
                {"id": 21, "lemma": "이", "type": "MM", "position": 105, "weight": 0.000947656}, 
                {"id": 22, "lemma": "지역", "type": "NNG", "position": 109, "weight": 0.9}, 
                {"id": 23, "lemma": "에", "type": "JKB", "position": 115, "weight": 0.153364}, 
                {"id": 24, "lemma": "‘", "type": "SS", "position": 119, "weight": 1}, 
                {"id": 25, "lemma": "이천", "type": "NNP", "position": 122, "weight": 0.066108}, 
                {"id": 26, "lemma": "(", "type": "SS", "position": 128, "weight": 1}, 
                {"id": 27, "lemma": "利川", "type": "SH", "position": 129, "weight": 1}, 
                {"id": 28, "lemma": ")", "type": "SS", "position": 135, "weight": 1}, 
                {"id": 29, "lemma": "’", "type": "SS", "position": 136, "weight": 1}, 
                {"id": 30, "lemma": "이", "type": "VCP", "position": 142, "weight": 0.230361}, 
                {"id": 31, "lemma": "라는", "type": "ETM", "position": 142, "weight": 0.230361}, 
                {"id": 32, "lemma": "이름", "type": "NNG", "position": 149, "weight": 0.9}, 
                {"id": 33, "lemma": "을", "type": "JKO", "position": 155, "weight": 0.129611}, 
                {"id": 34, "lemma": "내리", "type": "VV", "position": 159, "weight": 0.763573}, 
                {"id": 35, "lemma": "었", "type": "EP", "position": 162, "weight": 0.9}, 
                {"id": 36, "lemma": "다고", "type": "EC", "position": 165, "weight": 0.193823}, 
                {"id": 37, "lemma": "하", "type": "VV", "position": 172, "weight": 0.140183}, 
                {"id": 38, "lemma": "ㄴ다", "type": "EF", "position": 172, "weight": 0.0793196}, 
                {"id": 39, "lemma": ".", "type": "SF", "position": 178, "weight": 1}
            ], 
            "morp_eval": [], 
            "WSD": [
                {"id": 0, "text": "그", "type": "MM", "scode": "010102", "weight": 0.142857, "position": 0, "begin": 0, "end": 0}, 
                {"id": 1, "text": "후", "type": "NNG", "scode": "080001", "weight": 0.0666667, "position": 4, "begin": 1, "end": 1}, 
                {"id": 2, "text": "왕건", "type": "NNP", "scode": "000000", "weight": 1, "position": 8, "begin": 2, "end": 2}, 
                {"id": 3, "text": "이", "type": "JKS", "scode": "000000", "weight": 1, "position": 14, "begin": 3, "end": 3}, 
                {"id": 4, "text": "서목", "type": "NNP", "scode": "000000", "weight": 0.5, "position": 18, "begin": 4, "end": 4}, 
                {"id": 5, "text": "의", "type": "JKG", "scode": "000000", "weight": 1, "position": 24, "begin": 5, "end": 5}, 
                {"id": 6, "text": "도움", "type": "NNG", "scode": "000000", "weight": 1, "position": 28, "begin": 6, "end": 6}, 
                {"id": 7, "text": "에", "type": "JKB", "scode": "000000", "weight": 1, "position": 34, "begin": 7, "end": 7}, 
                {"id": 8, "text": "대하", "type": "VV", "scode": "020003", "weight": 0.25, "position": 41, "begin": 8, "end": 8}, 
                {"id": 9, "text": "ㄴ", "type": "ETM", "scode": "000000", "weight": 1, "position": 41, "begin": 9, "end": 9}, 
                {"id": 10, "text": "보답", "type": "NNG", "scode": "020000", "weight": 0.5, "position": 45, "begin": 10, "end": 10}, 
                {"id": 11, "text": "으로", "type": "JKB", "scode": "000000", "weight": 1, "position": 51, "begin": 11, "end": 11}, 
                {"id": 12, "text": "'", "type": "SS", "scode": "000000", "weight": 1, "position": 58, "begin": 12, "end": 12}, 
                {"id": 13, "text": "이섭대천", "type": "NNG", "scode": "000000", "weight": 0, "position": 59, "begin": 13, "end": 13}, 
                {"id": 14, "text": "'", "type": "SS", "scode": "000000", "weight": 1, "position": 71, "begin": 14, "end": 14}, 
                {"id": 15, "text": "이", "type": "VCP", "scode": "030000", "weight": 0.0172414, "position": 75, "begin": 15, "end": 15}, 
                {"id": 16, "text": "라는", "type": "ETM", "scode": "000000", "weight": 1, "position": 75, "begin": 16, "end": 16}, 
                {"id": 17, "text": "고사", "type": "NNG", "scode": "140001", "weight": 0.0285714, "position": 82, "begin": 17, "end": 17}, 
                {"id": 18, "text": "에서", "type": "JKB", "scode": "000000", "weight": 1, "position": 88, "begin": 18, "end": 18}, 
                {"id": 19, "text": "따", "type": "VV", "scode": "010102", "weight": 0.0555556, "position": 95, "begin": 19, "end": 19}, 
                {"id": 20, "text": "다가", "type": "EC", "scode": "000000", "weight": 1, "position": 98, "begin": 20, "end": 20}, 
                {"id": 21, "text": "이", "type": "MM", "scode": "050102", "weight": 0.0172414, "position": 105, "begin": 21, "end": 21}, 
                {"id": 22, "text": "지역", "type": "NNG", "scode": "030001", "weight": 0.2, "position": 109, "begin": 22, "end": 22}, 
                {"id": 23, "text": "에", "type": "JKB", "scode": "000000", "weight": 1, "position": 115, "begin": 23, "end": 23}, 
                {"id": 24, "text": "‘", "type": "SS", "scode": "000000", "weight": 1, "position": 119, "begin": 24, "end": 24}, 
                {"id": 25, "text": "이천", "type": "NNP", "scode": "050000", "weight": 0.125, "position": 122, "begin": 25, "end": 25}, 
                {"id": 26, "text": "(", "type": "SS", "scode": "000000", "weight": 1, "position": 128, "begin": 26, "end": 26}, 
                {"id": 27, "text": "利川", "type": "SH", "scode": "000000", "weight": 1, "position": 129, "begin": 27, "end": 27}, 
                {"id": 28, "text": ")", "type": "SS", "scode": "000000", "weight": 1, "position": 135, "begin": 28, "end": 28}, 
                {"id": 29, "text": "’", "type": "SS", "scode": "000000", "weight": 1, "position": 136, "begin": 29, "end": 29}, 
                {"id": 30, "text": "이", "type": "VCP", "scode": "030000", "weight": 0.0172414, "position": 142, "begin": 30, "end": 30}, 
                {"id": 31, "text": "라는", "type": "ETM", "scode": "000000", "weight": 1, "position": 142, "begin": 31, "end": 31}, 
                {"id": 32, "text": "이름", "type": "NNG", "scode": "000001", "weight": 0.111111, "position": 149, "begin": 32, "end": 32}, 
                {"id": 33, "text": "을", "type": "JKO", "scode": "000000", "weight": 1, "position": 155, "begin": 33, "end": 33}, 
                {"id": 34, "text": "내리", "type": "VV", "scode": "010901", "weight": 0.0555556, "position": 159, "begin": 34, "end": 34}, 
                {"id": 35, "text": "었", "type": "EP", "scode": "000000", "weight": 1, "position": 162, "begin": 35, "end": 35}, 
                {"id": 36, "text": "다고", "type": "EC", "scode": "000000", "weight": 1, "position": 165, "begin": 36, "end": 36}, 
                {"id": 37, "text": "하", "type": "VV", "scode": "010701", "weight": 0.02, "position": 172, "begin": 37, "end": 37}, 
                {"id": 38, "text": "ㄴ다", "type": "EF", "scode": "000000", "weight": 1, "position": 172, "begin": 38, "end": 38}, 
                {"id": 39, "text": ".", "type": "SF", "scode": "000000", "weight": 1, "position": 178, "begin": 39, "end": 39}
            ], 
            "word": [
                {"id": 0, "text": "그", "type": "", "begin": 0, "end": 0}, 
                {"id": 1, "text": "후", "type": "", "begin": 1, "end": 1}, 
                {"id": 2, "text": "왕건이", "type": "", "begin": 2, "end": 3}, 
                {"id": 3, "text": "서목의", "type": "", "begin": 4, "end": 5}, 
                {"id": 4, "text": "도움에", "type": "", "begin": 6, "end": 7}, 
                {"id": 5, "text": "대한", "type": "", "begin": 8, "end": 9}, 
                {"id": 6, "text": "보답으로", "type": "", "begin": 10, "end": 11}, 
                {"id": 7, "text": "'이섭대천'이라는", "type": "", "begin": 12, "end": 16}, 
                {"id": 8, "text": "고사에서", "type": "", "begin": 17, "end": 18}, 
                {"id": 9, "text": "따다가", "type": "", "begin": 19, "end": 20}, 
                {"id": 10, "text": "이", "type": "", "begin": 21, "end": 21}, 
                {"id": 11, "text": "지역에", "type": "", "begin": 22, "end": 23}, 
                {"id": 12, "text": "‘이천(利川)’이라는", "type": "", "begin": 24, "end": 31}, 
                {"id": 13, "text": "이름을", "type": "", "begin": 32, "end": 33}, 
                {"id": 14, "text": "내렸다고", "type": "", "begin": 34, "end": 36}, 
                {"id": 15, "text": "한다.", "type": "", "begin": 37, "end": 39}
            ], 
            "NE": [
                {"id": 0, "text": "왕건", "type": "PS_NAME", "begin": 2, "end": 2, "weight": 0.463052, "common_noun": 0}, 
                {"id": 1, "text": "서목", "type": "PS_NAME", "begin": 4, "end": 4, "weight": 0.216311, "common_noun": 0}, 
                {"id": 2, "text": "이천", "type": "LCP_CITY", "begin": 25, "end": 25, "weight": 0.195474, "common_noun": 0}, 
                {"id": 3, "text": "利川", "type": "LCP_CITY", "begin": 27, "end": 27, "weight": 0.195474, "common_noun": 0}
            ], 
            "chunk": [], 
            "dependency": [
                {"id": 0, "text": "그", "head": 1, "label": "DP", "mod": [], "weight": 0.526748}, 
                {"id": 1, "text": "후", "head": 14, "label": "NP_AJT", "mod": [0], "weight": 0.109184}, 
                {"id": 2, "text": "왕건이", "head": 14, "label": "NP_SBJ", "mod": [], "weight": 0.716517}, 
                {"id": 3, "text": "서목의", "head": 4, "label": "NP_MOD", "mod": [], "weight": 0.467627}, 
                {"id": 4, "text": "도움에", "head": 5, "label": "NP_AJT", "mod": [3], "weight": 0.499143}, 
                {"id": 5, "text": "대한", "head": 6, "label": "VP_MOD", "mod": [4], "weight": 0.634709}, 
                {"id": 6, "text": "보답으로", "head": 14, "label": "NP_AJT", "mod": [5], "weight": 0.716964}, 
                {"id": 7, "text": "'이섭대천'이라는", "head": 8, "label": "VNP_MOD", "mod": [], "weight": 0.43724}, 
                {"id": 8, "text": "고사에서", "head": 9, "label": "NP_AJT", "mod": [7], "weight": 0.861299}, 
                {"id": 9, "text": "따다가", "head": 14, "label": "VP", "mod": [8], "weight": 0.651052}, 
                {"id": 10, "text": "이", "head": 11, "label": "DP", "mod": [], "weight": 0.876045}, 
                {"id": 11, "text": "지역에", "head": 14, "label": "NP_AJT", "mod": [10], "weight": 0.777494}, 
                {"id": 12, "text": "‘이천(利川)’이라는", "head": 13, "label": "VNP_MOD", "mod": [], "weight": 0.556999}, 
                {"id": 13, "text": "이름을", "head": 14, "label": "NP_OBJ", "mod": [12], "weight": 0.801357}, 
                {"id": 14, "text": "내렸다고", "head": 15, "label": "VP_CMP", "mod": [9, 11, 13, 1, 2, 6], "weight": 0.510145}, 
                {"id": 15, "text": "한다.", "head": -1, "label": "VP", "mod": [14], "weight": 0.000142204}
            ], 
            "SRL": [
                {"verb": "대하", "sense": 1, "word_id": 5, "weight": 0.148063, "argument": [
                    {"type": "ARG2", "word_id": 4, "text": "도움에", "weight": 0.0949341}
                ]}, 
                {"verb": "따", "sense": 1, "word_id": 9, "weight": 0.171339, "argument": [
                    {"type": "ARG0", "word_id": 2, "text": "왕건이", "weight": 0.208619}, 
                    {"type": "ARG2", "word_id": 8, "text": "고사에서", "weight": 0.134058}, 
                    {"type": "ARG1", "word_id": 13, "text": "이름을", "weight": 1}
                ]}, 
                {"verb": "내리", "sense": 3, "word_id": 14, "weight": 0.29722, "argument": [
                    {"type": "ARG1", "word_id": 13, "text": "이름을", "weight": 0.29722}, 
                    {"type": "ARG0", "word_id": 2, "text": "왕건이", "weight": 1}, 
                    {"type": "ARG2", "word_id": 11, "text": "지역에", "weight": 1}
                ]}, 
                {"verb": "하", "sense": 2, "word_id": 15, "weight": 0.358472, "argument": [
                    {"type": "ARG1", "word_id": 14, "text": "내렸다고", "weight": 0.358472}
                ]}
            ], 
            "relation": [], 
            "SA": [], 
            "ZA": []
        }
    ], 
    "entity": [
        {"id": 0, "type": "PS_NAME", "number": "singular", "gender": "", "person": "", "animacy": "human", "mention": [
            {"id": 0, "sent_id": 0, "start_eid": 2, "end_eid": 2, "ne_id": 0, "text": "왕건이", "start_eid_short": 2, "end_eid_short": 2, "text_short": "왕건이"}
        ]}, 
        {"id": 1, "type": "", "number": "singular", "gender": "", "person": "", "animacy": "thing", "mention": [
            {"id": 1, "sent_id": 0, "start_eid": 3, "end_eid": 6, "ne_id": -1, "text": "서목의 도움에 대한 보답으로", "start_eid_short": 6, "end_eid_short": 6, "text_short": "보답으로"}
        ]}, 
        {"id": 2, "type": "", "number": "singular", "gender": "", "person": "", "animacy": "thing", "mention": [
            {"id": 2, "sent_id": 0, "start_eid": 3, "end_eid": 4, "ne_id": -1, "text": "서목의 도움에", "start_eid_short": 4, "end_eid_short": 4, "text_short": "도움에"}
        ]}, 
        {"id": 3, "type": "", "number": "singular", "gender": "", "person": "", "animacy": "thing", "mention": [
            {"id": 3, "sent_id": 0, "start_eid": 3, "end_eid": 3, "ne_id": -1, "text": "서목의", "start_eid_short": 3, "end_eid_short": 3, "text_short": "서목의"}
        ]}, 
        {"id": 4, "type": "LCG_RIVER", "number": "singular", "gender": "", "person": "", "animacy": "place", "mention": [
            {"id": 4, "sent_id": 0, "start_eid": 7, "end_eid": 8, "ne_id": -1, "text": "'이섭대천'이라는 고사에서", "start_eid_short": 8, "end_eid_short": 8, "text_short": "고사에서"}, 
            {"id": 5, "sent_id": 0, "start_eid": 7, "end_eid": 7, "ne_id": 1, "text": "'이섭대천'이라는", "start_eid_short": 7, "end_eid_short": 7, "text_short": "'이섭대천'이라는"}
        ]}, 
        {"id": 5, "type": "LCP_CITY", "number": "singular", "gender": "", "person": "", "animacy": "place", "mention": [
            {"id": 6, "sent_id": 0, "start_eid": 10, "end_eid": 11, "ne_id": -1, "text": "이 지역에", "start_eid_short": 10, "end_eid_short": 11, "text_short": "이 지역에"}, 
            {"id": 7, "sent_id": 0, "start_eid": 12, "end_eid": 13, "ne_id": -1, "text": "‘이천(利川)’이라는 이름을", "start_eid_short": 13, "end_eid_short": 0, "text_short": ""}, 
            {"id": 8, "sent_id": 0, "start_eid": 12, "end_eid": 12, "ne_id": 2, "text": "‘이천(利川)’이라는", "start_eid_short": 12, "end_eid_short": 0, "text_short": ""}
        ]}
    ]
}