{
    "doc_id": "E2016.789.10_A_01.json", 
    "DCT": "", 
    "category": "", 
    "category_weight": 0, 
    "title": {
        "text": "30년전쟁", 
        "NE": ""
    }, 
    "metaInfo": {}, 
    "sentence": [
        {
            "id": 0, 
            "reserve_str": "", 
            "text": "1618∼1648년 독일을 무대로 신교(프로테스탄트)와 구교(가톨릭) 간에 벌어진 종교전쟁.", 
            "morp": [
                {"id": 0, "lemma": "1618", "type": "SN", "position": 0, "weight": 1}, 
                {"id": 1, "lemma": "∼", "type": "SO", "position": 4, "weight": 1}, 
                {"id": 2, "lemma": "1648", "type": "SN", "position": 7, "weight": 1}, 
                {"id": 3, "lemma": "년", "type": "NNB", "position": 11, "weight": 0.414343}, 
                {"id": 4, "lemma": "독일", "type": "NNP", "position": 15, "weight": 0.9}, 
                {"id": 5, "lemma": "을", "type": "JKO", "position": 21, "weight": 0.0266447}, 
                {"id": 6, "lemma": "무대", "type": "NNG", "position": 25, "weight": 0.101363}, 
                {"id": 7, "lemma": "로", "type": "JKB", "position": 31, "weight": 0.153229}, 
                {"id": 8, "lemma": "신교", "type": "NNG", "position": 35, "weight": 0.199555}, 
                {"id": 9, "lemma": "(", "type": "SS", "position": 41, "weight": 1}, 
                {"id": 10, "lemma": "프로테스탄트", "type": "NNG", "position": 42, "weight": 0.9}, 
                {"id": 11, "lemma": ")", "type": "SS", "position": 60, "weight": 1}, 
                {"id": 12, "lemma": "와", "type": "JC", "position": 61, "weight": 0.00426109}, 
                {"id": 13, "lemma": "구교", "type": "NNG", "position": 65, "weight": 0.9}, 
                {"id": 14, "lemma": "(", "type": "SS", "position": 71, "weight": 1}, 
                {"id": 15, "lemma": "가톨릭", "type": "NNG", "position": 72, "weight": 0.9}, 
                {"id": 16, "lemma": ")", "type": "SS", "position": 81, "weight": 1}, 
                {"id": 17, "lemma": "간", "type": "NNB", "position": 83, "weight": 0.00700444}, 
                {"id": 18, "lemma": "에", "type": "JKB", "position": 86, "weight": 0.135559}, 
                {"id": 19, "lemma": "벌어지", "type": "VV", "position": 90, "weight": 0.9}, 
                {"id": 20, "lemma": "ㄴ", "type": "ETM", "position": 96, "weight": 0.304215}, 
                {"id": 21, "lemma": "종교", "type": "NNG", "position": 100, "weight": 0.9}, 
                {"id": 22, "lemma": "전쟁", "type": "NNG", "position": 106, "weight": 0.9}, 
                {"id": 23, "lemma": ".", "type": "SF", "position": 112, "weight": 1}
            ], 
            "morp_eval": [], 
            "WSD": [
                {"id": 0, "text": "1618", "type": "SN", "scode": "000000", "weight": 1, "position": 0, "begin": 0, "end": 0}, 
                {"id": 1, "text": "∼", "type": "SO", "scode": "000000", "weight": 1, "position": 4, "begin": 1, "end": 1}, 
                {"id": 2, "text": "1648", "type": "SN", "scode": "000000", "weight": 1, "position": 7, "begin": 2, "end": 2}, 
                {"id": 3, "text": "년", "type": "NNB", "scode": "020000", "weight": 0.166667, "position": 11, "begin": 3, "end": 3}, 
                {"id": 4, "text": "독일", "type": "NNP", "scode": "000000", "weight": 1, "position": 15, "begin": 4, "end": 4}, 
                {"id": 5, "text": "을", "type": "JKO", "scode": "000000", "weight": 1, "position": 21, "begin": 5, "end": 5}, 
                {"id": 6, "text": "무대", "type": "NNG", "scode": "060003", "weight": 0.1, "position": 25, "begin": 6, "end": 6}, 
                {"id": 7, "text": "로", "type": "JKB", "scode": "000000", "weight": 1, "position": 31, "begin": 7, "end": 7}, 
                {"id": 8, "text": "신교", "type": "NNG", "scode": "060000", "weight": 0.166667, "position": 35, "begin": 8, "end": 8}, 
                {"id": 9, "text": "(", "type": "SS", "scode": "000000", "weight": 1, "position": 41, "begin": 9, "end": 9}, 
                {"id": 10, "text": "프로테스탄트", "type": "NNG", "scode": "000001", "weight": 0.5, "position": 42, "begin": 10, "end": 10}, 
                {"id": 11, "text": ")", "type": "SS", "scode": "000000", "weight": 1, "position": 60, "begin": 11, "end": 11}, 
                {"id": 12, "text": "와", "type": "JC", "scode": "000000", "weight": 1, "position": 61, "begin": 12, "end": 12}, 
                {"id": 13, "text": "구교", "type": "NNG", "scode": "060000", "weight": 0.142857, "position": 65, "begin": 13, "end": 13}, 
                {"id": 14, "text": "(", "type": "SS", "scode": "000000", "weight": 1, "position": 71, "begin": 14, "end": 14}, 
                {"id": 15, "text": "가톨릭", "type": "NNG", "scode": "000002", "weight": 0.5, "position": 72, "begin": 15, "end": 15}, 
                {"id": 16, "text": ")", "type": "SS", "scode": "000000", "weight": 1, "position": 81, "begin": 16, "end": 16}, 
                {"id": 17, "text": "간", "type": "NNB", "scode": "100002", "weight": 0.0357143, "position": 83, "begin": 17, "end": 17}, 
                {"id": 18, "text": "에", "type": "JKB", "scode": "000000", "weight": 1, "position": 86, "begin": 18, "end": 18}, 
                {"id": 19, "text": "벌어지", "type": "VV", "scode": "020000", "weight": 0.111111, "position": 90, "begin": 19, "end": 19}, 
                {"id": 20, "text": "ㄴ", "type": "ETM", "scode": "000000", "weight": 1, "position": 96, "begin": 20, "end": 20}, 
                {"id": 21, "text": "종교전쟁", "type": "NNG", "scode": "000000", "weight": 1, "position": 100, "begin": 21, "end": 22}, 
                {"id": 22, "text": ".", "type": "SF", "scode": "000000", "weight": 1, "position": 112, "begin": 23, "end": 23}
            ], 
            "word": [
                {"id": 0, "text": "1618∼1648년", "type": "", "begin": 0, "end": 3}, 
                {"id": 1, "text": "독일을", "type": "", "begin": 4, "end": 5}, 
                {"id": 2, "text": "무대로", "type": "", "begin": 6, "end": 7}, 
                {"id": 3, "text": "신교(프로테스탄트)와", "type": "", "begin": 8, "end": 12}, 
                {"id": 4, "text": "구교(가톨릭)", "type": "", "begin": 13, "end": 16}, 
                {"id": 5, "text": "간에", "type": "", "begin": 17, "end": 18}, 
                {"id": 6, "text": "벌어진", "type": "", "begin": 19, "end": 20}, 
                {"id": 7, "text": "종교전쟁.", "type": "", "begin": 21, "end": 23}
            ], 
            "NE": [
                {"id": 0, "text": "1618∼1648년", "type": "DT_DURATION", "begin": 0, "end": 3, "weight": 0.464153, "common_noun": 0}, 
                {"id": 1, "text": "독일", "type": "LCP_COUNTRY", "begin": 4, "end": 4, "weight": 0.865039, "common_noun": 0}, 
                {"id": 2, "text": "신교", "type": "OGG_RELIGION", "begin": 8, "end": 8, "weight": 0.135612, "common_noun": 0}, 
                {"id": 3, "text": "프로테스탄트", "type": "OGG_RELIGION", "begin": 10, "end": 10, "weight": 0.333919, "common_noun": 0}, 
                {"id": 4, "text": "구교", "type": "OGG_RELIGION", "begin": 13, "end": 13, "weight": 0.118781, "common_noun": 0}, 
                {"id": 5, "text": "가톨릭", "type": "OGG_RELIGION", "begin": 15, "end": 15, "weight": 0.239103, "common_noun": 0}, 
                {"id": 6, "text": "종교전쟁", "type": "EV_WAR_REVOLUTION", "begin": 21, "end": 22, "weight": 0.485849, "common_noun": 0}
            ], 
            "chunk": [], 
            "dependency": [
                {"id": 0, "text": "1618∼1648년", "head": 6, "label": "NP_AJT", "mod": [], "weight": 0.53057}, 
                {"id": 1, "text": "독일을", "head": 2, "label": "NP_OBJ", "mod": [], "weight": 0.406016}, 
                {"id": 2, "text": "무대로", "head": 6, "label": "NP_AJT", "mod": [1], "weight": 0.188856}, 
                {"id": 3, "text": "신교(프로테스탄트)와", "head": 4, "label": "NP_CNJ", "mod": [], "weight": 0.757606}, 
                {"id": 4, "text": "구교(가톨릭)", "head": 5, "label": "NP", "mod": [3], "weight": 0.649911}, 
                {"id": 5, "text": "간에", "head": 6, "label": "NP_AJT", "mod": [4], "weight": 0.810652}, 
                {"id": 6, "text": "벌어진", "head": 7, "label": "VP_MOD", "mod": [0, 2, 5], "weight": 0.890164}, 
                {"id": 7, "text": "종교전쟁.", "head": -1, "label": "NP", "mod": [6], "weight": 0.0105991}
            ], 
            "SRL": [
                {"verb": "벌이", "sense": 1, "word_id": 6, "weight": 0.116272, "argument": [
                    {"type": "ARGM-PRD", "word_id": 2, "text": "무대로", "weight": 0.094182}, 
                    {"type": "ARG2", "word_id": 5, "text": "간에", "weight": 0.146583}, 
                    {"type": "ARG1", "word_id": 7, "text": "종교전쟁.", "weight": 0.108052}, 
                    {"type": "ARGM-TMP", "word_id": 0, "text": "1618∼1648년", "weight": 1}
                ]}
            ], 
            "relation": [], 
            "SA": [], 
            "ZA": []
        }
    ], 
    "entity": [
        {"id": 0, "type": "DT_DURATION", "number": "singular", "gender": "", "person": "", "animacy": "time", "mention": [
            {"id": 1, "sent_id": 0, "start_eid": 0, "end_eid": 0, "ne_id": 0, "text": "1618∼1648년", "start_eid_short": 0, "end_eid_short": 0, "text_short": "1618∼1648년"}
        ]}, 
        {"id": 1, "type": "", "number": "singular", "gender": "", "person": "", "animacy": "thing", "mention": [
            {"id": 2, "sent_id": 0, "start_eid": 1, "end_eid": 2, "ne_id": -1, "text": "독일을 무대로", "start_eid_short": 2, "end_eid_short": 2, "text_short": "무대로"}
        ]}, 
        {"id": 2, "type": "LCP_COUNTRY", "number": "singular", "gender": "", "person": "", "animacy": "place", "mention": [
            {"id": 3, "sent_id": 0, "start_eid": 1, "end_eid": 1, "ne_id": 1, "text": "독일을", "start_eid_short": 1, "end_eid_short": 1, "text_short": "독일을"}
        ]}, 
        {"id": 3, "type": "OGG_RELIGION", "number": "singular", "gender": "", "person": "", "animacy": "thing", "mention": [
            {"id": 5, "sent_id": 0, "start_eid": 3, "end_eid": 3, "ne_id": 2, "text": "신교(프로테스탄트)와", "start_eid_short": 3, "end_eid_short": 0, "text_short": ""}
        ]}, 
        {"id": 4, "type": "", "number": "singular", "gender": "", "person": "", "animacy": "thing", "mention": [
            {"id": 4, "sent_id": 0, "start_eid": 3, "end_eid": 5, "ne_id": -1, "text": "신교(프로테스탄트)와 구교(가톨릭) 간에", "start_eid_short": 4, "end_eid_short": 0, "text_short": ""}
        ]}, 
        {"id": 5, "type": "OGG_RELIGION", "number": "singular", "gender": "", "person": "", "animacy": "thing", "mention": [
            {"id": 6, "sent_id": 0, "start_eid": 4, "end_eid": 4, "ne_id": 4, "text": "구교(가톨릭)", "start_eid_short": 4, "end_eid_short": 0, "text_short": ""}
        ]}, 
        {"id": 6, "type": "EV_WAR_REVOLUTION", "number": "singular", "gender": "", "person": "", "animacy": "thing", "mention": [
            {"id": 0, "sent_id": 0, "start_eid": 0, "end_eid": 7, "ne_id": 6, "text": "1618∼1648년 독일을 무대로 신교(프로테스탄트)와 구교(가톨릭) 간에 벌어진 종교전쟁.", "start_eid_short": 7, "end_eid_short": 7, "text_short": "종교전쟁."}
        ]}
    ]
}