{
    "doc_id": "E2016.837.27_Q_01.json", 
    "DCT": "", 
    "category": "", 
    "category_weight": 0, 
    "title": {
        "text": "", 
        "NE": ""
    }, 
    "metaInfo": {}, 
    "sentence": [
        {
            "id": 0, 
            "reserve_str": "", 
            "text": "'반포지효'는 ( )의 새끼가 자라서 늙은 어미새에게 먹이를 물어다 준다는 뜻으로, 부모님에 대한 지극한 효성을 뜻한다.", 
            "morp": [
                {"id": 0, "lemma": "'", "type": "SS", "position": 0, "weight": 1}, 
                {"id": 1, "lemma": "반포지효", "type": "NNG", "position": 1, "weight": 0.05}, 
                {"id": 2, "lemma": "'", "type": "SS", "position": 13, "weight": 1}, 
                {"id": 3, "lemma": "는", "type": "JX", "position": 14, "weight": 0.00823314}, 
                {"id": 4, "lemma": "(", "type": "SS", "position": 18, "weight": 1}, 
                {"id": 5, "lemma": ")", "type": "SS", "position": 20, "weight": 1}, 
                {"id": 6, "lemma": "의", "type": "JKG", "position": 21, "weight": 0.0878251}, 
                {"id": 7, "lemma": "새끼", "type": "NNG", "position": 25, "weight": 0.869281}, 
                {"id": 8, "lemma": "가", "type": "JKS", "position": 31, "weight": 0.066324}, 
                {"id": 9, "lemma": "자라", "type": "VV", "position": 35, "weight": 0.310338}, 
                {"id": 10, "lemma": "아서", "type": "EC", "position": 38, "weight": 0.428178}, 
                {"id": 11, "lemma": "늙", "type": "VV", "position": 45, "weight": 0.226469}, 
                {"id": 12, "lemma": "은", "type": "ETM", "position": 48, "weight": 0.109632}, 
                {"id": 13, "lemma": "어미", "type": "NNG", "position": 52, "weight": 0.658609}, 
                {"id": 14, "lemma": "새", "type": "NNG", "position": 58, "weight": 0.0715645}, 
                {"id": 15, "lemma": "에게", "type": "JKB", "position": 61, "weight": 0.153356}, 
                {"id": 16, "lemma": "먹이", "type": "NNG", "position": 68, "weight": 0.0771592}, 
                {"id": 17, "lemma": "를", "type": "JKO", "position": 74, "weight": 0.137686}, 
                {"id": 18, "lemma": "물", "type": "VV", "position": 78, "weight": 0.0804267}, 
                {"id": 19, "lemma": "어다", "type": "EC", "position": 81, "weight": 0.428646}, 
                {"id": 20, "lemma": "주", "type": "VV", "position": 88, "weight": 0.0652823}, 
                {"id": 21, "lemma": "ㄴ다는", "type": "ETM", "position": 88, "weight": 0.317555}, 
                {"id": 22, "lemma": "뜻", "type": "NNG", "position": 98, "weight": 0.9}, 
                {"id": 23, "lemma": "으로", "type": "JKB", "position": 101, "weight": 0.153406}, 
                {"id": 24, "lemma": ",", "type": "SP", "position": 107, "weight": 1}, 
                {"id": 25, "lemma": "부모", "type": "NNG", "position": 109, "weight": 0.9}, 
                {"id": 26, "lemma": "님", "type": "XSN", "position": 115, "weight": 0.0246864}, 
                {"id": 27, "lemma": "에", "type": "JKB", "position": 118, "weight": 0.121683}, 
                {"id": 28, "lemma": "대하", "type": "VV", "position": 122, "weight": 0.0312871}, 
                {"id": 29, "lemma": "ㄴ", "type": "ETM", "position": 125, "weight": 0.392321}, 
                {"id": 30, "lemma": "지극하", "type": "VA", "position": 129, "weight": 0.9}, 
                {"id": 31, "lemma": "ㄴ", "type": "ETM", "position": 135, "weight": 0.430446}, 
                {"id": 32, "lemma": "효성", "type": "NNG", "position": 139, "weight": 0.496923}, 
                {"id": 33, "lemma": "을", "type": "JKO", "position": 145, "weight": 0.129611}, 
                {"id": 34, "lemma": "뜻", "type": "NNG", "position": 149, "weight": 0.9}, 
                {"id": 35, "lemma": "하", "type": "XSV", "position": 152, "weight": 0.0001}, 
                {"id": 36, "lemma": "ㄴ다", "type": "EF", "position": 152, "weight": 0.0449045}, 
                {"id": 37, "lemma": ".", "type": "SF", "position": 158, "weight": 1}
            ], 
            "morp_eval": [], 
            "WSD": [
                {"id": 0, "text": "'", "type": "SS", "scode": "000000", "weight": 1, "position": 0, "begin": 0, "end": 0}, 
                {"id": 1, "text": "반포지효", "type": "NNG", "scode": "000000", "weight": 1, "position": 1, "begin": 1, "end": 1}, 
                {"id": 2, "text": "'", "type": "SS", "scode": "000000", "weight": 1, "position": 13, "begin": 2, "end": 2}, 
                {"id": 3, "text": "는", "type": "JX", "scode": "000000", "weight": 1, "position": 14, "begin": 3, "end": 3}, 
                {"id": 4, "text": "(", "type": "SS", "scode": "000000", "weight": 1, "position": 18, "begin": 4, "end": 4}, 
                {"id": 5, "text": ")", "type": "SS", "scode": "000000", "weight": 1, "position": 20, "begin": 5, "end": 5}, 
                {"id": 6, "text": "의", "type": "JKG", "scode": "000000", "weight": 1, "position": 21, "begin": 6, "end": 6}, 
                {"id": 7, "text": "새끼", "type": "NNG", "scode": "020001", "weight": 0.25, "position": 25, "begin": 7, "end": 7}, 
                {"id": 8, "text": "가", "type": "JKS", "scode": "000000", "weight": 1, "position": 31, "begin": 8, "end": 8}, 
                {"id": 9, "text": "자라", "type": "VV", "scode": "010102", "weight": 0.142857, "position": 35, "begin": 9, "end": 9}, 
                {"id": 10, "text": "아서", "type": "EC", "scode": "000000", "weight": 1, "position": 38, "begin": 10, "end": 10}, 
                {"id": 11, "text": "늙", "type": "VV", "scode": "000101", "weight": 0.166667, "position": 45, "begin": 11, "end": 11}, 
                {"id": 12, "text": "은", "type": "ETM", "scode": "000000", "weight": 1, "position": 48, "begin": 12, "end": 12}, 
                {"id": 13, "text": "어미", "type": "NNG", "scode": "010002", "weight": 0.0625, "position": 52, "begin": 13, "end": 13}, 
                {"id": 14, "text": "새", "type": "NNG", "scode": "030001", "weight": 0.0384615, "position": 58, "begin": 14, "end": 14}, 
                {"id": 15, "text": "에게", "type": "JKB", "scode": "000000", "weight": 1, "position": 61, "begin": 15, "end": 15}, 
                {"id": 16, "text": "먹이", "type": "NNG", "scode": "000000", "weight": 1, "position": 68, "begin": 16, "end": 16}, 
                {"id": 17, "text": "를", "type": "JKO", "scode": "000000", "weight": 1, "position": 74, "begin": 17, "end": 17}, 
                {"id": 18, "text": "물", "type": "VV", "scode": "020101", "weight": 0.1, "position": 78, "begin": 18, "end": 18}, 
                {"id": 19, "text": "어다", "type": "EC", "scode": "000000", "weight": 1, "position": 81, "begin": 19, "end": 19}, 
                {"id": 20, "text": "주", "type": "VX", "scode": "010300", "weight": 0.0714286, "position": 88, "begin": 20, "end": 20}, 
                {"id": 21, "text": "ㄴ다는", "type": "ETM", "scode": "000000", "weight": 1, "position": 88, "begin": 21, "end": 21}, 
                {"id": 22, "text": "뜻", "type": "NNG", "scode": "000002", "weight": 0.333333, "position": 98, "begin": 22, "end": 22}, 
                {"id": 23, "text": "으로", "type": "JKB", "scode": "000000", "weight": 1, "position": 101, "begin": 23, "end": 23}, 
                {"id": 24, "text": ",", "type": "SP", "scode": "000000", "weight": 1, "position": 107, "begin": 24, "end": 24}, 
                {"id": 25, "text": "부모님", "type": "NNG", "scode": "000000", "weight": 1, "position": 109, "begin": 25, "end": 26}, 
                {"id": 26, "text": "에", "type": "JKB", "scode": "000000", "weight": 1, "position": 118, "begin": 27, "end": 27}, 
                {"id": 27, "text": "대하", "type": "VV", "scode": "020003", "weight": 0.25, "position": 122, "begin": 28, "end": 28}, 
                {"id": 28, "text": "ㄴ", "type": "ETM", "scode": "000000", "weight": 1, "position": 125, "begin": 29, "end": 29}, 
                {"id": 29, "text": "지극하", "type": "VA", "scode": "000000", "weight": 1, "position": 129, "begin": 30, "end": 30}, 
                {"id": 30, "text": "ㄴ", "type": "ETM", "scode": "000000", "weight": 1, "position": 135, "begin": 31, "end": 31}, 
                {"id": 31, "text": "효성", "type": "NNG", "scode": "010000", "weight": 0.25, "position": 139, "begin": 32, "end": 32}, 
                {"id": 32, "text": "을", "type": "JKO", "scode": "000000", "weight": 1, "position": 145, "begin": 33, "end": 33}, 
                {"id": 33, "text": "뜻하", "type": "VV", "scode": "000200", "weight": 0.333333, "position": 149, "begin": 34, "end": 35}, 
                {"id": 34, "text": "ㄴ다", "type": "EF", "scode": "000000", "weight": 1, "position": 152, "begin": 36, "end": 36}, 
                {"id": 35, "text": ".", "type": "SF", "scode": "000000", "weight": 1, "position": 158, "begin": 37, "end": 37}
            ], 
            "word": [
                {"id": 0, "text": "'반포지효'는", "type": "", "begin": 0, "end": 3}, 
                {"id": 1, "text": "(", "type": "", "begin": 4, "end": 4}, 
                {"id": 2, "text": ")의", "type": "", "begin": 5, "end": 6}, 
                {"id": 3, "text": "새끼가", "type": "", "begin": 7, "end": 8}, 
                {"id": 4, "text": "자라서", "type": "", "begin": 9, "end": 10}, 
                {"id": 5, "text": "늙은", "type": "", "begin": 11, "end": 12}, 
                {"id": 6, "text": "어미새에게", "type": "", "begin": 13, "end": 15}, 
                {"id": 7, "text": "먹이를", "type": "", "begin": 16, "end": 17}, 
                {"id": 8, "text": "물어다", "type": "", "begin": 18, "end": 19}, 
                {"id": 9, "text": "준다는", "type": "", "begin": 20, "end": 21}, 
                {"id": 10, "text": "뜻으로,", "type": "", "begin": 22, "end": 24}, 
                {"id": 11, "text": "부모님에", "type": "", "begin": 25, "end": 27}, 
                {"id": 12, "text": "대한", "type": "", "begin": 28, "end": 29}, 
                {"id": 13, "text": "지극한", "type": "", "begin": 30, "end": 31}, 
                {"id": 14, "text": "효성을", "type": "", "begin": 32, "end": 33}, 
                {"id": 15, "text": "뜻한다.", "type": "", "begin": 34, "end": 37}
            ], 
            "NE": [
                {"id": 0, "text": "새끼", "type": "CV_RELATION", "begin": 7, "end": 7, "weight": 0.397242, "common_noun": 0}, 
                {"id": 1, "text": "어미", "type": "CV_RELATION", "begin": 13, "end": 13, "weight": 0.419543, "common_noun": 0}, 
                {"id": 2, "text": "새", "type": "AM_TYPE", "begin": 14, "end": 14, "weight": 0.251173, "common_noun": 0}, 
                {"id": 3, "text": "부모", "type": "CV_RELATION", "begin": 25, "end": 25, "weight": 0.798378, "common_noun": 0}
            ], 
            "chunk": [], 
            "dependency": [
                {"id": 0, "text": "'반포지효'는", "head": 10, "label": "NP_SBJ", "mod": [], "weight": 0.501327}, 
                {"id": 1, "text": "(", "head": 2, "label": "L", "mod": [], "weight": 0.328984}, 
                {"id": 2, "text": ")의", "head": 3, "label": "R_MOD", "mod": [1], "weight": 0.350976}, 
                {"id": 3, "text": "새끼가", "head": 4, "label": "NP_SBJ", "mod": [2], "weight": 0.814814}, 
                {"id": 4, "text": "자라서", "head": 8, "label": "VP", "mod": [3], "weight": 0.113184}, 
                {"id": 5, "text": "늙은", "head": 6, "label": "VP_MOD", "mod": [], "weight": 0.763987}, 
                {"id": 6, "text": "어미새에게", "head": 8, "label": "NP_AJT", "mod": [5], "weight": 0.665086}, 
                {"id": 7, "text": "먹이를", "head": 8, "label": "NP_OBJ", "mod": [], "weight": 0.865081}, 
                {"id": 8, "text": "물어다", "head": 9, "label": "VP", "mod": [6, 7, 4], "weight": 0.606542}, 
                {"id": 9, "text": "준다는", "head": 10, "label": "VP_MOD", "mod": [8], "weight": 0.781311}, 
                {"id": 10, "text": "뜻으로,", "head": 15, "label": "NP_AJT", "mod": [0, 9], "weight": 0.796216}, 
                {"id": 11, "text": "부모님에", "head": 12, "label": "NP_AJT", "mod": [], "weight": 0.564941}, 
                {"id": 12, "text": "대한", "head": 14, "label": "VP_MOD", "mod": [11], "weight": 0.698866}, 
                {"id": 13, "text": "지극한", "head": 14, "label": "VP_MOD", "mod": [], "weight": 0.73223}, 
                {"id": 14, "text": "효성을", "head": 15, "label": "NP_OBJ", "mod": [12, 13], "weight": 0.872582}, 
                {"id": 15, "text": "뜻한다.", "head": -1, "label": "VP", "mod": [10, 14], "weight": 0.00019423}
            ], 
            "SRL": [
                {"verb": "자라", "sense": 1, "word_id": 4, "weight": 0.238767, "argument": [
                    {"type": "ARG0", "word_id": 3, "text": "새끼가", "weight": 0.238767}
                ]}, 
                {"verb": "늙", "sense": 1, "word_id": 5, "weight": 0.142719, "argument": [
                    {"type": "ARG1", "word_id": 6, "text": "어미새에게", "weight": 0.176972}
                ]}, 
                {"verb": "물", "sense": 1, "word_id": 8, "weight": 0.196284, "argument": [
                    {"type": "ARG1", "word_id": 7, "text": "먹이를", "weight": 0.277377}, 
                    {"type": "ARG0", "word_id": 3, "text": "새끼가", "weight": 1}
                ]}, 
                {"verb": "주", "sense": 1, "word_id": 9, "weight": 0.127464, "argument": [
                    {"type": "ARG2", "word_id": 6, "text": "어미새에게", "weight": 0.0995164}, 
                    {"type": "ARGM-MNR", "word_id": 8, "text": "물어다", "weight": 0.155412}, 
                    {"type": "ARG0", "word_id": 3, "text": "새끼가", "weight": 1}, 
                    {"type": "ARG1", "word_id": 7, "text": "먹이를", "weight": 1}
                ]}, 
                {"verb": "대하", "sense": 1, "word_id": 12, "weight": 0.178682, "argument": [
                    {"type": "ARG2", "word_id": 11, "text": "부모님에", "weight": 0.155097}, 
                    {"type": "ARG1", "word_id": 14, "text": "효성을", "weight": 0.202266}
                ]}, 
                {"verb": "지극하", "sense": 1, "word_id": 13, "weight": 0.321011, "argument": [
                    {"type": "ARG1", "word_id": 14, "text": "효성을", "weight": 0.321011}
                ]}, 
                {"verb": "뜻하", "sense": 1, "word_id": 15, "weight": 0.273291, "argument": [
                    {"type": "ARG2", "word_id": 14, "text": "효성을", "weight": 0.273291}, 
                    {"type": "ARG1", "word_id": 0, "text": "'반포지효'는", "weight": 1}
                ]}
            ], 
            "relation": [], 
            "SA": [], 
            "ZA": []
        }, 
        {
            "id": 1, 
            "reserve_str": "", 
            "text": "이 동물은 무엇일까?", 
            "morp": [
                {"id": 0, "lemma": "이", "type": "MM", "position": 159, "weight": 0.0020222}, 
                {"id": 1, "lemma": "동물", "type": "NNG", "position": 163, "weight": 0.9}, 
                {"id": 2, "lemma": "은", "type": "JX", "position": 169, "weight": 0.0449928}, 
                {"id": 3, "lemma": "무엇", "type": "NP", "position": 173, "weight": 0.9}, 
                {"id": 4, "lemma": "이", "type": "VCP", "position": 179, "weight": 0.0175768}, 
                {"id": 5, "lemma": "ㄹ까", "type": "EF", "position": 179, "weight": 0.258243}, 
                {"id": 6, "lemma": "?", "type": "SF", "position": 185, "weight": 1}
            ], 
            "morp_eval": [], 
            "WSD": [
                {"id": 0, "text": "이", "type": "MM", "scode": "050101", "weight": 0.0172414, "position": 159, "begin": 0, "end": 0}, 
                {"id": 1, "text": "동물", "type": "NNG", "scode": "000002", "weight": 0.5, "position": 163, "begin": 1, "end": 1}, 
                {"id": 2, "text": "은", "type": "JX", "scode": "000000", "weight": 1, "position": 169, "begin": 2, "end": 2}, 
                {"id": 3, "text": "무엇", "type": "NP", "scode": "000001", "weight": 0.5, "position": 173, "begin": 3, "end": 3}, 
                {"id": 4, "text": "이", "type": "VCP", "scode": "030000", "weight": 0.0172414, "position": 179, "begin": 4, "end": 4}, 
                {"id": 5, "text": "ㄹ까", "type": "EF", "scode": "000000", "weight": 1, "position": 179, "begin": 5, "end": 5}, 
                {"id": 6, "text": "?", "type": "SF", "scode": "000000", "weight": 1, "position": 185, "begin": 6, "end": 6}
            ], 
            "word": [
                {"id": 0, "text": "이", "type": "", "begin": 0, "end": 0}, 
                {"id": 1, "text": "동물은", "type": "", "begin": 1, "end": 2}, 
                {"id": 2, "text": "무엇일까?", "type": "", "begin": 3, "end": 6}
            ], 
            "NE": [], 
            "chunk": [], 
            "dependency": [
                {"id": 0, "text": "이", "head": 1, "label": "DP", "mod": [], "weight": 0.662032}, 
                {"id": 1, "text": "동물은", "head": 2, "label": "NP_SBJ", "mod": [0], "weight": 0.86512}, 
                {"id": 2, "text": "무엇일까?", "head": -1, "label": "VNP", "mod": [1], "weight": 0.501486}
            ], 
            "SRL": [], 
            "relation": [], 
            "SA": [], 
            "ZA": []
        }
    ], 
    "entity": [
        {"id": 0, "type": "", "number": "singular", "gender": "", "person": "", "animacy": "thing", "mention": [
            {"id": 0, "sent_id": 0, "start_eid": 0, "end_eid": 0, "ne_id": -1, "text": "'반포지효'는", "start_eid_short": 0, "end_eid_short": 0, "text_short": "'반포지효'는"}, 
            {"id": 1, "sent_id": 0, "start_eid": 1, "end_eid": 10, "ne_id": -1, "text": "( )의 새끼가 자라서 늙은 어미새에게 먹이를 물어다 준다는 뜻으로,", "start_eid_short": 10, "end_eid_short": 0, "text_short": ""}, 
            {"id": 6, "sent_id": 0, "start_eid": 11, "end_eid": 14, "ne_id": -1, "text": "부모님에 대한 지극한 효성을", "start_eid_short": 14, "end_eid_short": 14, "text_short": "효성을"}
        ]}, 
        {"id": 1, "type": "CV_RELATION", "number": "singular", "gender": "", "person": "", "animacy": "human", "mention": [
            {"id": 2, "sent_id": 0, "start_eid": 1, "end_eid": 3, "ne_id": 0, "text": "( )의 새끼가", "start_eid_short": 1, "end_eid_short": 0, "text_short": ""}
        ]}, 
        {"id": 2, "type": "CV_RELATION", "number": "singular", "gender": "", "person": "", "animacy": "human", "mention": [
            {"id": 4, "sent_id": 0, "start_eid": 5, "end_eid": 6, "ne_id": 1, "text": "늙은 어미새에게", "start_eid_short": 6, "end_eid_short": 6, "text_short": "어미새에게"}
        ]}, 
        {"id": 3, "type": "", "number": "singular", "gender": "", "person": "", "animacy": "thing", "mention": [
            {"id": 5, "sent_id": 0, "start_eid": 7, "end_eid": 7, "ne_id": -1, "text": "먹이를", "start_eid_short": 7, "end_eid_short": 7, "text_short": "먹이를"}
        ]}, 
        {"id": 4, "type": "CV_RELATION", "number": "singular", "gender": "", "person": "", "animacy": "human", "mention": [
            {"id": 7, "sent_id": 0, "start_eid": 11, "end_eid": 11, "ne_id": 2, "text": "부모님에", "start_eid_short": 11, "end_eid_short": 11, "text_short": "부모님에"}
        ]}, 
        {"id": 5, "type": "", "number": "singular", "gender": "", "person": "", "animacy": "thing", "mention": [
            {"id": 3, "sent_id": 0, "start_eid": 1, "end_eid": 2, "ne_id": -1, "text": "( )의", "start_eid_short": 1, "end_eid_short": 0, "text_short": ""}, 
            {"id": 8, "sent_id": 1, "start_eid": 0, "end_eid": 1, "ne_id": -1, "text": "이 동물은", "start_eid_short": 0, "end_eid_short": 1, "text_short": "이 동물은"}, 
            {"id": 9, "sent_id": 1, "start_eid": 2, "end_eid": 2, "ne_id": -1, "text": "무엇일까?", "start_eid_short": 2, "end_eid_short": 2, "text_short": "무엇일까?"}
        ]}
    ]
}