{
    "doc_id": "E2016.790.26_A_02.json", 
    "DCT": "", 
    "category": "", 
    "category_weight": 0, 
    "title": {
        "text": "율리시스호", 
        "NE": ""
    }, 
    "metaInfo": {}, 
    "sentence": [
        {
            "id": 0, 
            "reserve_str": "", 
            "text": "율리시스(Ulysses)호는 미국, 유럽의 공동 태양 탐사선으로 자기장이 강해 접근하기 힘든 태양 극궤도를 처음으로 탐사하였으며 태양자기장, 태양풍의 연구를 진행하여 태양계의 전체 모습을 얻는 것이 목표였다.", 
            "morp": [
                {"id": 0, "lemma": "율리시스", "type": "NNG", "position": 0, "weight": 0.0793772}, 
                {"id": 1, "lemma": "(", "type": "SS", "position": 12, "weight": 1}, 
                {"id": 2, "lemma": "Ulysses", "type": "SL", "position": 13, "weight": 1}, 
                {"id": 3, "lemma": ")", "type": "SS", "position": 20, "weight": 1}, 
                {"id": 4, "lemma": "호", "type": "XSN", "position": 21, "weight": 0.00680901}, 
                {"id": 5, "lemma": "는", "type": "JX", "position": 24, "weight": 0.043988}, 
                {"id": 6, "lemma": "미국", "type": "NNP", "position": 28, "weight": 0.0448659}, 
                {"id": 7, "lemma": ",", "type": "SP", "position": 34, "weight": 1}, 
                {"id": 8, "lemma": "유럽", "type": "NNP", "position": 36, "weight": 0.9}, 
                {"id": 9, "lemma": "의", "type": "JKG", "position": 42, "weight": 0.0987295}, 
                {"id": 10, "lemma": "공동", "type": "NNG", "position": 46, "weight": 0.867095}, 
                {"id": 11, "lemma": "태양", "type": "NNG", "position": 53, "weight": 0.184192}, 
                {"id": 12, "lemma": "탐사", "type": "NNG", "position": 60, "weight": 0.9}, 
                {"id": 13, "lemma": "선", "type": "XSN", "position": 66, "weight": 0.00217259}, 
                {"id": 14, "lemma": "으로", "type": "JKB", "position": 69, "weight": 0.121717}, 
                {"id": 15, "lemma": "자기", "type": "NNG", "position": 76, "weight": 0.072886}, 
                {"id": 16, "lemma": "장", "type": "NNG", "position": 82, "weight": 0.0110513}, 
                {"id": 17, "lemma": "이", "type": "JKS", "position": 85, "weight": 0.0731805}, 
                {"id": 18, "lemma": "강하", "type": "VA", "position": 89, "weight": 0.177101}, 
                {"id": 19, "lemma": "아", "type": "EC", "position": 92, "weight": 0.354073}, 
                {"id": 20, "lemma": "접근", "type": "NNG", "position": 96, "weight": 0.9}, 
                {"id": 21, "lemma": "하", "type": "XSV", "position": 102, "weight": 0.0001}, 
                {"id": 22, "lemma": "기", "type": "ETN", "position": 105, "weight": 0.0556099}, 
                {"id": 23, "lemma": "힘들", "type": "VA", "position": 109, "weight": 0.9}, 
                {"id": 24, "lemma": "ㄴ", "type": "ETM", "position": 112, "weight": 0.430446}, 
                {"id": 25, "lemma": "태양", "type": "NNG", "position": 116, "weight": 0.656533}, 
                {"id": 26, "lemma": "극", "type": "NNG", "position": 123, "weight": 0.0001}, 
                {"id": 27, "lemma": "궤도", "type": "NNG", "position": 126, "weight": 0.9}, 
                {"id": 28, "lemma": "를", "type": "JKO", "position": 132, "weight": 0.137686}, 
                {"id": 29, "lemma": "처음", "type": "NNG", "position": 136, "weight": 0.9}, 
                {"id": 30, "lemma": "으로", "type": "JKB", "position": 142, "weight": 0.153406}, 
                {"id": 31, "lemma": "탐사", "type": "NNG", "position": 149, "weight": 0.9}, 
                {"id": 32, "lemma": "하", "type": "XSV", "position": 155, "weight": 0.0001}, 
                {"id": 33, "lemma": "았", "type": "EP", "position": 158, "weight": 0.9}, 
                {"id": 34, "lemma": "으며", "type": "EC", "position": 161, "weight": 0.197482}, 
                {"id": 35, "lemma": "태양자기장", "type": "NNG", "position": 168, "weight": 0.6}, 
                {"id": 36, "lemma": ",", "type": "SP", "position": 183, "weight": 1}, 
                {"id": 37, "lemma": "태양풍", "type": "NNG", "position": 185, "weight": 0.529737}, 
                {"id": 38, "lemma": "의", "type": "JKG", "position": 194, "weight": 0.120732}, 
                {"id": 39, "lemma": "연구", "type": "NNG", "position": 198, "weight": 0.9}, 
                {"id": 40, "lemma": "를", "type": "JKO", "position": 204, "weight": 0.137686}, 
                {"id": 41, "lemma": "진행", "type": "NNG", "position": 208, "weight": 0.9}, 
                {"id": 42, "lemma": "하", "type": "XSV", "position": 214, "weight": 0.0001}, 
                {"id": 43, "lemma": "아", "type": "EC", "position": 217, "weight": 0.361326}, 
                {"id": 44, "lemma": "태양", "type": "NNG", "position": 221, "weight": 0.218655}, 
                {"id": 45, "lemma": "계", "type": "XSN", "position": 227, "weight": 0.027803}, 
                {"id": 46, "lemma": "의", "type": "JKG", "position": 230, "weight": 0.120732}, 
                {"id": 47, "lemma": "전체", "type": "NNG", "position": 234, "weight": 0.9}, 
                {"id": 48, "lemma": "모습", "type": "NNG", "position": 241, "weight": 0.9}, 
                {"id": 49, "lemma": "을", "type": "JKO", "position": 247, "weight": 0.129611}, 
                {"id": 50, "lemma": "얻", "type": "VV", "position": 251, "weight": 0.9}, 
                {"id": 51, "lemma": "는", "type": "ETM", "position": 254, "weight": 0.184941}, 
                {"id": 52, "lemma": "것", "type": "NNB", "position": 258, "weight": 0.228788}, 
                {"id": 53, "lemma": "이", "type": "JKS", "position": 261, "weight": 0.0376169}, 
                {"id": 54, "lemma": "목표", "type": "NNG", "position": 265, "weight": 0.9}, 
                {"id": 55, "lemma": "이", "type": "VCP", "position": 271, "weight": 0.0177525}, 
                {"id": 56, "lemma": "었", "type": "EP", "position": 271, "weight": 0.9}, 
                {"id": 57, "lemma": "다", "type": "EF", "position": 274, "weight": 0.640954}, 
                {"id": 58, "lemma": ".", "type": "SF", "position": 277, "weight": 1}
            ], 
            "morp_eval": [], 
            "WSD": [
                {"id": 0, "text": "율리시스", "type": "NNG", "scode": "000000", "weight": 0.5, "position": 0, "begin": 0, "end": 0}, 
                {"id": 1, "text": "(", "type": "SS", "scode": "000000", "weight": 1, "position": 12, "begin": 1, "end": 1}, 
                {"id": 2, "text": "Ulysses", "type": "SL", "scode": "000000", "weight": 1, "position": 13, "begin": 2, "end": 2}, 
                {"id": 3, "text": ")", "type": "SS", "scode": "000000", "weight": 1, "position": 20, "begin": 3, "end": 3}, 
                {"id": 4, "text": "호", "type": "XSN", "scode": "190000", "weight": 0.0333333, "position": 21, "begin": 4, "end": 4}, 
                {"id": 5, "text": "는", "type": "JX", "scode": "000000", "weight": 1, "position": 24, "begin": 5, "end": 5}, 
                {"id": 6, "text": "미국", "type": "NNP", "scode": "030000", "weight": 0.333333, "position": 28, "begin": 6, "end": 6}, 
                {"id": 7, "text": ",", "type": "SP", "scode": "000000", "weight": 1, "position": 34, "begin": 7, "end": 7}, 
                {"id": 8, "text": "유럽", "type": "NNP", "scode": "020000", "weight": 0.5, "position": 36, "begin": 8, "end": 8}, 
                {"id": 9, "text": "의", "type": "JKG", "scode": "000000", "weight": 1, "position": 42, "begin": 9, "end": 9}, 
                {"id": 10, "text": "공동", "type": "NNG", "scode": "020000", "weight": 0.125, "position": 46, "begin": 10, "end": 10}, 
                {"id": 11, "text": "태양", "type": "NNG", "scode": "020001", "weight": 0.142857, "position": 53, "begin": 11, "end": 11}, 
                {"id": 12, "text": "탐사", "type": "NNG", "scode": "000000", "weight": 1, "position": 60, "begin": 12, "end": 12}, 
                {"id": 13, "text": "선", "type": "XSN", "scode": "190000", "weight": 0.025, "position": 66, "begin": 13, "end": 13}, 
                {"id": 14, "text": "으로", "type": "JKB", "scode": "000000", "weight": 1, "position": 69, "begin": 14, "end": 14}, 
                {"id": 15, "text": "자기장", "type": "NNG", "scode": "000000", "weight": 1, "position": 76, "begin": 15, "end": 16}, 
                {"id": 16, "text": "이", "type": "JKS", "scode": "000000", "weight": 1, "position": 85, "begin": 17, "end": 17}, 
                {"id": 17, "text": "강하", "type": "VA", "scode": "020101", "weight": 0.125, "position": 89, "begin": 18, "end": 18}, 
                {"id": 18, "text": "아", "type": "EC", "scode": "000000", "weight": 1, "position": 92, "begin": 19, "end": 19}, 
                {"id": 19, "text": "접근하", "type": "VV", "scode": "000001", "weight": 0.5, "position": 96, "begin": 20, "end": 21}, 
                {"id": 20, "text": "기", "type": "ETN", "scode": "000000", "weight": 1, "position": 105, "begin": 22, "end": 22}, 
                {"id": 21, "text": "힘들", "type": "VA", "scode": "000101", "weight": 0.333333, "position": 109, "begin": 23, "end": 23}, 
                {"id": 22, "text": "ㄴ", "type": "ETM", "scode": "000000", "weight": 1, "position": 112, "begin": 24, "end": 24}, 
                {"id": 23, "text": "태양", "type": "NNG", "scode": "020001", "weight": 0.142857, "position": 116, "begin": 25, "end": 25}, 
                {"id": 24, "text": "극궤도", "type": "NNG", "scode": "000000", "weight": 1, "position": 123, "begin": 26, "end": 27}, 
                {"id": 25, "text": "를", "type": "JKO", "scode": "000000", "weight": 1, "position": 132, "begin": 28, "end": 28}, 
                {"id": 26, "text": "처음", "type": "NNG", "scode": "000000", "weight": 1, "position": 136, "begin": 29, "end": 29}, 
                {"id": 27, "text": "으로", "type": "JKB", "scode": "000000", "weight": 1, "position": 142, "begin": 30, "end": 30}, 
                {"id": 28, "text": "탐사하", "type": "VV", "scode": "000000", "weight": 1, "position": 149, "begin": 31, "end": 32}, 
                {"id": 29, "text": "았", "type": "EP", "scode": "000000", "weight": 1, "position": 158, "begin": 33, "end": 33}, 
                {"id": 30, "text": "으며", "type": "EC", "scode": "000000", "weight": 1, "position": 161, "begin": 34, "end": 34}, 
                {"id": 31, "text": "태양자기장", "type": "NNG", "scode": "000000", "weight": 1, "position": 168, "begin": 35, "end": 35}, 
                {"id": 32, "text": ",", "type": "SP", "scode": "000000", "weight": 1, "position": 183, "begin": 36, "end": 36}, 
                {"id": 33, "text": "태양풍", "type": "NNG", "scode": "000000", "weight": 1, "position": 185, "begin": 37, "end": 37}, 
                {"id": 34, "text": "의", "type": "JKG", "scode": "000000", "weight": 1, "position": 194, "begin": 38, "end": 38}, 
                {"id": 35, "text": "연구", "type": "NNG", "scode": "030000", "weight": 0.111111, "position": 198, "begin": 39, "end": 39}, 
                {"id": 36, "text": "를", "type": "JKO", "scode": "000000", "weight": 1, "position": 204, "begin": 40, "end": 40}, 
                {"id": 37, "text": "진행하", "type": "VV", "scode": "000201", "weight": 0.333333, "position": 208, "begin": 41, "end": 42}, 
                {"id": 38, "text": "아", "type": "EC", "scode": "000000", "weight": 1, "position": 217, "begin": 43, "end": 43}, 
                {"id": 39, "text": "태양계", "type": "NNG", "scode": "000000", "weight": 1, "position": 221, "begin": 44, "end": 45}, 
                {"id": 40, "text": "의", "type": "JKG", "scode": "000000", "weight": 1, "position": 230, "begin": 46, "end": 46}, 
                {"id": 41, "text": "전체", "type": "NNG", "scode": "010000", "weight": 0.333333, "position": 234, "begin": 47, "end": 47}, 
                {"id": 42, "text": "모습", "type": "NNG", "scode": "010002", "weight": 0.2, "position": 241, "begin": 48, "end": 48}, 
                {"id": 43, "text": "을", "type": "JKO", "scode": "000000", "weight": 1, "position": 247, "begin": 49, "end": 49}, 
                {"id": 44, "text": "얻", "type": "VV", "scode": "010103", "weight": 0.1, "position": 251, "begin": 50, "end": 50}, 
                {"id": 45, "text": "는", "type": "ETM", "scode": "000000", "weight": 1, "position": 254, "begin": 51, "end": 51}, 
                {"id": 46, "text": "것", "type": "NNB", "scode": "010001", "weight": 0.125, "position": 258, "begin": 52, "end": 52}, 
                {"id": 47, "text": "이", "type": "JKS", "scode": "000000", "weight": 1, "position": 261, "begin": 53, "end": 53}, 
                {"id": 48, "text": "목표", "type": "NNG", "scode": "000001", "weight": 0.333333, "position": 265, "begin": 54, "end": 54}, 
                {"id": 49, "text": "이", "type": "VCP", "scode": "030000", "weight": 0.0172414, "position": 271, "begin": 55, "end": 55}, 
                {"id": 50, "text": "었", "type": "EP", "scode": "000000", "weight": 1, "position": 271, "begin": 56, "end": 56}, 
                {"id": 51, "text": "다", "type": "EF", "scode": "000000", "weight": 1, "position": 274, "begin": 57, "end": 57}, 
                {"id": 52, "text": ".", "type": "SF", "scode": "000000", "weight": 1, "position": 277, "begin": 58, "end": 58}
            ], 
            "word": [
                {"id": 0, "text": "율리시스(Ulysses)호는", "type": "", "begin": 0, "end": 5}, 
                {"id": 1, "text": "미국,", "type": "", "begin": 6, "end": 7}, 
                {"id": 2, "text": "유럽의", "type": "", "begin": 8, "end": 9}, 
                {"id": 3, "text": "공동", "type": "", "begin": 10, "end": 10}, 
                {"id": 4, "text": "태양", "type": "", "begin": 11, "end": 11}, 
                {"id": 5, "text": "탐사선으로", "type": "", "begin": 12, "end": 14}, 
                {"id": 6, "text": "자기장이", "type": "", "begin": 15, "end": 17}, 
                {"id": 7, "text": "강해", "type": "", "begin": 18, "end": 19}, 
                {"id": 8, "text": "접근하기", "type": "", "begin": 20, "end": 22}, 
                {"id": 9, "text": "힘든", "type": "", "begin": 23, "end": 24}, 
                {"id": 10, "text": "태양", "type": "", "begin": 25, "end": 25}, 
                {"id": 11, "text": "극궤도를", "type": "", "begin": 26, "end": 28}, 
                {"id": 12, "text": "처음으로", "type": "", "begin": 29, "end": 30}, 
                {"id": 13, "text": "탐사하였으며", "type": "", "begin": 31, "end": 34}, 
                {"id": 14, "text": "태양자기장,", "type": "", "begin": 35, "end": 36}, 
                {"id": 15, "text": "태양풍의", "type": "", "begin": 37, "end": 38}, 
                {"id": 16, "text": "연구를", "type": "", "begin": 39, "end": 40}, 
                {"id": 17, "text": "진행하여", "type": "", "begin": 41, "end": 43}, 
                {"id": 18, "text": "태양계의", "type": "", "begin": 44, "end": 46}, 
                {"id": 19, "text": "전체", "type": "", "begin": 47, "end": 47}, 
                {"id": 20, "text": "모습을", "type": "", "begin": 48, "end": 49}, 
                {"id": 21, "text": "얻는", "type": "", "begin": 50, "end": 51}, 
                {"id": 22, "text": "것이", "type": "", "begin": 52, "end": 53}, 
                {"id": 23, "text": "목표였다.", "type": "", "begin": 54, "end": 58}
            ], 
            "NE": [
                {"id": 0, "text": "율리시스", "type": "AF_TRANSPORT", "begin": 0, "end": 0, "weight": 0.178654, "common_noun": 0}, 
                {"id": 1, "text": "Ulysses", "type": "AF_TRANSPORT", "begin": 2, "end": 2, "weight": 0.10745, "common_noun": 0}, 
                {"id": 2, "text": "미국", "type": "LCP_COUNTRY", "begin": 6, "end": 6, "weight": 0.857703, "common_noun": 0}, 
                {"id": 3, "text": "유럽", "type": "LCG_CONTINENT", "begin": 8, "end": 8, "weight": 0.850027, "common_noun": 0}, 
                {"id": 4, "text": "태양", "type": "LC_SPACE", "begin": 11, "end": 11, "weight": 0.52241, "common_noun": 0}, 
                {"id": 5, "text": "태양", "type": "LC_SPACE", "begin": 25, "end": 25, "weight": 0.360588, "common_noun": 0}, 
                {"id": 6, "text": "태양계", "type": "LC_SPACE", "begin": 44, "end": 45, "weight": 0.712872, "common_noun": 0}
            ], 
            "chunk": [], 
            "dependency": [
                {"id": 0, "text": "율리시스(Ulysses)호는", "head": 5, "label": "NP_SBJ", "mod": [], "weight": 0.583543}, 
                {"id": 1, "text": "미국,", "head": 2, "label": "NP_CNJ", "mod": [], "weight": 0.182956}, 
                {"id": 2, "text": "유럽의", "head": 5, "label": "NP_MOD", "mod": [1], "weight": 0.842488}, 
                {"id": 3, "text": "공동", "head": 5, "label": "NP", "mod": [], "weight": 0.49805}, 
                {"id": 4, "text": "태양", "head": 5, "label": "NP", "mod": [], "weight": 0.773885}, 
                {"id": 5, "text": "탐사선으로", "head": 13, "label": "NP_AJT", "mod": [2, 4, 0, 3], "weight": 0.111067}, 
                {"id": 6, "text": "자기장이", "head": 7, "label": "NP_SBJ", "mod": [], "weight": 0.767345}, 
                {"id": 7, "text": "강해", "head": 8, "label": "VP", "mod": [6], "weight": 0.372609}, 
                {"id": 8, "text": "접근하기", "head": 9, "label": "VP_SBJ", "mod": [7], "weight": 0.400725}, 
                {"id": 9, "text": "힘든", "head": 11, "label": "VP_MOD", "mod": [8], "weight": 0.756497}, 
                {"id": 10, "text": "태양", "head": 11, "label": "NP", "mod": [], "weight": 0.501204}, 
                {"id": 11, "text": "극궤도를", "head": 13, "label": "NP_OBJ", "mod": [9, 10], "weight": 0.740616}, 
                {"id": 12, "text": "처음으로", "head": 13, "label": "NP_AJT", "mod": [], "weight": 0.863687}, 
                {"id": 13, "text": "탐사하였으며", "head": 23, "label": "VP", "mod": [11, 12, 5], "weight": 0.806425}, 
                {"id": 14, "text": "태양자기장,", "head": 15, "label": "NP_CNJ", "mod": [], "weight": 0.138302}, 
                {"id": 15, "text": "태양풍의", "head": 16, "label": "NP_MOD", "mod": [14], "weight": 0.709913}, 
                {"id": 16, "text": "연구를", "head": 17, "label": "NP_OBJ", "mod": [15], "weight": 0.833391}, 
                {"id": 17, "text": "진행하여", "head": 21, "label": "VP", "mod": [16], "weight": 0.508583}, 
                {"id": 18, "text": "태양계의", "head": 20, "label": "NP_MOD", "mod": [], "weight": 0.69805}, 
                {"id": 19, "text": "전체", "head": 20, "label": "NP", "mod": [], "weight": 0.625205}, 
                {"id": 20, "text": "모습을", "head": 21, "label": "NP_OBJ", "mod": [18, 19], "weight": 0.895879}, 
                {"id": 21, "text": "얻는", "head": 22, "label": "VP_MOD", "mod": [17, 20], "weight": 0.845613}, 
                {"id": 22, "text": "것이", "head": 23, "label": "NP_SBJ", "mod": [21], "weight": 0.798926}, 
                {"id": 23, "text": "목표였다.", "head": -1, "label": "VNP", "mod": [22, 13], "weight": 7.257e-07}
            ], 
            "SRL": [
                {"verb": "강하", "sense": 1, "word_id": 7, "weight": 0.269331, "argument": [
                    {"type": "ARG1", "word_id": 6, "text": "자기장이", "weight": 0.269331}
                ]}, 
                {"verb": "접근", "sense": 1, "word_id": 8, "weight": 0.106764, "argument": [
                    {"type": "ARG2", "word_id": 11, "text": "극궤도를", "weight": 1}
                ]}, 
                {"verb": "힘들", "sense": 1, "word_id": 9, "weight": 0.209415, "argument": [
                    {"type": "ARG1", "word_id": 8, "text": "접근하기", "weight": 0.209415}, 
                    {"type": "ARGM-CAU", "word_id": 7, "text": "강해", "weight": 1}, 
                    {"type": "ARGM-LOC", "word_id": 11, "text": "극궤도를", "weight": 1}
                ]}, 
                {"verb": "탐사", "sense": 1, "word_id": 13, "weight": 0.20695, "argument": [
                    {"type": "ARG1", "word_id": 11, "text": "극궤도를", "weight": 0.296053}, 
                    {"type": "ARGM-PRD", "word_id": 12, "text": "처음으로", "weight": 1}, 
                    {"type": "ARG0", "word_id": 5, "text": "탐사선으로", "weight": 1}
                ]}, 
                {"verb": "진행", "sense": 1, "word_id": 17, "weight": 0.247793, "argument": [
                    {"type": "ARG1", "word_id": 16, "text": "연구를", "weight": 0.247793}
                ]}, 
                {"verb": "얻", "sense": 1, "word_id": 21, "weight": 0.325999, "argument": [
                    {"type": "ARG1", "word_id": 20, "text": "모습을", "weight": 0.325999}, 
                    {"type": "ARGM-MNR", "word_id": 17, "text": "진행하여", "weight": 1}
                ]}
            ], 
            "relation": [], 
            "SA": [], 
            "ZA": []
        }
    ], 
    "entity": [
        {"id": 0, "type": "OGG_MEDIA", "number": "singular", "gender": "", "person": "", "animacy": "thing", "mention": [
            {"id": 0, "sent_id": 0, "start_eid": 0, "end_eid": 0, "ne_id": 0, "text": "율리시스(Ulysses)호는", "start_eid_short": 0, "end_eid_short": 0, "text_short": "율리시스(Ulysses)호는"}, 
            {"id": 1, "sent_id": 0, "start_eid": 1, "end_eid": 5, "ne_id": -1, "text": "미국, 유럽의 공동 태양 탐사선으로", "start_eid_short": 3, "end_eid_short": 5, "text_short": "공동 태양 탐사선으로"}
        ]}, 
        {"id": 1, "type": "LCG_CONTINENT", "number": "singular", "gender": "", "person": "", "animacy": "place", "mention": [
            {"id": 2, "sent_id": 0, "start_eid": 1, "end_eid": 2, "ne_id": 3, "text": "미국, 유럽의", "start_eid_short": 2, "end_eid_short": 2, "text_short": "유럽의"}
        ]}, 
        {"id": 2, "type": "LCP_COUNTRY", "number": "singular", "gender": "", "person": "", "animacy": "place", "mention": [
            {"id": 3, "sent_id": 0, "start_eid": 1, "end_eid": 1, "ne_id": 2, "text": "미국,", "start_eid_short": 1, "end_eid_short": 1, "text_short": "미국,"}
        ]}, 
        {"id": 3, "type": "", "number": "singular", "gender": "", "person": "", "animacy": "thing", "mention": [
            {"id": 5, "sent_id": 0, "start_eid": 3, "end_eid": 3, "ne_id": -1, "text": "공동", "start_eid_short": 3, "end_eid_short": 3, "text_short": "공동"}
        ]}, 
        {"id": 4, "type": "", "number": "singular", "gender": "", "person": "", "animacy": "thing", "mention": [
            {"id": 15, "sent_id": 0, "start_eid": 18, "end_eid": 22, "ne_id": -1, "text": "태양계의 전체 모습을 얻는 것이", "start_eid_short": 22, "end_eid_short": 22, "text_short": "것이"}
        ]}, 
        {"id": 5, "type": "", "number": "singular", "gender": "", "person": "", "animacy": "thing", "mention": [
            {"id": 7, "sent_id": 0, "start_eid": 6, "end_eid": 11, "ne_id": -1, "text": "자기장이 강해 접근하기 힘든 태양 극궤도를", "start_eid_short": 10, "end_eid_short": 11, "text_short": "태양 극궤도를"}
        ]}, 
        {"id": 6, "type": "", "number": "singular", "gender": "", "person": "", "animacy": "thing", "mention": [
            {"id": 8, "sent_id": 0, "start_eid": 6, "end_eid": 6, "ne_id": -1, "text": "자기장이", "start_eid_short": 6, "end_eid_short": 6, "text_short": "자기장이"}
        ]}, 
        {"id": 7, "type": "", "number": "singular", "gender": "", "person": "", "animacy": "thing", "mention": [
            {"id": 10, "sent_id": 0, "start_eid": 12, "end_eid": 12, "ne_id": -1, "text": "처음으로", "start_eid_short": 12, "end_eid_short": 12, "text_short": "처음으로"}
        ]}, 
        {"id": 8, "type": "LC_SPACE", "number": "singular", "gender": "", "person": "", "animacy": "place", "mention": [
            {"id": 12, "sent_id": 0, "start_eid": 14, "end_eid": 15, "ne_id": 7, "text": "태양자기장, 태양풍의", "start_eid_short": 15, "end_eid_short": 15, "text_short": "태양풍의"}
        ]}, 
        {"id": 9, "type": "", "number": "singular", "gender": "", "person": "", "animacy": "thing", "mention": [
            {"id": 11, "sent_id": 0, "start_eid": 14, "end_eid": 16, "ne_id": -1, "text": "태양자기장, 태양풍의 연구를", "start_eid_short": 16, "end_eid_short": 16, "text_short": "연구를"}
        ]}, 
        {"id": 10, "type": "", "number": "singular", "gender": "", "person": "", "animacy": "thing", "mention": [
            {"id": 16, "sent_id": 0, "start_eid": 18, "end_eid": 20, "ne_id": -1, "text": "태양계의 전체 모습을", "start_eid_short": 19, "end_eid_short": 20, "text_short": "전체 모습을"}
        ]}, 
        {"id": 11, "type": "LC_OTHERS", "number": "singular", "gender": "", "person": "", "animacy": "place", "mention": [
            {"id": 17, "sent_id": 0, "start_eid": 18, "end_eid": 18, "ne_id": 8, "text": "태양계의", "start_eid_short": 18, "end_eid_short": 18, "text_short": "태양계의"}
        ]}, 
        {"id": 12, "type": "", "number": "singular", "gender": "", "person": "", "animacy": "thing", "mention": [
            {"id": 18, "sent_id": 0, "start_eid": 19, "end_eid": 19, "ne_id": -1, "text": "전체", "start_eid_short": 19, "end_eid_short": 19, "text_short": "전체"}
        ]}, 
        {"id": 13, "type": "LCG_CONTINENT", "number": "singular", "gender": "", "person": "", "animacy": "place", "mention": [
            {"id": 4, "sent_id": 0, "start_eid": 2, "end_eid": 2, "ne_id": 3, "text": "유럽의", "start_eid_short": 2, "end_eid_short": 2, "text_short": "유럽의"}
        ]}, 
        {"id": 14, "type": "LC_SPACE", "number": "singular", "gender": "", "person": "", "animacy": "place", "mention": [
            {"id": 6, "sent_id": 0, "start_eid": 4, "end_eid": 4, "ne_id": 4, "text": "태양", "start_eid_short": 4, "end_eid_short": 4, "text_short": "태양"}, 
            {"id": 9, "sent_id": 0, "start_eid": 10, "end_eid": 10, "ne_id": 5, "text": "태양", "start_eid_short": 10, "end_eid_short": 10, "text_short": "태양"}
        ]}, 
        {"id": 15, "type": "LC_SPACE", "number": "singular", "gender": "", "person": "", "animacy": "place", "mention": [
            {"id": 13, "sent_id": 0, "start_eid": 14, "end_eid": 14, "ne_id": 6, "text": "태양자기장,", "start_eid_short": 14, "end_eid_short": 14, "text_short": "태양자기장,"}
        ]}, 
        {"id": 16, "type": "LC_SPACE", "number": "singular", "gender": "", "person": "", "animacy": "place", "mention": [
            {"id": 14, "sent_id": 0, "start_eid": 15, "end_eid": 15, "ne_id": 7, "text": "태양풍의", "start_eid_short": 15, "end_eid_short": 15, "text_short": "태양풍의"}
        ]}
    ]
}