{
    "doc_id": "E2016.837.05_A_01.json", 
    "DCT": "", 
    "category": "", 
    "category_weight": 0, 
    "title": {
        "text": "포르투갈어", 
        "NE": ""
    }, 
    "metaInfo": {}, 
    "sentence": [
        {
            "id": 0, 
            "reserve_str": "", 
            "text": "브라질과 포르투갈 이외에도, 앙골라, 카보베르데, 기니비사우, 마카오, 모잠비크, 상투메 프린시페, 동티모르, 적도기니와 옛 포르투갈령 인도인 고아 주, 다만 디우, 다드라 나가르하벨리, 그리고 포르투갈 제국의 작은 부분이었던 말레이시아의 말라카와 동아프리카 탄자니아의 잔지바르에서도 사용된다.", 
            "morp": [
                {"id": 0, "lemma": "브라질", "type": "NNP", "position": 0, "weight": 0.9}, 
                {"id": 1, "lemma": "과", "type": "JC", "position": 9, "weight": 0.0108215}, 
                {"id": 2, "lemma": "포르투갈", "type": "NNP", "position": 13, "weight": 0.9}, 
                {"id": 3, "lemma": "이외", "type": "NNG", "position": 26, "weight": 0.9}, 
                {"id": 4, "lemma": "에", "type": "JKB", "position": 32, "weight": 0.153364}, 
                {"id": 5, "lemma": "도", "type": "JX", "position": 35, "weight": 0.0912297}, 
                {"id": 6, "lemma": ",", "type": "SP", "position": 38, "weight": 1}, 
                {"id": 7, "lemma": "앙골라", "type": "NNP", "position": 40, "weight": 0.9}, 
                {"id": 8, "lemma": ",", "type": "SP", "position": 49, "weight": 1}, 
                {"id": 9, "lemma": "카보베르데", "type": "NNP", "position": 51, "weight": 0.05}, 
                {"id": 10, "lemma": ",", "type": "SP", "position": 66, "weight": 1}, 
                {"id": 11, "lemma": "기니비사우", "type": "NNP", "position": 68, "weight": 0.6}, 
                {"id": 12, "lemma": ",", "type": "SP", "position": 83, "weight": 1}, 
                {"id": 13, "lemma": "마카오", "type": "NNP", "position": 85, "weight": 0.9}, 
                {"id": 14, "lemma": ",", "type": "SP", "position": 94, "weight": 1}, 
                {"id": 15, "lemma": "모잠비크", "type": "NNP", "position": 96, "weight": 0.9}, 
                {"id": 16, "lemma": ",", "type": "SP", "position": 108, "weight": 1}, 
                {"id": 17, "lemma": "상투메", "type": "NNP", "position": 110, "weight": 0.2}, 
                {"id": 18, "lemma": "프린시페", "type": "NNP", "position": 120, "weight": 0.6}, 
                {"id": 19, "lemma": ",", "type": "SP", "position": 132, "weight": 1}, 
                {"id": 20, "lemma": "동티모르", "type": "NNP", "position": 134, "weight": 0.9}, 
                {"id": 21, "lemma": ",", "type": "SP", "position": 146, "weight": 1}, 
                {"id": 22, "lemma": "적도기니", "type": "NNP", "position": 148, "weight": 0.9}, 
                {"id": 23, "lemma": "와", "type": "JC", "position": 160, "weight": 0.0169714}, 
                {"id": 24, "lemma": "옛", "type": "MM", "position": 164, "weight": 0.0162108}, 
                {"id": 25, "lemma": "포르투갈", "type": "NNP", "position": 168, "weight": 0.9}, 
                {"id": 26, "lemma": "령", "type": "XSN", "position": 180, "weight": 0.0152997}, 
                {"id": 27, "lemma": "인도", "type": "NNP", "position": 184, "weight": 0.0168248}, 
                {"id": 28, "lemma": "이", "type": "VCP", "position": 190, "weight": 0.0177525}, 
                {"id": 29, "lemma": "ㄴ", "type": "ETM", "position": 190, "weight": 0.220712}, 
                {"id": 30, "lemma": "고아", "type": "NNP", "position": 194, "weight": 0.591612}, 
                {"id": 31, "lemma": "주", "type": "NNG", "position": 201, "weight": 0.0116574}, 
                {"id": 32, "lemma": ",", "type": "SP", "position": 204, "weight": 1}, 
                {"id": 33, "lemma": "다만", "type": "NNP", "position": 206, "weight": 0.0555395}, 
                {"id": 34, "lemma": "디우", "type": "NNP", "position": 213, "weight": 0.6}, 
                {"id": 35, "lemma": ",", "type": "SP", "position": 219, "weight": 1}, 
                {"id": 36, "lemma": "다드라", "type": "NNP", "position": 221, "weight": 0.6}, 
                {"id": 37, "lemma": "나가르하벨리", "type": "NNP", "position": 231, "weight": 0.6}, 
                {"id": 38, "lemma": ",", "type": "SP", "position": 249, "weight": 1}, 
                {"id": 39, "lemma": "그리고", "type": "MAJ", "position": 251, "weight": 0.00535347}, 
                {"id": 40, "lemma": "포르투갈", "type": "NNP", "position": 261, "weight": 0.9}, 
                {"id": 41, "lemma": "제국", "type": "NNG", "position": 274, "weight": 0.281771}, 
                {"id": 42, "lemma": "의", "type": "JKG", "position": 280, "weight": 0.0694213}, 
                {"id": 43, "lemma": "작", "type": "VA", "position": 284, "weight": 0.0329476}, 
                {"id": 44, "lemma": "은", "type": "ETM", "position": 287, "weight": 0.155123}, 
                {"id": 45, "lemma": "부분", "type": "NNG", "position": 291, "weight": 0.9}, 
                {"id": 46, "lemma": "이", "type": "VCP", "position": 297, "weight": 0.0177525}, 
                {"id": 47, "lemma": "었", "type": "EP", "position": 300, "weight": 0.9}, 
                {"id": 48, "lemma": "던", "type": "ETM", "position": 303, "weight": 0.107547}, 
                {"id": 49, "lemma": "말레이시아", "type": "NNP", "position": 307, "weight": 0.9}, 
                {"id": 50, "lemma": "의", "type": "JKG", "position": 322, "weight": 0.0987295}, 
                {"id": 51, "lemma": "말라카", "type": "NNP", "position": 326, "weight": 0.65}, 
                {"id": 52, "lemma": "와", "type": "JC", "position": 335, "weight": 0.0104534}, 
                {"id": 53, "lemma": "동아프리카", "type": "NNP", "position": 339, "weight": 0.9}, 
                {"id": 54, "lemma": "탄자니아", "type": "NNP", "position": 355, "weight": 0.9}, 
                {"id": 55, "lemma": "의", "type": "JKG", "position": 367, "weight": 0.0987295}, 
                {"id": 56, "lemma": "잔지바르", "type": "NNP", "position": 371, "weight": 0.05}, 
                {"id": 57, "lemma": "에서", "type": "JKB", "position": 383, "weight": 0.0823859}, 
                {"id": 58, "lemma": "도", "type": "JX", "position": 389, "weight": 0.0912297}, 
                {"id": 59, "lemma": "사용", "type": "NNG", "position": 393, "weight": 0.9}, 
                {"id": 60, "lemma": "되", "type": "XSV", "position": 399, "weight": 0.000224177}, 
                {"id": 61, "lemma": "ㄴ다", "type": "EF", "position": 399, "weight": 0.0449045}, 
                {"id": 62, "lemma": ".", "type": "SF", "position": 405, "weight": 1}
            ], 
            "morp_eval": [], 
            "WSD": [
                {"id": 0, "text": "브라질", "type": "NNP", "scode": "000000", "weight": 1, "position": 0, "begin": 0, "end": 0}, 
                {"id": 1, "text": "과", "type": "JC", "scode": "000000", "weight": 1, "position": 9, "begin": 1, "end": 1}, 
                {"id": 2, "text": "포르투갈", "type": "NNP", "scode": "000000", "weight": 1, "position": 13, "begin": 2, "end": 2}, 
                {"id": 3, "text": "이외", "type": "NNG", "scode": "010000", "weight": 0.5, "position": 26, "begin": 3, "end": 3}, 
                {"id": 4, "text": "에", "type": "JKB", "scode": "000000", "weight": 1, "position": 32, "begin": 4, "end": 4}, 
                {"id": 5, "text": "도", "type": "JX", "scode": "000000", "weight": 1, "position": 35, "begin": 5, "end": 5}, 
                {"id": 6, "text": ",", "type": "SP", "scode": "000000", "weight": 1, "position": 38, "begin": 6, "end": 6}, 
                {"id": 7, "text": "앙골라", "type": "NNP", "scode": "000000", "weight": 1, "position": 40, "begin": 7, "end": 7}, 
                {"id": 8, "text": ",", "type": "SP", "scode": "000000", "weight": 1, "position": 49, "begin": 8, "end": 8}, 
                {"id": 9, "text": "카보베르데", "type": "NNP", "scode": "000000", "weight": 1, "position": 51, "begin": 9, "end": 9}, 
                {"id": 10, "text": ",", "type": "SP", "scode": "000000", "weight": 1, "position": 66, "begin": 10, "end": 10}, 
                {"id": 11, "text": "기니비사우", "type": "NNP", "scode": "000000", "weight": 1, "position": 68, "begin": 11, "end": 11}, 
                {"id": 12, "text": ",", "type": "SP", "scode": "000000", "weight": 1, "position": 83, "begin": 12, "end": 12}, 
                {"id": 13, "text": "마카오", "type": "NNP", "scode": "000000", "weight": 1, "position": 85, "begin": 13, "end": 13}, 
                {"id": 14, "text": ",", "type": "SP", "scode": "000000", "weight": 1, "position": 94, "begin": 14, "end": 14}, 
                {"id": 15, "text": "모잠비크", "type": "NNP", "scode": "000000", "weight": 1, "position": 96, "begin": 15, "end": 15}, 
                {"id": 16, "text": ",", "type": "SP", "scode": "000000", "weight": 1, "position": 108, "begin": 16, "end": 16}, 
                {"id": 17, "text": "상투메", "type": "NNP", "scode": "000000", "weight": 1, "position": 110, "begin": 17, "end": 17}, 
                {"id": 18, "text": "프린시페", "type": "NNP", "scode": "000000", "weight": 0, "position": 120, "begin": 18, "end": 18}, 
                {"id": 19, "text": ",", "type": "SP", "scode": "000000", "weight": 1, "position": 132, "begin": 19, "end": 19}, 
                {"id": 20, "text": "동티모르", "type": "NNP", "scode": "000000", "weight": 0, "position": 134, "begin": 20, "end": 20}, 
                {"id": 21, "text": ",", "type": "SP", "scode": "000000", "weight": 1, "position": 146, "begin": 21, "end": 21}, 
                {"id": 22, "text": "적도기니", "type": "NNP", "scode": "000000", "weight": 1, "position": 148, "begin": 22, "end": 22}, 
                {"id": 23, "text": "와", "type": "JC", "scode": "000000", "weight": 1, "position": 160, "begin": 23, "end": 23}, 
                {"id": 24, "text": "옛", "type": "MM", "scode": "010000", "weight": 0.333333, "position": 164, "begin": 24, "end": 24}, 
                {"id": 25, "text": "포르투갈", "type": "NNP", "scode": "000000", "weight": 1, "position": 168, "begin": 25, "end": 25}, 
                {"id": 26, "text": "령", "type": "XSN", "scode": "080000", "weight": 0.0909091, "position": 180, "begin": 26, "end": 26}, 
                {"id": 27, "text": "인도", "type": "NNP", "scode": "080000", "weight": 0.0714286, "position": 184, "begin": 27, "end": 27}, 
                {"id": 28, "text": "이", "type": "VCP", "scode": "030000", "weight": 0.0172414, "position": 190, "begin": 28, "end": 28}, 
                {"id": 29, "text": "ㄴ", "type": "ETM", "scode": "000000", "weight": 1, "position": 190, "begin": 29, "end": 29}, 
                {"id": 30, "text": "고아", "type": "NNP", "scode": "000000", "weight": 0.25, "position": 194, "begin": 30, "end": 30}, 
                {"id": 31, "text": "주", "type": "NNG", "scode": "050001", "weight": 0.0212766, "position": 201, "begin": 31, "end": 31}, 
                {"id": 32, "text": ",", "type": "SP", "scode": "000000", "weight": 1, "position": 204, "begin": 32, "end": 32}, 
                {"id": 33, "text": "다만", "type": "NNP", "scode": "000000", "weight": 0.25, "position": 206, "begin": 33, "end": 33}, 
                {"id": 34, "text": "디우", "type": "NNP", "scode": "010000", "weight": 0.5, "position": 213, "begin": 34, "end": 34}, 
                {"id": 35, "text": ",", "type": "SP", "scode": "000000", "weight": 1, "position": 219, "begin": 35, "end": 35}, 
                {"id": 36, "text": "다드라", "type": "NNP", "scode": "000000", "weight": 0, "position": 221, "begin": 36, "end": 36}, 
                {"id": 37, "text": "나가르하벨리", "type": "NNP", "scode": "000000", "weight": 0, "position": 231, "begin": 37, "end": 37}, 
                {"id": 38, "text": ",", "type": "SP", "scode": "000000", "weight": 1, "position": 249, "begin": 38, "end": 38}, 
                {"id": 39, "text": "그리고", "type": "MAJ", "scode": "000000", "weight": 1, "position": 251, "begin": 39, "end": 39}, 
                {"id": 40, "text": "포르투갈", "type": "NNP", "scode": "000000", "weight": 1, "position": 261, "begin": 40, "end": 40}, 
                {"id": 41, "text": "제국", "type": "NNG", "scode": "020000", "weight": 0.25, "position": 274, "begin": 41, "end": 41}, 
                {"id": 42, "text": "의", "type": "JKG", "scode": "000000", "weight": 1, "position": 280, "begin": 42, "end": 42}, 
                {"id": 43, "text": "작", "type": "VA", "scode": "010001", "weight": 0.125, "position": 284, "begin": 43, "end": 43}, 
                {"id": 44, "text": "은", "type": "ETM", "scode": "000000", "weight": 1, "position": 287, "begin": 44, "end": 44}, 
                {"id": 45, "text": "부분", "type": "NNG", "scode": "010000", "weight": 0.5, "position": 291, "begin": 45, "end": 45}, 
                {"id": 46, "text": "이", "type": "VCP", "scode": "030000", "weight": 0.0172414, "position": 297, "begin": 46, "end": 46}, 
                {"id": 47, "text": "었", "type": "EP", "scode": "000000", "weight": 1, "position": 300, "begin": 47, "end": 47}, 
                {"id": 48, "text": "던", "type": "ETM", "scode": "000000", "weight": 1, "position": 303, "begin": 48, "end": 48}, 
                {"id": 49, "text": "말레이시아", "type": "NNP", "scode": "000000", "weight": 1, "position": 307, "begin": 49, "end": 49}, 
                {"id": 50, "text": "의", "type": "JKG", "scode": "000000", "weight": 1, "position": 322, "begin": 50, "end": 50}, 
                {"id": 51, "text": "말라카", "type": "NNP", "scode": "000000", "weight": 1, "position": 326, "begin": 51, "end": 51}, 
                {"id": 52, "text": "와", "type": "JC", "scode": "000000", "weight": 1, "position": 335, "begin": 52, "end": 52}, 
                {"id": 53, "text": "동아프리카", "type": "NNP", "scode": "000000", "weight": 1, "position": 339, "begin": 53, "end": 53}, 
                {"id": 54, "text": "탄자니아", "type": "NNP", "scode": "000000", "weight": 1, "position": 355, "begin": 54, "end": 54}, 
                {"id": 55, "text": "의", "type": "JKG", "scode": "000000", "weight": 1, "position": 367, "begin": 55, "end": 55}, 
                {"id": 56, "text": "잔지바르", "type": "NNP", "scode": "000001", "weight": 0.5, "position": 371, "begin": 56, "end": 56}, 
                {"id": 57, "text": "에서", "type": "JKB", "scode": "000000", "weight": 1, "position": 383, "begin": 57, "end": 57}, 
                {"id": 58, "text": "도", "type": "JX", "scode": "000000", "weight": 1, "position": 389, "begin": 58, "end": 58}, 
                {"id": 59, "text": "사용되", "type": "VV", "scode": "000001", "weight": 0.5, "position": 393, "begin": 59, "end": 60}, 
                {"id": 60, "text": "ㄴ다", "type": "EF", "scode": "000000", "weight": 1, "position": 399, "begin": 61, "end": 61}, 
                {"id": 61, "text": ".", "type": "SF", "scode": "000000", "weight": 1, "position": 405, "begin": 62, "end": 62}
            ], 
            "word": [
                {"id": 0, "text": "브라질과", "type": "", "begin": 0, "end": 1}, 
                {"id": 1, "text": "포르투갈", "type": "", "begin": 2, "end": 2}, 
                {"id": 2, "text": "이외에도,", "type": "", "begin": 3, "end": 6}, 
                {"id": 3, "text": "앙골라,", "type": "", "begin": 7, "end": 8}, 
                {"id": 4, "text": "카보베르데,", "type": "", "begin": 9, "end": 10}, 
                {"id": 5, "text": "기니비사우,", "type": "", "begin": 11, "end": 12}, 
                {"id": 6, "text": "마카오,", "type": "", "begin": 13, "end": 14}, 
                {"id": 7, "text": "모잠비크,", "type": "", "begin": 15, "end": 16}, 
                {"id": 8, "text": "상투메", "type": "", "begin": 17, "end": 17}, 
                {"id": 9, "text": "프린시페,", "type": "", "begin": 18, "end": 19}, 
                {"id": 10, "text": "동티모르,", "type": "", "begin": 20, "end": 21}, 
                {"id": 11, "text": "적도기니와", "type": "", "begin": 22, "end": 23}, 
                {"id": 12, "text": "옛", "type": "", "begin": 24, "end": 24}, 
                {"id": 13, "text": "포르투갈령", "type": "", "begin": 25, "end": 26}, 
                {"id": 14, "text": "인도인", "type": "", "begin": 27, "end": 29}, 
                {"id": 15, "text": "고아", "type": "", "begin": 30, "end": 30}, 
                {"id": 16, "text": "주,", "type": "", "begin": 31, "end": 32}, 
                {"id": 17, "text": "다만", "type": "", "begin": 33, "end": 33}, 
                {"id": 18, "text": "디우,", "type": "", "begin": 34, "end": 35}, 
                {"id": 19, "text": "다드라", "type": "", "begin": 36, "end": 36}, 
                {"id": 20, "text": "나가르하벨리,", "type": "", "begin": 37, "end": 38}, 
                {"id": 21, "text": "그리고", "type": "", "begin": 39, "end": 39}, 
                {"id": 22, "text": "포르투갈", "type": "", "begin": 40, "end": 40}, 
                {"id": 23, "text": "제국의", "type": "", "begin": 41, "end": 42}, 
                {"id": 24, "text": "작은", "type": "", "begin": 43, "end": 44}, 
                {"id": 25, "text": "부분이었던", "type": "", "begin": 45, "end": 48}, 
                {"id": 26, "text": "말레이시아의", "type": "", "begin": 49, "end": 50}, 
                {"id": 27, "text": "말라카와", "type": "", "begin": 51, "end": 52}, 
                {"id": 28, "text": "동아프리카", "type": "", "begin": 53, "end": 53}, 
                {"id": 29, "text": "탄자니아의", "type": "", "begin": 54, "end": 55}, 
                {"id": 30, "text": "잔지바르에서도", "type": "", "begin": 56, "end": 58}, 
                {"id": 31, "text": "사용된다.", "type": "", "begin": 59, "end": 62}
            ], 
            "NE": [
                {"id": 0, "text": "브라질", "type": "LCP_COUNTRY", "begin": 0, "end": 0, "weight": 0.83196, "common_noun": 0}, 
                {"id": 1, "text": "포르투갈", "type": "LCP_COUNTRY", "begin": 2, "end": 2, "weight": 0.53192, "common_noun": 0}, 
                {"id": 2, "text": "앙골라", "type": "LCP_COUNTRY", "begin": 7, "end": 7, "weight": 0.695349, "common_noun": 0}, 
                {"id": 3, "text": "카보베르데", "type": "LCP_COUNTRY", "begin": 9, "end": 9, "weight": 0.332283, "common_noun": 0}, 
                {"id": 4, "text": "기니비사우", "type": "LCP_COUNTRY", "begin": 11, "end": 11, "weight": 0.503725, "common_noun": 0}, 
                {"id": 5, "text": "마카오", "type": "LCP_PROVINCE", "begin": 13, "end": 13, "weight": 0.827918, "common_noun": 0}, 
                {"id": 6, "text": "모잠비크", "type": "LCP_COUNTRY", "begin": 15, "end": 15, "weight": 0.784615, "common_noun": 0}, 
                {"id": 7, "text": "상투메 프린시페", "type": "LCP_COUNTRY", "begin": 17, "end": 18, "weight": 0.30922, "common_noun": 0}, 
                {"id": 8, "text": "동티모르", "type": "LCP_COUNTRY", "begin": 20, "end": 20, "weight": 0.49626, "common_noun": 0}, 
                {"id": 9, "text": "적도기니", "type": "LCP_COUNTRY", "begin": 22, "end": 22, "weight": 0.417434, "common_noun": 0}, 
                {"id": 10, "text": "포르투갈", "type": "LCP_COUNTRY", "begin": 25, "end": 25, "weight": 0.376436, "common_noun": 0}, 
                {"id": 11, "text": "인도", "type": "LCP_COUNTRY", "begin": 27, "end": 27, "weight": 0.562942, "common_noun": 0}, 
                {"id": 12, "text": "고아 주", "type": "LCP_PROVINCE", "begin": 30, "end": 31, "weight": 0.222145, "common_noun": 0}, 
                {"id": 13, "text": "다만 디우", "type": "LCP_PROVINCE", "begin": 33, "end": 34, "weight": 0.123861, "common_noun": 0}, 
                {"id": 14, "text": "다드라 나가르하벨리", "type": "LCP_PROVINCE", "begin": 36, "end": 37, "weight": 0.123181, "common_noun": 0}, 
                {"id": 15, "text": "포르투갈", "type": "LCP_COUNTRY", "begin": 40, "end": 40, "weight": 0.576363, "common_noun": 0}, 
                {"id": 16, "text": "말레이시아", "type": "LCP_COUNTRY", "begin": 49, "end": 49, "weight": 0.445484, "common_noun": 0}, 
                {"id": 17, "text": "말라카", "type": "LCP_CITY", "begin": 51, "end": 51, "weight": 0.171238, "common_noun": 0}, 
                {"id": 18, "text": "동아프리카", "type": "LCG_CONTINENT", "begin": 53, "end": 53, "weight": 0.449252, "common_noun": 0}, 
                {"id": 19, "text": "탄자니아", "type": "LCP_COUNTRY", "begin": 54, "end": 54, "weight": 0.378271, "common_noun": 0}, 
                {"id": 20, "text": "잔지바르", "type": "LCP_CITY", "begin": 56, "end": 56, "weight": 0.188808, "common_noun": 0}
            ], 
            "chunk": [], 
            "dependency": [
                {"id": 0, "text": "브라질과", "head": 1, "label": "NP_CNJ", "mod": [], "weight": 0.322842}, 
                {"id": 1, "text": "포르투갈", "head": 2, "label": "NP", "mod": [0], "weight": 0.758774}, 
                {"id": 2, "text": "이외에도,", "head": 30, "label": "NP_AJT", "mod": [1], "weight": 0.43007}, 
                {"id": 3, "text": "앙골라,", "head": 30, "label": "NP_CNJ", "mod": [], "weight": 0.647699}, 
                {"id": 4, "text": "카보베르데,", "head": 30, "label": "NP_CNJ", "mod": [], "weight": 0.809812}, 
                {"id": 5, "text": "기니비사우,", "head": 30, "label": "NP_CNJ", "mod": [], "weight": 0.838909}, 
                {"id": 6, "text": "마카오,", "head": 30, "label": "NP_CNJ", "mod": [], "weight": 0.822469}, 
                {"id": 7, "text": "모잠비크,", "head": 30, "label": "NP_CNJ", "mod": [], "weight": 0.72745}, 
                {"id": 8, "text": "상투메", "head": 9, "label": "NP", "mod": [], "weight": 0.780978}, 
                {"id": 9, "text": "프린시페,", "head": 30, "label": "NP_CNJ", "mod": [8], "weight": 0.707078}, 
                {"id": 10, "text": "동티모르,", "head": 30, "label": "NP_CNJ", "mod": [], "weight": 0.752565}, 
                {"id": 11, "text": "적도기니와", "head": 30, "label": "NP_CNJ", "mod": [], "weight": 0.537844}, 
                {"id": 12, "text": "옛", "head": 13, "label": "DP", "mod": [], "weight": 0.586135}, 
                {"id": 13, "text": "포르투갈령", "head": 14, "label": "NP", "mod": [12], "weight": 0.741828}, 
                {"id": 14, "text": "인도인", "head": 16, "label": "VNP_MOD", "mod": [13], "weight": 0.580054}, 
                {"id": 15, "text": "고아", "head": 16, "label": "NP", "mod": [], "weight": 0.750937}, 
                {"id": 16, "text": "주,", "head": 30, "label": "NP_CNJ", "mod": [14, 15], "weight": 0.248183}, 
                {"id": 17, "text": "다만", "head": 18, "label": "NP", "mod": [], "weight": 0.574381}, 
                {"id": 18, "text": "디우,", "head": 30, "label": "NP_CNJ", "mod": [17], "weight": 0.0905927}, 
                {"id": 19, "text": "다드라", "head": 20, "label": "NP", "mod": [], "weight": 0.774322}, 
                {"id": 20, "text": "나가르하벨리,", "head": 30, "label": "NP_CNJ", "mod": [19], "weight": 0.128132}, 
                {"id": 21, "text": "그리고", "head": 25, "label": "AP", "mod": [], "weight": 0.241294}, 
                {"id": 22, "text": "포르투갈", "head": 23, "label": "NP", "mod": [], "weight": 0.787743}, 
                {"id": 23, "text": "제국의", "head": 24, "label": "NP_MOD", "mod": [22], "weight": 0.11569}, 
                {"id": 24, "text": "작은", "head": 25, "label": "VP_MOD", "mod": [23], "weight": 0.750565}, 
                {"id": 25, "text": "부분이었던", "head": 27, "label": "VNP_MOD", "mod": [21, 24], "weight": 0.0999913}, 
                {"id": 26, "text": "말레이시아의", "head": 27, "label": "NP_MOD", "mod": [], "weight": 0.659195}, 
                {"id": 27, "text": "말라카와", "head": 30, "label": "NP_CNJ", "mod": [25, 26], "weight": 0.610634}, 
                {"id": 28, "text": "동아프리카", "head": 29, "label": "NP", "mod": [], "weight": 0.845686}, 
                {"id": 29, "text": "탄자니아의", "head": 30, "label": "NP_MOD", "mod": [28], "weight": 0.601646}, 
                {"id": 30, "text": "잔지바르에서도", "head": 31, "label": "NP_AJT", "mod": [6, 16, 29, 27, 20, 18, 11, 10, 9, 7, 4, 3, 2, 5], "weight": 0.79478}, 
                {"id": 31, "text": "사용된다.", "head": -1, "label": "VP", "mod": [30], "weight": 3.50895e-10}
            ], 
            "SRL": [
                {"verb": "작", "sense": 1, "word_id": 24, "weight": 0.195439, "argument": [
                    {"type": "ARG1", "word_id": 25, "text": "부분이었던", "weight": 0.195439}
                ]}, 
                {"verb": "사용", "sense": 1, "word_id": 31, "weight": 0.194695, "argument": [
                    {"type": "ARGM-LOC", "word_id": 30, "text": "잔지바르에서도", "weight": 1}
                ]}
            ], 
            "relation": [], 
            "SA": [], 
            "ZA": []
        }
    ], 
    "entity": [
        {"id": 0, "type": "LCP_COUNTRY", "number": "plural", "gender": "", "person": "", "animacy": "place", "mention": [
            {"id": 2, "sent_id": 0, "start_eid": 0, "end_eid": 1, "ne_id": 1, "text": "브라질과 포르투갈", "start_eid_short": 1, "end_eid_short": 1, "text_short": "포르투갈"}
        ]}, 
        {"id": 1, "type": "LCP_COUNTRY", "number": "singular", "gender": "", "person": "", "animacy": "place", "mention": [
            {"id": 3, "sent_id": 0, "start_eid": 0, "end_eid": 0, "ne_id": 0, "text": "브라질과", "start_eid_short": 0, "end_eid_short": 0, "text_short": "브라질과"}
        ]}, 
        {"id": 2, "type": "", "number": "singular", "gender": "", "person": "", "animacy": "thing", "mention": [
            {"id": 1, "sent_id": 0, "start_eid": 0, "end_eid": 2, "ne_id": -1, "text": "브라질과 포르투갈 이외에도,", "start_eid_short": 2, "end_eid_short": 2, "text_short": "이외에도,"}
        ]}, 
        {"id": 3, "type": "LCP_CITY", "number": "singular", "gender": "", "person": "", "animacy": "place", "mention": [
            {"id": 22, "sent_id": 0, "start_eid": 28, "end_eid": 30, "ne_id": 20, "text": "동아프리카 탄자니아의 잔지바르에서도", "start_eid_short": 30, "end_eid_short": 30, "text_short": "잔지바르에서도"}
        ]}, 
        {"id": 4, "type": "LCP_COUNTRY", "number": "singular", "gender": "", "person": "", "animacy": "place", "mention": [
            {"id": 5, "sent_id": 0, "start_eid": 3, "end_eid": 3, "ne_id": 2, "text": "앙골라,", "start_eid_short": 3, "end_eid_short": 3, "text_short": "앙골라,"}
        ]}, 
        {"id": 5, "type": "LCP_COUNTRY", "number": "singular", "gender": "", "person": "", "animacy": "place", "mention": [
            {"id": 6, "sent_id": 0, "start_eid": 4, "end_eid": 4, "ne_id": 3, "text": "카보베르데,", "start_eid_short": 4, "end_eid_short": 4, "text_short": "카보베르데,"}
        ]}, 
        {"id": 6, "type": "LCP_COUNTRY", "number": "singular", "gender": "", "person": "", "animacy": "place", "mention": [
            {"id": 7, "sent_id": 0, "start_eid": 5, "end_eid": 5, "ne_id": 4, "text": "기니비사우,", "start_eid_short": 5, "end_eid_short": 5, "text_short": "기니비사우,"}
        ]}, 
        {"id": 7, "type": "LCP_PROVINCE", "number": "singular", "gender": "", "person": "", "animacy": "place", "mention": [
            {"id": 8, "sent_id": 0, "start_eid": 6, "end_eid": 6, "ne_id": 5, "text": "마카오,", "start_eid_short": 6, "end_eid_short": 6, "text_short": "마카오,"}
        ]}, 
        {"id": 8, "type": "LCP_COUNTRY", "number": "singular", "gender": "", "person": "", "animacy": "place", "mention": [
            {"id": 9, "sent_id": 0, "start_eid": 7, "end_eid": 7, "ne_id": 6, "text": "모잠비크,", "start_eid_short": 7, "end_eid_short": 7, "text_short": "모잠비크,"}
        ]}, 
        {"id": 9, "type": "LCP_COUNTRY", "number": "singular", "gender": "", "person": "", "animacy": "place", "mention": [
            {"id": 10, "sent_id": 0, "start_eid": 8, "end_eid": 9, "ne_id": 7, "text": "상투메 프린시페,", "start_eid_short": 8, "end_eid_short": 9, "text_short": "상투메 프린시페,"}
        ]}, 
        {"id": 10, "type": "LCP_COUNTRY", "number": "singular", "gender": "", "person": "", "animacy": "place", "mention": [
            {"id": 11, "sent_id": 0, "start_eid": 10, "end_eid": 10, "ne_id": 8, "text": "동티모르,", "start_eid_short": 10, "end_eid_short": 10, "text_short": "동티모르,"}
        ]}, 
        {"id": 11, "type": "LCP_COUNTRY", "number": "singular", "gender": "", "person": "", "animacy": "place", "mention": [
            {"id": 12, "sent_id": 0, "start_eid": 11, "end_eid": 11, "ne_id": 9, "text": "적도기니와", "start_eid_short": 11, "end_eid_short": 11, "text_short": "적도기니와"}
        ]}, 
        {"id": 12, "type": "LCP_COUNTRY", "number": "singular", "gender": "", "person": "", "animacy": "place", "mention": [
            {"id": 15, "sent_id": 0, "start_eid": 12, "end_eid": 13, "ne_id": 10, "text": "옛 포르투갈령", "start_eid_short": 12, "end_eid_short": 13, "text_short": "옛 포르투갈령"}
        ]}, 
        {"id": 13, "type": "LCP_COUNTRY", "number": "singular", "gender": "", "person": "", "animacy": "place", "mention": [
            {"id": 14, "sent_id": 0, "start_eid": 12, "end_eid": 14, "ne_id": 11, "text": "옛 포르투갈령 인도인", "start_eid_short": 14, "end_eid_short": 14, "text_short": "인도인"}
        ]}, 
        {"id": 14, "type": "LCP_PROVINCE", "number": "singular", "gender": "", "person": "", "animacy": "place", "mention": [
            {"id": 13, "sent_id": 0, "start_eid": 12, "end_eid": 16, "ne_id": 12, "text": "옛 포르투갈령 인도인 고아 주,", "start_eid_short": 15, "end_eid_short": 16, "text_short": "고아 주,"}
        ]}, 
        {"id": 15, "type": "LCG_BAY", "number": "singular", "gender": "", "person": "", "animacy": "place", "mention": [
            {"id": 16, "sent_id": 0, "start_eid": 17, "end_eid": 18, "ne_id": 13, "text": "다만 디우,", "start_eid_short": 17, "end_eid_short": 18, "text_short": "다만 디우,"}
        ]}, 
        {"id": 16, "type": "LC_OTHERS", "number": "singular", "gender": "", "person": "", "animacy": "place", "mention": [
            {"id": 17, "sent_id": 0, "start_eid": 19, "end_eid": 20, "ne_id": 14, "text": "다드라 나가르하벨리,", "start_eid_short": 19, "end_eid_short": 20, "text_short": "다드라 나가르하벨리,"}
        ]}, 
        {"id": 17, "type": "LCP_COUNTRY", "number": "singular", "gender": "", "person": "", "animacy": "place", "mention": [
            {"id": 18, "sent_id": 0, "start_eid": 22, "end_eid": 27, "ne_id": 17, "text": "포르투갈 제국의 작은 부분이었던 말레이시아의 말라카와", "start_eid_short": 27, "end_eid_short": 27, "text_short": "말라카와"}
        ]}, 
        {"id": 18, "type": "", "number": "singular", "gender": "", "person": "", "animacy": "thing", "mention": [
            {"id": 20, "sent_id": 0, "start_eid": 22, "end_eid": 23, "ne_id": -1, "text": "포르투갈 제국의", "start_eid_short": 22, "end_eid_short": 23, "text_short": "포르투갈 제국의"}
        ]}, 
        {"id": 19, "type": "LCP_COUNTRY", "number": "singular", "gender": "", "person": "", "animacy": "place", "mention": [
            {"id": 4, "sent_id": 0, "start_eid": 1, "end_eid": 1, "ne_id": 1, "text": "포르투갈", "start_eid_short": 1, "end_eid_short": 1, "text_short": "포르투갈"}, 
            {"id": 21, "sent_id": 0, "start_eid": 22, "end_eid": 22, "ne_id": 15, "text": "포르투갈", "start_eid_short": 22, "end_eid_short": 22, "text_short": "포르투갈"}
        ]}, 
        {"id": 20, "type": "LCP_COUNTRY", "number": "singular", "gender": "", "person": "", "animacy": "place", "mention": [
            {"id": 19, "sent_id": 0, "start_eid": 22, "end_eid": 26, "ne_id": 16, "text": "포르투갈 제국의 작은 부분이었던 말레이시아의", "start_eid_short": 26, "end_eid_short": 26, "text_short": "말레이시아의"}
        ]}, 
        {"id": 21, "type": "LCP_COUNTRY", "number": "singular", "gender": "", "person": "", "animacy": "place", "mention": [
            {"id": 23, "sent_id": 0, "start_eid": 28, "end_eid": 29, "ne_id": 19, "text": "동아프리카 탄자니아의", "start_eid_short": 28, "end_eid_short": 29, "text_short": "동아프리카 탄자니아의"}
        ]}, 
        {"id": 22, "type": "LCG_CONTINENT", "number": "singular", "gender": "", "person": "", "animacy": "place", "mention": [
            {"id": 24, "sent_id": 0, "start_eid": 28, "end_eid": 28, "ne_id": 18, "text": "동아프리카", "start_eid_short": 28, "end_eid_short": 28, "text_short": "동아프리카"}
        ]}, 
        {"id": 23, "type": "LCP_CITY", "number": "singular", "gender": "", "person": "", "animacy": "place", "mention": [
            {"id": 0, "sent_id": 0, "start_eid": 0, "end_eid": 30, "ne_id": 20, "text": "브라질과 포르투갈 이외에도, 앙골라, 카보베르데, 기니비사우, 마카오, 모잠비크, 상투메 프린시페, 동티모르, 적도기니와 옛 포르투갈령 인도인 고아 주, 다만 디우, 다드라 나가르하벨리, 그리고 포르투갈 제국의 작은 부분이었던 말레이시아의 말라카와 동아프리카 탄자니아의 잔지바르에서도", "start_eid_short": 30, "end_eid_short": 30, "text_short": "잔지바르에서도"}
        ]}
    ]
}