{
    "doc_id": "E2016.837.31_Q_01.json", 
    "DCT": "", 
    "category": "", 
    "category_weight": 0, 
    "title": {
        "text": "", 
        "NE": ""
    }, 
    "metaInfo": {}, 
    "sentence": [
        {
            "id": 0, 
            "reserve_str": "", 
            "text": "패싱샷, 발리는 ( )에서 사용되는 용어다.", 
            "morp": [
                {"id": 0, "lemma": "패싱샷", "type": "NNG", "position": 0, "weight": 0.6}, 
                {"id": 1, "lemma": ",", "type": "SP", "position": 9, "weight": 1}, 
                {"id": 2, "lemma": "발리", "type": "NNG", "position": 11, "weight": 0.0340456}, 
                {"id": 3, "lemma": "는", "type": "JX", "position": 17, "weight": 0.0332677}, 
                {"id": 4, "lemma": "(", "type": "SS", "position": 21, "weight": 1}, 
                {"id": 5, "lemma": ")", "type": "SS", "position": 23, "weight": 1}, 
                {"id": 6, "lemma": "에서", "type": "JKB", "position": 24, "weight": 0.0486066}, 
                {"id": 7, "lemma": "사용", "type": "NNG", "position": 31, "weight": 0.9}, 
                {"id": 8, "lemma": "되", "type": "XSV", "position": 37, "weight": 0.000224177}, 
                {"id": 9, "lemma": "는", "type": "ETM", "position": 40, "weight": 0.238503}, 
                {"id": 10, "lemma": "용어", "type": "NNG", "position": 44, "weight": 0.9}, 
                {"id": 11, "lemma": "이", "type": "VCP", "position": 47, "weight": 0.0177525}, 
                {"id": 12, "lemma": "다", "type": "EF", "position": 50, "weight": 0.353579}, 
                {"id": 13, "lemma": ".", "type": "SF", "position": 53, "weight": 1}
            ], 
            "morp_eval": [], 
            "WSD": [
                {"id": 0, "text": "패싱샷", "type": "NNG", "scode": "000000", "weight": 1, "position": 0, "begin": 0, "end": 0}, 
                {"id": 1, "text": ",", "type": "SP", "scode": "000000", "weight": 1, "position": 9, "begin": 1, "end": 1}, 
                {"id": 2, "text": "발리", "type": "NNG", "scode": "000001", "weight": 0.5, "position": 11, "begin": 2, "end": 2}, 
                {"id": 3, "text": "는", "type": "JX", "scode": "000000", "weight": 1, "position": 17, "begin": 3, "end": 3}, 
                {"id": 4, "text": "(", "type": "SS", "scode": "000000", "weight": 1, "position": 21, "begin": 4, "end": 4}, 
                {"id": 5, "text": ")", "type": "SS", "scode": "000000", "weight": 1, "position": 23, "begin": 5, "end": 5}, 
                {"id": 6, "text": "에서", "type": "JKB", "scode": "000000", "weight": 1, "position": 24, "begin": 6, "end": 6}, 
                {"id": 7, "text": "사용되", "type": "VV", "scode": "000001", "weight": 0.5, "position": 31, "begin": 7, "end": 8}, 
                {"id": 8, "text": "는", "type": "ETM", "scode": "000000", "weight": 1, "position": 40, "begin": 9, "end": 9}, 
                {"id": 9, "text": "용어", "type": "NNG", "scode": "020000", "weight": 0.2, "position": 44, "begin": 10, "end": 10}, 
                {"id": 10, "text": "이", "type": "VCP", "scode": "030000", "weight": 0.0172414, "position": 47, "begin": 11, "end": 11}, 
                {"id": 11, "text": "다", "type": "EF", "scode": "000000", "weight": 1, "position": 50, "begin": 12, "end": 12}, 
                {"id": 12, "text": ".", "type": "SF", "scode": "000000", "weight": 1, "position": 53, "begin": 13, "end": 13}
            ], 
            "word": [
                {"id": 0, "text": "패싱샷,", "type": "", "begin": 0, "end": 1}, 
                {"id": 1, "text": "발리는", "type": "", "begin": 2, "end": 3}, 
                {"id": 2, "text": "(", "type": "", "begin": 4, "end": 4}, 
                {"id": 3, "text": ")에서", "type": "", "begin": 5, "end": 6}, 
                {"id": 4, "text": "사용되는", "type": "", "begin": 7, "end": 9}, 
                {"id": 5, "text": "용어다.", "type": "", "begin": 10, "end": 13}
            ], 
            "NE": [
                {"id": 0, "text": "패싱샷", "type": "TM_SPORTS", "begin": 0, "end": 0, "weight": 0.136183, "common_noun": 0}, 
                {"id": 1, "text": "발리", "type": "TM_SPORTS", "begin": 2, "end": 2, "weight": 0.179236, "common_noun": 0}
            ], 
            "chunk": [], 
            "dependency": [
                {"id": 0, "text": "패싱샷,", "head": 1, "label": "NP_CNJ", "mod": [], "weight": 0.160451}, 
                {"id": 1, "text": "발리는", "head": 5, "label": "NP_SBJ", "mod": [0], "weight": 0.00779127}, 
                {"id": 2, "text": "(", "head": 3, "label": "L", "mod": [], "weight": 0.567818}, 
                {"id": 3, "text": ")에서", "head": 4, "label": "R_AJT", "mod": [2], "weight": 0.273302}, 
                {"id": 4, "text": "사용되는", "head": 5, "label": "VP_MOD", "mod": [3], "weight": 0.79438}, 
                {"id": 5, "text": "용어다.", "head": -1, "label": "VNP", "mod": [4, 1], "weight": 0.000136276}
            ], 
            "SRL": [
                {"verb": "사용", "sense": 1, "word_id": 4, "weight": 0.140549, "argument": [
                    {"type": "ARG2", "word_id": 3, "text": ")에서", "weight": 1}, 
                    {"type": "ARG1", "word_id": 1, "text": "발리는", "weight": 1}
                ]}
            ], 
            "relation": [], 
            "SA": [], 
            "ZA": []
        }, 
        {
            "id": 1, 
            "reserve_str": "", 
            "text": "중앙에 네트를 치고 양쪽에서 라켓으로 공을 주고받는 이 스포츠는 무엇일까?", 
            "morp": [
                {"id": 0, "lemma": "중앙", "type": "NNG", "position": 54, "weight": 0.429318}, 
                {"id": 1, "lemma": "에", "type": "JKB", "position": 60, "weight": 0.153364}, 
                {"id": 2, "lemma": "네트", "type": "NNG", "position": 64, "weight": 0.201927}, 
                {"id": 3, "lemma": "를", "type": "JKO", "position": 70, "weight": 0.137686}, 
                {"id": 4, "lemma": "치", "type": "VV", "position": 74, "weight": 0.70961}, 
                {"id": 5, "lemma": "고", "type": "EC", "position": 77, "weight": 0.416679}, 
                {"id": 6, "lemma": "양쪽", "type": "NNG", "position": 81, "weight": 0.9}, 
                {"id": 7, "lemma": "에서", "type": "JKB", "position": 87, "weight": 0.153407}, 
                {"id": 8, "lemma": "라켓", "type": "NNG", "position": 94, "weight": 0.9}, 
                {"id": 9, "lemma": "으로", "type": "JKB", "position": 100, "weight": 0.153406}, 
                {"id": 10, "lemma": "공", "type": "NNG", "position": 107, "weight": 0.197302}, 
                {"id": 11, "lemma": "을", "type": "JKO", "position": 110, "weight": 0.129611}, 
                {"id": 12, "lemma": "주고받", "type": "VV", "position": 114, "weight": 0.9}, 
                {"id": 13, "lemma": "는", "type": "ETM", "position": 123, "weight": 0.184941}, 
                {"id": 14, "lemma": "이", "type": "MM", "position": 127, "weight": 0.00060084}, 
                {"id": 15, "lemma": "스포츠", "type": "NNG", "position": 131, "weight": 0.9}, 
                {"id": 16, "lemma": "는", "type": "JX", "position": 140, "weight": 0.0287565}, 
                {"id": 17, "lemma": "무엇", "type": "NP", "position": 144, "weight": 0.9}, 
                {"id": 18, "lemma": "이", "type": "VCP", "position": 150, "weight": 0.0175768}, 
                {"id": 19, "lemma": "ㄹ까", "type": "EF", "position": 150, "weight": 0.258243}, 
                {"id": 20, "lemma": "?", "type": "SF", "position": 156, "weight": 1}
            ], 
            "morp_eval": [], 
            "WSD": [
                {"id": 0, "text": "중앙", "type": "NNG", "scode": "010002", "weight": 0.2, "position": 54, "begin": 0, "end": 0}, 
                {"id": 1, "text": "에", "type": "JKB", "scode": "000000", "weight": 1, "position": 60, "begin": 1, "end": 1}, 
                {"id": 2, "text": "네트", "type": "NNG", "scode": "000001", "weight": 0.333333, "position": 64, "begin": 2, "end": 2}, 
                {"id": 3, "text": "를", "type": "JKO", "scode": "000000", "weight": 1, "position": 70, "begin": 3, "end": 3}, 
                {"id": 4, "text": "치", "type": "VV", "scode": "050001", "weight": 0.0185185, "position": 74, "begin": 4, "end": 4}, 
                {"id": 5, "text": "고", "type": "EC", "scode": "000000", "weight": 1, "position": 77, "begin": 5, "end": 5}, 
                {"id": 6, "text": "양쪽", "type": "NNG", "scode": "000000", "weight": 1, "position": 81, "begin": 6, "end": 6}, 
                {"id": 7, "text": "에서", "type": "JKB", "scode": "000000", "weight": 1, "position": 87, "begin": 7, "end": 7}, 
                {"id": 8, "text": "라켓", "type": "NNG", "scode": "000000", "weight": 1, "position": 94, "begin": 8, "end": 8}, 
                {"id": 9, "text": "으로", "type": "JKB", "scode": "000000", "weight": 1, "position": 100, "begin": 9, "end": 9}, 
                {"id": 10, "text": "공", "type": "NNG", "scode": "010001", "weight": 0.0333333, "position": 107, "begin": 10, "end": 10}, 
                {"id": 11, "text": "을", "type": "JKO", "scode": "000000", "weight": 1, "position": 110, "begin": 11, "end": 11}, 
                {"id": 12, "text": "주고받", "type": "VV", "scode": "000000", "weight": 1, "position": 114, "begin": 12, "end": 12}, 
                {"id": 13, "text": "는", "type": "ETM", "scode": "000000", "weight": 1, "position": 123, "begin": 13, "end": 13}, 
                {"id": 14, "text": "이", "type": "MM", "scode": "050102", "weight": 0.0172414, "position": 127, "begin": 14, "end": 14}, 
                {"id": 15, "text": "스포츠", "type": "NNG", "scode": "000000", "weight": 1, "position": 131, "begin": 15, "end": 15}, 
                {"id": 16, "text": "는", "type": "JX", "scode": "000000", "weight": 1, "position": 140, "begin": 16, "end": 16}, 
                {"id": 17, "text": "무엇", "type": "NP", "scode": "000001", "weight": 0.5, "position": 144, "begin": 17, "end": 17}, 
                {"id": 18, "text": "이", "type": "VCP", "scode": "030000", "weight": 0.0172414, "position": 150, "begin": 18, "end": 18}, 
                {"id": 19, "text": "ㄹ까", "type": "EF", "scode": "000000", "weight": 1, "position": 150, "begin": 19, "end": 19}, 
                {"id": 20, "text": "?", "type": "SF", "scode": "000000", "weight": 1, "position": 156, "begin": 20, "end": 20}
            ], 
            "word": [
                {"id": 0, "text": "중앙에", "type": "", "begin": 0, "end": 1}, 
                {"id": 1, "text": "네트를", "type": "", "begin": 2, "end": 3}, 
                {"id": 2, "text": "치고", "type": "", "begin": 4, "end": 5}, 
                {"id": 3, "text": "양쪽에서", "type": "", "begin": 6, "end": 7}, 
                {"id": 4, "text": "라켓으로", "type": "", "begin": 8, "end": 9}, 
                {"id": 5, "text": "공을", "type": "", "begin": 10, "end": 11}, 
                {"id": 6, "text": "주고받는", "type": "", "begin": 12, "end": 13}, 
                {"id": 7, "text": "이", "type": "", "begin": 14, "end": 14}, 
                {"id": 8, "text": "스포츠는", "type": "", "begin": 15, "end": 16}, 
                {"id": 9, "text": "무엇일까?", "type": "", "begin": 17, "end": 20}
            ], 
            "NE": [
                {"id": 0, "text": "중앙", "type": "TM_DIRECTION", "begin": 0, "end": 0, "weight": 0.332952, "common_noun": 0}, 
                {"id": 1, "text": "네트", "type": "CV_SPORTS_INST", "begin": 2, "end": 2, "weight": 0.25573, "common_noun": 0}, 
                {"id": 2, "text": "라켓", "type": "CV_SPORTS_INST", "begin": 8, "end": 8, "weight": 0.273778, "common_noun": 0}, 
                {"id": 3, "text": "공", "type": "CV_SPORTS_INST", "begin": 10, "end": 10, "weight": 0.29447, "common_noun": 0}
            ], 
            "chunk": [], 
            "dependency": [
                {"id": 0, "text": "중앙에", "head": 2, "label": "NP_AJT", "mod": [], "weight": 0.751887}, 
                {"id": 1, "text": "네트를", "head": 2, "label": "NP_OBJ", "mod": [], "weight": 0.794708}, 
                {"id": 2, "text": "치고", "head": 6, "label": "VP", "mod": [0, 1], "weight": 0.900469}, 
                {"id": 3, "text": "양쪽에서", "head": 6, "label": "NP_AJT", "mod": [], "weight": 0.838925}, 
                {"id": 4, "text": "라켓으로", "head": 6, "label": "NP_AJT", "mod": [], "weight": 0.762187}, 
                {"id": 5, "text": "공을", "head": 6, "label": "NP_OBJ", "mod": [], "weight": 0.701806}, 
                {"id": 6, "text": "주고받는", "head": 8, "label": "VP_MOD", "mod": [2, 3, 4, 5], "weight": 0.849913}, 
                {"id": 7, "text": "이", "head": 8, "label": "DP", "mod": [], "weight": 0.555867}, 
                {"id": 8, "text": "스포츠는", "head": 9, "label": "NP_SBJ", "mod": [6, 7], "weight": 0.882014}, 
                {"id": 9, "text": "무엇일까?", "head": -1, "label": "VNP", "mod": [8], "weight": 0.0872938}
            ], 
            "SRL": [
                {"verb": "치", "sense": 2, "word_id": 2, "weight": 0.148015, "argument": [
                    {"type": "ARGM-LOC", "word_id": 0, "text": "중앙에", "weight": 1}, 
                    {"type": "ARG1", "word_id": 1, "text": "네트를", "weight": 0.22136}
                ]}, 
                {"verb": "주고받", "sense": 1, "word_id": 6, "weight": 0.129157, "argument": [
                    {"type": "ARGM-LOC", "word_id": 3, "text": "양쪽에서", "weight": 1}, 
                    {"type": "ARGM-INS", "word_id": 4, "text": "라켓으로", "weight": 1}, 
                    {"type": "ARG1", "word_id": 5, "text": "공을", "weight": 0.180585}
                ]}
            ], 
            "relation": [], 
            "SA": [], 
            "ZA": []
        }
    ], 
    "entity": [
        {"id": 0, "type": "TM_SPORTS", "number": "singular", "gender": "", "person": "", "animacy": "thing", "mention": [
            {"id": 0, "sent_id": 0, "start_eid": 0, "end_eid": 1, "ne_id": 1, "text": "패싱샷, 발리는", "start_eid_short": 1, "end_eid_short": 1, "text_short": "발리는"}
        ]}, 
        {"id": 1, "type": "", "number": "singular", "gender": "", "person": "", "animacy": "thing", "mention": [
            {"id": 4, "sent_id": 0, "start_eid": 2, "end_eid": 3, "ne_id": -1, "text": "( )에서", "start_eid_short": 2, "end_eid_short": 0, "text_short": ""}, 
            {"id": 10, "sent_id": 1, "start_eid": 7, "end_eid": 8, "ne_id": -1, "text": "이 스포츠는", "start_eid_short": 7, "end_eid_short": 8, "text_short": "이 스포츠는"}, 
            {"id": 11, "sent_id": 1, "start_eid": 9, "end_eid": 9, "ne_id": -1, "text": "무엇일까?", "start_eid_short": 9, "end_eid_short": 9, "text_short": "무엇일까?"}
        ]}, 
        {"id": 2, "type": "", "number": "singular", "gender": "", "person": "", "animacy": "thing", "mention": [
            {"id": 5, "sent_id": 1, "start_eid": 0, "end_eid": 0, "ne_id": -1, "text": "중앙에", "start_eid_short": 0, "end_eid_short": 0, "text_short": "중앙에"}
        ]}, 
        {"id": 3, "type": "", "number": "singular", "gender": "", "person": "", "animacy": "thing", "mention": [
            {"id": 6, "sent_id": 1, "start_eid": 1, "end_eid": 1, "ne_id": -1, "text": "네트를", "start_eid_short": 1, "end_eid_short": 1, "text_short": "네트를"}
        ]}, 
        {"id": 4, "type": "", "number": "singular", "gender": "", "person": "", "animacy": "thing", "mention": [
            {"id": 7, "sent_id": 1, "start_eid": 3, "end_eid": 3, "ne_id": -1, "text": "양쪽에서", "start_eid_short": 3, "end_eid_short": 3, "text_short": "양쪽에서"}
        ]}, 
        {"id": 5, "type": "CV_SPORTS_INST", "number": "singular", "gender": "", "person": "", "animacy": "thing", "mention": [
            {"id": 8, "sent_id": 1, "start_eid": 4, "end_eid": 4, "ne_id": 0, "text": "라켓으로", "start_eid_short": 4, "end_eid_short": 4, "text_short": "라켓으로"}
        ]}, 
        {"id": 6, "type": "TM_SPORTS", "number": "singular", "gender": "", "person": "", "animacy": "thing", "mention": [
            {"id": 1, "sent_id": 0, "start_eid": 0, "end_eid": 0, "ne_id": 0, "text": "패싱샷,", "start_eid_short": 0, "end_eid_short": 0, "text_short": "패싱샷,"}
        ]}, 
        {"id": 7, "type": "TM_SPORTS", "number": "singular", "gender": "", "person": "", "animacy": "thing", "mention": [
            {"id": 2, "sent_id": 0, "start_eid": 1, "end_eid": 1, "ne_id": 1, "text": "발리는", "start_eid_short": 1, "end_eid_short": 1, "text_short": "발리는"}
        ]}, 
        {"id": 8, "type": "CV_SPORTS_INST", "number": "singular", "gender": "", "person": "", "animacy": "thing", "mention": [
            {"id": 9, "sent_id": 1, "start_eid": 5, "end_eid": 5, "ne_id": 1, "text": "공을", "start_eid_short": 5, "end_eid_short": 5, "text_short": "공을"}
        ]}, 
        {"id": 9, "type": "", "number": "singular", "gender": "", "person": "", "animacy": "thing", "mention": [
            {"id": 3, "sent_id": 0, "start_eid": 2, "end_eid": 5, "ne_id": -1, "text": "( )에서 사용되는 용어다.", "start_eid_short": 5, "end_eid_short": 0, "text_short": ""}
        ]}
    ]
}