{
    "doc_id": "E2016.837.01_Q_01.json", 
    "DCT": "", 
    "category": "", 
    "category_weight": 0, 
    "title": {
        "text": "", 
        "NE": ""
    }, 
    "metaInfo": {}, 
    "sentence": [
        {
            "id": 0, 
            "reserve_str": "", 
            "text": "우리나라 근대 문학 작품집 가운데 가장 먼저 문화재로 등록된 것은?", 
            "morp": [
                {"id": 0, "lemma": "우리", "type": "NNG", "position": 0, "weight": 0.00152766}, 
                {"id": 1, "lemma": "나라", "type": "NNG", "position": 6, "weight": 0.184431}, 
                {"id": 2, "lemma": "근대", "type": "NNG", "position": 13, "weight": 0.184694}, 
                {"id": 3, "lemma": "문학", "type": "NNG", "position": 20, "weight": 0.18282}, 
                {"id": 4, "lemma": "작품", "type": "NNG", "position": 27, "weight": 0.18482}, 
                {"id": 5, "lemma": "집", "type": "XSN", "position": 33, "weight": 0.000588084}, 
                {"id": 6, "lemma": "가운데", "type": "NNG", "position": 37, "weight": 0.9}, 
                {"id": 7, "lemma": "가장", "type": "MAG", "position": 47, "weight": 0.00496175}, 
                {"id": 8, "lemma": "먼저", "type": "MAG", "position": 54, "weight": 0.0440203}, 
                {"id": 9, "lemma": "문화", "type": "NNG", "position": 61, "weight": 0.260968}, 
                {"id": 10, "lemma": "재", "type": "NNG", "position": 67, "weight": 0.0300276}, 
                {"id": 11, "lemma": "로", "type": "JKB", "position": 70, "weight": 0.153229}, 
                {"id": 12, "lemma": "등록", "type": "NNG", "position": 74, "weight": 0.9}, 
                {"id": 13, "lemma": "되", "type": "XSV", "position": 80, "weight": 0.000224177}, 
                {"id": 14, "lemma": "ㄴ", "type": "ETM", "position": 80, "weight": 0.392321}, 
                {"id": 15, "lemma": "것", "type": "NNB", "position": 84, "weight": 0.228788}, 
                {"id": 16, "lemma": "은", "type": "JX", "position": 87, "weight": 0.0688243}, 
                {"id": 17, "lemma": "?", "type": "SF", "position": 90, "weight": 1}
            ], 
            "morp_eval": [], 
            "WSD": [
                {"id": 0, "text": "우리나라", "type": "NNG", "scode": "000000", "weight": 1, "position": 0, "begin": 0, "end": 1}, 
                {"id": 1, "text": "근대", "type": "NNG", "scode": "030002", "weight": 0.25, "position": 13, "begin": 2, "end": 2}, 
                {"id": 2, "text": "문학", "type": "NNG", "scode": "010000", "weight": 0.2, "position": 20, "begin": 3, "end": 3}, 
                {"id": 3, "text": "작품집", "type": "NNG", "scode": "000000", "weight": 1, "position": 27, "begin": 4, "end": 5}, 
                {"id": 4, "text": "가운데", "type": "NNG", "scode": "000003", "weight": 0.2, "position": 37, "begin": 6, "end": 6}, 
                {"id": 5, "text": "가장", "type": "MAG", "scode": "010000", "weight": 0.0555556, "position": 47, "begin": 7, "end": 7}, 
                {"id": 6, "text": "먼저", "type": "MAG", "scode": "000200", "weight": 0.5, "position": 54, "begin": 8, "end": 8}, 
                {"id": 7, "text": "문화재", "type": "NNG", "scode": "000002", "weight": 0.5, "position": 61, "begin": 9, "end": 10}, 
                {"id": 8, "text": "로", "type": "JKB", "scode": "000000", "weight": 1, "position": 70, "begin": 11, "end": 11}, 
                {"id": 9, "text": "등록되", "type": "VV", "scode": "000002", "weight": 0.5, "position": 74, "begin": 12, "end": 13}, 
                {"id": 10, "text": "ㄴ", "type": "ETM", "scode": "000000", "weight": 1, "position": 80, "begin": 14, "end": 14}, 
                {"id": 11, "text": "것", "type": "NNB", "scode": "010001", "weight": 0.125, "position": 84, "begin": 15, "end": 15}, 
                {"id": 12, "text": "은", "type": "JX", "scode": "000000", "weight": 1, "position": 87, "begin": 16, "end": 16}, 
                {"id": 13, "text": "?", "type": "SF", "scode": "000000", "weight": 1, "position": 90, "begin": 17, "end": 17}
            ], 
            "word": [
                {"id": 0, "text": "우리나라", "type": "", "begin": 0, "end": 1}, 
                {"id": 1, "text": "근대", "type": "", "begin": 2, "end": 2}, 
                {"id": 2, "text": "문학", "type": "", "begin": 3, "end": 3}, 
                {"id": 3, "text": "작품집", "type": "", "begin": 4, "end": 5}, 
                {"id": 4, "text": "가운데", "type": "", "begin": 6, "end": 6}, 
                {"id": 5, "text": "가장", "type": "", "begin": 7, "end": 7}, 
                {"id": 6, "text": "먼저", "type": "", "begin": 8, "end": 8}, 
                {"id": 7, "text": "문화재로", "type": "", "begin": 9, "end": 11}, 
                {"id": 8, "text": "등록된", "type": "", "begin": 12, "end": 14}, 
                {"id": 9, "text": "것은?", "type": "", "begin": 15, "end": 17}
            ], 
            "NE": [
                {"id": 0, "text": "근대", "type": "DT_OTHERS", "begin": 2, "end": 2, "weight": 0.353426, "common_noun": 0}
            ], 
            "chunk": [], 
            "dependency": [
                {"id": 0, "text": "우리나라", "head": 2, "label": "NP", "mod": [], "weight": 0.514858}, 
                {"id": 1, "text": "근대", "head": 2, "label": "NP", "mod": [], "weight": 0.227427}, 
                {"id": 2, "text": "문학", "head": 3, "label": "NP", "mod": [1, 0], "weight": 0.796233}, 
                {"id": 3, "text": "작품집", "head": 4, "label": "NP", "mod": [2], "weight": 0.663019}, 
                {"id": 4, "text": "가운데", "head": 8, "label": "NP_AJT", "mod": [3], "weight": 0.507507}, 
                {"id": 5, "text": "가장", "head": 6, "label": "AP", "mod": [], "weight": 0.606321}, 
                {"id": 6, "text": "먼저", "head": 8, "label": "AP", "mod": [5], "weight": 0.785532}, 
                {"id": 7, "text": "문화재로", "head": 8, "label": "NP_AJT", "mod": [], "weight": 0.681694}, 
                {"id": 8, "text": "등록된", "head": 9, "label": "VP_MOD", "mod": [4, 6, 7], "weight": 0.828397}, 
                {"id": 9, "text": "것은?", "head": -1, "label": "NP_SBJ", "mod": [8], "weight": 0.00498678}
            ], 
            "SRL": [
                {"verb": "등록", "sense": 1, "word_id": 8, "weight": 0.126162, "argument": [
                    {"type": "ARGM-ADV", "word_id": 6, "text": "먼저", "weight": 1}, 
                    {"type": "ARG2", "word_id": 7, "text": "문화재로", "weight": 1}, 
                    {"type": "ARG1", "word_id": 9, "text": "것은?", "weight": 1}, 
                    {"type": "ARGM-CND", "word_id": 4, "text": "가운데", "weight": 1}, 
                    {"type": "ARGM-EXT", "word_id": 5, "text": "가장", "weight": 1}
                ]}
            ], 
            "relation": [], 
            "SA": [], 
            "ZA": []
        }
    ], 
    "entity": [
        {"id": 0, "type": "", "number": "singular", "gender": "", "person": "", "animacy": "thing", "mention": [
            {"id": 3, "sent_id": 0, "start_eid": 0, "end_eid": 2, "ne_id": -1, "text": "우리나라 근대 문학", "start_eid_short": 0, "end_eid_short": 2, "text_short": "우리나라 근대 문학"}
        ]}, 
        {"id": 1, "type": "", "number": "singular", "gender": "", "person": "", "animacy": "thing", "mention": [
            {"id": 4, "sent_id": 0, "start_eid": 0, "end_eid": 0, "ne_id": -1, "text": "우리나라", "start_eid_short": 0, "end_eid_short": 0, "text_short": "우리나라"}
        ]}, 
        {"id": 2, "type": "", "number": "singular", "gender": "", "person": "", "animacy": "thing", "mention": [
            {"id": 0, "sent_id": 0, "start_eid": 0, "end_eid": 9, "ne_id": -1, "text": "우리나라 근대 문학 작품집 가운데 가장 먼저 문화재로 등록된 것은?", "start_eid_short": 9, "end_eid_short": 9, "text_short": "것은?"}
        ]}, 
        {"id": 3, "type": "DT_OTHERS", "number": "singular", "gender": "", "person": "", "animacy": "time", "mention": [
            {"id": 5, "sent_id": 0, "start_eid": 1, "end_eid": 1, "ne_id": 0, "text": "근대", "start_eid_short": 1, "end_eid_short": 1, "text_short": "근대"}
        ]}, 
        {"id": 4, "type": "", "number": "singular", "gender": "", "person": "", "animacy": "thing", "mention": [
            {"id": 2, "sent_id": 0, "start_eid": 0, "end_eid": 3, "ne_id": -1, "text": "우리나라 근대 문학 작품집", "start_eid_short": 0, "end_eid_short": 3, "text_short": "우리나라 근대 문학 작품집"}
        ]}, 
        {"id": 5, "type": "", "number": "singular", "gender": "", "person": "", "animacy": "thing", "mention": [
            {"id": 1, "sent_id": 0, "start_eid": 0, "end_eid": 4, "ne_id": -1, "text": "우리나라 근대 문학 작품집 가운데", "start_eid_short": 0, "end_eid_short": 4, "text_short": "우리나라 근대 문학 작품집 가운데"}
        ]}, 
        {"id": 6, "type": "", "number": "singular", "gender": "", "person": "", "animacy": "thing", "mention": [
            {"id": 6, "sent_id": 0, "start_eid": 7, "end_eid": 7, "ne_id": -1, "text": "문화재로", "start_eid_short": 7, "end_eid_short": 7, "text_short": "문화재로"}
        ]}
    ]
}