{
    "doc_id": "E2016.887.07_A_02.json", 
    "DCT": "", 
    "category": "", 
    "category_weight": 0, 
    "title": {
        "text": "바르셀로나", 
        "NE": ""
    }, 
    "metaInfo": {}, 
    "sentence": [
        {
            "id": 0, 
            "reserve_str": "", 
            "text": "에스파냐 카탈루냐 자치지방(autonomous community) 바르셀로나주(州)의 주도(州都).", 
            "morp": [
                {"id": 0, "lemma": "에스파냐", "type": "NNP", "position": 0, "weight": 0.9}, 
                {"id": 1, "lemma": "카탈루냐", "type": "NNP", "position": 13, "weight": 0.45}, 
                {"id": 2, "lemma": "자치", "type": "NNG", "position": 26, "weight": 0.9}, 
                {"id": 3, "lemma": "지방", "type": "NNG", "position": 32, "weight": 0.9}, 
                {"id": 4, "lemma": "(", "type": "SS", "position": 38, "weight": 1}, 
                {"id": 5, "lemma": "autonomous", "type": "SL", "position": 39, "weight": 1}, 
                {"id": 6, "lemma": "community", "type": "SL", "position": 50, "weight": 1}, 
                {"id": 7, "lemma": ")", "type": "SS", "position": 59, "weight": 1}, 
                {"id": 8, "lemma": "바르셀로나주", "type": "NNP", "position": 61, "weight": 0.6}, 
                {"id": 9, "lemma": "(", "type": "SS", "position": 79, "weight": 1}, 
                {"id": 10, "lemma": "州", "type": "SH", "position": 80, "weight": 1}, 
                {"id": 11, "lemma": ")", "type": "SS", "position": 83, "weight": 1}, 
                {"id": 12, "lemma": "의", "type": "JKG", "position": 84, "weight": 0.0878251}, 
                {"id": 13, "lemma": "주도", "type": "NNG", "position": 88, "weight": 0.869588}, 
                {"id": 14, "lemma": "(", "type": "SS", "position": 94, "weight": 1}, 
                {"id": 15, "lemma": "州都", "type": "SH", "position": 95, "weight": 1}, 
                {"id": 16, "lemma": ")", "type": "SS", "position": 101, "weight": 1}, 
                {"id": 17, "lemma": ".", "type": "SF", "position": 102, "weight": 1}
            ], 
            "morp_eval": [], 
            "WSD": [
                {"id": 0, "text": "에스파냐", "type": "NNP", "scode": "000000", "weight": 1, "position": 0, "begin": 0, "end": 0}, 
                {"id": 1, "text": "카탈루냐", "type": "NNP", "scode": "000000", "weight": 1, "position": 13, "begin": 1, "end": 1}, 
                {"id": 2, "text": "자치", "type": "NNG", "scode": "060003", "weight": 0.0833333, "position": 26, "begin": 2, "end": 2}, 
                {"id": 3, "text": "지방", "type": "NNG", "scode": "050001", "weight": 0.0909091, "position": 32, "begin": 3, "end": 3}, 
                {"id": 4, "text": "(", "type": "SS", "scode": "000000", "weight": 1, "position": 38, "begin": 4, "end": 4}, 
                {"id": 5, "text": "autonomous", "type": "SL", "scode": "000000", "weight": 1, "position": 39, "begin": 5, "end": 5}, 
                {"id": 6, "text": "community", "type": "SL", "scode": "000000", "weight": 1, "position": 50, "begin": 6, "end": 6}, 
                {"id": 7, "text": ")", "type": "SS", "scode": "000000", "weight": 1, "position": 59, "begin": 7, "end": 7}, 
                {"id": 8, "text": "바르셀로나주", "type": "NNP", "scode": "000000", "weight": 0, "position": 61, "begin": 8, "end": 8}, 
                {"id": 9, "text": "(", "type": "SS", "scode": "000000", "weight": 1, "position": 79, "begin": 9, "end": 9}, 
                {"id": 10, "text": "州", "type": "SH", "scode": "000000", "weight": 1, "position": 80, "begin": 10, "end": 10}, 
                {"id": 11, "text": ")", "type": "SS", "scode": "000000", "weight": 1, "position": 83, "begin": 11, "end": 11}, 
                {"id": 12, "text": "의", "type": "JKG", "scode": "000000", "weight": 1, "position": 84, "begin": 12, "end": 12}, 
                {"id": 13, "text": "주도", "type": "NNG", "scode": "030000", "weight": 0.0909091, "position": 88, "begin": 13, "end": 13}, 
                {"id": 14, "text": "(", "type": "SS", "scode": "000000", "weight": 1, "position": 94, "begin": 14, "end": 14}, 
                {"id": 15, "text": "州都", "type": "SH", "scode": "000000", "weight": 1, "position": 95, "begin": 15, "end": 15}, 
                {"id": 16, "text": ")", "type": "SS", "scode": "000000", "weight": 1, "position": 101, "begin": 16, "end": 16}, 
                {"id": 17, "text": ".", "type": "SF", "scode": "000000", "weight": 1, "position": 102, "begin": 17, "end": 17}
            ], 
            "word": [
                {"id": 0, "text": "에스파냐", "type": "", "begin": 0, "end": 0}, 
                {"id": 1, "text": "카탈루냐", "type": "", "begin": 1, "end": 1}, 
                {"id": 2, "text": "자치지방(autonomous", "type": "", "begin": 2, "end": 5}, 
                {"id": 3, "text": "community)", "type": "", "begin": 6, "end": 7}, 
                {"id": 4, "text": "바르셀로나주(州)의", "type": "", "begin": 8, "end": 12}, 
                {"id": 5, "text": "주도(州都).", "type": "", "begin": 13, "end": 17}
            ], 
            "NE": [
                {"id": 0, "text": "에스파냐", "type": "LCP_COUNTRY", "begin": 0, "end": 0, "weight": 0.617418, "common_noun": 0}, 
                {"id": 1, "text": "카탈루냐 자치지방", "type": "LC_OTHERS", "begin": 1, "end": 3, "weight": 0.261343, "common_noun": 0}, 
                {"id": 2, "text": "바르셀로나주", "type": "LCP_PROVINCE", "begin": 8, "end": 8, "weight": 0.25578, "common_noun": 0}
            ], 
            "chunk": [], 
            "dependency": [
                {"id": 0, "text": "에스파냐", "head": 1, "label": "NP", "mod": [], "weight": 0.50753}, 
                {"id": 1, "text": "카탈루냐", "head": 2, "label": "NP", "mod": [0], "weight": 0.179906}, 
                {"id": 2, "text": "자치지방(autonomous", "head": 3, "label": "NP", "mod": [1], "weight": 0.865242}, 
                {"id": 3, "text": "community)", "head": 4, "label": "NP_PRN", "mod": [2], "weight": 0.221569}, 
                {"id": 4, "text": "바르셀로나주(州)의", "head": 5, "label": "NP_MOD", "mod": [3], "weight": 0.80847}, 
                {"id": 5, "text": "주도(州都).", "head": -1, "label": "NP", "mod": [4], "weight": 0.0114488}
            ], 
            "SRL": [], 
            "relation": [], 
            "SA": [], 
            "ZA": []
        }
    ], 
    "entity": [
        {"id": 0, "type": "", "number": "singular", "gender": "", "person": "", "animacy": "thing", "mention": [
            {"id": 2, "sent_id": 0, "start_eid": 0, "end_eid": 3, "ne_id": -1, "text": "에스파냐 카탈루냐 자치지방(autonomous community)", "start_eid_short": 3, "end_eid_short": 3, "text_short": "community)"}
        ]}, 
        {"id": 1, "type": "LCP_COUNTRY", "number": "singular", "gender": "", "person": "", "animacy": "place", "mention": [
            {"id": 3, "sent_id": 0, "start_eid": 0, "end_eid": 0, "ne_id": 0, "text": "에스파냐", "start_eid_short": 0, "end_eid_short": 0, "text_short": "에스파냐"}
        ]}, 
        {"id": 2, "type": "LCP_CITY", "number": "singular", "gender": "", "person": "", "animacy": "place", "mention": [
            {"id": 1, "sent_id": 0, "start_eid": 0, "end_eid": 4, "ne_id": 2, "text": "에스파냐 카탈루냐 자치지방(autonomous community) 바르셀로나주(州)의", "start_eid_short": 4, "end_eid_short": 4, "text_short": "바르셀로나주(州)의"}
        ]}, 
        {"id": 3, "type": "", "number": "singular", "gender": "", "person": "", "animacy": "thing", "mention": [
            {"id": 0, "sent_id": 0, "start_eid": 0, "end_eid": 5, "ne_id": -1, "text": "에스파냐 카탈루냐 자치지방(autonomous community) 바르셀로나주(州)의 주도(州都).", "start_eid_short": 5, "end_eid_short": 5, "text_short": "주도(州都)."}
        ]}
    ]
}