{
    "doc_id": "E2016.837.22_Q_01.json", 
    "DCT": "", 
    "category": "", 
    "category_weight": 0, 
    "title": {
        "text": "", 
        "NE": ""
    }, 
    "metaInfo": {}, 
    "sentence": [
        {
            "id": 0, 
            "reserve_str": "", 
            "text": "이 강의 이름은 '물빛이 오리 머리의 색과 같다'는 기록에서 유래됐다고 한다.", 
            "morp": [
                {"id": 0, "lemma": "이", "type": "MM", "position": 0, "weight": 0.0020222}, 
                {"id": 1, "lemma": "강", "type": "NNG", "position": 4, "weight": 0.624172}, 
                {"id": 2, "lemma": "의", "type": "JKG", "position": 7, "weight": 0.0694213}, 
                {"id": 3, "lemma": "이름", "type": "NNG", "position": 11, "weight": 0.9}, 
                {"id": 4, "lemma": "은", "type": "JX", "position": 17, "weight": 0.0449928}, 
                {"id": 5, "lemma": "'", "type": "SS", "position": 21, "weight": 1}, 
                {"id": 6, "lemma": "물", "type": "NNG", "position": 22, "weight": 0.9}, 
                {"id": 7, "lemma": "빛", "type": "NNG", "position": 22, "weight": 0.9}, 
                {"id": 8, "lemma": "이", "type": "JKS", "position": 28, "weight": 0.0360723}, 
                {"id": 9, "lemma": "오리", "type": "NNG", "position": 32, "weight": 0.135989}, 
                {"id": 10, "lemma": "머리", "type": "NNG", "position": 39, "weight": 0.184766}, 
                {"id": 11, "lemma": "의", "type": "JKG", "position": 45, "weight": 0.0694213}, 
                {"id": 12, "lemma": "색", "type": "NNG", "position": 49, "weight": 0.871038}, 
                {"id": 13, "lemma": "과", "type": "JKB", "position": 52, "weight": 0.0503087}, 
                {"id": 14, "lemma": "같", "type": "VA", "position": 56, "weight": 0.0728396}, 
                {"id": 15, "lemma": "다", "type": "EF", "position": 59, "weight": 0.132573}, 
                {"id": 16, "lemma": "'", "type": "SS", "position": 62, "weight": 1}, 
                {"id": 17, "lemma": "는", "type": "ETM", "position": 63, "weight": 0.000428976}, 
                {"id": 18, "lemma": "기록", "type": "NNG", "position": 67, "weight": 0.9}, 
                {"id": 19, "lemma": "에서", "type": "JKB", "position": 73, "weight": 0.153407}, 
                {"id": 20, "lemma": "유래", "type": "NNG", "position": 80, "weight": 0.9}, 
                {"id": 21, "lemma": "되", "type": "XSV", "position": 86, "weight": 0.000224177}, 
                {"id": 22, "lemma": "았", "type": "EP", "position": 86, "weight": 0.9}, 
                {"id": 23, "lemma": "다고", "type": "EC", "position": 89, "weight": 0.193823}, 
                {"id": 24, "lemma": "하", "type": "VV", "position": 96, "weight": 0.140183}, 
                {"id": 25, "lemma": "ㄴ다", "type": "EF", "position": 96, "weight": 0.0793196}, 
                {"id": 26, "lemma": ".", "type": "SF", "position": 102, "weight": 1}
            ], 
            "morp_eval": [], 
            "WSD": [
                {"id": 0, "text": "이", "type": "MM", "scode": "050101", "weight": 0.0172414, "position": 0, "begin": 0, "end": 0}, 
                {"id": 1, "text": "강", "type": "NNG", "scode": "010000", "weight": 0.0384615, "position": 4, "begin": 1, "end": 1}, 
                {"id": 2, "text": "의", "type": "JKG", "scode": "000000", "weight": 1, "position": 7, "begin": 2, "end": 2}, 
                {"id": 3, "text": "이름", "type": "NNG", "scode": "000001", "weight": 0.111111, "position": 11, "begin": 3, "end": 3}, 
                {"id": 4, "text": "은", "type": "JX", "scode": "000000", "weight": 1, "position": 17, "begin": 4, "end": 4}, 
                {"id": 5, "text": "'", "type": "SS", "scode": "000000", "weight": 1, "position": 21, "begin": 5, "end": 5}, 
                {"id": 6, "text": "물빛", "type": "NNG", "scode": "010000", "weight": 0.5, "position": 22, "begin": 6, "end": 7}, 
                {"id": 7, "text": "이", "type": "JKS", "scode": "000000", "weight": 1, "position": 28, "begin": 8, "end": 8}, 
                {"id": 8, "text": "오리", "type": "NNG", "scode": "030001", "weight": 0.1, "position": 32, "begin": 9, "end": 9}, 
                {"id": 9, "text": "머리", "type": "NNG", "scode": "010001", "weight": 0.0555556, "position": 39, "begin": 10, "end": 10}, 
                {"id": 10, "text": "의", "type": "JKG", "scode": "000000", "weight": 1, "position": 45, "begin": 11, "end": 11}, 
                {"id": 11, "text": "색", "type": "NNG", "scode": "030001", "weight": 0.111111, "position": 49, "begin": 12, "end": 12}, 
                {"id": 12, "text": "과", "type": "JKB", "scode": "000000", "weight": 1, "position": 52, "begin": 13, "end": 13}, 
                {"id": 13, "text": "같", "type": "VA", "scode": "000100", "weight": 0.125, "position": 56, "begin": 14, "end": 14}, 
                {"id": 14, "text": "다", "type": "EF", "scode": "000000", "weight": 1, "position": 59, "begin": 15, "end": 15}, 
                {"id": 15, "text": "'", "type": "SS", "scode": "000000", "weight": 1, "position": 62, "begin": 16, "end": 16}, 
                {"id": 16, "text": "는", "type": "ETM", "scode": "000000", "weight": 1, "position": 63, "begin": 17, "end": 17}, 
                {"id": 17, "text": "기록", "type": "NNG", "scode": "020001", "weight": 0.333333, "position": 67, "begin": 18, "end": 18}, 
                {"id": 18, "text": "에서", "type": "JKB", "scode": "000000", "weight": 1, "position": 73, "begin": 19, "end": 19}, 
                {"id": 19, "text": "유래되", "type": "VV", "scode": "000000", "weight": 1, "position": 80, "begin": 20, "end": 21}, 
                {"id": 20, "text": "았", "type": "EP", "scode": "000000", "weight": 1, "position": 86, "begin": 22, "end": 22}, 
                {"id": 21, "text": "다고", "type": "EC", "scode": "000000", "weight": 1, "position": 89, "begin": 23, "end": 23}, 
                {"id": 22, "text": "하", "type": "VV", "scode": "010701", "weight": 0.02, "position": 96, "begin": 24, "end": 24}, 
                {"id": 23, "text": "ㄴ다", "type": "EF", "scode": "000000", "weight": 1, "position": 96, "begin": 25, "end": 25}, 
                {"id": 24, "text": ".", "type": "SF", "scode": "000000", "weight": 1, "position": 102, "begin": 26, "end": 26}
            ], 
            "word": [
                {"id": 0, "text": "이", "type": "", "begin": 0, "end": 0}, 
                {"id": 1, "text": "강의", "type": "", "begin": 1, "end": 2}, 
                {"id": 2, "text": "이름은", "type": "", "begin": 3, "end": 4}, 
                {"id": 3, "text": "'물빛이", "type": "", "begin": 5, "end": 8}, 
                {"id": 4, "text": "오리", "type": "", "begin": 9, "end": 9}, 
                {"id": 5, "text": "머리의", "type": "", "begin": 10, "end": 11}, 
                {"id": 6, "text": "색과", "type": "", "begin": 12, "end": 13}, 
                {"id": 7, "text": "같다'는", "type": "", "begin": 14, "end": 17}, 
                {"id": 8, "text": "기록에서", "type": "", "begin": 18, "end": 19}, 
                {"id": 9, "text": "유래됐다고", "type": "", "begin": 20, "end": 23}, 
                {"id": 10, "text": "한다.", "type": "", "begin": 24, "end": 26}
            ], 
            "NE": [
                {"id": 0, "text": "오리", "type": "AM_BIRD", "begin": 9, "end": 9, "weight": 0.718073, "common_noun": 0}, 
                {"id": 1, "text": "머리", "type": "AM_PART", "begin": 10, "end": 10, "weight": 0.62629, "common_noun": 0}
            ], 
            "chunk": [], 
            "dependency": [
                {"id": 0, "text": "이", "head": 1, "label": "DP", "mod": [], "weight": 0.665386}, 
                {"id": 1, "text": "강의", "head": 2, "label": "NP_MOD", "mod": [0], "weight": 0.549294}, 
                {"id": 2, "text": "이름은", "head": 9, "label": "NP_SBJ", "mod": [1], "weight": 0.0870946}, 
                {"id": 3, "text": "'물빛이", "head": 7, "label": "NP_SBJ", "mod": [], "weight": 0.536648}, 
                {"id": 4, "text": "오리", "head": 5, "label": "NP", "mod": [], "weight": 0.395026}, 
                {"id": 5, "text": "머리의", "head": 6, "label": "NP_MOD", "mod": [4], "weight": 0.649262}, 
                {"id": 6, "text": "색과", "head": 7, "label": "NP_AJT", "mod": [5], "weight": 0.633307}, 
                {"id": 7, "text": "같다'는", "head": 8, "label": "VP_MOD", "mod": [3, 6], "weight": 0.673164}, 
                {"id": 8, "text": "기록에서", "head": 9, "label": "NP_AJT", "mod": [7], "weight": 0.882431}, 
                {"id": 9, "text": "유래됐다고", "head": 10, "label": "VP_CMP", "mod": [2, 8], "weight": 0.713688}, 
                {"id": 10, "text": "한다.", "head": -1, "label": "VP", "mod": [9], "weight": 0.00100962}
            ], 
            "SRL": [
                {"verb": "같", "sense": 1, "word_id": 7, "weight": 0.209427, "argument": [
                    {"type": "ARG1", "word_id": 3, "text": "'물빛이", "weight": 0.137281}, 
                    {"type": "ARG2", "word_id": 6, "text": "색과", "weight": 0.281572}
                ]}, 
                {"verb": "유래", "sense": 1, "word_id": 9, "weight": 0.251322, "argument": [
                    {"type": "ARG1", "word_id": 2, "text": "이름은", "weight": 0.240992}, 
                    {"type": "ARG2", "word_id": 8, "text": "기록에서", "weight": 0.261651}
                ]}, 
                {"verb": "하", "sense": 2, "word_id": 10, "weight": 0.1987, "argument": [
                    {"type": "ARG1", "word_id": 9, "text": "유래됐다고", "weight": 0.1987}
                ]}
            ], 
            "relation": [], 
            "SA": [], 
            "ZA": []
        }, 
        {
            "id": 1, 
            "reserve_str": "", 
            "text": "조선을 건국한 이성계의 '위화도 회군'과도 관련 있는 이 강은 어디일까?", 
            "morp": [
                {"id": 0, "lemma": "조선", "type": "NNP", "position": 103, "weight": 0.0878802}, 
                {"id": 1, "lemma": "을", "type": "JKO", "position": 109, "weight": 0.0266447}, 
                {"id": 2, "lemma": "건국", "type": "NNG", "position": 113, "weight": 0.101027}, 
                {"id": 3, "lemma": "하", "type": "XSV", "position": 119, "weight": 0.0001}, 
                {"id": 4, "lemma": "ㄴ", "type": "ETM", "position": 119, "weight": 0.392321}, 
                {"id": 5, "lemma": "이성계", "type": "NNP", "position": 123, "weight": 0.9}, 
                {"id": 6, "lemma": "의", "type": "JKG", "position": 132, "weight": 0.0987295}, 
                {"id": 7, "lemma": "'", "type": "SS", "position": 136, "weight": 1}, 
                {"id": 8, "lemma": "위화도", "type": "NNP", "position": 137, "weight": 0.1}, 
                {"id": 9, "lemma": "회군", "type": "NNG", "position": 147, "weight": 0.9}, 
                {"id": 10, "lemma": "'", "type": "SS", "position": 153, "weight": 1}, 
                {"id": 11, "lemma": "과", "type": "JKB", "position": 154, "weight": 0.0159402}, 
                {"id": 12, "lemma": "도", "type": "JX", "position": 157, "weight": 0.0912297}, 
                {"id": 13, "lemma": "관련", "type": "NNG", "position": 161, "weight": 0.9}, 
                {"id": 14, "lemma": "있", "type": "VA", "position": 168, "weight": 0.00300704}, 
                {"id": 15, "lemma": "는", "type": "ETM", "position": 171, "weight": 0.26168}, 
                {"id": 16, "lemma": "이", "type": "MM", "position": 175, "weight": 0.00060084}, 
                {"id": 17, "lemma": "강", "type": "NNG", "position": 179, "weight": 0.624172}, 
                {"id": 18, "lemma": "은", "type": "JX", "position": 182, "weight": 0.0449928}, 
                {"id": 19, "lemma": "어디", "type": "NP", "position": 186, "weight": 0.0418153}, 
                {"id": 20, "lemma": "이", "type": "VCP", "position": 192, "weight": 0.0175768}, 
                {"id": 21, "lemma": "ㄹ까", "type": "EF", "position": 192, "weight": 0.258243}, 
                {"id": 22, "lemma": "?", "type": "SF", "position": 198, "weight": 1}
            ], 
            "morp_eval": [], 
            "WSD": [
                {"id": 0, "text": "조선", "type": "NNP", "scode": "050002", "weight": 0.0833333, "position": 103, "begin": 0, "end": 0}, 
                {"id": 1, "text": "을", "type": "JKO", "scode": "000000", "weight": 1, "position": 109, "begin": 1, "end": 1}, 
                {"id": 2, "text": "건국하", "type": "VV", "scode": "000000", "weight": 1, "position": 113, "begin": 2, "end": 3}, 
                {"id": 3, "text": "ㄴ", "type": "ETM", "scode": "000000", "weight": 1, "position": 119, "begin": 4, "end": 4}, 
                {"id": 4, "text": "이성계", "type": "NNP", "scode": "000000", "weight": 1, "position": 123, "begin": 5, "end": 5}, 
                {"id": 5, "text": "의", "type": "JKG", "scode": "000000", "weight": 1, "position": 132, "begin": 6, "end": 6}, 
                {"id": 6, "text": "'", "type": "SS", "scode": "000000", "weight": 1, "position": 136, "begin": 7, "end": 7}, 
                {"id": 7, "text": "위화도", "type": "NNP", "scode": "000000", "weight": 1, "position": 137, "begin": 8, "end": 8}, 
                {"id": 8, "text": "회군", "type": "NNG", "scode": "000000", "weight": 1, "position": 147, "begin": 9, "end": 9}, 
                {"id": 9, "text": "'", "type": "SS", "scode": "000000", "weight": 1, "position": 153, "begin": 10, "end": 10}, 
                {"id": 10, "text": "과", "type": "JKB", "scode": "000000", "weight": 1, "position": 154, "begin": 11, "end": 11}, 
                {"id": 11, "text": "도", "type": "JX", "scode": "000000", "weight": 1, "position": 157, "begin": 12, "end": 12}, 
                {"id": 12, "text": "관련", "type": "NNG", "scode": "000000", "weight": 1, "position": 161, "begin": 13, "end": 13}, 
                {"id": 13, "text": "있", "type": "VA", "scode": "010302", "weight": 0.0416667, "position": 168, "begin": 14, "end": 14}, 
                {"id": 14, "text": "는", "type": "ETM", "scode": "000000", "weight": 1, "position": 171, "begin": 15, "end": 15}, 
                {"id": 15, "text": "이", "type": "MM", "scode": "050102", "weight": 0.0172414, "position": 175, "begin": 16, "end": 16}, 
                {"id": 16, "text": "강", "type": "NNG", "scode": "010000", "weight": 0.0384615, "position": 179, "begin": 17, "end": 17}, 
                {"id": 17, "text": "은", "type": "JX", "scode": "000000", "weight": 1, "position": 182, "begin": 18, "end": 18}, 
                {"id": 18, "text": "어디", "type": "NP", "scode": "010001", "weight": 0.0769231, "position": 186, "begin": 19, "end": 19}, 
                {"id": 19, "text": "이", "type": "VCP", "scode": "030000", "weight": 0.0172414, "position": 192, "begin": 20, "end": 20}, 
                {"id": 20, "text": "ㄹ까", "type": "EF", "scode": "000000", "weight": 1, "position": 192, "begin": 21, "end": 21}, 
                {"id": 21, "text": "?", "type": "SF", "scode": "000000", "weight": 1, "position": 198, "begin": 22, "end": 22}
            ], 
            "word": [
                {"id": 0, "text": "조선을", "type": "", "begin": 0, "end": 1}, 
                {"id": 1, "text": "건국한", "type": "", "begin": 2, "end": 4}, 
                {"id": 2, "text": "이성계의", "type": "", "begin": 5, "end": 6}, 
                {"id": 3, "text": "'위화도", "type": "", "begin": 7, "end": 8}, 
                {"id": 4, "text": "회군'과도", "type": "", "begin": 9, "end": 12}, 
                {"id": 5, "text": "관련", "type": "", "begin": 13, "end": 13}, 
                {"id": 6, "text": "있는", "type": "", "begin": 14, "end": 15}, 
                {"id": 7, "text": "이", "type": "", "begin": 16, "end": 16}, 
                {"id": 8, "text": "강은", "type": "", "begin": 17, "end": 18}, 
                {"id": 9, "text": "어디일까?", "type": "", "begin": 19, "end": 22}
            ], 
            "NE": [
                {"id": 0, "text": "조선", "type": "LCP_COUNTRY", "begin": 0, "end": 0, "weight": 0.745506, "common_noun": 0}, 
                {"id": 1, "text": "이성계", "type": "PS_NAME", "begin": 5, "end": 5, "weight": 0.421756, "common_noun": 0}, 
                {"id": 2, "text": "위화도 회군", "type": "EV_OTHERS", "begin": 8, "end": 9, "weight": 0.161279, "common_noun": 0}
            ], 
            "chunk": [], 
            "dependency": [
                {"id": 0, "text": "조선을", "head": 1, "label": "NP_OBJ", "mod": [], "weight": 0.194571}, 
                {"id": 1, "text": "건국한", "head": 2, "label": "NP", "mod": [0], "weight": 0.0552746}, 
                {"id": 2, "text": "이성계의", "head": 4, "label": "NP_MOD", "mod": [1], "weight": 0.597145}, 
                {"id": 3, "text": "'위화도", "head": 4, "label": "NP", "mod": [], "weight": 0.665045}, 
                {"id": 4, "text": "회군'과도", "head": 6, "label": "NP_AJT", "mod": [2, 3], "weight": 0.558213}, 
                {"id": 5, "text": "관련", "head": 6, "label": "NP_SBJ", "mod": [], "weight": 0.295761}, 
                {"id": 6, "text": "있는", "head": 8, "label": "VP_MOD", "mod": [4, 5], "weight": 0.853849}, 
                {"id": 7, "text": "이", "head": 8, "label": "DP", "mod": [], "weight": 0.642534}, 
                {"id": 8, "text": "강은", "head": 9, "label": "NP_SBJ", "mod": [6, 7], "weight": 0.794521}, 
                {"id": 9, "text": "어디일까?", "head": -1, "label": "VNP", "mod": [8], "weight": 0.00023676}
            ], 
            "SRL": [
                {"verb": "건국", "sense": 1, "word_id": 1, "weight": 0.280442, "argument": [
                    {"type": "ARG1", "word_id": 0, "text": "조선을", "weight": 0.280442}, 
                    {"type": "ARG0", "word_id": 2, "text": "이성계의", "weight": 1}
                ]}, 
                {"verb": "있", "sense": 1, "word_id": 6, "weight": 0.118511, "argument": [
                    {"type": "ARGM-PRD", "word_id": 4, "text": "회군'과도", "weight": 1}, 
                    {"type": "ARGM-PRD", "word_id": 5, "text": "관련", "weight": 1}, 
                    {"type": "ARG1", "word_id": 8, "text": "강은", "weight": 1}
                ]}
            ], 
            "relation": [], 
            "SA": [], 
            "ZA": []
        }
    ], 
    "entity": [
        {"id": 0, "type": "", "number": "singular", "gender": "", "person": "", "animacy": "thing", "mention": [
            {"id": 0, "sent_id": 0, "start_eid": 0, "end_eid": 2, "ne_id": -1, "text": "이 강의 이름은", "start_eid_short": 2, "end_eid_short": 2, "text_short": "이름은"}, 
            {"id": 1, "sent_id": 0, "start_eid": 0, "end_eid": 1, "ne_id": -1, "text": "이 강의", "start_eid_short": 0, "end_eid_short": 1, "text_short": "이 강의"}, 
            {"id": 7, "sent_id": 1, "start_eid": 7, "end_eid": 8, "ne_id": -1, "text": "이 강은", "start_eid_short": 7, "end_eid_short": 8, "text_short": "이 강은"}, 
            {"id": 8, "sent_id": 1, "start_eid": 9, "end_eid": 9, "ne_id": -1, "text": "어디일까?", "start_eid_short": 9, "end_eid_short": 9, "text_short": "어디일까?"}
        ]}, 
        {"id": 1, "type": "", "number": "singular", "gender": "", "person": "", "animacy": "thing", "mention": [
            {"id": 2, "sent_id": 0, "start_eid": 3, "end_eid": 8, "ne_id": -1, "text": "'물빛이 오리 머리의 색과 같다'는 기록에서", "start_eid_short": 8, "end_eid_short": 8, "text_short": "기록에서"}, 
            {"id": 3, "sent_id": 0, "start_eid": 3, "end_eid": 7, "ne_id": -1, "text": "'물빛이 오리 머리의 색과 같다'는", "start_eid_short": 7, "end_eid_short": 7, "text_short": "같다'는"}
        ]}, 
        {"id": 2, "type": "LCP_COUNTRY", "number": "singular", "gender": "", "person": "", "animacy": "place", "mention": [
            {"id": 4, "sent_id": 1, "start_eid": 0, "end_eid": 0, "ne_id": 0, "text": "조선을", "start_eid_short": 0, "end_eid_short": 0, "text_short": "조선을"}
        ]}, 
        {"id": 3, "type": "PS_NAME", "number": "singular", "gender": "", "person": "", "animacy": "human", "mention": [
            {"id": 5, "sent_id": 1, "start_eid": 1, "end_eid": 2, "ne_id": 1, "text": "건국한 이성계의", "start_eid_short": 2, "end_eid_short": 2, "text_short": "이성계의"}
        ]}, 
        {"id": 4, "type": "EV_OTHERS", "number": "singular", "gender": "", "person": "", "animacy": "thing", "mention": [
            {"id": 6, "sent_id": 1, "start_eid": 3, "end_eid": 4, "ne_id": 2, "text": "'위화도 회군'과도", "start_eid_short": 4, "end_eid_short": 4, "text_short": "회군'과도"}
        ]}
    ]
}