{
    "doc_id": "E2016.789.12_Q_01.json", 
    "DCT": "", 
    "category": "", 
    "category_weight": 0, 
    "title": {
        "text": "", 
        "NE": ""
    }, 
    "metaInfo": {}, 
    "sentence": [
        {
            "id": 0, 
            "reserve_str": "", 
            "text": "4음절의 이것은 웹 사용자가 월드 와이드 웹에서 볼 수 있게 만든 하이퍼텍스트를 말한다.", 
            "morp": [
                {"id": 0, "lemma": "4", "type": "SN", "position": 0, "weight": 1}, 
                {"id": 1, "lemma": "음절", "type": "NNG", "position": 1, "weight": 0.9}, 
                {"id": 2, "lemma": "의", "type": "JKG", "position": 7, "weight": 0.0694213}, 
                {"id": 3, "lemma": "이것", "type": "NP", "position": 11, "weight": 0.0030442}, 
                {"id": 4, "lemma": "은", "type": "JX", "position": 17, "weight": 0.191811}, 
                {"id": 5, "lemma": "웹", "type": "NNG", "position": 21, "weight": 0.316958}, 
                {"id": 6, "lemma": "사용", "type": "NNG", "position": 25, "weight": 0.9}, 
                {"id": 7, "lemma": "자", "type": "XSN", "position": 31, "weight": 0.00398741}, 
                {"id": 8, "lemma": "가", "type": "JKS", "position": 34, "weight": 0.134553}, 
                {"id": 9, "lemma": "월드", "type": "NNG", "position": 38, "weight": 0.9}, 
                {"id": 10, "lemma": "와이드", "type": "NNG", "position": 45, "weight": 0.9}, 
                {"id": 11, "lemma": "웹", "type": "NNG", "position": 55, "weight": 0.180309}, 
                {"id": 12, "lemma": "에서", "type": "JKB", "position": 58, "weight": 0.153407}, 
                {"id": 13, "lemma": "보", "type": "VV", "position": 65, "weight": 0.271756}, 
                {"id": 14, "lemma": "ㄹ", "type": "ETM", "position": 65, "weight": 0.300746}, 
                {"id": 15, "lemma": "수", "type": "NNB", "position": 69, "weight": 0.215617}, 
                {"id": 16, "lemma": "있", "type": "VA", "position": 73, "weight": 0.0518488}, 
                {"id": 17, "lemma": "게", "type": "EC", "position": 76, "weight": 0.31879}, 
                {"id": 18, "lemma": "만들", "type": "VV", "position": 80, "weight": 0.9}, 
                {"id": 19, "lemma": "ㄴ", "type": "ETM", "position": 83, "weight": 0.304215}, 
                {"id": 20, "lemma": "하이퍼텍스트", "type": "NNG", "position": 87, "weight": 0.9}, 
                {"id": 21, "lemma": "를", "type": "JKO", "position": 105, "weight": 0.137686}, 
                {"id": 22, "lemma": "말", "type": "NNG", "position": 109, "weight": 0.0814073}, 
                {"id": 23, "lemma": "하", "type": "XSV", "position": 112, "weight": 0.0001}, 
                {"id": 24, "lemma": "ㄴ다", "type": "EF", "position": 112, "weight": 0.0449045}, 
                {"id": 25, "lemma": ".", "type": "SF", "position": 118, "weight": 1}
            ], 
            "morp_eval": [], 
            "WSD": [
                {"id": 0, "text": "4", "type": "SN", "scode": "000000", "weight": 1, "position": 0, "begin": 0, "end": 0}, 
                {"id": 1, "text": "음절", "type": "NNG", "scode": "000001", "weight": 0.5, "position": 1, "begin": 1, "end": 1}, 
                {"id": 2, "text": "의", "type": "JKG", "scode": "000000", "weight": 1, "position": 7, "begin": 2, "end": 2}, 
                {"id": 3, "text": "이것", "type": "NP", "scode": "000001", "weight": 0.25, "position": 11, "begin": 3, "end": 3}, 
                {"id": 4, "text": "은", "type": "JX", "scode": "000000", "weight": 1, "position": 17, "begin": 4, "end": 4}, 
                {"id": 5, "text": "웹", "type": "NNG", "scode": "000000", "weight": 1, "position": 21, "begin": 5, "end": 5}, 
                {"id": 6, "text": "사용자", "type": "NNG", "scode": "000001", "weight": 0.333333, "position": 25, "begin": 6, "end": 7}, 
                {"id": 7, "text": "가", "type": "JKS", "scode": "000000", "weight": 1, "position": 34, "begin": 8, "end": 8}, 
                {"id": 8, "text": "월드", "type": "NNG", "scode": "000000", "weight": 0, "position": 38, "begin": 9, "end": 9}, 
                {"id": 9, "text": "와이드", "type": "NNG", "scode": "000000", "weight": 0, "position": 45, "begin": 10, "end": 10}, 
                {"id": 10, "text": "웹", "type": "NNG", "scode": "000000", "weight": 1, "position": 55, "begin": 11, "end": 11}, 
                {"id": 11, "text": "에서", "type": "JKB", "scode": "000000", "weight": 1, "position": 58, "begin": 12, "end": 12}, 
                {"id": 12, "text": "보", "type": "VV", "scode": "010101", "weight": 0.025641, "position": 65, "begin": 13, "end": 13}, 
                {"id": 13, "text": "ㄹ", "type": "ETM", "scode": "000000", "weight": 1, "position": 65, "begin": 14, "end": 14}, 
                {"id": 14, "text": "수", "type": "NNB", "scode": "020100", "weight": 0.02, "position": 69, "begin": 15, "end": 15}, 
                {"id": 15, "text": "있", "type": "VA", "scode": "010305", "weight": 0.0416667, "position": 73, "begin": 16, "end": 16}, 
                {"id": 16, "text": "게", "type": "EC", "scode": "000000", "weight": 1, "position": 76, "begin": 17, "end": 17}, 
                {"id": 17, "text": "만들", "type": "VV", "scode": "000101", "weight": 0.0769231, "position": 80, "begin": 18, "end": 18}, 
                {"id": 18, "text": "ㄴ", "type": "ETM", "scode": "000000", "weight": 1, "position": 83, "begin": 19, "end": 19}, 
                {"id": 19, "text": "하이퍼텍스트", "type": "NNG", "scode": "000000", "weight": 1, "position": 87, "begin": 20, "end": 20}, 
                {"id": 20, "text": "를", "type": "JKO", "scode": "000000", "weight": 1, "position": 105, "begin": 21, "end": 21}, 
                {"id": 21, "text": "말하", "type": "VV", "scode": "000101", "weight": 0.125, "position": 109, "begin": 22, "end": 23}, 
                {"id": 22, "text": "ㄴ다", "type": "EF", "scode": "000000", "weight": 1, "position": 112, "begin": 24, "end": 24}, 
                {"id": 23, "text": ".", "type": "SF", "scode": "000000", "weight": 1, "position": 118, "begin": 25, "end": 25}
            ], 
            "word": [
                {"id": 0, "text": "4음절의", "type": "", "begin": 0, "end": 2}, 
                {"id": 1, "text": "이것은", "type": "", "begin": 3, "end": 4}, 
                {"id": 2, "text": "웹", "type": "", "begin": 5, "end": 5}, 
                {"id": 3, "text": "사용자가", "type": "", "begin": 6, "end": 8}, 
                {"id": 4, "text": "월드", "type": "", "begin": 9, "end": 9}, 
                {"id": 5, "text": "와이드", "type": "", "begin": 10, "end": 10}, 
                {"id": 6, "text": "웹에서", "type": "", "begin": 11, "end": 12}, 
                {"id": 7, "text": "볼", "type": "", "begin": 13, "end": 14}, 
                {"id": 8, "text": "수", "type": "", "begin": 15, "end": 15}, 
                {"id": 9, "text": "있게", "type": "", "begin": 16, "end": 17}, 
                {"id": 10, "text": "만든", "type": "", "begin": 18, "end": 19}, 
                {"id": 11, "text": "하이퍼텍스트를", "type": "", "begin": 20, "end": 21}, 
                {"id": 12, "text": "말한다.", "type": "", "begin": 22, "end": 25}
            ], 
            "NE": [
                {"id": 0, "text": "4음절", "type": "QT_COUNT", "begin": 0, "end": 1, "weight": 0.510567, "common_noun": 0}, 
                {"id": 1, "text": "사용자", "type": "CV_POSITION", "begin": 6, "end": 7, "weight": 0.109252, "common_noun": 0}, 
                {"id": 2, "text": "월드 와이드 웹", "type": "TR_SCIENCE", "begin": 9, "end": 11, "weight": 0.109252, "common_noun": 0}
            ], 
            "chunk": [], 
            "dependency": [
                {"id": 0, "text": "4음절의", "head": 1, "label": "NP_MOD", "mod": [], "weight": 0.629089}, 
                {"id": 1, "text": "이것은", "head": 12, "label": "NP_SBJ", "mod": [0], "weight": 0.272111}, 
                {"id": 2, "text": "웹", "head": 3, "label": "NP", "mod": [], "weight": 0.731326}, 
                {"id": 3, "text": "사용자가", "head": 7, "label": "NP_SBJ", "mod": [2], "weight": 0.68636}, 
                {"id": 4, "text": "월드", "head": 5, "label": "NP", "mod": [], "weight": 0.489643}, 
                {"id": 5, "text": "와이드", "head": 6, "label": "NP", "mod": [4], "weight": 0.735058}, 
                {"id": 6, "text": "웹에서", "head": 7, "label": "NP_AJT", "mod": [5], "weight": 0.83536}, 
                {"id": 7, "text": "볼", "head": 8, "label": "VP_MOD", "mod": [3, 6], "weight": 0.844568}, 
                {"id": 8, "text": "수", "head": 9, "label": "NP_SBJ", "mod": [7], "weight": 0.313893}, 
                {"id": 9, "text": "있게", "head": 10, "label": "VP", "mod": [8], "weight": 0.42648}, 
                {"id": 10, "text": "만든", "head": 11, "label": "VP_MOD", "mod": [9], "weight": 0.777801}, 
                {"id": 11, "text": "하이퍼텍스트를", "head": 12, "label": "NP_OBJ", "mod": [10], "weight": 0.848701}, 
                {"id": 12, "text": "말한다.", "head": -1, "label": "VP", "mod": [11, 1], "weight": 0.00167226}
            ], 
            "SRL": [
                {"verb": "보", "sense": 1, "word_id": 7, "weight": 0.233587, "argument": [
                    {"type": "ARG1", "word_id": 1, "text": "이것은", "weight": 0.127524}, 
                    {"type": "ARGM-LOC", "word_id": 6, "text": "웹에서", "weight": 0.151341}, 
                    {"type": "AUX", "word_id": 9, "text": "있게", "weight": 0.421896}, 
                    {"type": "ARG0", "word_id": 3, "text": "사용자가", "weight": 1}
                ]}, 
                {"verb": "만들", "sense": 1, "word_id": 10, "weight": 0.135886, "argument": [
                    {"type": "ARGM-PRP", "word_id": 9, "text": "있게", "weight": 0.0968459}, 
                    {"type": "ARG1", "word_id": 11, "text": "하이퍼텍스트를", "weight": 0.174926}
                ]}, 
                {"verb": "말하", "sense": 1, "word_id": 12, "weight": 0.0993978, "argument": [
                    {"type": "ARG1", "word_id": 11, "text": "하이퍼텍스트를", "weight": 0.0993978}
                ]}
            ], 
            "relation": [], 
            "SA": [], 
            "ZA": []
        }, 
        {
            "id": 1, 
            "reserve_str": "", 
            "text": "개인의 관심사나 단체의 업무, 홍보 등을 위해 만들어진 이것은 무엇일까?", 
            "morp": [
                {"id": 0, "lemma": "개인", "type": "NNG", "position": 119, "weight": 0.9}, 
                {"id": 1, "lemma": "의", "type": "JKG", "position": 125, "weight": 0.0694213}, 
                {"id": 2, "lemma": "관심", "type": "NNG", "position": 129, "weight": 0.9}, 
                {"id": 3, "lemma": "사", "type": "XSN", "position": 135, "weight": 0.00634534}, 
                {"id": 4, "lemma": "나", "type": "JC", "position": 138, "weight": 0.00299131}, 
                {"id": 5, "lemma": "단체", "type": "NNG", "position": 142, "weight": 0.802941}, 
                {"id": 6, "lemma": "의", "type": "JKG", "position": 148, "weight": 0.0694213}, 
                {"id": 7, "lemma": "업무", "type": "NNG", "position": 152, "weight": 0.9}, 
                {"id": 8, "lemma": ",", "type": "SP", "position": 158, "weight": 1}, 
                {"id": 9, "lemma": "홍보", "type": "NNG", "position": 160, "weight": 0.528084}, 
                {"id": 10, "lemma": "등", "type": "NNB", "position": 167, "weight": 0.0146757}, 
                {"id": 11, "lemma": "을", "type": "JKO", "position": 170, "weight": 0.0630104}, 
                {"id": 12, "lemma": "위하", "type": "VV", "position": 174, "weight": 0.778555}, 
                {"id": 13, "lemma": "어", "type": "EC", "position": 177, "weight": 0.41831}, 
                {"id": 14, "lemma": "만들", "type": "VV", "position": 181, "weight": 0.9}, 
                {"id": 15, "lemma": "어", "type": "EC", "position": 187, "weight": 0.41831}, 
                {"id": 16, "lemma": "지", "type": "VX", "position": 190, "weight": 0.0539764}, 
                {"id": 17, "lemma": "ㄴ", "type": "ETM", "position": 190, "weight": 0.302612}, 
                {"id": 18, "lemma": "이것", "type": "NP", "position": 194, "weight": 0.0102992}, 
                {"id": 19, "lemma": "은", "type": "JX", "position": 200, "weight": 0.191811}, 
                {"id": 20, "lemma": "무엇", "type": "NP", "position": 204, "weight": 0.9}, 
                {"id": 21, "lemma": "이", "type": "VCP", "position": 210, "weight": 0.0175768}, 
                {"id": 22, "lemma": "ㄹ까", "type": "EF", "position": 210, "weight": 0.258243}, 
                {"id": 23, "lemma": "?", "type": "SF", "position": 216, "weight": 1}
            ], 
            "morp_eval": [], 
            "WSD": [
                {"id": 0, "text": "개인", "type": "NNG", "scode": "020000", "weight": 0.166667, "position": 119, "begin": 0, "end": 0}, 
                {"id": 1, "text": "의", "type": "JKG", "scode": "000000", "weight": 1, "position": 125, "begin": 1, "end": 1}, 
                {"id": 2, "text": "관심사", "type": "NNG", "scode": "000000", "weight": 1, "position": 129, "begin": 2, "end": 3}, 
                {"id": 3, "text": "나", "type": "JC", "scode": "000000", "weight": 1, "position": 138, "begin": 4, "end": 4}, 
                {"id": 4, "text": "단체", "type": "NNG", "scode": "020001", "weight": 0.333333, "position": 142, "begin": 5, "end": 5}, 
                {"id": 5, "text": "의", "type": "JKG", "scode": "000000", "weight": 1, "position": 148, "begin": 6, "end": 6}, 
                {"id": 6, "text": "업무", "type": "NNG", "scode": "020000", "weight": 0.333333, "position": 152, "begin": 7, "end": 7}, 
                {"id": 7, "text": ",", "type": "SP", "scode": "000000", "weight": 1, "position": 158, "begin": 8, "end": 8}, 
                {"id": 8, "text": "홍보", "type": "NNG", "scode": "010000", "weight": 0.333333, "position": 160, "begin": 9, "end": 9}, 
                {"id": 9, "text": "등", "type": "NNB", "scode": "050001", "weight": 0.0526316, "position": 167, "begin": 10, "end": 10}, 
                {"id": 10, "text": "을", "type": "JKO", "scode": "000000", "weight": 1, "position": 170, "begin": 11, "end": 11}, 
                {"id": 11, "text": "위하", "type": "VV", "scode": "010003", "weight": 0.25, "position": 174, "begin": 12, "end": 12}, 
                {"id": 12, "text": "어", "type": "EC", "scode": "000000", "weight": 1, "position": 177, "begin": 13, "end": 13}, 
                {"id": 13, "text": "만들", "type": "VV", "scode": "000101", "weight": 0.0769231, "position": 181, "begin": 14, "end": 14}, 
                {"id": 14, "text": "어", "type": "EC", "scode": "000000", "weight": 1, "position": 187, "begin": 15, "end": 15}, 
                {"id": 15, "text": "지", "type": "VX", "scode": "040101", "weight": 0.037037, "position": 190, "begin": 16, "end": 16}, 
                {"id": 16, "text": "ㄴ", "type": "ETM", "scode": "000000", "weight": 1, "position": 190, "begin": 17, "end": 17}, 
                {"id": 17, "text": "이것", "type": "NP", "scode": "000001", "weight": 0.25, "position": 194, "begin": 18, "end": 18}, 
                {"id": 18, "text": "은", "type": "JX", "scode": "000000", "weight": 1, "position": 200, "begin": 19, "end": 19}, 
                {"id": 19, "text": "무엇", "type": "NP", "scode": "000001", "weight": 0.5, "position": 204, "begin": 20, "end": 20}, 
                {"id": 20, "text": "이", "type": "VCP", "scode": "030000", "weight": 0.0172414, "position": 210, "begin": 21, "end": 21}, 
                {"id": 21, "text": "ㄹ까", "type": "EF", "scode": "000000", "weight": 1, "position": 210, "begin": 22, "end": 22}, 
                {"id": 22, "text": "?", "type": "SF", "scode": "000000", "weight": 1, "position": 216, "begin": 23, "end": 23}
            ], 
            "word": [
                {"id": 0, "text": "개인의", "type": "", "begin": 0, "end": 1}, 
                {"id": 1, "text": "관심사나", "type": "", "begin": 2, "end": 4}, 
                {"id": 2, "text": "단체의", "type": "", "begin": 5, "end": 6}, 
                {"id": 3, "text": "업무,", "type": "", "begin": 7, "end": 8}, 
                {"id": 4, "text": "홍보", "type": "", "begin": 9, "end": 9}, 
                {"id": 5, "text": "등을", "type": "", "begin": 10, "end": 11}, 
                {"id": 6, "text": "위해", "type": "", "begin": 12, "end": 13}, 
                {"id": 7, "text": "만들어진", "type": "", "begin": 14, "end": 17}, 
                {"id": 8, "text": "이것은", "type": "", "begin": 18, "end": 19}, 
                {"id": 9, "text": "무엇일까?", "type": "", "begin": 20, "end": 23}
            ], 
            "NE": [], 
            "chunk": [], 
            "dependency": [
                {"id": 0, "text": "개인의", "head": 1, "label": "NP_MOD", "mod": [], "weight": 0.528535}, 
                {"id": 1, "text": "관심사나", "head": 4, "label": "NP_CNJ", "mod": [0], "weight": 0.609311}, 
                {"id": 2, "text": "단체의", "head": 3, "label": "NP_MOD", "mod": [], "weight": 0.290186}, 
                {"id": 3, "text": "업무,", "head": 4, "label": "NP_CNJ", "mod": [2], "weight": 0.515628}, 
                {"id": 4, "text": "홍보", "head": 5, "label": "NP", "mod": [1, 3], "weight": 0.607599}, 
                {"id": 5, "text": "등을", "head": 6, "label": "NP_OBJ", "mod": [4], "weight": 0.705921}, 
                {"id": 6, "text": "위해", "head": 7, "label": "VP", "mod": [5], "weight": 0.863084}, 
                {"id": 7, "text": "만들어진", "head": 8, "label": "VP_MOD", "mod": [6], "weight": 0.703223}, 
                {"id": 8, "text": "이것은", "head": 9, "label": "NP_SBJ", "mod": [7], "weight": 0.785254}, 
                {"id": 9, "text": "무엇일까?", "head": -1, "label": "VNP", "mod": [8], "weight": 0.0082154}
            ], 
            "SRL": [
                {"verb": "위하", "sense": 1, "word_id": 6, "weight": 0.268419, "argument": [
                    {"type": "ARG1", "word_id": 5, "text": "등을", "weight": 0.268419}
                ]}, 
                {"verb": "만들", "sense": 1, "word_id": 7, "weight": 0.236289, "argument": [
                    {"type": "ARGM-PRP", "word_id": 6, "text": "위해", "weight": 0.24039}, 
                    {"type": "ARG1", "word_id": 8, "text": "이것은", "weight": 0.232188}
                ]}
            ], 
            "relation": [], 
            "SA": [], 
            "ZA": []
        }
    ], 
    "entity": [
        {"id": 0, "type": "TMI_SERVICE", "number": "singular", "gender": "", "person": "", "animacy": "thing", "mention": [
            {"id": 1, "sent_id": 0, "start_eid": 1, "end_eid": 1, "ne_id": -1, "text": "이것은", "start_eid_short": 1, "end_eid_short": 1, "text_short": "이것은"}, 
            {"id": 2, "sent_id": 0, "start_eid": 2, "end_eid": 11, "ne_id": 2, "text": "웹 사용자가 월드 와이드 웹에서 볼 수 있게 만든 하이퍼텍스트를", "start_eid_short": 11, "end_eid_short": 11, "text_short": "하이퍼텍스트를"}, 
            {"id": 12, "sent_id": 1, "start_eid": 8, "end_eid": 8, "ne_id": -1, "text": "이것은", "start_eid_short": 8, "end_eid_short": 8, "text_short": "이것은"}, 
            {"id": 13, "sent_id": 1, "start_eid": 9, "end_eid": 9, "ne_id": -1, "text": "무엇일까?", "start_eid_short": 9, "end_eid_short": 9, "text_short": "무엇일까?"}
        ]}, 
        {"id": 1, "type": "QT_COUNT", "number": "singular", "gender": "", "person": "", "animacy": "thing", "mention": [
            {"id": 0, "sent_id": 0, "start_eid": 0, "end_eid": 0, "ne_id": 0, "text": "4음절의", "start_eid_short": 0, "end_eid_short": 0, "text_short": "4음절의"}
        ]}, 
        {"id": 2, "type": "CV_POSITION", "number": "singular", "gender": "", "person": "", "animacy": "human", "mention": [
            {"id": 3, "sent_id": 0, "start_eid": 2, "end_eid": 3, "ne_id": 1, "text": "웹 사용자가", "start_eid_short": 2, "end_eid_short": 3, "text_short": "웹 사용자가"}
        ]}, 
        {"id": 3, "type": "", "number": "singular", "gender": "", "person": "", "animacy": "thing", "mention": [
            {"id": 4, "sent_id": 0, "start_eid": 2, "end_eid": 2, "ne_id": -1, "text": "웹", "start_eid_short": 2, "end_eid_short": 2, "text_short": "웹"}, 
            {"id": 5, "sent_id": 0, "start_eid": 4, "end_eid": 6, "ne_id": -1, "text": "월드 와이드 웹에서", "start_eid_short": 4, "end_eid_short": 6, "text_short": "월드 와이드 웹에서"}
        ]}, 
        {"id": 4, "type": "AF_CULTURAL_ASSET", "number": "singular", "gender": "", "person": "", "animacy": "thing", "mention": [
            {"id": 7, "sent_id": 1, "start_eid": 0, "end_eid": 1, "ne_id": 0, "text": "개인의 관심사나", "start_eid_short": 1, "end_eid_short": 1, "text_short": "관심사나"}
        ]}, 
        {"id": 5, "type": "", "number": "singular", "gender": "", "person": "", "animacy": "thing", "mention": [
            {"id": 8, "sent_id": 1, "start_eid": 0, "end_eid": 0, "ne_id": -1, "text": "개인의", "start_eid_short": 0, "end_eid_short": 0, "text_short": "개인의"}
        ]}, 
        {"id": 6, "type": "", "number": "singular", "gender": "", "person": "", "animacy": "thing", "mention": [
            {"id": 6, "sent_id": 1, "start_eid": 0, "end_eid": 5, "ne_id": -1, "text": "개인의 관심사나 단체의 업무, 홍보 등을", "start_eid_short": 4, "end_eid_short": 5, "text_short": "홍보 등을"}
        ]}, 
        {"id": 7, "type": "", "number": "singular", "gender": "", "person": "", "animacy": "thing", "mention": [
            {"id": 10, "sent_id": 1, "start_eid": 2, "end_eid": 2, "ne_id": -1, "text": "단체의", "start_eid_short": 2, "end_eid_short": 2, "text_short": "단체의"}
        ]}, 
        {"id": 8, "type": "", "number": "singular", "gender": "", "person": "", "animacy": "thing", "mention": [
            {"id": 11, "sent_id": 1, "start_eid": 4, "end_eid": 4, "ne_id": -1, "text": "홍보", "start_eid_short": 4, "end_eid_short": 4, "text_short": "홍보"}
        ]}, 
        {"id": 9, "type": "", "number": "singular", "gender": "", "person": "", "animacy": "thing", "mention": [
            {"id": 9, "sent_id": 1, "start_eid": 2, "end_eid": 3, "ne_id": -1, "text": "단체의 업무,", "start_eid_short": 3, "end_eid_short": 3, "text_short": "업무,"}
        ]}
    ]
}