{
    "doc_id": "E2016.888.10_A_02.json", 
    "DCT": "", 
    "category": "", 
    "category_weight": 0, 
    "title": {
        "text": "다이오드", 
        "NE": ""
    }, 
    "metaInfo": {}, 
    "sentence": [
        {
            "id": 0, 
            "reserve_str": "", 
            "text": "정류 특성 때문에 교류를 직류로 변환시킬 때 많이 이용된다.", 
            "morp": [
                {"id": 0, "lemma": "정류", "type": "NNG", "position": 0, "weight": 0.9}, 
                {"id": 1, "lemma": "특성", "type": "NNG", "position": 7, "weight": 0.9}, 
                {"id": 2, "lemma": "때문", "type": "NNB", "position": 14, "weight": 0.9}, 
                {"id": 3, "lemma": "에", "type": "JKB", "position": 20, "weight": 0.135559}, 
                {"id": 4, "lemma": "교류", "type": "NNG", "position": 24, "weight": 0.9}, 
                {"id": 5, "lemma": "를", "type": "JKO", "position": 30, "weight": 0.137686}, 
                {"id": 6, "lemma": "직류", "type": "NNG", "position": 34, "weight": 0.9}, 
                {"id": 7, "lemma": "로", "type": "JKB", "position": 40, "weight": 0.153229}, 
                {"id": 8, "lemma": "변환", "type": "NNG", "position": 44, "weight": 0.9}, 
                {"id": 9, "lemma": "시키", "type": "XSV", "position": 50, "weight": 0.00340357}, 
                {"id": 10, "lemma": "ㄹ", "type": "ETM", "position": 53, "weight": 0.387847}, 
                {"id": 11, "lemma": "때", "type": "NNG", "position": 57, "weight": 0.656522}, 
                {"id": 12, "lemma": "많이", "type": "MAG", "position": 61, "weight": 0.9}, 
                {"id": 13, "lemma": "이용", "type": "NNG", "position": 68, "weight": 0.261035}, 
                {"id": 14, "lemma": "되", "type": "XSV", "position": 74, "weight": 0.000224177}, 
                {"id": 15, "lemma": "ㄴ다", "type": "EF", "position": 74, "weight": 0.0449045}, 
                {"id": 16, "lemma": ".", "type": "SF", "position": 80, "weight": 1}
            ], 
            "morp_eval": [], 
            "WSD": [
                {"id": 0, "text": "정류", "type": "NNG", "scode": "060002", "weight": 0.125, "position": 0, "begin": 0, "end": 0}, 
                {"id": 1, "text": "특성", "type": "NNG", "scode": "010000", "weight": 0.5, "position": 7, "begin": 1, "end": 1}, 
                {"id": 2, "text": "때문", "type": "NNB", "scode": "000000", "weight": 1, "position": 14, "begin": 2, "end": 2}, 
                {"id": 3, "text": "에", "type": "JKB", "scode": "000000", "weight": 1, "position": 20, "begin": 3, "end": 3}, 
                {"id": 4, "text": "교류", "type": "NNG", "scode": "010003", "weight": 0.25, "position": 24, "begin": 4, "end": 4}, 
                {"id": 5, "text": "를", "type": "JKO", "scode": "000000", "weight": 1, "position": 30, "begin": 5, "end": 5}, 
                {"id": 6, "text": "직류", "type": "NNG", "scode": "010003", "weight": 0.25, "position": 34, "begin": 6, "end": 6}, 
                {"id": 7, "text": "로", "type": "JKB", "scode": "000000", "weight": 1, "position": 40, "begin": 7, "end": 7}, 
                {"id": 8, "text": "변환", "type": "NNG", "scode": "030001", "weight": 0.166667, "position": 44, "begin": 8, "end": 8}, 
                {"id": 9, "text": "시키", "type": "XSV", "scode": "000000", "weight": 0, "position": 50, "begin": 9, "end": 9}, 
                {"id": 10, "text": "ㄹ", "type": "ETM", "scode": "000000", "weight": 1, "position": 53, "begin": 10, "end": 10}, 
                {"id": 11, "text": "때", "type": "NNG", "scode": "010005", "weight": 0.0666667, "position": 57, "begin": 11, "end": 11}, 
                {"id": 12, "text": "많이", "type": "MAG", "scode": "000000", "weight": 1, "position": 61, "begin": 12, "end": 12}, 
                {"id": 13, "text": "이용되", "type": "VV", "scode": "000001", "weight": 0.5, "position": 68, "begin": 13, "end": 14}, 
                {"id": 14, "text": "ㄴ다", "type": "EF", "scode": "000000", "weight": 1, "position": 74, "begin": 15, "end": 15}, 
                {"id": 15, "text": ".", "type": "SF", "scode": "000000", "weight": 1, "position": 80, "begin": 16, "end": 16}
            ], 
            "word": [
                {"id": 0, "text": "정류", "type": "", "begin": 0, "end": 0}, 
                {"id": 1, "text": "특성", "type": "", "begin": 1, "end": 1}, 
                {"id": 2, "text": "때문에", "type": "", "begin": 2, "end": 3}, 
                {"id": 3, "text": "교류를", "type": "", "begin": 4, "end": 5}, 
                {"id": 4, "text": "직류로", "type": "", "begin": 6, "end": 7}, 
                {"id": 5, "text": "변환시킬", "type": "", "begin": 8, "end": 10}, 
                {"id": 6, "text": "때", "type": "", "begin": 11, "end": 11}, 
                {"id": 7, "text": "많이", "type": "", "begin": 12, "end": 12}, 
                {"id": 8, "text": "이용된다.", "type": "", "begin": 13, "end": 16}
            ], 
            "NE": [], 
            "chunk": [], 
            "dependency": [
                {"id": 0, "text": "정류", "head": 1, "label": "NP", "mod": [], "weight": 0.742276}, 
                {"id": 1, "text": "특성", "head": 2, "label": "NP", "mod": [0], "weight": 0.816411}, 
                {"id": 2, "text": "때문에", "head": 8, "label": "NP_AJT", "mod": [1], "weight": 0.282456}, 
                {"id": 3, "text": "교류를", "head": 5, "label": "NP_OBJ", "mod": [], "weight": 0.807813}, 
                {"id": 4, "text": "직류로", "head": 5, "label": "NP_AJT", "mod": [], "weight": 0.803822}, 
                {"id": 5, "text": "변환시킬", "head": 6, "label": "VP_MOD", "mod": [3, 4], "weight": 0.882779}, 
                {"id": 6, "text": "때", "head": 8, "label": "NP_AJT", "mod": [5], "weight": 0.67869}, 
                {"id": 7, "text": "많이", "head": 8, "label": "AP", "mod": [], "weight": 0.786323}, 
                {"id": 8, "text": "이용된다.", "head": -1, "label": "VP", "mod": [6, 7, 2], "weight": 0.0482927}
            ], 
            "SRL": [
                {"verb": "변환", "sense": 1, "word_id": 5, "weight": 0.135481, "argument": [
                    {"type": "ARG1", "word_id": 3, "text": "교류를", "weight": 0.230379}, 
                    {"type": "ARG3", "word_id": 4, "text": "직류로", "weight": 0.0651528}
                ]}, 
                {"verb": "이용", "sense": 1, "word_id": 8, "weight": 0.189969, "argument": [
                    {"type": "ARGM-TMP", "word_id": 6, "text": "때", "weight": 0.205363}, 
                    {"type": "ARGM-EXT", "word_id": 7, "text": "많이", "weight": 0.174576}, 
                    {"type": "ARGM-CAU", "word_id": 2, "text": "때문에", "weight": 1}, 
                    {"type": "ARG2", "word_id": 5, "text": "변환시킬", "weight": 1}
                ]}
            ], 
            "relation": [], 
            "SA": [], 
            "ZA": []
        }
    ], 
    "entity": [
        {"id": 0, "type": "", "number": "singular", "gender": "", "person": "", "animacy": "thing", "mention": [
            {"id": 2, "sent_id": 0, "start_eid": 0, "end_eid": 1, "ne_id": -1, "text": "정류 특성", "start_eid_short": 0, "end_eid_short": 1, "text_short": "정류 특성"}
        ]}, 
        {"id": 1, "type": "", "number": "singular", "gender": "", "person": "", "animacy": "thing", "mention": [
            {"id": 3, "sent_id": 0, "start_eid": 0, "end_eid": 0, "ne_id": -1, "text": "정류", "start_eid_short": 0, "end_eid_short": 0, "text_short": "정류"}
        ]}, 
        {"id": 2, "type": "", "number": "singular", "gender": "", "person": "", "animacy": "thing", "mention": [
            {"id": 1, "sent_id": 0, "start_eid": 0, "end_eid": 2, "ne_id": -1, "text": "정류 특성 때문에", "start_eid_short": 0, "end_eid_short": 2, "text_short": "정류 특성 때문에"}
        ]}, 
        {"id": 3, "type": "", "number": "singular", "gender": "", "person": "", "animacy": "thing", "mention": [
            {"id": 0, "sent_id": 0, "start_eid": 0, "end_eid": 6, "ne_id": -1, "text": "정류 특성 때문에 교류를 직류로 변환시킬 때", "start_eid_short": 6, "end_eid_short": 6, "text_short": "때"}
        ]}, 
        {"id": 4, "type": "", "number": "singular", "gender": "", "person": "", "animacy": "thing", "mention": [
            {"id": 4, "sent_id": 0, "start_eid": 3, "end_eid": 3, "ne_id": -1, "text": "교류를", "start_eid_short": 3, "end_eid_short": 3, "text_short": "교류를"}
        ]}, 
        {"id": 5, "type": "", "number": "singular", "gender": "", "person": "", "animacy": "thing", "mention": [
            {"id": 5, "sent_id": 0, "start_eid": 4, "end_eid": 4, "ne_id": -1, "text": "직류로", "start_eid_short": 4, "end_eid_short": 4, "text_short": "직류로"}
        ]}
    ]
}