{
    "doc_id": "E2016.889.12_A_01.json", 
    "DCT": "", 
    "category": "", 
    "category_weight": 0, 
    "title": {
        "text": "발해의 중앙 관제", 
        "NE": ""
    }, 
    "metaInfo": {}, 
    "sentence": [
        {
            "id": 0, 
            "reserve_str": "", 
            "text": "발해의 중앙 관제는 3성과 6부를 근간으로 편성하였다.", 
            "morp": [
                {"id": 0, "lemma": "발해", "type": "NNP", "position": 0, "weight": 0.9}, 
                {"id": 1, "lemma": "의", "type": "JKG", "position": 6, "weight": 0.0987295}, 
                {"id": 2, "lemma": "중앙", "type": "NNG", "position": 10, "weight": 0.854269}, 
                {"id": 3, "lemma": "관제", "type": "NNG", "position": 17, "weight": 0.9}, 
                {"id": 4, "lemma": "는", "type": "JX", "position": 23, "weight": 0.0287565}, 
                {"id": 5, "lemma": "3", "type": "SN", "position": 27, "weight": 1}, 
                {"id": 6, "lemma": "성", "type": "NNG", "position": 28, "weight": 0.0493039}, 
                {"id": 7, "lemma": "과", "type": "JC", "position": 31, "weight": 0.017569}, 
                {"id": 8, "lemma": "6", "type": "SN", "position": 35, "weight": 1}, 
                {"id": 9, "lemma": "부", "type": "NNG", "position": 36, "weight": 0.0850394}, 
                {"id": 10, "lemma": "를", "type": "JKO", "position": 39, "weight": 0.0669358}, 
                {"id": 11, "lemma": "근간", "type": "NNG", "position": 43, "weight": 0.9}, 
                {"id": 12, "lemma": "으로", "type": "JKB", "position": 49, "weight": 0.153406}, 
                {"id": 13, "lemma": "편성", "type": "NNG", "position": 56, "weight": 0.9}, 
                {"id": 14, "lemma": "하", "type": "XSV", "position": 62, "weight": 0.0001}, 
                {"id": 15, "lemma": "았", "type": "EP", "position": 65, "weight": 0.9}, 
                {"id": 16, "lemma": "다", "type": "EF", "position": 68, "weight": 0.640954}, 
                {"id": 17, "lemma": ".", "type": "SF", "position": 71, "weight": 1}
            ], 
            "morp_eval": [], 
            "WSD": [
                {"id": 0, "text": "발해", "type": "NNP", "scode": "010000", "weight": 0.5, "position": 0, "begin": 0, "end": 0}, 
                {"id": 1, "text": "의", "type": "JKG", "scode": "000000", "weight": 1, "position": 6, "begin": 1, "end": 1}, 
                {"id": 2, "text": "중앙", "type": "NNG", "scode": "010004", "weight": 0.2, "position": 10, "begin": 2, "end": 2}, 
                {"id": 3, "text": "관제", "type": "NNG", "scode": "040000", "weight": 0.166667, "position": 17, "begin": 3, "end": 3}, 
                {"id": 4, "text": "는", "type": "JX", "scode": "000000", "weight": 1, "position": 23, "begin": 4, "end": 4}, 
                {"id": 5, "text": "3", "type": "SN", "scode": "000000", "weight": 1, "position": 27, "begin": 5, "end": 5}, 
                {"id": 6, "text": "성", "type": "NNG", "scode": "120003", "weight": 0.0344828, "position": 28, "begin": 6, "end": 6}, 
                {"id": 7, "text": "과", "type": "JC", "scode": "000000", "weight": 1, "position": 31, "begin": 7, "end": 7}, 
                {"id": 8, "text": "6", "type": "SN", "scode": "000000", "weight": 1, "position": 35, "begin": 8, "end": 8}, 
                {"id": 9, "text": "부", "type": "NNG", "scode": "100001", "weight": 0.027027, "position": 36, "begin": 9, "end": 9}, 
                {"id": 10, "text": "를", "type": "JKO", "scode": "000000", "weight": 1, "position": 39, "begin": 10, "end": 10}, 
                {"id": 11, "text": "근간", "type": "NNG", "scode": "030002", "weight": 0.166667, "position": 43, "begin": 11, "end": 11}, 
                {"id": 12, "text": "으로", "type": "JKB", "scode": "000000", "weight": 1, "position": 49, "begin": 12, "end": 12}, 
                {"id": 13, "text": "편성하", "type": "VV", "scode": "000002", "weight": 0.5, "position": 56, "begin": 13, "end": 14}, 
                {"id": 14, "text": "았", "type": "EP", "scode": "000000", "weight": 1, "position": 65, "begin": 15, "end": 15}, 
                {"id": 15, "text": "다", "type": "EF", "scode": "000000", "weight": 1, "position": 68, "begin": 16, "end": 16}, 
                {"id": 16, "text": ".", "type": "SF", "scode": "000000", "weight": 1, "position": 71, "begin": 17, "end": 17}
            ], 
            "word": [
                {"id": 0, "text": "발해의", "type": "", "begin": 0, "end": 1}, 
                {"id": 1, "text": "중앙", "type": "", "begin": 2, "end": 2}, 
                {"id": 2, "text": "관제는", "type": "", "begin": 3, "end": 4}, 
                {"id": 3, "text": "3성과", "type": "", "begin": 5, "end": 7}, 
                {"id": 4, "text": "6부를", "type": "", "begin": 8, "end": 10}, 
                {"id": 5, "text": "근간으로", "type": "", "begin": 11, "end": 12}, 
                {"id": 6, "text": "편성하였다.", "type": "", "begin": 13, "end": 17}
            ], 
            "NE": [
                {"id": 0, "text": "발해", "type": "LCP_COUNTRY", "begin": 0, "end": 0, "weight": 0.682826, "common_noun": 0}, 
                {"id": 1, "text": "중앙", "type": "TM_DIRECTION", "begin": 2, "end": 2, "weight": 0.322801, "common_noun": 0}, 
                {"id": 2, "text": "3성", "type": "OGG_POLITICS", "begin": 5, "end": 6, "weight": 0.388939, "common_noun": 0}, 
                {"id": 3, "text": "6부", "type": "OGG_POLITICS", "begin": 8, "end": 9, "weight": 0.170755, "common_noun": 0}
            ], 
            "chunk": [], 
            "dependency": [
                {"id": 0, "text": "발해의", "head": 2, "label": "NP_MOD", "mod": [], "weight": 0.673302}, 
                {"id": 1, "text": "중앙", "head": 2, "label": "NP", "mod": [], "weight": 0.667877}, 
                {"id": 2, "text": "관제는", "head": 6, "label": "NP_SBJ", "mod": [0, 1], "weight": 0.723529}, 
                {"id": 3, "text": "3성과", "head": 4, "label": "NP_CNJ", "mod": [], "weight": 0.738216}, 
                {"id": 4, "text": "6부를", "head": 5, "label": "NP_OBJ", "mod": [3], "weight": 0.706284}, 
                {"id": 5, "text": "근간으로", "head": 6, "label": "NP_AJT", "mod": [4], "weight": 0.864947}, 
                {"id": 6, "text": "편성하였다.", "head": -1, "label": "VP", "mod": [2, 5], "weight": 0.12563}
            ], 
            "SRL": [
                {"verb": "편성", "sense": 1, "word_id": 6, "weight": 0.124509, "argument": [
                    {"type": "ARG1", "word_id": 2, "text": "관제는", "weight": 1}, 
                    {"type": "ARGM-PRD", "word_id": 5, "text": "근간으로", "weight": 1}
                ]}
            ], 
            "relation": [], 
            "SA": [], 
            "ZA": []
        }, 
        {
            "id": 1, 
            "reserve_str": "", 
            "text": "국정은 3성 중 정당성을 중심으로 운영되었다.", 
            "morp": [
                {"id": 0, "lemma": "국정", "type": "NNG", "position": 72, "weight": 0.9}, 
                {"id": 1, "lemma": "은", "type": "JX", "position": 78, "weight": 0.0449928}, 
                {"id": 2, "lemma": "3", "type": "SN", "position": 82, "weight": 1}, 
                {"id": 3, "lemma": "성", "type": "NNG", "position": 83, "weight": 0.0493039}, 
                {"id": 4, "lemma": "중", "type": "NNB", "position": 87, "weight": 0.013531}, 
                {"id": 5, "lemma": "정당성", "type": "NNG", "position": 91, "weight": 0.9}, 
                {"id": 6, "lemma": "을", "type": "JKO", "position": 100, "weight": 0.0819193}, 
                {"id": 7, "lemma": "중심", "type": "NNG", "position": 104, "weight": 0.9}, 
                {"id": 8, "lemma": "으로", "type": "JKB", "position": 110, "weight": 0.153406}, 
                {"id": 9, "lemma": "운영", "type": "NNG", "position": 117, "weight": 0.207935}, 
                {"id": 10, "lemma": "되", "type": "XSV", "position": 123, "weight": 0.000224177}, 
                {"id": 11, "lemma": "았", "type": "EP", "position": 126, "weight": 0.9}, 
                {"id": 12, "lemma": "다", "type": "EF", "position": 129, "weight": 0.640954}, 
                {"id": 13, "lemma": ".", "type": "SF", "position": 132, "weight": 1}
            ], 
            "morp_eval": [], 
            "WSD": [
                {"id": 0, "text": "국정", "type": "NNG", "scode": "020000", "weight": 0.2, "position": 72, "begin": 0, "end": 0}, 
                {"id": 1, "text": "은", "type": "JX", "scode": "000000", "weight": 1, "position": 78, "begin": 1, "end": 1}, 
                {"id": 2, "text": "3", "type": "SN", "scode": "000000", "weight": 1, "position": 82, "begin": 2, "end": 2}, 
                {"id": 3, "text": "성", "type": "NNG", "scode": "120003", "weight": 0.0344828, "position": 83, "begin": 3, "end": 3}, 
                {"id": 4, "text": "중", "type": "NNB", "scode": "040101", "weight": 0.0526316, "position": 87, "begin": 4, "end": 4}, 
                {"id": 5, "text": "정당성", "type": "NNG", "scode": "020000", "weight": 0.5, "position": 91, "begin": 5, "end": 5}, 
                {"id": 6, "text": "을", "type": "JKO", "scode": "000000", "weight": 1, "position": 100, "begin": 6, "end": 6}, 
                {"id": 7, "text": "중심", "type": "NNG", "scode": "010002", "weight": 0.125, "position": 104, "begin": 7, "end": 7}, 
                {"id": 8, "text": "으로", "type": "JKB", "scode": "000000", "weight": 1, "position": 110, "begin": 8, "end": 8}, 
                {"id": 9, "text": "운영되", "type": "VV", "scode": "000001", "weight": 0.5, "position": 117, "begin": 9, "end": 10}, 
                {"id": 10, "text": "았", "type": "EP", "scode": "000000", "weight": 1, "position": 126, "begin": 11, "end": 11}, 
                {"id": 11, "text": "다", "type": "EF", "scode": "000000", "weight": 1, "position": 129, "begin": 12, "end": 12}, 
                {"id": 12, "text": ".", "type": "SF", "scode": "000000", "weight": 1, "position": 132, "begin": 13, "end": 13}
            ], 
            "word": [
                {"id": 0, "text": "국정은", "type": "", "begin": 0, "end": 1}, 
                {"id": 1, "text": "3성", "type": "", "begin": 2, "end": 3}, 
                {"id": 2, "text": "중", "type": "", "begin": 4, "end": 4}, 
                {"id": 3, "text": "정당성을", "type": "", "begin": 5, "end": 6}, 
                {"id": 4, "text": "중심으로", "type": "", "begin": 7, "end": 8}, 
                {"id": 5, "text": "운영되었다.", "type": "", "begin": 9, "end": 13}
            ], 
            "NE": [
                {"id": 0, "text": "3성", "type": "OGG_POLITICS", "begin": 2, "end": 3, "weight": 0.477048, "common_noun": 0}, 
                {"id": 1, "text": "정당성", "type": "OGG_POLITICS", "begin": 5, "end": 5, "weight": 1, "common_noun": 0}
            ], 
            "chunk": [], 
            "dependency": [
                {"id": 0, "text": "국정은", "head": 5, "label": "NP_SBJ", "mod": [], "weight": 0.617201}, 
                {"id": 1, "text": "3성", "head": 2, "label": "NP", "mod": [], "weight": 0.715146}, 
                {"id": 2, "text": "중", "head": 5, "label": "NP_AJT", "mod": [1], "weight": 0.662444}, 
                {"id": 3, "text": "정당성을", "head": 4, "label": "NP_OBJ", "mod": [], "weight": 0.299299}, 
                {"id": 4, "text": "중심으로", "head": 5, "label": "NP_AJT", "mod": [3], "weight": 0.851225}, 
                {"id": 5, "text": "운영되었다.", "head": -1, "label": "VP", "mod": [0, 2, 4], "weight": 0.0609739}
            ], 
            "SRL": [
                {"verb": "운영", "sense": 1, "word_id": 5, "weight": 0.102109, "argument": [
                    {"type": "ARG1", "word_id": 0, "text": "국정은", "weight": 1}, 
                    {"type": "ARGM-PRD", "word_id": 4, "text": "중심으로", "weight": 1}, 
                    {"type": "ARGM-CND", "word_id": 2, "text": "중", "weight": 1}
                ]}
            ], 
            "relation": [], 
            "SA": [], 
            "ZA": []
        }, 
        {
            "id": 2, 
            "reserve_str": "", 
            "text": "정당성의 장관은 대내상(大內相)으로서 국정을 총괄하였고, 선조성과 중대성의 장관은 좌상(左相), 우상(右相)이었다.", 
            "morp": [
                {"id": 0, "lemma": "정당성", "type": "NNG", "position": 133, "weight": 0.9}, 
                {"id": 1, "lemma": "의", "type": "JKG", "position": 142, "weight": 0.120732}, 
                {"id": 2, "lemma": "장관", "type": "NNG", "position": 146, "weight": 0.871242}, 
                {"id": 3, "lemma": "은", "type": "JX", "position": 152, "weight": 0.0449928}, 
                {"id": 4, "lemma": "대내상", "type": "NNG", "position": 156, "weight": 0.9}, 
                {"id": 5, "lemma": "(", "type": "SS", "position": 165, "weight": 1}, 
                {"id": 6, "lemma": "大內相", "type": "SH", "position": 166, "weight": 1}, 
                {"id": 7, "lemma": ")", "type": "SS", "position": 175, "weight": 1}, 
                {"id": 8, "lemma": "으로서", "type": "JKB", "position": 176, "weight": 0.9}, 
                {"id": 9, "lemma": "국정", "type": "NNG", "position": 186, "weight": 0.9}, 
                {"id": 10, "lemma": "을", "type": "JKO", "position": 192, "weight": 0.129611}, 
                {"id": 11, "lemma": "총괄", "type": "NNG", "position": 196, "weight": 0.9}, 
                {"id": 12, "lemma": "하", "type": "XSV", "position": 202, "weight": 0.0001}, 
                {"id": 13, "lemma": "았", "type": "EP", "position": 205, "weight": 0.9}, 
                {"id": 14, "lemma": "고", "type": "EC", "position": 208, "weight": 0.190901}, 
                {"id": 15, "lemma": ",", "type": "SP", "position": 211, "weight": 1}, 
                {"id": 16, "lemma": "선조성", "type": "NNG", "position": 213, "weight": 0.204559}, 
                {"id": 17, "lemma": "과", "type": "JC", "position": 222, "weight": 0.0096702}, 
                {"id": 18, "lemma": "중대성", "type": "NNG", "position": 226, "weight": 0.785728}, 
                {"id": 19, "lemma": "의", "type": "JKG", "position": 235, "weight": 0.120732}, 
                {"id": 20, "lemma": "장관", "type": "NNG", "position": 239, "weight": 0.871242}, 
                {"id": 21, "lemma": "은", "type": "JX", "position": 245, "weight": 0.0449928}, 
                {"id": 22, "lemma": "좌상", "type": "NNG", "position": 249, "weight": 0.9}, 
                {"id": 23, "lemma": "(", "type": "SS", "position": 255, "weight": 1}, 
                {"id": 24, "lemma": "左相", "type": "SH", "position": 256, "weight": 1}, 
                {"id": 25, "lemma": ")", "type": "SS", "position": 262, "weight": 1}, 
                {"id": 26, "lemma": ",", "type": "SP", "position": 263, "weight": 1}, 
                {"id": 27, "lemma": "우상", "type": "NNG", "position": 265, "weight": 0.524927}, 
                {"id": 28, "lemma": "(", "type": "SS", "position": 271, "weight": 1}, 
                {"id": 29, "lemma": "右相", "type": "SH", "position": 272, "weight": 1}, 
                {"id": 30, "lemma": ")", "type": "SS", "position": 278, "weight": 1}, 
                {"id": 31, "lemma": "이", "type": "VCP", "position": 279, "weight": 0.00747344}, 
                {"id": 32, "lemma": "었", "type": "EP", "position": 282, "weight": 0.9}, 
                {"id": 33, "lemma": "다", "type": "EF", "position": 285, "weight": 0.640954}, 
                {"id": 34, "lemma": ".", "type": "SF", "position": 288, "weight": 1}
            ], 
            "morp_eval": [], 
            "WSD": [
                {"id": 0, "text": "정당성", "type": "NNG", "scode": "020000", "weight": 0.5, "position": 133, "begin": 0, "end": 0}, 
                {"id": 1, "text": "의", "type": "JKG", "scode": "000000", "weight": 1, "position": 142, "begin": 1, "end": 1}, 
                {"id": 2, "text": "장관", "type": "NNG", "scode": "020002", "weight": 0.1, "position": 146, "begin": 2, "end": 2}, 
                {"id": 3, "text": "은", "type": "JX", "scode": "000000", "weight": 1, "position": 152, "begin": 3, "end": 3}, 
                {"id": 4, "text": "대내상", "type": "NNG", "scode": "000000", "weight": 1, "position": 156, "begin": 4, "end": 4}, 
                {"id": 5, "text": "(", "type": "SS", "scode": "000000", "weight": 1, "position": 165, "begin": 5, "end": 5}, 
                {"id": 6, "text": "大內相", "type": "SH", "scode": "000000", "weight": 1, "position": 166, "begin": 6, "end": 6}, 
                {"id": 7, "text": ")", "type": "SS", "scode": "000000", "weight": 1, "position": 175, "begin": 7, "end": 7}, 
                {"id": 8, "text": "으로서", "type": "JKB", "scode": "000000", "weight": 1, "position": 176, "begin": 8, "end": 8}, 
                {"id": 9, "text": "국정", "type": "NNG", "scode": "020000", "weight": 0.2, "position": 186, "begin": 9, "end": 9}, 
                {"id": 10, "text": "을", "type": "JKO", "scode": "000000", "weight": 1, "position": 192, "begin": 10, "end": 10}, 
                {"id": 11, "text": "총괄하", "type": "VV", "scode": "000002", "weight": 0.333333, "position": 196, "begin": 11, "end": 12}, 
                {"id": 12, "text": "았", "type": "EP", "scode": "000000", "weight": 1, "position": 205, "begin": 13, "end": 13}, 
                {"id": 13, "text": "고", "type": "EC", "scode": "000000", "weight": 1, "position": 208, "begin": 14, "end": 14}, 
                {"id": 14, "text": ",", "type": "SP", "scode": "000000", "weight": 1, "position": 211, "begin": 15, "end": 15}, 
                {"id": 15, "text": "선조성", "type": "NNG", "scode": "010000", "weight": 0.5, "position": 213, "begin": 16, "end": 16}, 
                {"id": 16, "text": "과", "type": "JC", "scode": "000000", "weight": 1, "position": 222, "begin": 17, "end": 17}, 
                {"id": 17, "text": "중대성", "type": "NNG", "scode": "010001", "weight": 0.333333, "position": 226, "begin": 18, "end": 18}, 
                {"id": 18, "text": "의", "type": "JKG", "scode": "000000", "weight": 1, "position": 235, "begin": 19, "end": 19}, 
                {"id": 19, "text": "장관", "type": "NNG", "scode": "020002", "weight": 0.1, "position": 239, "begin": 20, "end": 20}, 
                {"id": 20, "text": "은", "type": "JX", "scode": "000000", "weight": 1, "position": 245, "begin": 21, "end": 21}, 
                {"id": 21, "text": "좌상", "type": "NNG", "scode": "010000", "weight": 0.1, "position": 249, "begin": 22, "end": 22}, 
                {"id": 22, "text": "(", "type": "SS", "scode": "000000", "weight": 1, "position": 255, "begin": 23, "end": 23}, 
                {"id": 23, "text": "左相", "type": "SH", "scode": "000000", "weight": 1, "position": 256, "begin": 24, "end": 24}, 
                {"id": 24, "text": ")", "type": "SS", "scode": "000000", "weight": 1, "position": 262, "begin": 25, "end": 25}, 
                {"id": 25, "text": ",", "type": "SP", "scode": "000000", "weight": 1, "position": 263, "begin": 26, "end": 26}, 
                {"id": 26, "text": "우상", "type": "NNG", "scode": "010001", "weight": 0.0909091, "position": 265, "begin": 27, "end": 27}, 
                {"id": 27, "text": "(", "type": "SS", "scode": "000000", "weight": 1, "position": 271, "begin": 28, "end": 28}, 
                {"id": 28, "text": "右相", "type": "SH", "scode": "000000", "weight": 1, "position": 272, "begin": 29, "end": 29}, 
                {"id": 29, "text": ")", "type": "SS", "scode": "000000", "weight": 1, "position": 278, "begin": 30, "end": 30}, 
                {"id": 30, "text": "이", "type": "VCP", "scode": "030000", "weight": 0.0172414, "position": 279, "begin": 31, "end": 31}, 
                {"id": 31, "text": "었", "type": "EP", "scode": "000000", "weight": 1, "position": 282, "begin": 32, "end": 32}, 
                {"id": 32, "text": "다", "type": "EF", "scode": "000000", "weight": 1, "position": 285, "begin": 33, "end": 33}, 
                {"id": 33, "text": ".", "type": "SF", "scode": "000000", "weight": 1, "position": 288, "begin": 34, "end": 34}
            ], 
            "word": [
                {"id": 0, "text": "정당성의", "type": "", "begin": 0, "end": 1}, 
                {"id": 1, "text": "장관은", "type": "", "begin": 2, "end": 3}, 
                {"id": 2, "text": "대내상(大內相)으로서", "type": "", "begin": 4, "end": 8}, 
                {"id": 3, "text": "국정을", "type": "", "begin": 9, "end": 10}, 
                {"id": 4, "text": "총괄하였고,", "type": "", "begin": 11, "end": 15}, 
                {"id": 5, "text": "선조성과", "type": "", "begin": 16, "end": 17}, 
                {"id": 6, "text": "중대성의", "type": "", "begin": 18, "end": 19}, 
                {"id": 7, "text": "장관은", "type": "", "begin": 20, "end": 21}, 
                {"id": 8, "text": "좌상(左相),", "type": "", "begin": 22, "end": 26}, 
                {"id": 9, "text": "우상(右相)이었다.", "type": "", "begin": 27, "end": 34}
            ], 
            "NE": [
                {"id": 0, "text": "정당성", "type": "OGG_POLITICS", "begin": 0, "end": 0, "weight": 0.257688, "common_noun": 0}, 
                {"id": 1, "text": "장관", "type": "CV_POSITION", "begin": 2, "end": 2, "weight": 0.623603, "common_noun": 0}, 
                {"id": 2, "text": "대내상", "type": "CV_POSITION", "begin": 4, "end": 4, "weight": 0.274302, "common_noun": 0}, 
                {"id": 3, "text": "大內相", "type": "CV_POSITION", "begin": 6, "end": 6, "weight": 1, "common_noun": 0}, 
                {"id": 4, "text": "선조성", "type": "OGG_POLITICS", "begin": 16, "end": 16, "weight": 0.243823, "common_noun": 0}, 
                {"id": 5, "text": "중대성", "type": "OGG_POLITICS", "begin": 18, "end": 18, "weight": 0.436422, "common_noun": 0}, 
                {"id": 6, "text": "장관", "type": "CV_POSITION", "begin": 20, "end": 20, "weight": 0.569629, "common_noun": 0}, 
                {"id": 7, "text": "좌상", "type": "CV_POSITION", "begin": 22, "end": 22, "weight": 0.569629, "common_noun": 0}, 
                {"id": 8, "text": "左相", "type": "CV_POSITION", "begin": 24, "end": 24, "weight": 0.569629, "common_noun": 0}, 
                {"id": 9, "text": "우상", "type": "CV_POSITION", "begin": 27, "end": 27, "weight": 0.276691, "common_noun": 0}, 
                {"id": 10, "text": "右相", "type": "CV_POSITION", "begin": 29, "end": 29, "weight": 0.276691, "common_noun": 0}
            ], 
            "chunk": [], 
            "dependency": [
                {"id": 0, "text": "정당성의", "head": 1, "label": "NP_MOD", "mod": [], "weight": 0.692831}, 
                {"id": 1, "text": "장관은", "head": 2, "label": "NP_SBJ", "mod": [0], "weight": 0.782335}, 
                {"id": 2, "text": "대내상(大內相)으로서", "head": 4, "label": "NP_AJT", "mod": [1], "weight": 0.61927}, 
                {"id": 3, "text": "국정을", "head": 4, "label": "NP_OBJ", "mod": [], "weight": 0.689905}, 
                {"id": 4, "text": "총괄하였고,", "head": 9, "label": "VP", "mod": [2, 3], "weight": 0.714957}, 
                {"id": 5, "text": "선조성과", "head": 6, "label": "NP_CNJ", "mod": [], "weight": 0.569956}, 
                {"id": 6, "text": "중대성의", "head": 7, "label": "NP_MOD", "mod": [5], "weight": 0.746535}, 
                {"id": 7, "text": "장관은", "head": 9, "label": "NP_SBJ", "mod": [6], "weight": 0.759641}, 
                {"id": 8, "text": "좌상(左相),", "head": 9, "label": "NP_CNJ", "mod": [], "weight": 0.449665}, 
                {"id": 9, "text": "우상(右相)이었다.", "head": -1, "label": "VNP", "mod": [4, 7, 8], "weight": 0.0171108}
            ], 
            "SRL": [
                {"verb": "총괄", "sense": 1, "word_id": 4, "weight": 0.155813, "argument": [
                    {"type": "ARG0", "word_id": 1, "text": "장관은", "weight": 0.169128}, 
                    {"type": "ARGM-CND", "word_id": 2, "text": "대내상(大內相)으로서", "weight": 1}, 
                    {"type": "ARG1", "word_id": 3, "text": "국정을", "weight": 0.226335}
                ]}
            ], 
            "relation": [], 
            "SA": [], 
            "ZA": []
        }
    ], 
    "entity": [
        {"id": 0, "type": "", "number": "singular", "gender": "", "person": "", "animacy": "thing", "mention": [
            {"id": 0, "sent_id": 0, "start_eid": 0, "end_eid": 2, "ne_id": -1, "text": "발해의 중앙 관제는", "start_eid_short": 1, "end_eid_short": 2, "text_short": "중앙 관제는"}
        ]}, 
        {"id": 1, "type": "LCP_COUNTRY", "number": "singular", "gender": "", "person": "", "animacy": "place", "mention": [
            {"id": 1, "sent_id": 0, "start_eid": 0, "end_eid": 0, "ne_id": 0, "text": "발해의", "start_eid_short": 0, "end_eid_short": 0, "text_short": "발해의"}
        ]}, 
        {"id": 2, "type": "", "number": "singular", "gender": "", "person": "", "animacy": "thing", "mention": [
            {"id": 2, "sent_id": 0, "start_eid": 1, "end_eid": 1, "ne_id": -1, "text": "중앙", "start_eid_short": 1, "end_eid_short": 1, "text_short": "중앙"}
        ]}, 
        {"id": 3, "type": "QT_COUNT", "number": "singular", "gender": "", "person": "", "animacy": "thing", "mention": [
            {"id": 5, "sent_id": 0, "start_eid": 3, "end_eid": 3, "ne_id": 1, "text": "3성과", "start_eid_short": 3, "end_eid_short": 3, "text_short": "3성과"}, 
            {"id": 8, "sent_id": 1, "start_eid": 1, "end_eid": 1, "ne_id": 0, "text": "3성", "start_eid_short": 1, "end_eid_short": 1, "text_short": "3성"}
        ]}, 
        {"id": 4, "type": "", "number": "singular", "gender": "", "person": "", "animacy": "thing", "mention": [
            {"id": 3, "sent_id": 0, "start_eid": 3, "end_eid": 5, "ne_id": -1, "text": "3성과 6부를 근간으로", "start_eid_short": 5, "end_eid_short": 5, "text_short": "근간으로"}
        ]}, 
        {"id": 5, "type": "", "number": "singular", "gender": "", "person": "", "animacy": "thing", "mention": [
            {"id": 6, "sent_id": 1, "start_eid": 0, "end_eid": 0, "ne_id": -1, "text": "국정은", "start_eid_short": 0, "end_eid_short": 0, "text_short": "국정은"}, 
            {"id": 13, "sent_id": 2, "start_eid": 3, "end_eid": 3, "ne_id": -1, "text": "국정을", "start_eid_short": 3, "end_eid_short": 3, "text_short": "국정을"}
        ]}, 
        {"id": 6, "type": "", "number": "singular", "gender": "", "person": "", "animacy": "thing", "mention": [
            {"id": 7, "sent_id": 1, "start_eid": 1, "end_eid": 4, "ne_id": -1, "text": "3성 중 정당성을 중심으로", "start_eid_short": 4, "end_eid_short": 4, "text_short": "중심으로"}
        ]}, 
        {"id": 7, "type": "OGG_POLITICS", "number": "singular", "gender": "", "person": "", "animacy": "thing", "mention": [
            {"id": 9, "sent_id": 1, "start_eid": 3, "end_eid": 3, "ne_id": 1, "text": "정당성을", "start_eid_short": 3, "end_eid_short": 3, "text_short": "정당성을"}, 
            {"id": 11, "sent_id": 2, "start_eid": 0, "end_eid": 0, "ne_id": 0, "text": "정당성의", "start_eid_short": 0, "end_eid_short": 0, "text_short": "정당성의"}
        ]}, 
        {"id": 8, "type": "CV_POSITION", "number": "plural", "gender": "", "person": "", "animacy": "human", "mention": [
            {"id": 14, "sent_id": 2, "start_eid": 5, "end_eid": 7, "ne_id": 6, "text": "선조성과 중대성의 장관은", "start_eid_short": 7, "end_eid_short": 7, "text_short": "장관은"}, 
            {"id": 17, "sent_id": 2, "start_eid": 8, "end_eid": 9, "ne_id": 7, "text": "좌상(左相), 우상(右相)이었다.", "start_eid_short": 8, "end_eid_short": 0, "text_short": ""}
        ]}, 
        {"id": 9, "type": "CV_POSITION", "number": "singular", "gender": "", "person": "", "animacy": "human", "mention": [
            {"id": 10, "sent_id": 2, "start_eid": 0, "end_eid": 1, "ne_id": 1, "text": "정당성의 장관은", "start_eid_short": 1, "end_eid_short": 1, "text_short": "장관은"}, 
            {"id": 12, "sent_id": 2, "start_eid": 2, "end_eid": 2, "ne_id": 2, "text": "대내상(大內相)으로서", "start_eid_short": 2, "end_eid_short": 0, "text_short": ""}
        ]}, 
        {"id": 10, "type": "OGG_POLITICS", "number": "singular", "gender": "", "person": "", "animacy": "thing", "mention": [
            {"id": 15, "sent_id": 2, "start_eid": 5, "end_eid": 5, "ne_id": 4, "text": "선조성과", "start_eid_short": 5, "end_eid_short": 5, "text_short": "선조성과"}, 
            {"id": 18, "sent_id": 2, "start_eid": 8, "end_eid": 8, "ne_id": -1, "text": "좌상(左相),", "start_eid_short": 8, "end_eid_short": 0, "text_short": ""}
        ]}, 
        {"id": 11, "type": "QT_COUNT", "number": "plural", "gender": "", "person": "", "animacy": "thing", "mention": [
            {"id": 4, "sent_id": 0, "start_eid": 3, "end_eid": 4, "ne_id": 2, "text": "3성과 6부를", "start_eid_short": 4, "end_eid_short": 4, "text_short": "6부를"}
        ]}, 
        {"id": 12, "type": "CV_POSITION", "number": "singular", "gender": "", "person": "", "animacy": "human", "mention": [
            {"id": 16, "sent_id": 2, "start_eid": 6, "end_eid": 7, "ne_id": 6, "text": "중대성의 장관은", "start_eid_short": 7, "end_eid_short": 7, "text_short": "장관은"}, 
            {"id": 19, "sent_id": 2, "start_eid": 9, "end_eid": 9, "ne_id": 7, "text": "우상(右相)이었다.", "start_eid_short": 9, "end_eid_short": 0, "text_short": ""}
        ]}
    ]
}