{
    "doc_id": "E2016.887.03_A_01.json", 
    "DCT": "", 
    "category": "", 
    "category_weight": 0, 
    "title": {
        "text": "토머스 제퍼슨", 
        "NE": ""
    }, 
    "metaInfo": {}, 
    "sentence": [
        {
            "id": 0, 
            "reserve_str": "", 
            "text": "토머스 제퍼슨(Thomas Jefferson, 1743년 4월 13일 ~ 1826년 7월 4일)은 미국의 정치인으로 3번째 미국 대통령(재임 1801년 ~1809년)이자 미국 독립 선언서의 기초자이다(1776년).", 
            "morp": [
                {"id": 0, "lemma": "토머스", "type": "NNP", "position": 0, "weight": 0.9}, 
                {"id": 1, "lemma": "제퍼슨", "type": "NNP", "position": 10, "weight": 0.8}, 
                {"id": 2, "lemma": "(", "type": "SS", "position": 19, "weight": 1}, 
                {"id": 3, "lemma": "Thomas", "type": "SL", "position": 20, "weight": 1}, 
                {"id": 4, "lemma": "Jefferson", "type": "SL", "position": 27, "weight": 1}, 
                {"id": 5, "lemma": ",", "type": "SP", "position": 36, "weight": 1}, 
                {"id": 6, "lemma": "1743", "type": "SN", "position": 38, "weight": 1}, 
                {"id": 7, "lemma": "년", "type": "NNB", "position": 42, "weight": 0.414343}, 
                {"id": 8, "lemma": "4", "type": "SN", "position": 46, "weight": 1}, 
                {"id": 9, "lemma": "월", "type": "NNB", "position": 47, "weight": 0.408539}, 
                {"id": 10, "lemma": "13", "type": "SN", "position": 51, "weight": 1}, 
                {"id": 11, "lemma": "일", "type": "NNB", "position": 53, "weight": 0.126777}, 
                {"id": 12, "lemma": "~", "type": "SO", "position": 57, "weight": 1}, 
                {"id": 13, "lemma": "1826", "type": "SN", "position": 59, "weight": 1}, 
                {"id": 14, "lemma": "년", "type": "NNB", "position": 63, "weight": 0.414343}, 
                {"id": 15, "lemma": "7", "type": "SN", "position": 67, "weight": 1}, 
                {"id": 16, "lemma": "월", "type": "NNB", "position": 68, "weight": 0.408539}, 
                {"id": 17, "lemma": "4", "type": "SN", "position": 72, "weight": 1}, 
                {"id": 18, "lemma": "일", "type": "NNB", "position": 73, "weight": 0.126777}, 
                {"id": 19, "lemma": ")", "type": "SS", "position": 76, "weight": 1}, 
                {"id": 20, "lemma": "은", "type": "JX", "position": 77, "weight": 0.0128817}, 
                {"id": 21, "lemma": "미국", "type": "NNP", "position": 81, "weight": 0.0448659}, 
                {"id": 22, "lemma": "의", "type": "JKG", "position": 87, "weight": 0.0987295}, 
                {"id": 23, "lemma": "정치", "type": "NNG", "position": 91, "weight": 0.9}, 
                {"id": 24, "lemma": "인", "type": "XSN", "position": 97, "weight": 0.0198339}, 
                {"id": 25, "lemma": "으로", "type": "JKB", "position": 100, "weight": 0.121717}, 
                {"id": 26, "lemma": "3", "type": "SN", "position": 107, "weight": 1}, 
                {"id": 27, "lemma": "번째", "type": "NNB", "position": 108, "weight": 0.415311}, 
                {"id": 28, "lemma": "미국", "type": "NNP", "position": 115, "weight": 0.0152661}, 
                {"id": 29, "lemma": "대통령", "type": "NNG", "position": 122, "weight": 0.9}, 
                {"id": 30, "lemma": "(", "type": "SS", "position": 131, "weight": 1}, 
                {"id": 31, "lemma": "재임", "type": "NNG", "position": 132, "weight": 0.9}, 
                {"id": 32, "lemma": "1801", "type": "SN", "position": 139, "weight": 1}, 
                {"id": 33, "lemma": "년", "type": "NNB", "position": 143, "weight": 0.414343}, 
                {"id": 34, "lemma": "~", "type": "SO", "position": 147, "weight": 1}, 
                {"id": 35, "lemma": "1809", "type": "SN", "position": 148, "weight": 1}, 
                {"id": 36, "lemma": "년", "type": "NNB", "position": 152, "weight": 0.414343}, 
                {"id": 37, "lemma": ")", "type": "SS", "position": 155, "weight": 1}, 
                {"id": 38, "lemma": "이", "type": "VCP", "position": 156, "weight": 0.00747344}, 
                {"id": 39, "lemma": "자", "type": "EC", "position": 159, "weight": 0.109096}, 
                {"id": 40, "lemma": "미국", "type": "NNP", "position": 163, "weight": 0.0219717}, 
                {"id": 41, "lemma": "독립", "type": "NNG", "position": 170, "weight": 0.9}, 
                {"id": 42, "lemma": "선언", "type": "NNG", "position": 177, "weight": 0.184652}, 
                {"id": 43, "lemma": "서", "type": "NNG", "position": 183, "weight": 0.00374413}, 
                {"id": 44, "lemma": "의", "type": "JKG", "position": 186, "weight": 0.0694213}, 
                {"id": 45, "lemma": "기초", "type": "NNG", "position": 190, "weight": 0.9}, 
                {"id": 46, "lemma": "자", "type": "XSN", "position": 196, "weight": 0.00398741}, 
                {"id": 47, "lemma": "이", "type": "VCP", "position": 199, "weight": 0.0165001}, 
                {"id": 48, "lemma": "다", "type": "EF", "position": 202, "weight": 0.353579}, 
                {"id": 49, "lemma": "(", "type": "SS", "position": 205, "weight": 1}, 
                {"id": 50, "lemma": "1776", "type": "SN", "position": 206, "weight": 1}, 
                {"id": 51, "lemma": "년", "type": "NNB", "position": 210, "weight": 0.414343}, 
                {"id": 52, "lemma": ")", "type": "SS", "position": 213, "weight": 1}, 
                {"id": 53, "lemma": ".", "type": "SF", "position": 214, "weight": 1}
            ], 
            "morp_eval": [], 
            "WSD": [
                {"id": 0, "text": "토머스", "type": "NNP", "scode": "888888", "weight": 0.333333, "position": 0, "begin": 0, "end": 0}, 
                {"id": 1, "text": "제퍼슨", "type": "NNP", "scode": "000000", "weight": 1, "position": 10, "begin": 1, "end": 1}, 
                {"id": 2, "text": "(", "type": "SS", "scode": "000000", "weight": 1, "position": 19, "begin": 2, "end": 2}, 
                {"id": 3, "text": "Thomas", "type": "SL", "scode": "000000", "weight": 1, "position": 20, "begin": 3, "end": 3}, 
                {"id": 4, "text": "Jefferson", "type": "SL", "scode": "000000", "weight": 1, "position": 27, "begin": 4, "end": 4}, 
                {"id": 5, "text": ",", "type": "SP", "scode": "000000", "weight": 1, "position": 36, "begin": 5, "end": 5}, 
                {"id": 6, "text": "1743", "type": "SN", "scode": "000000", "weight": 1, "position": 38, "begin": 6, "end": 6}, 
                {"id": 7, "text": "년", "type": "NNB", "scode": "020000", "weight": 0.166667, "position": 42, "begin": 7, "end": 7}, 
                {"id": 8, "text": "4", "type": "SN", "scode": "000000", "weight": 1, "position": 46, "begin": 8, "end": 8}, 
                {"id": 9, "text": "월", "type": "NNB", "scode": "020100", "weight": 0.125, "position": 47, "begin": 9, "end": 9}, 
                {"id": 10, "text": "13", "type": "SN", "scode": "000000", "weight": 1, "position": 51, "begin": 10, "end": 10}, 
                {"id": 11, "text": "일", "type": "NNB", "scode": "070100", "weight": 0.04, "position": 53, "begin": 11, "end": 11}, 
                {"id": 12, "text": "~", "type": "SO", "scode": "000000", "weight": 1, "position": 57, "begin": 12, "end": 12}, 
                {"id": 13, "text": "1826", "type": "SN", "scode": "000000", "weight": 1, "position": 59, "begin": 13, "end": 13}, 
                {"id": 14, "text": "년", "type": "NNB", "scode": "020000", "weight": 0.166667, "position": 63, "begin": 14, "end": 14}, 
                {"id": 15, "text": "7", "type": "SN", "scode": "000000", "weight": 1, "position": 67, "begin": 15, "end": 15}, 
                {"id": 16, "text": "월", "type": "NNB", "scode": "020100", "weight": 0.125, "position": 68, "begin": 16, "end": 16}, 
                {"id": 17, "text": "4", "type": "SN", "scode": "000000", "weight": 1, "position": 72, "begin": 17, "end": 17}, 
                {"id": 18, "text": "일", "type": "NNB", "scode": "070100", "weight": 0.04, "position": 73, "begin": 18, "end": 18}, 
                {"id": 19, "text": ")", "type": "SS", "scode": "000000", "weight": 1, "position": 76, "begin": 19, "end": 19}, 
                {"id": 20, "text": "은", "type": "JX", "scode": "000000", "weight": 1, "position": 77, "begin": 20, "end": 20}, 
                {"id": 21, "text": "미국", "type": "NNP", "scode": "030000", "weight": 0.333333, "position": 81, "begin": 21, "end": 21}, 
                {"id": 22, "text": "의", "type": "JKG", "scode": "000000", "weight": 1, "position": 87, "begin": 22, "end": 22}, 
                {"id": 23, "text": "정치인", "type": "NNG", "scode": "000000", "weight": 1, "position": 91, "begin": 23, "end": 24}, 
                {"id": 24, "text": "으로", "type": "JKB", "scode": "000000", "weight": 1, "position": 100, "begin": 25, "end": 25}, 
                {"id": 25, "text": "3", "type": "SN", "scode": "000000", "weight": 1, "position": 107, "begin": 26, "end": 26}, 
                {"id": 26, "text": "번째", "type": "NNB", "scode": "000000", "weight": 1, "position": 108, "begin": 27, "end": 27}, 
                {"id": 27, "text": "미국", "type": "NNP", "scode": "030000", "weight": 0.333333, "position": 115, "begin": 28, "end": 28}, 
                {"id": 28, "text": "대통령", "type": "NNG", "scode": "000000", "weight": 1, "position": 122, "begin": 29, "end": 29}, 
                {"id": 29, "text": "(", "type": "SS", "scode": "000000", "weight": 1, "position": 131, "begin": 30, "end": 30}, 
                {"id": 30, "text": "재임", "type": "NNG", "scode": "030000", "weight": 0.25, "position": 132, "begin": 31, "end": 31}, 
                {"id": 31, "text": "1801", "type": "SN", "scode": "000000", "weight": 1, "position": 139, "begin": 32, "end": 32}, 
                {"id": 32, "text": "년", "type": "NNB", "scode": "020000", "weight": 0.166667, "position": 143, "begin": 33, "end": 33}, 
                {"id": 33, "text": "~", "type": "SO", "scode": "000000", "weight": 1, "position": 147, "begin": 34, "end": 34}, 
                {"id": 34, "text": "1809", "type": "SN", "scode": "000000", "weight": 1, "position": 148, "begin": 35, "end": 35}, 
                {"id": 35, "text": "년", "type": "NNB", "scode": "020000", "weight": 0.166667, "position": 152, "begin": 36, "end": 36}, 
                {"id": 36, "text": ")", "type": "SS", "scode": "000000", "weight": 1, "position": 155, "begin": 37, "end": 37}, 
                {"id": 37, "text": "이", "type": "VCP", "scode": "030000", "weight": 0.0172414, "position": 156, "begin": 38, "end": 38}, 
                {"id": 38, "text": "자", "type": "EC", "scode": "000000", "weight": 1, "position": 159, "begin": 39, "end": 39}, 
                {"id": 39, "text": "미국", "type": "NNP", "scode": "030000", "weight": 0.333333, "position": 163, "begin": 40, "end": 40}, 
                {"id": 40, "text": "독립", "type": "NNG", "scode": "000004", "weight": 0.25, "position": 170, "begin": 41, "end": 41}, 
                {"id": 41, "text": "선언서", "type": "NNG", "scode": "000000", "weight": 1, "position": 177, "begin": 42, "end": 43}, 
                {"id": 42, "text": "의", "type": "JKG", "scode": "000000", "weight": 1, "position": 186, "begin": 44, "end": 44}, 
                {"id": 43, "text": "기초자", "type": "NNG", "scode": "000000", "weight": 1, "position": 190, "begin": 45, "end": 46}, 
                {"id": 44, "text": "이", "type": "VCP", "scode": "030000", "weight": 0.0172414, "position": 199, "begin": 47, "end": 47}, 
                {"id": 45, "text": "다", "type": "EF", "scode": "000000", "weight": 1, "position": 202, "begin": 48, "end": 48}, 
                {"id": 46, "text": "(", "type": "SS", "scode": "000000", "weight": 1, "position": 205, "begin": 49, "end": 49}, 
                {"id": 47, "text": "1776", "type": "SN", "scode": "000000", "weight": 1, "position": 206, "begin": 50, "end": 50}, 
                {"id": 48, "text": "년", "type": "NNB", "scode": "020000", "weight": 0.166667, "position": 210, "begin": 51, "end": 51}, 
                {"id": 49, "text": ")", "type": "SS", "scode": "000000", "weight": 1, "position": 213, "begin": 52, "end": 52}, 
                {"id": 50, "text": ".", "type": "SF", "scode": "000000", "weight": 1, "position": 214, "begin": 53, "end": 53}
            ], 
            "word": [
                {"id": 0, "text": "토머스", "type": "", "begin": 0, "end": 0}, 
                {"id": 1, "text": "제퍼슨(Thomas", "type": "", "begin": 1, "end": 3}, 
                {"id": 2, "text": "Jefferson,", "type": "", "begin": 4, "end": 5}, 
                {"id": 3, "text": "1743년", "type": "", "begin": 6, "end": 7}, 
                {"id": 4, "text": "4월", "type": "", "begin": 8, "end": 9}, 
                {"id": 5, "text": "13일", "type": "", "begin": 10, "end": 11}, 
                {"id": 6, "text": "~", "type": "", "begin": 12, "end": 12}, 
                {"id": 7, "text": "1826년", "type": "", "begin": 13, "end": 14}, 
                {"id": 8, "text": "7월", "type": "", "begin": 15, "end": 16}, 
                {"id": 9, "text": "4일)은", "type": "", "begin": 17, "end": 20}, 
                {"id": 10, "text": "미국의", "type": "", "begin": 21, "end": 22}, 
                {"id": 11, "text": "정치인으로", "type": "", "begin": 23, "end": 25}, 
                {"id": 12, "text": "3번째", "type": "", "begin": 26, "end": 27}, 
                {"id": 13, "text": "미국", "type": "", "begin": 28, "end": 28}, 
                {"id": 14, "text": "대통령(재임", "type": "", "begin": 29, "end": 31}, 
                {"id": 15, "text": "1801년", "type": "", "begin": 32, "end": 33}, 
                {"id": 16, "text": "~1809년)이자", "type": "", "begin": 34, "end": 39}, 
                {"id": 17, "text": "미국", "type": "", "begin": 40, "end": 40}, 
                {"id": 18, "text": "독립", "type": "", "begin": 41, "end": 41}, 
                {"id": 19, "text": "선언서의", "type": "", "begin": 42, "end": 44}, 
                {"id": 20, "text": "기초자이다(1776년).", "type": "", "begin": 45, "end": 53}
            ], 
            "NE": [
                {"id": 0, "text": "토머스 제퍼슨", "type": "PS_NAME", "begin": 0, "end": 1, "weight": 0.720232, "common_noun": 0}, 
                {"id": 1, "text": "Thomas Jefferson", "type": "PS_NAME", "begin": 3, "end": 4, "weight": 0.720232, "common_noun": 0}, 
                {"id": 2, "text": "1743년 4월 13일 ~ 1826년 7월 4일", "type": "DT_DURATION", "begin": 6, "end": 18, "weight": 1, "common_noun": 0}, 
                {"id": 3, "text": "미국", "type": "LCP_COUNTRY", "begin": 21, "end": 21, "weight": 0.519302, "common_noun": 0}, 
                {"id": 4, "text": "정치인", "type": "CV_OCCUPATION", "begin": 23, "end": 24, "weight": 0.919137, "common_noun": 0}, 
                {"id": 5, "text": "3번째", "type": "QT_ORDER", "begin": 26, "end": 27, "weight": 0.537831, "common_noun": 0}, 
                {"id": 6, "text": "미국", "type": "LCP_COUNTRY", "begin": 28, "end": 28, "weight": 0.48332, "common_noun": 0}, 
                {"id": 7, "text": "대통령", "type": "CV_POSITION", "begin": 29, "end": 29, "weight": 0.647107, "common_noun": 0}, 
                {"id": 8, "text": "1801년 ~1809년", "type": "DT_DURATION", "begin": 32, "end": 36, "weight": 0.699459, "common_noun": 0}, 
                {"id": 9, "text": "미국 독립 선언서", "type": "AFW_DOCUMENT", "begin": 40, "end": 43, "weight": 0.310646, "common_noun": 0}, 
                {"id": 10, "text": "1776년", "type": "DT_YEAR", "begin": 50, "end": 51, "weight": 0.895426, "common_noun": 0}
            ], 
            "chunk": [], 
            "dependency": [
                {"id": 0, "text": "토머스", "head": 1, "label": "NP", "mod": [], "weight": 0.797858}, 
                {"id": 1, "text": "제퍼슨(Thomas", "head": 2, "label": "NP", "mod": [0], "weight": 0.875722}, 
                {"id": 2, "text": "Jefferson,", "head": 9, "label": "NP", "mod": [1], "weight": 0.469041}, 
                {"id": 3, "text": "1743년", "head": 4, "label": "NP", "mod": [], "weight": 0.635273}, 
                {"id": 4, "text": "4월", "head": 5, "label": "NP", "mod": [3], "weight": 0.759495}, 
                {"id": 5, "text": "13일", "head": 6, "label": "NP", "mod": [4], "weight": 0.47539}, 
                {"id": 6, "text": "~", "head": 7, "label": "X", "mod": [5], "weight": 0.46582}, 
                {"id": 7, "text": "1826년", "head": 8, "label": "NP", "mod": [6], "weight": 0.609303}, 
                {"id": 8, "text": "7월", "head": 9, "label": "NP", "mod": [7], "weight": 0.72792}, 
                {"id": 9, "text": "4일)은", "head": 11, "label": "NP_SBJ", "mod": [2, 8], "weight": 0.0898832}, 
                {"id": 10, "text": "미국의", "head": 11, "label": "NP_MOD", "mod": [], "weight": 0.79899}, 
                {"id": 11, "text": "정치인으로", "head": 16, "label": "NP_AJT", "mod": [10, 9], "weight": 0.0773527}, 
                {"id": 12, "text": "3번째", "head": 14, "label": "NP", "mod": [], "weight": 0.642523}, 
                {"id": 13, "text": "미국", "head": 14, "label": "NP", "mod": [], "weight": 0.844388}, 
                {"id": 14, "text": "대통령(재임", "head": 15, "label": "NP", "mod": [12, 13], "weight": 0.111692}, 
                {"id": 15, "text": "1801년", "head": 16, "label": "NP", "mod": [14], "weight": 0.631577}, 
                {"id": 16, "text": "~1809년)이자", "head": 20, "label": "VNP", "mod": [11, 15], "weight": 0.704566}, 
                {"id": 17, "text": "미국", "head": 19, "label": "NP", "mod": [], "weight": 0.783487}, 
                {"id": 18, "text": "독립", "head": 19, "label": "NP", "mod": [], "weight": 0.766683}, 
                {"id": 19, "text": "선언서의", "head": 20, "label": "NP_MOD", "mod": [17, 18], "weight": 0.789188}, 
                {"id": 20, "text": "기초자이다(1776년).", "head": -1, "label": "VNP", "mod": [16, 19], "weight": 8.61228e-07}
            ], 
            "SRL": [], 
            "relation": [], 
            "SA": [], 
            "ZA": []
        }
    ], 
    "entity": [
        {"id": 0, "type": "DT_DURATION", "number": "singular", "gender": "", "person": "", "animacy": "time", "mention": [
            {"id": 0, "sent_id": 0, "start_eid": 0, "end_eid": 9, "ne_id": 1, "text": "토머스 제퍼슨(Thomas Jefferson, 1743년 4월 13일 ~ 1826년 7월 4일)은", "start_eid_short": 9, "end_eid_short": 9, "text_short": "4일)은"}, 
            {"id": 1, "sent_id": 0, "start_eid": 10, "end_eid": 11, "ne_id": 3, "text": "미국의 정치인으로", "start_eid_short": 11, "end_eid_short": 11, "text_short": "정치인으로"}, 
            {"id": 3, "sent_id": 0, "start_eid": 12, "end_eid": 20, "ne_id": 9, "text": "3번째 미국 대통령(재임 1801년 ~1809년)이자 미국 독립 선언서의 기초자이다(1776년).", "start_eid_short": 20, "end_eid_short": 20, "text_short": "기초자이다(1776년)."}, 
            {"id": 4, "sent_id": 0, "start_eid": 12, "end_eid": 16, "ne_id": 7, "text": "3번째 미국 대통령(재임 1801년 ~1809년)이자", "start_eid_short": 16, "end_eid_short": 16, "text_short": "~1809년)이자"}, 
            {"id": 7, "sent_id": 0, "start_eid": 17, "end_eid": 20, "ne_id": 9, "text": "미국 독립 선언서의 기초자이다(1776년).", "start_eid_short": 20, "end_eid_short": 20, "text_short": "기초자이다(1776년)."}
        ]}, 
        {"id": 1, "type": "LCP_COUNTRY", "number": "singular", "gender": "", "person": "", "animacy": "place", "mention": [
            {"id": 2, "sent_id": 0, "start_eid": 10, "end_eid": 10, "ne_id": 2, "text": "미국의", "start_eid_short": 10, "end_eid_short": 10, "text_short": "미국의"}, 
            {"id": 6, "sent_id": 0, "start_eid": 13, "end_eid": 13, "ne_id": 5, "text": "미국", "start_eid_short": 13, "end_eid_short": 13, "text_short": "미국"}
        ]}, 
        {"id": 2, "type": "QT_ORDER", "number": "singular", "gender": "", "person": "", "animacy": "thing", "mention": [
            {"id": 5, "sent_id": 0, "start_eid": 12, "end_eid": 12, "ne_id": 4, "text": "3번째", "start_eid_short": 12, "end_eid_short": 12, "text_short": "3번째"}
        ]}, 
        {"id": 3, "type": "EV_OTHERS", "number": "singular", "gender": "", "person": "", "animacy": "thing", "mention": [
            {"id": 8, "sent_id": 0, "start_eid": 17, "end_eid": 19, "ne_id": 8, "text": "미국 독립 선언서의", "start_eid_short": 17, "end_eid_short": 19, "text_short": "미국 독립 선언서의"}
        ]}
    ]
}