{
    "doc_id": "E2016.835.13_A_01.json", 
    "DCT": "", 
    "category": "", 
    "category_weight": 0, 
    "title": {
        "text": "알렉산더대왕", 
        "NE": ""
    }, 
    "metaInfo": {}, 
    "sentence": [
        {
            "id": 0, 
            "reserve_str": "", 
            "text": "<인명> 마케도니아의 왕(B.C.356~B.C.323).", 
            "morp": [
                {"id": 0, "lemma": "<", "type": "SS", "position": 0, "weight": 1}, 
                {"id": 1, "lemma": "인명", "type": "NNG", "position": 1, "weight": 0.153379}, 
                {"id": 2, "lemma": ">", "type": "SS", "position": 7, "weight": 1}, 
                {"id": 3, "lemma": "마케도니아", "type": "NNP", "position": 9, "weight": 0.0574103}, 
                {"id": 4, "lemma": "의", "type": "JKG", "position": 24, "weight": 0.0987295}, 
                {"id": 5, "lemma": "왕", "type": "NNG", "position": 28, "weight": 0.793674}, 
                {"id": 6, "lemma": "(", "type": "SS", "position": 31, "weight": 1}, 
                {"id": 7, "lemma": "B", "type": "SL", "position": 32, "weight": 1}, 
                {"id": 8, "lemma": ".", "type": "SF", "position": 33, "weight": 1}, 
                {"id": 9, "lemma": "C", "type": "SL", "position": 34, "weight": 1}, 
                {"id": 10, "lemma": ".", "type": "SF", "position": 35, "weight": 1}, 
                {"id": 11, "lemma": "356", "type": "SN", "position": 36, "weight": 1}, 
                {"id": 12, "lemma": "~", "type": "SO", "position": 39, "weight": 1}, 
                {"id": 13, "lemma": "B", "type": "SL", "position": 40, "weight": 1}, 
                {"id": 14, "lemma": ".", "type": "SF", "position": 41, "weight": 1}, 
                {"id": 15, "lemma": "C", "type": "SL", "position": 42, "weight": 1}, 
                {"id": 16, "lemma": ".", "type": "SF", "position": 43, "weight": 1}, 
                {"id": 17, "lemma": "323", "type": "SN", "position": 44, "weight": 1}, 
                {"id": 18, "lemma": ")", "type": "SS", "position": 47, "weight": 1}, 
                {"id": 19, "lemma": ".", "type": "SF", "position": 48, "weight": 1}
            ], 
            "morp_eval": [], 
            "WSD": [
                {"id": 0, "text": "<", "type": "SS", "scode": "000000", "weight": 1, "position": 0, "begin": 0, "end": 0}, 
                {"id": 1, "text": "인명", "type": "NNG", "scode": "010000", "weight": 0.2, "position": 1, "begin": 1, "end": 1}, 
                {"id": 2, "text": ">", "type": "SS", "scode": "000000", "weight": 1, "position": 7, "begin": 2, "end": 2}, 
                {"id": 3, "text": "마케도니아", "type": "NNP", "scode": "010002", "weight": 0.333333, "position": 9, "begin": 3, "end": 3}, 
                {"id": 4, "text": "의", "type": "JKG", "scode": "000000", "weight": 1, "position": 24, "begin": 4, "end": 4}, 
                {"id": 5, "text": "왕", "type": "NNG", "scode": "040001", "weight": 0.0833333, "position": 28, "begin": 5, "end": 5}, 
                {"id": 6, "text": "(", "type": "SS", "scode": "000000", "weight": 1, "position": 31, "begin": 6, "end": 6}, 
                {"id": 7, "text": "B", "type": "SL", "scode": "000000", "weight": 1, "position": 32, "begin": 7, "end": 7}, 
                {"id": 8, "text": ".", "type": "SF", "scode": "000000", "weight": 1, "position": 33, "begin": 8, "end": 8}, 
                {"id": 9, "text": "C", "type": "SL", "scode": "000000", "weight": 1, "position": 34, "begin": 9, "end": 9}, 
                {"id": 10, "text": ".", "type": "SF", "scode": "000000", "weight": 1, "position": 35, "begin": 10, "end": 10}, 
                {"id": 11, "text": "356", "type": "SN", "scode": "000000", "weight": 1, "position": 36, "begin": 11, "end": 11}, 
                {"id": 12, "text": "~", "type": "SO", "scode": "000000", "weight": 1, "position": 39, "begin": 12, "end": 12}, 
                {"id": 13, "text": "B", "type": "SL", "scode": "000000", "weight": 1, "position": 40, "begin": 13, "end": 13}, 
                {"id": 14, "text": ".", "type": "SF", "scode": "000000", "weight": 1, "position": 41, "begin": 14, "end": 14}, 
                {"id": 15, "text": "C", "type": "SL", "scode": "000000", "weight": 1, "position": 42, "begin": 15, "end": 15}, 
                {"id": 16, "text": ".", "type": "SF", "scode": "000000", "weight": 1, "position": 43, "begin": 16, "end": 16}, 
                {"id": 17, "text": "323", "type": "SN", "scode": "000000", "weight": 1, "position": 44, "begin": 17, "end": 17}, 
                {"id": 18, "text": ")", "type": "SS", "scode": "000000", "weight": 1, "position": 47, "begin": 18, "end": 18}, 
                {"id": 19, "text": ".", "type": "SF", "scode": "000000", "weight": 1, "position": 48, "begin": 19, "end": 19}
            ], 
            "word": [
                {"id": 0, "text": "<인명>", "type": "", "begin": 0, "end": 2}, 
                {"id": 1, "text": "마케도니아의", "type": "", "begin": 3, "end": 4}, 
                {"id": 2, "text": "왕(B.C.356~B.C.323).", "type": "", "begin": 5, "end": 19}
            ], 
            "NE": [
                {"id": 0, "text": "마케도니아", "type": "LCP_COUNTRY", "begin": 3, "end": 3, "weight": 0.395887, "common_noun": 0}, 
                {"id": 1, "text": "왕", "type": "CV_POSITION", "begin": 5, "end": 5, "weight": 0.568411, "common_noun": 0}, 
                {"id": 2, "text": "B.C.356~B.C.323", "type": "DT_DURATION", "begin": 7, "end": 17, "weight": 1, "common_noun": 0}
            ], 
            "chunk": [], 
            "dependency": [
                {"id": 0, "text": "<인명>", "head": 2, "label": "NP", "mod": [], "weight": 0.83097}, 
                {"id": 1, "text": "마케도니아의", "head": 2, "label": "NP_MOD", "mod": [], "weight": 0.691751}, 
                {"id": 2, "text": "왕(B.C.356~B.C.323).", "head": -1, "label": "NP", "mod": [0, 1], "weight": 0.468703}
            ], 
            "SRL": [], 
            "relation": [], 
            "SA": [], 
            "ZA": []
        }, 
        {
            "id": 1, 
            "reserve_str": "", 
            "text": "그리스, 페르시아, 인도에 이르는 대제국을 건설하였으며, 그 정복지에 다수의 도시를 건설하여 동서 교통, 경제 발전에 기여하였고, 그리스 문화와 오리엔트 문화를 융합한 헬레니즘 문화를 이룩하였다.", 
            "morp": [
                {"id": 0, "lemma": "그리스", "type": "NNP", "position": 49, "weight": 0.0881537}, 
                {"id": 1, "lemma": ",", "type": "SP", "position": 58, "weight": 1}, 
                {"id": 2, "lemma": "페르시아", "type": "NNP", "position": 60, "weight": 0.0677043}, 
                {"id": 3, "lemma": ",", "type": "SP", "position": 72, "weight": 1}, 
                {"id": 4, "lemma": "인도", "type": "NNP", "position": 74, "weight": 0.107935}, 
                {"id": 5, "lemma": "에", "type": "JKB", "position": 80, "weight": 0.0823628}, 
                {"id": 6, "lemma": "이르", "type": "VV", "position": 84, "weight": 0.434887}, 
                {"id": 7, "lemma": "는", "type": "ETM", "position": 90, "weight": 0.184941}, 
                {"id": 8, "lemma": "대", "type": "XPN", "position": 94, "weight": 0.00011884}, 
                {"id": 9, "lemma": "제국", "type": "NNG", "position": 97, "weight": 0.47354}, 
                {"id": 10, "lemma": "을", "type": "JKO", "position": 103, "weight": 0.129611}, 
                {"id": 11, "lemma": "건설", "type": "NNG", "position": 107, "weight": 0.9}, 
                {"id": 12, "lemma": "하", "type": "XSV", "position": 113, "weight": 0.0001}, 
                {"id": 13, "lemma": "였", "type": "EP", "position": 116, "weight": 0.9}, 
                {"id": 14, "lemma": "으며", "type": "EC", "position": 119, "weight": 0.197482}, 
                {"id": 15, "lemma": ",", "type": "SP", "position": 125, "weight": 1}, 
                {"id": 16, "lemma": "그", "type": "MM", "position": 127, "weight": 0.0224513}, 
                {"id": 17, "lemma": "정복", "type": "NNG", "position": 131, "weight": 0.9}, 
                {"id": 18, "lemma": "지", "type": "XSN", "position": 137, "weight": 0.000168337}, 
                {"id": 19, "lemma": "에", "type": "JKB", "position": 140, "weight": 0.121683}, 
                {"id": 20, "lemma": "다수", "type": "NNG", "position": 144, "weight": 0.9}, 
                {"id": 21, "lemma": "의", "type": "JKG", "position": 150, "weight": 0.0694213}, 
                {"id": 22, "lemma": "도시", "type": "NNG", "position": 154, "weight": 0.868222}, 
                {"id": 23, "lemma": "를", "type": "JKO", "position": 160, "weight": 0.137686}, 
                {"id": 24, "lemma": "건설", "type": "NNG", "position": 164, "weight": 0.9}, 
                {"id": 25, "lemma": "하", "type": "XSV", "position": 170, "weight": 0.0001}, 
                {"id": 26, "lemma": "아", "type": "EC", "position": 173, "weight": 0.361326}, 
                {"id": 27, "lemma": "동서", "type": "NNG", "position": 177, "weight": 0.214427}, 
                {"id": 28, "lemma": "교통", "type": "NNG", "position": 184, "weight": 0.9}, 
                {"id": 29, "lemma": ",", "type": "SP", "position": 190, "weight": 1}, 
                {"id": 30, "lemma": "경제", "type": "NNG", "position": 192, "weight": 0.531548}, 
                {"id": 31, "lemma": "발전", "type": "NNG", "position": 199, "weight": 0.9}, 
                {"id": 32, "lemma": "에", "type": "JKB", "position": 205, "weight": 0.153364}, 
                {"id": 33, "lemma": "기여", "type": "NNG", "position": 209, "weight": 0.9}, 
                {"id": 34, "lemma": "하", "type": "XSV", "position": 215, "weight": 0.0001}, 
                {"id": 35, "lemma": "였", "type": "EP", "position": 218, "weight": 0.9}, 
                {"id": 36, "lemma": "고", "type": "EC", "position": 221, "weight": 0.190901}, 
                {"id": 37, "lemma": ",", "type": "SP", "position": 224, "weight": 1}, 
                {"id": 38, "lemma": "그리스", "type": "NNP", "position": 226, "weight": 0.122214}, 
                {"id": 39, "lemma": "문화", "type": "NNG", "position": 236, "weight": 0.281422}, 
                {"id": 40, "lemma": "와", "type": "JC", "position": 242, "weight": 0.0169714}, 
                {"id": 41, "lemma": "오리엔트", "type": "NNG", "position": 246, "weight": 0.728374}, 
                {"id": 42, "lemma": "문화", "type": "NNG", "position": 259, "weight": 0.184467}, 
                {"id": 43, "lemma": "를", "type": "JKO", "position": 265, "weight": 0.137686}, 
                {"id": 44, "lemma": "융합", "type": "NNG", "position": 269, "weight": 0.9}, 
                {"id": 45, "lemma": "하", "type": "XSV", "position": 275, "weight": 0.0001}, 
                {"id": 46, "lemma": "ㄴ", "type": "ETM", "position": 275, "weight": 0.392321}, 
                {"id": 47, "lemma": "헬레니즘", "type": "NNG", "position": 279, "weight": 0.9}, 
                {"id": 48, "lemma": "문화", "type": "NNG", "position": 292, "weight": 0.184467}, 
                {"id": 49, "lemma": "를", "type": "JKO", "position": 298, "weight": 0.137686}, 
                {"id": 50, "lemma": "이룩하", "type": "VV", "position": 302, "weight": 0.9}, 
                {"id": 51, "lemma": "았", "type": "EP", "position": 311, "weight": 0.9}, 
                {"id": 52, "lemma": "다", "type": "EF", "position": 314, "weight": 0.640954}, 
                {"id": 53, "lemma": ".", "type": "SF", "position": 317, "weight": 1}
            ], 
            "morp_eval": [], 
            "WSD": [
                {"id": 0, "text": "그리스", "type": "NNP", "scode": "020000", "weight": 0.333333, "position": 49, "begin": 0, "end": 0}, 
                {"id": 1, "text": ",", "type": "SP", "scode": "000000", "weight": 1, "position": 58, "begin": 1, "end": 1}, 
                {"id": 2, "text": "페르시아", "type": "NNP", "scode": "000000", "weight": 1, "position": 60, "begin": 2, "end": 2}, 
                {"id": 3, "text": ",", "type": "SP", "scode": "000000", "weight": 1, "position": 72, "begin": 3, "end": 3}, 
                {"id": 4, "text": "인도", "type": "NNP", "scode": "080000", "weight": 0.0714286, "position": 74, "begin": 4, "end": 4}, 
                {"id": 5, "text": "에", "type": "JKB", "scode": "000000", "weight": 1, "position": 80, "begin": 5, "end": 5}, 
                {"id": 6, "text": "이르", "type": "VV", "scode": "010001", "weight": 0.1, "position": 84, "begin": 6, "end": 6}, 
                {"id": 7, "text": "는", "type": "ETM", "scode": "000000", "weight": 1, "position": 90, "begin": 7, "end": 7}, 
                {"id": 8, "text": "대", "type": "XPN", "scode": "170000", "weight": 0.0232558, "position": 94, "begin": 8, "end": 8}, 
                {"id": 9, "text": "제국", "type": "NNG", "scode": "020000", "weight": 0.25, "position": 97, "begin": 9, "end": 9}, 
                {"id": 10, "text": "을", "type": "JKO", "scode": "000000", "weight": 1, "position": 103, "begin": 10, "end": 10}, 
                {"id": 11, "text": "건설하", "type": "VV", "scode": "000001", "weight": 0.5, "position": 107, "begin": 11, "end": 12}, 
                {"id": 12, "text": "였", "type": "EP", "scode": "000000", "weight": 1, "position": 116, "begin": 13, "end": 13}, 
                {"id": 13, "text": "으며", "type": "EC", "scode": "000000", "weight": 1, "position": 119, "begin": 14, "end": 14}, 
                {"id": 14, "text": ",", "type": "SP", "scode": "000000", "weight": 1, "position": 125, "begin": 15, "end": 15}, 
                {"id": 15, "text": "그", "type": "MM", "scode": "010102", "weight": 0.142857, "position": 127, "begin": 16, "end": 16}, 
                {"id": 16, "text": "정복", "type": "NNG", "scode": "020001", "weight": 0.1, "position": 131, "begin": 17, "end": 17}, 
                {"id": 17, "text": "지", "type": "XSN", "scode": "260001", "weight": 0.027027, "position": 137, "begin": 18, "end": 18}, 
                {"id": 18, "text": "에", "type": "JKB", "scode": "000000", "weight": 1, "position": 140, "begin": 19, "end": 19}, 
                {"id": 19, "text": "다수", "type": "NNG", "scode": "000000", "weight": 1, "position": 144, "begin": 20, "end": 20}, 
                {"id": 20, "text": "의", "type": "JKG", "scode": "000000", "weight": 1, "position": 150, "begin": 21, "end": 21}, 
                {"id": 21, "text": "도시", "type": "NNG", "scode": "030000", "weight": 0.0909091, "position": 154, "begin": 22, "end": 22}, 
                {"id": 22, "text": "를", "type": "JKO", "scode": "000000", "weight": 1, "position": 160, "begin": 23, "end": 23}, 
                {"id": 23, "text": "건설하", "type": "VV", "scode": "000001", "weight": 0.5, "position": 164, "begin": 24, "end": 25}, 
                {"id": 24, "text": "아", "type": "EC", "scode": "000000", "weight": 1, "position": 173, "begin": 26, "end": 26}, 
                {"id": 25, "text": "동서", "type": "NNG", "scode": "040003", "weight": 0.0833333, "position": 177, "begin": 27, "end": 27}, 
                {"id": 26, "text": "교통", "type": "NNG", "scode": "010001", "weight": 0.2, "position": 184, "begin": 28, "end": 28}, 
                {"id": 27, "text": ",", "type": "SP", "scode": "000000", "weight": 1, "position": 190, "begin": 29, "end": 29}, 
                {"id": 28, "text": "경제", "type": "NNG", "scode": "040001", "weight": 0.111111, "position": 192, "begin": 30, "end": 30}, 
                {"id": 29, "text": "발전", "type": "NNG", "scode": "010001", "weight": 0.25, "position": 199, "begin": 31, "end": 31}, 
                {"id": 30, "text": "에", "type": "JKB", "scode": "000000", "weight": 1, "position": 205, "begin": 32, "end": 32}, 
                {"id": 31, "text": "기여하", "type": "VV", "scode": "000000", "weight": 1, "position": 209, "begin": 33, "end": 34}, 
                {"id": 32, "text": "였", "type": "EP", "scode": "000000", "weight": 1, "position": 218, "begin": 35, "end": 35}, 
                {"id": 33, "text": "고", "type": "EC", "scode": "000000", "weight": 1, "position": 221, "begin": 36, "end": 36}, 
                {"id": 34, "text": ",", "type": "SP", "scode": "000000", "weight": 1, "position": 224, "begin": 37, "end": 37}, 
                {"id": 35, "text": "그리스", "type": "NNP", "scode": "020000", "weight": 0.333333, "position": 226, "begin": 38, "end": 38}, 
                {"id": 36, "text": "문화", "type": "NNG", "scode": "010001", "weight": 0.142857, "position": 236, "begin": 39, "end": 39}, 
                {"id": 37, "text": "와", "type": "JC", "scode": "000000", "weight": 1, "position": 242, "begin": 40, "end": 40}, 
                {"id": 38, "text": "오리엔트", "type": "NNG", "scode": "000002", "weight": 0.5, "position": 246, "begin": 41, "end": 41}, 
                {"id": 39, "text": "문화", "type": "NNG", "scode": "010001", "weight": 0.142857, "position": 259, "begin": 42, "end": 42}, 
                {"id": 40, "text": "를", "type": "JKO", "scode": "000000", "weight": 1, "position": 265, "begin": 43, "end": 43}, 
                {"id": 41, "text": "융합하", "type": "VV", "scode": "000001", "weight": 0.333333, "position": 269, "begin": 44, "end": 45}, 
                {"id": 42, "text": "ㄴ", "type": "ETM", "scode": "000000", "weight": 1, "position": 275, "begin": 46, "end": 46}, 
                {"id": 43, "text": "헬레니즘", "type": "NNG", "scode": "000000", "weight": 1, "position": 279, "begin": 47, "end": 47}, 
                {"id": 44, "text": "문화", "type": "NNG", "scode": "010001", "weight": 0.142857, "position": 292, "begin": 48, "end": 48}, 
                {"id": 45, "text": "를", "type": "JKO", "scode": "000000", "weight": 1, "position": 298, "begin": 49, "end": 49}, 
                {"id": 46, "text": "이룩하", "type": "VV", "scode": "000001", "weight": 0.5, "position": 302, "begin": 50, "end": 50}, 
                {"id": 47, "text": "았", "type": "EP", "scode": "000000", "weight": 1, "position": 311, "begin": 51, "end": 51}, 
                {"id": 48, "text": "다", "type": "EF", "scode": "000000", "weight": 1, "position": 314, "begin": 52, "end": 52}, 
                {"id": 49, "text": ".", "type": "SF", "scode": "000000", "weight": 1, "position": 317, "begin": 53, "end": 53}
            ], 
            "word": [
                {"id": 0, "text": "그리스,", "type": "", "begin": 0, "end": 1}, 
                {"id": 1, "text": "페르시아,", "type": "", "begin": 2, "end": 3}, 
                {"id": 2, "text": "인도에", "type": "", "begin": 4, "end": 5}, 
                {"id": 3, "text": "이르는", "type": "", "begin": 6, "end": 7}, 
                {"id": 4, "text": "대제국을", "type": "", "begin": 8, "end": 10}, 
                {"id": 5, "text": "건설하였으며,", "type": "", "begin": 11, "end": 15}, 
                {"id": 6, "text": "그", "type": "", "begin": 16, "end": 16}, 
                {"id": 7, "text": "정복지에", "type": "", "begin": 17, "end": 19}, 
                {"id": 8, "text": "다수의", "type": "", "begin": 20, "end": 21}, 
                {"id": 9, "text": "도시를", "type": "", "begin": 22, "end": 23}, 
                {"id": 10, "text": "건설하여", "type": "", "begin": 24, "end": 26}, 
                {"id": 11, "text": "동서", "type": "", "begin": 27, "end": 27}, 
                {"id": 12, "text": "교통,", "type": "", "begin": 28, "end": 29}, 
                {"id": 13, "text": "경제", "type": "", "begin": 30, "end": 30}, 
                {"id": 14, "text": "발전에", "type": "", "begin": 31, "end": 32}, 
                {"id": 15, "text": "기여하였고,", "type": "", "begin": 33, "end": 37}, 
                {"id": 16, "text": "그리스", "type": "", "begin": 38, "end": 38}, 
                {"id": 17, "text": "문화와", "type": "", "begin": 39, "end": 40}, 
                {"id": 18, "text": "오리엔트", "type": "", "begin": 41, "end": 41}, 
                {"id": 19, "text": "문화를", "type": "", "begin": 42, "end": 43}, 
                {"id": 20, "text": "융합한", "type": "", "begin": 44, "end": 46}, 
                {"id": 21, "text": "헬레니즘", "type": "", "begin": 47, "end": 47}, 
                {"id": 22, "text": "문화를", "type": "", "begin": 48, "end": 49}, 
                {"id": 23, "text": "이룩하였다.", "type": "", "begin": 50, "end": 53}
            ], 
            "NE": [
                {"id": 0, "text": "그리스", "type": "LCP_COUNTRY", "begin": 0, "end": 0, "weight": 0.407627, "common_noun": 0}, 
                {"id": 1, "text": "페르시아", "type": "LCP_COUNTRY", "begin": 2, "end": 2, "weight": 0.624911, "common_noun": 0}, 
                {"id": 2, "text": "인도", "type": "LCP_COUNTRY", "begin": 4, "end": 4, "weight": 0.874547, "common_noun": 0}, 
                {"id": 3, "text": "동서", "type": "TM_DIRECTION", "begin": 27, "end": 27, "weight": 0.292836, "common_noun": 0}, 
                {"id": 4, "text": "그리스 문화", "type": "CV_NAME", "begin": 38, "end": 39, "weight": 0.167498, "common_noun": 0}, 
                {"id": 5, "text": "오리엔트 문화", "type": "CV_NAME", "begin": 41, "end": 42, "weight": 0.302029, "common_noun": 0}, 
                {"id": 6, "text": "헬레니즘 문화", "type": "CV_NAME", "begin": 47, "end": 48, "weight": 0.239719, "common_noun": 0}
            ], 
            "chunk": [], 
            "dependency": [
                {"id": 0, "text": "그리스,", "head": 2, "label": "NP_CNJ", "mod": [], "weight": 0.711853}, 
                {"id": 1, "text": "페르시아,", "head": 2, "label": "NP_CNJ", "mod": [], "weight": 0.724925}, 
                {"id": 2, "text": "인도에", "head": 3, "label": "NP_AJT", "mod": [0, 1], "weight": 0.861639}, 
                {"id": 3, "text": "이르는", "head": 4, "label": "VP_MOD", "mod": [2], "weight": 0.579374}, 
                {"id": 4, "text": "대제국을", "head": 5, "label": "NP_OBJ", "mod": [3], "weight": 0.656616}, 
                {"id": 5, "text": "건설하였으며,", "head": 10, "label": "VP", "mod": [4], "weight": 0.814031}, 
                {"id": 6, "text": "그", "head": 7, "label": "DP", "mod": [], "weight": 0.742998}, 
                {"id": 7, "text": "정복지에", "head": 10, "label": "NP_AJT", "mod": [6], "weight": 0.655321}, 
                {"id": 8, "text": "다수의", "head": 9, "label": "NP_MOD", "mod": [], "weight": 0.579317}, 
                {"id": 9, "text": "도시를", "head": 10, "label": "NP_OBJ", "mod": [8], "weight": 0.766629}, 
                {"id": 10, "text": "건설하여", "head": 15, "label": "VP", "mod": [5, 7, 9], "weight": 0.733543}, 
                {"id": 11, "text": "동서", "head": 12, "label": "NP", "mod": [], "weight": 0.842558}, 
                {"id": 12, "text": "교통,", "head": 14, "label": "NP_CNJ", "mod": [11], "weight": 0.0134963}, 
                {"id": 13, "text": "경제", "head": 14, "label": "NP", "mod": [], "weight": 0.655399}, 
                {"id": 14, "text": "발전에", "head": 15, "label": "NP_AJT", "mod": [12, 13], "weight": 0.754486}, 
                {"id": 15, "text": "기여하였고,", "head": 23, "label": "VP", "mod": [10, 14], "weight": 0.665152}, 
                {"id": 16, "text": "그리스", "head": 17, "label": "NP", "mod": [], "weight": 0.714482}, 
                {"id": 17, "text": "문화와", "head": 19, "label": "NP_CNJ", "mod": [16], "weight": 0.34592}, 
                {"id": 18, "text": "오리엔트", "head": 19, "label": "NP", "mod": [], "weight": 0.760925}, 
                {"id": 19, "text": "문화를", "head": 20, "label": "NP_OBJ", "mod": [17, 18], "weight": 0.815621}, 
                {"id": 20, "text": "융합한", "head": 22, "label": "VP_MOD", "mod": [19], "weight": 0.535695}, 
                {"id": 21, "text": "헬레니즘", "head": 22, "label": "NP", "mod": [], "weight": 0.601322}, 
                {"id": 22, "text": "문화를", "head": 23, "label": "NP_OBJ", "mod": [20, 21], "weight": 0.829849}, 
                {"id": 23, "text": "이룩하였다.", "head": -1, "label": "VP", "mod": [15, 22], "weight": 2.34191e-06}
            ], 
            "SRL": [
                {"verb": "이르", "sense": 1, "word_id": 3, "weight": 0.288279, "argument": [
                    {"type": "ARG3", "word_id": 2, "text": "인도에", "weight": 0.288279}, 
                    {"type": "ARG1", "word_id": 4, "text": "대제국을", "weight": 1}
                ]}, 
                {"verb": "건설", "sense": 1, "word_id": 5, "weight": 0.171365, "argument": [
                    {"type": "ARG1", "word_id": 4, "text": "대제국을", "weight": 0.171365}
                ]}, 
                {"verb": "건설", "sense": 1, "word_id": 10, "weight": 0.20452, "argument": [
                    {"type": "ARGM-LOC", "word_id": 7, "text": "정복지에", "weight": 1}, 
                    {"type": "ARG1", "word_id": 9, "text": "도시를", "weight": 0.310887}
                ]}, 
                {"verb": "기여", "sense": 1, "word_id": 15, "weight": 0.207624, "argument": [
                    {"type": "ARG1", "word_id": 14, "text": "발전에", "weight": 0.207624}, 
                    {"type": "ARGM-MNR", "word_id": 10, "text": "건설하여", "weight": 1}
                ]}, 
                {"verb": "융합", "sense": 1, "word_id": 20, "weight": 0.183401, "argument": [
                    {"type": "ARG2", "word_id": 19, "text": "문화를", "weight": 1}, 
                    {"type": "ARG1", "word_id": 17, "text": "문화와", "weight": 1}
                ]}, 
                {"verb": "이룩", "sense": 1, "word_id": 23, "weight": 0.243072, "argument": [
                    {"type": "ARG1", "word_id": 22, "text": "문화를", "weight": 0.243072}
                ]}
            ], 
            "relation": [], 
            "SA": [], 
            "ZA": []
        }
    ], 
    "entity": [
        {"id": 0, "type": "LCP_COUNTRY", "number": "singular", "gender": "", "person": "", "animacy": "place", "mention": [
            {"id": 1, "sent_id": 0, "start_eid": 1, "end_eid": 1, "ne_id": 0, "text": "마케도니아의", "start_eid_short": 1, "end_eid_short": 1, "text_short": "마케도니아의"}
        ]}, 
        {"id": 1, "type": "PS_NAME", "number": "singular", "gender": "", "person": "", "animacy": "human", "mention": [
            {"id": 0, "sent_id": 0, "start_eid": 1, "end_eid": 2, "ne_id": 1, "text": "마케도니아의 왕(B.C.356~B.C.323).", "start_eid_short": 2, "end_eid_short": 2, "text_short": "왕(B.C.356~B.C.323)."}
        ]}, 
        {"id": 2, "type": "", "number": "singular", "gender": "", "person": "", "animacy": "thing", "mention": [
            {"id": 2, "sent_id": 1, "start_eid": 0, "end_eid": 4, "ne_id": -1, "text": "그리스, 페르시아, 인도에 이르는 대제국을", "start_eid_short": 4, "end_eid_short": 4, "text_short": "대제국을"}
        ]}, 
        {"id": 3, "type": "LCP_COUNTRY", "number": "singular", "gender": "", "person": "", "animacy": "place", "mention": [
            {"id": 3, "sent_id": 1, "start_eid": 0, "end_eid": 2, "ne_id": 2, "text": "그리스, 페르시아, 인도에", "start_eid_short": 2, "end_eid_short": 2, "text_short": "인도에"}
        ]}, 
        {"id": 4, "type": "LCP_COUNTRY", "number": "singular", "gender": "", "person": "", "animacy": "place", "mention": [
            {"id": 4, "sent_id": 1, "start_eid": 0, "end_eid": 0, "ne_id": 0, "text": "그리스,", "start_eid_short": 0, "end_eid_short": 0, "text_short": "그리스,"}
        ]}, 
        {"id": 5, "type": "LCP_COUNTRY", "number": "singular", "gender": "", "person": "", "animacy": "place", "mention": [
            {"id": 5, "sent_id": 1, "start_eid": 1, "end_eid": 1, "ne_id": 1, "text": "페르시아,", "start_eid_short": 1, "end_eid_short": 1, "text_short": "페르시아,"}
        ]}, 
        {"id": 6, "type": "", "number": "singular", "gender": "", "person": "", "animacy": "thing", "mention": [
            {"id": 7, "sent_id": 1, "start_eid": 6, "end_eid": 7, "ne_id": -1, "text": "그 정복지에", "start_eid_short": 6, "end_eid_short": 7, "text_short": "그 정복지에"}
        ]}, 
        {"id": 7, "type": "", "number": "singular", "gender": "", "person": "", "animacy": "thing", "mention": [
            {"id": 8, "sent_id": 1, "start_eid": 8, "end_eid": 9, "ne_id": -1, "text": "다수의 도시를", "start_eid_short": 9, "end_eid_short": 9, "text_short": "도시를"}
        ]}, 
        {"id": 8, "type": "", "number": "singular", "gender": "", "person": "", "animacy": "thing", "mention": [
            {"id": 9, "sent_id": 1, "start_eid": 8, "end_eid": 8, "ne_id": -1, "text": "다수의", "start_eid_short": 8, "end_eid_short": 8, "text_short": "다수의"}
        ]}, 
        {"id": 9, "type": "TM_DIRECTION", "number": "singular", "gender": "", "person": "", "animacy": "thing", "mention": [
            {"id": 12, "sent_id": 1, "start_eid": 11, "end_eid": 11, "ne_id": 3, "text": "동서", "start_eid_short": 11, "end_eid_short": 11, "text_short": "동서"}
        ]}, 
        {"id": 10, "type": "", "number": "singular", "gender": "", "person": "", "animacy": "thing", "mention": [
            {"id": 13, "sent_id": 1, "start_eid": 13, "end_eid": 14, "ne_id": -1, "text": "경제 발전에", "start_eid_short": 13, "end_eid_short": 14, "text_short": "경제 발전에"}
        ]}, 
        {"id": 11, "type": "", "number": "singular", "gender": "", "person": "", "animacy": "thing", "mention": [
            {"id": 14, "sent_id": 1, "start_eid": 13, "end_eid": 13, "ne_id": -1, "text": "경제", "start_eid_short": 13, "end_eid_short": 13, "text_short": "경제"}
        ]}, 
        {"id": 12, "type": "CV_NAME", "number": "singular", "gender": "", "person": "", "animacy": "human", "mention": [
            {"id": 15, "sent_id": 1, "start_eid": 16, "end_eid": 22, "ne_id": 6, "text": "그리스 문화와 오리엔트 문화를 융합한 헬레니즘 문화를", "start_eid_short": 21, "end_eid_short": 22, "text_short": "헬레니즘 문화를"}
        ]}, 
        {"id": 13, "type": "", "number": "plural", "gender": "", "person": "", "animacy": "thing", "mention": [
            {"id": 16, "sent_id": 1, "start_eid": 16, "end_eid": 19, "ne_id": -1, "text": "그리스 문화와 오리엔트 문화를", "start_eid_short": 18, "end_eid_short": 19, "text_short": "오리엔트 문화를"}
        ]}, 
        {"id": 14, "type": "CV_NAME", "number": "singular", "gender": "", "person": "", "animacy": "human", "mention": [
            {"id": 17, "sent_id": 1, "start_eid": 16, "end_eid": 17, "ne_id": 4, "text": "그리스 문화와", "start_eid_short": 16, "end_eid_short": 17, "text_short": "그리스 문화와"}
        ]}, 
        {"id": 15, "type": "", "number": "singular", "gender": "", "person": "", "animacy": "thing", "mention": [
            {"id": 18, "sent_id": 1, "start_eid": 18, "end_eid": 19, "ne_id": -1, "text": "오리엔트 문화를", "start_eid_short": 18, "end_eid_short": 19, "text_short": "오리엔트 문화를"}
        ]}, 
        {"id": 16, "type": "LCP_COUNTRY", "number": "singular", "gender": "", "person": "", "animacy": "place", "mention": [
            {"id": 6, "sent_id": 1, "start_eid": 2, "end_eid": 2, "ne_id": 2, "text": "인도에", "start_eid_short": 2, "end_eid_short": 2, "text_short": "인도에"}
        ]}, 
        {"id": 17, "type": "", "number": "singular", "gender": "", "person": "", "animacy": "thing", "mention": [
            {"id": 11, "sent_id": 1, "start_eid": 11, "end_eid": 12, "ne_id": -1, "text": "동서 교통,", "start_eid_short": 11, "end_eid_short": 12, "text_short": "동서 교통,"}
        ]}, 
        {"id": 18, "type": "", "number": "singular", "gender": "", "person": "", "animacy": "thing", "mention": [
            {"id": 10, "sent_id": 1, "start_eid": 11, "end_eid": 14, "ne_id": -1, "text": "동서 교통, 경제 발전에", "start_eid_short": 13, "end_eid_short": 14, "text_short": "경제 발전에"}
        ]}, 
        {"id": 19, "type": "LC_OTHERS", "number": "singular", "gender": "", "person": "", "animacy": "place", "mention": [
            {"id": 19, "sent_id": 1, "start_eid": 18, "end_eid": 18, "ne_id": 5, "text": "오리엔트", "start_eid_short": 18, "end_eid_short": 18, "text_short": "오리엔트"}
        ]}
    ]
}