{
    "doc_id": "E2016.789.22_Q_01.json", 
    "DCT": "", 
    "category": "", 
    "category_weight": 0, 
    "title": {
        "text": "", 
        "NE": ""
    }, 
    "metaInfo": {}, 
    "sentence": [
        {
            "id": 0, 
            "reserve_str": "", 
            "text": "'날인'과 '간인'은 부동산 매매 계약서나 물건 구입 계약서를 작성할 때 이것을 찍는 방법이다.", 
            "morp": [
                {"id": 0, "lemma": "'", "type": "SS", "position": 0, "weight": 1}, 
                {"id": 1, "lemma": "날인", "type": "NNG", "position": 1, "weight": 0.9}, 
                {"id": 2, "lemma": "'", "type": "SS", "position": 7, "weight": 1}, 
                {"id": 3, "lemma": "과", "type": "JC", "position": 8, "weight": 0.00441114}, 
                {"id": 4, "lemma": "'", "type": "SS", "position": 12, "weight": 1}, 
                {"id": 5, "lemma": "간인", "type": "NNG", "position": 13, "weight": 0.3}, 
                {"id": 6, "lemma": "'", "type": "SS", "position": 19, "weight": 1}, 
                {"id": 7, "lemma": "은", "type": "JX", "position": 20, "weight": 0.0128817}, 
                {"id": 8, "lemma": "부동산", "type": "NNG", "position": 24, "weight": 0.321351}, 
                {"id": 9, "lemma": "매매", "type": "NNG", "position": 34, "weight": 0.183849}, 
                {"id": 10, "lemma": "계약", "type": "NNG", "position": 41, "weight": 0.9}, 
                {"id": 11, "lemma": "서", "type": "XSN", "position": 47, "weight": 0.000890219}, 
                {"id": 12, "lemma": "나", "type": "JC", "position": 50, "weight": 0.00299131}, 
                {"id": 13, "lemma": "물건", "type": "NNG", "position": 54, "weight": 0.9}, 
                {"id": 14, "lemma": "구입", "type": "NNG", "position": 61, "weight": 0.9}, 
                {"id": 15, "lemma": "계약", "type": "NNG", "position": 68, "weight": 0.9}, 
                {"id": 16, "lemma": "서", "type": "XSN", "position": 74, "weight": 0.000890219}, 
                {"id": 17, "lemma": "를", "type": "JKO", "position": 77, "weight": 0.0870227}, 
                {"id": 18, "lemma": "작성", "type": "NNG", "position": 81, "weight": 0.9}, 
                {"id": 19, "lemma": "하", "type": "XSV", "position": 87, "weight": 0.0001}, 
                {"id": 20, "lemma": "ㄹ", "type": "ETM", "position": 87, "weight": 0.387847}, 
                {"id": 21, "lemma": "때", "type": "NNG", "position": 91, "weight": 0.656522}, 
                {"id": 22, "lemma": "이것", "type": "NP", "position": 95, "weight": 0.00177062}, 
                {"id": 23, "lemma": "을", "type": "JKO", "position": 101, "weight": 0.0761542}, 
                {"id": 24, "lemma": "찍", "type": "VV", "position": 105, "weight": 0.772248}, 
                {"id": 25, "lemma": "는", "type": "ETM", "position": 108, "weight": 0.184941}, 
                {"id": 26, "lemma": "방법", "type": "NNG", "position": 112, "weight": 0.9}, 
                {"id": 27, "lemma": "이", "type": "VCP", "position": 118, "weight": 0.0177525}, 
                {"id": 28, "lemma": "다", "type": "EF", "position": 121, "weight": 0.353579}, 
                {"id": 29, "lemma": ".", "type": "SF", "position": 124, "weight": 1}
            ], 
            "morp_eval": [], 
            "WSD": [
                {"id": 0, "text": "'", "type": "SS", "scode": "000000", "weight": 1, "position": 0, "begin": 0, "end": 0}, 
                {"id": 1, "text": "날인", "type": "NNG", "scode": "000000", "weight": 1, "position": 1, "begin": 1, "end": 1}, 
                {"id": 2, "text": "'", "type": "SS", "scode": "000000", "weight": 1, "position": 7, "begin": 2, "end": 2}, 
                {"id": 3, "text": "과", "type": "JC", "scode": "000000", "weight": 1, "position": 8, "begin": 3, "end": 3}, 
                {"id": 4, "text": "'", "type": "SS", "scode": "000000", "weight": 1, "position": 12, "begin": 4, "end": 4}, 
                {"id": 5, "text": "간인", "type": "NNG", "scode": "050000", "weight": 0.2, "position": 13, "begin": 5, "end": 5}, 
                {"id": 6, "text": "'", "type": "SS", "scode": "000000", "weight": 1, "position": 19, "begin": 6, "end": 6}, 
                {"id": 7, "text": "은", "type": "JX", "scode": "000000", "weight": 1, "position": 20, "begin": 7, "end": 7}, 
                {"id": 8, "text": "부동산", "type": "NNG", "scode": "000000", "weight": 1, "position": 24, "begin": 8, "end": 8}, 
                {"id": 9, "text": "매매", "type": "NNG", "scode": "060000", "weight": 0.166667, "position": 34, "begin": 9, "end": 9}, 
                {"id": 10, "text": "계약서", "type": "NNG", "scode": "000000", "weight": 1, "position": 41, "begin": 10, "end": 11}, 
                {"id": 11, "text": "나", "type": "JC", "scode": "000000", "weight": 1, "position": 50, "begin": 12, "end": 12}, 
                {"id": 12, "text": "물건", "type": "NNG", "scode": "000004", "weight": 0.2, "position": 54, "begin": 13, "end": 13}, 
                {"id": 13, "text": "구입", "type": "NNG", "scode": "030000", "weight": 0.25, "position": 61, "begin": 14, "end": 14}, 
                {"id": 14, "text": "계약서", "type": "NNG", "scode": "000000", "weight": 1, "position": 68, "begin": 15, "end": 16}, 
                {"id": 15, "text": "를", "type": "JKO", "scode": "000000", "weight": 1, "position": 77, "begin": 17, "end": 17}, 
                {"id": 16, "text": "작성하", "type": "VV", "scode": "000001", "weight": 0.5, "position": 81, "begin": 18, "end": 19}, 
                {"id": 17, "text": "ㄹ", "type": "ETM", "scode": "000000", "weight": 1, "position": 87, "begin": 20, "end": 20}, 
                {"id": 18, "text": "때", "type": "NNG", "scode": "010005", "weight": 0.0666667, "position": 91, "begin": 21, "end": 21}, 
                {"id": 19, "text": "이것", "type": "NP", "scode": "000001", "weight": 0.25, "position": 95, "begin": 22, "end": 22}, 
                {"id": 20, "text": "을", "type": "JKO", "scode": "000000", "weight": 1, "position": 101, "begin": 23, "end": 23}, 
                {"id": 21, "text": "찍", "type": "VV", "scode": "020101", "weight": 0.0714286, "position": 105, "begin": 24, "end": 24}, 
                {"id": 22, "text": "는", "type": "ETM", "scode": "000000", "weight": 1, "position": 108, "begin": 25, "end": 25}, 
                {"id": 23, "text": "방법", "type": "NNG", "scode": "000001", "weight": 0.5, "position": 112, "begin": 26, "end": 26}, 
                {"id": 24, "text": "이", "type": "VCP", "scode": "030000", "weight": 0.0172414, "position": 118, "begin": 27, "end": 27}, 
                {"id": 25, "text": "다", "type": "EF", "scode": "000000", "weight": 1, "position": 121, "begin": 28, "end": 28}, 
                {"id": 26, "text": ".", "type": "SF", "scode": "000000", "weight": 1, "position": 124, "begin": 29, "end": 29}
            ], 
            "word": [
                {"id": 0, "text": "'날인'과", "type": "", "begin": 0, "end": 3}, 
                {"id": 1, "text": "'간인'은", "type": "", "begin": 4, "end": 7}, 
                {"id": 2, "text": "부동산", "type": "", "begin": 8, "end": 8}, 
                {"id": 3, "text": "매매", "type": "", "begin": 9, "end": 9}, 
                {"id": 4, "text": "계약서나", "type": "", "begin": 10, "end": 12}, 
                {"id": 5, "text": "물건", "type": "", "begin": 13, "end": 13}, 
                {"id": 6, "text": "구입", "type": "", "begin": 14, "end": 14}, 
                {"id": 7, "text": "계약서를", "type": "", "begin": 15, "end": 17}, 
                {"id": 8, "text": "작성할", "type": "", "begin": 18, "end": 20}, 
                {"id": 9, "text": "때", "type": "", "begin": 21, "end": 21}, 
                {"id": 10, "text": "이것을", "type": "", "begin": 22, "end": 23}, 
                {"id": 11, "text": "찍는", "type": "", "begin": 24, "end": 25}, 
                {"id": 12, "text": "방법이다.", "type": "", "begin": 26, "end": 29}
            ], 
            "NE": [], 
            "chunk": [], 
            "dependency": [
                {"id": 0, "text": "'날인'과", "head": 1, "label": "NP_CNJ", "mod": [], "weight": 0.699872}, 
                {"id": 1, "text": "'간인'은", "head": 12, "label": "NP_SBJ", "mod": [0], "weight": 0.395563}, 
                {"id": 2, "text": "부동산", "head": 3, "label": "NP", "mod": [], "weight": 0.191086}, 
                {"id": 3, "text": "매매", "head": 4, "label": "NP", "mod": [2], "weight": 0.729718}, 
                {"id": 4, "text": "계약서나", "head": 7, "label": "NP_CNJ", "mod": [3], "weight": 0.663637}, 
                {"id": 5, "text": "물건", "head": 6, "label": "NP", "mod": [], "weight": 0.824529}, 
                {"id": 6, "text": "구입", "head": 7, "label": "NP", "mod": [5], "weight": 0.330778}, 
                {"id": 7, "text": "계약서를", "head": 8, "label": "NP_OBJ", "mod": [4, 6], "weight": 0.760083}, 
                {"id": 8, "text": "작성할", "head": 9, "label": "VP_MOD", "mod": [7], "weight": 0.798201}, 
                {"id": 9, "text": "때", "head": 11, "label": "NP_AJT", "mod": [8], "weight": 0.80723}, 
                {"id": 10, "text": "이것을", "head": 11, "label": "NP_OBJ", "mod": [], "weight": 0.812412}, 
                {"id": 11, "text": "찍는", "head": 12, "label": "VP_MOD", "mod": [9, 10], "weight": 0.778751}, 
                {"id": 12, "text": "방법이다.", "head": -1, "label": "VNP", "mod": [11, 1], "weight": 0.00186328}
            ], 
            "SRL": [
                {"verb": "작성", "sense": 1, "word_id": 8, "weight": 0.233523, "argument": [
                    {"type": "ARG1", "word_id": 7, "text": "계약서를", "weight": 0.233523}
                ]}, 
                {"verb": "찍", "sense": 2, "word_id": 11, "weight": 0.290898, "argument": [
                    {"type": "ARGM-TMP", "word_id": 9, "text": "때", "weight": 0.216497}, 
                    {"type": "ARG1", "word_id": 10, "text": "이것을", "weight": 0.365299}
                ]}
            ], 
            "relation": [], 
            "SA": [], 
            "ZA": []
        }, 
        {
            "id": 1, 
            "reserve_str": "", 
            "text": "개인 서명이 일반화되기 전 사용했던 이것은 무엇일까?", 
            "morp": [
                {"id": 0, "lemma": "개인", "type": "NNG", "position": 125, "weight": 0.9}, 
                {"id": 1, "lemma": "서명", "type": "NNG", "position": 132, "weight": 0.184497}, 
                {"id": 2, "lemma": "이", "type": "JKS", "position": 138, "weight": 0.0360723}, 
                {"id": 3, "lemma": "일반", "type": "NNG", "position": 142, "weight": 0.9}, 
                {"id": 4, "lemma": "화", "type": "XSN", "position": 148, "weight": 0.0240371}, 
                {"id": 5, "lemma": "되", "type": "XSV", "position": 151, "weight": 0.000260989}, 
                {"id": 6, "lemma": "기", "type": "ETN", "position": 154, "weight": 0.0556099}, 
                {"id": 7, "lemma": "전", "type": "NNG", "position": 158, "weight": 0.0229077}, 
                {"id": 8, "lemma": "사용", "type": "NNG", "position": 162, "weight": 0.9}, 
                {"id": 9, "lemma": "하", "type": "XSV", "position": 168, "weight": 0.0001}, 
                {"id": 10, "lemma": "았", "type": "EP", "position": 168, "weight": 0.9}, 
                {"id": 11, "lemma": "던", "type": "ETM", "position": 171, "weight": 0.107547}, 
                {"id": 12, "lemma": "이것", "type": "NP", "position": 175, "weight": 0.0102992}, 
                {"id": 13, "lemma": "은", "type": "JX", "position": 181, "weight": 0.191811}, 
                {"id": 14, "lemma": "무엇", "type": "NP", "position": 185, "weight": 0.9}, 
                {"id": 15, "lemma": "이", "type": "VCP", "position": 191, "weight": 0.0175768}, 
                {"id": 16, "lemma": "ㄹ까", "type": "EF", "position": 191, "weight": 0.258243}, 
                {"id": 17, "lemma": "?", "type": "SF", "position": 197, "weight": 1}
            ], 
            "morp_eval": [], 
            "WSD": [
                {"id": 0, "text": "개인", "type": "NNG", "scode": "020000", "weight": 0.166667, "position": 125, "begin": 0, "end": 0}, 
                {"id": 1, "text": "서명", "type": "NNG", "scode": "030001", "weight": 0.2, "position": 132, "begin": 1, "end": 1}, 
                {"id": 2, "text": "이", "type": "JKS", "scode": "000000", "weight": 1, "position": 138, "begin": 2, "end": 2}, 
                {"id": 3, "text": "일반화되", "type": "VV", "scode": "000000", "weight": 1, "position": 142, "begin": 3, "end": 5}, 
                {"id": 4, "text": "기", "type": "ETN", "scode": "000000", "weight": 1, "position": 154, "begin": 6, "end": 6}, 
                {"id": 5, "text": "전", "type": "NNG", "scode": "080002", "weight": 0.02, "position": 158, "begin": 7, "end": 7}, 
                {"id": 6, "text": "사용하", "type": "VV", "scode": "030001", "weight": 0.25, "position": 162, "begin": 8, "end": 9}, 
                {"id": 7, "text": "았", "type": "EP", "scode": "000000", "weight": 1, "position": 168, "begin": 10, "end": 10}, 
                {"id": 8, "text": "던", "type": "ETM", "scode": "000000", "weight": 1, "position": 171, "begin": 11, "end": 11}, 
                {"id": 9, "text": "이것", "type": "NP", "scode": "000001", "weight": 0.25, "position": 175, "begin": 12, "end": 12}, 
                {"id": 10, "text": "은", "type": "JX", "scode": "000000", "weight": 1, "position": 181, "begin": 13, "end": 13}, 
                {"id": 11, "text": "무엇", "type": "NP", "scode": "000001", "weight": 0.5, "position": 185, "begin": 14, "end": 14}, 
                {"id": 12, "text": "이", "type": "VCP", "scode": "030000", "weight": 0.0172414, "position": 191, "begin": 15, "end": 15}, 
                {"id": 13, "text": "ㄹ까", "type": "EF", "scode": "000000", "weight": 1, "position": 191, "begin": 16, "end": 16}, 
                {"id": 14, "text": "?", "type": "SF", "scode": "000000", "weight": 1, "position": 197, "begin": 17, "end": 17}
            ], 
            "word": [
                {"id": 0, "text": "개인", "type": "", "begin": 0, "end": 0}, 
                {"id": 1, "text": "서명이", "type": "", "begin": 1, "end": 2}, 
                {"id": 2, "text": "일반화되기", "type": "", "begin": 3, "end": 6}, 
                {"id": 3, "text": "전", "type": "", "begin": 7, "end": 7}, 
                {"id": 4, "text": "사용했던", "type": "", "begin": 8, "end": 11}, 
                {"id": 5, "text": "이것은", "type": "", "begin": 12, "end": 13}, 
                {"id": 6, "text": "무엇일까?", "type": "", "begin": 14, "end": 17}
            ], 
            "NE": [], 
            "chunk": [], 
            "dependency": [
                {"id": 0, "text": "개인", "head": 1, "label": "NP", "mod": [], "weight": 0.582571}, 
                {"id": 1, "text": "서명이", "head": 2, "label": "NP_SBJ", "mod": [0], "weight": 0.586592}, 
                {"id": 2, "text": "일반화되기", "head": 3, "label": "VP", "mod": [1], "weight": 0.567153}, 
                {"id": 3, "text": "전", "head": 4, "label": "NP_AJT", "mod": [2], "weight": 0.695285}, 
                {"id": 4, "text": "사용했던", "head": 5, "label": "VP_MOD", "mod": [3], "weight": 0.710475}, 
                {"id": 5, "text": "이것은", "head": 6, "label": "NP_SBJ", "mod": [4], "weight": 0.831237}, 
                {"id": 6, "text": "무엇일까?", "head": -1, "label": "VNP", "mod": [5], "weight": 0.069154}
            ], 
            "SRL": [
                {"verb": "일반화", "sense": 1, "word_id": 2, "weight": 0.243635, "argument": [
                    {"type": "ARG1", "word_id": 1, "text": "서명이", "weight": 0.243635}
                ]}, 
                {"verb": "사용", "sense": 1, "word_id": 4, "weight": 0.162728, "argument": [
                    {"type": "ARGM-TMP", "word_id": 3, "text": "전", "weight": 0.12894}, 
                    {"type": "ARG1", "word_id": 5, "text": "이것은", "weight": 0.196516}
                ]}
            ], 
            "relation": [], 
            "SA": [], 
            "ZA": []
        }
    ], 
    "entity": [
        {"id": 0, "type": "", "number": "singular", "gender": "", "person": "", "animacy": "thing", "mention": [
            {"id": 4, "sent_id": 0, "start_eid": 2, "end_eid": 9, "ne_id": -1, "text": "부동산 매매 계약서나 물건 구입 계약서를 작성할 때", "start_eid_short": 9, "end_eid_short": 9, "text_short": "때"}
        ]}, 
        {"id": 1, "type": "", "number": "singular", "gender": "", "person": "", "animacy": "thing", "mention": [
            {"id": 6, "sent_id": 0, "start_eid": 2, "end_eid": 3, "ne_id": -1, "text": "부동산 매매", "start_eid_short": 2, "end_eid_short": 3, "text_short": "부동산 매매"}
        ]}, 
        {"id": 2, "type": "", "number": "singular", "gender": "", "person": "", "animacy": "thing", "mention": [
            {"id": 7, "sent_id": 0, "start_eid": 2, "end_eid": 2, "ne_id": -1, "text": "부동산", "start_eid_short": 2, "end_eid_short": 2, "text_short": "부동산"}
        ]}, 
        {"id": 3, "type": "", "number": "singular", "gender": "", "person": "", "animacy": "thing", "mention": [
            {"id": 5, "sent_id": 0, "start_eid": 2, "end_eid": 4, "ne_id": -1, "text": "부동산 매매 계약서나", "start_eid_short": 2, "end_eid_short": 4, "text_short": "부동산 매매 계약서나"}
        ]}, 
        {"id": 4, "type": "", "number": "singular", "gender": "", "person": "", "animacy": "thing", "mention": [
            {"id": 9, "sent_id": 0, "start_eid": 5, "end_eid": 6, "ne_id": -1, "text": "물건 구입", "start_eid_short": 5, "end_eid_short": 6, "text_short": "물건 구입"}
        ]}, 
        {"id": 5, "type": "", "number": "singular", "gender": "", "person": "", "animacy": "thing", "mention": [
            {"id": 10, "sent_id": 0, "start_eid": 5, "end_eid": 5, "ne_id": -1, "text": "물건", "start_eid_short": 5, "end_eid_short": 5, "text_short": "물건"}
        ]}, 
        {"id": 6, "type": "", "number": "singular", "gender": "", "person": "", "animacy": "thing", "mention": [
            {"id": 11, "sent_id": 0, "start_eid": 10, "end_eid": 10, "ne_id": -1, "text": "이것을", "start_eid_short": 10, "end_eid_short": 10, "text_short": "이것을"}, 
            {"id": 14, "sent_id": 1, "start_eid": 5, "end_eid": 5, "ne_id": -1, "text": "이것은", "start_eid_short": 5, "end_eid_short": 5, "text_short": "이것은"}, 
            {"id": 15, "sent_id": 1, "start_eid": 6, "end_eid": 6, "ne_id": -1, "text": "무엇일까?", "start_eid_short": 6, "end_eid_short": 6, "text_short": "무엇일까?"}
        ]}, 
        {"id": 7, "type": "", "number": "singular", "gender": "", "person": "", "animacy": "thing", "mention": [
            {"id": 12, "sent_id": 1, "start_eid": 0, "end_eid": 1, "ne_id": -1, "text": "개인 서명이", "start_eid_short": 0, "end_eid_short": 1, "text_short": "개인 서명이"}
        ]}, 
        {"id": 8, "type": "", "number": "singular", "gender": "", "person": "", "animacy": "thing", "mention": [
            {"id": 13, "sent_id": 1, "start_eid": 0, "end_eid": 0, "ne_id": -1, "text": "개인", "start_eid_short": 0, "end_eid_short": 0, "text_short": "개인"}
        ]}, 
        {"id": 9, "type": "", "number": "plural", "gender": "", "person": "", "animacy": "thing", "mention": [
            {"id": 0, "sent_id": 0, "start_eid": 0, "end_eid": 1, "ne_id": -1, "text": "'날인'과 '간인'은", "start_eid_short": 1, "end_eid_short": 1, "text_short": "'간인'은"}, 
            {"id": 3, "sent_id": 0, "start_eid": 2, "end_eid": 12, "ne_id": -1, "text": "부동산 매매 계약서나 물건 구입 계약서를 작성할 때 이것을 찍는 방법이다.", "start_eid_short": 12, "end_eid_short": 12, "text_short": "방법이다."}
        ]}, 
        {"id": 10, "type": "", "number": "singular", "gender": "", "person": "", "animacy": "thing", "mention": [
            {"id": 2, "sent_id": 0, "start_eid": 1, "end_eid": 1, "ne_id": -1, "text": "'간인'은", "start_eid_short": 1, "end_eid_short": 1, "text_short": "'간인'은"}
        ]}, 
        {"id": 11, "type": "", "number": "singular", "gender": "", "person": "", "animacy": "thing", "mention": [
            {"id": 1, "sent_id": 0, "start_eid": 0, "end_eid": 0, "ne_id": -1, "text": "'날인'과", "start_eid_short": 0, "end_eid_short": 0, "text_short": "'날인'과"}
        ]}, 
        {"id": 12, "type": "", "number": "singular", "gender": "", "person": "", "animacy": "thing", "mention": [
            {"id": 8, "sent_id": 0, "start_eid": 5, "end_eid": 7, "ne_id": -1, "text": "물건 구입 계약서를", "start_eid_short": 5, "end_eid_short": 7, "text_short": "물건 구입 계약서를"}
        ]}
    ]
}