{
    "doc_id": "E2016.887.04_Q_01.json", 
    "DCT": "", 
    "category": "", 
    "category_weight": 0, 
    "title": {
        "text": "", 
        "NE": ""
    }, 
    "metaInfo": {}, 
    "sentence": [
        {
            "id": 0, 
            "reserve_str": "", 
            "text": "가장조에 들어가는 올림표는 몇 개일까?", 
            "morp": [
                {"id": 0, "lemma": "가", "type": "NNG", "position": 0, "weight": 0.000791156}, 
                {"id": 1, "lemma": "장조", "type": "NNG", "position": 3, "weight": 0.165718}, 
                {"id": 2, "lemma": "에", "type": "JKB", "position": 9, "weight": 0.153364}, 
                {"id": 3, "lemma": "들어가", "type": "VV", "position": 13, "weight": 0.9}, 
                {"id": 4, "lemma": "는", "type": "ETM", "position": 22, "weight": 0.184941}, 
                {"id": 5, "lemma": "올림표", "type": "NNG", "position": 26, "weight": 0.8}, 
                {"id": 6, "lemma": "는", "type": "JX", "position": 35, "weight": 0.0287565}, 
                {"id": 7, "lemma": "몇", "type": "MM", "position": 39, "weight": 0.0399668}, 
                {"id": 8, "lemma": "개", "type": "NNB", "position": 43, "weight": 0.157893}, 
                {"id": 9, "lemma": "이", "type": "VCP", "position": 46, "weight": 0.0607843}, 
                {"id": 10, "lemma": "ㄹ까", "type": "EF", "position": 46, "weight": 0.258243}, 
                {"id": 11, "lemma": "?", "type": "SF", "position": 52, "weight": 1}
            ], 
            "morp_eval": [], 
            "WSD": [
                {"id": 0, "text": "가장조", "type": "NNG", "scode": "000000", "weight": 1, "position": 0, "begin": 0, "end": 1}, 
                {"id": 1, "text": "에", "type": "JKB", "scode": "000000", "weight": 1, "position": 9, "begin": 2, "end": 2}, 
                {"id": 2, "text": "들어가", "type": "VV", "scode": "010202", "weight": 0.0714286, "position": 13, "begin": 3, "end": 3}, 
                {"id": 3, "text": "는", "type": "ETM", "scode": "000000", "weight": 1, "position": 22, "begin": 4, "end": 4}, 
                {"id": 4, "text": "올림표", "type": "NNG", "scode": "000000", "weight": 1, "position": 26, "begin": 5, "end": 5}, 
                {"id": 5, "text": "는", "type": "JX", "scode": "000000", "weight": 1, "position": 35, "begin": 6, "end": 6}, 
                {"id": 6, "text": "몇", "type": "MM", "scode": "000101", "weight": 0.25, "position": 39, "begin": 7, "end": 7}, 
                {"id": 7, "text": "개", "type": "NNB", "scode": "100001", "weight": 0.0454545, "position": 43, "begin": 8, "end": 8}, 
                {"id": 8, "text": "이", "type": "VCP", "scode": "030000", "weight": 0.0172414, "position": 46, "begin": 9, "end": 9}, 
                {"id": 9, "text": "ㄹ까", "type": "EF", "scode": "000000", "weight": 1, "position": 46, "begin": 10, "end": 10}, 
                {"id": 10, "text": "?", "type": "SF", "scode": "000000", "weight": 1, "position": 52, "begin": 11, "end": 11}
            ], 
            "word": [
                {"id": 0, "text": "가장조에", "type": "", "begin": 0, "end": 2}, 
                {"id": 1, "text": "들어가는", "type": "", "begin": 3, "end": 4}, 
                {"id": 2, "text": "올림표는", "type": "", "begin": 5, "end": 6}, 
                {"id": 3, "text": "몇", "type": "", "begin": 7, "end": 7}, 
                {"id": 4, "text": "개일까?", "type": "", "begin": 8, "end": 11}
            ], 
            "NE": [], 
            "chunk": [], 
            "dependency": [
                {"id": 0, "text": "가장조에", "head": 1, "label": "NP_AJT", "mod": [], "weight": 0.863056}, 
                {"id": 1, "text": "들어가는", "head": 2, "label": "VP_MOD", "mod": [0], "weight": 0.728807}, 
                {"id": 2, "text": "올림표는", "head": 4, "label": "NP_SBJ", "mod": [1], "weight": 0.733601}, 
                {"id": 3, "text": "몇", "head": 4, "label": "DP", "mod": [], "weight": 0.713973}, 
                {"id": 4, "text": "개일까?", "head": -1, "label": "VNP", "mod": [2, 3], "weight": 0.277696}
            ], 
            "SRL": [
                {"verb": "들어가", "sense": 2, "word_id": 1, "weight": 0.186518, "argument": [
                    {"type": "ARG2", "word_id": 0, "text": "가장조에", "weight": 0.196041}, 
                    {"type": "ARG1", "word_id": 2, "text": "올림표는", "weight": 0.176994}
                ]}
            ], 
            "relation": [], 
            "SA": [], 
            "ZA": []
        }
    ], 
    "entity": [
        {"id": 0, "type": "", "number": "singular", "gender": "", "person": "", "animacy": "thing", "mention": [
            {"id": 0, "sent_id": 0, "start_eid": 0, "end_eid": 2, "ne_id": -1, "text": "가장조에 들어가는 올림표는", "start_eid_short": 2, "end_eid_short": 2, "text_short": "올림표는"}
        ]}, 
        {"id": 1, "type": "", "number": "singular", "gender": "", "person": "", "animacy": "thing", "mention": [
            {"id": 1, "sent_id": 0, "start_eid": 0, "end_eid": 0, "ne_id": -1, "text": "가장조에", "start_eid_short": 0, "end_eid_short": 0, "text_short": "가장조에"}
        ]}, 
        {"id": 2, "type": "", "number": "singular", "gender": "", "person": "", "animacy": "thing", "mention": [
            {"id": 2, "sent_id": 0, "start_eid": 3, "end_eid": 4, "ne_id": -1, "text": "몇 개일까?", "start_eid_short": 4, "end_eid_short": 4, "text_short": "개일까?"}
        ]}
    ]
}