{
    "doc_id": "E2016.836.06_A_02.json", 
    "DCT": "", 
    "category": "", 
    "category_weight": 0, 
    "title": {
        "text": "독도", 
        "NE": ""
    }, 
    "metaInfo": {}, 
    "sentence": [
        {
            "id": 0, 
            "reserve_str": "", 
            "text": "조선시대에는 독도를 우산도(于山島), 삼봉도(三峰島), 가지도(可支島) 등으로 불렀으며, 울릉도 주민들은 돌(石)을 독이라고 하고 돌섬을 독섬이라고 하였다.", 
            "morp": [
                {"id": 0, "lemma": "조선", "type": "NNP", "position": 0, "weight": 0.0878802}, 
                {"id": 1, "lemma": "시대", "type": "NNG", "position": 6, "weight": 0.9}, 
                {"id": 2, "lemma": "에", "type": "JKB", "position": 12, "weight": 0.153364}, 
                {"id": 3, "lemma": "는", "type": "JX", "position": 15, "weight": 0.0387928}, 
                {"id": 4, "lemma": "독도", "type": "NNP", "position": 19, "weight": 0.0445994}, 
                {"id": 5, "lemma": "를", "type": "JKO", "position": 25, "weight": 0.0283046}, 
                {"id": 6, "lemma": "우산도", "type": "NNP", "position": 29, "weight": 0.0001}, 
                {"id": 7, "lemma": "(", "type": "SS", "position": 38, "weight": 1}, 
                {"id": 8, "lemma": "于山島", "type": "SH", "position": 39, "weight": 1}, 
                {"id": 9, "lemma": ")", "type": "SS", "position": 48, "weight": 1}, 
                {"id": 10, "lemma": ",", "type": "SP", "position": 49, "weight": 1}, 
                {"id": 11, "lemma": "삼봉", "type": "NNG", "position": 51, "weight": 0.2658}, 
                {"id": 12, "lemma": "도", "type": "XSN", "position": 57, "weight": 0.0001}, 
                {"id": 13, "lemma": "(", "type": "SS", "position": 60, "weight": 1}, 
                {"id": 14, "lemma": "三峰島", "type": "SH", "position": 61, "weight": 1}, 
                {"id": 15, "lemma": ")", "type": "SS", "position": 70, "weight": 1}, 
                {"id": 16, "lemma": ",", "type": "SP", "position": 71, "weight": 1}, 
                {"id": 17, "lemma": "가지도", "type": "NNG", "position": 73, "weight": 0.000960338}, 
                {"id": 18, "lemma": "(", "type": "SS", "position": 82, "weight": 1}, 
                {"id": 19, "lemma": "可支島", "type": "SH", "position": 83, "weight": 1}, 
                {"id": 20, "lemma": ")", "type": "SS", "position": 92, "weight": 1}, 
                {"id": 21, "lemma": "등", "type": "NNB", "position": 94, "weight": 0.0121753}, 
                {"id": 22, "lemma": "으로", "type": "JKB", "position": 97, "weight": 0.135596}, 
                {"id": 23, "lemma": "부르", "type": "VV", "position": 104, "weight": 0.436568}, 
                {"id": 24, "lemma": "었", "type": "EP", "position": 104, "weight": 0.9}, 
                {"id": 25, "lemma": "으며", "type": "EC", "position": 110, "weight": 0.197482}, 
                {"id": 26, "lemma": ",", "type": "SP", "position": 116, "weight": 1}, 
                {"id": 27, "lemma": "울릉도", "type": "NNP", "position": 118, "weight": 0.9}, 
                {"id": 28, "lemma": "주민", "type": "NNG", "position": 128, "weight": 0.9}, 
                {"id": 29, "lemma": "들", "type": "XSN", "position": 134, "weight": 0.0299841}, 
                {"id": 30, "lemma": "은", "type": "JX", "position": 137, "weight": 0.100393}, 
                {"id": 31, "lemma": "돌", "type": "NNG", "position": 141, "weight": 0.149729}, 
                {"id": 32, "lemma": "(", "type": "SS", "position": 144, "weight": 1}, 
                {"id": 33, "lemma": "石", "type": "SH", "position": 145, "weight": 1}, 
                {"id": 34, "lemma": ")", "type": "SS", "position": 148, "weight": 1}, 
                {"id": 35, "lemma": "을", "type": "JKO", "position": 149, "weight": 0.0336085}, 
                {"id": 36, "lemma": "독", "type": "NNG", "position": 153, "weight": 0.0894657}, 
                {"id": 37, "lemma": "이", "type": "VCP", "position": 156, "weight": 0.00334945}, 
                {"id": 38, "lemma": "라고", "type": "EC", "position": 156, "weight": 0.00334945}, 
                {"id": 39, "lemma": "하", "type": "VV", "position": 166, "weight": 0.0910671}, 
                {"id": 40, "lemma": "고", "type": "EC", "position": 169, "weight": 0.416679}, 
                {"id": 41, "lemma": "돌섬", "type": "NNG", "position": 173, "weight": 0.195043}, 
                {"id": 42, "lemma": "을", "type": "JKO", "position": 179, "weight": 0.129611}, 
                {"id": 43, "lemma": "독섬", "type": "NNP", "position": 183, "weight": 0.1}, 
                {"id": 44, "lemma": "이", "type": "VCP", "position": 189, "weight": 0.00359898}, 
                {"id": 45, "lemma": "라고", "type": "EC", "position": 192, "weight": 0.204147}, 
                {"id": 46, "lemma": "하", "type": "VV", "position": 199, "weight": 0.140183}, 
                {"id": 47, "lemma": "았", "type": "EP", "position": 202, "weight": 0.9}, 
                {"id": 48, "lemma": "다", "type": "EF", "position": 205, "weight": 0.640954}, 
                {"id": 49, "lemma": ".", "type": "SF", "position": 208, "weight": 1}
            ], 
            "morp_eval": [], 
            "WSD": [
                {"id": 0, "text": "조선", "type": "NNP", "scode": "050002", "weight": 0.0833333, "position": 0, "begin": 0, "end": 0}, 
                {"id": 1, "text": "시대", "type": "NNG", "scode": "020001", "weight": 0.333333, "position": 6, "begin": 1, "end": 1}, 
                {"id": 2, "text": "에", "type": "JKB", "scode": "000000", "weight": 1, "position": 12, "begin": 2, "end": 2}, 
                {"id": 3, "text": "는", "type": "JX", "scode": "000000", "weight": 1, "position": 15, "begin": 3, "end": 3}, 
                {"id": 4, "text": "독도", "type": "NNP", "scode": "010000", "weight": 0.5, "position": 19, "begin": 4, "end": 4}, 
                {"id": 5, "text": "를", "type": "JKO", "scode": "000000", "weight": 1, "position": 25, "begin": 5, "end": 5}, 
                {"id": 6, "text": "우산도", "type": "NNP", "scode": "000000", "weight": 1, "position": 29, "begin": 6, "end": 6}, 
                {"id": 7, "text": "(", "type": "SS", "scode": "000000", "weight": 1, "position": 38, "begin": 7, "end": 7}, 
                {"id": 8, "text": "于山島", "type": "SH", "scode": "000000", "weight": 1, "position": 39, "begin": 8, "end": 8}, 
                {"id": 9, "text": ")", "type": "SS", "scode": "000000", "weight": 1, "position": 48, "begin": 9, "end": 9}, 
                {"id": 10, "text": ",", "type": "SP", "scode": "000000", "weight": 1, "position": 49, "begin": 10, "end": 10}, 
                {"id": 11, "text": "삼봉", "type": "NNG", "scode": "888888", "weight": 0.5, "position": 51, "begin": 11, "end": 11}, 
                {"id": 12, "text": "도", "type": "XSN", "scode": "180000", "weight": 0.025641, "position": 57, "begin": 12, "end": 12}, 
                {"id": 13, "text": "(", "type": "SS", "scode": "000000", "weight": 1, "position": 60, "begin": 13, "end": 13}, 
                {"id": 14, "text": "三峰島", "type": "SH", "scode": "000000", "weight": 1, "position": 61, "begin": 14, "end": 14}, 
                {"id": 15, "text": ")", "type": "SS", "scode": "000000", "weight": 1, "position": 70, "begin": 15, "end": 15}, 
                {"id": 16, "text": ",", "type": "SP", "scode": "000000", "weight": 1, "position": 71, "begin": 16, "end": 16}, 
                {"id": 17, "text": "가지도", "type": "NNG", "scode": "000000", "weight": 1, "position": 73, "begin": 17, "end": 17}, 
                {"id": 18, "text": "(", "type": "SS", "scode": "000000", "weight": 1, "position": 82, "begin": 18, "end": 18}, 
                {"id": 19, "text": "可支島", "type": "SH", "scode": "000000", "weight": 1, "position": 83, "begin": 19, "end": 19}, 
                {"id": 20, "text": ")", "type": "SS", "scode": "000000", "weight": 1, "position": 92, "begin": 20, "end": 20}, 
                {"id": 21, "text": "등", "type": "NNB", "scode": "050001", "weight": 0.0526316, "position": 94, "begin": 21, "end": 21}, 
                {"id": 22, "text": "으로", "type": "JKB", "scode": "000000", "weight": 1, "position": 97, "begin": 22, "end": 22}, 
                {"id": 23, "text": "부르", "type": "VV", "scode": "010300", "weight": 0.0714286, "position": 104, "begin": 23, "end": 23}, 
                {"id": 24, "text": "었", "type": "EP", "scode": "000000", "weight": 1, "position": 104, "begin": 24, "end": 24}, 
                {"id": 25, "text": "으며", "type": "EC", "scode": "000000", "weight": 1, "position": 110, "begin": 25, "end": 25}, 
                {"id": 26, "text": ",", "type": "SP", "scode": "000000", "weight": 1, "position": 116, "begin": 26, "end": 26}, 
                {"id": 27, "text": "울릉도", "type": "NNP", "scode": "000000", "weight": 1, "position": 118, "begin": 27, "end": 27}, 
                {"id": 28, "text": "주민", "type": "NNG", "scode": "000001", "weight": 0.5, "position": 128, "begin": 28, "end": 28}, 
                {"id": 29, "text": "들", "type": "XSN", "scode": "090000", "weight": 0.0909091, "position": 134, "begin": 29, "end": 29}, 
                {"id": 30, "text": "은", "type": "JX", "scode": "000000", "weight": 1, "position": 137, "begin": 30, "end": 30}, 
                {"id": 31, "text": "돌", "type": "NNG", "scode": "020001", "weight": 0.0909091, "position": 141, "begin": 31, "end": 31}, 
                {"id": 32, "text": "(", "type": "SS", "scode": "000000", "weight": 1, "position": 144, "begin": 32, "end": 32}, 
                {"id": 33, "text": "石", "type": "SH", "scode": "000000", "weight": 1, "position": 145, "begin": 33, "end": 33}, 
                {"id": 34, "text": ")", "type": "SS", "scode": "000000", "weight": 1, "position": 148, "begin": 34, "end": 34}, 
                {"id": 35, "text": "을", "type": "JKO", "scode": "000000", "weight": 1, "position": 149, "begin": 35, "end": 35}, 
                {"id": 36, "text": "독", "type": "NNG", "scode": "030000", "weight": 0.0625, "position": 153, "begin": 36, "end": 36}, 
                {"id": 37, "text": "이", "type": "VCP", "scode": "030000", "weight": 0.0172414, "position": 156, "begin": 37, "end": 37}, 
                {"id": 38, "text": "라고", "type": "EC", "scode": "000000", "weight": 1, "position": 156, "begin": 38, "end": 38}, 
                {"id": 39, "text": "하", "type": "VV", "scode": "010400", "weight": 0.02, "position": 166, "begin": 39, "end": 39}, 
                {"id": 40, "text": "고", "type": "EC", "scode": "000000", "weight": 1, "position": 169, "begin": 40, "end": 40}, 
                {"id": 41, "text": "돌섬", "type": "NNG", "scode": "010000", "weight": 0.5, "position": 173, "begin": 41, "end": 41}, 
                {"id": 42, "text": "을", "type": "JKO", "scode": "000000", "weight": 1, "position": 179, "begin": 42, "end": 42}, 
                {"id": 43, "text": "독섬", "type": "NNP", "scode": "000000", "weight": 0, "position": 183, "begin": 43, "end": 43}, 
                {"id": 44, "text": "이", "type": "VCP", "scode": "030000", "weight": 0.0172414, "position": 189, "begin": 44, "end": 44}, 
                {"id": 45, "text": "라고", "type": "EC", "scode": "000000", "weight": 1, "position": 192, "begin": 45, "end": 45}, 
                {"id": 46, "text": "하", "type": "VV", "scode": "010400", "weight": 0.02, "position": 199, "begin": 46, "end": 46}, 
                {"id": 47, "text": "았", "type": "EP", "scode": "000000", "weight": 1, "position": 202, "begin": 47, "end": 47}, 
                {"id": 48, "text": "다", "type": "EF", "scode": "000000", "weight": 1, "position": 205, "begin": 48, "end": 48}, 
                {"id": 49, "text": ".", "type": "SF", "scode": "000000", "weight": 1, "position": 208, "begin": 49, "end": 49}
            ], 
            "word": [
                {"id": 0, "text": "조선시대에는", "type": "", "begin": 0, "end": 3}, 
                {"id": 1, "text": "독도를", "type": "", "begin": 4, "end": 5}, 
                {"id": 2, "text": "우산도(于山島),", "type": "", "begin": 6, "end": 10}, 
                {"id": 3, "text": "삼봉도(三峰島),", "type": "", "begin": 11, "end": 16}, 
                {"id": 4, "text": "가지도(可支島)", "type": "", "begin": 17, "end": 20}, 
                {"id": 5, "text": "등으로", "type": "", "begin": 21, "end": 22}, 
                {"id": 6, "text": "불렀으며,", "type": "", "begin": 23, "end": 26}, 
                {"id": 7, "text": "울릉도", "type": "", "begin": 27, "end": 27}, 
                {"id": 8, "text": "주민들은", "type": "", "begin": 28, "end": 30}, 
                {"id": 9, "text": "돌(石)을", "type": "", "begin": 31, "end": 35}, 
                {"id": 10, "text": "독이라고", "type": "", "begin": 36, "end": 38}, 
                {"id": 11, "text": "하고", "type": "", "begin": 39, "end": 40}, 
                {"id": 12, "text": "돌섬을", "type": "", "begin": 41, "end": 42}, 
                {"id": 13, "text": "독섬이라고", "type": "", "begin": 43, "end": 45}, 
                {"id": 14, "text": "하였다.", "type": "", "begin": 46, "end": 49}
            ], 
            "NE": [
                {"id": 0, "text": "조선시대", "type": "DT_DYNASTY", "begin": 0, "end": 1, "weight": 0.918699, "common_noun": 0}, 
                {"id": 1, "text": "독도", "type": "LCG_ISLAND", "begin": 4, "end": 4, "weight": 0.409952, "common_noun": 0}, 
                {"id": 2, "text": "우산도", "type": "LCG_ISLAND", "begin": 6, "end": 6, "weight": 0.520365, "common_noun": 0}, 
                {"id": 3, "text": "于山島", "type": "LCG_ISLAND", "begin": 8, "end": 8, "weight": 1, "common_noun": 0}, 
                {"id": 4, "text": "삼봉도", "type": "LCG_ISLAND", "begin": 11, "end": 12, "weight": 0.541238, "common_noun": 0}, 
                {"id": 5, "text": "三峰島", "type": "LCG_ISLAND", "begin": 14, "end": 14, "weight": 0.271316, "common_noun": 0}, 
                {"id": 6, "text": "가지도", "type": "LCG_ISLAND", "begin": 17, "end": 17, "weight": 0.42583, "common_noun": 0}, 
                {"id": 7, "text": "可支島", "type": "LCG_ISLAND", "begin": 19, "end": 19, "weight": 0.250831, "common_noun": 0}, 
                {"id": 8, "text": "울릉도", "type": "LCG_ISLAND", "begin": 27, "end": 27, "weight": 0.797309, "common_noun": 0}, 
                {"id": 9, "text": "주민", "type": "CV_POSITION", "begin": 28, "end": 28, "weight": 0.797309, "common_noun": 0}, 
                {"id": 10, "text": "돌섬", "type": "LCG_ISLAND", "begin": 41, "end": 41, "weight": 0.188811, "common_noun": 0}, 
                {"id": 11, "text": "독섬", "type": "LCG_ISLAND", "begin": 43, "end": 43, "weight": 0.337655, "common_noun": 0}
            ], 
            "chunk": [], 
            "dependency": [
                {"id": 0, "text": "조선시대에는", "head": 6, "label": "NP_AJT", "mod": [], "weight": 0.681412}, 
                {"id": 1, "text": "독도를", "head": 6, "label": "NP_OBJ", "mod": [], "weight": 0.813892}, 
                {"id": 2, "text": "우산도(于山島),", "head": 4, "label": "NP_CNJ", "mod": [], "weight": 0.697993}, 
                {"id": 3, "text": "삼봉도(三峰島),", "head": 4, "label": "NP_CNJ", "mod": [], "weight": 0.643926}, 
                {"id": 4, "text": "가지도(可支島)", "head": 5, "label": "NP", "mod": [2, 3], "weight": 0.678988}, 
                {"id": 5, "text": "등으로", "head": 6, "label": "NP_AJT", "mod": [4], "weight": 0.744018}, 
                {"id": 6, "text": "불렀으며,", "head": 10, "label": "VP", "mod": [0, 1, 5], "weight": 0.359347}, 
                {"id": 7, "text": "울릉도", "head": 8, "label": "NP", "mod": [], "weight": 0.636072}, 
                {"id": 8, "text": "주민들은", "head": 10, "label": "NP_SBJ", "mod": [7], "weight": 0.321846}, 
                {"id": 9, "text": "돌(石)을", "head": 10, "label": "NP_OBJ", "mod": [], "weight": 0.768622}, 
                {"id": 10, "text": "독이라고", "head": 11, "label": "VNP_CMP", "mod": [6, 8, 9], "weight": 0.509072}, 
                {"id": 11, "text": "하고", "head": 13, "label": "VP", "mod": [10], "weight": 0.76465}, 
                {"id": 12, "text": "돌섬을", "head": 13, "label": "NP_OBJ", "mod": [], "weight": 0.821367}, 
                {"id": 13, "text": "독섬이라고", "head": 14, "label": "VNP_CMP", "mod": [11, 12], "weight": 0.573761}, 
                {"id": 14, "text": "하였다.", "head": -1, "label": "VP", "mod": [13], "weight": 0.00107049}
            ], 
            "SRL": [
                {"verb": "부르", "sense": 1, "word_id": 6, "weight": 0.147634, "argument": [
                    {"type": "ARGM-TMP", "word_id": 0, "text": "조선시대에는", "weight": 0.111506}, 
                    {"type": "ARG1", "word_id": 1, "text": "독도를", "weight": 0.24988}, 
                    {"type": "ARG2", "word_id": 5, "text": "등으로", "weight": 0.0815157}
                ]}, 
                {"verb": "하", "sense": 2, "word_id": 11, "weight": 0.172157, "argument": [
                    {"type": "ARG0", "word_id": 8, "text": "주민들은", "weight": 0.16656}, 
                    {"type": "ARG1", "word_id": 9, "text": "돌(石)을", "weight": 0.140285}, 
                    {"type": "ARG2", "word_id": 10, "text": "독이라고", "weight": 0.209626}
                ]}, 
                {"verb": "하", "sense": 2, "word_id": 14, "weight": 0.208629, "argument": [
                    {"type": "ARG1", "word_id": 12, "text": "돌섬을", "weight": 0.228346}, 
                    {"type": "ARG2", "word_id": 13, "text": "독섬이라고", "weight": 0.188913}, 
                    {"type": "ARG0", "word_id": 8, "text": "주민들은", "weight": 1}
                ]}
            ], 
            "relation": [], 
            "SA": [], 
            "ZA": []
        }
    ], 
    "entity": [
        {"id": 0, "type": "DT_DYNASTY", "number": "singular", "gender": "", "person": "", "animacy": "time", "mention": [
            {"id": 0, "sent_id": 0, "start_eid": 0, "end_eid": 0, "ne_id": 0, "text": "조선시대에는", "start_eid_short": 0, "end_eid_short": 0, "text_short": "조선시대에는"}
        ]}, 
        {"id": 1, "type": "LCG_ISLAND", "number": "singular", "gender": "", "person": "", "animacy": "place", "mention": [
            {"id": 1, "sent_id": 0, "start_eid": 1, "end_eid": 5, "ne_id": -1, "text": "독도를 우산도(于山島), 삼봉도(三峰島), 가지도(可支島) 등으로", "start_eid_short": 5, "end_eid_short": 5, "text_short": "등으로"}, 
            {"id": 2, "sent_id": 0, "start_eid": 1, "end_eid": 1, "ne_id": 1, "text": "독도를", "start_eid_short": 1, "end_eid_short": 1, "text_short": "독도를"}, 
            {"id": 3, "sent_id": 0, "start_eid": 2, "end_eid": 2, "ne_id": 2, "text": "우산도(于山島),", "start_eid_short": 2, "end_eid_short": 0, "text_short": ""}, 
            {"id": 4, "sent_id": 0, "start_eid": 3, "end_eid": 3, "ne_id": 4, "text": "삼봉도(三峰島),", "start_eid_short": 3, "end_eid_short": 0, "text_short": ""}, 
            {"id": 5, "sent_id": 0, "start_eid": 4, "end_eid": 4, "ne_id": 6, "text": "가지도(可支島)", "start_eid_short": 4, "end_eid_short": 0, "text_short": ""}, 
            {"id": 8, "sent_id": 0, "start_eid": 12, "end_eid": 12, "ne_id": -1, "text": "돌섬을", "start_eid_short": 12, "end_eid_short": 12, "text_short": "돌섬을"}, 
            {"id": 9, "sent_id": 0, "start_eid": 13, "end_eid": 13, "ne_id": 10, "text": "독섬이라고", "start_eid_short": 13, "end_eid_short": 13, "text_short": "독섬이라고"}
        ]}, 
        {"id": 2, "type": "CV_POSITION", "number": "singular", "gender": "", "person": "", "animacy": "human", "mention": [
            {"id": 6, "sent_id": 0, "start_eid": 7, "end_eid": 8, "ne_id": 9, "text": "울릉도 주민들은", "start_eid_short": 7, "end_eid_short": 8, "text_short": "울릉도 주민들은"}
        ]}, 
        {"id": 3, "type": "LCG_ISLAND", "number": "singular", "gender": "", "person": "", "animacy": "place", "mention": [
            {"id": 7, "sent_id": 0, "start_eid": 7, "end_eid": 7, "ne_id": 8, "text": "울릉도", "start_eid_short": 7, "end_eid_short": 7, "text_short": "울릉도"}
        ]}
    ]
}