{
    "doc_id": "E2016.835.26_A_02.json", 
    "DCT": "", 
    "category": "", 
    "category_weight": 0, 
    "title": {
        "text": "러다이트운동", 
        "NE": ""
    }, 
    "metaInfo": {}, 
    "sentence": [
        {
            "id": 0, 
            "reserve_str": "", 
            "text": "<역사> 1811년에 영국의 중부와 북부의 섬유 공업 지대에서 일어난 노동자의 반(反)자본주의 운동.", 
            "morp": [
                {"id": 0, "lemma": "<", "type": "SS", "position": 0, "weight": 1}, 
                {"id": 1, "lemma": "역사", "type": "NNG", "position": 1, "weight": 0.199932}, 
                {"id": 2, "lemma": ">", "type": "SS", "position": 7, "weight": 1}, 
                {"id": 3, "lemma": "1811", "type": "SN", "position": 9, "weight": 1}, 
                {"id": 4, "lemma": "년", "type": "NNB", "position": 13, "weight": 0.414343}, 
                {"id": 5, "lemma": "에", "type": "JKB", "position": 16, "weight": 0.135559}, 
                {"id": 6, "lemma": "영국", "type": "NNP", "position": 20, "weight": 0.9}, 
                {"id": 7, "lemma": "의", "type": "JKG", "position": 26, "weight": 0.0987295}, 
                {"id": 8, "lemma": "중부", "type": "NNG", "position": 30, "weight": 0.869897}, 
                {"id": 9, "lemma": "와", "type": "JC", "position": 36, "weight": 0.0169714}, 
                {"id": 10, "lemma": "북부", "type": "NNG", "position": 40, "weight": 0.802512}, 
                {"id": 11, "lemma": "의", "type": "JKG", "position": 46, "weight": 0.0694213}, 
                {"id": 12, "lemma": "섬유", "type": "NNG", "position": 50, "weight": 0.870813}, 
                {"id": 13, "lemma": "공업", "type": "NNG", "position": 57, "weight": 0.9}, 
                {"id": 14, "lemma": "지대", "type": "NNG", "position": 64, "weight": 0.9}, 
                {"id": 15, "lemma": "에서", "type": "JKB", "position": 70, "weight": 0.153407}, 
                {"id": 16, "lemma": "일어나", "type": "VV", "position": 77, "weight": 0.9}, 
                {"id": 17, "lemma": "ㄴ", "type": "ETM", "position": 83, "weight": 0.304215}, 
                {"id": 18, "lemma": "노동", "type": "NNG", "position": 87, "weight": 0.9}, 
                {"id": 19, "lemma": "자", "type": "XSN", "position": 93, "weight": 0.00398741}, 
                {"id": 20, "lemma": "의", "type": "JKG", "position": 96, "weight": 0.120732}, 
                {"id": 21, "lemma": "반", "type": "XPN", "position": 100, "weight": 0.000535581}, 
                {"id": 22, "lemma": "(", "type": "SS", "position": 103, "weight": 1}, 
                {"id": 23, "lemma": "反", "type": "SH", "position": 104, "weight": 1}, 
                {"id": 24, "lemma": ")", "type": "SS", "position": 107, "weight": 1}, 
                {"id": 25, "lemma": "자본", "type": "NNG", "position": 108, "weight": 0.9}, 
                {"id": 26, "lemma": "주의", "type": "NNG", "position": 114, "weight": 0.9}, 
                {"id": 27, "lemma": "운동", "type": "NNG", "position": 121, "weight": 0.9}, 
                {"id": 28, "lemma": ".", "type": "SF", "position": 127, "weight": 1}
            ], 
            "morp_eval": [], 
            "WSD": [
                {"id": 0, "text": "<", "type": "SS", "scode": "000000", "weight": 1, "position": 0, "begin": 0, "end": 0}, 
                {"id": 1, "text": "역사", "type": "NNG", "scode": "040001", "weight": 0.0526316, "position": 1, "begin": 1, "end": 1}, 
                {"id": 2, "text": ">", "type": "SS", "scode": "000000", "weight": 1, "position": 7, "begin": 2, "end": 2}, 
                {"id": 3, "text": "1811", "type": "SN", "scode": "000000", "weight": 1, "position": 9, "begin": 3, "end": 3}, 
                {"id": 4, "text": "년", "type": "NNB", "scode": "020000", "weight": 0.166667, "position": 13, "begin": 4, "end": 4}, 
                {"id": 5, "text": "에", "type": "JKB", "scode": "000000", "weight": 1, "position": 16, "begin": 5, "end": 5}, 
                {"id": 6, "text": "영국", "type": "NNP", "scode": "010000", "weight": 0.5, "position": 20, "begin": 6, "end": 6}, 
                {"id": 7, "text": "의", "type": "JKG", "scode": "000000", "weight": 1, "position": 26, "begin": 7, "end": 7}, 
                {"id": 8, "text": "중부", "type": "NNG", "scode": "030001", "weight": 0.111111, "position": 30, "begin": 8, "end": 8}, 
                {"id": 9, "text": "와", "type": "JC", "scode": "000000", "weight": 1, "position": 36, "begin": 9, "end": 9}, 
                {"id": 10, "text": "북부", "type": "NNG", "scode": "010000", "weight": 0.333333, "position": 40, "begin": 10, "end": 10}, 
                {"id": 11, "text": "의", "type": "JKG", "scode": "000000", "weight": 1, "position": 46, "begin": 11, "end": 11}, 
                {"id": 12, "text": "섬유", "type": "NNG", "scode": "020000", "weight": 0.5, "position": 50, "begin": 12, "end": 12}, 
                {"id": 13, "text": "공업", "type": "NNG", "scode": "010000", "weight": 0.333333, "position": 57, "begin": 13, "end": 13}, 
                {"id": 14, "text": "지대", "type": "NNG", "scode": "070000", "weight": 0.0833333, "position": 64, "begin": 14, "end": 14}, 
                {"id": 15, "text": "에서", "type": "JKB", "scode": "000000", "weight": 1, "position": 70, "begin": 15, "end": 15}, 
                {"id": 16, "text": "일어나", "type": "VV", "scode": "000202", "weight": 0.0909091, "position": 77, "begin": 16, "end": 16}, 
                {"id": 17, "text": "ㄴ", "type": "ETM", "scode": "000000", "weight": 1, "position": 83, "begin": 17, "end": 17}, 
                {"id": 18, "text": "노동자", "type": "NNG", "scode": "000001", "weight": 0.5, "position": 87, "begin": 18, "end": 19}, 
                {"id": 19, "text": "의", "type": "JKG", "scode": "000000", "weight": 1, "position": 96, "begin": 20, "end": 20}, 
                {"id": 20, "text": "반", "type": "XPN", "scode": "150002", "weight": 0.0384615, "position": 100, "begin": 21, "end": 21}, 
                {"id": 21, "text": "(", "type": "SS", "scode": "000000", "weight": 1, "position": 103, "begin": 22, "end": 22}, 
                {"id": 22, "text": "反", "type": "SH", "scode": "000000", "weight": 1, "position": 104, "begin": 23, "end": 23}, 
                {"id": 23, "text": ")", "type": "SS", "scode": "000000", "weight": 1, "position": 107, "begin": 24, "end": 24}, 
                {"id": 24, "text": "자본주의", "type": "NNG", "scode": "000000", "weight": 1, "position": 108, "begin": 25, "end": 26}, 
                {"id": 25, "text": "운동", "type": "NNG", "scode": "020002", "weight": 0.142857, "position": 121, "begin": 27, "end": 27}, 
                {"id": 26, "text": ".", "type": "SF", "scode": "000000", "weight": 1, "position": 127, "begin": 28, "end": 28}
            ], 
            "word": [
                {"id": 0, "text": "<역사>", "type": "", "begin": 0, "end": 2}, 
                {"id": 1, "text": "1811년에", "type": "", "begin": 3, "end": 5}, 
                {"id": 2, "text": "영국의", "type": "", "begin": 6, "end": 7}, 
                {"id": 3, "text": "중부와", "type": "", "begin": 8, "end": 9}, 
                {"id": 4, "text": "북부의", "type": "", "begin": 10, "end": 11}, 
                {"id": 5, "text": "섬유", "type": "", "begin": 12, "end": 12}, 
                {"id": 6, "text": "공업", "type": "", "begin": 13, "end": 13}, 
                {"id": 7, "text": "지대에서", "type": "", "begin": 14, "end": 15}, 
                {"id": 8, "text": "일어난", "type": "", "begin": 16, "end": 17}, 
                {"id": 9, "text": "노동자의", "type": "", "begin": 18, "end": 20}, 
                {"id": 10, "text": "반(反)자본주의", "type": "", "begin": 21, "end": 26}, 
                {"id": 11, "text": "운동.", "type": "", "begin": 27, "end": 28}
            ], 
            "NE": [
                {"id": 0, "text": "1811년", "type": "DT_YEAR", "begin": 3, "end": 4, "weight": 0.835455, "common_noun": 0}, 
                {"id": 1, "text": "영국", "type": "LCP_COUNTRY", "begin": 6, "end": 6, "weight": 0.695085, "common_noun": 0}, 
                {"id": 2, "text": "중부", "type": "TM_DIRECTION", "begin": 8, "end": 8, "weight": 0.756368, "common_noun": 0}, 
                {"id": 3, "text": "북부", "type": "TM_DIRECTION", "begin": 10, "end": 10, "weight": 0.623539, "common_noun": 0}, 
                {"id": 4, "text": "노동자", "type": "CV_POSITION", "begin": 18, "end": 19, "weight": 0.47115, "common_noun": 0}, 
                {"id": 5, "text": "자본주의", "type": "TR_SOCIAL_SCIENCE", "begin": 25, "end": 26, "weight": 0.559628, "common_noun": 0}
            ], 
            "chunk": [], 
            "dependency": [
                {"id": 0, "text": "<역사>", "head": 11, "label": "NP", "mod": [], "weight": 0.888198}, 
                {"id": 1, "text": "1811년에", "head": 8, "label": "NP_AJT", "mod": [], "weight": 0.504412}, 
                {"id": 2, "text": "영국의", "head": 3, "label": "NP_MOD", "mod": [], "weight": 0.151533}, 
                {"id": 3, "text": "중부와", "head": 4, "label": "NP_CNJ", "mod": [2], "weight": 0.630503}, 
                {"id": 4, "text": "북부의", "head": 7, "label": "NP_MOD", "mod": [3], "weight": 0.797214}, 
                {"id": 5, "text": "섬유", "head": 6, "label": "NP", "mod": [], "weight": 0.549908}, 
                {"id": 6, "text": "공업", "head": 7, "label": "NP", "mod": [5], "weight": 0.769509}, 
                {"id": 7, "text": "지대에서", "head": 8, "label": "NP_AJT", "mod": [4, 6], "weight": 0.772041}, 
                {"id": 8, "text": "일어난", "head": 11, "label": "VP_MOD", "mod": [1, 7], "weight": 0.828789}, 
                {"id": 9, "text": "노동자의", "head": 11, "label": "NP_MOD", "mod": [], "weight": 0.871304}, 
                {"id": 10, "text": "반(反)자본주의", "head": 11, "label": "NP", "mod": [], "weight": 0.810802}, 
                {"id": 11, "text": "운동.", "head": -1, "label": "NP", "mod": [0, 8, 9, 10], "weight": 0.00546954}
            ], 
            "SRL": [
                {"verb": "일어나", "sense": 1, "word_id": 8, "weight": 0.218532, "argument": [
                    {"type": "ARGM-TMP", "word_id": 1, "text": "1811년에", "weight": 0.322848}, 
                    {"type": "ARG2", "word_id": 7, "text": "지대에서", "weight": 0.109485}, 
                    {"type": "ARG1", "word_id": 11, "text": "운동.", "weight": 0.223262}
                ]}
            ], 
            "relation": [], 
            "SA": [], 
            "ZA": []
        }, 
        {
            "id": 1, 
            "reserve_str": "", 
            "text": "산업 혁명으로 일자리를 잃은 영국의 노동자들이 실업의 원인을 기계 때문이라고 여겨서 기계를 파괴하는 운동을 벌였다.", 
            "morp": [
                {"id": 0, "lemma": "산업", "type": "NNG", "position": 128, "weight": 0.437743}, 
                {"id": 1, "lemma": "혁명", "type": "NNG", "position": 135, "weight": 0.9}, 
                {"id": 2, "lemma": "으로", "type": "JKB", "position": 141, "weight": 0.153406}, 
                {"id": 3, "lemma": "일", "type": "NNG", "position": 148, "weight": 0.133194}, 
                {"id": 4, "lemma": "자리", "type": "NNG", "position": 151, "weight": 0.184535}, 
                {"id": 5, "lemma": "를", "type": "JKO", "position": 157, "weight": 0.137686}, 
                {"id": 6, "lemma": "잃", "type": "VV", "position": 161, "weight": 0.9}, 
                {"id": 7, "lemma": "은", "type": "ETM", "position": 164, "weight": 0.109632}, 
                {"id": 8, "lemma": "영국", "type": "NNP", "position": 168, "weight": 0.9}, 
                {"id": 9, "lemma": "의", "type": "JKG", "position": 174, "weight": 0.0987295}, 
                {"id": 10, "lemma": "노동", "type": "NNG", "position": 178, "weight": 0.9}, 
                {"id": 11, "lemma": "자", "type": "XSN", "position": 184, "weight": 0.00398741}, 
                {"id": 12, "lemma": "들", "type": "XSN", "position": 187, "weight": 0.0103232}, 
                {"id": 13, "lemma": "이", "type": "JKS", "position": 190, "weight": 0.0731805}, 
                {"id": 14, "lemma": "실업", "type": "NNG", "position": 194, "weight": 0.9}, 
                {"id": 15, "lemma": "의", "type": "JKG", "position": 200, "weight": 0.0694213}, 
                {"id": 16, "lemma": "원인", "type": "NNG", "position": 204, "weight": 0.9}, 
                {"id": 17, "lemma": "을", "type": "JKO", "position": 210, "weight": 0.129611}, 
                {"id": 18, "lemma": "기계", "type": "NNG", "position": 214, "weight": 0.10138}, 
                {"id": 19, "lemma": "때문", "type": "NNB", "position": 221, "weight": 0.9}, 
                {"id": 20, "lemma": "이", "type": "VCP", "position": 227, "weight": 0.0607843}, 
                {"id": 21, "lemma": "라고", "type": "EC", "position": 230, "weight": 0.204147}, 
                {"id": 22, "lemma": "여기", "type": "VV", "position": 237, "weight": 0.0706803}, 
                {"id": 23, "lemma": "어서", "type": "EC", "position": 240, "weight": 0.421998}, 
                {"id": 24, "lemma": "기계", "type": "NNG", "position": 247, "weight": 0.219375}, 
                {"id": 25, "lemma": "를", "type": "JKO", "position": 253, "weight": 0.137686}, 
                {"id": 26, "lemma": "파괴", "type": "NNG", "position": 257, "weight": 0.9}, 
                {"id": 27, "lemma": "하", "type": "XSV", "position": 263, "weight": 0.0001}, 
                {"id": 28, "lemma": "는", "type": "ETM", "position": 266, "weight": 0.238503}, 
                {"id": 29, "lemma": "운동", "type": "NNG", "position": 270, "weight": 0.9}, 
                {"id": 30, "lemma": "을", "type": "JKO", "position": 276, "weight": 0.129611}, 
                {"id": 31, "lemma": "벌이", "type": "VV", "position": 280, "weight": 0.761655}, 
                {"id": 32, "lemma": "었", "type": "EP", "position": 283, "weight": 0.9}, 
                {"id": 33, "lemma": "다", "type": "EF", "position": 286, "weight": 0.640954}, 
                {"id": 34, "lemma": ".", "type": "SF", "position": 289, "weight": 1}
            ], 
            "morp_eval": [], 
            "WSD": [
                {"id": 0, "text": "산업", "type": "NNG", "scode": "000000", "weight": 1, "position": 128, "begin": 0, "end": 0}, 
                {"id": 1, "text": "혁명", "type": "NNG", "scode": "000001", "weight": 0.333333, "position": 135, "begin": 1, "end": 1}, 
                {"id": 2, "text": "으로", "type": "JKB", "scode": "000000", "weight": 1, "position": 141, "begin": 2, "end": 2}, 
                {"id": 3, "text": "일자리", "type": "NNG", "scode": "000001", "weight": 0.5, "position": 148, "begin": 3, "end": 4}, 
                {"id": 4, "text": "를", "type": "JKO", "scode": "000000", "weight": 1, "position": 157, "begin": 5, "end": 5}, 
                {"id": 5, "text": "잃", "type": "VV", "scode": "000102", "weight": 0.0833333, "position": 161, "begin": 6, "end": 6}, 
                {"id": 6, "text": "은", "type": "ETM", "scode": "000000", "weight": 1, "position": 164, "begin": 7, "end": 7}, 
                {"id": 7, "text": "영국", "type": "NNP", "scode": "010000", "weight": 0.5, "position": 168, "begin": 8, "end": 8}, 
                {"id": 8, "text": "의", "type": "JKG", "scode": "000000", "weight": 1, "position": 174, "begin": 9, "end": 9}, 
                {"id": 9, "text": "노동자", "type": "NNG", "scode": "000001", "weight": 0.5, "position": 178, "begin": 10, "end": 11}, 
                {"id": 10, "text": "들", "type": "XSN", "scode": "090000", "weight": 0.0909091, "position": 187, "begin": 12, "end": 12}, 
                {"id": 11, "text": "이", "type": "JKS", "scode": "000000", "weight": 1, "position": 190, "begin": 13, "end": 13}, 
                {"id": 12, "text": "실업", "type": "NNG", "scode": "010002", "weight": 0.333333, "position": 194, "begin": 14, "end": 14}, 
                {"id": 13, "text": "의", "type": "JKG", "scode": "000000", "weight": 1, "position": 200, "begin": 15, "end": 15}, 
                {"id": 14, "text": "원인", "type": "NNG", "scode": "020000", "weight": 0.1, "position": 204, "begin": 16, "end": 16}, 
                {"id": 15, "text": "을", "type": "JKO", "scode": "000000", "weight": 1, "position": 210, "begin": 17, "end": 17}, 
                {"id": 16, "text": "기계", "type": "NNG", "scode": "070001", "weight": 0.0909091, "position": 214, "begin": 18, "end": 18}, 
                {"id": 17, "text": "때문", "type": "NNB", "scode": "000000", "weight": 1, "position": 221, "begin": 19, "end": 19}, 
                {"id": 18, "text": "이", "type": "VCP", "scode": "030000", "weight": 0.0172414, "position": 227, "begin": 20, "end": 20}, 
                {"id": 19, "text": "라고", "type": "EC", "scode": "000000", "weight": 1, "position": 230, "begin": 21, "end": 21}, 
                {"id": 20, "text": "여기", "type": "VV", "scode": "000001", "weight": 0.5, "position": 237, "begin": 22, "end": 22}, 
                {"id": 21, "text": "어서", "type": "EC", "scode": "000000", "weight": 1, "position": 240, "begin": 23, "end": 23}, 
                {"id": 22, "text": "기계", "type": "NNG", "scode": "070001", "weight": 0.0909091, "position": 247, "begin": 24, "end": 24}, 
                {"id": 23, "text": "를", "type": "JKO", "scode": "000000", "weight": 1, "position": 253, "begin": 25, "end": 25}, 
                {"id": 24, "text": "파괴하", "type": "VV", "scode": "000101", "weight": 0.333333, "position": 257, "begin": 26, "end": 27}, 
                {"id": 25, "text": "는", "type": "ETM", "scode": "000000", "weight": 1, "position": 266, "begin": 28, "end": 28}, 
                {"id": 26, "text": "운동", "type": "NNG", "scode": "020002", "weight": 0.142857, "position": 270, "begin": 29, "end": 29}, 
                {"id": 27, "text": "을", "type": "JKO", "scode": "000000", "weight": 1, "position": 276, "begin": 30, "end": 30}, 
                {"id": 28, "text": "벌이", "type": "VV", "scode": "000300", "weight": 0.2, "position": 280, "begin": 31, "end": 31}, 
                {"id": 29, "text": "었", "type": "EP", "scode": "000000", "weight": 1, "position": 283, "begin": 32, "end": 32}, 
                {"id": 30, "text": "다", "type": "EF", "scode": "000000", "weight": 1, "position": 286, "begin": 33, "end": 33}, 
                {"id": 31, "text": ".", "type": "SF", "scode": "000000", "weight": 1, "position": 289, "begin": 34, "end": 34}
            ], 
            "word": [
                {"id": 0, "text": "산업", "type": "", "begin": 0, "end": 0}, 
                {"id": 1, "text": "혁명으로", "type": "", "begin": 1, "end": 2}, 
                {"id": 2, "text": "일자리를", "type": "", "begin": 3, "end": 5}, 
                {"id": 3, "text": "잃은", "type": "", "begin": 6, "end": 7}, 
                {"id": 4, "text": "영국의", "type": "", "begin": 8, "end": 9}, 
                {"id": 5, "text": "노동자들이", "type": "", "begin": 10, "end": 13}, 
                {"id": 6, "text": "실업의", "type": "", "begin": 14, "end": 15}, 
                {"id": 7, "text": "원인을", "type": "", "begin": 16, "end": 17}, 
                {"id": 8, "text": "기계", "type": "", "begin": 18, "end": 18}, 
                {"id": 9, "text": "때문이라고", "type": "", "begin": 19, "end": 21}, 
                {"id": 10, "text": "여겨서", "type": "", "begin": 22, "end": 23}, 
                {"id": 11, "text": "기계를", "type": "", "begin": 24, "end": 25}, 
                {"id": 12, "text": "파괴하는", "type": "", "begin": 26, "end": 28}, 
                {"id": 13, "text": "운동을", "type": "", "begin": 29, "end": 30}, 
                {"id": 14, "text": "벌였다.", "type": "", "begin": 31, "end": 34}
            ], 
            "NE": [
                {"id": 0, "text": "산업 혁명", "type": "EV_WAR_REVOLUTION", "begin": 0, "end": 1, "weight": 0.726965, "common_noun": 0}, 
                {"id": 1, "text": "영국", "type": "LCP_COUNTRY", "begin": 8, "end": 8, "weight": 0.540921, "common_noun": 0}, 
                {"id": 2, "text": "노동자", "type": "CV_POSITION", "begin": 10, "end": 11, "weight": 0.790351, "common_noun": 0}
            ], 
            "chunk": [], 
            "dependency": [
                {"id": 0, "text": "산업", "head": 1, "label": "NP", "mod": [], "weight": 0.784639}, 
                {"id": 1, "text": "혁명으로", "head": 3, "label": "NP_AJT", "mod": [0], "weight": 0.447877}, 
                {"id": 2, "text": "일자리를", "head": 3, "label": "NP_OBJ", "mod": [], "weight": 0.659775}, 
                {"id": 3, "text": "잃은", "head": 5, "label": "VP_MOD", "mod": [1, 2], "weight": 0.733065}, 
                {"id": 4, "text": "영국의", "head": 5, "label": "NP_MOD", "mod": [], "weight": 0.724205}, 
                {"id": 5, "text": "노동자들이", "head": 10, "label": "NP_SBJ", "mod": [3, 4], "weight": 0.423242}, 
                {"id": 6, "text": "실업의", "head": 7, "label": "NP_MOD", "mod": [], "weight": 0.693565}, 
                {"id": 7, "text": "원인을", "head": 10, "label": "NP_OBJ", "mod": [6], "weight": 0.415149}, 
                {"id": 8, "text": "기계", "head": 9, "label": "NP", "mod": [], "weight": 0.8546}, 
                {"id": 9, "text": "때문이라고", "head": 10, "label": "VNP_CMP", "mod": [8], "weight": 0.531413}, 
                {"id": 10, "text": "여겨서", "head": 14, "label": "VP", "mod": [9, 5, 7], "weight": 0.706501}, 
                {"id": 11, "text": "기계를", "head": 12, "label": "NP_OBJ", "mod": [], "weight": 0.731089}, 
                {"id": 12, "text": "파괴하는", "head": 13, "label": "VP_MOD", "mod": [11], "weight": 0.732967}, 
                {"id": 13, "text": "운동을", "head": 14, "label": "NP_OBJ", "mod": [12], "weight": 0.825429}, 
                {"id": 14, "text": "벌였다.", "head": -1, "label": "VP", "mod": [13, 10], "weight": 0.00148977}
            ], 
            "SRL": [
                {"verb": "잃", "sense": 1, "word_id": 3, "weight": 0.181884, "argument": [
                    {"type": "ARGM-CAU", "word_id": 1, "text": "혁명으로", "weight": 0.0934431}, 
                    {"type": "ARG1", "word_id": 2, "text": "일자리를", "weight": 0.249478}, 
                    {"type": "ARG0", "word_id": 5, "text": "노동자들이", "weight": 0.202731}
                ]}, 
                {"verb": "여기", "sense": 1, "word_id": 10, "weight": 0.0997622, "argument": [
                    {"type": "ARG2", "word_id": 9, "text": "때문이라고", "weight": 1}, 
                    {"type": "ARG0", "word_id": 5, "text": "노동자들이", "weight": 1}, 
                    {"type": "ARG1", "word_id": 7, "text": "원인을", "weight": 1}
                ]}, 
                {"verb": "파괴", "sense": 1, "word_id": 12, "weight": 0.204163, "argument": [
                    {"type": "ARG1", "word_id": 11, "text": "기계를", "weight": 0.204163}, 
                    {"type": "ARG0", "word_id": 5, "text": "노동자들이", "weight": 1}
                ]}, 
                {"verb": "벌이", "sense": 1, "word_id": 14, "weight": 0.21561, "argument": [
                    {"type": "ARG0", "word_id": 5, "text": "노동자들이", "weight": 0.163026}, 
                    {"type": "ARGM-CAU", "word_id": 10, "text": "여겨서", "weight": 0.121771}, 
                    {"type": "ARG1", "word_id": 13, "text": "운동을", "weight": 0.362034}
                ]}
            ], 
            "relation": [], 
            "SA": [], 
            "ZA": []
        }
    ], 
    "entity": [
        {"id": 0, "type": "DT_YEAR", "number": "singular", "gender": "", "person": "", "animacy": "time", "mention": [
            {"id": 2, "sent_id": 0, "start_eid": 1, "end_eid": 1, "ne_id": 0, "text": "1811년에", "start_eid_short": 1, "end_eid_short": 1, "text_short": "1811년에"}
        ]}, 
        {"id": 1, "type": "TM_DIRECTION", "number": "singular", "gender": "", "person": "", "animacy": "thing", "mention": [
            {"id": 4, "sent_id": 0, "start_eid": 3, "end_eid": 3, "ne_id": 2, "text": "중부와", "start_eid_short": 3, "end_eid_short": 3, "text_short": "중부와"}
        ]}, 
        {"id": 2, "type": "LCP_COUNTRY", "number": "singular", "gender": "", "person": "", "animacy": "place", "mention": [
            {"id": 3, "sent_id": 0, "start_eid": 2, "end_eid": 2, "ne_id": 1, "text": "영국의", "start_eid_short": 2, "end_eid_short": 2, "text_short": "영국의"}, 
            {"id": 14, "sent_id": 1, "start_eid": 4, "end_eid": 4, "ne_id": 1, "text": "영국의", "start_eid_short": 4, "end_eid_short": 4, "text_short": "영국의"}
        ]}, 
        {"id": 3, "type": "TM_DIRECTION", "number": "plural", "gender": "", "person": "", "animacy": "thing", "mention": [
            {"id": 1, "sent_id": 0, "start_eid": 1, "end_eid": 4, "ne_id": 3, "text": "1811년에 영국의 중부와 북부의", "start_eid_short": 4, "end_eid_short": 4, "text_short": "북부의"}
        ]}, 
        {"id": 4, "type": "", "number": "singular", "gender": "", "person": "", "animacy": "thing", "mention": [
            {"id": 6, "sent_id": 0, "start_eid": 5, "end_eid": 7, "ne_id": -1, "text": "섬유 공업 지대에서", "start_eid_short": 5, "end_eid_short": 7, "text_short": "섬유 공업 지대에서"}
        ]}, 
        {"id": 5, "type": "", "number": "singular", "gender": "", "person": "", "animacy": "thing", "mention": [
            {"id": 7, "sent_id": 0, "start_eid": 5, "end_eid": 6, "ne_id": -1, "text": "섬유 공업", "start_eid_short": 5, "end_eid_short": 6, "text_short": "섬유 공업"}
        ]}, 
        {"id": 6, "type": "", "number": "singular", "gender": "", "person": "", "animacy": "thing", "mention": [
            {"id": 8, "sent_id": 0, "start_eid": 5, "end_eid": 5, "ne_id": -1, "text": "섬유", "start_eid_short": 5, "end_eid_short": 5, "text_short": "섬유"}
        ]}, 
        {"id": 7, "type": "CV_POSITION", "number": "singular", "gender": "", "person": "", "animacy": "human", "mention": [
            {"id": 9, "sent_id": 0, "start_eid": 9, "end_eid": 9, "ne_id": 4, "text": "노동자의", "start_eid_short": 9, "end_eid_short": 9, "text_short": "노동자의"}
        ]}, 
        {"id": 8, "type": "TR_SOCIAL_SCIENCE", "number": "singular", "gender": "", "person": "", "animacy": "thing", "mention": [
            {"id": 10, "sent_id": 0, "start_eid": 10, "end_eid": 10, "ne_id": 5, "text": "반(反)자본주의", "start_eid_short": 10, "end_eid_short": 0, "text_short": ""}
        ]}, 
        {"id": 9, "type": "CV_POSITION", "number": "singular", "gender": "", "person": "", "animacy": "human", "mention": [
            {"id": 11, "sent_id": 1, "start_eid": 0, "end_eid": 5, "ne_id": 2, "text": "산업 혁명으로 일자리를 잃은 영국의 노동자들이", "start_eid_short": 5, "end_eid_short": 5, "text_short": "노동자들이"}
        ]}, 
        {"id": 10, "type": "EV_OTHERS", "number": "singular", "gender": "", "person": "", "animacy": "thing", "mention": [
            {"id": 12, "sent_id": 1, "start_eid": 0, "end_eid": 1, "ne_id": 0, "text": "산업 혁명으로", "start_eid_short": 0, "end_eid_short": 1, "text_short": "산업 혁명으로"}
        ]}, 
        {"id": 11, "type": "", "number": "singular", "gender": "", "person": "", "animacy": "thing", "mention": [
            {"id": 13, "sent_id": 1, "start_eid": 2, "end_eid": 2, "ne_id": -1, "text": "일자리를", "start_eid_short": 2, "end_eid_short": 2, "text_short": "일자리를"}
        ]}, 
        {"id": 12, "type": "", "number": "singular", "gender": "", "person": "", "animacy": "thing", "mention": [
            {"id": 15, "sent_id": 1, "start_eid": 6, "end_eid": 7, "ne_id": -1, "text": "실업의 원인을", "start_eid_short": 7, "end_eid_short": 7, "text_short": "원인을"}
        ]}, 
        {"id": 13, "type": "", "number": "singular", "gender": "", "person": "", "animacy": "thing", "mention": [
            {"id": 16, "sent_id": 1, "start_eid": 6, "end_eid": 6, "ne_id": -1, "text": "실업의", "start_eid_short": 6, "end_eid_short": 6, "text_short": "실업의"}
        ]}, 
        {"id": 14, "type": "", "number": "singular", "gender": "", "person": "", "animacy": "thing", "mention": [
            {"id": 17, "sent_id": 1, "start_eid": 8, "end_eid": 8, "ne_id": -1, "text": "기계", "start_eid_short": 8, "end_eid_short": 8, "text_short": "기계"}, 
            {"id": 19, "sent_id": 1, "start_eid": 11, "end_eid": 11, "ne_id": -1, "text": "기계를", "start_eid_short": 11, "end_eid_short": 11, "text_short": "기계를"}
        ]}, 
        {"id": 15, "type": "TM_DIRECTION", "number": "singular", "gender": "", "person": "", "animacy": "thing", "mention": [
            {"id": 5, "sent_id": 0, "start_eid": 4, "end_eid": 4, "ne_id": 3, "text": "북부의", "start_eid_short": 4, "end_eid_short": 4, "text_short": "북부의"}
        ]}, 
        {"id": 16, "type": "", "number": "singular", "gender": "", "person": "", "animacy": "thing", "mention": [
            {"id": 0, "sent_id": 0, "start_eid": 1, "end_eid": 11, "ne_id": -1, "text": "1811년에 영국의 중부와 북부의 섬유 공업 지대에서 일어난 노동자의 반(反)자본주의 운동.", "start_eid_short": 11, "end_eid_short": 11, "text_short": "운동."}, 
            {"id": 18, "sent_id": 1, "start_eid": 11, "end_eid": 13, "ne_id": -1, "text": "기계를 파괴하는 운동을", "start_eid_short": 13, "end_eid_short": 13, "text_short": "운동을"}
        ]}
    ]
}