{
    "doc_id": "E2016.888.15_A_01.json", 
    "DCT": "", 
    "category": "", 
    "category_weight": 0, 
    "title": {
        "text": "방곡령", 
        "NE": ""
    }, 
    "metaInfo": {}, 
    "sentence": [
        {
            "id": 0, 
            "reserve_str": "", 
            "text": "방곡령(防穀令)은 조선 말기에 시행되었던 경제 정책 가운데 하나로서, 식량난 해소를 위해 식량 수출을 금지하는 명령을 말한다.", 
            "morp": [
                {"id": 0, "lemma": "방곡", "type": "NNG", "position": 0, "weight": 0.1}, 
                {"id": 1, "lemma": "령", "type": "XSN", "position": 6, "weight": 0.0331308}, 
                {"id": 2, "lemma": "(", "type": "SS", "position": 9, "weight": 1}, 
                {"id": 3, "lemma": "防穀令", "type": "SH", "position": 10, "weight": 1}, 
                {"id": 4, "lemma": ")", "type": "SS", "position": 19, "weight": 1}, 
                {"id": 5, "lemma": "은", "type": "JX", "position": 20, "weight": 0.0128817}, 
                {"id": 6, "lemma": "조선", "type": "NNP", "position": 24, "weight": 0.0441558}, 
                {"id": 7, "lemma": "말기", "type": "NNG", "position": 31, "weight": 0.9}, 
                {"id": 8, "lemma": "에", "type": "JKB", "position": 37, "weight": 0.153364}, 
                {"id": 9, "lemma": "시행", "type": "NNG", "position": 41, "weight": 0.9}, 
                {"id": 10, "lemma": "되", "type": "XSV", "position": 47, "weight": 0.000224177}, 
                {"id": 11, "lemma": "었", "type": "EP", "position": 50, "weight": 0.9}, 
                {"id": 12, "lemma": "던", "type": "ETM", "position": 53, "weight": 0.107547}, 
                {"id": 13, "lemma": "경제", "type": "NNG", "position": 57, "weight": 0.658777}, 
                {"id": 14, "lemma": "정책", "type": "NNG", "position": 64, "weight": 0.9}, 
                {"id": 15, "lemma": "가운데", "type": "NNG", "position": 71, "weight": 0.9}, 
                {"id": 16, "lemma": "하나", "type": "NNG", "position": 81, "weight": 0.131576}, 
                {"id": 17, "lemma": "로서", "type": "JKB", "position": 87, "weight": 0.9}, 
                {"id": 18, "lemma": ",", "type": "SP", "position": 93, "weight": 1}, 
                {"id": 19, "lemma": "식량", "type": "NNG", "position": 95, "weight": 0.9}, 
                {"id": 20, "lemma": "난", "type": "XSN", "position": 101, "weight": 0.181457}, 
                {"id": 21, "lemma": "해소", "type": "NNG", "position": 105, "weight": 0.9}, 
                {"id": 22, "lemma": "를", "type": "JKO", "position": 111, "weight": 0.137686}, 
                {"id": 23, "lemma": "위하", "type": "VV", "position": 115, "weight": 0.778555}, 
                {"id": 24, "lemma": "아", "type": "EC", "position": 118, "weight": 0.41831}, 
                {"id": 25, "lemma": "식량", "type": "NNG", "position": 122, "weight": 0.9}, 
                {"id": 26, "lemma": "수출", "type": "NNG", "position": 129, "weight": 0.9}, 
                {"id": 27, "lemma": "을", "type": "JKO", "position": 135, "weight": 0.129611}, 
                {"id": 28, "lemma": "금지", "type": "NNG", "position": 139, "weight": 0.101291}, 
                {"id": 29, "lemma": "하", "type": "XSV", "position": 145, "weight": 0.0001}, 
                {"id": 30, "lemma": "는", "type": "ETM", "position": 148, "weight": 0.238503}, 
                {"id": 31, "lemma": "명령", "type": "NNG", "position": 152, "weight": 0.9}, 
                {"id": 32, "lemma": "을", "type": "JKO", "position": 158, "weight": 0.129611}, 
                {"id": 33, "lemma": "말", "type": "NNG", "position": 162, "weight": 0.0814073}, 
                {"id": 34, "lemma": "하", "type": "XSV", "position": 165, "weight": 0.0001}, 
                {"id": 35, "lemma": "ㄴ다", "type": "EF", "position": 165, "weight": 0.0449045}, 
                {"id": 36, "lemma": ".", "type": "SF", "position": 171, "weight": 1}
            ], 
            "morp_eval": [], 
            "WSD": [
                {"id": 0, "text": "방곡령", "type": "NNG", "scode": "000000", "weight": 1, "position": 0, "begin": 0, "end": 1}, 
                {"id": 1, "text": "(", "type": "SS", "scode": "000000", "weight": 1, "position": 9, "begin": 2, "end": 2}, 
                {"id": 2, "text": "防穀令", "type": "SH", "scode": "000000", "weight": 1, "position": 10, "begin": 3, "end": 3}, 
                {"id": 3, "text": ")", "type": "SS", "scode": "000000", "weight": 1, "position": 19, "begin": 4, "end": 4}, 
                {"id": 4, "text": "은", "type": "JX", "scode": "000000", "weight": 1, "position": 20, "begin": 5, "end": 5}, 
                {"id": 5, "text": "조선", "type": "NNP", "scode": "050002", "weight": 0.0833333, "position": 24, "begin": 6, "end": 6}, 
                {"id": 6, "text": "말기", "type": "NNG", "scode": "050000", "weight": 0.2, "position": 31, "begin": 7, "end": 7}, 
                {"id": 7, "text": "에", "type": "JKB", "scode": "000000", "weight": 1, "position": 37, "begin": 8, "end": 8}, 
                {"id": 8, "text": "시행되", "type": "VV", "scode": "000001", "weight": 0.333333, "position": 41, "begin": 9, "end": 10}, 
                {"id": 9, "text": "었", "type": "EP", "scode": "000000", "weight": 1, "position": 50, "begin": 11, "end": 11}, 
                {"id": 10, "text": "던", "type": "ETM", "scode": "000000", "weight": 1, "position": 53, "begin": 12, "end": 12}, 
                {"id": 11, "text": "경제", "type": "NNG", "scode": "040001", "weight": 0.111111, "position": 57, "begin": 13, "end": 13}, 
                {"id": 12, "text": "정책", "type": "NNG", "scode": "020000", "weight": 0.333333, "position": 64, "begin": 14, "end": 14}, 
                {"id": 13, "text": "가운데", "type": "NNG", "scode": "000003", "weight": 0.2, "position": 71, "begin": 15, "end": 15}, 
                {"id": 14, "text": "하나", "type": "NNG", "scode": "000202", "weight": 0.166667, "position": 81, "begin": 16, "end": 16}, 
                {"id": 15, "text": "로서", "type": "JKB", "scode": "000000", "weight": 1, "position": 87, "begin": 17, "end": 17}, 
                {"id": 16, "text": ",", "type": "SP", "scode": "000000", "weight": 1, "position": 93, "begin": 18, "end": 18}, 
                {"id": 17, "text": "식량난", "type": "NNG", "scode": "000000", "weight": 1, "position": 95, "begin": 19, "end": 20}, 
                {"id": 18, "text": "해소", "type": "NNG", "scode": "030001", "weight": 0.142857, "position": 105, "begin": 21, "end": 21}, 
                {"id": 19, "text": "를", "type": "JKO", "scode": "000000", "weight": 1, "position": 111, "begin": 22, "end": 22}, 
                {"id": 20, "text": "위하", "type": "VV", "scode": "010003", "weight": 0.25, "position": 115, "begin": 23, "end": 23}, 
                {"id": 21, "text": "아", "type": "EC", "scode": "000000", "weight": 1, "position": 118, "begin": 24, "end": 24}, 
                {"id": 22, "text": "식량", "type": "NNG", "scode": "030000", "weight": 0.25, "position": 122, "begin": 25, "end": 25}, 
                {"id": 23, "text": "수출", "type": "NNG", "scode": "030000", "weight": 0.333333, "position": 129, "begin": 26, "end": 26}, 
                {"id": 24, "text": "을", "type": "JKO", "scode": "000000", "weight": 1, "position": 135, "begin": 27, "end": 27}, 
                {"id": 25, "text": "금지하", "type": "VV", "scode": "000000", "weight": 1, "position": 139, "begin": 28, "end": 29}, 
                {"id": 26, "text": "는", "type": "ETM", "scode": "000000", "weight": 1, "position": 148, "begin": 30, "end": 30}, 
                {"id": 27, "text": "명령", "type": "NNG", "scode": "010001", "weight": 0.111111, "position": 152, "begin": 31, "end": 31}, 
                {"id": 28, "text": "을", "type": "JKO", "scode": "000000", "weight": 1, "position": 158, "begin": 32, "end": 32}, 
                {"id": 29, "text": "말하", "type": "VV", "scode": "000300", "weight": 0.125, "position": 162, "begin": 33, "end": 34}, 
                {"id": 30, "text": "ㄴ다", "type": "EF", "scode": "000000", "weight": 1, "position": 165, "begin": 35, "end": 35}, 
                {"id": 31, "text": ".", "type": "SF", "scode": "000000", "weight": 1, "position": 171, "begin": 36, "end": 36}
            ], 
            "word": [
                {"id": 0, "text": "방곡령(防穀令)은", "type": "", "begin": 0, "end": 5}, 
                {"id": 1, "text": "조선", "type": "", "begin": 6, "end": 6}, 
                {"id": 2, "text": "말기에", "type": "", "begin": 7, "end": 8}, 
                {"id": 3, "text": "시행되었던", "type": "", "begin": 9, "end": 12}, 
                {"id": 4, "text": "경제", "type": "", "begin": 13, "end": 13}, 
                {"id": 5, "text": "정책", "type": "", "begin": 14, "end": 14}, 
                {"id": 6, "text": "가운데", "type": "", "begin": 15, "end": 15}, 
                {"id": 7, "text": "하나로서,", "type": "", "begin": 16, "end": 18}, 
                {"id": 8, "text": "식량난", "type": "", "begin": 19, "end": 20}, 
                {"id": 9, "text": "해소를", "type": "", "begin": 21, "end": 22}, 
                {"id": 10, "text": "위해", "type": "", "begin": 23, "end": 24}, 
                {"id": 11, "text": "식량", "type": "", "begin": 25, "end": 25}, 
                {"id": 12, "text": "수출을", "type": "", "begin": 26, "end": 27}, 
                {"id": 13, "text": "금지하는", "type": "", "begin": 28, "end": 30}, 
                {"id": 14, "text": "명령을", "type": "", "begin": 31, "end": 32}, 
                {"id": 15, "text": "말한다.", "type": "", "begin": 33, "end": 36}
            ], 
            "NE": [
                {"id": 0, "text": "방곡령", "type": "CV_LAW", "begin": 0, "end": 1, "weight": 0.313459, "common_noun": 0}, 
                {"id": 1, "text": "防穀令", "type": "CV_LAW", "begin": 3, "end": 3, "weight": 0.108647, "common_noun": 0}, 
                {"id": 2, "text": "조선 말기", "type": "DT_DYNASTY", "begin": 6, "end": 7, "weight": 0.94256, "common_noun": 0}, 
                {"id": 3, "text": "하나", "type": "QT_COUNT", "begin": 16, "end": 16, "weight": 0.453918, "common_noun": 0}
            ], 
            "chunk": [], 
            "dependency": [
                {"id": 0, "text": "방곡령(防穀令)은", "head": 7, "label": "NP_SBJ", "mod": [], "weight": 0.798218}, 
                {"id": 1, "text": "조선", "head": 2, "label": "NP", "mod": [], "weight": 0.684323}, 
                {"id": 2, "text": "말기에", "head": 3, "label": "NP_AJT", "mod": [1], "weight": 0.756045}, 
                {"id": 3, "text": "시행되었던", "head": 5, "label": "VP_MOD", "mod": [2], "weight": 0.303826}, 
                {"id": 4, "text": "경제", "head": 5, "label": "NP", "mod": [], "weight": 0.700641}, 
                {"id": 5, "text": "정책", "head": 6, "label": "NP", "mod": [3, 4], "weight": 0.842785}, 
                {"id": 6, "text": "가운데", "head": 7, "label": "NP", "mod": [5], "weight": 0.697706}, 
                {"id": 7, "text": "하나로서,", "head": 15, "label": "NP_AJT", "mod": [6, 0], "weight": 0.845536}, 
                {"id": 8, "text": "식량난", "head": 9, "label": "NP", "mod": [], "weight": 0.719557}, 
                {"id": 9, "text": "해소를", "head": 10, "label": "NP_OBJ", "mod": [8], "weight": 0.770593}, 
                {"id": 10, "text": "위해", "head": 13, "label": "VP", "mod": [9], "weight": 0.523552}, 
                {"id": 11, "text": "식량", "head": 12, "label": "NP", "mod": [], "weight": 0.720744}, 
                {"id": 12, "text": "수출을", "head": 13, "label": "NP_OBJ", "mod": [11], "weight": 0.766262}, 
                {"id": 13, "text": "금지하는", "head": 14, "label": "VP_MOD", "mod": [10, 12], "weight": 0.89601}, 
                {"id": 14, "text": "명령을", "head": 15, "label": "NP_OBJ", "mod": [13], "weight": 0.864216}, 
                {"id": 15, "text": "말한다.", "head": -1, "label": "VP", "mod": [7, 14], "weight": 0.00482448}
            ], 
            "SRL": [
                {"verb": "시행", "sense": 1, "word_id": 3, "weight": 0.214818, "argument": [
                    {"type": "ARGM-TMP", "word_id": 2, "text": "말기에", "weight": 0.207335}, 
                    {"type": "ARG1", "word_id": 5, "text": "정책", "weight": 0.222301}
                ]}, 
                {"verb": "위하", "sense": 1, "word_id": 10, "weight": 0.233721, "argument": [
                    {"type": "ARG1", "word_id": 9, "text": "해소를", "weight": 0.233721}, 
                    {"type": "ARG0", "word_id": 0, "text": "방곡령(防穀令)은", "weight": 1}
                ]}, 
                {"verb": "금지", "sense": 1, "word_id": 13, "weight": 0.191033, "argument": [
                    {"type": "ARGM-PRP", "word_id": 10, "text": "위해", "weight": 0.136588}, 
                    {"type": "ARG1", "word_id": 12, "text": "수출을", "weight": 0.245478}
                ]}, 
                {"verb": "말하", "sense": 1, "word_id": 15, "weight": 0.191948, "argument": [
                    {"type": "ARG1", "word_id": 14, "text": "명령을", "weight": 0.191948}
                ]}
            ], 
            "relation": [], 
            "SA": [], 
            "ZA": []
        }, 
        {
            "id": 1, 
            "reserve_str": "", 
            "text": "조선 말기에 방곡령은 십여 회에 걸쳐 시행되었으며, 유명한 사례로는 1889년(고종 26년)에 함경 감사(咸鏡監司) 조병식이 일본에 곡물 수출을 금지한 방곡령이 있다.", 
            "morp": [
                {"id": 0, "lemma": "조선", "type": "NNP", "position": 172, "weight": 0.0878802}, 
                {"id": 1, "lemma": "말기", "type": "NNG", "position": 179, "weight": 0.9}, 
                {"id": 2, "lemma": "에", "type": "JKB", "position": 185, "weight": 0.153364}, 
                {"id": 3, "lemma": "방곡령", "type": "NNG", "position": 189, "weight": 0.00822139}, 
                {"id": 4, "lemma": "은", "type": "JX", "position": 198, "weight": 0.0520511}, 
                {"id": 5, "lemma": "십", "type": "NR", "position": 202, "weight": 0.0029678}, 
                {"id": 6, "lemma": "여", "type": "XSN", "position": 205, "weight": 0.0452599}, 
                {"id": 7, "lemma": "회", "type": "NNB", "position": 209, "weight": 0.01895}, 
                {"id": 8, "lemma": "에", "type": "JKB", "position": 212, "weight": 0.135559}, 
                {"id": 9, "lemma": "걸치", "type": "VV", "position": 216, "weight": 0.9}, 
                {"id": 10, "lemma": "어", "type": "EC", "position": 219, "weight": 0.41831}, 
                {"id": 11, "lemma": "시행", "type": "NNG", "position": 223, "weight": 0.9}, 
                {"id": 12, "lemma": "되", "type": "XSV", "position": 229, "weight": 0.000224177}, 
                {"id": 13, "lemma": "었", "type": "EP", "position": 232, "weight": 0.9}, 
                {"id": 14, "lemma": "으며", "type": "EC", "position": 235, "weight": 0.197482}, 
                {"id": 15, "lemma": ",", "type": "SP", "position": 241, "weight": 1}, 
                {"id": 16, "lemma": "유명", "type": "NNG", "position": 243, "weight": 0.9}, 
                {"id": 17, "lemma": "하", "type": "XSA", "position": 249, "weight": 0.0001}, 
                {"id": 18, "lemma": "ㄴ", "type": "ETM", "position": 249, "weight": 0.488779}, 
                {"id": 19, "lemma": "사례", "type": "NNG", "position": 253, "weight": 0.9}, 
                {"id": 20, "lemma": "로", "type": "JKB", "position": 259, "weight": 0.153229}, 
                {"id": 21, "lemma": "는", "type": "JX", "position": 262, "weight": 0.0387928}, 
                {"id": 22, "lemma": "1889", "type": "SN", "position": 266, "weight": 1}, 
                {"id": 23, "lemma": "년", "type": "NNB", "position": 270, "weight": 0.414343}, 
                {"id": 24, "lemma": "(", "type": "SS", "position": 273, "weight": 1}, 
                {"id": 25, "lemma": "고종", "type": "NNP", "position": 274, "weight": 0.0657856}, 
                {"id": 26, "lemma": "26", "type": "SN", "position": 281, "weight": 1}, 
                {"id": 27, "lemma": "년", "type": "NNB", "position": 283, "weight": 0.414343}, 
                {"id": 28, "lemma": ")", "type": "SS", "position": 286, "weight": 1}, 
                {"id": 29, "lemma": "에", "type": "JKB", "position": 287, "weight": 0.048593}, 
                {"id": 30, "lemma": "함경", "type": "NNP", "position": 291, "weight": 0.9}, 
                {"id": 31, "lemma": "감사", "type": "NNG", "position": 298, "weight": 0.281194}, 
                {"id": 32, "lemma": "(", "type": "SS", "position": 304, "weight": 1}, 
                {"id": 33, "lemma": "咸鏡監司", "type": "SH", "position": 305, "weight": 1}, 
                {"id": 34, "lemma": ")", "type": "SS", "position": 317, "weight": 1}, 
                {"id": 35, "lemma": "조병식", "type": "NNP", "position": 319, "weight": 0.25}, 
                {"id": 36, "lemma": "이", "type": "JKS", "position": 328, "weight": 0.0234517}, 
                {"id": 37, "lemma": "일본", "type": "NNP", "position": 332, "weight": 0.0197822}, 
                {"id": 38, "lemma": "에", "type": "JKB", "position": 338, "weight": 0.0823628}, 
                {"id": 39, "lemma": "곡물", "type": "NNG", "position": 342, "weight": 0.9}, 
                {"id": 40, "lemma": "수출", "type": "NNG", "position": 349, "weight": 0.9}, 
                {"id": 41, "lemma": "을", "type": "JKO", "position": 355, "weight": 0.129611}, 
                {"id": 42, "lemma": "금지", "type": "NNG", "position": 359, "weight": 0.101291}, 
                {"id": 43, "lemma": "하", "type": "XSV", "position": 365, "weight": 0.0001}, 
                {"id": 44, "lemma": "ㄴ", "type": "ETM", "position": 365, "weight": 0.392321}, 
                {"id": 45, "lemma": "방곡", "type": "NNG", "position": 369, "weight": 0.1}, 
                {"id": 46, "lemma": "령", "type": "XSN", "position": 375, "weight": 0.0331308}, 
                {"id": 47, "lemma": "이", "type": "JKS", "position": 378, "weight": 0.0731805}, 
                {"id": 48, "lemma": "있", "type": "VA", "position": 382, "weight": 0.12767}, 
                {"id": 49, "lemma": "다", "type": "EF", "position": 385, "weight": 0.132573}, 
                {"id": 50, "lemma": ".", "type": "SF", "position": 388, "weight": 1}
            ], 
            "morp_eval": [], 
            "WSD": [
                {"id": 0, "text": "조선", "type": "NNP", "scode": "050002", "weight": 0.0833333, "position": 172, "begin": 0, "end": 0}, 
                {"id": 1, "text": "말기", "type": "NNG", "scode": "050000", "weight": 0.2, "position": 179, "begin": 1, "end": 1}, 
                {"id": 2, "text": "에", "type": "JKB", "scode": "000000", "weight": 1, "position": 185, "begin": 2, "end": 2}, 
                {"id": 3, "text": "방곡령", "type": "NNG", "scode": "000000", "weight": 1, "position": 189, "begin": 3, "end": 3}, 
                {"id": 4, "text": "은", "type": "JX", "scode": "000000", "weight": 1, "position": 198, "begin": 4, "end": 4}, 
                {"id": 5, "text": "십", "type": "NR", "scode": "000100", "weight": 0.333333, "position": 202, "begin": 5, "end": 5}, 
                {"id": 6, "text": "여", "type": "XSN", "scode": "270000", "weight": 0.027027, "position": 205, "begin": 6, "end": 6}, 
                {"id": 7, "text": "회", "type": "NNB", "scode": "080000", "weight": 0.0588235, "position": 209, "begin": 7, "end": 7}, 
                {"id": 8, "text": "에", "type": "JKB", "scode": "000000", "weight": 1, "position": 212, "begin": 8, "end": 8}, 
                {"id": 9, "text": "걸치", "type": "VV", "scode": "000102", "weight": 0.166667, "position": 216, "begin": 9, "end": 9}, 
                {"id": 10, "text": "어", "type": "EC", "scode": "000000", "weight": 1, "position": 219, "begin": 10, "end": 10}, 
                {"id": 11, "text": "시행되", "type": "VV", "scode": "000001", "weight": 0.333333, "position": 223, "begin": 11, "end": 12}, 
                {"id": 12, "text": "었", "type": "EP", "scode": "000000", "weight": 1, "position": 232, "begin": 13, "end": 13}, 
                {"id": 13, "text": "으며", "type": "EC", "scode": "000000", "weight": 1, "position": 235, "begin": 14, "end": 14}, 
                {"id": 14, "text": ",", "type": "SP", "scode": "000000", "weight": 1, "position": 241, "begin": 15, "end": 15}, 
                {"id": 15, "text": "유명하", "type": "VA", "scode": "010000", "weight": 0.5, "position": 243, "begin": 16, "end": 17}, 
                {"id": 16, "text": "ㄴ", "type": "ETM", "scode": "000000", "weight": 1, "position": 249, "begin": 18, "end": 18}, 
                {"id": 17, "text": "사례", "type": "NNG", "scode": "050000", "weight": 0.111111, "position": 253, "begin": 19, "end": 19}, 
                {"id": 18, "text": "로", "type": "JKB", "scode": "000000", "weight": 1, "position": 259, "begin": 20, "end": 20}, 
                {"id": 19, "text": "는", "type": "JX", "scode": "000000", "weight": 1, "position": 262, "begin": 21, "end": 21}, 
                {"id": 20, "text": "1889", "type": "SN", "scode": "000000", "weight": 1, "position": 266, "begin": 22, "end": 22}, 
                {"id": 21, "text": "년", "type": "NNB", "scode": "020000", "weight": 0.166667, "position": 270, "begin": 23, "end": 23}, 
                {"id": 22, "text": "(", "type": "SS", "scode": "000000", "weight": 1, "position": 273, "begin": 24, "end": 24}, 
                {"id": 23, "text": "고종", "type": "NNP", "scode": "090000", "weight": 0.0714286, "position": 274, "begin": 25, "end": 25}, 
                {"id": 24, "text": "26", "type": "SN", "scode": "000000", "weight": 1, "position": 281, "begin": 26, "end": 26}, 
                {"id": 25, "text": "년", "type": "NNB", "scode": "020000", "weight": 0.166667, "position": 283, "begin": 27, "end": 27}, 
                {"id": 26, "text": ")", "type": "SS", "scode": "000000", "weight": 1, "position": 286, "begin": 28, "end": 28}, 
                {"id": 27, "text": "에", "type": "JKB", "scode": "000000", "weight": 1, "position": 287, "begin": 29, "end": 29}, 
                {"id": 28, "text": "함경", "type": "NNP", "scode": "000000", "weight": 1, "position": 291, "begin": 30, "end": 30}, 
                {"id": 29, "text": "감사", "type": "NNG", "scode": "090000", "weight": 0.0526316, "position": 298, "begin": 31, "end": 31}, 
                {"id": 30, "text": "(", "type": "SS", "scode": "000000", "weight": 1, "position": 304, "begin": 32, "end": 32}, 
                {"id": 31, "text": "咸鏡監司", "type": "SH", "scode": "000000", "weight": 1, "position": 305, "begin": 33, "end": 33}, 
                {"id": 32, "text": ")", "type": "SS", "scode": "000000", "weight": 1, "position": 317, "begin": 34, "end": 34}, 
                {"id": 33, "text": "조병식", "type": "NNP", "scode": "000000", "weight": 1, "position": 319, "begin": 35, "end": 35}, 
                {"id": 34, "text": "이", "type": "JKS", "scode": "000000", "weight": 1, "position": 328, "begin": 36, "end": 36}, 
                {"id": 35, "text": "일본", "type": "NNP", "scode": "020000", "weight": 0.333333, "position": 332, "begin": 37, "end": 37}, 
                {"id": 36, "text": "에", "type": "JKB", "scode": "000000", "weight": 1, "position": 338, "begin": 38, "end": 38}, 
                {"id": 37, "text": "곡물", "type": "NNG", "scode": "000000", "weight": 1, "position": 342, "begin": 39, "end": 39}, 
                {"id": 38, "text": "수출", "type": "NNG", "scode": "030000", "weight": 0.333333, "position": 349, "begin": 40, "end": 40}, 
                {"id": 39, "text": "을", "type": "JKO", "scode": "000000", "weight": 1, "position": 355, "begin": 41, "end": 41}, 
                {"id": 40, "text": "금지하", "type": "VV", "scode": "000000", "weight": 1, "position": 359, "begin": 42, "end": 43}, 
                {"id": 41, "text": "ㄴ", "type": "ETM", "scode": "000000", "weight": 1, "position": 365, "begin": 44, "end": 44}, 
                {"id": 42, "text": "방곡령", "type": "NNG", "scode": "000000", "weight": 1, "position": 369, "begin": 45, "end": 46}, 
                {"id": 43, "text": "이", "type": "JKS", "scode": "000000", "weight": 1, "position": 378, "begin": 47, "end": 47}, 
                {"id": 44, "text": "있", "type": "VA", "scode": "010301", "weight": 0.0416667, "position": 382, "begin": 48, "end": 48}, 
                {"id": 45, "text": "다", "type": "EF", "scode": "000000", "weight": 1, "position": 385, "begin": 49, "end": 49}, 
                {"id": 46, "text": ".", "type": "SF", "scode": "000000", "weight": 1, "position": 388, "begin": 50, "end": 50}
            ], 
            "word": [
                {"id": 0, "text": "조선", "type": "", "begin": 0, "end": 0}, 
                {"id": 1, "text": "말기에", "type": "", "begin": 1, "end": 2}, 
                {"id": 2, "text": "방곡령은", "type": "", "begin": 3, "end": 4}, 
                {"id": 3, "text": "십여", "type": "", "begin": 5, "end": 6}, 
                {"id": 4, "text": "회에", "type": "", "begin": 7, "end": 8}, 
                {"id": 5, "text": "걸쳐", "type": "", "begin": 9, "end": 10}, 
                {"id": 6, "text": "시행되었으며,", "type": "", "begin": 11, "end": 15}, 
                {"id": 7, "text": "유명한", "type": "", "begin": 16, "end": 18}, 
                {"id": 8, "text": "사례로는", "type": "", "begin": 19, "end": 21}, 
                {"id": 9, "text": "1889년(고종", "type": "", "begin": 22, "end": 25}, 
                {"id": 10, "text": "26년)에", "type": "", "begin": 26, "end": 29}, 
                {"id": 11, "text": "함경", "type": "", "begin": 30, "end": 30}, 
                {"id": 12, "text": "감사(咸鏡監司)", "type": "", "begin": 31, "end": 34}, 
                {"id": 13, "text": "조병식이", "type": "", "begin": 35, "end": 36}, 
                {"id": 14, "text": "일본에", "type": "", "begin": 37, "end": 38}, 
                {"id": 15, "text": "곡물", "type": "", "begin": 39, "end": 39}, 
                {"id": 16, "text": "수출을", "type": "", "begin": 40, "end": 41}, 
                {"id": 17, "text": "금지한", "type": "", "begin": 42, "end": 44}, 
                {"id": 18, "text": "방곡령이", "type": "", "begin": 45, "end": 47}, 
                {"id": 19, "text": "있다.", "type": "", "begin": 48, "end": 50}
            ], 
            "NE": [
                {"id": 0, "text": "조선 말기", "type": "DT_DYNASTY", "begin": 0, "end": 1, "weight": 0.938577, "common_noun": 0}, 
                {"id": 1, "text": "방곡령", "type": "CV_LAW", "begin": 3, "end": 3, "weight": 0.415456, "common_noun": 0}, 
                {"id": 2, "text": "십여 회", "type": "QT_COUNT", "begin": 5, "end": 7, "weight": 0.785146, "common_noun": 0}, 
                {"id": 3, "text": "1889년", "type": "DT_YEAR", "begin": 22, "end": 23, "weight": 0.788946, "common_noun": 0}, 
                {"id": 4, "text": "고종 26년", "type": "DT_DYNASTY", "begin": 25, "end": 27, "weight": 0.910338, "common_noun": 0}, 
                {"id": 5, "text": "함경 감사", "type": "CV_POSITION", "begin": 30, "end": 31, "weight": 0.349932, "common_noun": 0}, 
                {"id": 6, "text": "咸鏡監司", "type": "CV_POSITION", "begin": 33, "end": 33, "weight": 0.262605, "common_noun": 0}, 
                {"id": 7, "text": "조병식", "type": "PS_NAME", "begin": 35, "end": 35, "weight": 0.46892, "common_noun": 0}, 
                {"id": 8, "text": "일본", "type": "LCP_COUNTRY", "begin": 37, "end": 37, "weight": 0.688528, "common_noun": 0}, 
                {"id": 9, "text": "방곡령", "type": "CV_LAW", "begin": 45, "end": 46, "weight": 0.30239, "common_noun": 0}
            ], 
            "chunk": [], 
            "dependency": [
                {"id": 0, "text": "조선", "head": 1, "label": "NP", "mod": [], "weight": 0.834487}, 
                {"id": 1, "text": "말기에", "head": 6, "label": "NP_AJT", "mod": [0], "weight": 0.788829}, 
                {"id": 2, "text": "방곡령은", "head": 6, "label": "NP_SBJ", "mod": [], "weight": 0.726318}, 
                {"id": 3, "text": "십여", "head": 4, "label": "NP", "mod": [], "weight": 0.774822}, 
                {"id": 4, "text": "회에", "head": 5, "label": "NP_AJT", "mod": [3], "weight": 0.810687}, 
                {"id": 5, "text": "걸쳐", "head": 6, "label": "VP", "mod": [4], "weight": 0.809389}, 
                {"id": 6, "text": "시행되었으며,", "head": 19, "label": "VP", "mod": [5, 1, 2], "weight": 0.529347}, 
                {"id": 7, "text": "유명한", "head": 8, "label": "VP_MOD", "mod": [], "weight": 0.649227}, 
                {"id": 8, "text": "사례로는", "head": 19, "label": "NP_AJT", "mod": [7], "weight": 0.652067}, 
                {"id": 9, "text": "1889년(고종", "head": 10, "label": "NP", "mod": [], "weight": 0.77156}, 
                {"id": 10, "text": "26년)에", "head": 17, "label": "NP_AJT", "mod": [9], "weight": 0.320529}, 
                {"id": 11, "text": "함경", "head": 12, "label": "NP", "mod": [], "weight": 0.632855}, 
                {"id": 12, "text": "감사(咸鏡監司)", "head": 13, "label": "NP", "mod": [11], "weight": 0.279948}, 
                {"id": 13, "text": "조병식이", "head": 17, "label": "NP_SBJ", "mod": [12], "weight": 0.733398}, 
                {"id": 14, "text": "일본에", "head": 17, "label": "NP_AJT", "mod": [], "weight": 0.569784}, 
                {"id": 15, "text": "곡물", "head": 16, "label": "NP", "mod": [], "weight": 0.759151}, 
                {"id": 16, "text": "수출을", "head": 17, "label": "NP_OBJ", "mod": [15], "weight": 0.75297}, 
                {"id": 17, "text": "금지한", "head": 18, "label": "VP_MOD", "mod": [10, 13, 14, 16], "weight": 0.773558}, 
                {"id": 18, "text": "방곡령이", "head": 19, "label": "NP_SBJ", "mod": [17], "weight": 0.66098}, 
                {"id": 19, "text": "있다.", "head": -1, "label": "VP", "mod": [6, 8, 18], "weight": 0.000217253}
            ], 
            "SRL": [
                {"verb": "걸치", "sense": 1, "word_id": 5, "weight": 0.260964, "argument": [
                    {"type": "ARG2", "word_id": 4, "text": "회에", "weight": 0.260964}, 
                    {"type": "ARG1", "word_id": 2, "text": "방곡령은", "weight": 1}
                ]}, 
                {"verb": "시행", "sense": 1, "word_id": 6, "weight": 0.13444, "argument": [
                    {"type": "ARGM-TMP", "word_id": 1, "text": "말기에", "weight": 0.201203}, 
                    {"type": "ARG1", "word_id": 2, "text": "방곡령은", "weight": 1}, 
                    {"type": "ARGM-MNR", "word_id": 5, "text": "걸쳐", "weight": 0.0854161}
                ]}, 
                {"verb": "유명", "sense": 1, "word_id": 7, "weight": 0.180737, "argument": [
                    {"type": "ARG2", "word_id": 8, "text": "사례로는", "weight": 1}, 
                    {"type": "ARG1", "word_id": 18, "text": "방곡령이", "weight": 1}
                ]}, 
                {"verb": "금지", "sense": 1, "word_id": 17, "weight": 0.214251, "argument": [
                    {"type": "ARGM-TMP", "word_id": 10, "text": "26년)에", "weight": 0.312635}, 
                    {"type": "ARG0", "word_id": 13, "text": "조병식이", "weight": 0.327871}, 
                    {"type": "ARGM-LOC", "word_id": 14, "text": "일본에", "weight": 0.0838199}, 
                    {"type": "ARG1", "word_id": 16, "text": "수출을", "weight": 0.225512}
                ]}, 
                {"verb": "있", "sense": 1, "word_id": 19, "weight": 0.214613, "argument": [
                    {"type": "ARG1", "word_id": 18, "text": "방곡령이", "weight": 0.314172}, 
                    {"type": "ARGM-PRD", "word_id": 8, "text": "사례로는", "weight": 1}
                ]}
            ], 
            "relation": [], 
            "SA": [], 
            "ZA": []
        }
    ], 
    "entity": [
        {"id": 0, "type": "CV_POLICY", "number": "singular", "gender": "", "person": "", "animacy": "thing", "mention": [
            {"id": 0, "sent_id": 0, "start_eid": 0, "end_eid": 0, "ne_id": -1, "text": "방곡령(防穀令)은", "start_eid_short": 0, "end_eid_short": 0, "text_short": "방곡령(防穀令)은"}, 
            {"id": 1, "sent_id": 0, "start_eid": 1, "end_eid": 14, "ne_id": -1, "text": "조선 말기에 시행되었던 경제 정책 가운데 하나로서, 식량난 해소를 위해 식량 수출을 금지하는 명령을", "start_eid_short": 14, "end_eid_short": 14, "text_short": "명령을"}, 
            {"id": 12, "sent_id": 1, "start_eid": 2, "end_eid": 2, "ne_id": 1, "text": "방곡령은", "start_eid_short": 2, "end_eid_short": 2, "text_short": "방곡령은"}
        ]}, 
        {"id": 1, "type": "", "number": "singular", "gender": "", "person": "", "animacy": "thing", "mention": [
            {"id": 4, "sent_id": 0, "start_eid": 1, "end_eid": 5, "ne_id": -1, "text": "조선 말기에 시행되었던 경제 정책", "start_eid_short": 4, "end_eid_short": 5, "text_short": "경제 정책"}
        ]}, 
        {"id": 2, "type": "DT_DYNASTY", "number": "singular", "gender": "", "person": "", "animacy": "time", "mention": [
            {"id": 5, "sent_id": 0, "start_eid": 1, "end_eid": 2, "ne_id": 0, "text": "조선 말기에", "start_eid_short": 1, "end_eid_short": 2, "text_short": "조선 말기에"}, 
            {"id": 11, "sent_id": 1, "start_eid": 0, "end_eid": 1, "ne_id": 0, "text": "조선 말기에", "start_eid_short": 0, "end_eid_short": 1, "text_short": "조선 말기에"}
        ]}, 
        {"id": 3, "type": "", "number": "singular", "gender": "", "person": "", "animacy": "thing", "mention": [
            {"id": 6, "sent_id": 0, "start_eid": 4, "end_eid": 4, "ne_id": -1, "text": "경제", "start_eid_short": 4, "end_eid_short": 4, "text_short": "경제"}
        ]}, 
        {"id": 4, "type": "", "number": "singular", "gender": "", "person": "", "animacy": "thing", "mention": [
            {"id": 3, "sent_id": 0, "start_eid": 1, "end_eid": 6, "ne_id": -1, "text": "조선 말기에 시행되었던 경제 정책 가운데", "start_eid_short": 4, "end_eid_short": 6, "text_short": "경제 정책 가운데"}
        ]}, 
        {"id": 5, "type": "", "number": "singular", "gender": "", "person": "", "animacy": "thing", "mention": [
            {"id": 7, "sent_id": 0, "start_eid": 8, "end_eid": 9, "ne_id": -1, "text": "식량난 해소를", "start_eid_short": 8, "end_eid_short": 9, "text_short": "식량난 해소를"}
        ]}, 
        {"id": 6, "type": "", "number": "singular", "gender": "", "person": "", "animacy": "thing", "mention": [
            {"id": 8, "sent_id": 0, "start_eid": 8, "end_eid": 8, "ne_id": -1, "text": "식량난", "start_eid_short": 8, "end_eid_short": 8, "text_short": "식량난"}
        ]}, 
        {"id": 7, "type": "", "number": "singular", "gender": "", "person": "", "animacy": "thing", "mention": [
            {"id": 9, "sent_id": 0, "start_eid": 11, "end_eid": 12, "ne_id": -1, "text": "식량 수출을", "start_eid_short": 11, "end_eid_short": 12, "text_short": "식량 수출을"}
        ]}, 
        {"id": 8, "type": "", "number": "singular", "gender": "", "person": "", "animacy": "thing", "mention": [
            {"id": 10, "sent_id": 0, "start_eid": 11, "end_eid": 11, "ne_id": -1, "text": "식량", "start_eid_short": 11, "end_eid_short": 11, "text_short": "식량"}
        ]}, 
        {"id": 9, "type": "QT_COUNT", "number": "singular", "gender": "", "person": "", "animacy": "thing", "mention": [
            {"id": 13, "sent_id": 1, "start_eid": 3, "end_eid": 4, "ne_id": 2, "text": "십여 회에", "start_eid_short": 3, "end_eid_short": 4, "text_short": "십여 회에"}
        ]}, 
        {"id": 10, "type": "", "number": "singular", "gender": "", "person": "", "animacy": "thing", "mention": [
            {"id": 14, "sent_id": 1, "start_eid": 7, "end_eid": 8, "ne_id": -1, "text": "유명한 사례로는", "start_eid_short": 8, "end_eid_short": 8, "text_short": "사례로는"}, 
            {"id": 15, "sent_id": 1, "start_eid": 9, "end_eid": 18, "ne_id": -1, "text": "1889년(고종 26년)에 함경 감사(咸鏡監司) 조병식이 일본에 곡물 수출을 금지한 방곡령이", "start_eid_short": 18, "end_eid_short": 1, "text_short": ""}
        ]}, 
        {"id": 11, "type": "DT_DYNASTY", "number": "singular", "gender": "", "person": "", "animacy": "time", "mention": [
            {"id": 16, "sent_id": 1, "start_eid": 9, "end_eid": 10, "ne_id": 4, "text": "1889년(고종 26년)에", "start_eid_short": 9, "end_eid_short": 1, "text_short": ""}
        ]}, 
        {"id": 12, "type": "CV_POSITION", "number": "singular", "gender": "", "person": "", "animacy": "human", "mention": [
            {"id": 17, "sent_id": 1, "start_eid": 11, "end_eid": 13, "ne_id": 7, "text": "함경 감사(咸鏡監司) 조병식이", "start_eid_short": 13, "end_eid_short": 13, "text_short": "조병식이"}, 
            {"id": 18, "sent_id": 1, "start_eid": 11, "end_eid": 12, "ne_id": 5, "text": "함경 감사(咸鏡監司)", "start_eid_short": 12, "end_eid_short": 12, "text_short": "감사(咸鏡監司)"}
        ]}, 
        {"id": 13, "type": "LCP_COUNTRY", "number": "singular", "gender": "", "person": "", "animacy": "place", "mention": [
            {"id": 19, "sent_id": 1, "start_eid": 14, "end_eid": 14, "ne_id": 8, "text": "일본에", "start_eid_short": 14, "end_eid_short": 14, "text_short": "일본에"}
        ]}, 
        {"id": 14, "type": "", "number": "singular", "gender": "", "person": "", "animacy": "thing", "mention": [
            {"id": 21, "sent_id": 1, "start_eid": 15, "end_eid": 15, "ne_id": -1, "text": "곡물", "start_eid_short": 15, "end_eid_short": 15, "text_short": "곡물"}
        ]}, 
        {"id": 15, "type": "", "number": "singular", "gender": "", "person": "", "animacy": "thing", "mention": [
            {"id": 20, "sent_id": 1, "start_eid": 15, "end_eid": 16, "ne_id": -1, "text": "곡물 수출을", "start_eid_short": 15, "end_eid_short": 16, "text_short": "곡물 수출을"}
        ]}, 
        {"id": 16, "type": "QT_COUNT", "number": "singular", "gender": "", "person": "", "animacy": "thing", "mention": [
            {"id": 2, "sent_id": 0, "start_eid": 1, "end_eid": 7, "ne_id": 1, "text": "조선 말기에 시행되었던 경제 정책 가운데 하나로서,", "start_eid_short": 7, "end_eid_short": 7, "text_short": "하나로서,"}
        ]}
    ]
}