{
    "doc_id": "E2016.889.14_A_02.json", 
    "DCT": "", 
    "category": "", 
    "category_weight": 0, 
    "title": {
        "text": "라마르세예즈 ", 
        "NE": ""
    }, 
    "metaInfo": {}, 
    "sentence": [
        {
            "id": 0, 
            "reserve_str": "", 
            "text": "<고유> 프랑스의 국가(國歌).", 
            "morp": [
                {"id": 0, "lemma": "<", "type": "SS", "position": 0, "weight": 1}, 
                {"id": 1, "lemma": "고유", "type": "NNG", "position": 1, "weight": 0.9}, 
                {"id": 2, "lemma": ">", "type": "SS", "position": 7, "weight": 1}, 
                {"id": 3, "lemma": "프랑스", "type": "NNP", "position": 9, "weight": 0.0674443}, 
                {"id": 4, "lemma": "의", "type": "JKG", "position": 18, "weight": 0.0987295}, 
                {"id": 5, "lemma": "국가", "type": "NNG", "position": 22, "weight": 0.87134}, 
                {"id": 6, "lemma": "(", "type": "SS", "position": 28, "weight": 1}, 
                {"id": 7, "lemma": "國歌", "type": "SH", "position": 29, "weight": 1}, 
                {"id": 8, "lemma": ")", "type": "SS", "position": 35, "weight": 1}, 
                {"id": 9, "lemma": ".", "type": "SF", "position": 36, "weight": 1}
            ], 
            "morp_eval": [], 
            "WSD": [
                {"id": 0, "text": "<", "type": "SS", "scode": "000000", "weight": 1, "position": 0, "begin": 0, "end": 0}, 
                {"id": 1, "text": "고유", "type": "NNG", "scode": "030000", "weight": 0.0833333, "position": 1, "begin": 1, "end": 1}, 
                {"id": 2, "text": ">", "type": "SS", "scode": "000000", "weight": 1, "position": 7, "begin": 2, "end": 2}, 
                {"id": 3, "text": "프랑스", "type": "NNP", "scode": "020000", "weight": 0.5, "position": 9, "begin": 3, "end": 3}, 
                {"id": 4, "text": "의", "type": "JKG", "scode": "000000", "weight": 1, "position": 18, "begin": 4, "end": 4}, 
                {"id": 5, "text": "국가", "type": "NNG", "scode": "020000", "weight": 0.5, "position": 22, "begin": 5, "end": 5}, 
                {"id": 6, "text": "(", "type": "SS", "scode": "000000", "weight": 1, "position": 28, "begin": 6, "end": 6}, 
                {"id": 7, "text": "國歌", "type": "SH", "scode": "000000", "weight": 1, "position": 29, "begin": 7, "end": 7}, 
                {"id": 8, "text": ")", "type": "SS", "scode": "000000", "weight": 1, "position": 35, "begin": 8, "end": 8}, 
                {"id": 9, "text": ".", "type": "SF", "scode": "000000", "weight": 1, "position": 36, "begin": 9, "end": 9}
            ], 
            "word": [
                {"id": 0, "text": "<고유>", "type": "", "begin": 0, "end": 2}, 
                {"id": 1, "text": "프랑스의", "type": "", "begin": 3, "end": 4}, 
                {"id": 2, "text": "국가(國歌).", "type": "", "begin": 5, "end": 9}
            ], 
            "NE": [
                {"id": 0, "text": "프랑스", "type": "LCP_COUNTRY", "begin": 3, "end": 3, "weight": 0.888685, "common_noun": 0}
            ], 
            "chunk": [], 
            "dependency": [
                {"id": 0, "text": "<고유>", "head": 2, "label": "NP", "mod": [], "weight": 0.808749}, 
                {"id": 1, "text": "프랑스의", "head": 2, "label": "NP_MOD", "mod": [], "weight": 0.726508}, 
                {"id": 2, "text": "국가(國歌).", "head": -1, "label": "NP", "mod": [0, 1], "weight": 0.501484}
            ], 
            "SRL": [], 
            "relation": [], 
            "SA": [], 
            "ZA": []
        }, 
        {
            "id": 1, 
            "reserve_str": "", 
            "text": "프랑스 혁명 시기인 1792년에 루제 드릴(Rouget de Lisle)이 작사하고 작곡하였다.", 
            "morp": [
                {"id": 0, "lemma": "프랑스", "type": "NNP", "position": 37, "weight": 0.0892825}, 
                {"id": 1, "lemma": "혁명", "type": "NNG", "position": 47, "weight": 0.9}, 
                {"id": 2, "lemma": "시기", "type": "NNG", "position": 54, "weight": 0.184726}, 
                {"id": 3, "lemma": "이", "type": "VCP", "position": 60, "weight": 0.0177525}, 
                {"id": 4, "lemma": "ㄴ", "type": "ETM", "position": 60, "weight": 0.220712}, 
                {"id": 5, "lemma": "1792", "type": "SN", "position": 64, "weight": 1}, 
                {"id": 6, "lemma": "년", "type": "NNB", "position": 68, "weight": 0.414343}, 
                {"id": 7, "lemma": "에", "type": "JKB", "position": 71, "weight": 0.135559}, 
                {"id": 8, "lemma": "루제", "type": "NNP", "position": 75, "weight": 0.05}, 
                {"id": 9, "lemma": "드릴", "type": "NNP", "position": 82, "weight": 0.00207611}, 
                {"id": 10, "lemma": "(", "type": "SS", "position": 88, "weight": 1}, 
                {"id": 11, "lemma": "Rouget", "type": "SL", "position": 89, "weight": 1}, 
                {"id": 12, "lemma": "de", "type": "SL", "position": 96, "weight": 1}, 
                {"id": 13, "lemma": "Lisle", "type": "SL", "position": 99, "weight": 1}, 
                {"id": 14, "lemma": ")", "type": "SS", "position": 104, "weight": 1}, 
                {"id": 15, "lemma": "이", "type": "JKS", "position": 105, "weight": 0.00786134}, 
                {"id": 16, "lemma": "작사", "type": "NNG", "position": 109, "weight": 0.9}, 
                {"id": 17, "lemma": "하", "type": "XSV", "position": 115, "weight": 0.0001}, 
                {"id": 18, "lemma": "고", "type": "EC", "position": 118, "weight": 0.359917}, 
                {"id": 19, "lemma": "작곡", "type": "NNG", "position": 122, "weight": 0.9}, 
                {"id": 20, "lemma": "하", "type": "XSV", "position": 128, "weight": 0.0001}, 
                {"id": 21, "lemma": "았", "type": "EP", "position": 131, "weight": 0.9}, 
                {"id": 22, "lemma": "다", "type": "EF", "position": 134, "weight": 0.640954}, 
                {"id": 23, "lemma": ".", "type": "SF", "position": 137, "weight": 1}
            ], 
            "morp_eval": [], 
            "WSD": [
                {"id": 0, "text": "프랑스", "type": "NNP", "scode": "020000", "weight": 0.5, "position": 37, "begin": 0, "end": 0}, 
                {"id": 1, "text": "혁명", "type": "NNG", "scode": "000001", "weight": 0.333333, "position": 47, "begin": 1, "end": 1}, 
                {"id": 2, "text": "시기", "type": "NNG", "scode": "040000", "weight": 0.0666667, "position": 54, "begin": 2, "end": 2}, 
                {"id": 3, "text": "이", "type": "VCP", "scode": "030000", "weight": 0.0172414, "position": 60, "begin": 3, "end": 3}, 
                {"id": 4, "text": "ㄴ", "type": "ETM", "scode": "000000", "weight": 1, "position": 60, "begin": 4, "end": 4}, 
                {"id": 5, "text": "1792", "type": "SN", "scode": "000000", "weight": 1, "position": 64, "begin": 5, "end": 5}, 
                {"id": 6, "text": "년", "type": "NNB", "scode": "020000", "weight": 0.166667, "position": 68, "begin": 6, "end": 6}, 
                {"id": 7, "text": "에", "type": "JKB", "scode": "000000", "weight": 1, "position": 71, "begin": 7, "end": 7}, 
                {"id": 8, "text": "루제", "type": "NNP", "scode": "000000", "weight": 0, "position": 75, "begin": 8, "end": 8}, 
                {"id": 9, "text": "드릴", "type": "NNP", "scode": "000000", "weight": 0.5, "position": 82, "begin": 9, "end": 9}, 
                {"id": 10, "text": "(", "type": "SS", "scode": "000000", "weight": 1, "position": 88, "begin": 10, "end": 10}, 
                {"id": 11, "text": "Rouget", "type": "SL", "scode": "000000", "weight": 1, "position": 89, "begin": 11, "end": 11}, 
                {"id": 12, "text": "de", "type": "SL", "scode": "000000", "weight": 1, "position": 96, "begin": 12, "end": 12}, 
                {"id": 13, "text": "Lisle", "type": "SL", "scode": "000000", "weight": 1, "position": 99, "begin": 13, "end": 13}, 
                {"id": 14, "text": ")", "type": "SS", "scode": "000000", "weight": 1, "position": 104, "begin": 14, "end": 14}, 
                {"id": 15, "text": "이", "type": "JKS", "scode": "000000", "weight": 1, "position": 105, "begin": 15, "end": 15}, 
                {"id": 16, "text": "작사하", "type": "VV", "scode": "030000", "weight": 0.25, "position": 109, "begin": 16, "end": 17}, 
                {"id": 17, "text": "고", "type": "EC", "scode": "000000", "weight": 1, "position": 118, "begin": 18, "end": 18}, 
                {"id": 18, "text": "작곡하", "type": "VV", "scode": "010000", "weight": 0.333333, "position": 122, "begin": 19, "end": 20}, 
                {"id": 19, "text": "았", "type": "EP", "scode": "000000", "weight": 1, "position": 131, "begin": 21, "end": 21}, 
                {"id": 20, "text": "다", "type": "EF", "scode": "000000", "weight": 1, "position": 134, "begin": 22, "end": 22}, 
                {"id": 21, "text": ".", "type": "SF", "scode": "000000", "weight": 1, "position": 137, "begin": 23, "end": 23}
            ], 
            "word": [
                {"id": 0, "text": "프랑스", "type": "", "begin": 0, "end": 0}, 
                {"id": 1, "text": "혁명", "type": "", "begin": 1, "end": 1}, 
                {"id": 2, "text": "시기인", "type": "", "begin": 2, "end": 4}, 
                {"id": 3, "text": "1792년에", "type": "", "begin": 5, "end": 7}, 
                {"id": 4, "text": "루제", "type": "", "begin": 8, "end": 8}, 
                {"id": 5, "text": "드릴(Rouget", "type": "", "begin": 9, "end": 11}, 
                {"id": 6, "text": "de", "type": "", "begin": 12, "end": 12}, 
                {"id": 7, "text": "Lisle)이", "type": "", "begin": 13, "end": 15}, 
                {"id": 8, "text": "작사하고", "type": "", "begin": 16, "end": 18}, 
                {"id": 9, "text": "작곡하였다.", "type": "", "begin": 19, "end": 23}
            ], 
            "NE": [
                {"id": 0, "text": "프랑스 혁명 시기", "type": "DT_DURATION", "begin": 0, "end": 2, "weight": 0.482655, "common_noun": 0}, 
                {"id": 1, "text": "1792년", "type": "DT_YEAR", "begin": 5, "end": 6, "weight": 0.725389, "common_noun": 0}, 
                {"id": 2, "text": "루제 드릴", "type": "PS_NAME", "begin": 8, "end": 9, "weight": 0.232253, "common_noun": 0}, 
                {"id": 3, "text": "Rouget de Lisle", "type": "PS_NAME", "begin": 11, "end": 13, "weight": 0.232253, "common_noun": 0}
            ], 
            "chunk": [], 
            "dependency": [
                {"id": 0, "text": "프랑스", "head": 1, "label": "NP", "mod": [], "weight": 0.621787}, 
                {"id": 1, "text": "혁명", "head": 2, "label": "NP", "mod": [0], "weight": 0.785665}, 
                {"id": 2, "text": "시기인", "head": 3, "label": "VNP_MOD", "mod": [1], "weight": 0.743331}, 
                {"id": 3, "text": "1792년에", "head": 8, "label": "NP_AJT", "mod": [2], "weight": 0.706613}, 
                {"id": 4, "text": "루제", "head": 5, "label": "NP", "mod": [], "weight": 0.367847}, 
                {"id": 5, "text": "드릴(Rouget", "head": 6, "label": "NP", "mod": [4], "weight": 0.586526}, 
                {"id": 6, "text": "de", "head": 7, "label": "NP", "mod": [5], "weight": 0.656801}, 
                {"id": 7, "text": "Lisle)이", "head": 8, "label": "NP_SBJ", "mod": [6], "weight": 0.793855}, 
                {"id": 8, "text": "작사하고", "head": 9, "label": "VP", "mod": [3, 7], "weight": 0.787242}, 
                {"id": 9, "text": "작곡하였다.", "head": -1, "label": "VP", "mod": [8], "weight": 0.0189495}
            ], 
            "SRL": [
                {"verb": "작사", "sense": 1, "word_id": 8, "weight": 0.160699, "argument": [
                    {"type": "ARGM-TMP", "word_id": 3, "text": "1792년에", "weight": 0.144206}, 
                    {"type": "ARG0", "word_id": 7, "text": "Lisle)이", "weight": 0.177192}
                ]}, 
                {"verb": "작곡", "sense": 1, "word_id": 9, "weight": 0, "argument": [
                    {"type": "ARG0", "word_id": 7, "text": "Lisle)이", "weight": 1}
                ]}
            ], 
            "relation": [], 
            "SA": [], 
            "ZA": []
        }
    ], 
    "entity": [
        {"id": 0, "type": "LCP_COUNTRY", "number": "singular", "gender": "", "person": "", "animacy": "place", "mention": [
            {"id": 2, "sent_id": 0, "start_eid": 1, "end_eid": 1, "ne_id": 0, "text": "프랑스의", "start_eid_short": 1, "end_eid_short": 1, "text_short": "프랑스의"}
        ]}, 
        {"id": 1, "type": "DT_YEAR", "number": "singular", "gender": "", "person": "", "animacy": "time", "mention": [
            {"id": 3, "sent_id": 1, "start_eid": 0, "end_eid": 3, "ne_id": 1, "text": "프랑스 혁명 시기인 1792년에", "start_eid_short": 3, "end_eid_short": 3, "text_short": "1792년에"}
        ]}, 
        {"id": 2, "type": "DT_DYNASTY", "number": "singular", "gender": "", "person": "", "animacy": "time", "mention": [
            {"id": 4, "sent_id": 1, "start_eid": 0, "end_eid": 2, "ne_id": 0, "text": "프랑스 혁명 시기인", "start_eid_short": 2, "end_eid_short": 2, "text_short": "시기인"}
        ]}, 
        {"id": 3, "type": "", "number": "singular", "gender": "", "person": "", "animacy": "thing", "mention": [
            {"id": 5, "sent_id": 1, "start_eid": 4, "end_eid": 7, "ne_id": -1, "text": "루제 드릴(Rouget de Lisle)이", "start_eid_short": 7, "end_eid_short": 7, "text_short": "Lisle)이"}
        ]}, 
        {"id": 4, "type": "", "number": "singular", "gender": "", "person": "", "animacy": "thing", "mention": [
            {"id": 0, "sent_id": 0, "start_eid": 0, "end_eid": 2, "ne_id": -1, "text": "<고유> 프랑스의 국가(國歌).", "start_eid_short": 2, "end_eid_short": 2, "text_short": "국가(國歌)."}
        ]}, 
        {"id": 5, "type": "", "number": "singular", "gender": "", "person": "", "animacy": "thing", "mention": [
            {"id": 1, "sent_id": 0, "start_eid": 0, "end_eid": 0, "ne_id": -1, "text": "<고유>", "start_eid_short": 0, "end_eid_short": 0, "text_short": "<고유>"}
        ]}
    ]
}