{
    "doc_id": "E2016.888.03_Q_01.json", 
    "DCT": "", 
    "category": "", 
    "category_weight": 0, 
    "title": {
        "text": "", 
        "NE": ""
    }, 
    "metaInfo": {}, 
    "sentence": [
        {
            "id": 0, 
            "reserve_str": "", 
            "text": "빛이 통과하는 속력이 가장 빠른 매질은 무엇일까?", 
            "morp": [
                {"id": 0, "lemma": "빛", "type": "NNG", "position": 0, "weight": 0.437855}, 
                {"id": 1, "lemma": "이", "type": "JKS", "position": 3, "weight": 0.0360723}, 
                {"id": 2, "lemma": "통과", "type": "NNG", "position": 7, "weight": 0.9}, 
                {"id": 3, "lemma": "하", "type": "XSV", "position": 13, "weight": 0.0001}, 
                {"id": 4, "lemma": "는", "type": "ETM", "position": 16, "weight": 0.238503}, 
                {"id": 5, "lemma": "속력", "type": "NNG", "position": 20, "weight": 0.9}, 
                {"id": 6, "lemma": "이", "type": "JKS", "position": 26, "weight": 0.0360723}, 
                {"id": 7, "lemma": "가장", "type": "MAG", "position": 30, "weight": 0.114699}, 
                {"id": 8, "lemma": "빠르", "type": "VA", "position": 37, "weight": 0.9}, 
                {"id": 9, "lemma": "ㄴ", "type": "ETM", "position": 40, "weight": 0.430446}, 
                {"id": 10, "lemma": "매질", "type": "NNG", "position": 44, "weight": 0.9}, 
                {"id": 11, "lemma": "은", "type": "JX", "position": 50, "weight": 0.0449928}, 
                {"id": 12, "lemma": "무엇", "type": "NP", "position": 54, "weight": 0.9}, 
                {"id": 13, "lemma": "이", "type": "VCP", "position": 60, "weight": 0.0175768}, 
                {"id": 14, "lemma": "ㄹ까", "type": "EF", "position": 60, "weight": 0.258243}, 
                {"id": 15, "lemma": "?", "type": "SF", "position": 66, "weight": 1}
            ], 
            "morp_eval": [], 
            "WSD": [
                {"id": 0, "text": "빛", "type": "NNG", "scode": "000001", "weight": 0.166667, "position": 0, "begin": 0, "end": 0}, 
                {"id": 1, "text": "이", "type": "JKS", "scode": "000000", "weight": 1, "position": 3, "begin": 1, "end": 1}, 
                {"id": 2, "text": "통과하", "type": "VV", "scode": "000101", "weight": 0.2, "position": 7, "begin": 2, "end": 3}, 
                {"id": 3, "text": "는", "type": "ETM", "scode": "000000", "weight": 1, "position": 16, "begin": 4, "end": 4}, 
                {"id": 4, "text": "속력", "type": "NNG", "scode": "000000", "weight": 1, "position": 20, "begin": 5, "end": 5}, 
                {"id": 5, "text": "이", "type": "JKS", "scode": "000000", "weight": 1, "position": 26, "begin": 6, "end": 6}, 
                {"id": 6, "text": "가장", "type": "MAG", "scode": "010000", "weight": 0.0555556, "position": 30, "begin": 7, "end": 7}, 
                {"id": 7, "text": "빠르", "type": "VA", "scode": "000101", "weight": 0.25, "position": 37, "begin": 8, "end": 8}, 
                {"id": 8, "text": "ㄴ", "type": "ETM", "scode": "000000", "weight": 1, "position": 40, "begin": 9, "end": 9}, 
                {"id": 9, "text": "매질", "type": "NNG", "scode": "040000", "weight": 0.2, "position": 44, "begin": 10, "end": 10}, 
                {"id": 10, "text": "은", "type": "JX", "scode": "000000", "weight": 1, "position": 50, "begin": 11, "end": 11}, 
                {"id": 11, "text": "무엇", "type": "NP", "scode": "000001", "weight": 0.5, "position": 54, "begin": 12, "end": 12}, 
                {"id": 12, "text": "이", "type": "VCP", "scode": "030000", "weight": 0.0172414, "position": 60, "begin": 13, "end": 13}, 
                {"id": 13, "text": "ㄹ까", "type": "EF", "scode": "000000", "weight": 1, "position": 60, "begin": 14, "end": 14}, 
                {"id": 14, "text": "?", "type": "SF", "scode": "000000", "weight": 1, "position": 66, "begin": 15, "end": 15}
            ], 
            "word": [
                {"id": 0, "text": "빛이", "type": "", "begin": 0, "end": 1}, 
                {"id": 1, "text": "통과하는", "type": "", "begin": 2, "end": 4}, 
                {"id": 2, "text": "속력이", "type": "", "begin": 5, "end": 6}, 
                {"id": 3, "text": "가장", "type": "", "begin": 7, "end": 7}, 
                {"id": 4, "text": "빠른", "type": "", "begin": 8, "end": 9}, 
                {"id": 5, "text": "매질은", "type": "", "begin": 10, "end": 11}, 
                {"id": 6, "text": "무엇일까?", "type": "", "begin": 12, "end": 15}
            ], 
            "NE": [], 
            "chunk": [], 
            "dependency": [
                {"id": 0, "text": "빛이", "head": 1, "label": "NP_SBJ", "mod": [], "weight": 0.7412}, 
                {"id": 1, "text": "통과하는", "head": 2, "label": "VP_MOD", "mod": [0], "weight": 0.531183}, 
                {"id": 2, "text": "속력이", "head": 4, "label": "NP_SBJ", "mod": [1], "weight": 0.721659}, 
                {"id": 3, "text": "가장", "head": 4, "label": "AP", "mod": [], "weight": 0.699853}, 
                {"id": 4, "text": "빠른", "head": 5, "label": "VP_MOD", "mod": [2, 3], "weight": 0.67258}, 
                {"id": 5, "text": "매질은", "head": 6, "label": "NP_SBJ", "mod": [4], "weight": 0.877006}, 
                {"id": 6, "text": "무엇일까?", "head": -1, "label": "VNP", "mod": [5], "weight": 0.102016}
            ], 
            "SRL": [
                {"verb": "통과", "sense": 1, "word_id": 1, "weight": 0.302122, "argument": [
                    {"type": "ARG0", "word_id": 0, "text": "빛이", "weight": 0.302122}
                ]}, 
                {"verb": "빠르", "sense": 1, "word_id": 4, "weight": 0.235304, "argument": [
                    {"type": "ARGM-EXT", "word_id": 3, "text": "가장", "weight": 0.424095}, 
                    {"type": "ARG1", "word_id": 2, "text": "속력이", "weight": 1}
                ]}
            ], 
            "relation": [], 
            "SA": [], 
            "ZA": []
        }
    ], 
    "entity": [
        {"id": 0, "type": "", "number": "singular", "gender": "", "person": "", "animacy": "thing", "mention": [
            {"id": 0, "sent_id": 0, "start_eid": 0, "end_eid": 5, "ne_id": -1, "text": "빛이 통과하는 속력이 가장 빠른 매질은", "start_eid_short": 5, "end_eid_short": 5, "text_short": "매질은"}, 
            {"id": 3, "sent_id": 0, "start_eid": 6, "end_eid": 6, "ne_id": -1, "text": "무엇일까?", "start_eid_short": 6, "end_eid_short": 6, "text_short": "무엇일까?"}
        ]}, 
        {"id": 1, "type": "", "number": "singular", "gender": "", "person": "", "animacy": "thing", "mention": [
            {"id": 1, "sent_id": 0, "start_eid": 0, "end_eid": 2, "ne_id": -1, "text": "빛이 통과하는 속력이", "start_eid_short": 2, "end_eid_short": 2, "text_short": "속력이"}
        ]}, 
        {"id": 2, "type": "", "number": "singular", "gender": "", "person": "", "animacy": "thing", "mention": [
            {"id": 2, "sent_id": 0, "start_eid": 0, "end_eid": 0, "ne_id": -1, "text": "빛이", "start_eid_short": 0, "end_eid_short": 0, "text_short": "빛이"}
        ]}
    ]
}