{
    "doc_id": "E2016.888.12_A_01.json", 
    "DCT": "", 
    "category": "", 
    "category_weight": 0, 
    "title": {
        "text": "도슨트", 
        "NE": ""
    }, 
    "metaInfo": {}, 
    "sentence": [
        {
            "id": 0, 
            "reserve_str": "", 
            "text": "박물관이나 미술관 등에서 관람객들에게 전시물을 설명하는 안내인.", 
            "morp": [
                {"id": 0, "lemma": "박물", "type": "NNG", "position": 0, "weight": 0.15}, 
                {"id": 1, "lemma": "관", "type": "XSN", "position": 6, "weight": 0.0123777}, 
                {"id": 2, "lemma": "이나", "type": "JC", "position": 9, "weight": 0.0131102}, 
                {"id": 3, "lemma": "미술", "type": "NNG", "position": 16, "weight": 0.9}, 
                {"id": 4, "lemma": "관", "type": "XSN", "position": 22, "weight": 0.0123777}, 
                {"id": 5, "lemma": "등", "type": "NNB", "position": 26, "weight": 0.0282544}, 
                {"id": 6, "lemma": "에서", "type": "JKB", "position": 29, "weight": 0.135597}, 
                {"id": 7, "lemma": "관람", "type": "NNG", "position": 36, "weight": 0.9}, 
                {"id": 8, "lemma": "객", "type": "XSN", "position": 42, "weight": 0.101063}, 
                {"id": 9, "lemma": "들", "type": "XSN", "position": 45, "weight": 0.0299841}, 
                {"id": 10, "lemma": "에게", "type": "JKB", "position": 48, "weight": 0.121677}, 
                {"id": 11, "lemma": "전시", "type": "NNG", "position": 55, "weight": 0.20775}, 
                {"id": 12, "lemma": "물", "type": "XSN", "position": 61, "weight": 0.00142289}, 
                {"id": 13, "lemma": "을", "type": "JKO", "position": 64, "weight": 0.0819193}, 
                {"id": 14, "lemma": "설명", "type": "NNG", "position": 68, "weight": 0.9}, 
                {"id": 15, "lemma": "하", "type": "XSV", "position": 74, "weight": 0.0001}, 
                {"id": 16, "lemma": "는", "type": "ETM", "position": 77, "weight": 0.238503}, 
                {"id": 17, "lemma": "안내", "type": "NNG", "position": 81, "weight": 0.9}, 
                {"id": 18, "lemma": "인", "type": "XSN", "position": 87, "weight": 0.0198339}, 
                {"id": 19, "lemma": ".", "type": "SF", "position": 90, "weight": 1}
            ], 
            "morp_eval": [], 
            "WSD": [
                {"id": 0, "text": "박물관", "type": "NNG", "scode": "000000", "weight": 1, "position": 0, "begin": 0, "end": 1}, 
                {"id": 1, "text": "이나", "type": "JC", "scode": "000000", "weight": 1, "position": 9, "begin": 2, "end": 2}, 
                {"id": 2, "text": "미술관", "type": "NNG", "scode": "000000", "weight": 1, "position": 16, "begin": 3, "end": 4}, 
                {"id": 3, "text": "등", "type": "NNB", "scode": "050001", "weight": 0.0526316, "position": 26, "begin": 5, "end": 5}, 
                {"id": 4, "text": "에서", "type": "JKB", "scode": "000000", "weight": 1, "position": 29, "begin": 6, "end": 6}, 
                {"id": 5, "text": "관람객", "type": "NNG", "scode": "000000", "weight": 1, "position": 36, "begin": 7, "end": 8}, 
                {"id": 6, "text": "들", "type": "XSN", "scode": "090000", "weight": 0.0909091, "position": 45, "begin": 9, "end": 9}, 
                {"id": 7, "text": "에게", "type": "JKB", "scode": "000000", "weight": 1, "position": 48, "begin": 10, "end": 10}, 
                {"id": 8, "text": "전시물", "type": "NNG", "scode": "000000", "weight": 1, "position": 55, "begin": 11, "end": 12}, 
                {"id": 9, "text": "을", "type": "JKO", "scode": "000000", "weight": 1, "position": 64, "begin": 13, "end": 13}, 
                {"id": 10, "text": "설명하", "type": "VV", "scode": "000000", "weight": 1, "position": 68, "begin": 14, "end": 15}, 
                {"id": 11, "text": "는", "type": "ETM", "scode": "000000", "weight": 1, "position": 77, "begin": 16, "end": 16}, 
                {"id": 12, "text": "안내인", "type": "NNG", "scode": "000001", "weight": 0.5, "position": 81, "begin": 17, "end": 18}, 
                {"id": 13, "text": ".", "type": "SF", "scode": "000000", "weight": 1, "position": 90, "begin": 19, "end": 19}
            ], 
            "word": [
                {"id": 0, "text": "박물관이나", "type": "", "begin": 0, "end": 2}, 
                {"id": 1, "text": "미술관", "type": "", "begin": 3, "end": 4}, 
                {"id": 2, "text": "등에서", "type": "", "begin": 5, "end": 6}, 
                {"id": 3, "text": "관람객들에게", "type": "", "begin": 7, "end": 10}, 
                {"id": 4, "text": "전시물을", "type": "", "begin": 11, "end": 13}, 
                {"id": 5, "text": "설명하는", "type": "", "begin": 14, "end": 16}, 
                {"id": 6, "text": "안내인.", "type": "", "begin": 17, "end": 19}
            ], 
            "NE": [
                {"id": 0, "text": "관람객", "type": "CV_POSITION", "begin": 7, "end": 8, "weight": 0.757862, "common_noun": 0}
            ], 
            "chunk": [], 
            "dependency": [
                {"id": 0, "text": "박물관이나", "head": 1, "label": "NP_CNJ", "mod": [], "weight": 0.794095}, 
                {"id": 1, "text": "미술관", "head": 2, "label": "NP", "mod": [0], "weight": 0.603696}, 
                {"id": 2, "text": "등에서", "head": 5, "label": "NP_AJT", "mod": [1], "weight": 0.0840729}, 
                {"id": 3, "text": "관람객들에게", "head": 5, "label": "NP_AJT", "mod": [], "weight": 0.605862}, 
                {"id": 4, "text": "전시물을", "head": 5, "label": "NP_OBJ", "mod": [], "weight": 0.675041}, 
                {"id": 5, "text": "설명하는", "head": 6, "label": "VP_MOD", "mod": [2, 3, 4], "weight": 0.854691}, 
                {"id": 6, "text": "안내인.", "head": -1, "label": "NP", "mod": [5], "weight": 0.0112678}
            ], 
            "SRL": [
                {"verb": "설명", "sense": 1, "word_id": 5, "weight": 0.157951, "argument": [
                    {"type": "ARGM-LOC", "word_id": 2, "text": "등에서", "weight": 1}, 
                    {"type": "ARG2", "word_id": 3, "text": "관람객들에게", "weight": 0.175493}, 
                    {"type": "ARG1", "word_id": 4, "text": "전시물을", "weight": 0.24398}, 
                    {"type": "ARG0", "word_id": 6, "text": "안내인.", "weight": 0.09975}
                ]}
            ], 
            "relation": [], 
            "SA": [], 
            "ZA": []
        }, 
        {
            "id": 1, 
            "reserve_str": "", 
            "text": "도슨트(docent)는 '가르치다'라는 뜻의 라틴어 'docere'에서 유래한 용어로, 소정의 지식을 갖춘 안내인을 말한다.", 
            "morp": [
                {"id": 0, "lemma": "도슨트", "type": "NNG", "position": 91, "weight": 0.6}, 
                {"id": 1, "lemma": "(", "type": "SS", "position": 100, "weight": 1}, 
                {"id": 2, "lemma": "docent", "type": "SL", "position": 101, "weight": 1}, 
                {"id": 3, "lemma": ")", "type": "SS", "position": 107, "weight": 1}, 
                {"id": 4, "lemma": "는", "type": "JX", "position": 108, "weight": 0.00823314}, 
                {"id": 5, "lemma": "'", "type": "SS", "position": 112, "weight": 1}, 
                {"id": 6, "lemma": "가르치", "type": "VV", "position": 113, "weight": 0.9}, 
                {"id": 7, "lemma": "다", "type": "EF", "position": 122, "weight": 0.0775868}, 
                {"id": 8, "lemma": "'", "type": "SS", "position": 125, "weight": 1}, 
                {"id": 9, "lemma": "이", "type": "VCP", "position": 126, "weight": 0.00747344}, 
                {"id": 10, "lemma": "라는", "type": "ETM", "position": 126, "weight": 0.230361}, 
                {"id": 11, "lemma": "뜻", "type": "NNG", "position": 133, "weight": 0.9}, 
                {"id": 12, "lemma": "의", "type": "JKG", "position": 136, "weight": 0.0694213}, 
                {"id": 13, "lemma": "라틴", "type": "NNP", "position": 140, "weight": 0.00909418}, 
                {"id": 14, "lemma": "어", "type": "XSN", "position": 146, "weight": 0.0001}, 
                {"id": 15, "lemma": "'", "type": "SS", "position": 150, "weight": 1}, 
                {"id": 16, "lemma": "docere", "type": "SL", "position": 151, "weight": 1}, 
                {"id": 17, "lemma": "'", "type": "SS", "position": 157, "weight": 1}, 
                {"id": 18, "lemma": "에서", "type": "JKB", "position": 158, "weight": 0.0486066}, 
                {"id": 19, "lemma": "유래", "type": "NNG", "position": 165, "weight": 0.9}, 
                {"id": 20, "lemma": "하", "type": "XSV", "position": 171, "weight": 0.0001}, 
                {"id": 21, "lemma": "ㄴ", "type": "ETM", "position": 171, "weight": 0.392321}, 
                {"id": 22, "lemma": "용어", "type": "NNG", "position": 175, "weight": 0.9}, 
                {"id": 23, "lemma": "로", "type": "JKB", "position": 181, "weight": 0.153229}, 
                {"id": 24, "lemma": ",", "type": "SP", "position": 184, "weight": 1}, 
                {"id": 25, "lemma": "소정", "type": "NNG", "position": 186, "weight": 0.514723}, 
                {"id": 26, "lemma": "의", "type": "JKG", "position": 192, "weight": 0.0694213}, 
                {"id": 27, "lemma": "지식", "type": "NNG", "position": 196, "weight": 0.9}, 
                {"id": 28, "lemma": "을", "type": "JKO", "position": 202, "weight": 0.129611}, 
                {"id": 29, "lemma": "갖추", "type": "VV", "position": 206, "weight": 0.777995}, 
                {"id": 30, "lemma": "ㄴ", "type": "ETM", "position": 209, "weight": 0.304215}, 
                {"id": 31, "lemma": "안내", "type": "NNG", "position": 213, "weight": 0.9}, 
                {"id": 32, "lemma": "인", "type": "XSN", "position": 219, "weight": 0.0198339}, 
                {"id": 33, "lemma": "을", "type": "JKO", "position": 222, "weight": 0.0819193}, 
                {"id": 34, "lemma": "말", "type": "NNG", "position": 226, "weight": 0.0814073}, 
                {"id": 35, "lemma": "하", "type": "XSV", "position": 229, "weight": 0.0001}, 
                {"id": 36, "lemma": "ㄴ다", "type": "EF", "position": 229, "weight": 0.0449045}, 
                {"id": 37, "lemma": ".", "type": "SF", "position": 235, "weight": 1}
            ], 
            "morp_eval": [], 
            "WSD": [
                {"id": 0, "text": "도슨트", "type": "NNG", "scode": "000000", "weight": 0, "position": 91, "begin": 0, "end": 0}, 
                {"id": 1, "text": "(", "type": "SS", "scode": "000000", "weight": 1, "position": 100, "begin": 1, "end": 1}, 
                {"id": 2, "text": "docent", "type": "SL", "scode": "000000", "weight": 1, "position": 101, "begin": 2, "end": 2}, 
                {"id": 3, "text": ")", "type": "SS", "scode": "000000", "weight": 1, "position": 107, "begin": 3, "end": 3}, 
                {"id": 4, "text": "는", "type": "JX", "scode": "000000", "weight": 1, "position": 108, "begin": 4, "end": 4}, 
                {"id": 5, "text": "'", "type": "SS", "scode": "000000", "weight": 1, "position": 112, "begin": 5, "end": 5}, 
                {"id": 6, "text": "가르치", "type": "VV", "scode": "010101", "weight": 0.166667, "position": 113, "begin": 6, "end": 6}, 
                {"id": 7, "text": "다", "type": "EF", "scode": "000000", "weight": 1, "position": 122, "begin": 7, "end": 7}, 
                {"id": 8, "text": "'", "type": "SS", "scode": "000000", "weight": 1, "position": 125, "begin": 8, "end": 8}, 
                {"id": 9, "text": "이", "type": "VCP", "scode": "030000", "weight": 0.0172414, "position": 126, "begin": 9, "end": 9}, 
                {"id": 10, "text": "라는", "type": "ETM", "scode": "000000", "weight": 1, "position": 126, "begin": 10, "end": 10}, 
                {"id": 11, "text": "뜻", "type": "NNG", "scode": "000002", "weight": 0.333333, "position": 133, "begin": 11, "end": 11}, 
                {"id": 12, "text": "의", "type": "JKG", "scode": "000000", "weight": 1, "position": 136, "begin": 12, "end": 12}, 
                {"id": 13, "text": "라틴어", "type": "NNG", "scode": "000000", "weight": 1, "position": 140, "begin": 13, "end": 14}, 
                {"id": 14, "text": "'", "type": "SS", "scode": "000000", "weight": 1, "position": 150, "begin": 15, "end": 15}, 
                {"id": 15, "text": "docere", "type": "SL", "scode": "000000", "weight": 1, "position": 151, "begin": 16, "end": 16}, 
                {"id": 16, "text": "'", "type": "SS", "scode": "000000", "weight": 1, "position": 157, "begin": 17, "end": 17}, 
                {"id": 17, "text": "에서", "type": "JKB", "scode": "000000", "weight": 1, "position": 158, "begin": 18, "end": 18}, 
                {"id": 18, "text": "유래하", "type": "VV", "scode": "000000", "weight": 1, "position": 165, "begin": 19, "end": 20}, 
                {"id": 19, "text": "ㄴ", "type": "ETM", "scode": "000000", "weight": 1, "position": 171, "begin": 21, "end": 21}, 
                {"id": 20, "text": "용어", "type": "NNG", "scode": "020000", "weight": 0.2, "position": 175, "begin": 22, "end": 22}, 
                {"id": 21, "text": "로", "type": "JKB", "scode": "000000", "weight": 1, "position": 181, "begin": 23, "end": 23}, 
                {"id": 22, "text": ",", "type": "SP", "scode": "000000", "weight": 1, "position": 184, "begin": 24, "end": 24}, 
                {"id": 23, "text": "소정", "type": "NNG", "scode": "060000", "weight": 0.111111, "position": 186, "begin": 25, "end": 25}, 
                {"id": 24, "text": "의", "type": "JKG", "scode": "000000", "weight": 1, "position": 192, "begin": 26, "end": 26}, 
                {"id": 25, "text": "지식", "type": "NNG", "scode": "020001", "weight": 0.111111, "position": 196, "begin": 27, "end": 27}, 
                {"id": 26, "text": "을", "type": "JKO", "scode": "000000", "weight": 1, "position": 202, "begin": 28, "end": 28}, 
                {"id": 27, "text": "갖추", "type": "VV", "scode": "000001", "weight": 0.5, "position": 206, "begin": 29, "end": 29}, 
                {"id": 28, "text": "ㄴ", "type": "ETM", "scode": "000000", "weight": 1, "position": 209, "begin": 30, "end": 30}, 
                {"id": 29, "text": "안내인", "type": "NNG", "scode": "000001", "weight": 0.5, "position": 213, "begin": 31, "end": 32}, 
                {"id": 30, "text": "을", "type": "JKO", "scode": "000000", "weight": 1, "position": 222, "begin": 33, "end": 33}, 
                {"id": 31, "text": "말하", "type": "VV", "scode": "000300", "weight": 0.125, "position": 226, "begin": 34, "end": 35}, 
                {"id": 32, "text": "ㄴ다", "type": "EF", "scode": "000000", "weight": 1, "position": 229, "begin": 36, "end": 36}, 
                {"id": 33, "text": ".", "type": "SF", "scode": "000000", "weight": 1, "position": 235, "begin": 37, "end": 37}
            ], 
            "word": [
                {"id": 0, "text": "도슨트(docent)는", "type": "", "begin": 0, "end": 4}, 
                {"id": 1, "text": "'가르치다'라는", "type": "", "begin": 5, "end": 10}, 
                {"id": 2, "text": "뜻의", "type": "", "begin": 11, "end": 12}, 
                {"id": 3, "text": "라틴어", "type": "", "begin": 13, "end": 14}, 
                {"id": 4, "text": "'docere'에서", "type": "", "begin": 15, "end": 18}, 
                {"id": 5, "text": "유래한", "type": "", "begin": 19, "end": 21}, 
                {"id": 6, "text": "용어로,", "type": "", "begin": 22, "end": 24}, 
                {"id": 7, "text": "소정의", "type": "", "begin": 25, "end": 26}, 
                {"id": 8, "text": "지식을", "type": "", "begin": 27, "end": 28}, 
                {"id": 9, "text": "갖춘", "type": "", "begin": 29, "end": 30}, 
                {"id": 10, "text": "안내인을", "type": "", "begin": 31, "end": 33}, 
                {"id": 11, "text": "말한다.", "type": "", "begin": 34, "end": 37}
            ], 
            "NE": [
                {"id": 0, "text": "도슨트", "type": "CV_OCCUPATION", "begin": 0, "end": 0, "weight": 0.174163, "common_noun": 0}, 
                {"id": 1, "text": "docent", "type": "CV_OCCUPATION", "begin": 2, "end": 2, "weight": 0.174163, "common_noun": 0}, 
                {"id": 2, "text": "라틴어", "type": "CV_LANGUAGE", "begin": 13, "end": 14, "weight": 0.663448, "common_noun": 0}
            ], 
            "chunk": [], 
            "dependency": [
                {"id": 0, "text": "도슨트(docent)는", "head": 6, "label": "NP_SBJ", "mod": [], "weight": 0.320384}, 
                {"id": 1, "text": "'가르치다'라는", "head": 2, "label": "VP_MOD", "mod": [], "weight": 0.297693}, 
                {"id": 2, "text": "뜻의", "head": 3, "label": "NP_MOD", "mod": [1], "weight": 0.538981}, 
                {"id": 3, "text": "라틴어", "head": 4, "label": "NP", "mod": [2], "weight": 0.65116}, 
                {"id": 4, "text": "'docere'에서", "head": 5, "label": "NP_AJT", "mod": [3], "weight": 0.573322}, 
                {"id": 5, "text": "유래한", "head": 6, "label": "VP_MOD", "mod": [4], "weight": 0.806072}, 
                {"id": 6, "text": "용어로,", "head": 11, "label": "NP_AJT", "mod": [0, 5], "weight": 0.694936}, 
                {"id": 7, "text": "소정의", "head": 8, "label": "NP_MOD", "mod": [], "weight": 0.516538}, 
                {"id": 8, "text": "지식을", "head": 9, "label": "NP_OBJ", "mod": [7], "weight": 0.834938}, 
                {"id": 9, "text": "갖춘", "head": 10, "label": "VP_MOD", "mod": [8], "weight": 0.709657}, 
                {"id": 10, "text": "안내인을", "head": 11, "label": "NP_OBJ", "mod": [9], "weight": 0.830972}, 
                {"id": 11, "text": "말한다.", "head": -1, "label": "VP", "mod": [6, 10], "weight": 0.00248042}
            ], 
            "SRL": [
                {"verb": "유래", "sense": 1, "word_id": 5, "weight": 0.217344, "argument": [
                    {"type": "ARG2", "word_id": 4, "text": "'docere'에서", "weight": 0.234857}, 
                    {"type": "ARG1", "word_id": 6, "text": "용어로,", "weight": 1}
                ]}, 
                {"verb": "갖추", "sense": 1, "word_id": 9, "weight": 0.17829, "argument": [
                    {"type": "ARG1", "word_id": 8, "text": "지식을", "weight": 0.191275}, 
                    {"type": "ARG0", "word_id": 10, "text": "안내인을", "weight": 0.165305}
                ]}, 
                {"verb": "말하", "sense": 1, "word_id": 11, "weight": 0.101046, "argument": [
                    {"type": "ARG1", "word_id": 10, "text": "안내인을", "weight": 0.101046}, 
                    {"type": "ARGM-PRD", "word_id": 6, "text": "용어로,", "weight": 1}, 
                    {"type": "ARG2", "word_id": 0, "text": "도슨트(docent)는", "weight": 1}
                ]}
            ], 
            "relation": [], 
            "SA": [], 
            "ZA": []
        }
    ], 
    "entity": [
        {"id": 0, "type": "OGG_ART", "number": "singular", "gender": "", "person": "", "animacy": "thing", "mention": [
            {"id": 3, "sent_id": 0, "start_eid": 1, "end_eid": 1, "ne_id": 0, "text": "미술관", "start_eid_short": 1, "end_eid_short": 1, "text_short": "미술관"}
        ]}, 
        {"id": 1, "type": "", "number": "singular", "gender": "", "person": "", "animacy": "thing", "mention": [
            {"id": 2, "sent_id": 0, "start_eid": 0, "end_eid": 0, "ne_id": -1, "text": "박물관이나", "start_eid_short": 0, "end_eid_short": 0, "text_short": "박물관이나"}
        ]}, 
        {"id": 2, "type": "", "number": "singular", "gender": "", "person": "", "animacy": "thing", "mention": [
            {"id": 1, "sent_id": 0, "start_eid": 0, "end_eid": 2, "ne_id": -1, "text": "박물관이나 미술관 등에서", "start_eid_short": 1, "end_eid_short": 2, "text_short": "미술관 등에서"}
        ]}, 
        {"id": 3, "type": "CV_POSITION", "number": "singular", "gender": "", "person": "", "animacy": "human", "mention": [
            {"id": 4, "sent_id": 0, "start_eid": 3, "end_eid": 3, "ne_id": 1, "text": "관람객들에게", "start_eid_short": 3, "end_eid_short": 3, "text_short": "관람객들에게"}
        ]}, 
        {"id": 4, "type": "", "number": "singular", "gender": "", "person": "", "animacy": "thing", "mention": [
            {"id": 5, "sent_id": 0, "start_eid": 4, "end_eid": 4, "ne_id": -1, "text": "전시물을", "start_eid_short": 4, "end_eid_short": 4, "text_short": "전시물을"}
        ]}, 
        {"id": 5, "type": "", "number": "singular", "gender": "", "person": "", "animacy": "thing", "mention": [
            {"id": 8, "sent_id": 1, "start_eid": 1, "end_eid": 4, "ne_id": -1, "text": "'가르치다'라는 뜻의 라틴어 'docere'에서", "start_eid_short": 4, "end_eid_short": 4, "text_short": "'docere'에서"}
        ]}, 
        {"id": 6, "type": "", "number": "singular", "gender": "", "person": "", "animacy": "thing", "mention": [
            {"id": 9, "sent_id": 1, "start_eid": 1, "end_eid": 2, "ne_id": -1, "text": "'가르치다'라는 뜻의", "start_eid_short": 2, "end_eid_short": 2, "text_short": "뜻의"}
        ]}, 
        {"id": 7, "type": "CV_OCCUPATION", "number": "singular", "gender": "", "person": "", "animacy": "thing", "mention": [
            {"id": 0, "sent_id": 0, "start_eid": 0, "end_eid": 6, "ne_id": -1, "text": "박물관이나 미술관 등에서 관람객들에게 전시물을 설명하는 안내인.", "start_eid_short": 6, "end_eid_short": 6, "text_short": "안내인."}, 
            {"id": 6, "sent_id": 1, "start_eid": 0, "end_eid": 0, "ne_id": 0, "text": "도슨트(docent)는", "start_eid_short": 0, "end_eid_short": 0, "text_short": "도슨트(docent)는"}, 
            {"id": 7, "sent_id": 1, "start_eid": 1, "end_eid": 6, "ne_id": -1, "text": "'가르치다'라는 뜻의 라틴어 'docere'에서 유래한 용어로,", "start_eid_short": 6, "end_eid_short": 6, "text_short": "용어로,"}, 
            {"id": 11, "sent_id": 1, "start_eid": 7, "end_eid": 10, "ne_id": -1, "text": "소정의 지식을 갖춘 안내인을", "start_eid_short": 10, "end_eid_short": 10, "text_short": "안내인을"}
        ]}, 
        {"id": 8, "type": "", "number": "singular", "gender": "", "person": "", "animacy": "thing", "mention": [
            {"id": 12, "sent_id": 1, "start_eid": 7, "end_eid": 8, "ne_id": -1, "text": "소정의 지식을", "start_eid_short": 8, "end_eid_short": 8, "text_short": "지식을"}
        ]}, 
        {"id": 9, "type": "", "number": "singular", "gender": "", "person": "", "animacy": "thing", "mention": [
            {"id": 13, "sent_id": 1, "start_eid": 7, "end_eid": 7, "ne_id": -1, "text": "소정의", "start_eid_short": 7, "end_eid_short": 7, "text_short": "소정의"}
        ]}, 
        {"id": 10, "type": "CV_LANGUAGE", "number": "singular", "gender": "", "person": "", "animacy": "thing", "mention": [
            {"id": 10, "sent_id": 1, "start_eid": 3, "end_eid": 3, "ne_id": 1, "text": "라틴어", "start_eid_short": 3, "end_eid_short": 3, "text_short": "라틴어"}
        ]}
    ]
}