{
    "doc_id": "E2016.836.03_A_02.json", 
    "DCT": "", 
    "category": "", 
    "category_weight": 0, 
    "title": {
        "text": "경제자유구역", 
        "NE": ""
    }, 
    "metaInfo": {}, 
    "sentence": [
        {
            "id": 0, 
            "reserve_str": "", 
            "text": "국내에는 2003년 8월 영종도ㆍ송도ㆍ청라지구의 인천경제자유구역을 시작으로, 10월 부산ㆍ진해(강서구, 진해시)와 광양만권(광양, 순천, 여수, 하동군), 2008년 지정된 황해(당진, 아산, 평택), 새만금ㆍ군산(군산, 부안), 대구ㆍ경북(경산, 영천, 구미, 포항), 그리고 2013년 지정된 충북과 동해안 등 8개의 경제자유구역이 지정되어 있다.", 
            "morp": [
                {"id": 0, "lemma": "국내", "type": "NNG", "position": 0, "weight": 0.9}, 
                {"id": 1, "lemma": "에", "type": "JKB", "position": 6, "weight": 0.153364}, 
                {"id": 2, "lemma": "는", "type": "JX", "position": 9, "weight": 0.0387928}, 
                {"id": 3, "lemma": "2003", "type": "SN", "position": 13, "weight": 1}, 
                {"id": 4, "lemma": "년", "type": "NNB", "position": 17, "weight": 0.414343}, 
                {"id": 5, "lemma": "8", "type": "SN", "position": 21, "weight": 1}, 
                {"id": 6, "lemma": "월", "type": "NNB", "position": 22, "weight": 0.408539}, 
                {"id": 7, "lemma": "영종도", "type": "NNP", "position": 26, "weight": 0.9}, 
                {"id": 8, "lemma": "ㆍ", "type": "SP", "position": 35, "weight": 1}, 
                {"id": 9, "lemma": "송도", "type": "NNP", "position": 38, "weight": 0.119648}, 
                {"id": 10, "lemma": "ㆍ", "type": "SP", "position": 44, "weight": 1}, 
                {"id": 11, "lemma": "청라", "type": "NNP", "position": 47, "weight": 0.25}, 
                {"id": 12, "lemma": "지구", "type": "NNG", "position": 53, "weight": 0.9}, 
                {"id": 13, "lemma": "의", "type": "JKG", "position": 59, "weight": 0.0694213}, 
                {"id": 14, "lemma": "인천", "type": "NNP", "position": 63, "weight": 0.0203131}, 
                {"id": 15, "lemma": "경제", "type": "NNG", "position": 69, "weight": 0.281964}, 
                {"id": 16, "lemma": "자유", "type": "NNG", "position": 75, "weight": 0.18468}, 
                {"id": 17, "lemma": "구역", "type": "NNG", "position": 81, "weight": 0.9}, 
                {"id": 18, "lemma": "을", "type": "JKO", "position": 87, "weight": 0.129611}, 
                {"id": 19, "lemma": "시작", "type": "NNG", "position": 91, "weight": 0.9}, 
                {"id": 20, "lemma": "으로", "type": "JKB", "position": 97, "weight": 0.153406}, 
                {"id": 21, "lemma": ",", "type": "SP", "position": 103, "weight": 1}, 
                {"id": 22, "lemma": "10", "type": "SN", "position": 105, "weight": 1}, 
                {"id": 23, "lemma": "월", "type": "NNB", "position": 107, "weight": 0.408539}, 
                {"id": 24, "lemma": "부산", "type": "NNP", "position": 111, "weight": 0.0148404}, 
                {"id": 25, "lemma": "ㆍ", "type": "SP", "position": 117, "weight": 1}, 
                {"id": 26, "lemma": "진해", "type": "NNP", "position": 120, "weight": 0.107724}, 
                {"id": 27, "lemma": "(", "type": "SS", "position": 126, "weight": 1}, 
                {"id": 28, "lemma": "강서", "type": "NNP", "position": 127, "weight": 0.0437359}, 
                {"id": 29, "lemma": "구", "type": "NNG", "position": 133, "weight": 0.0725254}, 
                {"id": 30, "lemma": ",", "type": "SP", "position": 136, "weight": 1}, 
                {"id": 31, "lemma": "진해", "type": "NNP", "position": 138, "weight": 0.107724}, 
                {"id": 32, "lemma": "시", "type": "NNG", "position": 144, "weight": 0.0529188}, 
                {"id": 33, "lemma": ")", "type": "SS", "position": 147, "weight": 1}, 
                {"id": 34, "lemma": "와", "type": "JC", "position": 148, "weight": 0.00426109}, 
                {"id": 35, "lemma": "광양", "type": "NNP", "position": 152, "weight": 0.9}, 
                {"id": 36, "lemma": "만", "type": "NNG", "position": 158, "weight": 0.1}, 
                {"id": 37, "lemma": "권", "type": "XSN", "position": 158, "weight": 0.1}, 
                {"id": 38, "lemma": "(", "type": "SS", "position": 164, "weight": 1}, 
                {"id": 39, "lemma": "광양", "type": "NNP", "position": 165, "weight": 0.9}, 
                {"id": 40, "lemma": ",", "type": "SP", "position": 171, "weight": 1}, 
                {"id": 41, "lemma": "순천", "type": "NNP", "position": 173, "weight": 0.122645}, 
                {"id": 42, "lemma": ",", "type": "SP", "position": 179, "weight": 1}, 
                {"id": 43, "lemma": "여수", "type": "NNP", "position": 181, "weight": 0.101837}, 
                {"id": 44, "lemma": ",", "type": "SP", "position": 187, "weight": 1}, 
                {"id": 45, "lemma": "하동", "type": "NNP", "position": 189, "weight": 0.9}, 
                {"id": 46, "lemma": "군", "type": "NNG", "position": 195, "weight": 0.16921}, 
                {"id": 47, "lemma": ")", "type": "SS", "position": 198, "weight": 1}, 
                {"id": 48, "lemma": ",", "type": "SP", "position": 199, "weight": 1}, 
                {"id": 49, "lemma": "2008", "type": "SN", "position": 201, "weight": 1}, 
                {"id": 50, "lemma": "년", "type": "NNB", "position": 205, "weight": 0.414343}, 
                {"id": 51, "lemma": "지정", "type": "NNG", "position": 209, "weight": 0.9}, 
                {"id": 52, "lemma": "되", "type": "XSV", "position": 215, "weight": 0.000224177}, 
                {"id": 53, "lemma": "ㄴ", "type": "ETM", "position": 215, "weight": 0.392321}, 
                {"id": 54, "lemma": "황해", "type": "NNP", "position": 219, "weight": 0.9}, 
                {"id": 55, "lemma": "(", "type": "SS", "position": 225, "weight": 1}, 
                {"id": 56, "lemma": "당진", "type": "NNP", "position": 226, "weight": 0.9}, 
                {"id": 57, "lemma": ",", "type": "SP", "position": 232, "weight": 1}, 
                {"id": 58, "lemma": "아산", "type": "NNP", "position": 234, "weight": 0.9}, 
                {"id": 59, "lemma": ",", "type": "SP", "position": 240, "weight": 1}, 
                {"id": 60, "lemma": "평택", "type": "NNP", "position": 242, "weight": 0.9}, 
                {"id": 61, "lemma": ")", "type": "SS", "position": 248, "weight": 1}, 
                {"id": 62, "lemma": ",", "type": "SP", "position": 249, "weight": 1}, 
                {"id": 63, "lemma": "새만금", "type": "NNP", "position": 251, "weight": 0.9}, 
                {"id": 64, "lemma": "ㆍ", "type": "SP", "position": 260, "weight": 1}, 
                {"id": 65, "lemma": "군산", "type": "NNP", "position": 263, "weight": 0.0214067}, 
                {"id": 66, "lemma": "(", "type": "SS", "position": 269, "weight": 1}, 
                {"id": 67, "lemma": "군산", "type": "NNP", "position": 270, "weight": 0.00805373}, 
                {"id": 68, "lemma": ",", "type": "SP", "position": 276, "weight": 1}, 
                {"id": 69, "lemma": "부안", "type": "NNP", "position": 278, "weight": 0.9}, 
                {"id": 70, "lemma": ")", "type": "SS", "position": 284, "weight": 1}, 
                {"id": 71, "lemma": ",", "type": "SP", "position": 285, "weight": 1}, 
                {"id": 72, "lemma": "대구", "type": "NNP", "position": 287, "weight": 0.113886}, 
                {"id": 73, "lemma": "ㆍ", "type": "SP", "position": 293, "weight": 1}, 
                {"id": 74, "lemma": "경북", "type": "NNP", "position": 296, "weight": 0.9}, 
                {"id": 75, "lemma": "(", "type": "SS", "position": 302, "weight": 1}, 
                {"id": 76, "lemma": "경산", "type": "NNP", "position": 303, "weight": 0.9}, 
                {"id": 77, "lemma": ",", "type": "SP", "position": 309, "weight": 1}, 
                {"id": 78, "lemma": "영천", "type": "NNP", "position": 311, "weight": 0.108946}, 
                {"id": 79, "lemma": ",", "type": "SP", "position": 317, "weight": 1}, 
                {"id": 80, "lemma": "구미", "type": "NNP", "position": 319, "weight": 0.0757877}, 
                {"id": 81, "lemma": ",", "type": "SP", "position": 325, "weight": 1}, 
                {"id": 82, "lemma": "포항", "type": "NNP", "position": 327, "weight": 0.9}, 
                {"id": 83, "lemma": ")", "type": "SS", "position": 333, "weight": 1}, 
                {"id": 84, "lemma": ",", "type": "SP", "position": 334, "weight": 1}, 
                {"id": 85, "lemma": "그리고", "type": "MAJ", "position": 336, "weight": 0.00535347}, 
                {"id": 86, "lemma": "2013", "type": "SN", "position": 346, "weight": 1}, 
                {"id": 87, "lemma": "년", "type": "NNB", "position": 350, "weight": 0.414343}, 
                {"id": 88, "lemma": "지정", "type": "NNG", "position": 354, "weight": 0.9}, 
                {"id": 89, "lemma": "되", "type": "XSV", "position": 360, "weight": 0.000224177}, 
                {"id": 90, "lemma": "ㄴ", "type": "ETM", "position": 360, "weight": 0.392321}, 
                {"id": 91, "lemma": "충북", "type": "NNP", "position": 364, "weight": 0.0280239}, 
                {"id": 92, "lemma": "과", "type": "JC", "position": 370, "weight": 0.0108215}, 
                {"id": 93, "lemma": "동해", "type": "NNP", "position": 374, "weight": 0.0636265}, 
                {"id": 94, "lemma": "안", "type": "XSN", "position": 380, "weight": 0}, 
                {"id": 95, "lemma": "등", "type": "NNB", "position": 384, "weight": 0.0282544}, 
                {"id": 96, "lemma": "8", "type": "SN", "position": 388, "weight": 1}, 
                {"id": 97, "lemma": "개", "type": "NNB", "position": 389, "weight": 0.363274}, 
                {"id": 98, "lemma": "의", "type": "JKG", "position": 392, "weight": 0.0520933}, 
                {"id": 99, "lemma": "경제", "type": "NNG", "position": 396, "weight": 0.871357}, 
                {"id": 100, "lemma": "자유", "type": "NNG", "position": 402, "weight": 0.18468}, 
                {"id": 101, "lemma": "구역", "type": "NNG", "position": 408, "weight": 0.9}, 
                {"id": 102, "lemma": "이", "type": "JKS", "position": 414, "weight": 0.0360723}, 
                {"id": 103, "lemma": "지정", "type": "NNG", "position": 418, "weight": 0.9}, 
                {"id": 104, "lemma": "되", "type": "XSV", "position": 424, "weight": 0.000224177}, 
                {"id": 105, "lemma": "어", "type": "EC", "position": 427, "weight": 0.361326}, 
                {"id": 106, "lemma": "있", "type": "VX", "position": 431, "weight": 0.125953}, 
                {"id": 107, "lemma": "다", "type": "EF", "position": 434, "weight": 0.180366}, 
                {"id": 108, "lemma": ".", "type": "SF", "position": 437, "weight": 1}
            ], 
            "morp_eval": [], 
            "WSD": [
                {"id": 0, "text": "국내", "type": "NNG", "scode": "020000", "weight": 0.333333, "position": 0, "begin": 0, "end": 0}, 
                {"id": 1, "text": "에", "type": "JKB", "scode": "000000", "weight": 1, "position": 6, "begin": 1, "end": 1}, 
                {"id": 2, "text": "는", "type": "JX", "scode": "000000", "weight": 1, "position": 9, "begin": 2, "end": 2}, 
                {"id": 3, "text": "2003", "type": "SN", "scode": "000000", "weight": 1, "position": 13, "begin": 3, "end": 3}, 
                {"id": 4, "text": "년", "type": "NNB", "scode": "020000", "weight": 0.166667, "position": 17, "begin": 4, "end": 4}, 
                {"id": 5, "text": "8", "type": "SN", "scode": "000000", "weight": 1, "position": 21, "begin": 5, "end": 5}, 
                {"id": 6, "text": "월", "type": "NNB", "scode": "020100", "weight": 0.125, "position": 22, "begin": 6, "end": 6}, 
                {"id": 7, "text": "영종도", "type": "NNP", "scode": "000000", "weight": 1, "position": 26, "begin": 7, "end": 7}, 
                {"id": 8, "text": "ㆍ", "type": "SP", "scode": "000000", "weight": 1, "position": 35, "begin": 8, "end": 8}, 
                {"id": 9, "text": "송도", "type": "NNP", "scode": "020000", "weight": 0.2, "position": 38, "begin": 9, "end": 9}, 
                {"id": 10, "text": "ㆍ", "type": "SP", "scode": "000000", "weight": 1, "position": 44, "begin": 10, "end": 10}, 
                {"id": 11, "text": "청라", "type": "NNP", "scode": "000000", "weight": 0.25, "position": 47, "begin": 11, "end": 11}, 
                {"id": 12, "text": "지구", "type": "NNG", "scode": "030002", "weight": 0.0769231, "position": 53, "begin": 12, "end": 12}, 
                {"id": 13, "text": "의", "type": "JKG", "scode": "000000", "weight": 1, "position": 59, "begin": 13, "end": 13}, 
                {"id": 14, "text": "인천", "type": "NNP", "scode": "020000", "weight": 0.333333, "position": 63, "begin": 14, "end": 14}, 
                {"id": 15, "text": "경제", "type": "NNG", "scode": "040001", "weight": 0.111111, "position": 69, "begin": 15, "end": 15}, 
                {"id": 16, "text": "자유", "type": "NNG", "scode": "030001", "weight": 0.142857, "position": 75, "begin": 16, "end": 16}, 
                {"id": 17, "text": "구역", "type": "NNG", "scode": "040001", "weight": 0.0666667, "position": 81, "begin": 17, "end": 17}, 
                {"id": 18, "text": "을", "type": "JKO", "scode": "000000", "weight": 1, "position": 87, "begin": 18, "end": 18}, 
                {"id": 19, "text": "시작", "type": "NNG", "scode": "010000", "weight": 0.25, "position": 91, "begin": 19, "end": 19}, 
                {"id": 20, "text": "으로", "type": "JKB", "scode": "000000", "weight": 1, "position": 97, "begin": 20, "end": 20}, 
                {"id": 21, "text": ",", "type": "SP", "scode": "000000", "weight": 1, "position": 103, "begin": 21, "end": 21}, 
                {"id": 22, "text": "10", "type": "SN", "scode": "000000", "weight": 1, "position": 105, "begin": 22, "end": 22}, 
                {"id": 23, "text": "월", "type": "NNB", "scode": "020100", "weight": 0.125, "position": 107, "begin": 23, "end": 23}, 
                {"id": 24, "text": "부산", "type": "NNP", "scode": "020000", "weight": 0.333333, "position": 111, "begin": 24, "end": 24}, 
                {"id": 25, "text": "ㆍ", "type": "SP", "scode": "000000", "weight": 1, "position": 117, "begin": 25, "end": 25}, 
                {"id": 26, "text": "진해", "type": "NNP", "scode": "030000", "weight": 0.333333, "position": 120, "begin": 26, "end": 26}, 
                {"id": 27, "text": "(", "type": "SS", "scode": "000000", "weight": 1, "position": 126, "begin": 27, "end": 27}, 
                {"id": 28, "text": "강서", "type": "NNP", "scode": "000000", "weight": 0.5, "position": 127, "begin": 28, "end": 28}, 
                {"id": 29, "text": "구", "type": "NNG", "scode": "150002", "weight": 0.025641, "position": 133, "begin": 29, "end": 29}, 
                {"id": 30, "text": ",", "type": "SP", "scode": "000000", "weight": 1, "position": 136, "begin": 30, "end": 30}, 
                {"id": 31, "text": "진해", "type": "NNP", "scode": "030000", "weight": 0.333333, "position": 138, "begin": 31, "end": 31}, 
                {"id": 32, "text": "시", "type": "NNG", "scode": "060001", "weight": 0.025641, "position": 144, "begin": 32, "end": 32}, 
                {"id": 33, "text": ")", "type": "SS", "scode": "000000", "weight": 1, "position": 147, "begin": 33, "end": 33}, 
                {"id": 34, "text": "와", "type": "JC", "scode": "000000", "weight": 1, "position": 148, "begin": 34, "end": 34}, 
                {"id": 35, "text": "광양", "type": "NNP", "scode": "010000", "weight": 0.5, "position": 152, "begin": 35, "end": 35}, 
                {"id": 36, "text": "만권", "type": "NNG", "scode": "000000", "weight": 1, "position": 158, "begin": 36, "end": 37}, 
                {"id": 37, "text": "(", "type": "SS", "scode": "000000", "weight": 1, "position": 164, "begin": 38, "end": 38}, 
                {"id": 38, "text": "광양", "type": "NNP", "scode": "010000", "weight": 0.5, "position": 165, "begin": 39, "end": 39}, 
                {"id": 39, "text": ",", "type": "SP", "scode": "000000", "weight": 1, "position": 171, "begin": 40, "end": 40}, 
                {"id": 40, "text": "순천", "type": "NNP", "scode": "040000", "weight": 0.25, "position": 173, "begin": 41, "end": 41}, 
                {"id": 41, "text": ",", "type": "SP", "scode": "000000", "weight": 1, "position": 179, "begin": 42, "end": 42}, 
                {"id": 42, "text": "여수", "type": "NNP", "scode": "140000", "weight": 0.0588235, "position": 181, "begin": 43, "end": 43}, 
                {"id": 43, "text": ",", "type": "SP", "scode": "000000", "weight": 1, "position": 187, "begin": 44, "end": 44}, 
                {"id": 44, "text": "하동군", "type": "NNP", "scode": "000000", "weight": 1, "position": 189, "begin": 45, "end": 46}, 
                {"id": 45, "text": ")", "type": "SS", "scode": "000000", "weight": 1, "position": 198, "begin": 47, "end": 47}, 
                {"id": 46, "text": ",", "type": "SP", "scode": "000000", "weight": 1, "position": 199, "begin": 48, "end": 48}, 
                {"id": 47, "text": "2008", "type": "SN", "scode": "000000", "weight": 1, "position": 201, "begin": 49, "end": 49}, 
                {"id": 48, "text": "년", "type": "NNB", "scode": "020000", "weight": 0.166667, "position": 205, "begin": 50, "end": 50}, 
                {"id": 49, "text": "지정되", "type": "VV", "scode": "000001", "weight": 0.5, "position": 209, "begin": 51, "end": 52}, 
                {"id": 50, "text": "ㄴ", "type": "ETM", "scode": "000000", "weight": 1, "position": 215, "begin": 53, "end": 53}, 
                {"id": 51, "text": "황해", "type": "NNP", "scode": "888888", "weight": 0.333333, "position": 219, "begin": 54, "end": 54}, 
                {"id": 52, "text": "(", "type": "SS", "scode": "000000", "weight": 1, "position": 225, "begin": 55, "end": 55}, 
                {"id": 53, "text": "당진", "type": "NNP", "scode": "000000", "weight": 1, "position": 226, "begin": 56, "end": 56}, 
                {"id": 54, "text": ",", "type": "SP", "scode": "000000", "weight": 1, "position": 232, "begin": 57, "end": 57}, 
                {"id": 55, "text": "아산", "type": "NNP", "scode": "000000", "weight": 1, "position": 234, "begin": 58, "end": 58}, 
                {"id": 56, "text": ",", "type": "SP", "scode": "000000", "weight": 1, "position": 240, "begin": 59, "end": 59}, 
                {"id": 57, "text": "평택", "type": "NNP", "scode": "000000", "weight": 1, "position": 242, "begin": 60, "end": 60}, 
                {"id": 58, "text": ")", "type": "SS", "scode": "000000", "weight": 1, "position": 248, "begin": 61, "end": 61}, 
                {"id": 59, "text": ",", "type": "SP", "scode": "000000", "weight": 1, "position": 249, "begin": 62, "end": 62}, 
                {"id": 60, "text": "새만금", "type": "NNP", "scode": "000000", "weight": 0, "position": 251, "begin": 63, "end": 63}, 
                {"id": 61, "text": "ㆍ", "type": "SP", "scode": "000000", "weight": 1, "position": 260, "begin": 64, "end": 64}, 
                {"id": 62, "text": "군산", "type": "NNP", "scode": "020000", "weight": 0.5, "position": 263, "begin": 65, "end": 65}, 
                {"id": 63, "text": "(", "type": "SS", "scode": "000000", "weight": 1, "position": 269, "begin": 66, "end": 66}, 
                {"id": 64, "text": "군산", "type": "NNP", "scode": "020000", "weight": 0.5, "position": 270, "begin": 67, "end": 67}, 
                {"id": 65, "text": ",", "type": "SP", "scode": "000000", "weight": 1, "position": 276, "begin": 68, "end": 68}, 
                {"id": 66, "text": "부안", "type": "NNP", "scode": "010000", "weight": 0.333333, "position": 278, "begin": 69, "end": 69}, 
                {"id": 67, "text": ")", "type": "SS", "scode": "000000", "weight": 1, "position": 284, "begin": 70, "end": 70}, 
                {"id": 68, "text": ",", "type": "SP", "scode": "000000", "weight": 1, "position": 285, "begin": 71, "end": 71}, 
                {"id": 69, "text": "대구", "type": "NNP", "scode": "030000", "weight": 0.142857, "position": 287, "begin": 72, "end": 72}, 
                {"id": 70, "text": "ㆍ", "type": "SP", "scode": "000000", "weight": 1, "position": 293, "begin": 73, "end": 73}, 
                {"id": 71, "text": "경북", "type": "NNP", "scode": "000000", "weight": 1, "position": 296, "begin": 74, "end": 74}, 
                {"id": 72, "text": "(", "type": "SS", "scode": "000000", "weight": 1, "position": 302, "begin": 75, "end": 75}, 
                {"id": 73, "text": "경산", "type": "NNP", "scode": "030000", "weight": 0.2, "position": 303, "begin": 76, "end": 76}, 
                {"id": 74, "text": ",", "type": "SP", "scode": "000000", "weight": 1, "position": 309, "begin": 77, "end": 77}, 
                {"id": 75, "text": "영천", "type": "NNP", "scode": "010000", "weight": 0.333333, "position": 311, "begin": 78, "end": 78}, 
                {"id": 76, "text": ",", "type": "SP", "scode": "000000", "weight": 1, "position": 317, "begin": 79, "end": 79}, 
                {"id": 77, "text": "구미", "type": "NNP", "scode": "070000", "weight": 0.111111, "position": 319, "begin": 80, "end": 80}, 
                {"id": 78, "text": ",", "type": "SP", "scode": "000000", "weight": 1, "position": 325, "begin": 81, "end": 81}, 
                {"id": 79, "text": "포항", "type": "NNP", "scode": "030000", "weight": 0.333333, "position": 327, "begin": 82, "end": 82}, 
                {"id": 80, "text": ")", "type": "SS", "scode": "000000", "weight": 1, "position": 333, "begin": 83, "end": 83}, 
                {"id": 81, "text": ",", "type": "SP", "scode": "000000", "weight": 1, "position": 334, "begin": 84, "end": 84}, 
                {"id": 82, "text": "그리고", "type": "MAJ", "scode": "000000", "weight": 1, "position": 336, "begin": 85, "end": 85}, 
                {"id": 83, "text": "2013", "type": "SN", "scode": "000000", "weight": 1, "position": 346, "begin": 86, "end": 86}, 
                {"id": 84, "text": "년", "type": "NNB", "scode": "020000", "weight": 0.166667, "position": 350, "begin": 87, "end": 87}, 
                {"id": 85, "text": "지정되", "type": "VV", "scode": "000001", "weight": 0.5, "position": 354, "begin": 88, "end": 89}, 
                {"id": 86, "text": "ㄴ", "type": "ETM", "scode": "000000", "weight": 1, "position": 360, "begin": 90, "end": 90}, 
                {"id": 87, "text": "충북", "type": "NNP", "scode": "000000", "weight": 1, "position": 364, "begin": 91, "end": 91}, 
                {"id": 88, "text": "과", "type": "JC", "scode": "000000", "weight": 1, "position": 370, "begin": 92, "end": 92}, 
                {"id": 89, "text": "동해안", "type": "NNG", "scode": "000001", "weight": 0.5, "position": 374, "begin": 93, "end": 94}, 
                {"id": 90, "text": "등", "type": "NNB", "scode": "050001", "weight": 0.0526316, "position": 384, "begin": 95, "end": 95}, 
                {"id": 91, "text": "8", "type": "SN", "scode": "000000", "weight": 1, "position": 388, "begin": 96, "end": 96}, 
                {"id": 92, "text": "개", "type": "NNB", "scode": "100001", "weight": 0.0454545, "position": 389, "begin": 97, "end": 97}, 
                {"id": 93, "text": "의", "type": "JKG", "scode": "000000", "weight": 1, "position": 392, "begin": 98, "end": 98}, 
                {"id": 94, "text": "경제", "type": "NNG", "scode": "040001", "weight": 0.111111, "position": 396, "begin": 99, "end": 99}, 
                {"id": 95, "text": "자유", "type": "NNG", "scode": "030001", "weight": 0.142857, "position": 402, "begin": 100, "end": 100}, 
                {"id": 96, "text": "구역", "type": "NNG", "scode": "040001", "weight": 0.0666667, "position": 408, "begin": 101, "end": 101}, 
                {"id": 97, "text": "이", "type": "JKS", "scode": "000000", "weight": 1, "position": 414, "begin": 102, "end": 102}, 
                {"id": 98, "text": "지정되", "type": "VV", "scode": "000001", "weight": 0.5, "position": 418, "begin": 103, "end": 104}, 
                {"id": 99, "text": "어", "type": "EC", "scode": "000000", "weight": 1, "position": 427, "begin": 105, "end": 105}, 
                {"id": 100, "text": "있", "type": "VX", "scode": "010901", "weight": 0.0416667, "position": 431, "begin": 106, "end": 106}, 
                {"id": 101, "text": "다", "type": "EF", "scode": "000000", "weight": 1, "position": 434, "begin": 107, "end": 107}, 
                {"id": 102, "text": ".", "type": "SF", "scode": "000000", "weight": 1, "position": 437, "begin": 108, "end": 108}
            ], 
            "word": [
                {"id": 0, "text": "국내에는", "type": "", "begin": 0, "end": 2}, 
                {"id": 1, "text": "2003년", "type": "", "begin": 3, "end": 4}, 
                {"id": 2, "text": "8월", "type": "", "begin": 5, "end": 6}, 
                {"id": 3, "text": "영종도ㆍ송도ㆍ청라지구의", "type": "", "begin": 7, "end": 13}, 
                {"id": 4, "text": "인천경제자유구역을", "type": "", "begin": 14, "end": 18}, 
                {"id": 5, "text": "시작으로,", "type": "", "begin": 19, "end": 21}, 
                {"id": 6, "text": "10월", "type": "", "begin": 22, "end": 23}, 
                {"id": 7, "text": "부산ㆍ진해(강서구,", "type": "", "begin": 24, "end": 30}, 
                {"id": 8, "text": "진해시)와", "type": "", "begin": 31, "end": 34}, 
                {"id": 9, "text": "광양만권(광양,", "type": "", "begin": 35, "end": 40}, 
                {"id": 10, "text": "순천,", "type": "", "begin": 41, "end": 42}, 
                {"id": 11, "text": "여수,", "type": "", "begin": 43, "end": 44}, 
                {"id": 12, "text": "하동군),", "type": "", "begin": 45, "end": 48}, 
                {"id": 13, "text": "2008년", "type": "", "begin": 49, "end": 50}, 
                {"id": 14, "text": "지정된", "type": "", "begin": 51, "end": 53}, 
                {"id": 15, "text": "황해(당진,", "type": "", "begin": 54, "end": 57}, 
                {"id": 16, "text": "아산,", "type": "", "begin": 58, "end": 59}, 
                {"id": 17, "text": "평택),", "type": "", "begin": 60, "end": 62}, 
                {"id": 18, "text": "새만금ㆍ군산(군산,", "type": "", "begin": 63, "end": 68}, 
                {"id": 19, "text": "부안),", "type": "", "begin": 69, "end": 71}, 
                {"id": 20, "text": "대구ㆍ경북(경산,", "type": "", "begin": 72, "end": 77}, 
                {"id": 21, "text": "영천,", "type": "", "begin": 78, "end": 79}, 
                {"id": 22, "text": "구미,", "type": "", "begin": 80, "end": 81}, 
                {"id": 23, "text": "포항),", "type": "", "begin": 82, "end": 84}, 
                {"id": 24, "text": "그리고", "type": "", "begin": 85, "end": 85}, 
                {"id": 25, "text": "2013년", "type": "", "begin": 86, "end": 87}, 
                {"id": 26, "text": "지정된", "type": "", "begin": 88, "end": 90}, 
                {"id": 27, "text": "충북과", "type": "", "begin": 91, "end": 92}, 
                {"id": 28, "text": "동해안", "type": "", "begin": 93, "end": 94}, 
                {"id": 29, "text": "등", "type": "", "begin": 95, "end": 95}, 
                {"id": 30, "text": "8개의", "type": "", "begin": 96, "end": 98}, 
                {"id": 31, "text": "경제자유구역이", "type": "", "begin": 99, "end": 102}, 
                {"id": 32, "text": "지정되어", "type": "", "begin": 103, "end": 105}, 
                {"id": 33, "text": "있다.", "type": "", "begin": 106, "end": 108}
            ], 
            "NE": [
                {"id": 0, "text": "2003년 8월", "type": "DT_OTHERS", "begin": 3, "end": 6, "weight": 0.868334, "common_noun": 0}, 
                {"id": 1, "text": "영종도", "type": "LCG_ISLAND", "begin": 7, "end": 7, "weight": 0.615983, "common_noun": 0}, 
                {"id": 2, "text": "송도", "type": "LCP_COUNTY", "begin": 9, "end": 9, "weight": 0.559161, "common_noun": 0}, 
                {"id": 3, "text": "청라지구", "type": "LC_OTHERS", "begin": 11, "end": 12, "weight": 0.650488, "common_noun": 0}, 
                {"id": 4, "text": "인천경제자유구역", "type": "LC_OTHERS", "begin": 14, "end": 17, "weight": 0.331403, "common_noun": 0}, 
                {"id": 5, "text": "10월", "type": "DT_MONTH", "begin": 22, "end": 23, "weight": 0.578063, "common_noun": 0}, 
                {"id": 6, "text": "부산", "type": "LCP_CITY", "begin": 24, "end": 24, "weight": 0.696758, "common_noun": 0}, 
                {"id": 7, "text": "진해", "type": "LCP_CITY", "begin": 26, "end": 26, "weight": 0.571064, "common_noun": 0}, 
                {"id": 8, "text": "강서구", "type": "LCP_COUNTY", "begin": 28, "end": 29, "weight": 0.710176, "common_noun": 0}, 
                {"id": 9, "text": "진해시", "type": "LCP_CITY", "begin": 31, "end": 32, "weight": 0.705006, "common_noun": 0}, 
                {"id": 10, "text": "광양만", "type": "LCG_BAY", "begin": 35, "end": 37, "weight": 0.154801, "common_noun": 0}, 
                {"id": 11, "text": "광양", "type": "LCP_CITY", "begin": 39, "end": 39, "weight": 0.451631, "common_noun": 0}, 
                {"id": 12, "text": "순천", "type": "LCP_CITY", "begin": 41, "end": 41, "weight": 0.598045, "common_noun": 0}, 
                {"id": 13, "text": "여수", "type": "LCP_CITY", "begin": 43, "end": 43, "weight": 0.763618, "common_noun": 0}, 
                {"id": 14, "text": "하동군", "type": "LCP_COUNTY", "begin": 45, "end": 46, "weight": 0.599877, "common_noun": 0}, 
                {"id": 15, "text": "2008년", "type": "DT_YEAR", "begin": 49, "end": 50, "weight": 0.89494, "common_noun": 0}, 
                {"id": 16, "text": "황해", "type": "LCG_OCEAN", "begin": 54, "end": 54, "weight": 0.410702, "common_noun": 0}, 
                {"id": 17, "text": "당진", "type": "LCP_CITY", "begin": 56, "end": 56, "weight": 0.509072, "common_noun": 0}, 
                {"id": 18, "text": "아산", "type": "LCP_CITY", "begin": 58, "end": 58, "weight": 0.437636, "common_noun": 0}, 
                {"id": 19, "text": "평택", "type": "LCP_CITY", "begin": 60, "end": 60, "weight": 0.510208, "common_noun": 0}, 
                {"id": 20, "text": "새만금", "type": "LC_OTHERS", "begin": 63, "end": 63, "weight": 0.39316, "common_noun": 0}, 
                {"id": 21, "text": "군산", "type": "LCP_CITY", "begin": 65, "end": 65, "weight": 0.488238, "common_noun": 0}, 
                {"id": 22, "text": "군산", "type": "LCP_CITY", "begin": 67, "end": 67, "weight": 0.503655, "common_noun": 0}, 
                {"id": 23, "text": "부안", "type": "LCP_COUNTY", "begin": 69, "end": 69, "weight": 0.2804, "common_noun": 0}, 
                {"id": 24, "text": "대구", "type": "LCP_CITY", "begin": 72, "end": 72, "weight": 0.525383, "common_noun": 0}, 
                {"id": 25, "text": "경북", "type": "LCP_PROVINCE", "begin": 74, "end": 74, "weight": 0.578251, "common_noun": 0}, 
                {"id": 26, "text": "경산", "type": "LCP_CITY", "begin": 76, "end": 76, "weight": 0.610464, "common_noun": 0}, 
                {"id": 27, "text": "영천", "type": "LCP_CITY", "begin": 78, "end": 78, "weight": 0.649645, "common_noun": 0}, 
                {"id": 28, "text": "구미", "type": "LCP_CITY", "begin": 80, "end": 80, "weight": 0.44202, "common_noun": 0}, 
                {"id": 29, "text": "포항", "type": "LCP_CITY", "begin": 82, "end": 82, "weight": 0.272608, "common_noun": 0}, 
                {"id": 30, "text": "2013년", "type": "DT_YEAR", "begin": 86, "end": 87, "weight": 0.840085, "common_noun": 0}, 
                {"id": 31, "text": "충북", "type": "LCP_PROVINCE", "begin": 91, "end": 91, "weight": 0.461335, "common_noun": 0}, 
                {"id": 32, "text": "동해안", "type": "LC_OTHERS", "begin": 93, "end": 94, "weight": 0.88659, "common_noun": 0}, 
                {"id": 33, "text": "8개", "type": "QT_COUNT", "begin": 96, "end": 97, "weight": 0.674407, "common_noun": 0}, 
                {"id": 34, "text": "경제자유구역", "type": "LC_OTHERS", "begin": 99, "end": 101, "weight": 0.674407, "common_noun": 0}
            ], 
            "chunk": [], 
            "dependency": [
                {"id": 0, "text": "국내에는", "head": 32, "label": "NP_AJT", "mod": [], "weight": 0.680692}, 
                {"id": 1, "text": "2003년", "head": 2, "label": "NP", "mod": [], "weight": 0.7661}, 
                {"id": 2, "text": "8월", "head": 5, "label": "NP_AJT", "mod": [1], "weight": 0.46868}, 
                {"id": 3, "text": "영종도ㆍ송도ㆍ청라지구의", "head": 4, "label": "NP_MOD", "mod": [], "weight": 0.804503}, 
                {"id": 4, "text": "인천경제자유구역을", "head": 5, "label": "NP_OBJ", "mod": [3], "weight": 0.840164}, 
                {"id": 5, "text": "시작으로,", "head": 32, "label": "NP_AJT", "mod": [2, 4], "weight": 0.73682}, 
                {"id": 6, "text": "10월", "head": 12, "label": "NP", "mod": [], "weight": 0.414835}, 
                {"id": 7, "text": "부산ㆍ진해(강서구,", "head": 8, "label": "NP", "mod": [], "weight": 0.237723}, 
                {"id": 8, "text": "진해시)와", "head": 12, "label": "NP_CNJ", "mod": [7], "weight": 0.455025}, 
                {"id": 9, "text": "광양만권(광양,", "head": 12, "label": "NP_CNJ", "mod": [], "weight": 0.30521}, 
                {"id": 10, "text": "순천,", "head": 12, "label": "NP_CNJ", "mod": [], "weight": 0.588951}, 
                {"id": 11, "text": "여수,", "head": 12, "label": "NP_CNJ", "mod": [], "weight": 0.334267}, 
                {"id": 12, "text": "하동군),", "head": 31, "label": "NP_CNJ", "mod": [6, 8, 9, 10, 11], "weight": 0.53467}, 
                {"id": 13, "text": "2008년", "head": 14, "label": "NP_AJT", "mod": [], "weight": 0.431364}, 
                {"id": 14, "text": "지정된", "head": 31, "label": "VP_MOD", "mod": [13], "weight": 0.679955}, 
                {"id": 15, "text": "황해(당진,", "head": 17, "label": "NP_CNJ", "mod": [], "weight": 0.0459378}, 
                {"id": 16, "text": "아산,", "head": 17, "label": "NP_CNJ", "mod": [], "weight": 0.244773}, 
                {"id": 17, "text": "평택),", "head": 31, "label": "NP_CNJ", "mod": [15, 16], "weight": 0.596727}, 
                {"id": 18, "text": "새만금ㆍ군산(군산,", "head": 19, "label": "NP", "mod": [], "weight": 0.493809}, 
                {"id": 19, "text": "부안),", "head": 31, "label": "NP_CNJ", "mod": [18], "weight": 0.53564}, 
                {"id": 20, "text": "대구ㆍ경북(경산,", "head": 23, "label": "NP_CNJ", "mod": [], "weight": 0.0343841}, 
                {"id": 21, "text": "영천,", "head": 23, "label": "NP_CNJ", "mod": [], "weight": 0.539133}, 
                {"id": 22, "text": "구미,", "head": 23, "label": "NP_CNJ", "mod": [], "weight": 0.583426}, 
                {"id": 23, "text": "포항),", "head": 31, "label": "NP_CNJ", "mod": [20, 21, 22], "weight": 0.739661}, 
                {"id": 24, "text": "그리고", "head": 31, "label": "AP", "mod": [], "weight": 0.582164}, 
                {"id": 25, "text": "2013년", "head": 26, "label": "NP_AJT", "mod": [], "weight": 0.446499}, 
                {"id": 26, "text": "지정된", "head": 31, "label": "VP_MOD", "mod": [25], "weight": 0.573406}, 
                {"id": 27, "text": "충북과", "head": 28, "label": "NP_CNJ", "mod": [], "weight": 0.465454}, 
                {"id": 28, "text": "동해안", "head": 29, "label": "NP", "mod": [27], "weight": 0.64079}, 
                {"id": 29, "text": "등", "head": 31, "label": "NP", "mod": [28], "weight": 0.611448}, 
                {"id": 30, "text": "8개의", "head": 31, "label": "NP_MOD", "mod": [], "weight": 0.719563}, 
                {"id": 31, "text": "경제자유구역이", "head": 32, "label": "NP_SBJ", "mod": [12, 14, 17, 19, 23, 24, 26, 29, 30], "weight": 0.707032}, 
                {"id": 32, "text": "지정되어", "head": 33, "label": "VP", "mod": [0, 5, 31], "weight": 0.805775}, 
                {"id": 33, "text": "있다.", "head": -1, "label": "VP", "mod": [32], "weight": 5.96163e-12}
            ], 
            "SRL": [
                {"verb": "지정", "sense": 1, "word_id": 14, "weight": 0, "argument": [
                    {"type": "ARGM-TMP", "word_id": 13, "text": "2008년", "weight": 1}, 
                    {"type": "ARG1", "word_id": 31, "text": "경제자유구역이", "weight": 1}
                ]}, 
                {"verb": "지정", "sense": 1, "word_id": 26, "weight": 0.238811, "argument": [
                    {"type": "ARGM-TMP", "word_id": 25, "text": "2013년", "weight": 0.232719}, 
                    {"type": "ARG1", "word_id": 28, "text": "동해안", "weight": 1}
                ]}, 
                {"verb": "지정", "sense": 1, "word_id": 32, "weight": 0.270147, "argument": [
                    {"type": "ARGM-LOC", "word_id": 0, "text": "국내에는", "weight": 1}, 
                    {"type": "ARG1", "word_id": 31, "text": "경제자유구역이", "weight": 0.243909}, 
                    {"type": "AUX", "word_id": 33, "text": "있다.", "weight": 0.421555}
                ]}
            ], 
            "relation": [], 
            "SA": [], 
            "ZA": []
        }
    ], 
    "entity": [
        {"id": 0, "type": "", "number": "singular", "gender": "", "person": "", "animacy": "thing", "mention": [
            {"id": 0, "sent_id": 0, "start_eid": 0, "end_eid": 0, "ne_id": -1, "text": "국내에는", "start_eid_short": 0, "end_eid_short": 0, "text_short": "국내에는"}
        ]}, 
        {"id": 1, "type": "", "number": "singular", "gender": "", "person": "", "animacy": "thing", "mention": [
            {"id": 1, "sent_id": 0, "start_eid": 1, "end_eid": 5, "ne_id": -1, "text": "2003년 8월 영종도ㆍ송도ㆍ청라지구의 인천경제자유구역을 시작으로,", "start_eid_short": 5, "end_eid_short": 5, "text_short": "시작으로,"}
        ]}, 
        {"id": 2, "type": "DT_OTHERS", "number": "singular", "gender": "", "person": "", "animacy": "time", "mention": [
            {"id": 2, "sent_id": 0, "start_eid": 1, "end_eid": 2, "ne_id": 0, "text": "2003년 8월", "start_eid_short": 1, "end_eid_short": 2, "text_short": "2003년 8월"}
        ]}, 
        {"id": 3, "type": "LCG_ISLAND", "number": "singular", "gender": "", "person": "", "animacy": "place", "mention": [
            {"id": 3, "sent_id": 0, "start_eid": 3, "end_eid": 4, "ne_id": 4, "text": "영종도ㆍ송도ㆍ청라지구의 인천경제자유구역을", "start_eid_short": 4, "end_eid_short": 4, "text_short": "인천경제자유구역을"}, 
            {"id": 4, "sent_id": 0, "start_eid": 3, "end_eid": 3, "ne_id": 1, "text": "영종도ㆍ송도ㆍ청라지구의", "start_eid_short": 3, "end_eid_short": 3, "text_short": "영종도ㆍ송도ㆍ청라지구의"}
        ]}, 
        {"id": 4, "type": "DT_MONTH", "number": "singular", "gender": "", "person": "", "animacy": "time", "mention": [
            {"id": 7, "sent_id": 0, "start_eid": 6, "end_eid": 6, "ne_id": 5, "text": "10월", "start_eid_short": 6, "end_eid_short": 6, "text_short": "10월"}
        ]}, 
        {"id": 5, "type": "LCP_CITY", "number": "singular", "gender": "", "person": "", "animacy": "place", "mention": [
            {"id": 8, "sent_id": 0, "start_eid": 7, "end_eid": 8, "ne_id": 9, "text": "부산ㆍ진해(강서구, 진해시)와", "start_eid_short": 7, "end_eid_short": 0, "text_short": ""}
        ]}, 
        {"id": 6, "type": "LCP_COUNTY", "number": "singular", "gender": "", "person": "", "animacy": "place", "mention": [
            {"id": 9, "sent_id": 0, "start_eid": 9, "end_eid": 12, "ne_id": 14, "text": "광양만권(광양, 순천, 여수, 하동군),", "start_eid_short": 9, "end_eid_short": 0, "text_short": ""}
        ]}, 
        {"id": 7, "type": "", "number": "plural", "gender": "", "person": "", "animacy": "thing", "mention": [
            {"id": 5, "sent_id": 0, "start_eid": 6, "end_eid": 31, "ne_id": -1, "text": "10월 부산ㆍ진해(강서구, 진해시)와 광양만권(광양, 순천, 여수, 하동군), 2008년 지정된 황해(당진, 아산, 평택), 새만금ㆍ군산(군산, 부안), 대구ㆍ경북(경산, 영천, 구미, 포항), 그리고 2013년 지정된 충북과 동해안 등 8개의 경제자유구역이", "start_eid_short": 31, "end_eid_short": 31, "text_short": "경제자유구역이"}, 
            {"id": 6, "sent_id": 0, "start_eid": 6, "end_eid": 29, "ne_id": -1, "text": "10월 부산ㆍ진해(강서구, 진해시)와 광양만권(광양, 순천, 여수, 하동군), 2008년 지정된 황해(당진, 아산, 평택), 새만금ㆍ군산(군산, 부안), 대구ㆍ경북(경산, 영천, 구미, 포항), 그리고 2013년 지정된 충북과 동해안 등", "start_eid_short": 28, "end_eid_short": 29, "text_short": "동해안 등"}
        ]}, 
        {"id": 8, "type": "DT_YEAR", "number": "singular", "gender": "", "person": "", "animacy": "time", "mention": [
            {"id": 10, "sent_id": 0, "start_eid": 13, "end_eid": 13, "ne_id": 15, "text": "2008년", "start_eid_short": 13, "end_eid_short": 13, "text_short": "2008년"}
        ]}, 
        {"id": 9, "type": "LCP_CITY", "number": "singular", "gender": "", "person": "", "animacy": "place", "mention": [
            {"id": 11, "sent_id": 0, "start_eid": 15, "end_eid": 17, "ne_id": 19, "text": "황해(당진, 아산, 평택),", "start_eid_short": 15, "end_eid_short": 0, "text_short": ""}
        ]}, 
        {"id": 10, "type": "LCP_COUNTY", "number": "singular", "gender": "", "person": "", "animacy": "place", "mention": [
            {"id": 12, "sent_id": 0, "start_eid": 18, "end_eid": 19, "ne_id": 23, "text": "새만금ㆍ군산(군산, 부안),", "start_eid_short": 18, "end_eid_short": 0, "text_short": ""}
        ]}, 
        {"id": 11, "type": "LCP_CITY", "number": "singular", "gender": "", "person": "", "animacy": "place", "mention": [
            {"id": 13, "sent_id": 0, "start_eid": 20, "end_eid": 23, "ne_id": 29, "text": "대구ㆍ경북(경산, 영천, 구미, 포항),", "start_eid_short": 20, "end_eid_short": 0, "text_short": ""}
        ]}, 
        {"id": 12, "type": "DT_YEAR", "number": "singular", "gender": "", "person": "", "animacy": "time", "mention": [
            {"id": 14, "sent_id": 0, "start_eid": 25, "end_eid": 25, "ne_id": 30, "text": "2013년", "start_eid_short": 25, "end_eid_short": 25, "text_short": "2013년"}
        ]}, 
        {"id": 13, "type": "LCP_PROVINCE", "number": "singular", "gender": "", "person": "", "animacy": "place", "mention": [
            {"id": 15, "sent_id": 0, "start_eid": 27, "end_eid": 27, "ne_id": 31, "text": "충북과", "start_eid_short": 27, "end_eid_short": 27, "text_short": "충북과"}
        ]}, 
        {"id": 14, "type": "LC_OTHERS", "number": "singular", "gender": "", "person": "", "animacy": "place", "mention": [
            {"id": 16, "sent_id": 0, "start_eid": 28, "end_eid": 28, "ne_id": 32, "text": "동해안", "start_eid_short": 28, "end_eid_short": 28, "text_short": "동해안"}
        ]}, 
        {"id": 15, "type": "QT_COUNT", "number": "singular", "gender": "", "person": "", "animacy": "thing", "mention": [
            {"id": 17, "sent_id": 0, "start_eid": 30, "end_eid": 30, "ne_id": 33, "text": "8개의", "start_eid_short": 30, "end_eid_short": 30, "text_short": "8개의"}
        ]}
    ]
}