{
    "doc_id": "E2016.889.13_A_01.json", 
    "DCT": "", 
    "category": "", 
    "category_weight": 0, 
    "title": {
        "text": "소환투표제", 
        "NE": ""
    }, 
    "metaInfo": {}, 
    "sentence": [
        {
            "id": 0, 
            "reserve_str": "", 
            "text": "소환투표제(召還投票制)는 유권자들이 부적합하다고 생각하는 선출직 공무원을 투표로서 임기 중에 파면시키는 제도이다.", 
            "morp": [
                {"id": 0, "lemma": "소환", "type": "NNG", "position": 0, "weight": 0.9}, 
                {"id": 1, "lemma": "투표", "type": "NNG", "position": 6, "weight": 0.9}, 
                {"id": 2, "lemma": "제", "type": "XSN", "position": 12, "weight": 0.00596315}, 
                {"id": 3, "lemma": "(", "type": "SS", "position": 15, "weight": 1}, 
                {"id": 4, "lemma": "召還投票制", "type": "SH", "position": 16, "weight": 1}, 
                {"id": 5, "lemma": ")", "type": "SS", "position": 31, "weight": 1}, 
                {"id": 6, "lemma": "는", "type": "JX", "position": 32, "weight": 0.00823314}, 
                {"id": 7, "lemma": "유권자", "type": "NNG", "position": 36, "weight": 0.9}, 
                {"id": 8, "lemma": "들", "type": "XSN", "position": 45, "weight": 0.0103232}, 
                {"id": 9, "lemma": "이", "type": "JKS", "position": 48, "weight": 0.0731805}, 
                {"id": 10, "lemma": "부적합", "type": "NNG", "position": 52, "weight": 0.9}, 
                {"id": 11, "lemma": "하", "type": "XSA", "position": 61, "weight": 0.0001}, 
                {"id": 12, "lemma": "다고", "type": "EC", "position": 64, "weight": 0.358092}, 
                {"id": 13, "lemma": "생각", "type": "NNG", "position": 71, "weight": 0.9}, 
                {"id": 14, "lemma": "하", "type": "XSV", "position": 77, "weight": 0.0001}, 
                {"id": 15, "lemma": "는", "type": "ETM", "position": 80, "weight": 0.238503}, 
                {"id": 16, "lemma": "선출", "type": "NNG", "position": 84, "weight": 0.9}, 
                {"id": 17, "lemma": "직", "type": "NNG", "position": 90, "weight": 0.183317}, 
                {"id": 18, "lemma": "공무", "type": "NNG", "position": 94, "weight": 0.183293}, 
                {"id": 19, "lemma": "원", "type": "XSN", "position": 100, "weight": 0.00350502}, 
                {"id": 20, "lemma": "을", "type": "JKO", "position": 103, "weight": 0.0819193}, 
                {"id": 21, "lemma": "투표", "type": "NNG", "position": 107, "weight": 0.9}, 
                {"id": 22, "lemma": "로서", "type": "JKB", "position": 113, "weight": 0.9}, 
                {"id": 23, "lemma": "임기", "type": "NNG", "position": 120, "weight": 0.9}, 
                {"id": 24, "lemma": "중", "type": "NNB", "position": 127, "weight": 0.013531}, 
                {"id": 25, "lemma": "에", "type": "JKB", "position": 130, "weight": 0.135559}, 
                {"id": 26, "lemma": "파면", "type": "NNG", "position": 134, "weight": 0.9}, 
                {"id": 27, "lemma": "시키", "type": "XSV", "position": 140, "weight": 0.00340357}, 
                {"id": 28, "lemma": "는", "type": "ETM", "position": 146, "weight": 0.238503}, 
                {"id": 29, "lemma": "제도", "type": "NNG", "position": 150, "weight": 0.9}, 
                {"id": 30, "lemma": "이", "type": "VCP", "position": 156, "weight": 0.0177525}, 
                {"id": 31, "lemma": "다", "type": "EF", "position": 159, "weight": 0.353579}, 
                {"id": 32, "lemma": ".", "type": "SF", "position": 162, "weight": 1}
            ], 
            "morp_eval": [], 
            "WSD": [
                {"id": 0, "text": "소환", "type": "NNG", "scode": "020000", "weight": 0.2, "position": 0, "begin": 0, "end": 0}, 
                {"id": 1, "text": "투표", "type": "NNG", "scode": "010000", "weight": 0.5, "position": 6, "begin": 1, "end": 1}, 
                {"id": 2, "text": "제", "type": "XSN", "scode": "190000", "weight": 0.0322581, "position": 12, "begin": 2, "end": 2}, 
                {"id": 3, "text": "(", "type": "SS", "scode": "000000", "weight": 1, "position": 15, "begin": 3, "end": 3}, 
                {"id": 4, "text": "召還投票制", "type": "SH", "scode": "000000", "weight": 1, "position": 16, "begin": 4, "end": 4}, 
                {"id": 5, "text": ")", "type": "SS", "scode": "000000", "weight": 1, "position": 31, "begin": 5, "end": 5}, 
                {"id": 6, "text": "는", "type": "JX", "scode": "000000", "weight": 1, "position": 32, "begin": 6, "end": 6}, 
                {"id": 7, "text": "유권자", "type": "NNG", "scode": "000001", "weight": 0.5, "position": 36, "begin": 7, "end": 7}, 
                {"id": 8, "text": "들", "type": "XSN", "scode": "090000", "weight": 0.0909091, "position": 45, "begin": 8, "end": 8}, 
                {"id": 9, "text": "이", "type": "JKS", "scode": "000000", "weight": 1, "position": 48, "begin": 9, "end": 9}, 
                {"id": 10, "text": "부적합하", "type": "VA", "scode": "000000", "weight": 1, "position": 52, "begin": 10, "end": 11}, 
                {"id": 11, "text": "다고", "type": "EC", "scode": "000000", "weight": 1, "position": 64, "begin": 12, "end": 12}, 
                {"id": 12, "text": "생각하", "type": "VV", "scode": "000101", "weight": 0.142857, "position": 71, "begin": 13, "end": 14}, 
                {"id": 13, "text": "는", "type": "ETM", "scode": "000000", "weight": 1, "position": 80, "begin": 15, "end": 15}, 
                {"id": 14, "text": "선출", "type": "NNG", "scode": "020000", "weight": 0.5, "position": 84, "begin": 16, "end": 16}, 
                {"id": 15, "text": "직", "type": "NNG", "scode": "060001", "weight": 0.0909091, "position": 90, "begin": 17, "end": 17}, 
                {"id": 16, "text": "공무원", "type": "NNG", "scode": "000000", "weight": 1, "position": 94, "begin": 18, "end": 19}, 
                {"id": 17, "text": "을", "type": "JKO", "scode": "000000", "weight": 1, "position": 103, "begin": 20, "end": 20}, 
                {"id": 18, "text": "투표", "type": "NNG", "scode": "010000", "weight": 0.5, "position": 107, "begin": 21, "end": 21}, 
                {"id": 19, "text": "로서", "type": "JKB", "scode": "000000", "weight": 1, "position": 113, "begin": 22, "end": 22}, 
                {"id": 20, "text": "임기", "type": "NNG", "scode": "010000", "weight": 0.25, "position": 120, "begin": 23, "end": 23}, 
                {"id": 21, "text": "중", "type": "NNB", "scode": "040102", "weight": 0.0526316, "position": 127, "begin": 24, "end": 24}, 
                {"id": 22, "text": "에", "type": "JKB", "scode": "000000", "weight": 1, "position": 130, "begin": 25, "end": 25}, 
                {"id": 23, "text": "파면", "type": "NNG", "scode": "030001", "weight": 0.2, "position": 134, "begin": 26, "end": 26}, 
                {"id": 24, "text": "시키", "type": "XSV", "scode": "000000", "weight": 0, "position": 140, "begin": 27, "end": 27}, 
                {"id": 25, "text": "는", "type": "ETM", "scode": "000000", "weight": 1, "position": 146, "begin": 28, "end": 28}, 
                {"id": 26, "text": "제도", "type": "NNG", "scode": "010000", "weight": 0.0769231, "position": 150, "begin": 29, "end": 29}, 
                {"id": 27, "text": "이", "type": "VCP", "scode": "030000", "weight": 0.0172414, "position": 156, "begin": 30, "end": 30}, 
                {"id": 28, "text": "다", "type": "EF", "scode": "000000", "weight": 1, "position": 159, "begin": 31, "end": 31}, 
                {"id": 29, "text": ".", "type": "SF", "scode": "000000", "weight": 1, "position": 162, "begin": 32, "end": 32}
            ], 
            "word": [
                {"id": 0, "text": "소환투표제(召還投票制)는", "type": "", "begin": 0, "end": 6}, 
                {"id": 1, "text": "유권자들이", "type": "", "begin": 7, "end": 9}, 
                {"id": 2, "text": "부적합하다고", "type": "", "begin": 10, "end": 12}, 
                {"id": 3, "text": "생각하는", "type": "", "begin": 13, "end": 15}, 
                {"id": 4, "text": "선출직", "type": "", "begin": 16, "end": 17}, 
                {"id": 5, "text": "공무원을", "type": "", "begin": 18, "end": 20}, 
                {"id": 6, "text": "투표로서", "type": "", "begin": 21, "end": 22}, 
                {"id": 7, "text": "임기", "type": "", "begin": 23, "end": 23}, 
                {"id": 8, "text": "중에", "type": "", "begin": 24, "end": 25}, 
                {"id": 9, "text": "파면시키는", "type": "", "begin": 26, "end": 28}, 
                {"id": 10, "text": "제도이다.", "type": "", "begin": 29, "end": 32}
            ], 
            "NE": [
                {"id": 0, "text": "소환투표제", "type": "CV_POLICY", "begin": 0, "end": 2, "weight": 0.686386, "common_noun": 0}, 
                {"id": 1, "text": "召還投票制", "type": "CV_POLICY", "begin": 4, "end": 4, "weight": 1, "common_noun": 0}, 
                {"id": 2, "text": "유권자", "type": "CV_POSITION", "begin": 7, "end": 7, "weight": 0.720839, "common_noun": 0}, 
                {"id": 3, "text": "공무원", "type": "CV_OCCUPATION", "begin": 18, "end": 19, "weight": 0.720839, "common_noun": 0}
            ], 
            "chunk": [], 
            "dependency": [
                {"id": 0, "text": "소환투표제(召還投票制)는", "head": 10, "label": "NP_SBJ", "mod": [], "weight": 0.811357}, 
                {"id": 1, "text": "유권자들이", "head": 2, "label": "NP_SBJ", "mod": [], "weight": 0.604291}, 
                {"id": 2, "text": "부적합하다고", "head": 3, "label": "VP_CMP", "mod": [1], "weight": 0.715025}, 
                {"id": 3, "text": "생각하는", "head": 5, "label": "VP_MOD", "mod": [2], "weight": 0.428929}, 
                {"id": 4, "text": "선출직", "head": 5, "label": "NP", "mod": [], "weight": 0.714194}, 
                {"id": 5, "text": "공무원을", "head": 9, "label": "NP_OBJ", "mod": [3, 4], "weight": 0.304591}, 
                {"id": 6, "text": "투표로서", "head": 9, "label": "NP_AJT", "mod": [], "weight": 0.65817}, 
                {"id": 7, "text": "임기", "head": 8, "label": "NP", "mod": [], "weight": 0.81006}, 
                {"id": 8, "text": "중에", "head": 9, "label": "NP_AJT", "mod": [7], "weight": 0.847173}, 
                {"id": 9, "text": "파면시키는", "head": 10, "label": "VP_MOD", "mod": [6, 8, 5], "weight": 0.876752}, 
                {"id": 10, "text": "제도이다.", "head": -1, "label": "VNP", "mod": [0, 9], "weight": 0.0104384}
            ], 
            "SRL": [
                {"verb": "부적합", "sense": 1, "word_id": 2, "weight": 0.119794, "argument": [
                    {"type": "ARG2", "word_id": 5, "text": "공무원을", "weight": 1}
                ]}, 
                {"verb": "생각", "sense": 1, "word_id": 3, "weight": 0.189693, "argument": [
                    {"type": "ARG1", "word_id": 2, "text": "부적합하다고", "weight": 1}, 
                    {"type": "ARG0", "word_id": 1, "text": "유권자들이", "weight": 1}
                ]}, 
                {"verb": "파면", "sense": 1, "word_id": 9, "weight": 0.107365, "argument": [
                    {"type": "ARGM-TMP", "word_id": 8, "text": "중에", "weight": 1}, 
                    {"type": "ARG1", "word_id": 5, "text": "공무원을", "weight": 1}, 
                    {"type": "ARG0", "word_id": 1, "text": "유권자들이", "weight": 1}, 
                    {"type": "ARGM-INS", "word_id": 6, "text": "투표로서", "weight": 1}
                ]}
            ], 
            "relation": [], 
            "SA": [], 
            "ZA": []
        }, 
        {
            "id": 1, 
            "reserve_str": "", 
            "text": "일반적으로 대통령과 국회의원을 포함한 모든 선출직 공무원을 대상으로 하는 국민투표제를 의미하지만, 역사적으로는 하위 개념으로서 지방의 선출직 공무원을 지역 주민들이 소환하는 주민투표제의 의미로서 주로 시행되었다.", 
            "morp": [
                {"id": 0, "lemma": "일반", "type": "NNG", "position": 163, "weight": 0.9}, 
                {"id": 1, "lemma": "적", "type": "XSN", "position": 169, "weight": 0.0168756}, 
                {"id": 2, "lemma": "으로", "type": "JKB", "position": 172, "weight": 0.121717}, 
                {"id": 3, "lemma": "대통령", "type": "NNG", "position": 179, "weight": 0.9}, 
                {"id": 4, "lemma": "과", "type": "JC", "position": 188, "weight": 0.017569}, 
                {"id": 5, "lemma": "국회", "type": "NNG", "position": 192, "weight": 0.9}, 
                {"id": 6, "lemma": "의원", "type": "NNG", "position": 198, "weight": 0.9}, 
                {"id": 7, "lemma": "을", "type": "JKO", "position": 204, "weight": 0.129611}, 
                {"id": 8, "lemma": "포함", "type": "NNG", "position": 208, "weight": 0.9}, 
                {"id": 9, "lemma": "하", "type": "XSV", "position": 214, "weight": 0.0001}, 
                {"id": 10, "lemma": "ㄴ", "type": "ETM", "position": 214, "weight": 0.392321}, 
                {"id": 11, "lemma": "모든", "type": "MM", "position": 218, "weight": 0.9}, 
                {"id": 12, "lemma": "선출", "type": "NNG", "position": 225, "weight": 0.9}, 
                {"id": 13, "lemma": "직", "type": "NNG", "position": 231, "weight": 0.183317}, 
                {"id": 14, "lemma": "공무", "type": "NNG", "position": 235, "weight": 0.183293}, 
                {"id": 15, "lemma": "원", "type": "XSN", "position": 241, "weight": 0.00350502}, 
                {"id": 16, "lemma": "을", "type": "JKO", "position": 244, "weight": 0.0819193}, 
                {"id": 17, "lemma": "대상", "type": "NNG", "position": 248, "weight": 0.101291}, 
                {"id": 18, "lemma": "으로", "type": "JKB", "position": 254, "weight": 0.153406}, 
                {"id": 19, "lemma": "하", "type": "VV", "position": 261, "weight": 0.275522}, 
                {"id": 20, "lemma": "는", "type": "ETM", "position": 264, "weight": 0.184941}, 
                {"id": 21, "lemma": "국민", "type": "NNG", "position": 268, "weight": 0.65049}, 
                {"id": 22, "lemma": "투표", "type": "NNG", "position": 274, "weight": 0.9}, 
                {"id": 23, "lemma": "제", "type": "XSN", "position": 280, "weight": 0.00596315}, 
                {"id": 24, "lemma": "를", "type": "JKO", "position": 283, "weight": 0.0870227}, 
                {"id": 25, "lemma": "의미", "type": "NNG", "position": 287, "weight": 0.9}, 
                {"id": 26, "lemma": "하", "type": "XSV", "position": 293, "weight": 0.0001}, 
                {"id": 27, "lemma": "지만", "type": "EC", "position": 296, "weight": 0.365936}, 
                {"id": 28, "lemma": ",", "type": "SP", "position": 302, "weight": 1}, 
                {"id": 29, "lemma": "역사", "type": "NNG", "position": 304, "weight": 0.531418}, 
                {"id": 30, "lemma": "적", "type": "XSN", "position": 310, "weight": 0.0168756}, 
                {"id": 31, "lemma": "으로", "type": "JKB", "position": 313, "weight": 0.121717}, 
                {"id": 32, "lemma": "는", "type": "JX", "position": 319, "weight": 0.0387928}, 
                {"id": 33, "lemma": "하위", "type": "NNG", "position": 323, "weight": 0.323539}, 
                {"id": 34, "lemma": "개념", "type": "NNG", "position": 330, "weight": 0.9}, 
                {"id": 35, "lemma": "으로서", "type": "JKB", "position": 336, "weight": 0.9}, 
                {"id": 36, "lemma": "지방", "type": "NNG", "position": 346, "weight": 0.9}, 
                {"id": 37, "lemma": "의", "type": "JKG", "position": 352, "weight": 0.0694213}, 
                {"id": 38, "lemma": "선출", "type": "NNG", "position": 356, "weight": 0.9}, 
                {"id": 39, "lemma": "직", "type": "NNG", "position": 362, "weight": 0.183317}, 
                {"id": 40, "lemma": "공무", "type": "NNG", "position": 366, "weight": 0.183293}, 
                {"id": 41, "lemma": "원", "type": "XSN", "position": 372, "weight": 0.00350502}, 
                {"id": 42, "lemma": "을", "type": "JKO", "position": 375, "weight": 0.0819193}, 
                {"id": 43, "lemma": "지역", "type": "NNG", "position": 379, "weight": 0.9}, 
                {"id": 44, "lemma": "주민", "type": "NNG", "position": 386, "weight": 0.9}, 
                {"id": 45, "lemma": "들", "type": "XSN", "position": 392, "weight": 0.0299841}, 
                {"id": 46, "lemma": "이", "type": "JKS", "position": 395, "weight": 0.0731805}, 
                {"id": 47, "lemma": "소환", "type": "NNG", "position": 399, "weight": 0.9}, 
                {"id": 48, "lemma": "하", "type": "XSV", "position": 405, "weight": 0.0001}, 
                {"id": 49, "lemma": "는", "type": "ETM", "position": 408, "weight": 0.238503}, 
                {"id": 50, "lemma": "주민", "type": "NNG", "position": 412, "weight": 0.9}, 
                {"id": 51, "lemma": "투표", "type": "NNG", "position": 418, "weight": 0.9}, 
                {"id": 52, "lemma": "제", "type": "XSN", "position": 424, "weight": 0.00596315}, 
                {"id": 53, "lemma": "의", "type": "JKG", "position": 427, "weight": 0.120732}, 
                {"id": 54, "lemma": "의미", "type": "NNG", "position": 431, "weight": 0.9}, 
                {"id": 55, "lemma": "로서", "type": "JKB", "position": 437, "weight": 0.9}, 
                {"id": 56, "lemma": "주로", "type": "MAG", "position": 444, "weight": 0.0557734}, 
                {"id": 57, "lemma": "시행", "type": "NNG", "position": 451, "weight": 0.9}, 
                {"id": 58, "lemma": "되", "type": "XSV", "position": 457, "weight": 0.000224177}, 
                {"id": 59, "lemma": "았", "type": "EP", "position": 460, "weight": 0.9}, 
                {"id": 60, "lemma": "다", "type": "EF", "position": 463, "weight": 0.640954}, 
                {"id": 61, "lemma": ".", "type": "SF", "position": 466, "weight": 1}
            ], 
            "morp_eval": [], 
            "WSD": [
                {"id": 0, "text": "일반적", "type": "NNG", "scode": "000001", "weight": 0.5, "position": 163, "begin": 0, "end": 1}, 
                {"id": 1, "text": "으로", "type": "JKB", "scode": "000000", "weight": 1, "position": 172, "begin": 2, "end": 2}, 
                {"id": 2, "text": "대통령", "type": "NNG", "scode": "000000", "weight": 1, "position": 179, "begin": 3, "end": 3}, 
                {"id": 3, "text": "과", "type": "JC", "scode": "000000", "weight": 1, "position": 188, "begin": 4, "end": 4}, 
                {"id": 4, "text": "국회의원", "type": "NNG", "scode": "000000", "weight": 1, "position": 192, "begin": 5, "end": 6}, 
                {"id": 5, "text": "을", "type": "JKO", "scode": "000000", "weight": 1, "position": 204, "begin": 7, "end": 7}, 
                {"id": 6, "text": "포함하", "type": "VV", "scode": "020001", "weight": 0.25, "position": 208, "begin": 8, "end": 9}, 
                {"id": 7, "text": "ㄴ", "type": "ETM", "scode": "000000", "weight": 1, "position": 214, "begin": 10, "end": 10}, 
                {"id": 8, "text": "모든", "type": "MM", "scode": "000000", "weight": 1, "position": 218, "begin": 11, "end": 11}, 
                {"id": 9, "text": "선출", "type": "NNG", "scode": "020000", "weight": 0.5, "position": 225, "begin": 12, "end": 12}, 
                {"id": 10, "text": "직", "type": "NNG", "scode": "060001", "weight": 0.0909091, "position": 231, "begin": 13, "end": 13}, 
                {"id": 11, "text": "공무원", "type": "NNG", "scode": "000000", "weight": 1, "position": 235, "begin": 14, "end": 15}, 
                {"id": 12, "text": "을", "type": "JKO", "scode": "000000", "weight": 1, "position": 244, "begin": 16, "end": 16}, 
                {"id": 13, "text": "대상", "type": "NNG", "scode": "110001", "weight": 0.0526316, "position": 248, "begin": 17, "end": 17}, 
                {"id": 14, "text": "으로", "type": "JKB", "scode": "000000", "weight": 1, "position": 254, "begin": 18, "end": 18}, 
                {"id": 15, "text": "하", "type": "VV", "scode": "010301", "weight": 0.02, "position": 261, "begin": 19, "end": 19}, 
                {"id": 16, "text": "는", "type": "ETM", "scode": "000000", "weight": 1, "position": 264, "begin": 20, "end": 20}, 
                {"id": 17, "text": "국민투표제", "type": "NNG", "scode": "000000", "weight": 1, "position": 268, "begin": 21, "end": 23}, 
                {"id": 18, "text": "를", "type": "JKO", "scode": "000000", "weight": 1, "position": 283, "begin": 24, "end": 24}, 
                {"id": 19, "text": "의미하", "type": "VV", "scode": "020002", "weight": 0.333333, "position": 287, "begin": 25, "end": 26}, 
                {"id": 20, "text": "지만", "type": "EC", "scode": "000000", "weight": 1, "position": 296, "begin": 27, "end": 27}, 
                {"id": 21, "text": ",", "type": "SP", "scode": "000000", "weight": 1, "position": 302, "begin": 28, "end": 28}, 
                {"id": 22, "text": "역사적", "type": "NNG", "scode": "000002", "weight": 0.333333, "position": 304, "begin": 29, "end": 30}, 
                {"id": 23, "text": "으로", "type": "JKB", "scode": "000000", "weight": 1, "position": 313, "begin": 31, "end": 31}, 
                {"id": 24, "text": "는", "type": "JX", "scode": "000000", "weight": 1, "position": 319, "begin": 32, "end": 32}, 
                {"id": 25, "text": "하위", "type": "NNG", "scode": "020000", "weight": 0.5, "position": 323, "begin": 33, "end": 33}, 
                {"id": 26, "text": "개념", "type": "NNG", "scode": "000001", "weight": 0.333333, "position": 330, "begin": 34, "end": 34}, 
                {"id": 27, "text": "으로서", "type": "JKB", "scode": "000000", "weight": 1, "position": 336, "begin": 35, "end": 35}, 
                {"id": 28, "text": "지방", "type": "NNG", "scode": "050002", "weight": 0.0909091, "position": 346, "begin": 36, "end": 36}, 
                {"id": 29, "text": "의", "type": "JKG", "scode": "000000", "weight": 1, "position": 352, "begin": 37, "end": 37}, 
                {"id": 30, "text": "선출", "type": "NNG", "scode": "020000", "weight": 0.5, "position": 356, "begin": 38, "end": 38}, 
                {"id": 31, "text": "직", "type": "NNG", "scode": "060001", "weight": 0.0909091, "position": 362, "begin": 39, "end": 39}, 
                {"id": 32, "text": "공무원", "type": "NNG", "scode": "000000", "weight": 1, "position": 366, "begin": 40, "end": 41}, 
                {"id": 33, "text": "을", "type": "JKO", "scode": "000000", "weight": 1, "position": 375, "begin": 42, "end": 42}, 
                {"id": 34, "text": "지역", "type": "NNG", "scode": "030001", "weight": 0.2, "position": 379, "begin": 43, "end": 43}, 
                {"id": 35, "text": "주민", "type": "NNG", "scode": "000001", "weight": 0.5, "position": 386, "begin": 44, "end": 44}, 
                {"id": 36, "text": "들", "type": "XSN", "scode": "090000", "weight": 0.0909091, "position": 392, "begin": 45, "end": 45}, 
                {"id": 37, "text": "이", "type": "JKS", "scode": "000000", "weight": 1, "position": 395, "begin": 46, "end": 46}, 
                {"id": 38, "text": "소환하", "type": "VV", "scode": "010000", "weight": 0.333333, "position": 399, "begin": 47, "end": 48}, 
                {"id": 39, "text": "는", "type": "ETM", "scode": "000000", "weight": 1, "position": 408, "begin": 49, "end": 49}, 
                {"id": 40, "text": "주민", "type": "NNG", "scode": "000001", "weight": 0.5, "position": 412, "begin": 50, "end": 50}, 
                {"id": 41, "text": "투표", "type": "NNG", "scode": "010000", "weight": 0.5, "position": 418, "begin": 51, "end": 51}, 
                {"id": 42, "text": "제", "type": "XSN", "scode": "190000", "weight": 0.0322581, "position": 424, "begin": 52, "end": 52}, 
                {"id": 43, "text": "의", "type": "JKG", "scode": "000000", "weight": 1, "position": 427, "begin": 53, "end": 53}, 
                {"id": 44, "text": "의미", "type": "NNG", "scode": "020001", "weight": 0.25, "position": 431, "begin": 54, "end": 54}, 
                {"id": 45, "text": "로서", "type": "JKB", "scode": "000000", "weight": 1, "position": 437, "begin": 55, "end": 55}, 
                {"id": 46, "text": "주로", "type": "MAG", "scode": "010000", "weight": 0.142857, "position": 444, "begin": 56, "end": 56}, 
                {"id": 47, "text": "시행되", "type": "VV", "scode": "000001", "weight": 0.333333, "position": 451, "begin": 57, "end": 58}, 
                {"id": 48, "text": "았", "type": "EP", "scode": "000000", "weight": 1, "position": 460, "begin": 59, "end": 59}, 
                {"id": 49, "text": "다", "type": "EF", "scode": "000000", "weight": 1, "position": 463, "begin": 60, "end": 60}, 
                {"id": 50, "text": ".", "type": "SF", "scode": "000000", "weight": 1, "position": 466, "begin": 61, "end": 61}
            ], 
            "word": [
                {"id": 0, "text": "일반적으로", "type": "", "begin": 0, "end": 2}, 
                {"id": 1, "text": "대통령과", "type": "", "begin": 3, "end": 4}, 
                {"id": 2, "text": "국회의원을", "type": "", "begin": 5, "end": 7}, 
                {"id": 3, "text": "포함한", "type": "", "begin": 8, "end": 10}, 
                {"id": 4, "text": "모든", "type": "", "begin": 11, "end": 11}, 
                {"id": 5, "text": "선출직", "type": "", "begin": 12, "end": 13}, 
                {"id": 6, "text": "공무원을", "type": "", "begin": 14, "end": 16}, 
                {"id": 7, "text": "대상으로", "type": "", "begin": 17, "end": 18}, 
                {"id": 8, "text": "하는", "type": "", "begin": 19, "end": 20}, 
                {"id": 9, "text": "국민투표제를", "type": "", "begin": 21, "end": 24}, 
                {"id": 10, "text": "의미하지만,", "type": "", "begin": 25, "end": 28}, 
                {"id": 11, "text": "역사적으로는", "type": "", "begin": 29, "end": 32}, 
                {"id": 12, "text": "하위", "type": "", "begin": 33, "end": 33}, 
                {"id": 13, "text": "개념으로서", "type": "", "begin": 34, "end": 35}, 
                {"id": 14, "text": "지방의", "type": "", "begin": 36, "end": 37}, 
                {"id": 15, "text": "선출직", "type": "", "begin": 38, "end": 39}, 
                {"id": 16, "text": "공무원을", "type": "", "begin": 40, "end": 42}, 
                {"id": 17, "text": "지역", "type": "", "begin": 43, "end": 43}, 
                {"id": 18, "text": "주민들이", "type": "", "begin": 44, "end": 46}, 
                {"id": 19, "text": "소환하는", "type": "", "begin": 47, "end": 49}, 
                {"id": 20, "text": "주민투표제의", "type": "", "begin": 50, "end": 53}, 
                {"id": 21, "text": "의미로서", "type": "", "begin": 54, "end": 55}, 
                {"id": 22, "text": "주로", "type": "", "begin": 56, "end": 56}, 
                {"id": 23, "text": "시행되었다.", "type": "", "begin": 57, "end": 61}
            ], 
            "NE": [
                {"id": 0, "text": "대통령", "type": "CV_POSITION", "begin": 3, "end": 3, "weight": 0.69786, "common_noun": 0}, 
                {"id": 1, "text": "국회의원", "type": "CV_POSITION", "begin": 5, "end": 6, "weight": 0.922059, "common_noun": 0}, 
                {"id": 2, "text": "공무원", "type": "CV_OCCUPATION", "begin": 14, "end": 15, "weight": 0.807169, "common_noun": 0}, 
                {"id": 3, "text": "국민투표제", "type": "CV_POLICY", "begin": 21, "end": 23, "weight": 0.73012, "common_noun": 0}, 
                {"id": 4, "text": "공무원", "type": "CV_OCCUPATION", "begin": 40, "end": 41, "weight": 0.765502, "common_noun": 0}, 
                {"id": 5, "text": "주민", "type": "CV_POSITION", "begin": 44, "end": 44, "weight": 0.922059, "common_noun": 0}, 
                {"id": 6, "text": "주민투표제", "type": "CV_POLICY", "begin": 50, "end": 52, "weight": 0.339542, "common_noun": 0}
            ], 
            "chunk": [], 
            "dependency": [
                {"id": 0, "text": "일반적으로", "head": 10, "label": "NP_AJT", "mod": [], "weight": 0.728655}, 
                {"id": 1, "text": "대통령과", "head": 2, "label": "NP_CNJ", "mod": [], "weight": 0.778915}, 
                {"id": 2, "text": "국회의원을", "head": 3, "label": "NP_OBJ", "mod": [1], "weight": 0.628515}, 
                {"id": 3, "text": "포함한", "head": 6, "label": "VP_MOD", "mod": [2], "weight": 0.578402}, 
                {"id": 4, "text": "모든", "head": 6, "label": "DP", "mod": [], "weight": 0.51331}, 
                {"id": 5, "text": "선출직", "head": 6, "label": "NP", "mod": [], "weight": 0.635043}, 
                {"id": 6, "text": "공무원을", "head": 7, "label": "NP_OBJ", "mod": [3, 4, 5], "weight": 0.225251}, 
                {"id": 7, "text": "대상으로", "head": 8, "label": "NP_AJT", "mod": [6], "weight": 0.73145}, 
                {"id": 8, "text": "하는", "head": 9, "label": "VP_MOD", "mod": [7], "weight": 0.674378}, 
                {"id": 9, "text": "국민투표제를", "head": 10, "label": "NP_OBJ", "mod": [8], "weight": 0.786844}, 
                {"id": 10, "text": "의미하지만,", "head": 23, "label": "VP", "mod": [0, 9], "weight": 0.756574}, 
                {"id": 11, "text": "역사적으로는", "head": 23, "label": "NP_AJT", "mod": [], "weight": 0.651557}, 
                {"id": 12, "text": "하위", "head": 13, "label": "NP", "mod": [], "weight": 0.71646}, 
                {"id": 13, "text": "개념으로서", "head": 23, "label": "NP_AJT", "mod": [12], "weight": 0.815315}, 
                {"id": 14, "text": "지방의", "head": 16, "label": "NP_MOD", "mod": [], "weight": 0.680007}, 
                {"id": 15, "text": "선출직", "head": 16, "label": "NP", "mod": [], "weight": 0.670678}, 
                {"id": 16, "text": "공무원을", "head": 19, "label": "NP_OBJ", "mod": [14, 15], "weight": 0.179009}, 
                {"id": 17, "text": "지역", "head": 18, "label": "NP", "mod": [], "weight": 0.583886}, 
                {"id": 18, "text": "주민들이", "head": 19, "label": "NP_SBJ", "mod": [17], "weight": 0.500655}, 
                {"id": 19, "text": "소환하는", "head": 20, "label": "VP_MOD", "mod": [16, 18], "weight": 0.391876}, 
                {"id": 20, "text": "주민투표제의", "head": 21, "label": "NP_MOD", "mod": [19], "weight": 0.677826}, 
                {"id": 21, "text": "의미로서", "head": 23, "label": "NP_AJT", "mod": [20], "weight": 0.86057}, 
                {"id": 22, "text": "주로", "head": 23, "label": "AP", "mod": [], "weight": 0.783097}, 
                {"id": 23, "text": "시행되었다.", "head": -1, "label": "VP", "mod": [10, 11, 13, 21, 22], "weight": 5.6593e-06}
            ], 
            "SRL": [
                {"verb": "포함", "sense": 1, "word_id": 3, "weight": 0.273962, "argument": [
                    {"type": "ARG1", "word_id": 6, "text": "공무원을", "weight": 1}, 
                    {"type": "ARGM-EXT", "word_id": 4, "text": "모든", "weight": 1}
                ]}, 
                {"verb": "하", "sense": 3, "word_id": 8, "weight": 0.151221, "argument": [
                    {"type": "ARG1", "word_id": 6, "text": "공무원을", "weight": 0.185823}, 
                    {"type": "ARG2", "word_id": 7, "text": "대상으로", "weight": 0.130892}, 
                    {"type": "ARG0", "word_id": 9, "text": "국민투표제를", "weight": 0.136947}
                ]}, 
                {"verb": "의미", "sense": 1, "word_id": 10, "weight": 0.223937, "argument": [
                    {"type": "ARG2", "word_id": 9, "text": "국민투표제를", "weight": 0.223937}, 
                    {"type": "ARGM-PRD", "word_id": 0, "text": "일반적으로", "weight": 1}
                ]}, 
                {"verb": "소환", "sense": 1, "word_id": 19, "weight": 0.166507, "argument": [
                    {"type": "ARG1", "word_id": 16, "text": "공무원을", "weight": 0.124209}, 
                    {"type": "ARG0", "word_id": 18, "text": "주민들이", "weight": 0.208805}
                ]}, 
                {"verb": "시행", "sense": 1, "word_id": 23, "weight": 0.109818, "argument": [
                    {"type": "ARGM-PRD", "word_id": 21, "text": "의미로서", "weight": 0.116875}, 
                    {"type": "ARGM-ADV", "word_id": 22, "text": "주로", "weight": 0.10276}, 
                    {"type": "ARGM-PRD", "word_id": 11, "text": "역사적으로는", "weight": 1}
                ]}
            ], 
            "relation": [], 
            "SA": [], 
            "ZA": []
        }
    ], 
    "entity": [
        {"id": 0, "type": "CV_POLICY", "number": "singular", "gender": "", "person": "", "animacy": "thing", "mention": [
            {"id": 0, "sent_id": 0, "start_eid": 0, "end_eid": 0, "ne_id": 0, "text": "소환투표제(召還投票制)는", "start_eid_short": 0, "end_eid_short": 0, "text_short": "소환투표제(召還投票制)는"}, 
            {"id": 1, "sent_id": 0, "start_eid": 1, "end_eid": 10, "ne_id": -1, "text": "유권자들이 부적합하다고 생각하는 선출직 공무원을 투표로서 임기 중에 파면시키는 제도이다.", "start_eid_short": 10, "end_eid_short": 10, "text_short": "제도이다."}, 
            {"id": 8, "sent_id": 1, "start_eid": 0, "end_eid": 9, "ne_id": 3, "text": "일반적으로 대통령과 국회의원을 포함한 모든 선출직 공무원을 대상으로 하는 국민투표제를", "start_eid_short": 9, "end_eid_short": 9, "text_short": "국민투표제를"}, 
            {"id": 16, "sent_id": 1, "start_eid": 11, "end_eid": 21, "ne_id": -1, "text": "역사적으로는 하위 개념으로서 지방의 선출직 공무원을 지역 주민들이 소환하는 주민투표제의 의미로서", "start_eid_short": 21, "end_eid_short": 21, "text_short": "의미로서"}
        ]}, 
        {"id": 1, "type": "CV_OCCUPATION", "number": "singular", "gender": "", "person": "", "animacy": "thing", "mention": [
            {"id": 2, "sent_id": 0, "start_eid": 1, "end_eid": 5, "ne_id": 3, "text": "유권자들이 부적합하다고 생각하는 선출직 공무원을", "start_eid_short": 4, "end_eid_short": 5, "text_short": "선출직 공무원을"}
        ]}, 
        {"id": 2, "type": "", "number": "singular", "gender": "", "person": "", "animacy": "thing", "mention": [
            {"id": 4, "sent_id": 0, "start_eid": 4, "end_eid": 4, "ne_id": -1, "text": "선출직", "start_eid_short": 4, "end_eid_short": 4, "text_short": "선출직"}, 
            {"id": 15, "sent_id": 1, "start_eid": 5, "end_eid": 5, "ne_id": -1, "text": "선출직", "start_eid_short": 5, "end_eid_short": 5, "text_short": "선출직"}, 
            {"id": 23, "sent_id": 1, "start_eid": 15, "end_eid": 15, "ne_id": -1, "text": "선출직", "start_eid_short": 15, "end_eid_short": 15, "text_short": "선출직"}
        ]}, 
        {"id": 3, "type": "", "number": "singular", "gender": "", "person": "", "animacy": "thing", "mention": [
            {"id": 5, "sent_id": 0, "start_eid": 6, "end_eid": 6, "ne_id": -1, "text": "투표로서", "start_eid_short": 6, "end_eid_short": 6, "text_short": "투표로서"}
        ]}, 
        {"id": 4, "type": "", "number": "singular", "gender": "", "person": "", "animacy": "thing", "mention": [
            {"id": 6, "sent_id": 0, "start_eid": 7, "end_eid": 8, "ne_id": -1, "text": "임기 중에", "start_eid_short": 7, "end_eid_short": 8, "text_short": "임기 중에"}
        ]}, 
        {"id": 5, "type": "", "number": "singular", "gender": "", "person": "", "animacy": "thing", "mention": [
            {"id": 7, "sent_id": 0, "start_eid": 7, "end_eid": 7, "ne_id": -1, "text": "임기", "start_eid_short": 7, "end_eid_short": 7, "text_short": "임기"}
        ]}, 
        {"id": 6, "type": "", "number": "singular", "gender": "", "person": "", "animacy": "thing", "mention": [
            {"id": 9, "sent_id": 1, "start_eid": 0, "end_eid": 0, "ne_id": -1, "text": "일반적으로", "start_eid_short": 0, "end_eid_short": 0, "text_short": "일반적으로"}
        ]}, 
        {"id": 7, "type": "CV_POSITION", "number": "plural", "gender": "", "person": "", "animacy": "human", "mention": [
            {"id": 11, "sent_id": 1, "start_eid": 1, "end_eid": 6, "ne_id": 2, "text": "대통령과 국회의원을 포함한 모든 선출직 공무원을", "start_eid_short": 4, "end_eid_short": 6, "text_short": "모든 선출직 공무원을"}, 
            {"id": 12, "sent_id": 1, "start_eid": 1, "end_eid": 2, "ne_id": 1, "text": "대통령과 국회의원을", "start_eid_short": 2, "end_eid_short": 2, "text_short": "국회의원을"}
        ]}, 
        {"id": 8, "type": "", "number": "singular", "gender": "", "person": "", "animacy": "thing", "mention": [
            {"id": 10, "sent_id": 1, "start_eid": 1, "end_eid": 7, "ne_id": -1, "text": "대통령과 국회의원을 포함한 모든 선출직 공무원을 대상으로", "start_eid_short": 7, "end_eid_short": 7, "text_short": "대상으로"}
        ]}, 
        {"id": 9, "type": "", "number": "singular", "gender": "", "person": "", "animacy": "thing", "mention": [
            {"id": 17, "sent_id": 1, "start_eid": 11, "end_eid": 11, "ne_id": -1, "text": "역사적으로는", "start_eid_short": 11, "end_eid_short": 11, "text_short": "역사적으로는"}
        ]}, 
        {"id": 10, "type": "", "number": "singular", "gender": "", "person": "", "animacy": "thing", "mention": [
            {"id": 18, "sent_id": 1, "start_eid": 12, "end_eid": 13, "ne_id": -1, "text": "하위 개념으로서", "start_eid_short": 12, "end_eid_short": 13, "text_short": "하위 개념으로서"}
        ]}, 
        {"id": 11, "type": "", "number": "singular", "gender": "", "person": "", "animacy": "thing", "mention": [
            {"id": 19, "sent_id": 1, "start_eid": 12, "end_eid": 12, "ne_id": -1, "text": "하위", "start_eid_short": 12, "end_eid_short": 12, "text_short": "하위"}
        ]}, 
        {"id": 12, "type": "EV_OTHERS", "number": "singular", "gender": "", "person": "", "animacy": "thing", "mention": [
            {"id": 20, "sent_id": 1, "start_eid": 14, "end_eid": 20, "ne_id": 6, "text": "지방의 선출직 공무원을 지역 주민들이 소환하는 주민투표제의", "start_eid_short": 20, "end_eid_short": 20, "text_short": "주민투표제의"}
        ]}, 
        {"id": 13, "type": "CV_OCCUPATION", "number": "singular", "gender": "", "person": "", "animacy": "thing", "mention": [
            {"id": 21, "sent_id": 1, "start_eid": 14, "end_eid": 16, "ne_id": 4, "text": "지방의 선출직 공무원을", "start_eid_short": 15, "end_eid_short": 16, "text_short": "선출직 공무원을"}
        ]}, 
        {"id": 14, "type": "", "number": "singular", "gender": "", "person": "", "animacy": "thing", "mention": [
            {"id": 22, "sent_id": 1, "start_eid": 14, "end_eid": 14, "ne_id": -1, "text": "지방의", "start_eid_short": 14, "end_eid_short": 14, "text_short": "지방의"}
        ]}, 
        {"id": 15, "type": "CV_POSITION", "number": "singular", "gender": "", "person": "", "animacy": "human", "mention": [
            {"id": 24, "sent_id": 1, "start_eid": 17, "end_eid": 18, "ne_id": 5, "text": "지역 주민들이", "start_eid_short": 17, "end_eid_short": 18, "text_short": "지역 주민들이"}
        ]}, 
        {"id": 16, "type": "", "number": "singular", "gender": "", "person": "", "animacy": "thing", "mention": [
            {"id": 25, "sent_id": 1, "start_eid": 17, "end_eid": 17, "ne_id": -1, "text": "지역", "start_eid_short": 17, "end_eid_short": 17, "text_short": "지역"}
        ]}, 
        {"id": 17, "type": "CV_POSITION", "number": "singular", "gender": "", "person": "", "animacy": "human", "mention": [
            {"id": 13, "sent_id": 1, "start_eid": 1, "end_eid": 1, "ne_id": 0, "text": "대통령과", "start_eid_short": 1, "end_eid_short": 1, "text_short": "대통령과"}
        ]}, 
        {"id": 18, "type": "CV_POSITION", "number": "singular", "gender": "", "person": "", "animacy": "human", "mention": [
            {"id": 14, "sent_id": 1, "start_eid": 2, "end_eid": 2, "ne_id": 1, "text": "국회의원을", "start_eid_short": 2, "end_eid_short": 2, "text_short": "국회의원을"}
        ]}, 
        {"id": 19, "type": "CV_POSITION", "number": "singular", "gender": "", "person": "", "animacy": "human", "mention": [
            {"id": 3, "sent_id": 0, "start_eid": 1, "end_eid": 1, "ne_id": 2, "text": "유권자들이", "start_eid_short": 1, "end_eid_short": 1, "text_short": "유권자들이"}
        ]}
    ]
}