{
    "doc_id": "E2016.790.08_A_01.json", 
    "DCT": "", 
    "category": "", 
    "category_weight": 0, 
    "title": {
        "text": "오만과 편견", 
        "NE": ""
    }, 
    "metaInfo": {}, 
    "sentence": [
        {
            "id": 0, 
            "reserve_str": "", 
            "text": "《오만과 편견》(Pride and Prejudice)은 제인 오스틴이 쓴 소설이다.", 
            "morp": [
                {"id": 0, "lemma": "《", "type": "SS", "position": 0, "weight": 1}, 
                {"id": 1, "lemma": "오만", "type": "NNG", "position": 3, "weight": 0.0115877}, 
                {"id": 2, "lemma": "과", "type": "JC", "position": 9, "weight": 0.0108215}, 
                {"id": 3, "lemma": "편견", "type": "NNG", "position": 13, "weight": 0.9}, 
                {"id": 4, "lemma": "》", "type": "SS", "position": 19, "weight": 1}, 
                {"id": 5, "lemma": "(", "type": "SS", "position": 22, "weight": 1}, 
                {"id": 6, "lemma": "Pride", "type": "SL", "position": 23, "weight": 1}, 
                {"id": 7, "lemma": "and", "type": "SL", "position": 29, "weight": 1}, 
                {"id": 8, "lemma": "Prejudice", "type": "SL", "position": 33, "weight": 1}, 
                {"id": 9, "lemma": ")", "type": "SS", "position": 42, "weight": 1}, 
                {"id": 10, "lemma": "은", "type": "JX", "position": 43, "weight": 0.0128817}, 
                {"id": 11, "lemma": "제인", "type": "NNP", "position": 47, "weight": 0.0429459}, 
                {"id": 12, "lemma": "오스틴", "type": "NNP", "position": 54, "weight": 0.5}, 
                {"id": 13, "lemma": "이", "type": "JKS", "position": 63, "weight": 0.0234517}, 
                {"id": 14, "lemma": "쓰", "type": "VV", "position": 67, "weight": 0.312323}, 
                {"id": 15, "lemma": "ㄴ", "type": "ETM", "position": 67, "weight": 0.304215}, 
                {"id": 16, "lemma": "소설", "type": "NNG", "position": 71, "weight": 0.9}, 
                {"id": 17, "lemma": "이", "type": "VCP", "position": 77, "weight": 0.0177525}, 
                {"id": 18, "lemma": "다", "type": "EF", "position": 80, "weight": 0.353579}, 
                {"id": 19, "lemma": ".", "type": "SF", "position": 83, "weight": 1}
            ], 
            "morp_eval": [], 
            "WSD": [
                {"id": 0, "text": "《", "type": "SS", "scode": "000000", "weight": 1, "position": 0, "begin": 0, "end": 0}, 
                {"id": 1, "text": "오만", "type": "NNG", "scode": "020000", "weight": 0.333333, "position": 3, "begin": 1, "end": 1}, 
                {"id": 2, "text": "과", "type": "JC", "scode": "000000", "weight": 1, "position": 9, "begin": 2, "end": 2}, 
                {"id": 3, "text": "편견", "type": "NNG", "scode": "000000", "weight": 1, "position": 13, "begin": 3, "end": 3}, 
                {"id": 4, "text": "》", "type": "SS", "scode": "000000", "weight": 1, "position": 19, "begin": 4, "end": 4}, 
                {"id": 5, "text": "(", "type": "SS", "scode": "000000", "weight": 1, "position": 22, "begin": 5, "end": 5}, 
                {"id": 6, "text": "Pride", "type": "SL", "scode": "000000", "weight": 1, "position": 23, "begin": 6, "end": 6}, 
                {"id": 7, "text": "and", "type": "SL", "scode": "000000", "weight": 1, "position": 29, "begin": 7, "end": 7}, 
                {"id": 8, "text": "Prejudice", "type": "SL", "scode": "000000", "weight": 1, "position": 33, "begin": 8, "end": 8}, 
                {"id": 9, "text": ")", "type": "SS", "scode": "000000", "weight": 1, "position": 42, "begin": 9, "end": 9}, 
                {"id": 10, "text": "은", "type": "JX", "scode": "000000", "weight": 1, "position": 43, "begin": 10, "end": 10}, 
                {"id": 11, "text": "제인", "type": "NNP", "scode": "000000", "weight": 1, "position": 47, "begin": 11, "end": 11}, 
                {"id": 12, "text": "오스틴", "type": "NNP", "scode": "010000", "weight": 0.2, "position": 54, "begin": 12, "end": 12}, 
                {"id": 13, "text": "이", "type": "JKS", "scode": "000000", "weight": 1, "position": 63, "begin": 13, "end": 13}, 
                {"id": 14, "text": "쓰", "type": "VV", "scode": "010102", "weight": 0.0384615, "position": 67, "begin": 14, "end": 14}, 
                {"id": 15, "text": "ㄴ", "type": "ETM", "scode": "000000", "weight": 1, "position": 67, "begin": 15, "end": 15}, 
                {"id": 16, "text": "소설", "type": "NNG", "scode": "030001", "weight": 0.0666667, "position": 71, "begin": 16, "end": 16}, 
                {"id": 17, "text": "이", "type": "VCP", "scode": "030000", "weight": 0.0172414, "position": 77, "begin": 17, "end": 17}, 
                {"id": 18, "text": "다", "type": "EF", "scode": "000000", "weight": 1, "position": 80, "begin": 18, "end": 18}, 
                {"id": 19, "text": ".", "type": "SF", "scode": "000000", "weight": 1, "position": 83, "begin": 19, "end": 19}
            ], 
            "word": [
                {"id": 0, "text": "《오만과", "type": "", "begin": 0, "end": 2}, 
                {"id": 1, "text": "편견》(Pride", "type": "", "begin": 3, "end": 6}, 
                {"id": 2, "text": "and", "type": "", "begin": 7, "end": 7}, 
                {"id": 3, "text": "Prejudice)은", "type": "", "begin": 8, "end": 10}, 
                {"id": 4, "text": "제인", "type": "", "begin": 11, "end": 11}, 
                {"id": 5, "text": "오스틴이", "type": "", "begin": 12, "end": 13}, 
                {"id": 6, "text": "쓴", "type": "", "begin": 14, "end": 15}, 
                {"id": 7, "text": "소설이다.", "type": "", "begin": 16, "end": 19}
            ], 
            "NE": [
                {"id": 0, "text": "오만과 편견", "type": "AFW_DOCUMENT", "begin": 1, "end": 3, "weight": 0.996106, "common_noun": 0}, 
                {"id": 1, "text": "Pride and Prejudice", "type": "AFW_DOCUMENT", "begin": 6, "end": 8, "weight": 0.0923355, "common_noun": 0}, 
                {"id": 2, "text": "제인 오스틴", "type": "PS_NAME", "begin": 11, "end": 12, "weight": 0.666982, "common_noun": 0}, 
                {"id": 3, "text": "소설", "type": "FD_ART", "begin": 16, "end": 16, "weight": 0.578218, "common_noun": 0}
            ], 
            "chunk": [], 
            "dependency": [
                {"id": 0, "text": "《오만과", "head": 1, "label": "NP_CNJ", "mod": [], "weight": 0.751061}, 
                {"id": 1, "text": "편견》(Pride", "head": 2, "label": "NP", "mod": [0], "weight": 0.787644}, 
                {"id": 2, "text": "and", "head": 3, "label": "NP", "mod": [1], "weight": 0.755594}, 
                {"id": 3, "text": "Prejudice)은", "head": 7, "label": "NP_SBJ", "mod": [2], "weight": 0.850989}, 
                {"id": 4, "text": "제인", "head": 5, "label": "NP", "mod": [], "weight": 0.830893}, 
                {"id": 5, "text": "오스틴이", "head": 6, "label": "NP_SBJ", "mod": [4], "weight": 0.710712}, 
                {"id": 6, "text": "쓴", "head": 7, "label": "VP_MOD", "mod": [5], "weight": 0.850544}, 
                {"id": 7, "text": "소설이다.", "head": -1, "label": "VNP", "mod": [3, 6], "weight": 0.147922}
            ], 
            "SRL": [
                {"verb": "쓰", "sense": 2, "word_id": 6, "weight": 0.378429, "argument": [
                    {"type": "ARG0", "word_id": 5, "text": "오스틴이", "weight": 0.476644}, 
                    {"type": "ARG1", "word_id": 7, "text": "소설이다.", "weight": 0.280215}
                ]}
            ], 
            "relation": [], 
            "SA": [], 
            "ZA": []
        }
    ], 
    "entity": [
        {"id": 0, "type": "", "number": "singular", "gender": "", "person": "", "animacy": "thing", "mention": [
            {"id": 0, "sent_id": 0, "start_eid": 0, "end_eid": 3, "ne_id": -1, "text": "《오만과 편견》(Pride and Prejudice)은", "start_eid_short": 3, "end_eid_short": 3, "text_short": "Prejudice)은"}
        ]}, 
        {"id": 1, "type": "PS_NAME", "number": "singular", "gender": "", "person": "", "animacy": "human", "mention": [
            {"id": 2, "sent_id": 0, "start_eid": 4, "end_eid": 5, "ne_id": 1, "text": "제인 오스틴이", "start_eid_short": 4, "end_eid_short": 5, "text_short": "제인 오스틴이"}
        ]}, 
        {"id": 2, "type": "FD_ART", "number": "singular", "gender": "", "person": "", "animacy": "thing", "mention": [
            {"id": 1, "sent_id": 0, "start_eid": 4, "end_eid": 7, "ne_id": 2, "text": "제인 오스틴이 쓴 소설이다.", "start_eid_short": 7, "end_eid_short": 7, "text_short": "소설이다."}
        ]}
    ]
}