{
    "doc_id": "E2016.889.02_A_02.json", 
    "DCT": "", 
    "category": "", 
    "category_weight": 0, 
    "title": {
        "text": "상(image)", 
        "NE": ""
    }, 
    "metaInfo": {}, 
    "sentence": [
        {
            "id": 0, 
            "reserve_str": "", 
            "text": "평면거울 등의 허상은 반전을 동반한 거울상이 된다.", 
            "morp": [
                {"id": 0, "lemma": "평면", "type": "NNG", "position": 0, "weight": 0.9}, 
                {"id": 1, "lemma": "거울", "type": "NNG", "position": 6, "weight": 0.184696}, 
                {"id": 2, "lemma": "등", "type": "NNB", "position": 13, "weight": 0.0146757}, 
                {"id": 3, "lemma": "의", "type": "JKG", "position": 16, "weight": 0.0520933}, 
                {"id": 4, "lemma": "허상", "type": "NNG", "position": 20, "weight": 0.9}, 
                {"id": 5, "lemma": "은", "type": "JX", "position": 26, "weight": 0.0449928}, 
                {"id": 6, "lemma": "반전", "type": "NNG", "position": 30, "weight": 0.9}, 
                {"id": 7, "lemma": "을", "type": "JKO", "position": 36, "weight": 0.129611}, 
                {"id": 8, "lemma": "동반", "type": "NNG", "position": 40, "weight": 0.9}, 
                {"id": 9, "lemma": "하", "type": "XSV", "position": 46, "weight": 0.0001}, 
                {"id": 10, "lemma": "ㄴ", "type": "ETM", "position": 46, "weight": 0.392321}, 
                {"id": 11, "lemma": "거울", "type": "NNG", "position": 50, "weight": 0.658329}, 
                {"id": 12, "lemma": "상", "type": "NNG", "position": 56, "weight": 0.0834075}, 
                {"id": 13, "lemma": "이", "type": "JKC", "position": 59, "weight": 0.000287945}, 
                {"id": 14, "lemma": "되", "type": "VV", "position": 63, "weight": 0.542406}, 
                {"id": 15, "lemma": "ㄴ다", "type": "EF", "position": 63, "weight": 0.0793196}, 
                {"id": 16, "lemma": ".", "type": "SF", "position": 69, "weight": 1}
            ], 
            "morp_eval": [], 
            "WSD": [
                {"id": 0, "text": "평면거울", "type": "NNG", "scode": "000000", "weight": 1, "position": 0, "begin": 0, "end": 1}, 
                {"id": 1, "text": "등", "type": "NNB", "scode": "050001", "weight": 0.0526316, "position": 13, "begin": 2, "end": 2}, 
                {"id": 2, "text": "의", "type": "JKG", "scode": "000000", "weight": 1, "position": 16, "begin": 3, "end": 3}, 
                {"id": 3, "text": "허상", "type": "NNG", "scode": "030002", "weight": 0.25, "position": 20, "begin": 4, "end": 4}, 
                {"id": 4, "text": "은", "type": "JX", "scode": "000000", "weight": 1, "position": 26, "begin": 5, "end": 5}, 
                {"id": 5, "text": "반전", "type": "NNG", "scode": "030002", "weight": 0.0769231, "position": 30, "begin": 6, "end": 6}, 
                {"id": 6, "text": "을", "type": "JKO", "scode": "000000", "weight": 1, "position": 36, "begin": 7, "end": 7}, 
                {"id": 7, "text": "동반하", "type": "VV", "scode": "000002", "weight": 0.5, "position": 40, "begin": 8, "end": 9}, 
                {"id": 8, "text": "ㄴ", "type": "ETM", "scode": "000000", "weight": 1, "position": 46, "begin": 10, "end": 10}, 
                {"id": 9, "text": "거울상", "type": "NNG", "scode": "000000", "weight": 1, "position": 50, "begin": 11, "end": 12}, 
                {"id": 10, "text": "이", "type": "JKC", "scode": "000000", "weight": 1, "position": 59, "begin": 13, "end": 13}, 
                {"id": 11, "text": "되", "type": "VV", "scode": "010102", "weight": 0.03125, "position": 63, "begin": 14, "end": 14}, 
                {"id": 12, "text": "ㄴ다", "type": "EF", "scode": "000000", "weight": 1, "position": 63, "begin": 15, "end": 15}, 
                {"id": 13, "text": ".", "type": "SF", "scode": "000000", "weight": 1, "position": 69, "begin": 16, "end": 16}
            ], 
            "word": [
                {"id": 0, "text": "평면거울", "type": "", "begin": 0, "end": 1}, 
                {"id": 1, "text": "등의", "type": "", "begin": 2, "end": 3}, 
                {"id": 2, "text": "허상은", "type": "", "begin": 4, "end": 5}, 
                {"id": 3, "text": "반전을", "type": "", "begin": 6, "end": 7}, 
                {"id": 4, "text": "동반한", "type": "", "begin": 8, "end": 10}, 
                {"id": 5, "text": "거울상이", "type": "", "begin": 11, "end": 13}, 
                {"id": 6, "text": "된다.", "type": "", "begin": 14, "end": 16}
            ], 
            "NE": [], 
            "chunk": [], 
            "dependency": [
                {"id": 0, "text": "평면거울", "head": 1, "label": "NP", "mod": [], "weight": 0.810889}, 
                {"id": 1, "text": "등의", "head": 2, "label": "NP_MOD", "mod": [0], "weight": 0.732844}, 
                {"id": 2, "text": "허상은", "head": 6, "label": "NP_SBJ", "mod": [1], "weight": 0.758939}, 
                {"id": 3, "text": "반전을", "head": 4, "label": "NP_OBJ", "mod": [], "weight": 0.677602}, 
                {"id": 4, "text": "동반한", "head": 5, "label": "VP_MOD", "mod": [3], "weight": 0.789107}, 
                {"id": 5, "text": "거울상이", "head": 6, "label": "NP_CMP", "mod": [4], "weight": 0.83843}, 
                {"id": 6, "text": "된다.", "head": -1, "label": "VP", "mod": [2, 5], "weight": 0.172545}
            ], 
            "SRL": [
                {"verb": "동반", "sense": 1, "word_id": 4, "weight": 0.278109, "argument": [
                    {"type": "ARG1", "word_id": 3, "text": "반전을", "weight": 0.210235}, 
                    {"type": "ARG0", "word_id": 5, "text": "거울상이", "weight": 0.345984}
                ]}, 
                {"verb": "되", "sense": 1, "word_id": 6, "weight": 0.340324, "argument": [
                    {"type": "ARG1", "word_id": 2, "text": "허상은", "weight": 0.296191}, 
                    {"type": "ARG2", "word_id": 5, "text": "거울상이", "weight": 0.384457}
                ]}
            ], 
            "relation": [], 
            "SA": [], 
            "ZA": []
        }, 
        {
            "id": 1, 
            "reserve_str": "", 
            "text": "공간에서 광축(光軸)에 수직인 평면 내에 있는 물체는 상공간의 광축에 수직인 평면(상평면) 내에 있는 물체와 서로 비슷한 모양의 상이 되며 상의 광축에서의 방향이 물체와 같은 것을 정립상(正立像)이라고 하며, 반대인 것을 도립상(倒立像)이라고 한다.", 
            "morp": [
                {"id": 0, "lemma": "공간", "type": "NNG", "position": 70, "weight": 0.437821}, 
                {"id": 1, "lemma": "에서", "type": "JKB", "position": 76, "weight": 0.153407}, 
                {"id": 2, "lemma": "광축", "type": "NNG", "position": 83, "weight": 0.9}, 
                {"id": 3, "lemma": "(", "type": "SS", "position": 89, "weight": 1}, 
                {"id": 4, "lemma": "光軸", "type": "SH", "position": 90, "weight": 1}, 
                {"id": 5, "lemma": ")", "type": "SS", "position": 96, "weight": 1}, 
                {"id": 6, "lemma": "에", "type": "JKB", "position": 97, "weight": 0.048593}, 
                {"id": 7, "lemma": "수직", "type": "NNG", "position": 101, "weight": 0.9}, 
                {"id": 8, "lemma": "이", "type": "VCP", "position": 107, "weight": 0.0177525}, 
                {"id": 9, "lemma": "ㄴ", "type": "ETM", "position": 107, "weight": 0.220712}, 
                {"id": 10, "lemma": "평면", "type": "NNG", "position": 111, "weight": 0.9}, 
                {"id": 11, "lemma": "내", "type": "NNB", "position": 118, "weight": 0.00130296}, 
                {"id": 12, "lemma": "에", "type": "JKB", "position": 121, "weight": 0.135559}, 
                {"id": 13, "lemma": "있", "type": "VA", "position": 125, "weight": 0.037292}, 
                {"id": 14, "lemma": "는", "type": "ETM", "position": 128, "weight": 0.26168}, 
                {"id": 15, "lemma": "물체", "type": "NNG", "position": 132, "weight": 0.9}, 
                {"id": 16, "lemma": "는", "type": "JX", "position": 138, "weight": 0.0287565}, 
                {"id": 17, "lemma": "상", "type": "NNG", "position": 142, "weight": 0.146618}, 
                {"id": 18, "lemma": "공간", "type": "NNG", "position": 145, "weight": 0.184786}, 
                {"id": 19, "lemma": "의", "type": "JKG", "position": 151, "weight": 0.0694213}, 
                {"id": 20, "lemma": "광축", "type": "NNG", "position": 155, "weight": 0.9}, 
                {"id": 21, "lemma": "에", "type": "JKB", "position": 161, "weight": 0.153364}, 
                {"id": 22, "lemma": "수직", "type": "NNG", "position": 165, "weight": 0.9}, 
                {"id": 23, "lemma": "이", "type": "VCP", "position": 171, "weight": 0.0177525}, 
                {"id": 24, "lemma": "ㄴ", "type": "ETM", "position": 171, "weight": 0.220712}, 
                {"id": 25, "lemma": "평면", "type": "NNG", "position": 175, "weight": 0.9}, 
                {"id": 26, "lemma": "(", "type": "SS", "position": 181, "weight": 1}, 
                {"id": 27, "lemma": "상", "type": "NNG", "position": 182, "weight": 0.0902489}, 
                {"id": 28, "lemma": "평면", "type": "NNG", "position": 185, "weight": 0.9}, 
                {"id": 29, "lemma": ")", "type": "SS", "position": 191, "weight": 1}, 
                {"id": 30, "lemma": "내", "type": "NNB", "position": 193, "weight": 0.00108097}, 
                {"id": 31, "lemma": "에", "type": "JKB", "position": 196, "weight": 0.135559}, 
                {"id": 32, "lemma": "있", "type": "VA", "position": 200, "weight": 0.037292}, 
                {"id": 33, "lemma": "는", "type": "ETM", "position": 203, "weight": 0.26168}, 
                {"id": 34, "lemma": "물체", "type": "NNG", "position": 207, "weight": 0.9}, 
                {"id": 35, "lemma": "와", "type": "JC", "position": 213, "weight": 0.0169714}, 
                {"id": 36, "lemma": "서로", "type": "MAG", "position": 217, "weight": 0.00661324}, 
                {"id": 37, "lemma": "비슷하", "type": "VA", "position": 224, "weight": 0.9}, 
                {"id": 38, "lemma": "ㄴ", "type": "ETM", "position": 230, "weight": 0.430446}, 
                {"id": 39, "lemma": "모양", "type": "NNG", "position": 234, "weight": 0.640889}, 
                {"id": 40, "lemma": "의", "type": "JKG", "position": 240, "weight": 0.0694213}, 
                {"id": 41, "lemma": "상", "type": "NNG", "position": 244, "weight": 0.393232}, 
                {"id": 42, "lemma": "이", "type": "JKC", "position": 247, "weight": 0.000287945}, 
                {"id": 43, "lemma": "되", "type": "VV", "position": 251, "weight": 0.542406}, 
                {"id": 44, "lemma": "며", "type": "EC", "position": 254, "weight": 0.429701}, 
                {"id": 45, "lemma": "상", "type": "NNG", "position": 258, "weight": 0.0990133}, 
                {"id": 46, "lemma": "의", "type": "JKG", "position": 261, "weight": 0.0694213}, 
                {"id": 47, "lemma": "광축", "type": "NNG", "position": 265, "weight": 0.9}, 
                {"id": 48, "lemma": "에서", "type": "JKB", "position": 271, "weight": 0.153407}, 
                {"id": 49, "lemma": "의", "type": "JKG", "position": 277, "weight": 0.00917577}, 
                {"id": 50, "lemma": "방향", "type": "NNG", "position": 281, "weight": 0.9}, 
                {"id": 51, "lemma": "이", "type": "JKS", "position": 287, "weight": 0.0360723}, 
                {"id": 52, "lemma": "물체", "type": "NNG", "position": 291, "weight": 0.9}, 
                {"id": 53, "lemma": "와", "type": "JKB", "position": 297, "weight": 0.0567862}, 
                {"id": 54, "lemma": "같", "type": "VA", "position": 301, "weight": 0.0728396}, 
                {"id": 55, "lemma": "은", "type": "ETM", "position": 304, "weight": 0.155123}, 
                {"id": 56, "lemma": "것", "type": "NNB", "position": 308, "weight": 0.228788}, 
                {"id": 57, "lemma": "을", "type": "JKO", "position": 311, "weight": 0.0630104}, 
                {"id": 58, "lemma": "정립상", "type": "NNG", "position": 315, "weight": 0.9}, 
                {"id": 59, "lemma": "(", "type": "SS", "position": 324, "weight": 1}, 
                {"id": 60, "lemma": "正立像", "type": "SH", "position": 325, "weight": 1}, 
                {"id": 61, "lemma": ")", "type": "SS", "position": 334, "weight": 1}, 
                {"id": 62, "lemma": "이라고", "type": "JKQ", "position": 335, "weight": 0.0202133}, 
                {"id": 63, "lemma": "하", "type": "VV", "position": 345, "weight": 0.525586}, 
                {"id": 64, "lemma": "며", "type": "EC", "position": 348, "weight": 0.429701}, 
                {"id": 65, "lemma": ",", "type": "SP", "position": 351, "weight": 1}, 
                {"id": 66, "lemma": "반대", "type": "NNG", "position": 353, "weight": 0.9}, 
                {"id": 67, "lemma": "이", "type": "VCP", "position": 359, "weight": 0.0177525}, 
                {"id": 68, "lemma": "ㄴ", "type": "ETM", "position": 359, "weight": 0.220712}, 
                {"id": 69, "lemma": "것", "type": "NNB", "position": 363, "weight": 0.228788}, 
                {"id": 70, "lemma": "을", "type": "JKO", "position": 366, "weight": 0.0630104}, 
                {"id": 71, "lemma": "도립상", "type": "NNG", "position": 370, "weight": 0.9}, 
                {"id": 72, "lemma": "(", "type": "SS", "position": 379, "weight": 1}, 
                {"id": 73, "lemma": "倒立像", "type": "SH", "position": 380, "weight": 1}, 
                {"id": 74, "lemma": ")", "type": "SS", "position": 389, "weight": 1}, 
                {"id": 75, "lemma": "이라고", "type": "JKQ", "position": 390, "weight": 0.0202133}, 
                {"id": 76, "lemma": "하", "type": "VV", "position": 400, "weight": 0.525586}, 
                {"id": 77, "lemma": "ㄴ다", "type": "EF", "position": 400, "weight": 0.0793196}, 
                {"id": 78, "lemma": ".", "type": "SF", "position": 406, "weight": 1}
            ], 
            "morp_eval": [], 
            "WSD": [
                {"id": 0, "text": "공간", "type": "NNG", "scode": "050002", "weight": 0.0769231, "position": 70, "begin": 0, "end": 0}, 
                {"id": 1, "text": "에서", "type": "JKB", "scode": "000000", "weight": 1, "position": 76, "begin": 1, "end": 1}, 
                {"id": 2, "text": "광축", "type": "NNG", "scode": "000002", "weight": 0.5, "position": 83, "begin": 2, "end": 2}, 
                {"id": 3, "text": "(", "type": "SS", "scode": "000000", "weight": 1, "position": 89, "begin": 3, "end": 3}, 
                {"id": 4, "text": "光軸", "type": "SH", "scode": "000000", "weight": 1, "position": 90, "begin": 4, "end": 4}, 
                {"id": 5, "text": ")", "type": "SS", "scode": "000000", "weight": 1, "position": 96, "begin": 5, "end": 5}, 
                {"id": 6, "text": "에", "type": "JKB", "scode": "000000", "weight": 1, "position": 97, "begin": 6, "end": 6}, 
                {"id": 7, "text": "수직", "type": "NNG", "scode": "060001", "weight": 0.1, "position": 101, "begin": 7, "end": 7}, 
                {"id": 8, "text": "이", "type": "VCP", "scode": "030000", "weight": 0.0172414, "position": 107, "begin": 8, "end": 8}, 
                {"id": 9, "text": "ㄴ", "type": "ETM", "scode": "000000", "weight": 1, "position": 107, "begin": 9, "end": 9}, 
                {"id": 10, "text": "평면", "type": "NNG", "scode": "000001", "weight": 0.5, "position": 111, "begin": 10, "end": 10}, 
                {"id": 11, "text": "내", "type": "NNB", "scode": "090000", "weight": 0.0714286, "position": 118, "begin": 11, "end": 11}, 
                {"id": 12, "text": "에", "type": "JKB", "scode": "000000", "weight": 1, "position": 121, "begin": 12, "end": 12}, 
                {"id": 13, "text": "있", "type": "VA", "scode": "010301", "weight": 0.0416667, "position": 125, "begin": 13, "end": 13}, 
                {"id": 14, "text": "는", "type": "ETM", "scode": "000000", "weight": 1, "position": 128, "begin": 14, "end": 14}, 
                {"id": 15, "text": "물체", "type": "NNG", "scode": "000001", "weight": 0.333333, "position": 132, "begin": 15, "end": 15}, 
                {"id": 16, "text": "는", "type": "JX", "scode": "000000", "weight": 1, "position": 138, "begin": 16, "end": 16}, 
                {"id": 17, "text": "상", "type": "NNG", "scode": "230004", "weight": 0.0227273, "position": 142, "begin": 17, "end": 17}, 
                {"id": 18, "text": "공간", "type": "NNG", "scode": "050002", "weight": 0.0769231, "position": 145, "begin": 18, "end": 18}, 
                {"id": 19, "text": "의", "type": "JKG", "scode": "000000", "weight": 1, "position": 151, "begin": 19, "end": 19}, 
                {"id": 20, "text": "광축", "type": "NNG", "scode": "000002", "weight": 0.5, "position": 155, "begin": 20, "end": 20}, 
                {"id": 21, "text": "에", "type": "JKB", "scode": "000000", "weight": 1, "position": 161, "begin": 21, "end": 21}, 
                {"id": 22, "text": "수직", "type": "NNG", "scode": "060001", "weight": 0.1, "position": 165, "begin": 22, "end": 22}, 
                {"id": 23, "text": "이", "type": "VCP", "scode": "030000", "weight": 0.0172414, "position": 171, "begin": 23, "end": 23}, 
                {"id": 24, "text": "ㄴ", "type": "ETM", "scode": "000000", "weight": 1, "position": 171, "begin": 24, "end": 24}, 
                {"id": 25, "text": "평면", "type": "NNG", "scode": "000001", "weight": 0.5, "position": 175, "begin": 25, "end": 25}, 
                {"id": 26, "text": "(", "type": "SS", "scode": "000000", "weight": 1, "position": 181, "begin": 26, "end": 26}, 
                {"id": 27, "text": "상평면", "type": "NNG", "scode": "000000", "weight": 1, "position": 182, "begin": 27, "end": 28}, 
                {"id": 28, "text": ")", "type": "SS", "scode": "000000", "weight": 1, "position": 191, "begin": 29, "end": 29}, 
                {"id": 29, "text": "내", "type": "NNB", "scode": "090000", "weight": 0.0714286, "position": 193, "begin": 30, "end": 30}, 
                {"id": 30, "text": "에", "type": "JKB", "scode": "000000", "weight": 1, "position": 196, "begin": 31, "end": 31}, 
                {"id": 31, "text": "있", "type": "VA", "scode": "010301", "weight": 0.0416667, "position": 200, "begin": 32, "end": 32}, 
                {"id": 32, "text": "는", "type": "ETM", "scode": "000000", "weight": 1, "position": 203, "begin": 33, "end": 33}, 
                {"id": 33, "text": "물체", "type": "NNG", "scode": "000001", "weight": 0.333333, "position": 207, "begin": 34, "end": 34}, 
                {"id": 34, "text": "와", "type": "JC", "scode": "000000", "weight": 1, "position": 213, "begin": 35, "end": 35}, 
                {"id": 35, "text": "서로", "type": "MAG", "scode": "010000", "weight": 0.2, "position": 217, "begin": 36, "end": 36}, 
                {"id": 36, "text": "비슷하", "type": "VA", "scode": "020100", "weight": 0.25, "position": 224, "begin": 37, "end": 37}, 
                {"id": 37, "text": "ㄴ", "type": "ETM", "scode": "000000", "weight": 1, "position": 230, "begin": 38, "end": 38}, 
                {"id": 38, "text": "모양", "type": "NNG", "scode": "020005", "weight": 0.125, "position": 234, "begin": 39, "end": 39}, 
                {"id": 39, "text": "의", "type": "JKG", "scode": "000000", "weight": 1, "position": 240, "begin": 40, "end": 40}, 
                {"id": 40, "text": "상", "type": "NNG", "scode": "230004", "weight": 0.0227273, "position": 244, "begin": 41, "end": 41}, 
                {"id": 41, "text": "이", "type": "JKC", "scode": "000000", "weight": 1, "position": 247, "begin": 42, "end": 42}, 
                {"id": 42, "text": "되", "type": "VV", "scode": "010102", "weight": 0.03125, "position": 251, "begin": 43, "end": 43}, 
                {"id": 43, "text": "며", "type": "EC", "scode": "000000", "weight": 1, "position": 254, "begin": 44, "end": 44}, 
                {"id": 44, "text": "상", "type": "NNG", "scode": "230004", "weight": 0.0227273, "position": 258, "begin": 45, "end": 45}, 
                {"id": 45, "text": "의", "type": "JKG", "scode": "000000", "weight": 1, "position": 261, "begin": 46, "end": 46}, 
                {"id": 46, "text": "광축", "type": "NNG", "scode": "000002", "weight": 0.5, "position": 265, "begin": 47, "end": 47}, 
                {"id": 47, "text": "에서", "type": "JKB", "scode": "000000", "weight": 1, "position": 271, "begin": 48, "end": 48}, 
                {"id": 48, "text": "의", "type": "JKG", "scode": "000000", "weight": 1, "position": 277, "begin": 49, "end": 49}, 
                {"id": 49, "text": "방향", "type": "NNG", "scode": "010001", "weight": 0.2, "position": 281, "begin": 50, "end": 50}, 
                {"id": 50, "text": "이", "type": "JKS", "scode": "000000", "weight": 1, "position": 287, "begin": 51, "end": 51}, 
                {"id": 51, "text": "물체", "type": "NNG", "scode": "000001", "weight": 0.333333, "position": 291, "begin": 52, "end": 52}, 
                {"id": 52, "text": "와", "type": "JKB", "scode": "000000", "weight": 1, "position": 297, "begin": 53, "end": 53}, 
                {"id": 53, "text": "같", "type": "VA", "scode": "000100", "weight": 0.125, "position": 301, "begin": 54, "end": 54}, 
                {"id": 54, "text": "은", "type": "ETM", "scode": "000000", "weight": 1, "position": 304, "begin": 55, "end": 55}, 
                {"id": 55, "text": "것", "type": "NNB", "scode": "010001", "weight": 0.125, "position": 308, "begin": 56, "end": 56}, 
                {"id": 56, "text": "을", "type": "JKO", "scode": "000000", "weight": 1, "position": 311, "begin": 57, "end": 57}, 
                {"id": 57, "text": "정립상", "type": "NNG", "scode": "000000", "weight": 1, "position": 315, "begin": 58, "end": 58}, 
                {"id": 58, "text": "(", "type": "SS", "scode": "000000", "weight": 1, "position": 324, "begin": 59, "end": 59}, 
                {"id": 59, "text": "正立像", "type": "SH", "scode": "000000", "weight": 1, "position": 325, "begin": 60, "end": 60}, 
                {"id": 60, "text": ")", "type": "SS", "scode": "000000", "weight": 1, "position": 334, "begin": 61, "end": 61}, 
                {"id": 61, "text": "이라고", "type": "JKQ", "scode": "000000", "weight": 1, "position": 335, "begin": 62, "end": 62}, 
                {"id": 62, "text": "하", "type": "VV", "scode": "010400", "weight": 0.02, "position": 345, "begin": 63, "end": 63}, 
                {"id": 63, "text": "며", "type": "EC", "scode": "000000", "weight": 1, "position": 348, "begin": 64, "end": 64}, 
                {"id": 64, "text": ",", "type": "SP", "scode": "000000", "weight": 1, "position": 351, "begin": 65, "end": 65}, 
                {"id": 65, "text": "반대", "type": "NNG", "scode": "030001", "weight": 0.166667, "position": 353, "begin": 66, "end": 66}, 
                {"id": 66, "text": "이", "type": "VCP", "scode": "030000", "weight": 0.0172414, "position": 359, "begin": 67, "end": 67}, 
                {"id": 67, "text": "ㄴ", "type": "ETM", "scode": "000000", "weight": 1, "position": 359, "begin": 68, "end": 68}, 
                {"id": 68, "text": "것", "type": "NNB", "scode": "010001", "weight": 0.125, "position": 363, "begin": 69, "end": 69}, 
                {"id": 69, "text": "을", "type": "JKO", "scode": "000000", "weight": 1, "position": 366, "begin": 70, "end": 70}, 
                {"id": 70, "text": "도립상", "type": "NNG", "scode": "000000", "weight": 1, "position": 370, "begin": 71, "end": 71}, 
                {"id": 71, "text": "(", "type": "SS", "scode": "000000", "weight": 1, "position": 379, "begin": 72, "end": 72}, 
                {"id": 72, "text": "倒立像", "type": "SH", "scode": "000000", "weight": 1, "position": 380, "begin": 73, "end": 73}, 
                {"id": 73, "text": ")", "type": "SS", "scode": "000000", "weight": 1, "position": 389, "begin": 74, "end": 74}, 
                {"id": 74, "text": "이라고", "type": "JKQ", "scode": "000000", "weight": 1, "position": 390, "begin": 75, "end": 75}, 
                {"id": 75, "text": "하", "type": "VV", "scode": "010400", "weight": 0.02, "position": 400, "begin": 76, "end": 76}, 
                {"id": 76, "text": "ㄴ다", "type": "EF", "scode": "000000", "weight": 1, "position": 400, "begin": 77, "end": 77}, 
                {"id": 77, "text": ".", "type": "SF", "scode": "000000", "weight": 1, "position": 406, "begin": 78, "end": 78}
            ], 
            "word": [
                {"id": 0, "text": "공간에서", "type": "", "begin": 0, "end": 1}, 
                {"id": 1, "text": "광축(光軸)에", "type": "", "begin": 2, "end": 6}, 
                {"id": 2, "text": "수직인", "type": "", "begin": 7, "end": 9}, 
                {"id": 3, "text": "평면", "type": "", "begin": 10, "end": 10}, 
                {"id": 4, "text": "내에", "type": "", "begin": 11, "end": 12}, 
                {"id": 5, "text": "있는", "type": "", "begin": 13, "end": 14}, 
                {"id": 6, "text": "물체는", "type": "", "begin": 15, "end": 16}, 
                {"id": 7, "text": "상공간의", "type": "", "begin": 17, "end": 19}, 
                {"id": 8, "text": "광축에", "type": "", "begin": 20, "end": 21}, 
                {"id": 9, "text": "수직인", "type": "", "begin": 22, "end": 24}, 
                {"id": 10, "text": "평면(상평면)", "type": "", "begin": 25, "end": 29}, 
                {"id": 11, "text": "내에", "type": "", "begin": 30, "end": 31}, 
                {"id": 12, "text": "있는", "type": "", "begin": 32, "end": 33}, 
                {"id": 13, "text": "물체와", "type": "", "begin": 34, "end": 35}, 
                {"id": 14, "text": "서로", "type": "", "begin": 36, "end": 36}, 
                {"id": 15, "text": "비슷한", "type": "", "begin": 37, "end": 38}, 
                {"id": 16, "text": "모양의", "type": "", "begin": 39, "end": 40}, 
                {"id": 17, "text": "상이", "type": "", "begin": 41, "end": 42}, 
                {"id": 18, "text": "되며", "type": "", "begin": 43, "end": 44}, 
                {"id": 19, "text": "상의", "type": "", "begin": 45, "end": 46}, 
                {"id": 20, "text": "광축에서의", "type": "", "begin": 47, "end": 49}, 
                {"id": 21, "text": "방향이", "type": "", "begin": 50, "end": 51}, 
                {"id": 22, "text": "물체와", "type": "", "begin": 52, "end": 53}, 
                {"id": 23, "text": "같은", "type": "", "begin": 54, "end": 55}, 
                {"id": 24, "text": "것을", "type": "", "begin": 56, "end": 57}, 
                {"id": 25, "text": "정립상(正立像)이라고", "type": "", "begin": 58, "end": 62}, 
                {"id": 26, "text": "하며,", "type": "", "begin": 63, "end": 65}, 
                {"id": 27, "text": "반대인", "type": "", "begin": 66, "end": 68}, 
                {"id": 28, "text": "것을", "type": "", "begin": 69, "end": 70}, 
                {"id": 29, "text": "도립상(倒立像)이라고", "type": "", "begin": 71, "end": 75}, 
                {"id": 30, "text": "한다.", "type": "", "begin": 76, "end": 78}
            ], 
            "NE": [], 
            "chunk": [], 
            "dependency": [
                {"id": 0, "text": "공간에서", "head": 5, "label": "NP_AJT", "mod": [], "weight": 0.189945}, 
                {"id": 1, "text": "광축(光軸)에", "head": 2, "label": "NP_AJT", "mod": [], "weight": 0.274571}, 
                {"id": 2, "text": "수직인", "head": 3, "label": "VNP_MOD", "mod": [1], "weight": 0.458211}, 
                {"id": 3, "text": "평면", "head": 4, "label": "NP", "mod": [2], "weight": 0.741806}, 
                {"id": 4, "text": "내에", "head": 5, "label": "NP_AJT", "mod": [3], "weight": 0.732069}, 
                {"id": 5, "text": "있는", "head": 6, "label": "VP_MOD", "mod": [4, 0], "weight": 0.770531}, 
                {"id": 6, "text": "물체는", "head": 18, "label": "NP_SBJ", "mod": [5], "weight": 0.851199}, 
                {"id": 7, "text": "상공간의", "head": 8, "label": "NP_MOD", "mod": [], "weight": 0.738469}, 
                {"id": 8, "text": "광축에", "head": 9, "label": "NP_AJT", "mod": [7], "weight": 0.688809}, 
                {"id": 9, "text": "수직인", "head": 10, "label": "VNP_MOD", "mod": [8], "weight": 0.597529}, 
                {"id": 10, "text": "평면(상평면)", "head": 11, "label": "NP", "mod": [9], "weight": 0.646979}, 
                {"id": 11, "text": "내에", "head": 12, "label": "NP_AJT", "mod": [10], "weight": 0.211637}, 
                {"id": 12, "text": "있는", "head": 13, "label": "VP_MOD", "mod": [11], "weight": 0.188129}, 
                {"id": 13, "text": "물체와", "head": 15, "label": "NP_AJT", "mod": [12], "weight": 0.46101}, 
                {"id": 14, "text": "서로", "head": 15, "label": "AP", "mod": [], "weight": 0.508176}, 
                {"id": 15, "text": "비슷한", "head": 16, "label": "VP_MOD", "mod": [14, 13], "weight": 0.548983}, 
                {"id": 16, "text": "모양의", "head": 17, "label": "NP_MOD", "mod": [15], "weight": 0.63663}, 
                {"id": 17, "text": "상이", "head": 18, "label": "NP_CMP", "mod": [16], "weight": 0.84483}, 
                {"id": 18, "text": "되며", "head": 26, "label": "VP", "mod": [6, 17], "weight": 0.835291}, 
                {"id": 19, "text": "상의", "head": 20, "label": "NP_MOD", "mod": [], "weight": 0.507653}, 
                {"id": 20, "text": "광축에서의", "head": 21, "label": "NP_MOD", "mod": [19], "weight": 0.650533}, 
                {"id": 21, "text": "방향이", "head": 23, "label": "NP_SBJ", "mod": [20], "weight": 0.864202}, 
                {"id": 22, "text": "물체와", "head": 23, "label": "NP_AJT", "mod": [], "weight": 0.566075}, 
                {"id": 23, "text": "같은", "head": 24, "label": "VP_MOD", "mod": [22, 21], "weight": 0.877006}, 
                {"id": 24, "text": "것을", "head": 26, "label": "NP_OBJ", "mod": [23], "weight": 0.870396}, 
                {"id": 25, "text": "정립상(正立像)이라고", "head": 26, "label": "NP_CMP", "mod": [], "weight": 0.501478}, 
                {"id": 26, "text": "하며,", "head": 29, "label": "VP", "mod": [25, 24, 18], "weight": 0.818309}, 
                {"id": 27, "text": "반대인", "head": 28, "label": "VNP_MOD", "mod": [], "weight": 0.602691}, 
                {"id": 28, "text": "것을", "head": 29, "label": "NP_OBJ", "mod": [27], "weight": 0.741214}, 
                {"id": 29, "text": "도립상(倒立像)이라고", "head": 30, "label": "VNP_CMP", "mod": [26, 28], "weight": 0.512998}, 
                {"id": 30, "text": "한다.", "head": -1, "label": "VP", "mod": [29], "weight": 3.62968e-08}
            ], 
            "SRL": [
                {"verb": "있", "sense": 1, "word_id": 5, "weight": 0.216264, "argument": [
                    {"type": "ARG2", "word_id": 4, "text": "내에", "weight": 0.185421}, 
                    {"type": "ARG1", "word_id": 6, "text": "물체는", "weight": 0.247108}, 
                    {"type": "ARGM-PRD", "word_id": 0, "text": "공간에서", "weight": 1}
                ]}, 
                {"verb": "있", "sense": 1, "word_id": 12, "weight": 0.256495, "argument": [
                    {"type": "ARG2", "word_id": 11, "text": "내에", "weight": 0.176783}, 
                    {"type": "ARG1", "word_id": 13, "text": "물체와", "weight": 0.336207}
                ]}, 
                {"verb": "비슷하", "sense": 1, "word_id": 15, "weight": 0.15412, "argument": [
                    {"type": "ARG2", "word_id": 13, "text": "물체와", "weight": 0.133755}, 
                    {"type": "ARGM-ADV", "word_id": 14, "text": "서로", "weight": 0.138919}, 
                    {"type": "ARG1", "word_id": 17, "text": "상이", "weight": 1}
                ]}, 
                {"verb": "되", "sense": 1, "word_id": 18, "weight": 0.270363, "argument": [
                    {"type": "ARG1", "word_id": 6, "text": "물체는", "weight": 0.239084}, 
                    {"type": "ARG2", "word_id": 17, "text": "상이", "weight": 0.301641}
                ]}, 
                {"verb": "같", "sense": 1, "word_id": 23, "weight": 0.255853, "argument": [
                    {"type": "ARG1", "word_id": 21, "text": "방향이", "weight": 0.309137}, 
                    {"type": "ARG2", "word_id": 22, "text": "물체와", "weight": 0.172365}
                ]}, 
                {"verb": "하", "sense": 2, "word_id": 26, "weight": 0.181617, "argument": [
                    {"type": "ARG1", "word_id": 24, "text": "것을", "weight": 0.217601}, 
                    {"type": "ARG2", "word_id": 25, "text": "정립상(正立像)이라고", "weight": 1}
                ]}, 
                {"verb": "하", "sense": 2, "word_id": 30, "weight": 0.23817, "argument": [
                    {"type": "ARG1", "word_id": 28, "text": "것을", "weight": 0.284169}, 
                    {"type": "ARG2", "word_id": 29, "text": "도립상(倒立像)이라고", "weight": 0.19217}
                ]}
            ], 
            "relation": [], 
            "SA": [], 
            "ZA": []
        }
    ], 
    "entity": [
        {"id": 0, "type": "", "number": "singular", "gender": "", "person": "", "animacy": "thing", "mention": [
            {"id": 1, "sent_id": 0, "start_eid": 0, "end_eid": 1, "ne_id": -1, "text": "평면거울 등의", "start_eid_short": 0, "end_eid_short": 1, "text_short": "평면거울 등의"}
        ]}, 
        {"id": 1, "type": "", "number": "singular", "gender": "", "person": "", "animacy": "thing", "mention": [
            {"id": 2, "sent_id": 0, "start_eid": 0, "end_eid": 0, "ne_id": -1, "text": "평면거울", "start_eid_short": 0, "end_eid_short": 0, "text_short": "평면거울"}
        ]}, 
        {"id": 2, "type": "", "number": "singular", "gender": "", "person": "", "animacy": "thing", "mention": [
            {"id": 0, "sent_id": 0, "start_eid": 0, "end_eid": 2, "ne_id": -1, "text": "평면거울 등의 허상은", "start_eid_short": 2, "end_eid_short": 2, "text_short": "허상은"}, 
            {"id": 3, "sent_id": 0, "start_eid": 3, "end_eid": 5, "ne_id": -1, "text": "반전을 동반한 거울상이", "start_eid_short": 5, "end_eid_short": 5, "text_short": "거울상이"}
        ]}, 
        {"id": 3, "type": "", "number": "singular", "gender": "", "person": "", "animacy": "thing", "mention": [
            {"id": 4, "sent_id": 0, "start_eid": 3, "end_eid": 3, "ne_id": -1, "text": "반전을", "start_eid_short": 3, "end_eid_short": 3, "text_short": "반전을"}
        ]}, 
        {"id": 4, "type": "", "number": "singular", "gender": "", "person": "", "animacy": "thing", "mention": [
            {"id": 7, "sent_id": 1, "start_eid": 0, "end_eid": 0, "ne_id": -1, "text": "공간에서", "start_eid_short": 0, "end_eid_short": 0, "text_short": "공간에서"}
        ]}, 
        {"id": 5, "type": "", "number": "singular", "gender": "", "person": "", "animacy": "thing", "mention": [
            {"id": 8, "sent_id": 1, "start_eid": 1, "end_eid": 3, "ne_id": -1, "text": "광축(光軸)에 수직인 평면", "start_eid_short": 3, "end_eid_short": 0, "text_short": ""}
        ]}, 
        {"id": 6, "type": "", "number": "singular", "gender": "", "person": "", "animacy": "thing", "mention": [
            {"id": 5, "sent_id": 1, "start_eid": 0, "end_eid": 6, "ne_id": -1, "text": "공간에서 광축(光軸)에 수직인 평면 내에 있는 물체는", "start_eid_short": 6, "end_eid_short": 6, "text_short": "물체는"}
        ]}, 
        {"id": 7, "type": "", "number": "singular", "gender": "", "person": "", "animacy": "thing", "mention": [
            {"id": 12, "sent_id": 1, "start_eid": 7, "end_eid": 8, "ne_id": -1, "text": "상공간의 광축에", "start_eid_short": 8, "end_eid_short": 8, "text_short": "광축에"}
        ]}, 
        {"id": 8, "type": "", "number": "singular", "gender": "", "person": "", "animacy": "thing", "mention": [
            {"id": 13, "sent_id": 1, "start_eid": 7, "end_eid": 7, "ne_id": -1, "text": "상공간의", "start_eid_short": 7, "end_eid_short": 7, "text_short": "상공간의"}
        ]}, 
        {"id": 9, "type": "", "number": "singular", "gender": "", "person": "", "animacy": "thing", "mention": [
            {"id": 16, "sent_id": 1, "start_eid": 14, "end_eid": 16, "ne_id": -1, "text": "서로 비슷한 모양의", "start_eid_short": 16, "end_eid_short": 16, "text_short": "모양의"}
        ]}, 
        {"id": 10, "type": "", "number": "singular", "gender": "", "person": "", "animacy": "thing", "mention": [
            {"id": 15, "sent_id": 1, "start_eid": 14, "end_eid": 17, "ne_id": -1, "text": "서로 비슷한 모양의 상이", "start_eid_short": 17, "end_eid_short": 17, "text_short": "상이"}
        ]}, 
        {"id": 11, "type": "", "number": "singular", "gender": "", "person": "", "animacy": "thing", "mention": [
            {"id": 18, "sent_id": 1, "start_eid": 19, "end_eid": 21, "ne_id": -1, "text": "상의 광축에서의 방향이", "start_eid_short": 21, "end_eid_short": 21, "text_short": "방향이"}
        ]}, 
        {"id": 12, "type": "", "number": "singular", "gender": "", "person": "", "animacy": "thing", "mention": [
            {"id": 6, "sent_id": 1, "start_eid": 0, "end_eid": 4, "ne_id": -1, "text": "공간에서 광축(光軸)에 수직인 평면 내에", "start_eid_short": 3, "end_eid_short": 4, "text_short": "평면 내에"}, 
            {"id": 11, "sent_id": 1, "start_eid": 7, "end_eid": 11, "ne_id": -1, "text": "상공간의 광축에 수직인 평면(상평면) 내에", "start_eid_short": 11, "end_eid_short": 11, "text_short": "내에"}
        ]}, 
        {"id": 13, "type": "", "number": "singular", "gender": "", "person": "", "animacy": "thing", "mention": [
            {"id": 17, "sent_id": 1, "start_eid": 19, "end_eid": 24, "ne_id": -1, "text": "상의 광축에서의 방향이 물체와 같은 것을", "start_eid_short": 24, "end_eid_short": 24, "text_short": "것을"}, 
            {"id": 22, "sent_id": 1, "start_eid": 25, "end_eid": 25, "ne_id": -1, "text": "정립상(正立像)이라고", "start_eid_short": 25, "end_eid_short": 0, "text_short": ""}
        ]}, 
        {"id": 14, "type": "", "number": "singular", "gender": "", "person": "", "animacy": "thing", "mention": [
            {"id": 23, "sent_id": 1, "start_eid": 27, "end_eid": 28, "ne_id": -1, "text": "반대인 것을", "start_eid_short": 28, "end_eid_short": 28, "text_short": "것을"}, 
            {"id": 24, "sent_id": 1, "start_eid": 29, "end_eid": 29, "ne_id": -1, "text": "도립상(倒立像)이라고", "start_eid_short": 29, "end_eid_short": 0, "text_short": ""}
        ]}, 
        {"id": 15, "type": "", "number": "singular", "gender": "", "person": "", "animacy": "thing", "mention": [
            {"id": 10, "sent_id": 1, "start_eid": 7, "end_eid": 13, "ne_id": -1, "text": "상공간의 광축에 수직인 평면(상평면) 내에 있는 물체와", "start_eid_short": 13, "end_eid_short": 13, "text_short": "물체와"}
        ]}, 
        {"id": 16, "type": "", "number": "singular", "gender": "", "person": "", "animacy": "thing", "mention": [
            {"id": 21, "sent_id": 1, "start_eid": 22, "end_eid": 22, "ne_id": -1, "text": "물체와", "start_eid_short": 22, "end_eid_short": 22, "text_short": "물체와"}
        ]}, 
        {"id": 17, "type": "", "number": "singular", "gender": "", "person": "", "animacy": "thing", "mention": [
            {"id": 20, "sent_id": 1, "start_eid": 19, "end_eid": 19, "ne_id": -1, "text": "상의", "start_eid_short": 19, "end_eid_short": 19, "text_short": "상의"}
        ]}, 
        {"id": 18, "type": "", "number": "singular", "gender": "", "person": "", "animacy": "thing", "mention": [
            {"id": 9, "sent_id": 1, "start_eid": 1, "end_eid": 1, "ne_id": -1, "text": "광축(光軸)에", "start_eid_short": 1, "end_eid_short": 0, "text_short": ""}, 
            {"id": 19, "sent_id": 1, "start_eid": 19, "end_eid": 20, "ne_id": -1, "text": "상의 광축에서의", "start_eid_short": 20, "end_eid_short": 20, "text_short": "광축에서의"}
        ]}, 
        {"id": 19, "type": "", "number": "singular", "gender": "", "person": "", "animacy": "thing", "mention": [
            {"id": 14, "sent_id": 1, "start_eid": 9, "end_eid": 9, "ne_id": -1, "text": "수직인", "start_eid_short": 9, "end_eid_short": 9, "text_short": "수직인"}
        ]}
    ]
}