{
    "doc_id": "E2016.790.14_Q_01.json", 
    "DCT": "", 
    "category": "", 
    "category_weight": 0, 
    "title": {
        "text": "", 
        "NE": ""
    }, 
    "metaInfo": {}, 
    "sentence": [
        {
            "id": 0, 
            "reserve_str": "", 
            "text": "흔히 알츠하이머병으로 알려진 2음절의 이것은 지능, 의지, 기억 등의 인지기능이 현저하게 감퇴한 것을 뜻한다.", 
            "morp": [
                {"id": 0, "lemma": "흔히", "type": "MAG", "position": 0, "weight": 0.9}, 
                {"id": 1, "lemma": "알츠하이머", "type": "NNP", "position": 7, "weight": 0.25}, 
                {"id": 2, "lemma": "병", "type": "NNG", "position": 22, "weight": 0.184718}, 
                {"id": 3, "lemma": "으로", "type": "JKB", "position": 25, "weight": 0.153406}, 
                {"id": 4, "lemma": "알려지", "type": "VV", "position": 32, "weight": 0.9}, 
                {"id": 5, "lemma": "ㄴ", "type": "ETM", "position": 38, "weight": 0.304215}, 
                {"id": 6, "lemma": "2", "type": "SN", "position": 42, "weight": 1}, 
                {"id": 7, "lemma": "음절", "type": "NNG", "position": 43, "weight": 0.9}, 
                {"id": 8, "lemma": "의", "type": "JKG", "position": 49, "weight": 0.0694213}, 
                {"id": 9, "lemma": "이것", "type": "NP", "position": 53, "weight": 0.0030442}, 
                {"id": 10, "lemma": "은", "type": "JX", "position": 59, "weight": 0.191811}, 
                {"id": 11, "lemma": "지능", "type": "NNG", "position": 63, "weight": 0.9}, 
                {"id": 12, "lemma": ",", "type": "SP", "position": 69, "weight": 1}, 
                {"id": 13, "lemma": "의지", "type": "NNG", "position": 71, "weight": 0.531111}, 
                {"id": 14, "lemma": ",", "type": "SP", "position": 77, "weight": 1}, 
                {"id": 15, "lemma": "기억", "type": "NNG", "position": 79, "weight": 0.9}, 
                {"id": 16, "lemma": "등", "type": "NNB", "position": 86, "weight": 0.0146757}, 
                {"id": 17, "lemma": "의", "type": "JKG", "position": 89, "weight": 0.0520933}, 
                {"id": 18, "lemma": "인지", "type": "NNG", "position": 93, "weight": 0.842394}, 
                {"id": 19, "lemma": "기능", "type": "NNG", "position": 99, "weight": 0.184796}, 
                {"id": 20, "lemma": "이", "type": "JKS", "position": 105, "weight": 0.0360723}, 
                {"id": 21, "lemma": "현저", "type": "NNG", "position": 109, "weight": 0.1}, 
                {"id": 22, "lemma": "하", "type": "XSA", "position": 115, "weight": 0.0001}, 
                {"id": 23, "lemma": "게", "type": "EC", "position": 118, "weight": 0.362254}, 
                {"id": 24, "lemma": "감퇴", "type": "NNG", "position": 122, "weight": 0.9}, 
                {"id": 25, "lemma": "하", "type": "XSV", "position": 128, "weight": 0.0001}, 
                {"id": 26, "lemma": "ㄴ", "type": "ETM", "position": 128, "weight": 0.392321}, 
                {"id": 27, "lemma": "것", "type": "NNB", "position": 132, "weight": 0.228788}, 
                {"id": 28, "lemma": "을", "type": "JKO", "position": 135, "weight": 0.0630104}, 
                {"id": 29, "lemma": "뜻", "type": "NNG", "position": 139, "weight": 0.9}, 
                {"id": 30, "lemma": "하", "type": "XSV", "position": 142, "weight": 0.0001}, 
                {"id": 31, "lemma": "ㄴ다", "type": "EF", "position": 142, "weight": 0.0449045}, 
                {"id": 32, "lemma": ".", "type": "SF", "position": 148, "weight": 1}
            ], 
            "morp_eval": [], 
            "WSD": [
                {"id": 0, "text": "흔히", "type": "MAG", "scode": "000000", "weight": 1, "position": 0, "begin": 0, "end": 0}, 
                {"id": 1, "text": "알츠하이머병", "type": "NNP", "scode": "000000", "weight": 1, "position": 7, "begin": 1, "end": 2}, 
                {"id": 2, "text": "으로", "type": "JKB", "scode": "000000", "weight": 1, "position": 25, "begin": 3, "end": 3}, 
                {"id": 3, "text": "알려지", "type": "VV", "scode": "000002", "weight": 0.5, "position": 32, "begin": 4, "end": 4}, 
                {"id": 4, "text": "ㄴ", "type": "ETM", "scode": "000000", "weight": 1, "position": 38, "begin": 5, "end": 5}, 
                {"id": 5, "text": "2", "type": "SN", "scode": "000000", "weight": 1, "position": 42, "begin": 6, "end": 6}, 
                {"id": 6, "text": "음절", "type": "NNG", "scode": "000001", "weight": 0.5, "position": 43, "begin": 7, "end": 7}, 
                {"id": 7, "text": "의", "type": "JKG", "scode": "000000", "weight": 1, "position": 49, "begin": 8, "end": 8}, 
                {"id": 8, "text": "이것", "type": "NP", "scode": "000001", "weight": 0.25, "position": 53, "begin": 9, "end": 9}, 
                {"id": 9, "text": "은", "type": "JX", "scode": "000000", "weight": 1, "position": 59, "begin": 10, "end": 10}, 
                {"id": 10, "text": "지능", "type": "NNG", "scode": "000001", "weight": 0.333333, "position": 63, "begin": 11, "end": 11}, 
                {"id": 11, "text": ",", "type": "SP", "scode": "000000", "weight": 1, "position": 69, "begin": 12, "end": 12}, 
                {"id": 12, "text": "의지", "type": "NNG", "scode": "060001", "weight": 0.0909091, "position": 71, "begin": 13, "end": 13}, 
                {"id": 13, "text": ",", "type": "SP", "scode": "000000", "weight": 1, "position": 77, "begin": 14, "end": 14}, 
                {"id": 14, "text": "기억", "type": "NNG", "scode": "020002", "weight": 0.25, "position": 79, "begin": 15, "end": 15}, 
                {"id": 15, "text": "등", "type": "NNB", "scode": "050001", "weight": 0.0526316, "position": 86, "begin": 16, "end": 16}, 
                {"id": 16, "text": "의", "type": "JKG", "scode": "000000", "weight": 1, "position": 89, "begin": 17, "end": 17}, 
                {"id": 17, "text": "인지", "type": "NNG", "scode": "080001", "weight": 0.0909091, "position": 93, "begin": 18, "end": 18}, 
                {"id": 18, "text": "기능", "type": "NNG", "scode": "030001", "weight": 0.25, "position": 99, "begin": 19, "end": 19}, 
                {"id": 19, "text": "이", "type": "JKS", "scode": "000000", "weight": 1, "position": 105, "begin": 20, "end": 20}, 
                {"id": 20, "text": "현저하", "type": "VA", "scode": "020000", "weight": 0.5, "position": 109, "begin": 21, "end": 22}, 
                {"id": 21, "text": "게", "type": "EC", "scode": "000000", "weight": 1, "position": 118, "begin": 23, "end": 23}, 
                {"id": 22, "text": "감퇴하", "type": "VV", "scode": "000000", "weight": 1, "position": 122, "begin": 24, "end": 25}, 
                {"id": 23, "text": "ㄴ", "type": "ETM", "scode": "000000", "weight": 1, "position": 128, "begin": 26, "end": 26}, 
                {"id": 24, "text": "것", "type": "NNB", "scode": "010001", "weight": 0.125, "position": 132, "begin": 27, "end": 27}, 
                {"id": 25, "text": "을", "type": "JKO", "scode": "000000", "weight": 1, "position": 135, "begin": 28, "end": 28}, 
                {"id": 26, "text": "뜻하", "type": "VV", "scode": "000200", "weight": 0.333333, "position": 139, "begin": 29, "end": 30}, 
                {"id": 27, "text": "ㄴ다", "type": "EF", "scode": "000000", "weight": 1, "position": 142, "begin": 31, "end": 31}, 
                {"id": 28, "text": ".", "type": "SF", "scode": "000000", "weight": 1, "position": 148, "begin": 32, "end": 32}
            ], 
            "word": [
                {"id": 0, "text": "흔히", "type": "", "begin": 0, "end": 0}, 
                {"id": 1, "text": "알츠하이머병으로", "type": "", "begin": 1, "end": 3}, 
                {"id": 2, "text": "알려진", "type": "", "begin": 4, "end": 5}, 
                {"id": 3, "text": "2음절의", "type": "", "begin": 6, "end": 8}, 
                {"id": 4, "text": "이것은", "type": "", "begin": 9, "end": 10}, 
                {"id": 5, "text": "지능,", "type": "", "begin": 11, "end": 12}, 
                {"id": 6, "text": "의지,", "type": "", "begin": 13, "end": 14}, 
                {"id": 7, "text": "기억", "type": "", "begin": 15, "end": 15}, 
                {"id": 8, "text": "등의", "type": "", "begin": 16, "end": 17}, 
                {"id": 9, "text": "인지기능이", "type": "", "begin": 18, "end": 20}, 
                {"id": 10, "text": "현저하게", "type": "", "begin": 21, "end": 23}, 
                {"id": 11, "text": "감퇴한", "type": "", "begin": 24, "end": 26}, 
                {"id": 12, "text": "것을", "type": "", "begin": 27, "end": 28}, 
                {"id": 13, "text": "뜻한다.", "type": "", "begin": 29, "end": 32}
            ], 
            "NE": [
                {"id": 0, "text": "알츠하이머병", "type": "TMM_DISEASE", "begin": 1, "end": 2, "weight": 0.463916, "common_noun": 0}, 
                {"id": 1, "text": "2음절", "type": "QT_COUNT", "begin": 6, "end": 7, "weight": 0.534126, "common_noun": 0}
            ], 
            "chunk": [], 
            "dependency": [
                {"id": 0, "text": "흔히", "head": 2, "label": "AP", "mod": [], "weight": 0.1479}, 
                {"id": 1, "text": "알츠하이머병으로", "head": 2, "label": "NP_AJT", "mod": [], "weight": 0.786161}, 
                {"id": 2, "text": "알려진", "head": 4, "label": "VP_MOD", "mod": [0, 1], "weight": 0.225186}, 
                {"id": 3, "text": "2음절의", "head": 4, "label": "NP_MOD", "mod": [], "weight": 0.494199}, 
                {"id": 4, "text": "이것은", "head": 13, "label": "NP_SBJ", "mod": [3, 2], "weight": 0.834014}, 
                {"id": 5, "text": "지능,", "head": 7, "label": "NP_CNJ", "mod": [], "weight": 0.734013}, 
                {"id": 6, "text": "의지,", "head": 7, "label": "NP_CNJ", "mod": [], "weight": 0.601296}, 
                {"id": 7, "text": "기억", "head": 8, "label": "NP", "mod": [5, 6], "weight": 0.807405}, 
                {"id": 8, "text": "등의", "head": 9, "label": "NP_MOD", "mod": [7], "weight": 0.68959}, 
                {"id": 9, "text": "인지기능이", "head": 11, "label": "NP_SBJ", "mod": [8], "weight": 0.516302}, 
                {"id": 10, "text": "현저하게", "head": 11, "label": "VP_AJT", "mod": [], "weight": 0.670573}, 
                {"id": 11, "text": "감퇴한", "head": 12, "label": "VP_MOD", "mod": [9, 10], "weight": 0.737749}, 
                {"id": 12, "text": "것을", "head": 13, "label": "NP_OBJ", "mod": [11], "weight": 0.680152}, 
                {"id": 13, "text": "뜻한다.", "head": -1, "label": "VP", "mod": [4, 12], "weight": 0.00042034}
            ], 
            "SRL": [
                {"verb": "알려지", "sense": 1, "word_id": 2, "weight": 0.128517, "argument": [
                    {"type": "ARG2", "word_id": 1, "text": "알츠하이머병으로", "weight": 1}, 
                    {"type": "ARG1", "word_id": 4, "text": "이것은", "weight": 1}
                ]}, 
                {"verb": "감퇴", "sense": 1, "word_id": 11, "weight": 0.143939, "argument": [
                    {"type": "ARG1", "word_id": 9, "text": "인지기능이", "weight": 0.176745}, 
                    {"type": "ARGM-MNR", "word_id": 10, "text": "현저하게", "weight": 0.111132}
                ]}, 
                {"verb": "뜻하", "sense": 1, "word_id": 13, "weight": 0.258794, "argument": [
                    {"type": "ARG1", "word_id": 4, "text": "이것은", "weight": 0.142939}, 
                    {"type": "ARG2", "word_id": 12, "text": "것을", "weight": 0.374649}
                ]}
            ], 
            "relation": [], 
            "SA": [], 
            "ZA": []
        }, 
        {
            "id": 1, 
            "reserve_str": "", 
            "text": "대뇌 신경세포의 광범위한 손상에 의해 발생하는 정신작용의 장애를 지칭하는 이것은 무엇일까?", 
            "morp": [
                {"id": 0, "lemma": "대뇌", "type": "NNG", "position": 149, "weight": 0.9}, 
                {"id": 1, "lemma": "신경", "type": "NNG", "position": 156, "weight": 0.184633}, 
                {"id": 2, "lemma": "세포", "type": "NNG", "position": 162, "weight": 0.184757}, 
                {"id": 3, "lemma": "의", "type": "JKG", "position": 168, "weight": 0.0694213}, 
                {"id": 4, "lemma": "광범위", "type": "NNG", "position": 172, "weight": 0.45}, 
                {"id": 5, "lemma": "하", "type": "XSA", "position": 181, "weight": 0.0001}, 
                {"id": 6, "lemma": "ㄴ", "type": "ETM", "position": 181, "weight": 0.488779}, 
                {"id": 7, "lemma": "손상", "type": "NNG", "position": 185, "weight": 0.9}, 
                {"id": 8, "lemma": "에", "type": "JKB", "position": 191, "weight": 0.153364}, 
                {"id": 9, "lemma": "의하", "type": "VV", "position": 195, "weight": 0.9}, 
                {"id": 10, "lemma": "아", "type": "EC", "position": 198, "weight": 0.41831}, 
                {"id": 11, "lemma": "발생", "type": "NNG", "position": 202, "weight": 0.9}, 
                {"id": 12, "lemma": "하", "type": "XSV", "position": 208, "weight": 0.0001}, 
                {"id": 13, "lemma": "는", "type": "ETM", "position": 211, "weight": 0.238503}, 
                {"id": 14, "lemma": "정신", "type": "NNG", "position": 215, "weight": 0.658742}, 
                {"id": 15, "lemma": "작용", "type": "NNG", "position": 221, "weight": 0.9}, 
                {"id": 16, "lemma": "의", "type": "JKG", "position": 227, "weight": 0.0694213}, 
                {"id": 17, "lemma": "장애", "type": "NNG", "position": 231, "weight": 0.9}, 
                {"id": 18, "lemma": "를", "type": "JKO", "position": 237, "weight": 0.137686}, 
                {"id": 19, "lemma": "지칭", "type": "NNG", "position": 241, "weight": 0.9}, 
                {"id": 20, "lemma": "하", "type": "XSV", "position": 247, "weight": 0.0001}, 
                {"id": 21, "lemma": "는", "type": "ETM", "position": 250, "weight": 0.238503}, 
                {"id": 22, "lemma": "이것", "type": "NP", "position": 254, "weight": 0.0102992}, 
                {"id": 23, "lemma": "은", "type": "JX", "position": 260, "weight": 0.191811}, 
                {"id": 24, "lemma": "무엇", "type": "NP", "position": 264, "weight": 0.9}, 
                {"id": 25, "lemma": "이", "type": "VCP", "position": 270, "weight": 0.0175768}, 
                {"id": 26, "lemma": "ㄹ까", "type": "EF", "position": 270, "weight": 0.258243}, 
                {"id": 27, "lemma": "?", "type": "SF", "position": 276, "weight": 1}
            ], 
            "morp_eval": [], 
            "WSD": [
                {"id": 0, "text": "대뇌", "type": "NNG", "scode": "000000", "weight": 1, "position": 149, "begin": 0, "end": 0}, 
                {"id": 1, "text": "신경세포", "type": "NNG", "scode": "000000", "weight": 1, "position": 156, "begin": 1, "end": 2}, 
                {"id": 2, "text": "의", "type": "JKG", "scode": "000000", "weight": 1, "position": 168, "begin": 3, "end": 3}, 
                {"id": 3, "text": "광범위하", "type": "VA", "scode": "000000", "weight": 1, "position": 172, "begin": 4, "end": 5}, 
                {"id": 4, "text": "ㄴ", "type": "ETM", "scode": "000000", "weight": 1, "position": 181, "begin": 6, "end": 6}, 
                {"id": 5, "text": "손상", "type": "NNG", "scode": "000002", "weight": 0.25, "position": 185, "begin": 7, "end": 7}, 
                {"id": 6, "text": "에", "type": "JKB", "scode": "000000", "weight": 1, "position": 191, "begin": 8, "end": 8}, 
                {"id": 7, "text": "의하", "type": "VV", "scode": "010000", "weight": 0.5, "position": 195, "begin": 9, "end": 9}, 
                {"id": 8, "text": "아", "type": "EC", "scode": "000000", "weight": 1, "position": 198, "begin": 10, "end": 10}, 
                {"id": 9, "text": "발생하", "type": "VV", "scode": "000001", "weight": 0.5, "position": 202, "begin": 11, "end": 12}, 
                {"id": 10, "text": "는", "type": "ETM", "scode": "000000", "weight": 1, "position": 211, "begin": 13, "end": 13}, 
                {"id": 11, "text": "정신", "type": "NNG", "scode": "120001", "weight": 0.0555556, "position": 215, "begin": 14, "end": 14}, 
                {"id": 12, "text": "작용", "type": "NNG", "scode": "010001", "weight": 0.25, "position": 221, "begin": 15, "end": 15}, 
                {"id": 13, "text": "의", "type": "JKG", "scode": "000000", "weight": 1, "position": 227, "begin": 16, "end": 16}, 
                {"id": 14, "text": "장애", "type": "NNG", "scode": "020002", "weight": 0.2, "position": 231, "begin": 17, "end": 17}, 
                {"id": 15, "text": "를", "type": "JKO", "scode": "000000", "weight": 1, "position": 237, "begin": 18, "end": 18}, 
                {"id": 16, "text": "지칭하", "type": "VV", "scode": "000000", "weight": 1, "position": 241, "begin": 19, "end": 20}, 
                {"id": 17, "text": "는", "type": "ETM", "scode": "000000", "weight": 1, "position": 250, "begin": 21, "end": 21}, 
                {"id": 18, "text": "이것", "type": "NP", "scode": "000001", "weight": 0.25, "position": 254, "begin": 22, "end": 22}, 
                {"id": 19, "text": "은", "type": "JX", "scode": "000000", "weight": 1, "position": 260, "begin": 23, "end": 23}, 
                {"id": 20, "text": "무엇", "type": "NP", "scode": "000001", "weight": 0.5, "position": 264, "begin": 24, "end": 24}, 
                {"id": 21, "text": "이", "type": "VCP", "scode": "030000", "weight": 0.0172414, "position": 270, "begin": 25, "end": 25}, 
                {"id": 22, "text": "ㄹ까", "type": "EF", "scode": "000000", "weight": 1, "position": 270, "begin": 26, "end": 26}, 
                {"id": 23, "text": "?", "type": "SF", "scode": "000000", "weight": 1, "position": 276, "begin": 27, "end": 27}
            ], 
            "word": [
                {"id": 0, "text": "대뇌", "type": "", "begin": 0, "end": 0}, 
                {"id": 1, "text": "신경세포의", "type": "", "begin": 1, "end": 3}, 
                {"id": 2, "text": "광범위한", "type": "", "begin": 4, "end": 6}, 
                {"id": 3, "text": "손상에", "type": "", "begin": 7, "end": 8}, 
                {"id": 4, "text": "의해", "type": "", "begin": 9, "end": 10}, 
                {"id": 5, "text": "발생하는", "type": "", "begin": 11, "end": 13}, 
                {"id": 6, "text": "정신작용의", "type": "", "begin": 14, "end": 16}, 
                {"id": 7, "text": "장애를", "type": "", "begin": 17, "end": 18}, 
                {"id": 8, "text": "지칭하는", "type": "", "begin": 19, "end": 21}, 
                {"id": 9, "text": "이것은", "type": "", "begin": 22, "end": 23}, 
                {"id": 10, "text": "무엇일까?", "type": "", "begin": 24, "end": 27}
            ], 
            "NE": [
                {"id": 0, "text": "대뇌 신경세포", "type": "TM_CELL_TISSUE", "begin": 0, "end": 2, "weight": 0.698298, "common_noun": 0}
            ], 
            "chunk": [], 
            "dependency": [
                {"id": 0, "text": "대뇌", "head": 1, "label": "NP", "mod": [], "weight": 0.652365}, 
                {"id": 1, "text": "신경세포의", "head": 3, "label": "NP_MOD", "mod": [0], "weight": 0.686468}, 
                {"id": 2, "text": "광범위한", "head": 3, "label": "VP_MOD", "mod": [], "weight": 0.714126}, 
                {"id": 3, "text": "손상에", "head": 4, "label": "NP_AJT", "mod": [1, 2], "weight": 0.815051}, 
                {"id": 4, "text": "의해", "head": 5, "label": "VP", "mod": [3], "weight": 0.783386}, 
                {"id": 5, "text": "발생하는", "head": 7, "label": "VP_MOD", "mod": [4], "weight": 0.734135}, 
                {"id": 6, "text": "정신작용의", "head": 7, "label": "NP_MOD", "mod": [], "weight": 0.737208}, 
                {"id": 7, "text": "장애를", "head": 8, "label": "NP_OBJ", "mod": [5, 6], "weight": 0.737922}, 
                {"id": 8, "text": "지칭하는", "head": 9, "label": "VP_MOD", "mod": [7], "weight": 0.888823}, 
                {"id": 9, "text": "이것은", "head": 10, "label": "NP_SBJ", "mod": [8], "weight": 0.727527}, 
                {"id": 10, "text": "무엇일까?", "head": -1, "label": "VNP", "mod": [9], "weight": 0.044011}
            ], 
            "SRL": [
                {"verb": "광범위", "sense": 1, "word_id": 2, "weight": 0.3322, "argument": [
                    {"type": "ARG1", "word_id": 3, "text": "손상에", "weight": 0.3322}
                ]}, 
                {"verb": "의하", "sense": 1, "word_id": 4, "weight": 0.265589, "argument": [
                    {"type": "ARG2", "word_id": 3, "text": "손상에", "weight": 0.265589}, 
                    {"type": "ARG1", "word_id": 7, "text": "장애를", "weight": 1}
                ]}, 
                {"verb": "발생", "sense": 1, "word_id": 5, "weight": 0.244718, "argument": [
                    {"type": "ARG1", "word_id": 7, "text": "장애를", "weight": 0.244718}, 
                    {"type": "ARGM-CAU", "word_id": 4, "text": "의해", "weight": 1}
                ]}, 
                {"verb": "지칭", "sense": 1, "word_id": 8, "weight": 0.203036, "argument": [
                    {"type": "ARG2", "word_id": 7, "text": "장애를", "weight": 1}, 
                    {"type": "ARG1", "word_id": 9, "text": "이것은", "weight": 1}
                ]}
            ], 
            "relation": [], 
            "SA": [], 
            "ZA": []
        }
    ], 
    "entity": [
        {"id": 0, "type": "TMM_DISEASE", "number": "singular", "gender": "", "person": "", "animacy": "thing", "mention": [
            {"id": 0, "sent_id": 0, "start_eid": 1, "end_eid": 1, "ne_id": 0, "text": "알츠하이머병으로", "start_eid_short": 1, "end_eid_short": 1, "text_short": "알츠하이머병으로"}, 
            {"id": 2, "sent_id": 0, "start_eid": 4, "end_eid": 4, "ne_id": -1, "text": "이것은", "start_eid_short": 4, "end_eid_short": 4, "text_short": "이것은"}, 
            {"id": 3, "sent_id": 0, "start_eid": 5, "end_eid": 12, "ne_id": -1, "text": "지능, 의지, 기억 등의 인지기능이 현저하게 감퇴한 것을", "start_eid_short": 12, "end_eid_short": 12, "text_short": "것을"}, 
            {"id": 9, "sent_id": 1, "start_eid": 0, "end_eid": 7, "ne_id": -1, "text": "대뇌 신경세포의 광범위한 손상에 의해 발생하는 정신작용의 장애를", "start_eid_short": 7, "end_eid_short": 7, "text_short": "장애를"}, 
            {"id": 13, "sent_id": 1, "start_eid": 9, "end_eid": 9, "ne_id": -1, "text": "이것은", "start_eid_short": 9, "end_eid_short": 9, "text_short": "이것은"}, 
            {"id": 14, "sent_id": 1, "start_eid": 10, "end_eid": 10, "ne_id": -1, "text": "무엇일까?", "start_eid_short": 10, "end_eid_short": 10, "text_short": "무엇일까?"}
        ]}, 
        {"id": 1, "type": "QT_COUNT", "number": "singular", "gender": "", "person": "", "animacy": "thing", "mention": [
            {"id": 1, "sent_id": 0, "start_eid": 3, "end_eid": 3, "ne_id": 1, "text": "2음절의", "start_eid_short": 3, "end_eid_short": 3, "text_short": "2음절의"}
        ]}, 
        {"id": 2, "type": "", "number": "singular", "gender": "", "person": "", "animacy": "thing", "mention": [
            {"id": 5, "sent_id": 0, "start_eid": 5, "end_eid": 8, "ne_id": -1, "text": "지능, 의지, 기억 등의", "start_eid_short": 7, "end_eid_short": 8, "text_short": "기억 등의"}
        ]}, 
        {"id": 3, "type": "", "number": "singular", "gender": "", "person": "", "animacy": "thing", "mention": [
            {"id": 4, "sent_id": 0, "start_eid": 5, "end_eid": 9, "ne_id": -1, "text": "지능, 의지, 기억 등의 인지기능이", "start_eid_short": 9, "end_eid_short": 9, "text_short": "인지기능이"}
        ]}, 
        {"id": 4, "type": "", "number": "singular", "gender": "", "person": "", "animacy": "thing", "mention": [
            {"id": 10, "sent_id": 1, "start_eid": 0, "end_eid": 3, "ne_id": -1, "text": "대뇌 신경세포의 광범위한 손상에", "start_eid_short": 3, "end_eid_short": 3, "text_short": "손상에"}
        ]}, 
        {"id": 5, "type": "TM_CELL_TISSUE", "number": "singular", "gender": "", "person": "", "animacy": "thing", "mention": [
            {"id": 11, "sent_id": 1, "start_eid": 0, "end_eid": 1, "ne_id": 0, "text": "대뇌 신경세포의", "start_eid_short": 0, "end_eid_short": 1, "text_short": "대뇌 신경세포의"}
        ]}, 
        {"id": 6, "type": "", "number": "singular", "gender": "", "person": "", "animacy": "thing", "mention": [
            {"id": 12, "sent_id": 1, "start_eid": 6, "end_eid": 6, "ne_id": -1, "text": "정신작용의", "start_eid_short": 6, "end_eid_short": 6, "text_short": "정신작용의"}
        ]}, 
        {"id": 7, "type": "", "number": "singular", "gender": "", "person": "", "animacy": "thing", "mention": [
            {"id": 6, "sent_id": 0, "start_eid": 5, "end_eid": 5, "ne_id": -1, "text": "지능,", "start_eid_short": 5, "end_eid_short": 5, "text_short": "지능,"}
        ]}, 
        {"id": 8, "type": "", "number": "singular", "gender": "", "person": "", "animacy": "thing", "mention": [
            {"id": 7, "sent_id": 0, "start_eid": 6, "end_eid": 6, "ne_id": -1, "text": "의지,", "start_eid_short": 6, "end_eid_short": 6, "text_short": "의지,"}
        ]}, 
        {"id": 9, "type": "", "number": "singular", "gender": "", "person": "", "animacy": "thing", "mention": [
            {"id": 8, "sent_id": 0, "start_eid": 7, "end_eid": 7, "ne_id": -1, "text": "기억", "start_eid_short": 7, "end_eid_short": 7, "text_short": "기억"}
        ]}
    ]
}