{
    "doc_id": "E2016.835.24_Q_01.json", 
    "DCT": "", 
    "category": "", 
    "category_weight": 0, 
    "title": {
        "text": "", 
        "NE": ""
    }, 
    "metaInfo": {}, 
    "sentence": [
        {
            "id": 0, 
            "reserve_str": "", 
            "text": "로마 건축의 특징적 양식이다.", 
            "morp": [
                {"id": 0, "lemma": "로마", "type": "NNP", "position": 0, "weight": 0.243702}, 
                {"id": 1, "lemma": "건축", "type": "NNG", "position": 7, "weight": 0.9}, 
                {"id": 2, "lemma": "의", "type": "JKG", "position": 13, "weight": 0.0694213}, 
                {"id": 3, "lemma": "특징", "type": "NNG", "position": 17, "weight": 0.9}, 
                {"id": 4, "lemma": "적", "type": "XSN", "position": 23, "weight": 0.0168756}, 
                {"id": 5, "lemma": "양식", "type": "NNG", "position": 27, "weight": 0.9}, 
                {"id": 6, "lemma": "이", "type": "VCP", "position": 33, "weight": 0.0177525}, 
                {"id": 7, "lemma": "다", "type": "EF", "position": 36, "weight": 0.353579}, 
                {"id": 8, "lemma": ".", "type": "SF", "position": 39, "weight": 1}
            ], 
            "morp_eval": [], 
            "WSD": [
                {"id": 0, "text": "로마", "type": "NNP", "scode": "020003", "weight": 0.2, "position": 0, "begin": 0, "end": 0}, 
                {"id": 1, "text": "건축", "type": "NNG", "scode": "010000", "weight": 0.5, "position": 7, "begin": 1, "end": 1}, 
                {"id": 2, "text": "의", "type": "JKG", "scode": "000000", "weight": 1, "position": 13, "begin": 2, "end": 2}, 
                {"id": 3, "text": "특징적", "type": "NNG", "scode": "000000", "weight": 1, "position": 17, "begin": 3, "end": 4}, 
                {"id": 4, "text": "양식", "type": "NNG", "scode": "040003", "weight": 0.111111, "position": 27, "begin": 5, "end": 5}, 
                {"id": 5, "text": "이", "type": "VCP", "scode": "030000", "weight": 0.0172414, "position": 33, "begin": 6, "end": 6}, 
                {"id": 6, "text": "다", "type": "EF", "scode": "000000", "weight": 1, "position": 36, "begin": 7, "end": 7}, 
                {"id": 7, "text": ".", "type": "SF", "scode": "000000", "weight": 1, "position": 39, "begin": 8, "end": 8}
            ], 
            "word": [
                {"id": 0, "text": "로마", "type": "", "begin": 0, "end": 0}, 
                {"id": 1, "text": "건축의", "type": "", "begin": 1, "end": 2}, 
                {"id": 2, "text": "특징적", "type": "", "begin": 3, "end": 4}, 
                {"id": 3, "text": "양식이다.", "type": "", "begin": 5, "end": 8}
            ], 
            "NE": [
                {"id": 0, "text": "로마", "type": "LCP_COUNTRY", "begin": 0, "end": 0, "weight": 0.125961, "common_noun": 0}
            ], 
            "chunk": [], 
            "dependency": [
                {"id": 0, "text": "로마", "head": 1, "label": "NP", "mod": [], "weight": 0.764168}, 
                {"id": 1, "text": "건축의", "head": 3, "label": "NP_MOD", "mod": [0], "weight": 0.834184}, 
                {"id": 2, "text": "특징적", "head": 3, "label": "NP", "mod": [], "weight": 0.730607}, 
                {"id": 3, "text": "양식이다.", "head": -1, "label": "VNP", "mod": [1, 2], "weight": 0.388513}
            ], 
            "SRL": [], 
            "relation": [], 
            "SA": [], 
            "ZA": []
        }, 
        {
            "id": 1, 
            "reserve_str": "", 
            "text": "건축물의 상부를 반원형으로 형성해 만든 것으로 이것 양식의 문이나 다리가 많은데, 2음절의 이것은?", 
            "morp": [
                {"id": 0, "lemma": "건축", "type": "NNG", "position": 40, "weight": 0.9}, 
                {"id": 1, "lemma": "물", "type": "XSN", "position": 46, "weight": 0.00142289}, 
                {"id": 2, "lemma": "의", "type": "JKG", "position": 49, "weight": 0.120732}, 
                {"id": 3, "lemma": "상부", "type": "NNG", "position": 53, "weight": 0.861567}, 
                {"id": 4, "lemma": "를", "type": "JKO", "position": 59, "weight": 0.137686}, 
                {"id": 5, "lemma": "반원", "type": "NNG", "position": 63, "weight": 0.9}, 
                {"id": 6, "lemma": "형", "type": "XSN", "position": 69, "weight": 0.0121759}, 
                {"id": 7, "lemma": "으로", "type": "JKB", "position": 72, "weight": 0.121717}, 
                {"id": 8, "lemma": "형성", "type": "NNG", "position": 79, "weight": 0.9}, 
                {"id": 9, "lemma": "하", "type": "XSV", "position": 85, "weight": 0.0001}, 
                {"id": 10, "lemma": "아", "type": "EC", "position": 85, "weight": 0.361326}, 
                {"id": 11, "lemma": "만들", "type": "VV", "position": 89, "weight": 0.9}, 
                {"id": 12, "lemma": "ㄴ", "type": "ETM", "position": 92, "weight": 0.304215}, 
                {"id": 13, "lemma": "것", "type": "NNB", "position": 96, "weight": 0.228788}, 
                {"id": 14, "lemma": "으로", "type": "JKB", "position": 99, "weight": 0.135596}, 
                {"id": 15, "lemma": "이것", "type": "NP", "position": 106, "weight": 0.0142697}, 
                {"id": 16, "lemma": "양식", "type": "NNG", "position": 113, "weight": 0.9}, 
                {"id": 17, "lemma": "의", "type": "JKG", "position": 119, "weight": 0.0694213}, 
                {"id": 18, "lemma": "문", "type": "NNG", "position": 123, "weight": 0.780894}, 
                {"id": 19, "lemma": "이나", "type": "JC", "position": 126, "weight": 0.0238189}, 
                {"id": 20, "lemma": "다리", "type": "NNG", "position": 133, "weight": 0.786141}, 
                {"id": 21, "lemma": "가", "type": "JKS", "position": 139, "weight": 0.066324}, 
                {"id": 22, "lemma": "많", "type": "VA", "position": 143, "weight": 0.249378}, 
                {"id": 23, "lemma": "은데", "type": "EC", "position": 146, "weight": 0.258482}, 
                {"id": 24, "lemma": ",", "type": "SP", "position": 152, "weight": 1}, 
                {"id": 25, "lemma": "2", "type": "SN", "position": 154, "weight": 1}, 
                {"id": 26, "lemma": "음절", "type": "NNG", "position": 155, "weight": 0.9}, 
                {"id": 27, "lemma": "의", "type": "JKG", "position": 161, "weight": 0.0694213}, 
                {"id": 28, "lemma": "이것", "type": "NP", "position": 165, "weight": 0.0030442}, 
                {"id": 29, "lemma": "은", "type": "JX", "position": 171, "weight": 0.191811}, 
                {"id": 30, "lemma": "?", "type": "SF", "position": 174, "weight": 1}
            ], 
            "morp_eval": [], 
            "WSD": [
                {"id": 0, "text": "건축물", "type": "NNG", "scode": "000000", "weight": 1, "position": 40, "begin": 0, "end": 1}, 
                {"id": 1, "text": "의", "type": "JKG", "scode": "000000", "weight": 1, "position": 49, "begin": 2, "end": 2}, 
                {"id": 2, "text": "상부", "type": "NNG", "scode": "030001", "weight": 0.0909091, "position": 53, "begin": 3, "end": 3}, 
                {"id": 3, "text": "를", "type": "JKO", "scode": "000000", "weight": 1, "position": 59, "begin": 4, "end": 4}, 
                {"id": 4, "text": "반원형", "type": "NNG", "scode": "000000", "weight": 1, "position": 63, "begin": 5, "end": 6}, 
                {"id": 5, "text": "으로", "type": "JKB", "scode": "000000", "weight": 1, "position": 72, "begin": 7, "end": 7}, 
                {"id": 6, "text": "형성하", "type": "VV", "scode": "000000", "weight": 1, "position": 79, "begin": 8, "end": 9}, 
                {"id": 7, "text": "아", "type": "EC", "scode": "000000", "weight": 1, "position": 85, "begin": 10, "end": 10}, 
                {"id": 8, "text": "만들", "type": "VV", "scode": "000101", "weight": 0.0769231, "position": 89, "begin": 11, "end": 11}, 
                {"id": 9, "text": "ㄴ", "type": "ETM", "scode": "000000", "weight": 1, "position": 92, "begin": 12, "end": 12}, 
                {"id": 10, "text": "것", "type": "NNB", "scode": "010001", "weight": 0.125, "position": 96, "begin": 13, "end": 13}, 
                {"id": 11, "text": "으로", "type": "JKB", "scode": "000000", "weight": 1, "position": 99, "begin": 14, "end": 14}, 
                {"id": 12, "text": "이것", "type": "NP", "scode": "000001", "weight": 0.25, "position": 106, "begin": 15, "end": 15}, 
                {"id": 13, "text": "양식", "type": "NNG", "scode": "040003", "weight": 0.111111, "position": 113, "begin": 16, "end": 16}, 
                {"id": 14, "text": "의", "type": "JKG", "scode": "000000", "weight": 1, "position": 119, "begin": 17, "end": 17}, 
                {"id": 15, "text": "문", "type": "NNG", "scode": "050001", "weight": 0.05, "position": 123, "begin": 18, "end": 18}, 
                {"id": 16, "text": "이나", "type": "JC", "scode": "000000", "weight": 1, "position": 126, "begin": 19, "end": 19}, 
                {"id": 17, "text": "다리", "type": "NNG", "scode": "020001", "weight": 0.111111, "position": 133, "begin": 20, "end": 20}, 
                {"id": 18, "text": "가", "type": "JKS", "scode": "000000", "weight": 1, "position": 139, "begin": 21, "end": 21}, 
                {"id": 19, "text": "많", "type": "VA", "scode": "000000", "weight": 1, "position": 143, "begin": 22, "end": 22}, 
                {"id": 20, "text": "은데", "type": "EC", "scode": "000000", "weight": 1, "position": 146, "begin": 23, "end": 23}, 
                {"id": 21, "text": ",", "type": "SP", "scode": "000000", "weight": 1, "position": 152, "begin": 24, "end": 24}, 
                {"id": 22, "text": "2", "type": "SN", "scode": "000000", "weight": 1, "position": 154, "begin": 25, "end": 25}, 
                {"id": 23, "text": "음절", "type": "NNG", "scode": "000001", "weight": 0.5, "position": 155, "begin": 26, "end": 26}, 
                {"id": 24, "text": "의", "type": "JKG", "scode": "000000", "weight": 1, "position": 161, "begin": 27, "end": 27}, 
                {"id": 25, "text": "이것", "type": "NP", "scode": "000001", "weight": 0.25, "position": 165, "begin": 28, "end": 28}, 
                {"id": 26, "text": "은", "type": "JX", "scode": "000000", "weight": 1, "position": 171, "begin": 29, "end": 29}, 
                {"id": 27, "text": "?", "type": "SF", "scode": "000000", "weight": 1, "position": 174, "begin": 30, "end": 30}
            ], 
            "word": [
                {"id": 0, "text": "건축물의", "type": "", "begin": 0, "end": 2}, 
                {"id": 1, "text": "상부를", "type": "", "begin": 3, "end": 4}, 
                {"id": 2, "text": "반원형으로", "type": "", "begin": 5, "end": 7}, 
                {"id": 3, "text": "형성해", "type": "", "begin": 8, "end": 10}, 
                {"id": 4, "text": "만든", "type": "", "begin": 11, "end": 12}, 
                {"id": 5, "text": "것으로", "type": "", "begin": 13, "end": 14}, 
                {"id": 6, "text": "이것", "type": "", "begin": 15, "end": 15}, 
                {"id": 7, "text": "양식의", "type": "", "begin": 16, "end": 17}, 
                {"id": 8, "text": "문이나", "type": "", "begin": 18, "end": 19}, 
                {"id": 9, "text": "다리가", "type": "", "begin": 20, "end": 21}, 
                {"id": 10, "text": "많은데,", "type": "", "begin": 22, "end": 24}, 
                {"id": 11, "text": "2음절의", "type": "", "begin": 25, "end": 27}, 
                {"id": 12, "text": "이것은?", "type": "", "begin": 28, "end": 30}
            ], 
            "NE": [
                {"id": 0, "text": "반원형", "type": "TM_SHAPE", "begin": 5, "end": 6, "weight": 1, "common_noun": 0}, 
                {"id": 1, "text": "2음절", "type": "QT_COUNT", "begin": 25, "end": 26, "weight": 0.503379, "common_noun": 0}
            ], 
            "chunk": [], 
            "dependency": [
                {"id": 0, "text": "건축물의", "head": 1, "label": "NP_MOD", "mod": [], "weight": 0.689493}, 
                {"id": 1, "text": "상부를", "head": 3, "label": "NP_OBJ", "mod": [0], "weight": 0.811601}, 
                {"id": 2, "text": "반원형으로", "head": 3, "label": "NP_AJT", "mod": [], "weight": 0.501467}, 
                {"id": 3, "text": "형성해", "head": 4, "label": "VP", "mod": [1, 2], "weight": 0.813499}, 
                {"id": 4, "text": "만든", "head": 5, "label": "VP_MOD", "mod": [3], "weight": 0.71424}, 
                {"id": 5, "text": "것으로", "head": 10, "label": "NP_AJT", "mod": [4], "weight": 0.290099}, 
                {"id": 6, "text": "이것", "head": 7, "label": "NP", "mod": [], "weight": 0.623129}, 
                {"id": 7, "text": "양식의", "head": 9, "label": "NP_MOD", "mod": [6], "weight": 0.610749}, 
                {"id": 8, "text": "문이나", "head": 9, "label": "NP_CNJ", "mod": [], "weight": 0.58621}, 
                {"id": 9, "text": "다리가", "head": 10, "label": "NP_SBJ", "mod": [7, 8], "weight": 0.693233}, 
                {"id": 10, "text": "많은데,", "head": 12, "label": "VP", "mod": [5, 9], "weight": 0.497977}, 
                {"id": 11, "text": "2음절의", "head": 12, "label": "NP_MOD", "mod": [], "weight": 0.670296}, 
                {"id": 12, "text": "이것은?", "head": -1, "label": "NP_SBJ", "mod": [10, 11], "weight": 0.00125043}
            ], 
            "SRL": [
                {"verb": "형성", "sense": 1, "word_id": 3, "weight": 0.204153, "argument": [
                    {"type": "ARG1", "word_id": 1, "text": "상부를", "weight": 0.293775}, 
                    {"type": "ARGM-PRD", "word_id": 2, "text": "반원형으로", "weight": 1}
                ]}, 
                {"verb": "만들", "sense": 1, "word_id": 4, "weight": 0.174481, "argument": [
                    {"type": "ARGM-MNR", "word_id": 3, "text": "형성해", "weight": 0.154422}, 
                    {"type": "ARG1", "word_id": 5, "text": "것으로", "weight": 0.19454}
                ]}, 
                {"verb": "많", "sense": 1, "word_id": 10, "weight": 0.180077, "argument": [
                    {"type": "ARGM-PRD", "word_id": 5, "text": "것으로", "weight": 1}, 
                    {"type": "ARG1", "word_id": 9, "text": "다리가", "weight": 0.209239}
                ]}
            ], 
            "relation": [], 
            "SA": [], 
            "ZA": []
        }
    ], 
    "entity": [
        {"id": 0, "type": "", "number": "singular", "gender": "", "person": "", "animacy": "thing", "mention": [
            {"id": 1, "sent_id": 0, "start_eid": 0, "end_eid": 1, "ne_id": -1, "text": "로마 건축의", "start_eid_short": 0, "end_eid_short": 1, "text_short": "로마 건축의"}
        ]}, 
        {"id": 1, "type": "", "number": "singular", "gender": "", "person": "", "animacy": "thing", "mention": [
            {"id": 4, "sent_id": 1, "start_eid": 0, "end_eid": 5, "ne_id": -1, "text": "건축물의 상부를 반원형으로 형성해 만든 것으로", "start_eid_short": 5, "end_eid_short": 5, "text_short": "것으로"}, 
            {"id": 10, "sent_id": 1, "start_eid": 6, "end_eid": 6, "ne_id": -1, "text": "이것", "start_eid_short": 6, "end_eid_short": 6, "text_short": "이것"}, 
            {"id": 14, "sent_id": 1, "start_eid": 12, "end_eid": 12, "ne_id": -1, "text": "이것은?", "start_eid_short": 12, "end_eid_short": 12, "text_short": "이것은?"}
        ]}, 
        {"id": 2, "type": "", "number": "singular", "gender": "", "person": "", "animacy": "thing", "mention": [
            {"id": 3, "sent_id": 0, "start_eid": 2, "end_eid": 2, "ne_id": -1, "text": "특징적", "start_eid_short": 2, "end_eid_short": 2, "text_short": "특징적"}
        ]}, 
        {"id": 3, "type": "", "number": "singular", "gender": "", "person": "", "animacy": "thing", "mention": [
            {"id": 5, "sent_id": 1, "start_eid": 0, "end_eid": 1, "ne_id": -1, "text": "건축물의 상부를", "start_eid_short": 1, "end_eid_short": 1, "text_short": "상부를"}
        ]}, 
        {"id": 4, "type": "", "number": "singular", "gender": "", "person": "", "animacy": "thing", "mention": [
            {"id": 6, "sent_id": 1, "start_eid": 0, "end_eid": 0, "ne_id": -1, "text": "건축물의", "start_eid_short": 0, "end_eid_short": 0, "text_short": "건축물의"}
        ]}, 
        {"id": 5, "type": "TM_SHAPE", "number": "singular", "gender": "", "person": "", "animacy": "thing", "mention": [
            {"id": 7, "sent_id": 1, "start_eid": 2, "end_eid": 2, "ne_id": 0, "text": "반원형으로", "start_eid_short": 2, "end_eid_short": 2, "text_short": "반원형으로"}
        ]}, 
        {"id": 6, "type": "", "number": "singular", "gender": "", "person": "", "animacy": "thing", "mention": [
            {"id": 9, "sent_id": 1, "start_eid": 6, "end_eid": 7, "ne_id": -1, "text": "이것 양식의", "start_eid_short": 6, "end_eid_short": 7, "text_short": "이것 양식의"}
        ]}, 
        {"id": 7, "type": "AM_PART", "number": "singular", "gender": "", "person": "", "animacy": "animal", "mention": [
            {"id": 8, "sent_id": 1, "start_eid": 6, "end_eid": 9, "ne_id": 1, "text": "이것 양식의 문이나 다리가", "start_eid_short": 9, "end_eid_short": 9, "text_short": "다리가"}
        ]}, 
        {"id": 8, "type": "", "number": "singular", "gender": "", "person": "", "animacy": "thing", "mention": [
            {"id": 11, "sent_id": 1, "start_eid": 8, "end_eid": 8, "ne_id": -1, "text": "문이나", "start_eid_short": 8, "end_eid_short": 8, "text_short": "문이나"}
        ]}, 
        {"id": 9, "type": "QT_COUNT", "number": "singular", "gender": "", "person": "", "animacy": "thing", "mention": [
            {"id": 13, "sent_id": 1, "start_eid": 11, "end_eid": 11, "ne_id": 2, "text": "2음절의", "start_eid_short": 11, "end_eid_short": 11, "text_short": "2음절의"}
        ]}, 
        {"id": 10, "type": "", "number": "singular", "gender": "", "person": "", "animacy": "thing", "mention": [
            {"id": 0, "sent_id": 0, "start_eid": 0, "end_eid": 3, "ne_id": -1, "text": "로마 건축의 특징적 양식이다.", "start_eid_short": 3, "end_eid_short": 3, "text_short": "양식이다."}
        ]}, 
        {"id": 11, "type": "LCP_COUNTRY", "number": "singular", "gender": "", "person": "", "animacy": "place", "mention": [
            {"id": 2, "sent_id": 0, "start_eid": 0, "end_eid": 0, "ne_id": 0, "text": "로마", "start_eid_short": 0, "end_eid_short": 0, "text_short": "로마"}
        ]}, 
        {"id": 12, "type": "AM_PART", "number": "singular", "gender": "", "person": "", "animacy": "animal", "mention": [
            {"id": 12, "sent_id": 1, "start_eid": 9, "end_eid": 9, "ne_id": 1, "text": "다리가", "start_eid_short": 9, "end_eid_short": 9, "text_short": "다리가"}
        ]}
    ]
}