{
    "doc_id": "E2016.835.07_Q_01.json", 
    "DCT": "", 
    "category": "", 
    "category_weight": 0, 
    "title": {
        "text": "", 
        "NE": ""
    }, 
    "metaInfo": {}, 
    "sentence": [
        {
            "id": 0, 
            "reserve_str": "", 
            "text": "1455~1485년까지 30년간 영국의 봉건 귀족인 랭커스터와 요크 두 가문 사이의 왕위 계승 문제를 둘러싸고 벌어진 이 전쟁은?", 
            "morp": [
                {"id": 0, "lemma": "1455", "type": "SN", "position": 0, "weight": 1}, 
                {"id": 1, "lemma": "~", "type": "SO", "position": 4, "weight": 1}, 
                {"id": 2, "lemma": "1485", "type": "SN", "position": 5, "weight": 1}, 
                {"id": 3, "lemma": "년", "type": "NNB", "position": 9, "weight": 0.414343}, 
                {"id": 4, "lemma": "까지", "type": "JX", "position": 12, "weight": 0.105153}, 
                {"id": 5, "lemma": "30", "type": "SN", "position": 19, "weight": 1}, 
                {"id": 6, "lemma": "년", "type": "NNB", "position": 21, "weight": 0.414343}, 
                {"id": 7, "lemma": "간", "type": "XSN", "position": 24, "weight": 0.0078671}, 
                {"id": 8, "lemma": "영국", "type": "NNP", "position": 28, "weight": 0.9}, 
                {"id": 9, "lemma": "의", "type": "JKG", "position": 34, "weight": 0.0987295}, 
                {"id": 10, "lemma": "봉건", "type": "NNG", "position": 38, "weight": 0.9}, 
                {"id": 11, "lemma": "귀족", "type": "NNG", "position": 45, "weight": 0.9}, 
                {"id": 12, "lemma": "이", "type": "VCP", "position": 51, "weight": 0.0177525}, 
                {"id": 13, "lemma": "ㄴ", "type": "ETM", "position": 51, "weight": 0.220712}, 
                {"id": 14, "lemma": "랭커스터", "type": "NNP", "position": 55, "weight": 0.4}, 
                {"id": 15, "lemma": "와", "type": "JC", "position": 67, "weight": 0.0104534}, 
                {"id": 16, "lemma": "요크", "type": "NNP", "position": 71, "weight": 0.173639}, 
                {"id": 17, "lemma": "두", "type": "MM", "position": 78, "weight": 0.00195503}, 
                {"id": 18, "lemma": "가문", "type": "NNG", "position": 82, "weight": 0.9}, 
                {"id": 19, "lemma": "사이", "type": "NNG", "position": 89, "weight": 0.184827}, 
                {"id": 20, "lemma": "의", "type": "JKG", "position": 95, "weight": 0.0694213}, 
                {"id": 21, "lemma": "왕위", "type": "NNG", "position": 99, "weight": 0.868777}, 
                {"id": 22, "lemma": "계승", "type": "NNG", "position": 106, "weight": 0.184153}, 
                {"id": 23, "lemma": "문제", "type": "NNG", "position": 113, "weight": 0.184611}, 
                {"id": 24, "lemma": "를", "type": "JKO", "position": 119, "weight": 0.137686}, 
                {"id": 25, "lemma": "둘러싸", "type": "VV", "position": 123, "weight": 0.9}, 
                {"id": 26, "lemma": "고", "type": "EC", "position": 132, "weight": 0.416679}, 
                {"id": 27, "lemma": "벌어지", "type": "VV", "position": 136, "weight": 0.9}, 
                {"id": 28, "lemma": "ㄴ", "type": "ETM", "position": 142, "weight": 0.304215}, 
                {"id": 29, "lemma": "이", "type": "MM", "position": 146, "weight": 0.00060084}, 
                {"id": 30, "lemma": "전쟁", "type": "NNG", "position": 150, "weight": 0.9}, 
                {"id": 31, "lemma": "은", "type": "JX", "position": 156, "weight": 0.0449928}, 
                {"id": 32, "lemma": "?", "type": "SF", "position": 159, "weight": 1}
            ], 
            "morp_eval": [], 
            "WSD": [
                {"id": 0, "text": "1455", "type": "SN", "scode": "000000", "weight": 1, "position": 0, "begin": 0, "end": 0}, 
                {"id": 1, "text": "~", "type": "SO", "scode": "000000", "weight": 1, "position": 4, "begin": 1, "end": 1}, 
                {"id": 2, "text": "1485", "type": "SN", "scode": "000000", "weight": 1, "position": 5, "begin": 2, "end": 2}, 
                {"id": 3, "text": "년", "type": "NNB", "scode": "020000", "weight": 0.166667, "position": 9, "begin": 3, "end": 3}, 
                {"id": 4, "text": "까지", "type": "JX", "scode": "000000", "weight": 1, "position": 12, "begin": 4, "end": 4}, 
                {"id": 5, "text": "30", "type": "SN", "scode": "000000", "weight": 1, "position": 19, "begin": 5, "end": 5}, 
                {"id": 6, "text": "년", "type": "NNB", "scode": "020000", "weight": 0.166667, "position": 21, "begin": 6, "end": 6}, 
                {"id": 7, "text": "간", "type": "XSN", "scode": "160001", "weight": 0.0357143, "position": 24, "begin": 7, "end": 7}, 
                {"id": 8, "text": "영국", "type": "NNP", "scode": "010000", "weight": 0.5, "position": 28, "begin": 8, "end": 8}, 
                {"id": 9, "text": "의", "type": "JKG", "scode": "000000", "weight": 1, "position": 34, "begin": 9, "end": 9}, 
                {"id": 10, "text": "봉건", "type": "NNG", "scode": "000002", "weight": 0.333333, "position": 38, "begin": 10, "end": 10}, 
                {"id": 11, "text": "귀족", "type": "NNG", "scode": "010000", "weight": 0.5, "position": 45, "begin": 11, "end": 11}, 
                {"id": 12, "text": "이", "type": "VCP", "scode": "030000", "weight": 0.0172414, "position": 51, "begin": 12, "end": 12}, 
                {"id": 13, "text": "ㄴ", "type": "ETM", "scode": "000000", "weight": 1, "position": 51, "begin": 13, "end": 13}, 
                {"id": 14, "text": "랭커스터", "type": "NNP", "scode": "888888", "weight": 0.5, "position": 55, "begin": 14, "end": 14}, 
                {"id": 15, "text": "와", "type": "JC", "scode": "000000", "weight": 1, "position": 67, "begin": 15, "end": 15}, 
                {"id": 16, "text": "요크", "type": "NNP", "scode": "888888", "weight": 1, "position": 71, "begin": 16, "end": 16}, 
                {"id": 17, "text": "두", "type": "MM", "scode": "010000", "weight": 0.0909091, "position": 78, "begin": 17, "end": 17}, 
                {"id": 18, "text": "가문", "type": "NNG", "scode": "010000", "weight": 0.2, "position": 82, "begin": 18, "end": 18}, 
                {"id": 19, "text": "사이", "type": "NNG", "scode": "010004", "weight": 0.0833333, "position": 89, "begin": 19, "end": 19}, 
                {"id": 20, "text": "의", "type": "JKG", "scode": "000000", "weight": 1, "position": 95, "begin": 20, "end": 20}, 
                {"id": 21, "text": "왕위", "type": "NNG", "scode": "010000", "weight": 0.5, "position": 99, "begin": 21, "end": 21}, 
                {"id": 22, "text": "계승", "type": "NNG", "scode": "020001", "weight": 0.25, "position": 106, "begin": 22, "end": 22}, 
                {"id": 23, "text": "문제", "type": "NNG", "scode": "060002", "weight": 0.1, "position": 113, "begin": 23, "end": 23}, 
                {"id": 24, "text": "를", "type": "JKO", "scode": "000000", "weight": 1, "position": 119, "begin": 24, "end": 24}, 
                {"id": 25, "text": "둘러싸", "type": "VV", "scode": "000202", "weight": 0.333333, "position": 123, "begin": 25, "end": 25}, 
                {"id": 26, "text": "고", "type": "EC", "scode": "000000", "weight": 1, "position": 132, "begin": 26, "end": 26}, 
                {"id": 27, "text": "벌어지", "type": "VV", "scode": "020000", "weight": 0.111111, "position": 136, "begin": 27, "end": 27}, 
                {"id": 28, "text": "ㄴ", "type": "ETM", "scode": "000000", "weight": 1, "position": 142, "begin": 28, "end": 28}, 
                {"id": 29, "text": "이", "type": "MM", "scode": "050102", "weight": 0.0172414, "position": 146, "begin": 29, "end": 29}, 
                {"id": 30, "text": "전쟁", "type": "NNG", "scode": "000001", "weight": 0.5, "position": 150, "begin": 30, "end": 30}, 
                {"id": 31, "text": "은", "type": "JX", "scode": "000000", "weight": 1, "position": 156, "begin": 31, "end": 31}, 
                {"id": 32, "text": "?", "type": "SF", "scode": "000000", "weight": 1, "position": 159, "begin": 32, "end": 32}
            ], 
            "word": [
                {"id": 0, "text": "1455~1485년까지", "type": "", "begin": 0, "end": 4}, 
                {"id": 1, "text": "30년간", "type": "", "begin": 5, "end": 7}, 
                {"id": 2, "text": "영국의", "type": "", "begin": 8, "end": 9}, 
                {"id": 3, "text": "봉건", "type": "", "begin": 10, "end": 10}, 
                {"id": 4, "text": "귀족인", "type": "", "begin": 11, "end": 13}, 
                {"id": 5, "text": "랭커스터와", "type": "", "begin": 14, "end": 15}, 
                {"id": 6, "text": "요크", "type": "", "begin": 16, "end": 16}, 
                {"id": 7, "text": "두", "type": "", "begin": 17, "end": 17}, 
                {"id": 8, "text": "가문", "type": "", "begin": 18, "end": 18}, 
                {"id": 9, "text": "사이의", "type": "", "begin": 19, "end": 20}, 
                {"id": 10, "text": "왕위", "type": "", "begin": 21, "end": 21}, 
                {"id": 11, "text": "계승", "type": "", "begin": 22, "end": 22}, 
                {"id": 12, "text": "문제를", "type": "", "begin": 23, "end": 24}, 
                {"id": 13, "text": "둘러싸고", "type": "", "begin": 25, "end": 26}, 
                {"id": 14, "text": "벌어진", "type": "", "begin": 27, "end": 28}, 
                {"id": 15, "text": "이", "type": "", "begin": 29, "end": 29}, 
                {"id": 16, "text": "전쟁은?", "type": "", "begin": 30, "end": 32}
            ], 
            "NE": [
                {"id": 0, "text": "1455~1485년까지", "type": "DT_DURATION", "begin": 0, "end": 4, "weight": 0.563936, "common_noun": 0}, 
                {"id": 1, "text": "30년간", "type": "DT_DURATION", "begin": 5, "end": 7, "weight": 0.869634, "common_noun": 0}, 
                {"id": 2, "text": "영국", "type": "LCP_COUNTRY", "begin": 8, "end": 8, "weight": 0.638298, "common_noun": 0}, 
                {"id": 3, "text": "귀족", "type": "CV_POSITION", "begin": 11, "end": 11, "weight": 0.461366, "common_noun": 0}, 
                {"id": 4, "text": "랭커스터", "type": "OG_OTHERS", "begin": 14, "end": 14, "weight": 0.330125, "common_noun": 0}, 
                {"id": 5, "text": "요크", "type": "OG_OTHERS", "begin": 16, "end": 16, "weight": 0.240783, "common_noun": 0}, 
                {"id": 6, "text": "두 가문", "type": "QT_COUNT", "begin": 17, "end": 18, "weight": 0.389249, "common_noun": 0}
            ], 
            "chunk": [], 
            "dependency": [
                {"id": 0, "text": "1455~1485년까지", "head": 14, "label": "NP_AJT", "mod": [], "weight": 0.377166}, 
                {"id": 1, "text": "30년간", "head": 14, "label": "NP_AJT", "mod": [], "weight": 0.0867109}, 
                {"id": 2, "text": "영국의", "head": 4, "label": "NP_MOD", "mod": [], "weight": 0.825634}, 
                {"id": 3, "text": "봉건", "head": 4, "label": "NP", "mod": [], "weight": 0.661006}, 
                {"id": 4, "text": "귀족인", "head": 6, "label": "VNP_MOD", "mod": [2, 3], "weight": 0.0299261}, 
                {"id": 5, "text": "랭커스터와", "head": 6, "label": "NP_CNJ", "mod": [], "weight": 0.476882}, 
                {"id": 6, "text": "요크", "head": 8, "label": "NP", "mod": [5, 4], "weight": 0.453651}, 
                {"id": 7, "text": "두", "head": 8, "label": "DP", "mod": [], "weight": 0.565009}, 
                {"id": 8, "text": "가문", "head": 9, "label": "NP", "mod": [6, 7], "weight": 0.800593}, 
                {"id": 9, "text": "사이의", "head": 12, "label": "NP_MOD", "mod": [8], "weight": 0.704395}, 
                {"id": 10, "text": "왕위", "head": 11, "label": "NP", "mod": [], "weight": 0.441628}, 
                {"id": 11, "text": "계승", "head": 12, "label": "NP", "mod": [10], "weight": 0.787747}, 
                {"id": 12, "text": "문제를", "head": 13, "label": "NP_OBJ", "mod": [9, 11], "weight": 0.761888}, 
                {"id": 13, "text": "둘러싸고", "head": 14, "label": "VP", "mod": [12], "weight": 0.79438}, 
                {"id": 14, "text": "벌어진", "head": 16, "label": "VP_MOD", "mod": [13, 0, 1], "weight": 0.748261}, 
                {"id": 15, "text": "이", "head": 16, "label": "DP", "mod": [], "weight": 0.715663}, 
                {"id": 16, "text": "전쟁은?", "head": -1, "label": "NP_SBJ", "mod": [14, 15], "weight": 1.70762e-06}
            ], 
            "SRL": [
                {"verb": "둘러싸", "sense": 1, "word_id": 13, "weight": 0.233903, "argument": [
                    {"type": "ARG1", "word_id": 12, "text": "문제를", "weight": 0.233903}
                ]}, 
                {"verb": "벌어지", "sense": 1, "word_id": 14, "weight": 0.142142, "argument": [
                    {"type": "ARG1", "word_id": 16, "text": "전쟁은?", "weight": 0.175505}, 
                    {"type": "ARGM-TMP", "word_id": 1, "text": "30년간", "weight": 1}, 
                    {"type": "ARGM-TMP", "word_id": 0, "text": "1455~1485년까지", "weight": 1}, 
                    {"type": "ARGM-CAU", "word_id": 13, "text": "둘러싸고", "weight": 1}
                ]}
            ], 
            "relation": [], 
            "SA": [], 
            "ZA": []
        }
    ], 
    "entity": [
        {"id": 0, "type": "DT_DURATION", "number": "singular", "gender": "", "person": "", "animacy": "time", "mention": [
            {"id": 0, "sent_id": 0, "start_eid": 0, "end_eid": 0, "ne_id": 0, "text": "1455~1485년까지", "start_eid_short": 0, "end_eid_short": 0, "text_short": "1455~1485년까지"}
        ]}, 
        {"id": 1, "type": "DT_DURATION", "number": "singular", "gender": "", "person": "", "animacy": "time", "mention": [
            {"id": 1, "sent_id": 0, "start_eid": 1, "end_eid": 1, "ne_id": 1, "text": "30년간", "start_eid_short": 1, "end_eid_short": 1, "text_short": "30년간"}
        ]}, 
        {"id": 2, "type": "OG_OTHERS", "number": "plural", "gender": "", "person": "", "animacy": "thing", "mention": [
            {"id": 4, "sent_id": 0, "start_eid": 2, "end_eid": 6, "ne_id": 5, "text": "영국의 봉건 귀족인 랭커스터와 요크", "start_eid_short": 6, "end_eid_short": 6, "text_short": "요크"}
        ]}, 
        {"id": 3, "type": "LCP_COUNTRY", "number": "singular", "gender": "", "person": "", "animacy": "place", "mention": [
            {"id": 6, "sent_id": 0, "start_eid": 2, "end_eid": 2, "ne_id": 2, "text": "영국의", "start_eid_short": 2, "end_eid_short": 2, "text_short": "영국의"}
        ]}, 
        {"id": 4, "type": "", "number": "singular", "gender": "", "person": "", "animacy": "thing", "mention": [
            {"id": 7, "sent_id": 0, "start_eid": 3, "end_eid": 3, "ne_id": -1, "text": "봉건", "start_eid_short": 3, "end_eid_short": 3, "text_short": "봉건"}
        ]}, 
        {"id": 5, "type": "CV_POSITION", "number": "singular", "gender": "", "person": "", "animacy": "human", "mention": [
            {"id": 5, "sent_id": 0, "start_eid": 2, "end_eid": 4, "ne_id": 3, "text": "영국의 봉건 귀족인", "start_eid_short": 4, "end_eid_short": 4, "text_short": "귀족인"}
        ]}, 
        {"id": 6, "type": "", "number": "singular", "gender": "", "person": "", "animacy": "thing", "mention": [
            {"id": 12, "sent_id": 0, "start_eid": 15, "end_eid": 16, "ne_id": -1, "text": "이 전쟁은?", "start_eid_short": 16, "end_eid_short": 16, "text_short": "전쟁은?"}
        ]}, 
        {"id": 7, "type": "LCP_CITY", "number": "singular", "gender": "", "person": "", "animacy": "place", "mention": [
            {"id": 8, "sent_id": 0, "start_eid": 5, "end_eid": 5, "ne_id": 4, "text": "랭커스터와", "start_eid_short": 5, "end_eid_short": 5, "text_short": "랭커스터와"}
        ]}, 
        {"id": 8, "type": "QT_COUNT", "number": "plural", "gender": "", "person": "", "animacy": "thing", "mention": [
            {"id": 3, "sent_id": 0, "start_eid": 2, "end_eid": 8, "ne_id": 6, "text": "영국의 봉건 귀족인 랭커스터와 요크 두 가문", "start_eid_short": 8, "end_eid_short": 8, "text_short": "가문"}
        ]}, 
        {"id": 9, "type": "", "number": "singular", "gender": "", "person": "", "animacy": "thing", "mention": [
            {"id": 2, "sent_id": 0, "start_eid": 2, "end_eid": 12, "ne_id": -1, "text": "영국의 봉건 귀족인 랭커스터와 요크 두 가문 사이의 왕위 계승 문제를", "start_eid_short": 10, "end_eid_short": 12, "text_short": "왕위 계승 문제를"}
        ]}, 
        {"id": 10, "type": "", "number": "singular", "gender": "", "person": "", "animacy": "thing", "mention": [
            {"id": 10, "sent_id": 0, "start_eid": 10, "end_eid": 11, "ne_id": -1, "text": "왕위 계승", "start_eid_short": 10, "end_eid_short": 11, "text_short": "왕위 계승"}
        ]}, 
        {"id": 11, "type": "", "number": "singular", "gender": "", "person": "", "animacy": "thing", "mention": [
            {"id": 11, "sent_id": 0, "start_eid": 10, "end_eid": 10, "ne_id": -1, "text": "왕위", "start_eid_short": 10, "end_eid_short": 10, "text_short": "왕위"}
        ]}, 
        {"id": 12, "type": "OG_OTHERS", "number": "singular", "gender": "", "person": "", "animacy": "thing", "mention": [
            {"id": 9, "sent_id": 0, "start_eid": 6, "end_eid": 6, "ne_id": 5, "text": "요크", "start_eid_short": 6, "end_eid_short": 6, "text_short": "요크"}
        ]}
    ]
}